206
 generated by VMD
 Ir       46.545288       68.411743     -117.700928
 C        45.030403       68.158829     -121.835266
 C        43.947533       67.929703     -120.985855
 N        46.178383       68.409958     -120.933060
 C        45.789078       68.331146     -119.621826
 N        44.369438       68.077454     -119.670456
 C        43.637466       68.347931     -118.491821
 C        44.489708       68.416977     -117.335876
 C        43.823601       68.461777     -116.086357
 H        44.457916       68.469681     -115.138420
 C        42.442726       68.492661     -115.946297
 H        41.916382       68.708191     -115.022224
 C        41.650852       68.396454     -117.106552
 H        40.563759       68.433548     -117.020821
 C        42.189445       68.399460     -118.401428
 H        41.603737       68.734413     -119.157829
 C        42.767151       67.495972     -121.515358
 H        41.992630       67.162727     -120.795868
 C        42.669319       67.385544     -122.888947
 H        41.729351       66.944229     -123.251282
 C        43.682434       67.784653     -123.744576
 H        43.398087       67.828171     -124.848328
 C        44.911179       68.129868     -123.186356
 H        45.736969       68.234001     -123.925369
 C        47.544830       68.476562     -121.333282
 C        48.186623       69.784081     -121.510757
 H        47.572998       70.488510     -121.969162
 C        49.542549       69.730194     -121.902512
 H        49.999115       70.723511     -121.998360
 C        50.254410       68.549271     -122.079002
 H        51.269234       68.568085     -122.462646
 C        49.640850       67.314453     -121.871246
 H        50.182320       66.390953     -121.879532
 C        48.297432       67.299583     -121.520935
 H        47.782257       66.328514     -121.783653
 C        46.576561       72.825546     -117.554428
 C        46.971443       72.376205     -116.289497
 N        46.301929       71.651245     -118.319473
 C        46.475136       70.490417     -117.533760
 N        46.884071       70.996185     -116.335991
 C        46.960556       69.966965     -115.274185
 C        46.952698       68.601288     -115.643745
 C        47.468803       67.659393     -114.729263
 H        47.449341       66.639359     -115.072418
 C        47.966507       68.049500     -113.508278
 H        48.022194       67.290009     -112.767426
 C        47.888573       69.401062     -113.044693
 H        47.805386       69.557785     -111.993118
 C        47.352741       70.329376     -113.964325
 H        46.964523       71.198135     -113.505341
 C        47.331646       73.304489     -115.281219
 H        47.748032       72.989105     -114.374329
 C        47.135155       74.701385     -115.512466
 H        47.246368       75.430511     -114.695335
 C        46.818840       75.173943     -116.751152
 H        47.117481       76.150787     -117.053131
 C        46.540409       74.262329     -117.786537
 H        46.322739       74.757324     -118.665970
 C        45.511097       71.773666     -119.497017
 C        44.138058       71.573212     -119.320709
 H        43.708443       71.258133     -118.339104
 C        43.271011       71.856316     -120.396896
 H        42.208458       71.783081     -120.386169
 C        43.754227       72.399857     -121.603737
 H        43.101555       72.810928     -122.246033
 C        45.125244       72.538956     -121.746429
 H        45.720573       72.753632     -122.651474
 C        45.994629       72.223022     -120.709190
 H        47.075340       72.232864     -120.855392
 C        50.847481       67.715652     -118.442589
 C        50.201447       66.503616     -118.694954
 N        49.798935       68.621185     -117.997772
 C        48.574280       67.976624     -117.956940
 N        48.800522       66.706528     -118.387840
 C        47.735832       65.820129     -118.341576
 C        46.639473       66.307426     -117.601143
 C        45.591103       65.443161     -117.326088
 H        44.750389       65.783340     -116.672264
 C        45.541466       64.117043     -117.834183
 H        44.535011       63.724682     -118.090302
 C        46.623085       63.684593     -118.662788
 H        46.788345       62.618484     -118.912384
 C        47.677132       64.542664     -118.865524
 H        48.450531       64.384331     -119.566231
 C        50.946186       65.478134     -119.252052
 H        50.535141       64.467834     -119.246971
 C        52.291164       65.706818     -119.628395
 H        52.849640       64.992447     -120.253433
 C        52.965279       66.924530     -119.343170
 H        53.997150       66.958633     -119.677055
 C        52.198082       67.915802     -118.745758
 H        52.752388       68.746063     -118.300438
 C        50.057999       69.983231     -117.473999
 C        49.762405       71.065170     -118.223686
 H        49.215775       71.054169     -119.130371
 C        50.098999       72.368622     -117.823036
 H        49.771400       73.230003     -118.373398
 C        50.766743       72.561584     -116.597725
 H        50.928986       73.474167     -116.129791
 C        51.214165       71.460403     -115.874054
 H        51.595222       71.604935     -114.879311
 C        50.746048       70.207306     -116.253151
 H        51.108135       69.338547     -115.776649
 Ir       46.545284       68.411743     -102.353996
 C        46.292145       69.673431     -106.479599
 C        46.906693       68.389862     -106.536957
 N        46.232800       70.068665     -105.157761
 C        46.705357       69.091385     -104.352135
 N        47.087135       68.064415     -105.204468
 C        47.812973       66.984406     -104.612839
 C        47.781258       66.955948     -103.250671
 C        48.505100       65.939873     -102.625748
 H        48.779907       65.972153     -101.529968
 C        49.355083       65.058609     -103.267235
 H        49.881527       64.318573     -102.691650
 C        49.458199       65.050278     -104.650604
 H        49.967213       64.274864     -105.119354
 C        48.648487       66.041458     -105.346985
 H        48.695229       66.115234     -106.458908
 C        47.101120       67.832016     -107.772713
 H        47.611176       66.876236     -107.925125
 C        46.787704       68.608932     -108.892868
 H        46.795181       68.129242     -109.851425
 C        46.171093       69.808792     -108.801048
 H        45.817535       70.234192     -109.753220
 C        45.889370       70.423203     -107.613052
 H        45.289246       71.301147     -107.628952
 C        45.929726       71.368164     -104.781921
 C        44.613243       71.677444     -104.379654
 H        43.969818       70.852417     -104.341827
 C        44.286423       72.965935     -103.942047
 H        43.247665       73.371017     -103.827171
 C        45.359650       73.899902     -103.796829
 H        45.131371       74.891922     -103.498863
 C        46.676758       73.630493     -104.209557
 H        47.502937       74.370422     -104.121056
 C        46.956108       72.353882     -104.690819
 H        47.823578       72.145508     -105.289803
 C        42.835884       66.231621     -102.475250
 C        43.463844       65.784515     -101.254692
 N        43.794395       66.924622     -103.255768
 C        45.034981       67.002029     -102.561020
 N        44.769196       66.330078     -101.304817
 C        45.834892       66.341087     -100.366966
 C        46.681351       67.477234     -100.449356
 C        47.437218       67.879745      -99.356812
 H        48.204952       68.572098      -99.462791
 C        47.271069       67.243713      -98.091522
 H        47.792778       67.573746      -97.270302
 C        46.432777       66.135590      -97.978317
 H        46.197632       65.696609      -97.065468
 C        45.823914       65.621033      -99.183281
 H        45.642376       64.599930      -99.329887
 C        42.652382       65.184631     -100.253708
 H        43.072456       65.052277      -99.241531
 C        41.295807       64.935959     -100.518433
 H        40.611649       64.597900      -99.802307
 C        40.687424       65.329613     -101.731277
 H        39.592773       65.161873     -101.853363
 C        41.414879       65.990326     -102.667908
 H        40.867878       66.496132     -103.401634
 C        43.688702       66.920258     -104.665268
 C        44.430412       66.002213     -105.338753
 H        44.894127       65.196854     -104.719589
 C        44.047836       65.711639     -106.641830
 H        44.795036       65.176880     -107.240005
 C        43.087830       66.457031     -107.337814
 H        42.841511       66.255615     -108.407463
 C        42.467133       67.557770     -106.677513
 H        41.911930       68.229927     -107.274643
 C        42.766151       67.756729     -105.317657
 H        42.174881       68.280472     -104.646927
 C        44.739536       72.088394     -100.644127
 C        46.062408       72.268532     -100.652290
 N        44.494415       70.792847     -101.066490
 C        45.704796       70.084778     -101.370163
 N        46.715240       71.022491     -101.013657
 C        48.074318       70.540756     -101.124290
 C        48.234230       69.602844     -102.118896
 C        49.511093       69.336205     -102.695541
 H        49.818382       68.750771     -103.475121
 C        50.581135       70.003006     -102.163666
 H        51.556400       69.949982     -102.555893
 C        50.403812       70.860626     -101.045975
 H        51.308952       71.278229     -100.604118
 C        49.167740       71.153564     -100.481339
 H        48.889702       71.642883      -99.521469
 C        46.593170       73.530716     -100.148727
 H        47.664894       73.599998     -100.145309
 C        45.743076       74.504135      -99.672180
 H        46.230049       75.390961      -99.273422
 C        44.380226       74.301651      -99.665558
 H        43.739182       75.166122      -99.333687
 C        43.888153       73.085007     -100.146133
 H        42.837269       72.905182      -99.996109
 C        43.300243       70.098038     -100.699089
 C        43.263386       69.489166      -99.418106
 H        43.865868       69.867844      -98.607346
 C        42.157375       68.672691      -99.184212
 H        42.070702       68.153946      -98.241447
 C        41.186180       68.470749     -100.194260
 H        40.455772       67.699493     -100.042664
 C        41.220512       69.148354     -101.433197
 H        40.517876       69.092117     -102.244392
 C        42.336685       69.928909     -101.669586
 H        42.515839       70.195335     -102.650917
