206
 generated by VMD
 Ir       53.084530      -17.988464       63.897907
 C        55.838940      -14.706228       63.091949
 C        55.913788      -14.892856       64.452454
 N        54.843529      -15.573599       62.609943
 C        54.293022      -16.329794       63.622128
 N        54.928665      -15.857600       64.771515
 C        54.322746      -16.269020       66.003830
 C        53.323952      -17.256378       65.868805
 C        52.666794      -17.702690       67.014771
 H        51.884743      -18.439953       66.931442
 C        52.996944      -17.217270       68.276421
 H        52.563866      -17.659420       69.153374
 C        53.982407      -16.226166       68.408585
 H        54.248497      -15.865951       69.385948
 C        54.636711      -15.752039       67.277390
 H        55.337788      -14.940404       67.381027
 C        56.903191      -14.206409       65.179062
 H        57.077351      -14.420018       66.217056
 C        57.787262      -13.344374       64.532990
 H        58.592823      -12.883545       65.086975
 C        57.678204      -13.133477       63.154022
 H        58.352604      -12.459037       62.644501
 C        56.690712      -13.810654       62.430641
 H        56.589031      -13.617563       61.377609
 C        54.208755      -15.373123       61.324852
 C        53.053963      -14.594431       61.260063
 H        52.746025      -13.996844       62.112743
 C        52.307899      -14.548217       60.081356
 H        51.374680      -13.991070       60.056824
 C        52.711887      -15.276945       58.959465
 H        52.117290      -15.282074       58.055565
 C        53.880013      -16.059387       59.027119
 H        54.116085      -16.736864       58.229687
 C        54.627991      -16.096331       60.209045
 H        55.530529      -16.688787       60.260265
 C        55.916664      -20.702099       65.770065
 C        54.709068      -21.362804       65.812241
 N        55.719654      -19.562595       64.967865
 C        54.412331      -19.452730       64.528519
 N        53.806599      -20.604538       65.036179
 C        52.415218      -20.742054       64.768684
 C        51.771152      -19.525467       64.506393
 C        50.363029      -19.522568       64.465408
 H        49.838699      -18.591064       64.424461
 C        49.637424      -20.708239       64.614349
 H        48.557190      -20.680128       64.616409
 C        50.295052      -21.919098       64.821106
 H        49.735046      -22.835720       64.935585
 C        51.689655      -21.942516       64.898102
 H        52.203468      -22.883291       64.940933
 C        54.585701      -22.529499       66.603638
 H        53.642326      -23.036770       66.699142
 C        55.683403      -23.000172       67.336380
 H        55.587948      -23.891468       67.939697
 C        56.900608      -22.307903       67.290802
 H        57.748405      -22.647552       67.857185
 C        57.011551      -21.159752       66.498062
 H        57.945114      -20.610085       66.503586
 C        56.806198      -18.749718       64.467010
 C        56.980133      -18.621105       63.094643
 H        56.390251      -19.211929       62.414223
 C        57.925735      -17.724382       62.591423
 H        58.074646      -17.633888       61.529572
 C        58.715462      -16.963772       63.471428
 H        59.460941      -16.291723       63.081665
 C        58.547165      -17.118425       64.853294
 H        59.173210      -16.557390       65.535866
 C        57.598743      -18.002129       65.351761
 H        57.488815      -18.135433       66.420517
 C        52.296917      -18.886635       59.690582
 C        51.183113      -18.208031       60.106323
 N        53.108643      -19.081383       60.823177
 C        52.557510      -18.497231       61.951859
 N        51.365562      -17.939995       61.491371
 C        50.726372      -17.003889       62.373726
 C        51.485832      -16.645124       63.496628
 C        51.154701      -15.488094       64.212265
 H        51.737587      -15.207981       65.076828
 C        50.084084      -14.688055       63.819054
 H        49.856934      -13.788824       64.376808
 C        49.297771      -15.063588       62.729286
 H        48.449509      -14.463012       62.436436
 C        49.605927      -16.233639       62.033714
 H        48.847416      -16.666449       61.402252
 C        50.187920      -17.887245       59.154434
 H        49.250458      -17.442589       59.455833
 C        50.351364      -18.206215       57.803566
 H        49.551437      -18.012913       57.102314
 C        51.510036      -18.860756       57.385056
 H        51.704155      -19.022953       56.340591
 C        52.482292      -19.209351       58.337479
 H        53.362537      -19.726194       57.998455
 C        54.140152      -20.097355       60.836983
 C        53.971977      -21.219469       61.650856
 H        53.079102      -21.327377       62.242908
 C        54.906418      -22.257317       61.599083
 H        54.830738      -23.072884       62.314079
 C        55.974728      -22.202641       60.714813
 H        56.695061      -23.006130       60.674557
 C        56.124878      -21.087818       59.870579
 H        56.901787      -21.085014       59.122307
 C        55.218971      -20.033405       59.950832
 H        55.360237      -19.155132       59.326752
 Ir       53.084526      -17.988464       74.008133
 C        52.042664      -15.689884       77.538963
 C        51.690674      -14.892767       76.479553
 N        52.752899      -16.787014       77.015366
 C        52.804691      -16.726837       75.633125
 N        52.181732      -15.521291       75.328033
 C        52.217865      -15.160295       73.958588
 C        52.282692      -16.262442       73.088135
 C        52.085911      -16.036547       71.718124
 H        51.943558      -16.880890       71.066803
 C        51.921532      -14.745794       71.206024
 H        51.793083      -14.599055       70.147079
 C        51.924408      -13.645629       72.072990
 H        51.870567      -12.637774       71.688370
 C        52.065910      -13.851005       73.447830
 H        52.164402      -12.999160       74.103622
 C        50.920517      -13.740749       76.725853
 H        50.684471      -13.065388       75.916672
 C        50.499855      -13.422933       78.015594
 H        49.939346      -12.521838       78.207596
 C        50.853844      -14.255361       79.082291
 H        50.503624      -14.044418       80.079262
 C        51.638149      -15.388837       78.836327
 H        51.981049      -15.986492       79.668808
 C        53.747993      -17.441534       77.810341
 C        54.845333      -16.698635       78.248573
 H        54.986832      -15.689424       77.899185
 C        55.769707      -17.264198       79.139908
 H        56.586716      -16.672756       79.497665
 C        55.594818      -18.581932       79.589790
 H        56.300858      -19.003448       80.289597
 C        54.499435      -19.330353       79.135254
 H        54.381821      -20.348835       79.466110
 C        53.581707      -18.759266       78.255119
 H        52.803047      -19.376545       77.824829
 C        49.299065      -20.123604       73.895828
 C        49.881721      -20.438293       72.687027
 N        50.114952      -19.156033       74.506409
 C        51.221603      -18.862301       73.749451
 N        51.083931      -19.658634       72.616180
 C        52.178978      -19.641037       71.698593
 C        53.337090      -18.983757       72.160843
 C        54.519970      -19.085732       71.410851
 H        55.421673      -18.603970       71.754562
 C        54.570465      -19.815403       70.222351
 H        55.485817      -19.880297       69.648575
 C        53.420052      -20.450394       69.753479
 H        53.425285      -20.972782       68.802223
 C        52.223877      -20.359459       70.481079
 H        51.324608      -20.744354       70.043503
 C        49.267754      -21.407433       71.868042
 H        49.646400      -21.655663       70.899384
 C        48.091064      -22.045319       72.291466
 H        47.574421      -22.718012       71.616882
 C        47.538940      -21.749378       73.536049
 H        46.627209      -22.235191       73.861206
 C        48.143448      -20.772739       74.339081
 H        47.750313      -20.591381       75.322517
 C        49.651962      -18.371471       75.626862
 C        48.875011      -17.242069       75.414978
 H        48.706764      -16.878155       74.406540
 C        48.335690      -16.538967       76.504784
 H        47.724934      -15.664442       76.337807
 C        48.601898      -16.963497       77.815445
 H        48.248222      -16.382473       78.649841
 C        49.400772      -18.096649       78.025085
 H        49.636833      -18.408695       79.030228
 C        49.928677      -18.786732       76.935638
 H        50.598686      -19.624176       77.084892
 C        55.163795      -21.258118       76.002892
 C        56.076416      -20.234829       75.992722
 N        54.039322      -20.833794       75.264229
 C        54.191231      -19.529079       74.834412
 N        55.465145      -19.169075       75.276260
 C        55.900024      -17.848419       74.911774
 C        55.063675      -17.219734       73.972809
 C        55.527847      -16.065323       73.324593
 H        54.928001      -15.632559       72.529419
 C        56.766411      -15.509813       73.628510
 H        57.089378      -14.606326       73.134232
 C        57.570244      -16.114437       74.610641
 H        58.545677      -15.710381       74.823868
 C        57.138512      -17.263325       75.254730
 H        57.660080      -17.590366       76.133545
 C        57.323845      -20.424999       76.605469
 H        58.069954      -19.648468       76.628235
 C        57.630077      -21.640228       77.219421
 H        58.615147      -21.801346       77.625229
 C        56.681145      -22.672789       77.246780
 H        56.888168      -23.588558       77.771942
 C        55.444229      -22.473347       76.632156
 H        54.697887      -23.259354       76.667778
 C        53.225613      -21.797411       74.578941
 C        53.666611      -22.306778       73.362656
 H        54.593727      -21.958042       72.926262
 C        52.921467      -23.279873       72.694931
 H        53.230286      -23.643101       71.726173
 C        51.718128      -23.743603       73.253708
 H        51.133179      -24.472328       72.718750
 C        51.277134      -23.234234       74.470001
 H        50.330856      -23.562450       74.889786
 C        52.024189      -22.251869       75.140945
 H        51.664146      -21.840103       76.062592
