206
 generated by VMD
 Ir       45.029083        4.661303       84.663162
 C        46.748413        1.590551       87.343811
 C        45.869774        2.294463       88.192635
 N        46.638790        2.171382       85.979843
 C        45.712231        3.222004       86.012756
 N        45.333206        3.325393       87.339767
 C        44.793587        4.607862       87.650223
 C        44.291222        5.313119       86.525574
 C        43.269165        6.251419       86.729263
 H        42.898865        6.875280       85.925919
 C        42.665382        6.430976       87.987122
 H        41.817963        6.971099       88.259064
 C        43.188442        5.788352       89.104820
 H        42.644657        5.910762       90.026627
 C        44.207336        4.845478       88.936752
 H        44.597950        4.453854       89.850342
 C        45.692078        1.883622       89.513596
 H        44.793449        2.186023       90.022736
 C        46.412521        0.826991       89.992126
 H        46.486397        0.792552       91.080635
 C        47.277237        0.122949       89.186958
 H        47.877632       -0.673985       89.547813
 C        47.435020        0.511430       87.864166
 H        48.126453       -0.014186       87.201248
 C        47.001324        1.512904       84.838318
 C        46.117241        1.086275       83.829063
 H        45.081787        1.273465       83.957535
 C        46.603340        0.338162       82.765610
 H        45.877197       -0.013470       82.125320
 C        47.936775        0.088660       82.560188
 H        48.276569       -0.163273       81.561508
 C        48.790588        0.483972       83.571144
 H        49.855553        0.198382       83.449501
 C        48.338791        1.218487       84.700462
 H        49.037941        1.542727       85.531342
 C        41.278816        2.691204       83.596573
 C        41.412365        3.807196       82.772118
 N        42.301575        2.809559       84.513992
 C        43.142174        3.915292       84.205841
 N        42.551823        4.566610       83.167496
 C        43.046135        5.815528       82.802032
 C        44.044090        6.229209       83.659737
 C        44.383255        7.566074       83.797073
 H        45.265961        7.832969       84.370216
 C        43.554340        8.516062       83.070625
 H        43.852562        9.535366       83.216858
 C        42.593796        8.093683       82.130920
 H        41.858730        8.796859       81.703934
 C        42.413956        6.712424       81.895378
 H        41.903969        6.500313       80.969406
 C        40.398247        3.952986       81.757462
 H        40.495300        4.826934       81.117630
 C        39.385986        3.072420       81.512222
 H        38.570023        3.413965       80.865974
 C        39.272366        1.956431       82.338455
 H        38.505440        1.308625       82.043877
 C        40.201271        1.729963       83.408150
 H        40.172264        0.753750       83.847214
 C        42.294800        2.144183       85.719193
 C        41.683662        2.744538       86.833954
 H        41.610497        3.790909       86.866425
 C        41.713177        2.043269       88.082695
 H        41.098736        2.483497       88.895874
 C        42.470547        0.880195       88.258896
 H        42.718555        0.439273       89.195572
 C        43.191231        0.369284       87.154137
 H        43.413403       -0.663685       87.139442
 C        43.033844        0.949857       85.875710
 H        43.333160        0.299556       84.993484
 C        47.128330        3.491697       81.039055
 C        48.143860        3.784554       81.924911
 N        45.992661        3.883279       81.617172
 C        46.121483        4.344762       82.878143
 N        47.494854        4.407331       83.013916
 C        47.953144        4.953812       84.295456
 C        46.895592        5.510482       85.011200
 C        47.183571        6.330386       86.062881
 H        46.329918        6.726869       86.517921
 C        48.478107        6.633826       86.407860
 H        48.819866        7.185859       87.306396
 C        49.587036        6.112983       85.678818
 H        50.509666        6.703184       85.802994
 C        49.267601        5.257252       84.642197
 H        50.157074        4.883324       84.123062
 C        49.462921        3.526290       81.655327
 H        50.228878        3.989724       82.299484
 C        49.811943        2.809559       80.552841
 H        50.918411        2.447669       80.528946
 C        48.821507        2.431901       79.610603
 H        49.102066        1.875555       78.713516
 C        47.474113        2.815437       79.860077
 H        46.823921        2.674527       79.043068
 C        44.792290        3.822465       80.890671
 C        44.487595        4.849013       80.026978
 H        45.207222        5.627904       79.837326
 C        43.268486        4.815070       79.285416
 H        42.897102        5.701773       78.832932
 C        42.546066        3.661082       79.280655
 H        41.637486        3.438713       78.772690
 C        42.944778        2.598901       80.103210
 H        42.251518        1.850873       80.447952
 C        44.068687        2.663965       80.899261
 H        44.253590        1.772883       81.303719
 Ir       45.029083        4.661302       98.550110
 C        49.383575        4.339364       98.918419
 C        48.943085        3.090249       99.356003
 N        48.305115        5.180694       98.627426
 C        47.081841        4.433251       98.723000
 N        47.499573        3.130523       99.218788
 C        46.497574        2.203611       99.535553
 C        45.156769        2.717710       99.485176
 C        44.052307        1.884948       99.712288
 H        43.140083        2.241220      100.148544
 C        44.257042        0.458509       99.667953
 H        43.411697       -0.252192       99.464996
 C        45.551605       -0.042056       99.673859
 H        45.746796       -1.102414       99.849747
 C        46.627487        0.772210       99.655167
 H        47.598480        0.365728       99.574203
 C        49.896927        2.043031       99.693680
 H        49.613632        1.107553       99.944130
 C        51.269329        2.356666       99.614601
 H        52.042831        1.605558       99.609344
 C        51.681122        3.587930       99.160934
 H        52.672405        3.972051       99.416328
 C        50.779877        4.563684       98.796295
 H        51.038010        5.428090       98.377281
 C        48.430508        6.554490       98.346268
 C        48.085075        7.072493       97.037468
 H        47.612385        6.416902       96.369438
 C        48.455887        8.366001       96.706055
 H        48.167240        8.811370       95.774750
 C        49.297951        9.083905       97.510376
 H        49.643372       10.095488       97.238747
 C        49.703876        8.606503       98.703445
 H        50.474976        9.096941       99.289780
 C        49.244659        7.339538       99.125854
 H        49.798981        6.800805       99.891937
 C        44.085991        3.147529       94.591614
 C        42.869476        3.422796       95.175674
 N        45.055859        3.193897       95.652283
 C        44.499775        3.619680       96.825302
 N        43.096451        3.602155       96.574753
 C        42.245533        3.938628       97.676399
 C        42.890480        4.655946       98.665237
 C        42.037205        4.916312       99.793381
 H        42.498543        5.267098      100.701965
 C        40.713448        4.508723       99.889992
 H        40.218636        4.792104      100.825592
 C        40.111504        3.795985       98.869080
 H        39.069382        3.317260       98.846848
 C        40.983124        3.522147       97.760475
 H        40.793007        2.678518       97.188858
 C        41.695740        3.447173       94.375458
 H        40.752853        3.763170       94.817841
 C        41.808617        3.294683       92.993210
 H        40.944241        3.059039       92.439743
 C        43.035461        3.117812       92.405869
 H        43.120564        3.120937       91.335892
 C        44.170174        2.977189       93.193298
 H        45.073093        2.929843       92.635902
 C        46.276749        2.425201       95.583496
 C        47.448418        3.149240       95.842453
 H        47.556515        4.240397       95.868721
 C        48.613625        2.357661       95.948242
 H        49.522888        2.777158       96.335632
 C        48.611042        0.954303       95.638611
 H        49.525604        0.328143       95.740555
 C        47.420609        0.346578       95.364853
 H        47.425049       -0.649588       94.976219
 C        46.202835        1.097814       95.285706
 H        45.208794        0.673352       95.061371
 C        44.879887        8.824339       97.179619
 C        45.270622        8.878626       98.543495
 N        44.572517        7.510227       96.910484
 C        44.862568        6.666228       98.051773
 N        45.267231        7.557921       99.033218
 C        45.701096        6.923928      100.250763
 C        45.254902        5.617473      100.413803
 C        45.281219        5.023431      101.698486
 H        44.538879        4.316003      101.917755
 C        45.879982        5.753955      102.755096
 H        45.748718        5.451318      103.779678
 C        46.419800        7.015821      102.555351
 H        47.080250        7.300178      103.256950
 C        46.315826        7.654323      101.353683
 H        46.950607        8.450934      101.214905
 C        45.488518       10.191762       99.141403
 H        45.808929       10.349871      100.167099
 C        45.070717       11.338614       98.420662
 H        45.074394       12.244621       99.056702
 C        44.623852       11.230456       97.123466
 H        44.373180       12.144031       96.668335
 C        44.557335        9.962105       96.516708
 H        44.146439        9.987328       95.492485
 C        43.880356        7.035147       95.662247
 C        44.632401        6.940193       94.543533
 H        45.634796        7.194987       94.673820
 C        44.030205        6.764757       93.299667
 H        44.578388        6.695832       92.441269
 C        42.631386        6.621507       93.224258
 H        42.053215        6.579388       92.274757
 C        41.848690        6.631463       94.348976
 H        40.814743        6.698609       94.234779
 C        42.467941        6.945768       95.513931
 H        41.770676        7.269617       96.355331
