206
 generated by VMD
 Ir      108.710693       86.042274       -0.560384
 C       106.796989       83.978851       -3.903332
 C       105.802475       84.101089       -3.005505
 N       108.056946       84.340630       -3.299071
 C       107.801956       84.851906       -1.986221
 N       106.454750       84.555008       -1.790559
 C       105.942276       84.896156       -0.469992
 C       106.818542       85.721420        0.284471
 C       106.240051       86.238632        1.443667
 H       106.844460       86.912254        2.043515
 C       104.928055       85.986740        1.876043
 H       104.581573       86.374832        2.862625
 C       104.164047       85.128067        1.188538
 H       103.075226       85.096321        1.453757
 C       104.637177       84.557304        0.023942
 H       104.048592       83.760925       -0.408334
 C       104.416451       83.801147       -3.355631
 H       103.681625       83.983803       -2.568763
 C       104.177216       83.439163       -4.727248
 H       103.169922       83.438019       -5.097179
 C       105.255455       83.525452       -5.659861
 H       105.037560       83.199692       -6.622050
 C       106.564278       83.631561       -5.251677
 H       107.449074       83.462158       -5.874122
 C       109.271004       84.346100       -3.969540
 C       109.569656       85.492294       -4.682241
 H       108.804756       86.264084       -4.817398
 C       110.706886       85.545868       -5.404496
 H       111.049591       86.455101       -5.997162
 C       111.517357       84.406578       -5.514213
 H       112.505493       84.672684       -5.916312
 C       111.177948       83.187164       -4.872777
 H       111.803185       82.266113       -4.939394
 C       110.055923       83.172920       -4.059294
 H       109.946457       82.273643       -3.486748
 C       106.771118       89.786972       -1.366076
 C       107.610580       90.077881       -0.298382
 N       107.004631       88.511459       -1.829581
 C       108.019516       87.957153       -1.025237
 N       108.337280       88.928146       -0.077234
 C       109.385239       88.580688        0.845080
 C       109.434708       87.199463        1.058515
 C       110.100082       86.719070        2.172025
 H       109.930145       85.706543        2.454883
 C       110.719666       87.656174        3.048186
 H       111.306862       87.339066        3.882903
 C       110.645538       89.020111        2.783835
 H       111.299049       89.669098        3.299531
 C       109.983200       89.527039        1.644127
 H       109.926758       90.509949        1.331725
 C       107.396545       91.240822        0.419777
 H       107.816696       91.353546        1.399554
 C       106.463539       92.168541        0.018489
 H       106.284805       93.032684        0.640349
 C       105.605865       91.916260       -1.077073
 H       104.903214       92.677635       -1.360608
 C       105.823647       90.748344       -1.818923
 H       105.194290       90.461456       -2.655880
 C       106.612686       88.127678       -3.153207
 C       107.308464       88.685760       -4.190430
 H       108.116966       89.377403       -3.899814
 C       106.985298       88.384674       -5.491007
 H       107.470848       88.834457       -6.314983
 C       105.952011       87.476692       -5.805473
 H       105.695023       87.271790       -6.832983
 C       105.191383       86.957474       -4.740223
 H       104.208809       86.588791       -4.910881
 C       105.535255       87.300018       -3.402871
 H       104.977051       86.854980       -2.578703
 C       112.722061       86.077148       -2.403382
 C       112.496750       84.816277       -1.836520
 N       111.600204       86.865501       -2.070768
 C       110.725403       86.100327       -1.153410
 N       111.371277       84.918381       -1.035349
 C       110.823212       84.050110        0.010139
 C       109.457489       84.248215        0.250891
 C       108.752449       83.285904        0.995860
 H       107.644913       83.465782        0.935095
 C       109.440201       82.238037        1.670667
 H       108.861816       81.593483        2.385802
 C       110.805923       82.118362        1.578071
 H       111.401459       81.453171        2.183278
 C       111.546432       82.975708        0.700346
 H       112.673012       83.065247        0.791964
 C       113.459503       83.815598       -1.921745
 H       113.317017       82.918457       -1.392850
 C       114.721161       84.124840       -2.496523
 H       115.337158       83.300003       -2.707214
 C       114.917175       85.356804       -3.019733
 H       115.882210       85.564621       -3.430122
 C       113.959290       86.349899       -2.991243
 H       114.263840       87.314323       -3.238515
 C       111.491653       88.201233       -2.161569
 C       110.755943       88.718346       -3.192598
 H       110.020821       88.016518       -3.591893
 C       110.493744       90.082977       -3.275749
 H       109.972557       90.463120       -4.134381
 C       110.828949       90.916290       -2.228545
 H       110.565842       91.988052       -2.203909
 C       111.560516       90.375244       -1.138273
 H       111.780678       90.972076       -0.279080
 C       111.925995       89.012970       -1.094175
 H       112.621109       88.709854       -0.393086
 Ir      108.710701       86.042282       11.402136
 C       106.058685       85.469322        8.055910
 C       105.737892       86.761192        8.430439
 N       106.842125       84.923294        9.108992
 C       107.144089       85.777939       10.074707
 N       106.479416       86.936455        9.667345
 C       106.556595       87.996780       10.609236
 C       107.763672       87.940071       11.432314
 C       108.145874       89.108459       12.091557
 H       109.056946       89.146797       12.636868
 C       107.346878       90.239700       12.057039
 H       107.635757       91.053833       12.716835
 C       106.148117       90.250900       11.337692
 H       105.421448       91.068161       11.524050
 C       105.745346       89.130386       10.568064
 H       104.829056       89.201279       10.041203
 C       105.042877       87.642967        7.544538
 H       105.314896       88.675629        7.366441
 C       104.497955       87.058716        6.416131
 H       103.874016       87.711571        5.783697
 C       104.745743       85.701447        6.077573
 H       104.235252       85.380661        5.220078
 C       105.574478       84.848343        6.847720
 H       105.767570       83.872330        6.610412
 C       107.065475       83.514587        9.127724
 C       108.214600       83.073639        8.447876
 H       108.989113       83.728577        8.246965
 C       108.373650       81.743607        8.237318
 H       109.361191       81.364960        7.907204
 C       107.439056       80.822556        8.608118
 H       107.595016       79.757446        8.497623
 C       106.283066       81.178680        9.300472
 H       105.779556       80.524170        9.949324
 C       106.097198       82.559883        9.563585
 H       105.215088       82.857483       10.121544
 C       111.921234       87.522636        8.888502
 C       112.295181       87.993149       10.110870
 N       110.671974       86.919365        8.914927
 C       110.190399       86.930908       10.271597
 N       111.228844       87.584137       11.011826
 C       111.241203       87.335007       12.463268
 C       110.066956       86.702805       12.942389
 C       109.989105       86.506752       14.368435
 H       109.150810       86.007713       14.712257
 C       111.099960       86.830841       15.218767
 H       110.736115       86.971771       16.254499
 C       112.277443       87.365891       14.714123
 H       113.086357       87.477684       15.413599
 C       112.339394       87.632553       13.342497
 H       113.021118       88.369019       12.995840
 C       113.520172       88.660393       10.257128
 H       113.603455       89.206055       11.109665
 C       114.345146       88.902847        9.125082
 H       115.286484       89.382431        9.185740
 C       113.939545       88.412674        7.863852
 H       114.457047       88.743271        6.968647
 C       112.764160       87.719597        7.857492
 H       112.667023       87.112808        6.918516
 C       109.765686       87.022995        7.720061
 C       109.831741       86.006516        6.770487
 H       110.205780       85.001564        6.956175
 C       109.066238       86.178391        5.596195
 H       109.053558       85.337708        4.884296
 C       108.253998       87.325523        5.366301
 H       107.930908       87.562073        4.362283
 C       108.154099       88.286331        6.343328
 H       107.561096       89.121140        6.154555
 C       108.961319       88.163025        7.518230
 H       108.840256       88.870529        8.308723
 C       109.854515       81.856415       11.592255
 C       108.566116       81.900719       12.071688
 N       110.309357       83.143333       11.288340
 C       109.311035       84.092331       11.691154
 N       108.230774       83.256348       12.135050
 C       107.159164       83.935204       12.832062
 C       107.191238       85.317139       12.724224
 C       106.230026       86.063995       13.407507
 H       106.319489       87.099503       13.356155
 C       105.190048       85.391968       14.106150
 H       104.507393       86.024612       14.671690
 C       105.073303       83.997948       14.245358
 H       104.171112       83.591553       14.694712
 C       106.075958       83.292786       13.635847
 H       106.006592       82.221741       13.832912
 C       107.852425       80.704567       12.193241
 H       106.890625       80.649826       12.652199
 C       108.390610       79.452026       11.853237
 H       107.765823       78.594261       11.736273
 C       109.752365       79.449890       11.524277
 H       110.299385       78.587624       11.141706
 C       110.460648       80.628754       11.346405
 H       111.509201       80.481590       11.196812
 C       111.695938       83.430756       11.121996
 C       112.616371       83.936584       11.996944
 H       112.386894       84.048607       13.030430
 C       113.921318       84.331833       11.613556
 H       114.644951       84.698105       12.305216
 C       114.235817       84.395401       10.290699
 H       115.177887       84.962914       10.020647
 C       113.238937       84.112320        9.365341
 H       113.289719       84.509506        8.361322
 C       111.997414       83.569443        9.789751
 H       111.365875       83.074722        9.093176
