206
 generated by VMD
  IR        47.410000       12.690000       49.740002
  C1        45.919998        9.000000       48.090000
  C2        47.240002        8.960000       47.680000
  N1        45.680000       10.320000       48.560001
  C3a       46.750000       11.100000       48.590000
  N2        47.740002       10.270000       48.060001
  C4        48.990002       10.920000       47.880001
  C5a       49.200001       12.020000       48.820000
  C6        50.509998       12.460000       49.009998
  H1        50.730000       13.200000       49.740002
  C7        51.549999       11.950000       48.250000
  H2        52.509998       12.450000       48.349998
  C8        51.320000       10.960000       47.290001
  H3        52.110001       10.750000       46.540001
  C9        50.029999       10.400000       47.110001
  H4        49.919998        9.650000       46.369999
  C10       47.849998        7.740000       47.250000
  H5        48.830002        7.400000       47.560001
  C11       46.990002        6.680000       47.029999
  H6        47.439999        5.770000       46.599998
  C12       45.610001        6.750000       47.360001
  H7        45.070000        5.890000       47.099998
  C13       45.009998        7.890000       47.950001
  H8        44.020000        7.950000       48.200001
  C6        44.330002       10.730000       48.770000
  C1        43.820000       10.500000       50.060001
  H1        44.459999       10.360000       50.860001
  C2        42.490002       10.660000       50.270000
  H2        42.110001       10.700000       51.310001
  C3        41.619999       10.980000       49.270000
  H3        40.570000       11.170000       49.450001
  C4        42.049999       11.240000       47.970001
  H4        41.529999       11.870000       47.310001
  C5        43.439999       11.110000       47.720001
  H5        43.799999       11.330000       46.720001
  C1        48.480000       10.830000       53.509998
  C2        49.240002       11.960000       53.540001
  N1        47.820000       10.670000       52.299999
  C3b       48.110001       11.810000       51.470001
  N2        48.980000       12.620000       52.270000
  C4        49.070000       14.040000       51.889999
  C5b       48.490002       14.330000       50.630001
  C6        48.619999       15.690000       50.169998
  H1        48.160000       15.910000       49.270000
  C7        49.200001       16.700001       51.009998
  H2        49.549999       17.540001       50.380001
  C8        49.680000       16.410000       52.279999
  H3        50.000000       17.250000       52.869999
  C9        49.630001       15.080000       52.709999
  H4        50.310001       14.760000       53.459999
  C10       50.000000       12.260000       54.680000
  H5        50.730000       12.950000       54.529999
  C11       50.029999       11.360000       55.779999
  H6        50.570000       11.550000       56.669998
  C12       49.240002       10.190000       55.730000
  H7        49.389999        9.410000       56.470001
  C13       48.490002       10.040000       54.599998
  H8        47.680000        9.280000       54.759998
  C6        47.590000        9.290000       51.750000
  C1        46.389999        8.660000       52.070000
  H1        45.480000        9.170000       52.380001
  C2        46.240002        7.320000       51.650002
  H2        45.259998        6.850000       51.830002
  C3        47.250000        6.620000       50.930000
  H3        47.230000        5.540000       50.889999
  C4        48.400002        7.280000       50.570000
  H4        49.130001        6.750000       50.049999
  C5        48.599998        8.620000       51.029999
  H5        49.459999        9.160000       50.700001
  C1        43.459999       14.160000       50.790001
  C2        43.529999       14.260000       49.419998
  N1        44.669998       13.690000       51.310001
  C3c       45.619999       13.580000       50.240002
  N2        44.840000       13.910000       49.080002
  C4        45.590000       14.120000       47.860001
  C5c       46.910000       13.700000       47.919998
  C6        47.730000       13.910000       46.810001
  H1        48.730000       13.640000       46.910000
  C7        47.169998       14.450000       45.619999
  H2        47.869999       14.650000       44.810001
  C8        45.840000       14.880000       45.470001
  H3        45.490002       15.160000       44.480000
  C9        45.080002       14.740000       46.599998
  H4        44.080002       15.160000       46.480000
  C10       42.349998       14.470000       48.700001
  H5        42.340000       14.660000       47.650002
  C11       41.090000       14.590000       49.310001
  H6        40.189999       14.520000       48.740002
  C12       41.099998       14.640000       50.709999
  H7        40.209999       14.630000       51.340000
  C13       42.250000       14.380000       51.439999
  H8        42.139999       14.550000       52.490002
  C6        45.000000       13.830000       52.689999
  C1        45.750000       14.770000       53.340000
  H1        46.080002       15.650000       52.840000
  C2        46.130001       14.660000       54.700001
  H2        46.689999       15.410000       55.209999
  C3        45.910000       13.490000       55.360001
  H3        46.459999       13.350000       56.340000
  C4        45.360001       12.430000       54.650002
  H4        45.520000       11.410000       54.970001
  C5        44.849998       12.630000       53.340000
  H5        44.169998       11.930000       52.919998
  IR        35.880001        7.680000       59.369999
  C1        38.490002        8.710000       62.799999
  C2        38.230000        9.900000       62.090000
  N1        37.919998        7.750000       61.970001
  C3a       37.240002        8.270000       60.810001
  N2        37.400002        9.610000       60.990002
  C4        36.540001       10.480000       60.160000
  C5a       35.459999        9.770000       59.509998
  C6        34.410000       10.490000       58.860001
  H1        33.820000        9.990000       58.160000
  C7        34.419998       11.890000       58.840000
  H2        33.619999       12.440000       58.380001
  C8        35.529999       12.540000       59.360001
  H3        35.610001       13.680000       59.230000
  C9        36.599998       11.880000       59.980000
  H4        37.570000       12.430000       59.959999
  C10       38.759998       11.070000       62.590000
  H5        38.480000       12.020000       62.209999
  C11       39.639999       11.090000       63.709999
  H6        40.009998       12.050000       64.089996
  C12       39.869999        9.920000       64.449997
  H7        40.340000       10.050000       65.349998
  C13       39.290001        8.770000       63.930000
  H8        39.680000        7.840000       64.349998
  C6        38.500000        6.430000       62.009998
  C1        38.230000        5.660000       63.169998
  H1        37.410000        5.930000       63.810001
  C2        38.889999        4.410000       63.310001
  H2        38.610001        3.720000       64.089996
  C3        39.599998        3.880000       62.230000
  H3        39.939999        2.810000       62.259998
  C4        39.849998        4.580000       61.020000
  H4        40.090000        4.100000       60.049999
  C5        39.290001        5.880000       60.970001
  H5        39.470001        6.470000       60.060001
  C1        32.189999        7.140000       61.580002
  C2        31.770000        7.140000       60.279999
  N1        33.549999        7.370000       61.660000
  C3b       34.080002        7.450000       60.389999
  N2        32.950001        7.370000       59.560001
  C4        33.119999        7.410000       58.180000
  C5b       34.470001        7.390000       57.790001
  C6        34.840000        7.120000       56.450001
  H1        35.880001        7.240000       56.169998
  C7        33.849998        6.900000       55.500000
  H2        34.060001        6.820000       54.430000
  C8        32.500000        7.060000       55.860001
  H3        31.709999        7.090000       55.110001
  C9        32.080002        7.280000       57.150002
  H4        31.070000        7.600000       57.330002
  C10       30.379999        6.830000       59.970001
  H5        29.870001        7.200000       59.060001
  C11       29.469999        6.430000       61.020000
  H6        28.559999        5.870000       60.810001
  C12       29.940001        6.600000       62.340000
  H7        29.250000        6.500000       63.130001
  C13       31.219999        6.970000       62.590000
  H8        31.590000        6.890000       63.650002
  C6        34.099998        8.160000       62.700001
  C1        34.310001        9.580000       62.580002
  H1        33.919998       10.110000       61.720001
  C2        35.150002       10.250000       63.540001
  H2        35.450001       11.270000       63.480000
  C3        35.750000        9.510000       64.570000
  H3        36.650002        9.810000       65.120003
  C4        35.470001        8.130000       64.690002
  H4        35.939999        7.540000       65.410004
  C5        34.680000        7.450000       63.750000
  H5        34.509998        6.370000       63.869999
  C1        37.389999        3.560000       58.950001
  C2        37.910000        4.270000       57.869999
  N1        36.590000        4.490000       59.709999
  C3c       36.580002        5.760000       59.090000
  N2        37.459999        5.650000       58.040001
  C4        38.110001        6.840000       57.610001
  C5c       37.410000        7.980000       57.900002
  C6        37.849998        9.170000       57.380001
  H1        37.209999       10.070000       57.410000
  C7        39.000000        9.290000       56.630001
  H2        39.330002       10.240000       56.410000
  C8        39.709999        8.180000       56.360001
  H3        40.590000        8.200000       55.700001
  C9        39.310001        6.960000       56.900002
  H4        39.930000        6.090000       56.900002
  C10       38.810001        3.650000       57.000000
  H5        39.220001        4.100000       56.080002
  C11       39.160000        2.350000       57.330002
  H6        39.919998        1.940000       56.669998
  C12       38.599998        1.630000       58.380001
  H7        39.110001        0.740000       58.779999
  C13       37.709999        2.270000       59.230000
  H8        37.139999        1.800000       60.000000
  C6        35.570000        3.890000       60.509998
  C1        34.240002        4.210000       60.220001
  H1        34.009998        4.730000       59.270000
  C2        33.279999        3.900000       61.209999
  H2        32.310001        3.920000       60.860001
  C3        33.590000        3.370000       62.439999
  H3        32.779999        3.200000       63.209999
  C4        34.900002        3.060000       62.770000
  H4        35.060001        2.390000       63.619999
  C5        35.930000        3.290000       61.759998
  H5        36.830002        2.760000       61.880001
