206
 generated by VMD
 Ir       -0.053535       -0.160572       -7.396801
 C         3.981056       -0.154728       -5.776867
 C         4.068901       -0.924227       -6.916323
 N         2.631527        0.150763       -5.559950
 C         1.841537       -0.373877       -6.571568
 N         2.739170       -1.065710       -7.375881
 C         2.146667       -1.819239       -8.450001
 C         0.743862       -1.837515       -8.398111
 C         0.042313       -2.828621       -9.098782
 H        -1.022987       -2.896461       -9.005302
 C         0.727154       -3.759546       -9.887047
 H         0.193802       -4.554295      -10.367363
 C         2.126202       -3.684690       -9.999640
 H         2.648132       -4.357790      -10.670925
 C         2.826462       -2.712091       -9.286486
 H         3.860889       -2.541521       -9.567299
 C         5.336952       -1.283983       -7.414341
 H         5.433628       -1.946880       -8.250713
 C         6.500130       -0.801287       -6.802687
 H         7.467167       -1.045954       -7.209351
 C         6.403015        0.017773       -5.670826
 H         7.260738        0.555759       -5.313221
 C         5.141537        0.313292       -5.139187
 H         5.064751        0.841761       -4.203653
 C         2.133129        0.453150       -4.242275
 C         1.810730       -0.583988       -3.361984
 H         2.010674       -1.608461       -3.642303
 C         1.229828       -0.300751       -2.121288
 H         0.941593       -1.102858       -1.473793
 C         0.980766        1.028339       -1.754982
 H         0.539124        1.244759       -0.791130
 C         1.322556        2.074200       -2.628345
 H         1.103230        3.089952       -2.354958
 C         1.902561        1.786072       -3.860367
 H         2.211590        2.593065       -4.514479
 C         0.797115        2.473864      -10.756702
 C        -0.486874        2.030340      -10.978397
 N         1.285252        1.779001       -9.645580
 C         0.347363        0.899466       -9.132084
 N        -0.740131        1.051073       -9.989157
 C        -1.832645        0.178322       -9.729912
 C        -1.887653       -0.313585       -8.422279
 C        -3.033630       -1.031466       -8.035137
 H        -3.129402       -1.389174       -7.013386
 C        -4.077065       -1.280836       -8.929316
 H        -4.956100       -1.815788       -8.595806
 C        -4.001556       -0.819986      -10.240808
 H        -4.782810       -1.032118      -10.948513
 C        -2.874180       -0.083601      -10.642498
 H        -2.787632        0.220713      -11.672256
 C        -1.232723        2.595663      -12.027878
 H        -2.274036        2.337421      -12.166069
 C        -0.685936        3.586004      -12.842152
 H        -1.219032        3.937986      -13.713251
 C         0.614639        4.045914      -12.586449
 H         1.002373        4.897161      -13.126770
 C         1.361900        3.476759      -11.550510
 H         2.382084        3.797117      -11.402534
 C         2.688732        1.779230       -9.315666
 C         3.594234        1.176096      -10.195950
 H         3.230003        0.632536      -11.047346
 C         4.976643        1.269913       -9.953768
 H         5.671570        0.835905      -10.645226
 C         5.442307        1.948359       -8.819853
 H         6.495895        1.970278       -8.606163
 C         4.536411        2.537884       -7.935762
 H         4.898056        3.044432       -7.059395
 C         3.154400        2.457676       -8.181751
 H         2.458572        2.886793       -7.481621
 C        -2.426388        2.851912       -5.356047
 C        -2.751148        1.666279       -4.744167
 N        -1.323704        2.606144       -6.198828
 C        -0.983047        1.255173       -6.187601
 N        -1.834793        0.713890       -5.243916
 C        -1.533867       -0.624071       -4.849083
 C        -0.734932       -1.337824       -5.768192
 C        -0.327351       -2.636656       -5.432461
 H         0.248478       -3.218288       -6.138805
 C        -0.666271       -3.207060       -4.198494
 H        -0.281361       -4.180225       -3.935070
 C        -1.444416       -2.488417       -3.285999
 H        -1.694401       -2.911005       -2.328335
 C        -1.882233       -1.203199       -3.621014
 H        -2.430523       -0.622627       -2.889362
 C        -3.847576        1.628286       -3.864786
 H        -4.165585        0.705553       -3.415188
 C        -4.579056        2.789537       -3.596977
 H        -5.415039        2.743656       -2.902554
 C        -4.233109        3.993681       -4.219280
 H        -4.807167        4.890099       -4.015341
 C        -3.156075        4.022951       -5.105587
 H        -2.913040        4.947809       -5.607861
 C        -0.431339        3.675442       -6.563934
 C        -0.363262        4.092680       -7.900787
 H        -0.968994        3.605928       -8.652950
 C         0.468517        5.157084       -8.263401
 H         0.504318        5.478842       -9.288578
 C         1.232216        5.804245       -7.289162
 H         1.925903        6.591484       -7.580296
 C         1.154087        5.409342       -5.952282
 H         1.718914        5.935877       -5.193451
 C         0.322300        4.344938       -5.589668
 H         0.204292        4.089125       -4.547350
 Ir       -0.053532       -0.160570        8.037582
 C        -1.680637       -4.086601        9.090302
 C        -2.192665       -3.243729       10.054298
 N        -0.870037       -3.308767        8.252686
 C        -0.839184       -1.983503        8.634293
 N        -1.659248       -1.946606        9.757423
 C        -1.842083       -0.664078       10.357925
 C        -0.968121        0.329905        9.879284
 C        -0.888969        1.542242       10.571075
 H        -0.155277        2.284807       10.281948
 C        -1.707829        1.803556       11.682556
 H        -1.629745        2.751467       12.190556
 C        -2.607132        0.834030       12.114727
 H        -3.192150        0.990461       13.006851
 C        -2.679035       -0.392981       11.449989
 H        -3.462280       -1.077259       11.732269
 C        -3.066719       -3.763735       11.019196
 H        -3.385490       -3.187414       11.864437
 C        -3.452682       -5.105986       10.960091
 H        -4.243252       -5.453722       11.604279
 C        -2.930202       -5.957581        9.992252
 H        -3.227676       -6.995858        9.952335
 C        -2.028610       -5.438635        9.052666
 H        -1.591602       -6.109610        8.327675
 C        -0.042442       -3.928930        7.250992
 C         0.971611       -4.793604        7.652275
 H         1.338444       -4.768423        8.672722
 C         1.527706       -5.701777        6.748238
 H         2.309063       -6.384584        7.066597
 C         1.071533       -5.735491        5.425560
 H         1.423409       -6.494102        4.746078
 C         0.089405       -4.825085        5.007263
 H        -0.256237       -4.831758        3.976395
 C        -0.456741       -3.916910        5.912331
 H        -1.176338       -3.188375        5.580048
 C        -3.355995        1.529528        5.755318
 C        -2.490414        2.577169        5.940041
 N        -2.861217        0.448553        6.511089
 C        -1.679680        0.773840        7.139629
 N        -1.474220        2.106913        6.806007
 C        -0.315136        2.713194        7.360130
 C         0.669304        1.803848        7.756214
 C         1.967468        2.285028        8.035187
 H         2.741688        1.594564        8.325432
 C         2.255917        3.646204        7.968071
 H         3.260036        3.990601        8.174046
 C         1.255531        4.557255        7.628937
 H         1.455723        5.618925        7.637386
 C        -0.030499        4.099474        7.329826
 H        -0.822842        4.817389        7.214558
 C        -2.730431        3.786200        5.248280
 H        -2.044949        4.618567        5.327545
 C        -3.827755        3.915472        4.389122
 H        -4.017540        4.846922        3.891846
 C        -4.694519        2.826986        4.215824
 H        -5.551029        2.916708        3.555264
 C        -4.463161        1.636461        4.894073
 H        -5.121342        0.798559        4.745354
 C        -3.695976       -0.666475        6.902485
 C        -4.403301       -0.596809        8.101875
 H        -4.412483        0.320688        8.675903
 C        -5.095757       -1.715027        8.575371
 H        -5.681240       -1.652832        9.471947
 C        -5.080402       -2.911621        7.844604
 H        -5.564014       -3.792448        8.243050
 C        -4.391174       -2.971502        6.625801
 H        -4.392838       -3.893896        6.059418
 C        -3.709160       -1.844568        6.156143
 H        -3.236755       -1.872519        5.186478
 C         2.020061       -1.631609        4.518120
 C         2.703720       -2.153326        5.585747
 N         1.070885       -0.729845        5.043556
 C         1.139256       -0.669321        6.421875
 N         2.191856       -1.521029        6.742249
 C         2.623421       -1.467096        8.108356
 C         1.729446       -0.809511        8.974426
 C         2.071659       -0.697298       10.329567
 H         1.417877       -0.164164       11.012016
 C         3.256721       -1.238846       10.827019
 H         3.500046       -1.121553       11.875080
 C         4.140751       -1.896435        9.959915
 H         5.024933       -2.362902       10.353279
 C         3.828770       -1.995035        8.604057
 H         4.561180       -2.430103        7.938942
 C         3.643425       -3.180565        5.345909
 H         4.080738       -3.718889        6.171177
 C         3.898251       -3.623980        4.050282
 H         4.619171       -4.418499        3.884422
 C         3.215778       -3.061426        2.971222
 H         3.441334       -3.366125        1.958263
 C         2.266739       -2.065237        3.204109
 H         1.709324       -1.657099        2.373688
 C         0.361641        0.214346        4.223022
 C         0.885464        1.493612        4.018829
 H         1.822010        1.766981        4.488983
 C         0.205269        2.410574        3.209007
 H         0.612793        3.400122        3.059944
 C        -1.010094        2.052103        2.615891
 H        -1.574066        2.774878        2.042885
 C        -1.544765        0.767950        2.827732
 H        -2.508724        0.522451        2.428089
 C        -0.853222       -0.152845        3.625042
 H        -1.274002       -1.126013        3.805023
