206
 generated by VMD
 Ir       99.709473      -47.169373       -6.707144
 C        95.851494      -48.434929       -5.142243
 C        95.884613      -48.758034       -6.486827
 N        97.144287      -48.011650       -4.839064
 C        97.989075      -48.052605       -5.982904
 N        97.204880      -48.534298       -6.986658
 C        97.699585      -48.659126       -8.316277
 C        98.891541      -47.921410       -8.507627
 C        99.342003      -47.742432       -9.804915
 H       100.228653      -47.238495       -9.971034
 C        98.793518      -48.449421      -10.923946
 H        99.208176      -48.470482      -11.927799
 C        97.667694      -49.272182      -10.696624
 H        97.305542      -49.974487      -11.443824
 C        97.085526      -49.345242       -9.393301
 H        96.196762      -49.968945       -9.292387
 C        94.735626      -49.192917       -7.142971
 H        94.636559      -49.065342       -8.229851
 C        93.622787      -49.446693       -6.361582
 H        92.711304      -49.840321       -6.817488
 C        93.537460      -49.116661       -5.001950
 H        92.598274      -49.277107       -4.405308
 C        94.685509      -48.589912       -4.338159
 H        94.595825      -48.108803       -3.355563
 C        97.646667      -47.652653       -3.507245
 C        98.756844      -48.306690       -2.863407
 H        99.375580      -48.881817       -3.475776
 C        99.167587      -47.855331       -1.606241
 H        99.749130      -48.544868       -1.005791
 C        98.530792      -46.778610       -0.928474
 H        99.141556      -46.188850       -0.237202
 C        97.485382      -46.209129       -1.607736
 H        97.138824      -45.264359       -1.244528
 C        97.013321      -46.604019       -2.857746
 H        96.333435      -45.992210       -3.477859
 C       102.487976      -50.530235       -7.103820
 C       102.983086      -49.569466       -7.941426
 N       101.269394      -49.976566       -6.529183
 C       101.059921      -48.700974       -6.959048
 N       102.075058      -48.424759       -7.930299
 C       102.229744      -47.106354       -8.372415
 C       101.294830      -46.234146       -7.810811
 C       101.464378      -44.895943       -8.044392
 H       100.762344      -44.134922       -7.740089
 C       102.569321      -44.409264       -8.761010
 H       102.638123      -43.353992       -8.994605
 C       103.419540      -45.287708       -9.454097
 H       104.361313      -44.972687       -9.906873
 C       103.257385      -46.661415       -9.198491
 H       103.791985      -47.321098       -9.864455
 C       104.146515      -49.846542       -8.641975
 H       104.672310      -49.008759       -9.070643
 C       104.804901      -51.070244       -8.506029
 H       105.867424      -51.080971       -8.875098
 C       104.284271      -52.009560       -7.707002
 H       104.877609      -52.823448       -7.533401
 C       103.078598      -51.767986       -6.990486
 H       102.838654      -52.487370       -6.262535
 C       100.563614      -50.578529       -5.451209
 C        99.282928      -50.952751       -5.688458
 H        98.976074      -51.016624       -6.723667
 C        98.554649      -51.638580       -4.756290
 H        97.492691      -51.836571       -4.887259
 C        99.181335      -51.950493       -3.535069
 H        98.692688      -52.444191       -2.750415
 C       100.533241      -51.604454       -3.303573
 H       100.932190      -51.745491       -2.279923
 C       101.204559      -50.939690       -4.264211
 H       102.284248      -50.861465       -4.196023
 C       101.024666      -45.384308       -2.872656
 C       100.026253      -44.561546       -3.359204
 N       101.200150      -46.324684       -3.897840
 C       100.367004      -46.162292       -4.995700
 N        99.546928      -45.062355       -4.632208
 C        98.467857      -44.745964       -5.531049
 C        98.519928      -45.430321       -6.783224
 C        97.555206      -45.141918       -7.711045
 H        97.539963      -45.587429       -8.741817
 C        96.533997      -44.168282       -7.515454
 H        95.843567      -44.022079       -8.296814
 C        96.545731      -43.434185       -6.290764
 H        95.669739      -42.764256       -6.129428
 C        97.489777      -43.772133       -5.358686
 H        97.418289      -43.361832       -4.360115
 C        99.723465      -43.414314       -2.611693
 H        99.135498      -42.633781       -3.076943
 C       100.276726      -43.104172       -1.366611
 H        99.737877      -42.494228       -0.665892
 C       101.252274      -43.997253       -0.940330
 H       101.872589      -43.804642       -0.079687
 C       101.694008      -45.130348       -1.670788
 H       102.566498      -45.760880       -1.390610
 C       102.438927      -47.172218       -3.895036
 C       102.732811      -48.161560       -2.918603
 H       102.190895      -48.225258       -1.945117
 C       103.900146      -48.887863       -3.073273
 H       104.274719      -49.543655       -2.262764
 C       104.689117      -48.724106       -4.172635
 H       105.476547      -49.463570       -4.516231
 C       104.428444      -47.734562       -5.173510
 H       105.017548      -47.819504       -6.120899
 C       103.308968      -46.937649       -4.998261
 H       103.043488      -46.168716       -5.794670
 Ir       99.709473      -47.169373        7.739706
 C       103.695801      -45.380577        8.259978
 C       103.252419      -45.060768        6.940077
 N       102.604805      -46.163452        8.862262
 C       101.569229      -46.271118        7.937284
 N       102.036293      -45.703979        6.751579
 C       101.477135      -46.120522        5.554904
 C       100.227203      -46.702576        5.726015
 C        99.527771      -46.999550        4.605659
 H        98.460556      -46.880760        4.682837
 C       100.097404      -46.891281        3.322425
 H        99.411316      -47.233315        2.588064
 C       101.416931      -46.436501        3.158920
 H       102.037323      -46.705772        2.285306
 C       102.105469      -46.005234        4.286005
 H       103.107834      -45.954613        4.244833
 C       103.941414      -44.093758        6.247276
 H       103.488937      -43.797943        5.332150
 C       105.038391      -43.481667        6.834193
 H       105.595184      -42.650322        6.316654
 C       105.487778      -43.808205        8.104913
 H       106.218689      -43.188400        8.554603
 C       104.825996      -44.782433        8.822355
 H       105.099808      -44.902596        9.880747
 C       102.979431      -47.110863        9.920077
 C       102.465698      -46.950630       11.240495
 H       101.796356      -46.167664       11.442083
 C       102.818596      -47.889946       12.146119
 H       102.333130      -47.910820       13.069802
 C       103.677155      -48.983444       11.879978
 H       103.832123      -49.794312       12.591372
 C       104.200790      -49.115395       10.560964
 H       104.958046      -49.813019       10.299460
 C       103.845657      -48.154427        9.591105
 H       103.989990      -48.493820        8.573425
 C        97.141792      -43.764809        7.977196
 C        96.322899      -44.795792        7.670631
 N        98.398773      -44.258308        7.913445
 C        98.460800      -45.528725        7.570242
 N        97.118301      -45.867149        7.261586
 C        96.855606      -47.279968        7.020241
 C        97.978317      -48.099602        7.066065
 C        97.849266      -49.476234        6.720175
 H        98.669151      -50.233650        6.936063
 C        96.557953      -50.041416        6.487427
 H        96.535255      -51.099998        6.178099
 C        95.448196      -49.179741        6.500467
 H        94.515152      -49.573471        6.056176
 C        95.637527      -47.816086        6.682652
 H        94.776505      -47.208374        6.638795
 C        94.929718      -44.535484        7.694768
 H        94.215790      -45.279053        7.766320
 C        94.465164      -43.294228        8.116875
 H        93.495445      -43.045433        7.807928
 C        95.346710      -42.291920        8.487875
 H        95.067863      -41.497448        9.121875
 C        96.721207      -42.502094        8.369200
 H        97.355759      -41.611160        8.452828
 C        99.551559      -43.440231        8.373254
 C       100.123062      -42.549782        7.487491
 H        99.743332      -42.656273        6.471588
 C       101.245605      -41.766518        7.865006
 H       101.726883      -41.265602        7.058130
 C       101.853233      -42.014740        9.077222
 H       102.890450      -41.689186        9.163316
 C       101.231232      -42.898170        9.963996
 H       101.746574      -43.038227       10.859382
 C       100.054382      -43.618622        9.701392
 H       100.001633      -44.646393       10.051115
 C        98.938850      -48.428406       11.825640
 C        99.803986      -49.371902       11.340510
 N        98.583313      -47.587112       10.776540
 C        99.308380      -47.932159        9.623098
 N        99.978973      -49.072578        9.989074
 C       100.573196      -49.743576        8.917132
 C       100.787292      -48.958061        7.823178
 C       101.810814      -49.318916        6.948252
 H       102.006271      -48.789032        6.006969
 C       102.555069      -50.500389        7.123466
 H       103.510590      -50.651848        6.640629
 C       102.252090      -51.398453        8.120308
 H       102.675461      -52.381546        8.200754
 C       101.231636      -51.037987        9.052592
 H       100.676514      -51.812668        9.556483
 C       100.448151      -50.282738       12.253381
 H       101.051636      -51.056732       11.765994
 C       100.276726      -50.151085       13.658114
 H       100.872116      -50.819748       14.310267
 C        99.453827      -49.157944       14.127375
 H        99.378204      -48.938805       15.159730
 C        98.707916      -48.353317       13.222720
 H        98.108383      -47.600883       13.760304
 C        97.284523      -46.802681       10.687615
 C        97.083328      -45.541039       11.263103
 H        98.000259      -45.089966       11.591846
 C        95.793594      -44.984634       11.430150
 H        95.751877      -44.075954       11.937160
 C        94.637283      -45.689774       10.999190
 H        93.671005      -45.338669       11.239900
 C        94.837631      -46.958534       10.430673
 H        94.006493      -47.458176        9.976712
 C        96.153687      -47.486847       10.295528
 H        96.237076      -48.516758        9.942358
