206
 generated by VMD
  IR        50.869999       22.870001       49.090000
  C1        54.060001       20.900000       46.990002
  C2        54.549999       22.180000       47.250000
  N1        52.820000       20.700001       47.529999
  C3a       52.490002       21.879999       48.230000
  N2        53.570000       22.670000       48.110001
  C4        53.450001       23.900000       48.840000
  C5a       52.230000       24.459999       48.840000
  C6        52.070000       25.799999       49.139999
  H1        51.000000       26.090000       49.150002
  C7        53.150002       26.610001       49.599998
  H2        52.959999       27.670000       49.919998
  C8        54.430000       26.040001       49.720001
  H3        55.220001       26.580000       50.150002
  C9        54.549999       24.709999       49.340000
  H4        55.340000       24.100000       49.820000
  C10       55.790001       22.530001       46.820000
  H5        56.139999       23.520000       46.830002
  C11       56.580002       21.639999       46.110001
  H6        57.570000       22.000000       45.790001
  C12       56.080002       20.389999       45.779999
  H7        56.740002       19.629999       45.419998
  C13       54.830002       20.020000       46.320000
  H8        54.389999       19.090000       46.000000
  C6        52.389999       19.420000       48.020000
  C1        51.330002       18.889999       47.250000
  H1        51.090000       19.450001       46.369999
  C2        51.009998       17.540001       47.450001
  H2        50.189999       17.090000       46.900002
  C3        51.490002       16.879999       48.590000
  H3        51.310001       15.860000       48.570000
  C4        52.560001       17.490000       49.349998
  H4        52.830002       17.160000       50.320000
  C5        53.000000       18.770000       49.020000
  H5        53.939999       19.100000       49.419998
  C1        52.720001       23.660000       52.970001
  C2        51.630001       24.480000       52.970001
  N1        52.549999       22.740000       51.939999
  C3b       51.520000       23.150000       51.090000
  N2        50.919998       24.170000       51.759998
  C4        49.630001       24.469999       51.310001
  C5b       49.380001       24.100000       49.980000
  C6        48.180000       24.540001       49.380001
  H1        47.950001       24.290001       48.349998
  C7        47.290001       25.270000       50.169998
  H2        46.330002       25.500000       49.689999
  C8        47.529999       25.540001       51.509998
  H3        46.849998       26.190001       52.020000
  C9        48.639999       25.090000       52.110001
  H4        48.910000       25.530001       53.040001
  C10       51.500000       25.450001       53.980000
  H5        50.939999       26.280001       53.720001
  C11       52.419998       25.629999       54.970001
  H6        52.299999       26.420000       55.669998
  C12       53.509998       24.760000       55.009998
  H7        54.320000       24.889999       55.700001
  C13       53.639999       23.799999       54.000000
  H8        54.430000       23.110001       54.139999
  C6        53.130001       21.389999       52.090000
  C1        52.220001       20.410000       52.320000
  H1        51.220001       20.559999       52.610001
  C2        52.560001       19.080000       52.389999
  H2        51.750000       18.379999       52.389999
  C3        53.830002       18.730000       52.400002
  H3        54.209999       17.719999       52.619999
  C4        54.820000       19.680000       52.200001
  H4        55.830002       19.420000       52.330002
  C5        54.480000       21.059999       52.009998
  H5        55.340000       21.750000       51.840000
  C1        47.709999       19.850000       49.020000
  C2        47.880001       20.299999       47.709999
  N1        48.619999       20.610001       49.810001
  C3c       49.290001       21.500000       49.029999
  N2        48.810001       21.370001       47.759998
  C4        49.009998       22.450001       46.820000
  C5c       50.200001       23.110001       47.060001
  C6        50.590000       24.020000       46.080002
  H1        51.590000       24.389999       46.150002
  C7        49.750000       24.350000       45.009998
  H2        50.200001       24.680000       44.099998
  C8        48.450001       23.709999       44.930000
  H3        47.750000       24.139999       44.220001
  C9        48.119999       22.750000       45.840000
  H4        47.340000       22.020000       45.590000
  C10       47.290001       19.559999       46.680000
  H5        47.389999       19.879999       45.630001
  C11       46.610001       18.430000       47.000000
  H6        46.209999       17.770000       46.240002
  C12       46.529999       17.969999       48.330002
  H7        45.910000       17.020000       48.500000
  C13       47.070000       18.680000       49.380001
  H8        46.680000       18.330000       50.310001
  C6        48.160000       21.020000       51.110001
  C1        47.099998       21.950001       51.180000
  H1        46.939999       22.600000       50.360001
  C2        46.430000       22.000000       52.410000
  H2        45.700001       22.790001       52.590000
  C3        46.750000       21.209999       53.540001
  H3        46.500000       21.370001       54.590000
  C4        47.770000       20.280001       53.389999
  H4        48.090000       19.530001       54.139999
  C5        48.439999       20.129999       52.150002
  H5        49.250000       19.480000       52.209999
  IR        38.480000       16.750000       55.349998
  C1        42.610001       17.740000       54.320000
  C2        41.930000       17.639999       53.099998
  N1        41.700001       17.350000       55.310001
  C3a       40.389999       17.160000       54.779999
  N2        40.549999       17.360001       53.389999
  C4        39.389999       17.260000       52.610001
  C5a       38.209999       17.260000       53.320000
  C6        37.000000       17.510000       52.709999
  H1        36.110001       17.719999       53.259998
  C7        36.910000       17.719999       51.330002
  H2        36.000000       17.809999       50.849998
  C8        38.060001       17.600000       50.509998
  H3        38.080002       17.379999       49.400002
  C9        39.360001       17.469999       51.180000
  H4        40.299999       17.400000       50.619999
  C10       42.709999       17.830000       51.950001
  H5        42.189999       17.969999       50.950001
  C11       44.070000       18.160000       51.939999
  H6        44.599998       18.090000       51.090000
  C12       44.639999       18.330000       53.180000
  H7        45.599998       18.700001       53.189999
  C13       43.900002       18.120001       54.360001
  H8        44.299999       18.250000       55.360001
  C6        42.150002       16.680000       56.509998
  C1        42.810001       15.410000       56.310001
  H1        43.070000       15.060000       55.299999
  C2        43.310001       14.840000       57.509998
  H2        43.509998       13.830000       57.580002
  C3        43.240002       15.500000       58.759998
  H3        43.660000       15.030000       59.630001
  C4        42.700001       16.760000       58.849998
  H4        42.529999       17.219999       59.820000
  C5        42.090000       17.340000       57.720001
  H5        41.950001       18.389999       57.630001
  C1        36.849998       20.680000       55.029999
  C2        35.740002       19.920000       55.279999
  N1        37.980000       19.879999       55.430000
  C3b       37.570000       18.590000       55.740002
  N2        36.220001       18.590000       55.709999
  C4        35.610001       17.330000       55.980000
  C5b       36.450001       16.219999       55.680000
  C6        35.950001       14.940000       55.889999
  H1        36.630001       14.090000       55.799999
  C7        34.720001       14.790000       56.430000
  H2        34.160000       13.850000       56.500000
  C8        33.900002       15.910000       56.759998
  H3        32.939999       15.770000       57.180000
  C9        34.369999       17.209999       56.470001
  H4        33.599998       17.990000       56.580002
  C10       34.459999       20.450001       55.049999
  H5        33.599998       19.780001       55.290001
  C11       34.320000       21.760000       54.590000
  H6        33.310001       22.010000       54.240002
  C12       35.439999       22.530001       54.279999
  H7        35.480000       23.520000       53.779999
  C13       36.730000       21.990000       54.580002
  H8        37.570000       22.650000       54.310001
  C6        39.299999       20.459999       55.849998
  C1        39.419998       21.030001       57.130001
  H1        38.610001       21.340000       57.689999
  C2        40.630001       21.620001       57.480000
  H2        40.759998       21.860001       58.480000
  C3        41.680000       21.760000       56.570000
  H3        42.669998       22.049999       56.889999
  C4        41.549999       21.250000       55.279999
  H4        42.400002       21.030001       54.619999
  C5        40.349998       20.590000       54.889999
  H5        40.400002       19.980000       54.040001
  C1        39.340000       15.270000       59.400002
  C2        39.770000       14.300000       58.520000
  N1        38.669998       16.209999       58.549999
  C3c       38.820000       15.910000       57.220001
  N2        39.459999       14.680000       57.220001
  C4        39.759998       14.140000       55.930000
  C5c       39.000000       14.790000       54.939999
  C6        38.910000       14.190000       53.660000
  H1        38.119999       14.430000       52.939999
  C7        39.590000       13.030000       53.369999
  H2        39.360001       12.580000       52.419998
  C8        40.330002       12.310000       54.340000
  H3        40.900002       11.500000       53.990002
  C9        40.470001       12.890000       55.599998
  H4        41.169998       12.460000       56.360001
  C10       40.529999       13.180000       59.000000
  H5        40.430000       12.230000       58.459999
  C11       40.930000       13.170000       60.349998
  H6        41.720001       12.480000       60.619999
  C12       40.430000       14.110000       61.230000
  H7        40.610001       14.050000       62.299999
  C13       39.570000       15.170000       60.759998
  H8        39.340000       15.940000       61.480000
  C6        38.180000       17.430000       59.180000
  C1        39.110001       18.350000       59.709999
  H1        40.160000       18.250000       59.689999
  C2        38.660000       19.600000       60.139999
  H2        39.320000       20.410000       60.310001
  C3        37.279999       19.920000       60.009998
  H3        36.930000       20.740000       60.610001
  C4        36.389999       19.010000       59.570000
  H4        35.369999       19.330000       59.480000
  C5        36.810001       17.730000       59.139999
  H5        35.959999       17.090000       58.830002
