206
 generated by VMD
  IR        38.639999       53.810001       12.990000
  C1        35.250000       51.020000       12.770000
  C2        35.340000       51.470001       11.440000
  N1        36.230000       51.630001       13.530000
  C3a       36.950001       52.549999       12.820000
  N2        36.380001       52.459999       11.570000
  C4        36.779999       53.610001       10.710000
  C5a       38.020000       54.259998       11.050000
  C6        38.520000       55.250000       10.170000
  H1        39.400002       55.810001       10.340000
  C7        37.840000       55.720001        9.030000
  H2        38.360001       56.400002        8.430000
  C8        36.590000       55.180000        8.780000
  H3        36.000000       55.520000        7.970000
  C9        36.080002       54.139999        9.590000
  H4        35.080002       53.910000        9.470000
  C10       34.730000       50.849998       10.390000
  H5        34.860001       51.230000        9.360000
  C11       33.900002       49.759998       10.670000
  H6        33.439999       49.220001        9.830000
  C12       33.700001       49.320000       11.980000
  H7        33.110001       48.389999       12.150000
  C13       34.389999       49.950001       13.040000
  H8        34.320000       49.709999       14.100000
  C6        36.349998       51.320000       14.980000
  C1        37.389999       50.549999       15.420000
  H1        38.080002       50.139999       14.670000
  C2        37.759998       50.380001       16.770000
  H2        38.549999       49.660000       17.010000
  C3        36.980000       51.070000       17.740000
  H3        37.209999       51.000000       18.840000
  C4        35.919998       51.860001       17.320000
  H4        35.480000       52.509998       18.080000
  C5        35.580002       52.020000       15.960000
  H5        34.730000       52.680000       15.730000
  C1        41.779999       51.070000       11.820000
  C2        42.410000       52.290001       12.000000
  N1        40.380001       51.320000       11.940000
  C3b       40.119999       52.689999       12.210000
  N2        41.389999       53.270000       12.210000
  C4        41.369999       54.660000       12.400000
  C5b       40.189999       55.189999       12.860000
  C6        40.150002       56.540001       13.380000
  H1        39.279999       57.009998       13.810000
  C7        41.299999       57.270000       13.460000
  H2        41.270000       58.130001       14.040000
  C8        42.500000       56.759998       12.950000
  H3        43.500000       57.259998       13.010000
  C9        42.549999       55.490002       12.440000
  H4        43.380001       55.250000       11.740000
  C10       43.790001       52.259998       11.990000
  H5        44.360001       53.119999       12.290000
  C11       44.509998       51.080002       11.650000
  H6        45.669998       51.139999       11.720000
  C12       43.820000       49.830002       11.440000
  H7        44.419998       48.900002       11.380000
  C13       42.430000       49.900002       11.540000
  H8        41.910000       48.990002       11.360000
  C6        39.389999       50.430000       11.400000
  C1        38.869999       50.590000       10.080000
  H1        39.160000       51.430000        9.510000
  C2        37.970001       49.590000        9.610000
  H2        37.689999       49.509998        8.570000
  C3        37.520000       48.599998       10.500000
  H3        37.049999       47.700001       10.080000
  C4        37.990002       48.470001       11.790000
  H4        37.490002       48.049999       12.660000
  C5        38.910000       49.410000       12.250000
  H5        39.330002       49.200001       13.240000
  C1        39.639999       53.919998       17.280001
  C2        38.450001       54.610001       17.100000
  N1        39.950001       53.450001       15.970000
  C3c       39.009998       53.770000       15.080000
  N2        38.189999       54.540001       15.730000
  C4        37.029999       55.000000       14.990000
  C5c       37.220001       55.220001       13.650000
  C6        36.410000       56.139999       12.900000
  H1        36.470001       56.150002       11.800000
  C7        35.439999       56.790001       13.590000
  H2        35.150002       57.740002       13.090000
  C8        35.130001       56.419998       14.930000
  H3        34.130001       56.560001       15.340000
  C9        35.959999       55.529999       15.670000
  H4        35.680000       55.310001       16.700001
  C10       37.849998       55.110001       18.230000
  H5        37.060001       55.840000       18.150000
  C11       38.330002       54.740002       19.469999
  H6        37.810001       55.040001       20.360001
  C12       39.490002       53.980000       19.600000
  H7        39.820000       53.770000       20.540001
  C13       40.209999       53.610001       18.459999
  H8        41.209999       53.349998       18.510000
  C6        41.220001       52.810001       15.640000
  C1        41.290001       51.419998       15.520000
  H1        40.430000       50.900002       15.100000
  C2        42.529999       50.779999       15.420000
  H2        42.580002       49.799999       15.050000
  C3        43.720001       51.439999       15.480000
  H3        44.630001       50.919998       15.690000
  C4        43.669998       52.830002       15.600000
  H4        44.580002       53.340000       15.790000
  C5        42.439999       53.520000       15.660000
  H5        42.360001       54.549999       15.910000
  IR        49.599998       56.529999       19.260000
  C1        46.189999       53.790001       18.790001
  C2        47.169998       53.000000       19.309999
  N1        46.750000       55.009998       18.450001
  C3a       48.060001       55.150002       18.879999
  N2        48.349998       53.849998       19.370001
  C4        49.650002       53.660000       19.940001
  C5a       50.209999       54.849998       20.330000
  C6        51.310001       54.869999       21.180000
  H1        52.040001       55.689999       21.129999
  C7        51.810001       53.660000       21.650000
  H2        52.810001       53.630001       22.139999
  C8        51.220001       52.459999       21.240000
  H3        51.470001       51.509998       21.690001
  C9        50.220001       52.430000       20.320000
  H4        50.130001       51.619999       19.559999
  C10       46.849998       51.779999       19.760000
  H5        47.560001       51.139999       20.150000
  C11       45.549999       51.320000       19.690001
  H6        45.419998       50.189999       19.580000
  C12       44.490002       52.139999       19.219999
  H7        43.459999       51.849998       18.969999
  C13       44.860001       53.389999       18.760000
  H8        44.130001       54.009998       18.260000
  C6        46.240002       55.990002       17.480000
  C1        45.570000       57.080002       17.879999
  H1        45.520000       57.330002       18.920000
  C2        44.970001       57.939999       16.959999
  H2        44.130001       58.529999       17.379999
  C3        45.259998       57.770000       15.600000
  H3        44.880001       58.490002       14.920000
  C4        46.070000       56.709999       15.150000
  H4        46.290001       56.590000       14.110000
  C5        46.549999       55.799999       16.150000
  H5        47.240002       54.990002       15.930000
  C1        47.950001       58.549999       22.850000
  C2        48.930000       59.360001       22.400000
  N1        47.959999       57.320000       22.010000
  C3b       48.900002       57.419998       21.049999
  N2        49.570000       58.619999       21.389999
  C4        50.750000       58.900002       20.530001
  C5b       51.130001       57.810001       19.790001
  C6        52.400002       57.860001       19.219999
  H1        52.790001       57.000000       18.690001
  C7        53.270000       58.900002       19.350000
  H2        54.279999       58.630001       19.209999
  C8        52.830002       60.060001       20.020000
  H3        53.380001       60.950001       19.850000
  C9        51.610001       60.020000       20.690001
  H4        51.180000       61.029999       20.870001
  C10       49.160000       60.599998       22.959999
  H5        49.529999       61.369999       22.320000
  C11       48.470001       60.930000       24.139999
  H6        48.439999       62.020000       24.350000
  C12       47.570000       60.000000       24.760000
  H7        47.130001       60.099998       25.740000
  C13       47.259998       58.860001       24.049999
  H8        46.410000       58.279999       24.420000
  C6        47.250000       56.139999       22.420000
  C1        46.000000       55.930000       21.910000
  H1        45.529999       56.759998       21.430000
  C2        45.400002       54.669998       21.950001
  H2        44.540001       54.570000       21.350000
  C3        46.040001       53.619999       22.549999
  H3        45.619999       52.630001       22.530001
  C4        47.270000       53.799999       23.100000
  H4        47.889999       52.910000       23.379999
  C5        47.869999       55.029999       23.049999
  H5        48.900002       55.150002       23.330000
  C1        48.279999       59.580002       16.370001
  C2        48.849998       58.619999       15.590000
  N1        48.290001       59.189999       17.700001
  C3c       49.009998       57.990002       17.850000
  N2        49.320000       57.689999       16.510000
  C4        49.869999       56.349998       16.330000
  C5c       50.529999       55.849998       17.480000
  C6        51.400002       54.799999       17.240000
  H1        51.799999       54.330002       18.080000
  C7        51.570000       54.209999       16.020000
  H2        52.340000       53.529999       15.880000
  C8        50.770000       54.599998       14.980000
  H3        50.840000       54.160000       14.090000
  C9        49.900002       55.650002       15.080000
  H4        49.070000       55.750000       14.370000
  C10       48.730000       58.680000       14.180000
  H5        49.150002       57.900002       13.630000
  C11       48.070000       59.720001       13.520000
  H6        47.869999       59.599998       12.450000
  C12       47.590000       60.730000       14.360000
  H7        47.049999       61.599998       14.030000
  C13       47.790001       60.689999       15.760000
  H8        47.669998       61.490002       16.430000
  C6        48.130001       60.189999       18.680000
  C1        49.169998       61.110001       18.760000
  H1        50.080002       60.939999       18.209999
  C2        49.119999       62.250000       19.490000
  H2        50.000000       62.880001       19.540001
  C3        47.990002       62.450001       20.240000
  H3        48.060001       63.099998       21.100000
  C4        46.900002       61.560001       20.219999
  H4        45.910000       61.799999       20.730000
  C5        47.000000       60.389999       19.459999
  H5        46.419998       59.599998       19.799999
