206
 generated by VMD
 Ir      -25.781860      -85.674591      106.953804
 C       -24.050823      -83.783279      103.382942
 C       -25.308628      -84.198349      102.908455
 N       -23.919415      -84.139267      104.711891
 C       -24.986940      -84.858749      105.171921
 N       -25.800713      -84.908691      104.062515
 C       -26.875505      -85.928490      104.226631
 C       -27.238466      -86.260674      105.580742
 C       -28.359154      -87.101089      105.786316
 H       -28.690605      -87.432648      106.733475
 C       -29.090406      -87.721054      104.754890
 H       -29.939474      -88.255783      105.048065
 C       -28.656914      -87.498032      103.459152
 H       -29.126860      -87.970131      102.636917
 C       -27.586870      -86.611496      103.200584
 H       -27.193752      -86.629135      102.245361
 C       -25.866730      -83.743530      101.750580
 H       -26.872913      -84.081032      101.440918
 C       -25.103439      -82.885544      100.952682
 H       -25.557968      -82.472244      100.040878
 C       -23.812466      -82.506668      101.326233
 H       -23.277128      -81.746162      100.712273
 C       -23.284481      -82.951920      102.558945
 H       -22.296707      -82.735855      102.963562
 C       -22.672005      -83.809486      105.452309
 C       -22.687275      -82.811653      106.386223
 H       -23.620129      -82.247528      106.521301
 C       -21.661446      -82.557541      107.319710
 H       -21.739634      -81.668449      107.954933
 C       -20.526588      -83.415100      107.274025
 H       -19.665062      -83.291763      107.988419
 C       -20.486750      -84.437164      106.337059
 H       -19.691000      -85.174004      106.469513
 C       -21.534286      -84.674347      105.422073
 H       -21.412071      -85.519653      104.728149
 C       -27.963760      -82.258934      108.473244
 C       -28.245857      -83.291267      109.352112
 N       -27.228489      -82.838791      107.396194
 C       -27.030123      -84.231079      107.595139
 N       -27.696285      -84.488098      108.794922
 C       -27.683275      -85.841995      109.162895
 C       -26.787136      -86.640610      108.496536
 C       -26.471516      -87.960495      108.999306
 H       -25.740641      -88.626213      108.568787
 C       -27.028738      -88.392014      110.167686
 H       -26.608080      -89.233917      110.604881
 C       -27.980350      -87.607979      110.830956
 H       -28.457495      -87.852386      111.813911
 C       -28.301296      -86.363327      110.358376
 H       -29.276272      -85.930473      110.672318
 C       -28.901264      -82.929749      110.511925
 H       -29.008085      -83.627136      111.322319
 C       -29.399765      -81.611069      110.709328
 H       -29.892101      -81.389893      111.740242
 C       -29.112123      -80.564072      109.758667
 H       -29.338522      -79.516930      110.042816
 C       -28.377998      -80.966812      108.642487
 H       -28.183975      -80.208862      107.922241
 C       -27.130108      -82.213455      106.106598
 C       -28.057865      -82.493996      105.058281
 H       -28.791050      -83.239410      105.204552
 C       -27.927828      -81.740219      103.855865
 H       -28.695799      -81.730011      103.096581
 C       -26.821955      -80.887756      103.697571
 H       -26.862484      -80.127457      102.905357
 C       -25.900373      -80.648376      104.695213
 H       -24.855076      -80.361176      104.604828
 C       -26.041563      -81.339096      105.897110
 H       -25.349356      -81.034119      106.689857
 C       -22.515219      -85.540482      109.907997
 C       -22.192612      -86.496796      108.956169
 N       -23.751617      -85.009651      109.436157
 C       -24.124268      -85.546646      108.273888
 N       -23.259687      -86.491486      108.055771
 C       -23.413918      -87.217346      106.809120
 C       -24.700687      -87.385109      106.366196
 C       -25.082342      -88.473122      105.508545
 H       -26.073483      -88.468376      105.027588
 C       -24.098089      -89.337631      105.157295
 H       -24.509676      -90.329514      104.868561
 C       -22.737246      -89.053192      105.466812
 H       -21.924025      -89.429939      104.846786
 C       -22.377262      -87.989471      106.342888
 H       -21.319115      -87.843399      106.558968
 C       -20.980461      -87.126602      109.100876
 H       -20.763559      -88.025391      108.545425
 C       -20.079245      -86.651878      110.032196
 H       -19.091223      -87.068298      110.086159
 C       -20.423244      -85.634842      110.919556
 H       -19.732346      -85.351540      111.611649
 C       -21.715878      -85.102310      110.899185
 H       -22.112900      -84.609100      111.717239
 C       -24.563643      -84.082588      110.218826
 C       -24.539009      -82.716652      109.927261
 H       -24.440224      -82.419113      108.884140
 C       -25.135815      -81.796814      110.796127
 H       -25.368271      -80.833633      110.452576
 C       -25.721184      -82.150757      111.973999
 H       -25.905521      -81.426872      112.738602
 C       -25.755238      -83.511871      112.282532
 H       -26.077496      -83.787666      113.254333
 C       -25.203960      -84.477829      111.413261
 H       -25.068134      -85.496765      111.683640
 Ir      -25.781860      -85.674591      119.870186
 C       -24.265814      -83.836624      116.171524
 C       -24.180538      -82.833832      117.089149
 N       -24.969555      -84.885818      116.738571
 C       -25.227180      -84.706161      118.088371
 N       -24.783409      -83.374580      118.298546
 C       -24.875340      -82.877045      119.638321
 C       -24.937347      -83.897125      120.553413
 C       -24.714806      -83.651581      121.903633
 H       -25.198326      -84.271599      122.671471
 C       -24.397987      -82.356766      122.301247
 H       -24.437222      -82.086792      123.381325
 C       -24.338158      -81.334213      121.348885
 H       -23.951439      -80.351959      121.579407
 C       -24.667847      -81.545959      120.047440
 H       -25.195181      -80.781494      119.431564
 C       -23.493702      -81.726822      116.779144
 H       -23.412413      -80.934654      117.436157
 C       -22.888638      -81.593498      115.545204
 H       -22.791433      -80.528084      115.143532
 C       -22.896019      -82.644676      114.590286
 H       -22.595407      -82.611313      113.533867
 C       -23.618662      -83.768753      114.944183
 H       -23.784363      -84.546333      114.212601
 C       -25.691910      -85.959808      116.041328
 C       -25.153984      -87.179092      115.896515
 H       -24.250412      -87.433777      116.411591
 C       -25.776190      -88.158295      115.121902
 H       -25.082226      -88.933250      114.737259
 C       -27.081955      -87.923447      114.671997
 H       -27.581619      -88.713783      114.171082
 C       -27.733063      -86.699554      114.917648
 H       -28.731930      -86.530098      114.574203
 C       -26.978533      -85.700729      115.618736
 H       -27.401251      -84.748383      115.926865
 C       -22.102024      -88.032547      120.638176
 C       -23.051872      -88.582649      121.421875
 N       -22.697308      -86.836349      119.979881
 C       -23.991177      -86.706993      120.332550
 N       -24.149895      -87.710281      121.318817
 C       -25.490452      -87.697815      121.961586
 C       -26.188999      -86.548378      121.695274
 C       -27.291531      -86.291000      122.506744
 H       -27.838083      -85.362381      122.399292
 C       -27.709366      -87.090820      123.527084
 H       -28.276045      -86.585495      124.259285
 C       -27.051933      -88.322655      123.723244
 H       -27.563747      -89.053970      124.294838
 C       -25.886702      -88.577690      123.004845
 H       -25.644836      -89.661530      122.940048
 C       -22.815624      -89.730743      122.150002
 H       -23.639515      -90.388947      122.315437
 C       -21.497480      -90.217224      122.206818
 H       -21.427197      -91.282364      122.512833
 C       -20.422665      -89.531387      121.548256
 H       -19.370268      -89.734421      121.671684
 C       -20.764053      -88.499619      120.700485
 H       -19.972288      -88.141434      120.036705
 C       -21.866375      -85.862106      119.327957
 C       -21.698780      -85.959381      117.975494
 H       -21.994041      -86.878151      117.518463
 C       -21.233803      -84.880997      117.220459
 H       -21.341496      -84.991089      116.178406
 C       -20.887995      -83.707756      117.833664
 H       -20.591846      -82.848068      117.259094
 C       -21.007689      -83.586189      119.182251
 H       -20.950933      -82.573059      119.656845
 C       -21.477903      -84.635452      119.926125
 H       -21.732409      -84.503830      120.961311
 C       -28.043236      -88.952744      117.989510
 C       -28.881470      -87.883705      117.892380
 N       -26.839560      -88.571808      118.561493
 C       -26.907328      -87.233719      118.992546
 N       -28.189833      -86.867874      118.541939
 C       -28.449650      -85.434853      118.639069
 C       -27.696722      -84.790604      119.652054
 C       -28.193668      -83.561958      120.052666
 H       -27.592777      -83.009453      120.700867
 C       -29.271391      -82.948380      119.480453
 H       -29.677057      -82.102936      119.922661
 C       -29.849329      -83.519592      118.378899
 H       -30.608965      -83.075691      117.913605
 C       -29.474783      -84.748238      117.910339
 H       -29.716164      -85.045212      116.882454
 C       -30.064678      -87.970840      117.118736
 H       -30.652208      -87.112640      117.043877
 C       -30.452351      -89.139198      116.457321
 H       -31.279568      -89.070908      115.742935
 C       -29.609909      -90.235077      116.670479
 H       -29.745728      -91.209526      116.235291
 C       -28.475471      -90.148079      117.511368
 H       -27.926710      -90.953430      117.903244
 C       -26.024313      -89.580902      119.112030
 C       -26.551926      -90.223312      120.227081
 H       -27.441637      -89.839127      120.696465
 C       -26.023441      -91.341797      120.779083
 H       -26.467991      -91.741287      121.682732
 C       -24.858734      -91.808090      120.226433
 H       -24.215839      -92.422089      120.840179
 C       -24.258617      -91.206841      119.104401
 H       -23.374371      -91.678230      118.562454
 C       -24.833378      -90.047195      118.573936
 H       -24.170492      -89.420166      118.080475
