206
 generated by VMD
  IR        27.690001       41.180000       41.040001
  C1        28.590000       39.250000       44.810001
  C2        29.490000       38.650002       43.880001
  N1        27.809999       40.139999       44.150002
  C3a       28.280001       40.290001       42.820000
  N2        29.299999       39.340000       42.680000
  C4        29.980000       39.279999       41.410000
  C5a       29.459999       40.200001       40.439999
  C6        30.100000       40.279999       39.160000
  H1        29.870001       40.959999       38.410000
  C7        31.190001       39.400002       38.830002
  H2        31.520000       39.290001       37.860001
  C8        31.549999       38.459999       39.799999
  H3        32.189999       37.689999       39.540001
  C9        31.000000       38.400002       41.080002
  H4        31.549999       37.849998       41.779999
  C10       30.209999       37.599998       44.299999
  H5        30.900000       37.130001       43.599998
  C11       30.200001       37.160000       45.630001
  H6        30.990000       36.480000       45.980000
  C12       29.340000       37.759998       46.570000
  H7        29.410000       37.470001       47.610001
  C13       28.520000       38.840000       46.169998
  H8        28.059999       39.459999       46.950001
  C6        26.459999       40.410000       44.619999
  C1        25.450001       39.470001       44.459999
  H1        25.690001       38.540001       44.049999
  C2        24.240000       39.630001       45.090000
  H2        23.660000       38.779999       45.110001
  C3        24.010000       40.790001       45.860001
  H3        23.150000       40.790001       46.520000
  C4        24.940001       41.840000       46.049999
  H4        24.889999       42.520000       46.910000
  C5        26.160000       41.619999       45.349998
  H5        26.910000       42.369999       45.130001
  C1        30.090000       44.900002       41.209999
  C2        29.139999       45.060001       40.240002
  N1        29.940001       43.509998       41.610001
  C3b       28.840000       42.900002       40.990002
  N2        28.430000       43.790001       40.029999
  C4        27.660000       43.209999       38.910000
  C5b       27.459999       41.799999       39.049999
  C6        27.110001       41.040001       37.930000
  H1        26.889999       39.990002       38.000000
  C7        26.930000       41.599998       36.680000
  H2        26.969999       40.980000       35.750000
  C8        26.980000       43.000000       36.520000
  H3        26.780001       43.500000       35.599998
  C9        27.400000       43.779999       37.639999
  H4        27.000000       44.759998       37.619999
  C10       29.100000       46.220001       39.459999
  H5        28.469999       46.369999       38.570000
  C11       29.930000       47.330002       39.799999
  H6        29.840000       48.230000       39.160000
  C12       30.920000       47.230000       40.849998
  H7        31.360001       48.099998       41.240002
  C13       31.000000       45.970001       41.480000
  H8        31.889999       45.759998       42.070000
  C6        30.950001       42.790001       42.270000
  C1        30.850000       42.639999       43.700001
  H1        29.980000       42.980000       44.189999
  C2        31.760000       41.820000       44.320000
  H2        31.490000       41.509998       45.330002
  C3        32.790001       41.150002       43.560001
  H3        33.240002       40.270000       44.060001
  C4        32.939999       41.380001       42.169998
  H4        33.669998       40.910000       41.470001
  C5        32.000000       42.200001       41.570000
  H5        32.040001       42.310001       40.470001
  C1        23.760000       42.799999       42.080002
  C2        23.680000       41.410000       42.160000
  N1        25.040001       43.090000       41.630001
  C3c       25.750000       41.930000       41.349998
  N2        24.940001       40.910000       41.610001
  C4        25.309999       39.590000       41.070000
  C5c       26.639999       39.380001       40.689999
  C6        27.059999       38.110001       40.160000
  H1        28.090000       37.970001       39.779999
  C7        26.209999       36.990002       40.060001
  H2        26.590000       36.029999       39.730000
  C8        24.879999       37.189999       40.470001
  H3        24.170000       36.430000       40.380001
  C9        24.450001       38.470001       40.900002
  H4        23.410000       38.689999       41.099998
  C10       22.500000       40.830002       42.680000
  H5        22.639999       39.810001       42.980000
  C11       21.360001       41.630001       42.950001
  H6        20.500000       41.250000       43.439999
  C12       21.459999       43.040001       42.750000
  H7        20.559999       43.570000       42.840000
  C13       22.650000       43.660000       42.290001
  H8        22.830000       44.740002       42.130001
  C6        25.559999       44.389999       41.860001
  C1        26.150000       44.570000       43.110001
  H1        25.850000       44.049999       44.049999
  C2        26.930000       45.700001       43.410000
  H2        27.240000       45.980000       44.459999
  C3        27.040001       46.700001       42.450001
  H3        27.620001       47.540001       42.730000
  C4        26.530001       46.490002       41.180000
  H4        26.549999       47.180000       40.330002
  C5        25.750000       45.389999       40.910000
  H5        24.980000       45.590000       40.220001
  IR        19.180000       43.840000       37.619999
  C1        21.600000       45.180000       34.279999
  C2        22.400000       44.250000       34.900002
  N1        20.410000       45.250000       34.970001
  C3a       20.459999       44.470001       36.119999
  N2        21.670000       43.849998       36.090000
  C4        21.980000       43.049999       37.220001
  C5a       20.840000       42.639999       37.930000
  C6        20.950001       41.480000       38.709999
  H1        20.040001       40.990002       38.959999
  C7        22.180000       40.869999       38.889999
  H2        22.290001       40.040001       39.570000
  C8        23.320000       41.330002       38.290001
  H3        24.230000       40.939999       38.689999
  C9        23.200001       42.389999       37.430000
  H4        24.120001       42.930000       37.209999
  C10       23.580000       43.869999       34.320000
  H5        24.040001       42.959999       34.709999
  C11       24.040001       44.419998       33.119999
  H6        25.080000       44.310001       32.849998
  C12       23.219999       45.330002       32.450001
  H7        23.590000       45.790001       31.629999
  C13       22.000000       45.700001       33.060001
  H8        21.340000       46.380001       32.500000
  C6        19.709999       46.509998       34.790001
  C1        20.200001       47.549999       35.570000
  H1        21.139999       47.509998       36.169998
  C2        19.709999       48.860001       35.320000
  H2        20.209999       49.689999       35.650002
  C3        18.590000       49.060001       34.439999
  H3        18.430000       50.180000       34.099998
  C4        18.030001       47.980000       33.740002
  H4        17.389999       48.119999       32.869999
  C5        18.639999       46.700001       33.889999
  H5        18.250000       45.830002       33.430000
  C1        17.469999       40.200001       36.000000
  C2        16.969999       40.200001       37.240002
  N1        18.170000       41.360001       35.680000
  C3b       18.160000       42.160000       36.750000
  N2        17.379999       41.470001       37.700001
  C4        17.230000       42.029999       39.009998
  C5b       18.250000       42.980000       39.320000
  C6        18.180000       43.580002       40.549999
  H1        19.040001       43.950001       41.040001
  C7        17.059999       43.380001       41.490002
  H2        17.120001       43.660000       42.549999
  C8        16.110001       42.410000       41.090000
  H3        15.190000       42.369999       41.639999
  C9        16.240000       41.759998       39.869999
  H4        15.590000       40.939999       39.529999
  C10       16.260000       39.060001       37.680000
  H5        16.070000       38.990002       38.770000
  C11       15.970000       37.980000       36.840000
  H6        15.220000       37.230000       37.099998
  C12       16.420000       37.980000       35.549999
  H7        16.500000       37.119999       34.990002
  C13       17.200001       39.060001       35.150002
  H8        17.820000       38.959999       34.259998
  C6        18.850000       41.610001       34.439999
  C1        18.459999       42.799999       33.720001
  H1        17.670000       43.459999       34.130001
  C2        19.200001       43.180000       32.580002
  H2        18.930000       44.029999       32.029999
  C3        20.340000       42.490002       32.169998
  H3        21.010000       42.869999       31.480000
  C4        20.709999       41.299999       32.860001
  H4        21.309999       40.500000       32.410000
  C5        19.959999       40.889999       33.970001
  H5        20.180000       40.040001       34.570000
  C1        15.680000       46.279999       38.480000
  C2        16.730000       47.020000       38.930000
  N1        16.200001       45.270000       37.599998
  C3c       17.620001       45.209999       37.730000
  N2        17.930000       46.360001       38.459999
  C4        19.290001       46.599998       38.650002
  C5c       20.070000       45.430000       38.750000
  C6        21.360001       45.580002       39.279999
  H1        21.959999       44.700001       39.360001
  C7        21.879999       46.869999       39.610001
  H2        22.799999       46.889999       40.160000
  C8        21.180000       48.020000       39.439999
  H3        21.600000       49.029999       39.689999
  C9        19.860001       47.889999       38.939999
  H4        19.360001       48.770000       38.650002
  C10       16.420000       48.080002       39.759998
  H5        17.270000       48.650002       40.209999
  C11       15.130000       48.480000       40.060001
  H6        14.820000       49.490002       40.430000
  C12       14.060000       47.669998       39.669998
  H7        13.100000       47.720001       40.220001
  C13       14.310000       46.590000       38.900002
  H8        13.510000       46.040001       38.419998
  C6        15.350000       44.660000       36.619999
  C1        15.440000       45.099998       35.320000
  H1        16.170000       45.790001       35.040001
  C2        14.590000       44.570000       34.349998
  H2        14.630000       44.889999       33.349998
  C3        13.750000       43.459999       34.770000
  H3        13.350000       42.790001       33.990002
  C4        13.720000       42.990002       36.070000
  H4        12.930000       42.320000       36.340000
  C5        14.510000       43.580002       37.090000
  H5        14.430000       43.169998       38.000000
