206
 generated by VMD
 Ir       41.483433      -53.520981      -30.741829
 C        39.052448      -52.315453      -34.283466
 C        38.269520      -53.215630      -33.608784
 N        40.336910      -52.334976      -33.602016
 C        40.297310      -53.139191      -32.448944
 N        39.032990      -53.577812      -32.446442
 C        38.573605      -54.034386      -31.158379
 C        39.635040      -54.445755      -30.335445
 C        39.317657      -55.283455      -29.259930
 H        40.244621      -55.634254      -28.737076
 C        38.006104      -55.699310      -28.991062
 H        37.788635      -56.549889      -28.405804
 C        36.945023      -55.132149      -29.700729
 H        35.982086      -55.488766      -29.491486
 C        37.240280      -54.277664      -30.781605
 H        36.368797      -53.991592      -31.363045
 C        37.078613      -53.569752      -34.092667
 H        36.479580      -54.320457      -33.671829
 C        36.549492      -52.951157      -35.270275
 H        35.514545      -53.132458      -35.520901
 C        37.295967      -51.984756      -35.922924
 H        36.879082      -51.110664      -36.353123
 C        38.623062      -51.795151      -35.508953
 H        39.299667      -51.150215      -36.096207
 C        41.535393      -51.958916      -34.237804
 C        42.047798      -50.643463      -34.062275
 H        41.707775      -50.057686      -33.249470
 C        43.105331      -50.202347      -34.845375
 H        43.620861      -49.343208      -34.432438
 C        43.565704      -50.992767      -35.937706
 H        44.605522      -50.801247      -36.272381
 C        43.061096      -52.275570      -36.080482
 H        43.513031      -52.881454      -36.783871
 C        42.099316      -52.731392      -35.253616
 H        41.714073      -53.695137      -35.449795
 C        39.314880      -51.057823      -27.881874
 C        40.165733      -51.876907      -27.130512
 N        39.734367      -51.236713      -29.241333
 C        40.785446      -52.129501      -29.398365
 N        41.068127      -52.445732      -28.084938
 C        42.213409      -53.272049      -27.900196
 C        42.467457      -54.041451      -28.970470
 C        43.465019      -55.031616      -28.800922
 H        43.622108      -55.675468      -29.637447
 C        44.213379      -55.173279      -27.631954
 H        44.914799      -56.037235      -27.523830
 C        43.913620      -54.360428      -26.572746
 H        44.680283      -54.248009      -25.728596
 C        42.883633      -53.414299      -26.708992
 H        42.849461      -52.721336      -25.852989
 C        39.860577      -51.972794      -25.722786
 H        40.484325      -52.482628      -25.005844
 C        38.797523      -51.240616      -25.198250
 H        38.683483      -51.209793      -24.145519
 C        37.959339      -50.411644      -26.008278
 H        36.961403      -50.198685      -25.848667
 C        38.222988      -50.279202      -27.354033
 H        37.796097      -49.535728      -28.002728
 C        39.260342      -50.382648      -30.282135
 C        40.057617      -49.456711      -30.860744
 H        41.099846      -49.375782      -30.618649
 C        39.498764      -48.675426      -31.891220
 H        40.202587      -47.993355      -32.399860
 C        38.162594      -48.784439      -32.276527
 H        37.798794      -48.125465      -33.002541
 C        37.463234      -49.777512      -31.715359
 H        36.436043      -49.899487      -32.036129
 C        37.972771      -50.503956      -30.645378
 H        37.152870      -50.957703      -30.061958
 C        45.090919      -51.577293      -32.234715
 C        45.004005      -52.788559      -32.945129
 N        44.035336      -51.616348      -31.245361
 C        43.306442      -52.766373      -31.277824
 N        43.864857      -53.442963      -32.418438
 C        43.306694      -54.688293      -32.707935
 C        42.356720      -55.119854      -31.816483
 C        41.998665      -56.457825      -31.841454
 H        41.440670      -56.924534      -30.999119
 C        42.399582      -57.276993      -32.927605
 H        41.744179      -58.167870      -33.086319
 C        43.340851      -56.837044      -33.831463
 H        43.931946      -57.578693      -34.377686
 C        43.793606      -55.551830      -33.690952
 H        44.571045      -55.170872      -34.438992
 C        46.099236      -53.064415      -33.852856
 H        46.243748      -54.107670      -34.208839
 C        47.172230      -52.156837      -34.097179
 H        47.880219      -52.373283      -34.862034
 C        47.195877      -50.964432      -33.371220
 H        47.843159      -50.204758      -33.739216
 C        46.239738      -50.695808      -32.388657
 H        46.522461      -49.979256      -31.610249
 C        43.996387      -50.617790      -30.308205
 C        44.331474      -50.956207      -28.982086
 H        44.582077      -51.962074      -28.725906
 C        44.326962      -49.943275      -28.067451
 H        44.105125      -50.233009      -27.051117
 C        44.049019      -48.591347      -28.433144
 H        43.614952      -48.076859      -27.529934
 C        43.768154      -48.306267      -29.776997
 H        43.467869      -47.350418      -30.096653
 C        43.740044      -49.364731      -30.699528
 H        43.426292      -49.031128      -31.680943
 Ir       41.483429      -53.520981      -15.400882
 C        40.126629      -54.901329      -19.310028
 C        41.419724      -54.557678      -19.542212
 N        39.889339      -54.697014      -17.988762
 C        40.932343      -54.255981      -17.293758
 N        41.878727      -54.041035      -18.288979
 C        42.909313      -53.139778      -17.967386
 C        43.090092      -52.792049      -16.616901
 C        44.172600      -52.021736      -16.210714
 H        44.252323      -51.789917      -15.141929
 C        45.017014      -51.527527      -17.179182
 H        45.794182      -50.857502      -16.908670
 C        44.824604      -51.796150      -18.532482
 H        45.395332      -51.271034      -19.207108
 C        43.757507      -52.553585      -18.924648
 H        43.328346      -52.520767      -19.923719
 C        42.030029      -54.876240      -20.783440
 H        43.114208      -54.696434      -20.778120
 C        41.302780      -55.455452      -21.834118
 H        41.799332      -55.779991      -22.773643
 C        39.963413      -55.684937      -21.613140
 H        39.544228      -56.395180      -22.218813
 C        39.337349      -55.408920      -20.365440
 H        38.275436      -55.349342      -20.272766
 C        38.718643      -55.283707      -17.418268
 C        38.784805      -56.647270      -17.072998
 H        39.762367      -57.133171      -17.144939
 C        37.770458      -57.235203      -16.330885
 H        37.946922      -58.250046      -16.020636
 C        36.624138      -56.530861      -15.960268
 H        35.779705      -57.067280      -15.609149
 C        36.590088      -55.128662      -16.205162
 H        35.839649      -54.522697      -15.687234
 C        37.624016      -54.559006      -16.973400
 H        37.473873      -53.567848      -17.205250
 C        44.025265      -56.723633      -13.869628
 C        44.035679      -55.806580      -12.869070
 N        43.297127      -56.160126      -14.920520
 C        42.843052      -54.931328      -14.608630
 N        43.323730      -54.693031      -13.308990
 C        43.007866      -53.406158      -12.788716
 C        42.224258      -52.651794      -13.647262
 C        41.880077      -51.362511      -13.226446
 H        41.594044      -50.630753      -13.933633
 C        42.285770      -50.833572      -11.975832
 H        42.093960      -49.816071      -11.579852
 C        42.987442      -51.629559      -11.095972
 H        43.360680      -51.345978      -10.069287
 C        43.347595      -52.925739      -11.492342
 H        44.096367      -53.310356      -10.899458
 C        44.723896      -56.087257      -11.663218
 H        44.575859      -55.422134      -10.834788
 C        45.368870      -57.281071      -11.496743
 H        46.038452      -57.527260      -10.665810
 C        45.399956      -58.183743      -12.548985
 H        45.572029      -59.193184      -12.352981
 C        44.740566      -57.898590      -13.747855
 H        44.917625      -58.557724      -14.528101
 C        43.195492      -56.778717      -16.251841
 C        44.130058      -56.360031      -17.157318
 H        44.612228      -55.419971      -17.174313
 C        44.290512      -57.116226      -18.322281
 H        44.970985      -56.735844      -18.970329
 C        43.496754      -58.144279      -18.637964
 H        43.528786      -58.550495      -19.669399
 C        42.565487      -58.579742      -17.649376
 H        42.038681      -59.540161      -17.735790
 C        42.436420      -57.868504      -16.456236
 H        41.899979      -58.230354      -15.598392
 C        37.981129      -54.392746      -12.925644
 C        37.730915      -53.173836      -13.449242
 N        39.308640      -54.800213      -13.375851
 C        39.781448      -53.871784      -14.249103
 N        38.818729      -52.915184      -14.369055
 C        39.175838      -51.704506      -15.074833
 C        40.206871      -51.856308      -15.926085
 C        40.459705      -50.924217      -16.924629
 H        41.145912      -51.094219      -17.715336
 C        39.656120      -49.782501      -17.047201
 H        39.756409      -49.018169      -17.866617
 C        38.643742      -49.556999      -16.191433
 H        38.014687      -48.679581      -16.220297
 C        38.434605      -50.502876      -15.192596
 H        37.748558      -50.178581      -14.329826
 C        36.593826      -52.521927      -13.168993
 H        36.396523      -51.477425      -13.412263
 C        35.596363      -53.031670      -12.289034
 H        34.628174      -52.519100      -12.358867
 C        35.846214      -54.355438      -11.868414
 H        35.113152      -55.120186      -11.572638
 C        37.063835      -55.033443      -12.077718
 H        37.291626      -55.955727      -11.652150
 C        40.102978      -55.820625      -12.648464
 C        40.607365      -55.478966      -11.384240
 H        40.400589      -54.548954      -10.827259
 C        41.386623      -56.431656      -10.681082
 H        41.985176      -56.191864       -9.826193
 C        41.735065      -57.646328      -11.296357
 H        42.046494      -58.435921      -10.613890
 C        41.254402      -57.935555      -12.606283
 H        41.704674      -58.818291      -13.124876
 C        40.438004      -57.026901      -13.256699
 H        40.107906      -57.253567      -14.283227
