206
 generated by VMD
 Ir       31.136084      -22.617535     -106.059555
 C        33.014153      -18.748703     -106.849960
 C        32.147537      -18.992231     -107.904037
 N        32.935566      -19.889933     -105.962997
 C        32.089252      -20.848280     -106.554108
 N        31.570585      -20.239067     -107.693954
 C        30.512754      -21.001175     -108.395309
 C        30.516661      -22.340508     -108.051987
 C        29.875624      -23.349903     -108.861176
 H        30.237835      -24.414650     -108.662140
 C        29.153414      -22.930550     -109.967499
 H        28.648178      -23.702629     -110.636551
 C        29.071266      -21.511181     -110.284904
 H        28.454195      -21.321747     -111.112335
 C        29.757666      -20.555325     -109.497513
 H        29.389082      -19.540272     -109.500618
 C        32.009995      -17.962475     -108.852341
 H        31.321224      -17.980564     -109.718399
 C        32.834038      -16.922108     -108.820930
 H        32.654221      -16.024025     -109.405396
 C        33.710770      -16.637459     -107.732117
 H        34.259621      -15.777021     -107.574615
 C        33.722805      -17.586632     -106.701614
 H        34.458923      -17.492649     -105.872948
 C        33.768341      -20.136538     -104.793945
 C        33.085968      -20.174145     -103.589554
 H        32.038143      -20.117521     -103.432190
 C        33.833069      -20.237780     -102.387604
 H        33.397224      -20.681053     -101.485809
 C        35.213089      -20.148994     -102.430923
 H        35.966087      -20.037895     -101.650452
 C        35.805088      -20.184788     -103.666061
 H        36.904518      -20.184574     -103.704239
 C        35.134346      -20.254177     -104.859451
 H        35.588524      -20.647383     -105.769684
 C        27.147806      -21.204975     -104.883820
 C        26.976885      -22.533493     -104.985947
 N        28.461279      -20.915810     -105.144913
 C        29.207605      -22.040689     -105.498810
 N        28.237965      -23.023376     -105.461121
 C        28.706892      -24.341709     -105.692444
 C        30.075371      -24.451069     -105.791489
 C        30.695089      -25.695745     -105.802734
 H        31.771725      -25.862492     -105.895721
 C        29.987892      -26.845688     -105.798920
 H        30.451084      -27.785397     -105.889481
 C        28.600527      -26.737976     -105.767242
 H        28.009583      -27.701096     -105.672974
 C        27.922882      -25.506271     -105.697906
 H        26.843006      -25.579884     -105.759888
 C        25.743126      -23.142250     -104.654800
 H        25.610020      -24.229012     -104.771957
 C        24.753454      -22.326731     -104.180588
 H        24.134230      -22.839520     -103.494293
 C        24.860828      -20.931702     -104.066727
 H        24.006065      -20.290287     -104.090591
 C        26.106783      -20.327637     -104.416016
 H        26.225971      -19.243069     -104.395828
 C        29.057606      -19.668467     -104.912247
 C        29.457670      -19.296051     -103.604355
 H        29.022638      -19.772160     -102.776184
 C        30.145998      -18.040976     -103.488205
 H        30.594070      -17.791613     -102.535080
 C        30.401087      -17.237251     -104.582626
 H        30.785450      -16.192997     -104.517075
 C        29.919653      -17.586763     -105.813339
 H        30.464632      -17.003872     -106.523575
 C        29.212822      -18.789398     -105.977539
 H        28.662758      -18.900494     -106.886154
 C        32.684959      -23.630550     -102.183044
 C        33.794945      -23.664482     -103.009903
 N        31.604080      -23.433086     -102.977097
 C        31.960491      -23.302727     -104.248184
 N        33.335190      -23.536278     -104.299942
 C        33.885445      -23.834236     -105.638649
 C        32.941544      -23.608883     -106.684006
 C        33.306946      -23.868473     -107.997055
 H        32.647377      -23.814810     -108.873062
 C        34.616417      -24.307308     -108.414322
 H        34.786224      -24.260025     -109.475235
 C        35.525902      -24.487953     -107.348541
 H        36.511070      -24.796808     -107.548950
 C        35.172989      -24.255409     -106.053177
 H        35.993439      -24.297199     -105.353165
 C        35.089775      -23.649433     -102.457657
 H        36.003044      -23.935345     -103.015411
 C        35.189034      -23.703392     -101.026794
 H        36.154572      -24.040176     -100.621452
 C        34.041756      -23.670010     -100.202835
 H        34.084534      -23.951603      -99.142372
 C        32.800606      -23.546242     -100.782440
 H        32.078094      -23.148857     -100.147324
 C        30.331154      -23.860809     -102.520676
 C        29.450266      -22.845207     -102.173859
 H        29.770992      -21.806999     -102.358932
 C        28.263613      -23.142147     -101.505890
 H        27.553064      -22.377975     -101.095322
 C        28.057592      -24.465467     -101.120422
 H        27.038170      -24.811512     -100.768250
 C        28.942646      -25.448788     -101.423187
 H        28.742310      -26.502464     -101.197281
 C        30.120165      -25.183582     -102.105621
 H        31.030081      -25.797953     -102.106796
 Ir       31.136082      -22.617535      -91.637299
 C        33.630951      -25.920078      -90.682922
 C        32.383179      -26.479691      -90.561279
 N        33.513126      -24.570816      -90.906998
 C        32.229755      -24.233482      -91.085220
 N        31.511337      -25.373236      -90.799500
 C        30.145622      -25.277950      -90.733528
 C        29.659828      -23.968956      -90.940994
 C        28.284714      -23.772381      -90.946098
 H        27.784258      -22.978119      -90.727257
 C        27.407791      -24.860497      -90.873947
 H        26.419992      -24.478243      -90.584076
 C        27.846008      -26.129475      -90.648193
 H        27.304173      -27.026928      -90.438698
 C        29.236012      -26.314470      -90.525848
 H        29.550621      -27.314312      -90.832993
 C        32.241131      -27.828659      -90.374184
 H        31.295639      -28.325348      -90.429367
 C        33.372063      -28.660233      -90.418655
 H        33.196388      -29.724644      -90.509567
 C        34.638664      -28.064743      -90.547935
 H        35.533398      -28.668343      -90.666794
 C        34.752579      -26.701702      -90.685944
 H        35.725567      -26.387945      -91.055473
 C        34.676491      -23.721193      -90.581680
 C        34.839054      -23.218500      -89.312790
 H        34.371696      -23.695707      -88.517090
 C        35.925049      -22.355907      -88.960175
 H        35.972881      -21.674892      -88.079025
 C        36.850922      -21.970608      -89.947495
 H        37.505371      -21.060772      -89.847534
 C        36.675484      -22.500347      -91.218048
 H        36.997566      -21.877142      -92.000336
 C        35.646885      -23.339489      -91.554688
 H        35.672806      -23.841671      -92.487610
 C        30.276699      -23.539387      -95.845322
 C        29.503647      -22.477978      -95.515015
 N        30.834845      -23.993515      -94.586761
 C        30.476810      -23.184715      -93.542999
 N        29.582737      -22.268929      -94.116112
 C        28.928406      -21.399658      -93.204453
 C        29.677914      -21.169098      -92.054893
 C        29.112625      -20.307013      -91.114594
 H        29.730202      -19.875778      -90.342560
 C        27.785608      -19.909252      -91.155914
 H        27.269638      -19.583660      -90.231163
 C        27.104006      -20.145050      -92.385223
 H        26.334385      -19.420555      -92.555206
 C        27.735826      -20.824162      -93.388733
 H        27.221962      -21.003422      -94.371124
 C        28.827444      -21.811630      -96.604668
 H        28.145847      -20.966576      -96.410477
 C        28.930967      -22.311028      -97.882942
 H        28.327744      -21.833485      -98.632263
 C        29.761621      -23.447781      -98.215668
 H        29.739216      -24.035240      -99.131470
 C        30.419056      -24.056446      -97.137009
 H        31.195023      -24.710243      -97.443954
 C        31.201942      -25.386940      -94.492363
 C        32.520660      -25.746374      -94.108322
 H        33.392033      -25.120251      -94.020676
 C        32.841148      -27.094284      -93.731857
 H        33.888931      -27.269352      -93.346100
 C        31.810570      -28.066746      -93.809418
 H        32.060116      -29.010639      -93.320549
 C        30.532734      -27.753666      -94.297287
 H        29.763313      -28.504826      -94.223457
 C        30.236372      -26.409897      -94.672989
 H        29.244497      -26.334175      -95.138771
 C        34.486397      -20.017166      -92.399887
 C        34.217972      -19.754280      -90.989441
 N        33.511757      -20.846632      -92.950752
 C        32.663933      -21.213167      -91.970932
 N        33.106464      -20.560081      -90.745636
 C        32.319538      -20.668045      -89.631912
 C        31.573353      -21.842537      -89.708580
 C        30.786276      -22.120502      -88.595093
 H        30.257187      -23.050240      -88.440338
 C        30.626389      -21.286049      -87.518471
 H        29.998142      -21.519562      -86.734070
 C        31.382914      -20.058569      -87.481613
 H        31.584248      -19.407639      -86.638313
 C        32.135162      -19.772873      -88.631531
 H        32.304665      -18.725279      -88.700226
 C        35.104179      -18.855556      -90.278931
 H        35.056480      -18.655848      -89.249405
 C        36.084484      -18.210041      -91.048950
 H        37.011826      -17.721378      -90.722832
 C        36.289139      -18.418285      -92.373093
 H        36.983643      -17.748766      -92.883980
 C        35.505135      -19.319504      -93.052826
 H        35.884129      -19.669098      -93.969757
 C        33.175415      -20.625420      -94.363739
 C        33.297684      -21.676525      -95.293922
 H        33.550514      -22.644966      -94.912231
 C        33.291687      -21.503906      -96.670715
 H        33.462067      -22.374825      -97.356117
 C        32.854744      -20.244019      -97.119232
 H        33.089111      -20.143196      -98.227737
 C        32.539341      -19.236229      -96.213974
 H        32.003841      -18.434448      -96.687454
 C        32.742474      -19.375462      -94.862106
 H        32.892258      -18.432243      -94.343933
