206
 generated by VMD
  IR        52.299999        3.730000       43.540001
  C1        49.549999        3.680000       46.939999
  C2        50.639999        4.510000       47.259998
  N1        49.720001        3.360000       45.549999
  C3a       50.889999        4.010000       45.049999
  N2        51.410000        4.700000       46.110001
  C4        52.509998        5.560000       45.860001
  C5a       53.279999        5.160000       44.779999
  C6        54.220001        6.130000       44.310001
  H1        54.770000        5.940000       43.400002
  C7        54.430000        7.400000       45.020000
  H2        55.240002        7.970000       44.660000
  C8        53.720001        7.720000       46.119999
  H3        53.849998        8.580000       46.720001
  C9        52.720001        6.790000       46.549999
  H4        52.290001        7.000000       47.520000
  C10       50.759998        4.830000       48.669998
  H5        51.650002        5.200000       49.080002
  C11       49.830002        4.340000       49.619999
  H6        50.139999        4.320000       50.709999
  C12       48.790001        3.540000       49.259998
  H7        48.200001        3.100000       49.990002
  C13       48.669998        3.180000       47.880001
  H8        48.009998        2.370000       47.610001
  C6        48.840000        2.540000       44.790001
  C1        48.009998        3.140000       43.849998
  H1        48.009998        4.150000       43.689999
  C2        47.049999        2.260000       43.220001
  H2        46.240002        2.660000       42.590000
  C3        46.980000        0.890000       43.430000
  H3        46.369999        0.260000       42.840000
  C4        47.970001        0.270000       44.230000
  H4        48.320000       -0.720000       43.910000
  C5        48.860001        1.160000       44.919998
  H5        49.389999        0.660000       45.770000
  C1        51.439999        6.800000       40.529999
  C2        52.599998        6.240000       40.150002
  N1        51.090000        6.170000       41.730000
  C3b       51.980000        5.170000       42.080002
  N2        52.959999        5.190000       41.090000
  C4        54.130001        4.430000       41.310001
  C5b       53.980000        3.420000       42.310001
  C6        54.980000        2.450000       42.459999
  H1        54.750000        1.690000       43.209999
  C7        56.169998        2.460000       41.770000
  H2        57.029999        1.990000       42.200001
  C8        56.360001        3.490000       40.840000
  H3        57.270000        3.490000       40.230000
  C9        55.360001        4.490000       40.630001
  H4        55.570000        5.380000       40.090000
  C10       53.139999        6.680000       38.970001
  H5        53.669998        5.890000       38.470001
  C11       52.599998        7.790000       38.310001
  H6        52.889999        7.960000       37.340000
  C12       51.470001        8.470000       38.810001
  H7        51.209999        9.480000       38.349998
  C13       50.869999        7.930000       39.889999
  H8        50.000000        8.380000       40.410000
  C6        50.349998        6.830000       42.779999
  C1        50.900002        8.010000       43.279999
  H1        51.900002        8.250000       43.209999
  C2        50.040001        8.900000       43.849998
  H2        50.480000        9.760000       44.169998
  C3        48.680000        8.700000       43.900002
  H3        48.110001        9.390000       44.529999
  C4        48.090000        7.560000       43.320000
  H4        47.080002        7.310000       43.570000
  C5        48.950001        6.600000       42.730000
  H5        48.619999        5.670000       42.310001
  C1        50.549999        0.280000       41.580002
  C2        51.240002       -0.270000       42.610001
  N1        50.700001        1.640000       41.599998
  C3c       51.549999        1.990000       42.619999
  N2        51.840000        0.830000       43.290001
  C4        52.439999        0.930000       44.560001
  C5c       53.080002        2.170000       44.779999
  C6        53.939999        2.320000       45.910000
  H1        54.529999        3.200000       45.939999
  C7        54.090000        1.290000       46.860001
  H2        54.650002        1.440000       47.799999
  C8        53.330002        0.140000       46.750000
  H3        53.230000       -0.430000       47.709999
  C9        52.560001       -0.060000       45.610001
  H4        52.139999       -1.050000       45.490002
  C10       51.209999       -1.620000       42.790001
  H5        51.869999       -2.080000       43.529999
  C11       50.340000       -2.470000       42.090000
  H6        50.230000       -3.510000       42.250000
  C12       49.630001       -1.960000       41.020000
  H7        49.049999       -2.590000       40.360001
  C13       49.720001       -0.570000       40.770000
  H8        49.009998       -0.070000       40.099998
  C6        50.169998        2.460000       40.490002
  C1        51.080002        3.000000       39.619999
  H1        52.099998        2.830000       39.810001
  C2        50.709999        3.870000       38.610001
  H2        51.540001        4.110000       37.849998
  C3        49.369999        4.340000       38.660000
  H3        49.189999        5.300000       38.200001
  C4        48.450001        3.830000       39.580002
  H4        47.400002        4.080000       39.520000
  C5        48.840000        2.860000       40.540001
  H5        48.110001        2.220000       40.990002
  IR        47.410000       12.690000       49.740002
  C1        45.919998        9.000000       48.090000
  C2        47.240002        8.960000       47.680000
  N1        45.680000       10.320000       48.560001
  C3a       46.750000       11.100000       48.590000
  N2        47.740002       10.270000       48.060001
  C4        48.990002       10.920000       47.880001
  C5a       49.200001       12.020000       48.820000
  C6        50.509998       12.460000       49.009998
  H1        50.730000       13.200000       49.740002
  C7        51.549999       11.950000       48.250000
  H2        52.509998       12.450000       48.349998
  C8        51.320000       10.960000       47.290001
  H3        52.110001       10.750000       46.540001
  C9        50.029999       10.400000       47.110001
  H4        49.919998        9.650000       46.369999
  C10       47.849998        7.740000       47.250000
  H5        48.830002        7.400000       47.560001
  C11       46.990002        6.680000       47.029999
  H6        47.439999        5.770000       46.599998
  C12       45.610001        6.750000       47.360001
  H7        45.070000        5.890000       47.099998
  C13       45.009998        7.890000       47.950001
  H8        44.020000        7.950000       48.200001
  C6        44.330002       10.730000       48.770000
  C1        43.820000       10.500000       50.060001
  H1        44.459999       10.360000       50.860001
  C2        42.490002       10.660000       50.270000
  H2        42.110001       10.700000       51.310001
  C3        41.619999       10.980000       49.270000
  H3        40.570000       11.170000       49.450001
  C4        42.049999       11.240000       47.970001
  H4        41.529999       11.870000       47.310001
  C5        43.439999       11.110000       47.720001
  H5        43.799999       11.330000       46.720001
  C1        48.480000       10.830000       53.509998
  C2        49.240002       11.960000       53.540001
  N1        47.820000       10.670000       52.299999
  C3b       48.110001       11.810000       51.470001
  N2        48.980000       12.620000       52.270000
  C4        49.070000       14.040000       51.889999
  C5b       48.490002       14.330000       50.630001
  C6        48.619999       15.690000       50.169998
  H1        48.160000       15.910000       49.270000
  C7        49.200001       16.700001       51.009998
  H2        49.549999       17.540001       50.380001
  C8        49.680000       16.410000       52.279999
  H3        50.000000       17.250000       52.869999
  C9        49.630001       15.080000       52.709999
  H4        50.310001       14.760000       53.459999
  C10       50.000000       12.260000       54.680000
  H5        50.730000       12.950000       54.529999
  C11       50.029999       11.360000       55.779999
  H6        50.570000       11.550000       56.669998
  C12       49.240002       10.190000       55.730000
  H7        49.389999        9.410000       56.470001
  C13       48.490002       10.040000       54.599998
  H8        47.680000        9.280000       54.759998
  C6        47.590000        9.290000       51.750000
  C1        46.389999        8.660000       52.070000
  H1        45.480000        9.170000       52.380001
  C2        46.240002        7.320000       51.650002
  H2        45.259998        6.850000       51.830002
  C3        47.250000        6.620000       50.930000
  H3        47.230000        5.540000       50.889999
  C4        48.400002        7.280000       50.570000
  H4        49.130001        6.750000       50.049999
  C5        48.599998        8.620000       51.029999
  H5        49.459999        9.160000       50.700001
  C1        43.459999       14.160000       50.790001
  C2        43.529999       14.260000       49.419998
  N1        44.669998       13.690000       51.310001
  C3c       45.619999       13.580000       50.240002
  N2        44.840000       13.910000       49.080002
  C4        45.590000       14.120000       47.860001
  C5c       46.910000       13.700000       47.919998
  C6        47.730000       13.910000       46.810001
  H1        48.730000       13.640000       46.910000
  C7        47.169998       14.450000       45.619999
  H2        47.869999       14.650000       44.810001
  C8        45.840000       14.880000       45.470001
  H3        45.490002       15.160000       44.480000
  C9        45.080002       14.740000       46.599998
  H4        44.080002       15.160000       46.480000
  C10       42.349998       14.470000       48.700001
  H5        42.340000       14.660000       47.650002
  C11       41.090000       14.590000       49.310001
  H6        40.189999       14.520000       48.740002
  C12       41.099998       14.640000       50.709999
  H7        40.209999       14.630000       51.340000
  C13       42.250000       14.380000       51.439999
  H8        42.139999       14.550000       52.490002
  C6        45.000000       13.830000       52.689999
  C1        45.750000       14.770000       53.340000
  H1        46.080002       15.650000       52.840000
  C2        46.130001       14.660000       54.700001
  H2        46.689999       15.410000       55.209999
  C3        45.910000       13.490000       55.360001
  H3        46.459999       13.350000       56.340000
  C4        45.360001       12.430000       54.650002
  H4        45.520000       11.410000       54.970001
  C5        44.849998       12.630000       53.340000
  H5        44.169998       11.930000       52.919998
