206
 generated by VMD
  IR        14.180000       43.650002       17.480000
  C1        13.880000       42.639999       13.250000
  C2        12.910000       43.590000       13.490000
  N1        14.420000       42.279999       14.480000
  C3a       13.780000       43.009998       15.500000
  N2        12.810000       43.810001       14.880000
  C4        11.920000       44.549999       15.760000
  C5a       12.560000       44.939999       16.950001
  C6        11.970000       45.930000       17.730000
  H1        12.520000       46.389999       18.549999
  C7        10.750000       46.540001       17.389999
  H2        10.220000       47.360001       17.840000
  C8        10.090000       46.029999       16.270000
  H3         9.230000       46.570000       16.049999
  C9        10.660000       44.990002       15.440000
  H4        10.250000       44.900002       14.480000
  C10       12.160000       44.169998       12.410000
  H5        11.420000       44.959999       12.520000
  C11       12.440000       43.730000       11.040000
  H6        11.810000       44.029999       10.180000
  C12       13.410000       42.759998       10.850000
  H7        13.670000       42.310001        9.900000
  C13       14.140000       42.169998       11.940000
  H8        14.820000       41.349998       11.740000
  C6        15.180000       41.020000       14.620000
  C1        14.470000       39.849998       14.710000
  H1        13.610000       39.840000       15.370000
  C2        15.040000       38.660000       14.380000
  H2        14.590000       37.700001       14.470000
  C3        16.370001       38.520000       13.990000
  H3        16.900000       37.639999       14.160000
  C4        17.090000       39.730000       13.840000
  H4        18.080000       39.630001       13.390000
  C5        16.520000       40.939999       14.210000
  H5        17.190001       41.790001       14.230000
  C1        16.730000       47.169998       17.049999
  C2        16.860001       46.840000       18.370001
  N1        15.720000       46.320000       16.430000
  C3b       15.240000       45.400002       17.350000
  N2        15.880000       45.759998       18.570000
  C4        15.340000       45.189999       19.760000
  C5b       14.220000       44.389999       19.469999
  C6        13.390000       44.000000       20.530001
  H1        12.470000       43.540001       20.299999
  C7        13.690000       44.400002       21.830000
  H2        12.840000       44.410000       22.590000
  C8        14.790000       45.209999       22.080000
  H3        14.930000       45.570000       23.070000
  C9        15.590000       45.669998       21.030001
  H4        16.240000       46.549999       21.299999
  C10       18.030001       47.240002       19.040001
  H5        18.070000       47.020000       20.070000
  C11       19.049999       47.939999       18.400000
  H6        19.969999       48.299999       18.870001
  C12       18.820000       48.470001       17.120001
  H7        19.219999       49.369999       16.820000
  C13       17.719999       48.009998       16.389999
  H8        17.469999       48.500000       15.490000
  C6        15.510000       46.299999       14.980000
  C1        16.160000       45.259998       14.210000
  H1        16.750000       44.570000       14.780000
  C2        15.890000       45.160000       12.860000
  H2        16.299999       44.380001       12.250000
  C3        15.100000       46.160000       12.260000
  H3        15.150000       46.180000       11.190000
  C4        14.510000       47.189999       13.020000
  H4        13.930000       47.939999       12.440000
  C5        14.630000       47.220001       14.430000
  H5        14.070000       47.810001       15.110000
  C1        17.230000       40.500000       18.320000
  C2        15.970000       39.869999       18.340000
  N1        16.930000       41.860001       18.180000
  C3c       15.590000       42.150002       18.100000
  N2        14.980000       40.919998       18.219999
  C4        13.620000       40.990002       18.540001
  C5c       12.950000       42.070000       17.990000
  C6        11.570000       42.099998       18.200001
  H1        11.010000       42.689999       17.549999
  C7        10.880000       41.230000       18.930000
  H2         9.830000       41.250000       18.820000
  C8        11.540000       40.200001       19.570000
  H3        10.980000       39.630001       20.350000
  C9        12.900000       40.049999       19.350000
  H4        13.480000       39.169998       19.620001
  C10       16.049999       38.450001       18.209999
  H5        15.120000       37.869999       18.410000
  C11       17.230000       37.790001       18.010000
  H6        17.180000       36.689999       17.870001
  C12       18.440001       38.459999       18.010000
  H7        19.309999       38.060001       17.549999
  C13       18.440001       39.820000       18.240000
  H8        19.290001       40.340000       18.549999
  C6        17.840000       42.990002       18.000000
  C1        18.080000       43.470001       16.730000
  H1        17.719999       42.919998       15.870000
  C2        19.100000       44.360001       16.540001
  H2        19.420000       44.650002       15.490000
  C3        19.900000       44.830002       17.520000
  H3        20.850000       45.380001       17.280001
  C4        19.750000       44.279999       18.780001
  H4        20.520000       44.349998       19.520000
  C5        18.780001       43.279999       19.000000
  H5        19.010000       42.509998       19.730000
  IR         5.900000       50.430000       14.740000
  C1         9.810000       52.020000       15.310000
  C2         9.800000       51.000000       16.250000
  N1         8.610000       52.119999       14.700000
  C3a        7.750000       51.209999       15.220000
  N2         8.480000       50.580002       16.180000
  C4         7.640000       49.830002       17.040001
  C5a        6.440000       49.340000       16.490000
  C6         5.650000       48.439999       17.309999
  H1         4.910000       47.950001       16.700001
  C7         5.970000       48.240002       18.639999
  H2         5.250000       47.810001       19.299999
  C8         7.120000       48.700001       19.209999
  H3         7.440000       48.380001       20.170000
  C9         7.970000       49.500000       18.400000
  H4         8.760000       50.029999       18.910000
  C10       10.970000       50.560001       16.900000
  H5        10.840000       49.980000       17.820000
  C11       12.210000       51.099998       16.530001
  H6        13.120000       50.880001       17.100000
  C12       12.210000       52.049999       15.440000
  H7        13.150000       52.119999       14.800000
  C13       11.050000       52.560001       14.870000
  H8        11.160000       53.220001       14.080000
  C6         8.190000       53.090000       13.690000
  C1         8.150000       52.750000       12.320000
  H1         8.540000       51.860001       12.050000
  C2         7.740000       53.700001       11.390000
  H2         7.850000       53.610001       10.300000
  C3         7.440000       54.990002       11.870000
  H3         7.030000       55.689999       11.230000
  C4         7.550000       55.290001       13.200000
  H4         7.390000       56.290001       13.510000
  C5         7.920000       54.380001       14.160000
  H5         8.270000       54.700001       15.070000
  C1         7.150000       47.080002       12.230000
  C2         5.750000       46.939999       12.330000
  N1         7.480000       48.240002       12.950000
  C3b        6.330000       48.799999       13.580000
  N2         5.320000       48.020000       13.230000
  C4         4.010000       48.250000       13.840000
  C5b        4.080000       49.400002       14.610000
  C6         2.850000       49.910000       15.170000
  H1         2.720000       50.750000       15.750000
  C7         1.640000       49.220001       14.970000
  H2         0.660000       49.590000       15.140000
  C8         1.690000       48.000000       14.280000
  H3         0.760000       47.419998       14.300000
  C9         2.870000       47.529999       13.740000
  H4         2.890000       46.470001       13.560000
  C10        5.100000       45.700001       11.910000
  H5         4.070000       45.590000       12.060000
  C11        5.920000       44.689999       11.360000
  H6         5.590000       43.770000       10.880000
  C12        7.280000       44.860001       11.230000
  H7         7.820000       43.939999       11.120000
  C13        7.940000       46.040001       11.630000
  H8         9.030000       46.090000       11.450000
  C6         8.780000       48.810001       12.870000
  C1         9.080000       49.259998       11.550000
  H1         8.300000       49.860001       11.190000
  C2        10.390000       49.320000       11.120000
  H2        10.700000       49.560001       10.110000
  C3        11.400000       49.070000       12.070000
  H3        12.420000       49.209999       11.700000
  C4        11.110000       48.750000       13.390000
  H4        11.910000       48.360001       13.960000
  C5         9.780000       48.590000       13.780000
  H5         9.490000       48.360001       14.800000
  C1         4.100000       53.020000       11.660000
  C2         3.930000       53.669998       12.850000
  N1         4.900000       51.910000       11.920000
  C3c        5.160000       51.730000       13.320000
  N2         4.620000       52.930000       13.850000
  C4         4.870000       53.180000       15.240000
  C5c        5.180000       52.020000       15.950000
  C6         5.180000       52.049999       17.340000
  H1         5.560000       51.209999       17.900000
  C7         4.990000       53.200001       18.070000
  H2         5.400000       53.209999       19.040001
  C8         4.720000       54.430000       17.420000
  H3         4.810000       55.410000       17.850000
  C9         4.660000       54.369999       16.020000
  H4         4.380000       55.290001       15.500000
  C10        3.100000       54.790001       12.880000
  H5         2.900000       55.250000       13.870000
  C11        2.470000       55.299999       11.760000
  H6         1.600000       55.919998       11.880000
  C12        2.620000       54.660000       10.570000
  H7         2.040000       55.090000        9.700000
  C13        3.420000       53.490002       10.480000
  H8         3.260000       52.919998        9.600000
  C6         4.870000       50.759998       10.990000
  C1         5.940000       50.480000       10.150000
  H1         6.820000       50.950001       10.410000
  C2         5.790000       49.509998        9.150000
  H2         6.230000       49.740002        8.200000
  C3         4.640000       48.680000        9.070000
  H3         4.560000       47.880001        8.290000
  C4         3.500000       48.889999        9.930000
  H4         2.660000       48.270000        9.780000
  C5         3.660000       49.980000       10.870000
  H5         2.860000       50.130001       11.610000
