206
 generated by VMD
  IR        42.970001       40.480000       27.510000
  C1        44.320000       36.470001       26.469999
  C2        43.299999       36.680000       25.610001
  N1        44.520000       37.660000       27.240000
  C3a       43.580002       38.630001       26.870001
  N2        42.750000       38.009998       25.920000
  C4        41.680000       38.750000       25.430000
  C5a       41.509998       39.980000       26.110001
  C6        40.389999       40.750000       25.870001
  H1        40.240002       41.619999       26.430000
  C7        39.500000       40.369999       24.840000
  H2        38.720001       41.099998       24.590000
  C8        39.639999       39.180000       24.129999
  H3        38.889999       38.880001       23.440001
  C9        40.740002       38.380001       24.450001
  H4        41.040001       37.639999       23.680000
  C10       43.009998       35.650002       24.700001
  H5        42.169998       35.799999       24.010000
  C11       43.650002       34.419998       24.740000
  H6        43.480000       33.830002       23.840000
  C12       44.580002       34.220001       25.709999
  H7        45.020000       33.259998       25.809999
  C13       44.990002       35.230000       26.600000
  H8        45.790001       34.959999       27.260000
  C6        45.529999       37.700001       28.330000
  C1        46.660000       38.310001       28.100000
  H1        46.759998       38.970001       27.240000
  C2        47.759998       38.160000       28.990000
  H2        48.650002       38.720001       28.820000
  C3        47.680000       37.340000       30.110001
  H3        48.590000       37.060001       30.610001
  C4        46.470001       36.680000       30.309999
  H4        46.119999       36.230000       31.219999
  C5        45.360001       36.889999       29.469999
  H5        44.490002       36.230000       29.660000
  C1        45.139999       42.840000       24.620001
  C2        44.290001       43.799999       25.280001
  N1        44.740002       41.610001       25.070000
  C3b       43.830002       41.669998       26.080000
  N2        43.570000       43.099998       26.200001
  C4        42.680000       43.439999       27.320000
  C5b       42.119999       42.310001       27.980000
  C6        41.099998       42.580002       28.900000
  H1        40.910000       41.860001       29.700001
  C7        40.630001       43.860001       29.209999
  H2        39.779999       43.919998       29.790001
  C8        41.250000       44.970001       28.520000
  H3        41.130001       45.970001       28.910000
  C9        42.240002       44.680000       27.559999
  H4        42.480000       45.410000       26.840000
  C10       44.389999       45.160000       24.920000
  H5        43.549999       45.770000       25.110001
  C11       45.349998       45.529999       24.010000
  H6        45.299999       46.529999       23.620001
  C12       46.209999       44.650002       23.379999
  H7        47.060001       44.939999       22.719999
  C13       46.130001       43.279999       23.740000
  H8        46.900002       42.650002       23.360001
  C6        45.209999       40.410000       24.420000
  C1        46.540001       39.959999       24.600000
  H1        47.290001       40.540001       25.180000
  C2        47.080002       38.810001       23.969999
  H2        48.040001       38.400002       24.330000
  C3        46.299999       38.020000       23.120001
  H3        46.650002       37.099998       22.709999
  C4        44.970001       38.369999       22.950001
  H4        44.299999       37.700001       22.330000
  C5        44.480000       39.590000       23.540001
  H5        43.490002       39.959999       23.330000
  C1        46.189999       40.970001       30.440001
  C2        45.259998       40.160000       31.150000
  N1        45.599998       41.400002       29.230000
  C3c       44.340000       40.830002       29.049999
  N2        44.080002       40.130001       30.240000
  C4        42.840000       39.529999       30.320000
  C5c       42.090000       39.500000       29.160000
  C6        40.799999       38.990002       29.200001
  H1        40.150002       39.119999       28.340000
  C7        40.200001       38.520000       30.379999
  H2        39.310001       37.950001       30.190001
  C8        40.930000       38.549999       31.520000
  H3        40.480000       38.060001       32.349998
  C9        42.230000       39.060001       31.590000
  H4        42.740002       39.119999       32.540001
  C10       45.529999       39.689999       32.459999
  H5        45.009998       38.840000       32.869999
  C11       46.700001       40.040001       33.099998
  H6        46.959999       39.509998       34.060001
  C12       47.610001       40.820000       32.389999
  H7        48.380001       41.209999       32.970001
  C13       47.380001       41.290001       31.059999
  H8        48.130001       41.779999       30.480000
  C6        45.990002       42.560001       28.610001
  C1        45.500000       43.669998       29.139999
  H1        44.790001       43.619999       29.940001
  C2        45.910000       44.950001       28.700001
  H2        45.470001       45.869999       29.030001
  C3        46.820000       45.070000       27.629999
  H3        46.919998       46.000000       27.090000
  C4        47.410000       43.930000       27.059999
  H4        48.160000       44.049999       26.320000
  C5        47.000000       42.650002       27.590000
  H5        47.430000       41.730000       27.160000
  IR        50.630001       36.200001       38.880001
  C1        51.930000       33.070000       41.669998
  C2        50.619999       32.900002       41.480000
  N1        52.279999       34.220001       40.900002
  C3a       51.169998       34.779999       40.299999
  N2        50.160000       33.980000       40.759998
  C4        48.810001       34.450001       40.529999
  C5a       48.759998       35.369999       39.509998
  C6        47.490002       35.869999       39.090000
  H1        47.500000       36.560001       38.310001
  C7        46.310001       35.450001       39.730000
  H2        45.340000       35.860001       39.380001
  C8        46.389999       34.450001       40.730000
  H3        45.520000       34.290001       41.270000
  C9        47.669998       33.910000       41.070000
  H4        47.660000       33.080002       41.720001
  C10       50.060001       31.750000       42.000000
  H5        49.060001       31.500000       41.720001
  C11       50.840000       30.820000       42.720001
  H6        50.450001       29.860001       43.049999
  C12       52.150002       31.150000       43.060001
  H7        52.779999       30.469999       43.660000
  C13       52.720001       32.220001       42.500000
  H8        53.700001       32.529999       42.869999
  C6        53.639999       34.509998       40.610001
  C1        54.419998       33.470001       40.060001
  H1        53.980000       32.860001       39.330002
  C2        55.830002       33.580002       40.169998
  H2        56.560001       32.919998       39.680000
  C3        56.470001       34.730000       40.689999
  H3        57.439999       34.959999       40.250000
  C4        55.709999       35.790001       41.130001
  H4        56.009998       36.810001       41.180000
  C5        54.310001       35.619999       41.180000
  H5        53.680000       36.340000       41.689999
  C1        50.389999       33.860001       35.189999
  C2        50.250000       35.139999       34.759998
  N1        50.470001       33.849998       36.590000
  C3b       50.430000       35.150002       37.070000
  N2        50.279999       35.959999       36.020000
  C4        49.970001       37.230000       36.270000
  C5b       49.770000       37.590000       37.599998
  C6        49.070000       38.820000       37.970001
  H1        48.540001       38.740002       38.959999
  C7        48.840000       39.720001       36.970001
  H2        48.130001       40.540001       37.119999
  C8        49.250000       39.349998       35.669998
  H3        48.970001       40.070000       34.919998
  C9        49.810001       38.169998       35.299999
  H4        50.240002       38.070000       34.330002
  C10       50.400002       35.419998       33.330002
  H5        50.529999       36.419998       33.020000
  C11       50.759998       34.389999       32.450001
  H6        50.919998       34.570000       31.389999
  C12       50.919998       33.090000       32.910000
  H7        51.169998       32.410000       32.200001
  C13       50.619999       32.840000       34.240002
  H8        50.500000       31.780001       34.520000
  C6        50.570000       32.580002       37.400002
  C1        49.459999       32.130001       38.049999
  H1        48.580002       32.720001       38.150002
  C2        49.619999       30.980000       38.820000
  H2        48.779999       30.620001       39.410000
  C3        50.770000       30.209999       38.990002
  H3        51.040001       29.490000       39.810001
  C4        51.840000       30.660000       38.270000
  H4        52.740002       30.139999       38.160000
  C5        51.779999       31.850000       37.470001
  H5        52.709999       32.299999       37.250000
  C1        54.740002       37.720001       38.330002
  C2        54.200001       38.400002       39.419998
  N1        53.639999       36.990002       37.740002
  C3c       52.459999       37.119999       38.509998
  N2        52.779999       38.029999       39.540001
  C4        51.810001       38.470001       40.490002
  C5c       50.740002       37.509998       40.570000
  C6        49.750000       37.790001       41.529999
  H1        48.869999       37.220001       41.500000
  C7        49.820000       38.820000       42.410000
  H2        48.919998       38.779999       43.049999
  C8        50.830002       39.740002       42.369999
  H3        50.740002       40.689999       42.930000
  C9        51.840000       39.580002       41.380001
  H4        52.650002       40.230000       41.450001
  C10       55.080002       39.270000       40.169998
  H5        54.790001       39.730000       41.070000
  C11       56.430000       39.340000       39.779999
  H6        57.049999       39.910000       40.419998
  C12       57.000000       38.660000       38.709999
  H7        58.009998       38.930000       38.369999
  C13       56.090000       37.939999       37.930000
  H8        56.720001       37.400002       37.180000
  C6        53.770000       36.200001       36.590000
  C1        53.730000       36.730000       35.279999
  H1        53.169998       37.680000       35.119999
  C2        54.209999       35.980000       34.169998
  H2        54.360001       36.509998       33.240002
  C3        54.650002       34.660000       34.389999
  H3        54.820000       34.000000       33.619999
  C4        54.660000       34.130001       35.709999
  H4        54.520000       33.099998       35.880001
  C5        54.250000       34.939999       36.720001
  H5        54.090000       34.520000       37.680000
