206
 generated by VMD
  IR        27.350000       15.820000       60.540001
  C1        29.719999       18.969999       58.599998
  C2        29.639999       19.360001       59.880001
  N1        29.170000       17.680000       58.529999
  C3a       28.610001       17.299999       59.790001
  N2        28.930000       18.330000       60.630001
  C4        28.270000       18.340000       61.900002
  C5a       27.389999       17.209999       62.119999
  C6        26.790001       17.110001       63.380001
  H1        26.230000       16.270000       63.669998
  C7        26.950001       18.059999       64.339996
  H2        26.260000       18.030001       65.199997
  C8        27.840000       19.139999       64.089996
  H3        27.850000       19.980000       64.790001
  C9        28.490000       19.230000       62.930000
  H4        29.340000       19.870001       63.009998
  C10       30.160000       20.559999       60.220001
  H5        29.920000       20.889999       61.240002
  C11       30.840000       21.389999       59.290001
  H6        31.340000       22.330000       59.660000
  C12       31.020000       20.910000       57.970001
  H7        31.510000       21.450001       57.230000
  C13       30.309999       19.750000       57.619999
  H8        30.219999       19.510000       56.570000
  C6        28.709999       17.100000       57.270000
  C1        29.440001       16.070000       56.639999
  H1        30.410000       15.810000       57.049999
  C2        29.049999       15.540000       55.410000
  H2        29.770000       14.920000       54.849998
  C3        27.910000       16.059999       54.790001
  H3        27.559999       15.590000       53.970001
  C4        27.180000       17.150000       55.320000
  H4        26.240000       17.500000       54.799999
  C5        27.540001       17.600000       56.639999
  H5        26.820000       18.270000       57.150002
  C1        29.959999       12.920000       62.490002
  C2        28.700001       12.670000       62.930000
  N1        29.889999       14.140000       61.720001
  C3b       28.600000       14.670000       61.779999
  N2        27.870001       13.720000       62.529999
  C4        26.469999       13.840000       62.529999
  C5b       25.889999       14.720000       61.549999
  C6        24.540001       14.890000       61.509998
  H1        24.139999       15.610000       60.779999
  C7        23.709999       14.180000       62.340000
  H2        22.740000       14.140000       62.029999
  C8        24.200001       13.290000       63.290001
  H3        23.570000       12.750000       63.889999
  C9        25.559999       13.110000       63.419998
  H4        25.920000       12.630000       64.339996
  C10       28.410000       11.410000       63.419998
  H5        27.400000       11.060000       63.549999
  C11       29.450001       10.470000       63.529999
  H6        29.320000        9.410000       63.840000
  C12       30.780001       10.750000       63.119999
  H7        31.540001       10.010000       63.270000
  C13       31.049999       11.990000       62.560001
  H8        31.950001       12.150000       62.020000
  C6        31.100000       15.080000       61.570000
  C1        31.139999       16.230000       62.380001
  H1        30.309999       16.520000       63.020000
  C2        32.160000       17.100000       62.220001
  H2        32.040001       17.900000       62.990002
  C3        33.169998       16.910000       61.220001
  H3        33.730000       17.750000       60.840000
  C4        33.070000       15.760000       60.400002
  H4        33.860001       15.450000       59.759998
  C5        32.029999       14.780000       60.599998
  H5        31.850000       13.840000       60.189999
  C1        26.500000       12.650000       57.709999
  C2        25.570000       13.620000       57.500000
  N1        27.389999       13.210000       58.689999
  C3c       26.990000       14.470000       59.070000
  N2        25.879999       14.760000       58.340000
  C4        25.360001       16.090000       58.299999
  C5c       25.879999       16.809999       59.320000
  C6        25.450001       18.129999       59.509998
  H1        25.930000       18.840000       60.279999
  C7        24.410000       18.680000       58.750000
  H2        24.129999       19.730000       58.889999
  C8        23.840000       17.900000       57.720001
  H3        22.950001       18.240000       57.220001
  C9        24.370001       16.639999       57.450001
  H4        24.110001       16.200001       56.500000
  C10       24.559999       13.320000       56.639999
  H5        23.709999       14.020000       56.470001
  C11       24.480000       12.100000       55.830002
  H6        23.730000       11.810000       55.099998
  C12       25.430000       11.200000       56.110001
  H7        25.270000       10.170000       55.799999
  C13       26.480000       11.390000       57.040001
  H8        27.150000       10.580000       57.209999
  C6        28.660000       12.670000       59.000000
  C1        28.660000       11.550000       59.840000
  H1        27.879999       11.500000       60.560001
  C2        29.559999       10.480000       59.700001
  H2        29.480000        9.560000       60.410000
  C3        30.469999       10.560000       58.639999
  H3        31.230000        9.750000       58.590000
  C4        30.540001       11.680000       57.840000
  H4        31.430000       11.920000       57.240002
  C5        29.610001       12.690000       58.040001
  H5        29.430000       13.450000       57.270000
  IR        35.880001        7.680000       59.369999
  C1        38.490002        8.710000       62.799999
  C2        38.230000        9.900000       62.090000
  N1        37.919998        7.750000       61.970001
  C3a       37.240002        8.270000       60.810001
  N2        37.400002        9.610000       60.990002
  C4        36.540001       10.480000       60.160000
  C5a       35.459999        9.770000       59.509998
  C6        34.410000       10.490000       58.860001
  H1        33.820000        9.990000       58.160000
  C7        34.419998       11.890000       58.840000
  H2        33.619999       12.440000       58.380001
  C8        35.529999       12.540000       59.360001
  H3        35.610001       13.680000       59.230000
  C9        36.599998       11.880000       59.980000
  H4        37.570000       12.430000       59.959999
  C10       38.759998       11.070000       62.590000
  H5        38.480000       12.020000       62.209999
  C11       39.639999       11.090000       63.709999
  H6        40.009998       12.050000       64.089996
  C12       39.869999        9.920000       64.449997
  H7        40.340000       10.050000       65.349998
  C13       39.290001        8.770000       63.930000
  H8        39.680000        7.840000       64.349998
  C6        38.500000        6.430000       62.009998
  C1        38.230000        5.660000       63.169998
  H1        37.410000        5.930000       63.810001
  C2        38.889999        4.410000       63.310001
  H2        38.610001        3.720000       64.089996
  C3        39.599998        3.880000       62.230000
  H3        39.939999        2.810000       62.259998
  C4        39.849998        4.580000       61.020000
  H4        40.090000        4.100000       60.049999
  C5        39.290001        5.880000       60.970001
  H5        39.470001        6.470000       60.060001
  C1        32.189999        7.140000       61.580002
  C2        31.770000        7.140000       60.279999
  N1        33.549999        7.370000       61.660000
  C3b       34.080002        7.450000       60.389999
  N2        32.950001        7.370000       59.560001
  C4        33.119999        7.410000       58.180000
  C5b       34.470001        7.390000       57.790001
  C6        34.840000        7.120000       56.450001
  H1        35.880001        7.240000       56.169998
  C7        33.849998        6.900000       55.500000
  H2        34.060001        6.820000       54.430000
  C8        32.500000        7.060000       55.860001
  H3        31.709999        7.090000       55.110001
  C9        32.080002        7.280000       57.150002
  H4        31.070000        7.600000       57.330002
  C10       30.379999        6.830000       59.970001
  H5        29.870001        7.200000       59.060001
  C11       29.469999        6.430000       61.020000
  H6        28.559999        5.870000       60.810001
  C12       29.940001        6.600000       62.340000
  H7        29.250000        6.500000       63.130001
  C13       31.219999        6.970000       62.590000
  H8        31.590000        6.890000       63.650002
  C6        34.099998        8.160000       62.700001
  C1        34.310001        9.580000       62.580002
  H1        33.919998       10.110000       61.720001
  C2        35.150002       10.250000       63.540001
  H2        35.450001       11.270000       63.480000
  C3        35.750000        9.510000       64.570000
  H3        36.650002        9.810000       65.120003
  C4        35.470001        8.130000       64.690002
  H4        35.939999        7.540000       65.410004
  C5        34.680000        7.450000       63.750000
  H5        34.509998        6.370000       63.869999
  C1        37.389999        3.560000       58.950001
  C2        37.910000        4.270000       57.869999
  N1        36.590000        4.490000       59.709999
  C3c       36.580002        5.760000       59.090000
  N2        37.459999        5.650000       58.040001
  C4        38.110001        6.840000       57.610001
  C5c       37.410000        7.980000       57.900002
  C6        37.849998        9.170000       57.380001
  H1        37.209999       10.070000       57.410000
  C7        39.000000        9.290000       56.630001
  H2        39.330002       10.240000       56.410000
  C8        39.709999        8.180000       56.360001
  H3        40.590000        8.200000       55.700001
  C9        39.310001        6.960000       56.900002
  H4        39.930000        6.090000       56.900002
  C10       38.810001        3.650000       57.000000
  H5        39.220001        4.100000       56.080002
  C11       39.160000        2.350000       57.330002
  H6        39.919998        1.940000       56.669998
  C12       38.599998        1.630000       58.380001
  H7        39.110001        0.740000       58.779999
  C13       37.709999        2.270000       59.230000
  H8        37.139999        1.800000       60.000000
  C6        35.570000        3.890000       60.509998
  C1        34.240002        4.210000       60.220001
  H1        34.009998        4.730000       59.270000
  C2        33.279999        3.900000       61.209999
  H2        32.310001        3.920000       60.860001
  C3        33.590000        3.370000       62.439999
  H3        32.779999        3.200000       63.209999
  C4        34.900002        3.060000       62.770000
  H4        35.060001        2.390000       63.619999
  C5        35.930000        3.290000       61.759998
  H5        36.830002        2.760000       61.880001
