206
 generated by VMD
  IR        32.450001       23.860001        6.100000
  C1        34.250000       23.330000        2.220000
  C2        33.220001       22.520000        2.250000
  N1        34.349998       23.969999        3.470000
  C3a       33.310001       23.500000        4.250000
  N2        32.619999       22.610001        3.480000
  C4        31.760000       21.700001        4.160000
  C5a       31.250000       22.280001        5.340000
  C6        30.230000       21.600000        6.020000
  H1        29.879999       21.969999        6.970000
  C7        29.700001       20.410000        5.560000
  H2        29.190001       19.820000        6.300000
  C8        30.230000       19.809999        4.420000
  H3        29.950001       18.850000        4.120000
  C9        31.270000       20.500000        3.700000
  H4        31.930000       19.959999        3.040000
  C10       32.810001       21.840000        1.080000
  H5        31.959999       21.170000        1.160000
  C11       33.520000       21.980000       -0.080000
  H6        33.330002       21.240000       -0.840000
  C12       34.660000       22.799999       -0.150000
  H7        35.369999       22.590000       -0.970000
  C13       34.980000       23.510000        1.020000
  H8        35.869999       24.160000        0.980000
  C6        35.509998       24.600000        3.900000
  C1        35.509998       25.969999        4.120000
  H1        34.590000       26.490000        3.950000
  C2        36.630001       26.580000        4.680000
  H2        36.610001       27.660000        4.950000
  C3        37.759998       25.830000        5.020000
  H3        38.580002       26.270000        5.520000
  C4        37.709999       24.520000        4.690000
  H4        38.650002       24.030001        4.780000
  C5        36.650002       23.840000        4.150000
  H5        36.730000       22.820000        3.920000
  C1        29.459999       26.690001        4.890000
  C2        29.240000       26.540001        6.220000
  N1        30.400000       25.719999        4.440000
  C3b       30.809999       24.990000        5.470000
  N2        30.049999       25.469999        6.540000
  C4        30.150000       24.820000        7.780000
  C5b       31.440001       24.219999        7.900000
  C6        31.870001       23.709999        9.130000
  H1        32.889999       23.340000        9.310000
  C7        30.980000       23.750000       10.210000
  H2        31.190001       23.150000       11.100000
  C8        29.730000       24.360001       10.120000
  H3        29.120001       24.320000       10.970000
  C9        29.290001       24.830000        8.860000
  H4        28.260000       25.100000        8.900000
  C10       28.580000       27.530001        6.980000
  H5        28.330000       27.290001        7.950000
  C11       28.110001       28.690001        6.360000
  H6        27.830000       29.530001        7.010000
  C12       28.219999       28.820000        4.950000
  H7        27.850000       29.660000        4.450000
  C13       28.940001       27.809999        4.270000
  H8        29.139999       27.969999        3.250000
  C6        30.350000       25.230000        3.080000
  C1        31.000000       26.040001        2.080000
  H1        31.400000       27.010000        2.310000
  C2        30.790001       25.690001        0.730000
  H2        31.440001       26.150000       -0.030000
  C3        29.990000       24.549999        0.400000
  H3        29.930000       24.340000       -0.710000
  C4        29.410000       23.740000        1.330000
  H4        29.010000       22.780001        1.110000
  C5        29.709999       24.040001        2.680000
  H5        29.309999       23.270000        3.420000
  C1        35.279999       26.750000        7.860000
  C2        35.910000       25.549999        7.940000
  N1        34.099998       26.469999        7.160000
  C3c       33.930000       25.200001        6.780000
  N2        35.070000       24.610001        7.280000
  C4        35.070000       23.190001        7.270000
  C5c       33.830002       22.520000        7.000000
  C6        33.650002       21.160000        7.300000
  H1        32.689999       20.670000        7.100000
  C7        34.630001       20.450001        7.960000
  H2        34.529999       19.420000        8.120000
  C8        35.849998       21.040001        8.180000
  H3        36.570000       20.480000        8.710000
  C9        36.119999       22.320000        7.760000
  H4        37.110001       22.750000        7.860000
  C10       37.200001       25.480000        8.670000
  H5        37.950001       24.740000        8.570000
  C11       37.770000       26.670000        9.160000
  H6        38.560001       26.500000        9.810000
  C12       37.060001       27.860001        9.040000
  H7        37.490002       28.730000        9.380000
  C13       35.849998       27.910000        8.370000
  H8        35.270000       28.820000        8.440000
  C6        33.020000       27.440001        7.200000
  C1        32.660000       27.860001        8.420000
  H1        32.970001       27.389999        9.390000
  C2        31.879999       29.059999        8.500000
  H2        31.330000       29.240000        9.430000
  C3        31.430000       29.770000        7.410000
  H3        31.110001       30.760000        7.570000
  C4        31.780001       29.330000        6.140000
  H4        31.219999       29.709999        5.250000
  C5        32.599998       28.160000        6.000000
  H5        32.520000       27.700001        4.990000
  IR        27.120001       12.750000        9.580000
  C1        24.719999       11.810000        6.170000
  C2        24.440001       10.860000        7.040000
  N1        25.770000       12.560000        6.680000
  C3a       26.209999       12.090000        7.880000
  N2        25.350000       11.030000        8.120000
  C4        25.570000       10.240000        9.320000
  C5a       26.360001       10.900000       10.280000
  C6        26.549999       10.320000       11.570000
  H1        27.160000       10.810000       12.300000
  C7        26.100000        8.990000       11.840000
  H2        26.280001        8.580000       12.850000
  C8        25.410000        8.340000       10.830000
  H3        25.049999        7.380000       11.100000
  C9        25.190001        8.880000        9.550000
  H4        24.879999        8.270000        8.710000
  C10       23.330000       10.040000        6.860000
  H5        23.170000        9.230000        7.530000
  C11       22.440001       10.210000        5.790000
  H6        21.950001        9.300000        5.480000
  C12       22.809999       11.150000        4.830000
  H7        22.430000       11.060000        3.860000
  C13       23.870001       12.010000        5.060000
  H8        24.049999       12.720000        4.350000
  C6        26.379999       13.500000        5.900000
  C1        27.059999       13.130000        4.710000
  H1        27.020000       12.070000        4.330000
  C2        27.780001       14.070000        3.980000
  H2        27.990000       13.820000        2.960000
  C3        27.889999       15.340000        4.510000
  H3        28.709999       15.990000        4.120000
  C4        27.110001       15.730000        5.640000
  H4        27.240000       16.760000        6.000000
  C5        26.360001       14.820000        6.340000
  H5        25.760000       15.070000        7.180000
  C1        24.270000       14.810000       12.100000
  C2        25.440001       14.950000       12.810000
  N1        24.420000       13.970000       10.950000
  C3b       25.730000       13.570000       10.890000
  N2        26.330000       14.160000       12.000000
  C4        27.650000       13.650000       12.260000
  C5b       28.350000       12.990000       11.250000
  C6        29.629999       12.580000       11.380000
  H1        30.360001       12.340000       10.620000
  C7        30.320000       12.760000       12.590000
  H2        31.400000       12.560000       12.690000
  C8        29.639999       13.350000       13.680000
  H3        29.980000       13.420000       14.670000
  C9        28.309999       13.810000       13.480000
  H4        27.650000       13.940000       14.370000
  C10       25.480000       15.730000       13.950000
  H5        26.469999       16.040001       14.260000
  C11       24.330000       16.360001       14.460000
  H6        24.400000       17.209999       15.130000
  C12       23.150000       16.250000       13.730000
  H7        22.250000       16.680000       14.230000
  C13       23.110001       15.450000       12.590000
  H8        22.280001       15.290000       11.980000
  C6        23.379999       13.490000       10.060000
  C1        22.610001       12.420000       10.440000
  H1        22.990000       11.890000       11.280000
  C2        21.600000       11.900000        9.630000
  H2        21.020000       11.110000       10.030000
  C3        21.360001       12.510000        8.440000
  H3        20.559999       12.120000        7.790000
  C4        22.129999       13.620000        8.040000
  H4        21.959999       14.130000        7.100000
  C5        23.110001       14.140000        8.860000
  H5        23.700001       14.970000        8.480000
  C1        29.510000       16.360001        8.510000
  C2        30.030001       15.370000        7.710000
  N1        28.450001       15.700000        9.270000
  C3c       28.260000       14.380000        8.990000
  N2        29.299999       14.160000        8.060000
  C4        29.480000       12.740000        7.680000
  C5c       28.799999       11.900000        8.630000
  C6        28.969999       10.560000        8.540000
  H1        28.840000       10.000000        9.410000
  C7        29.760000       10.020000        7.560000
  H2        29.760000        9.010000        7.460000
  C8        30.440001       10.840000        6.680000
  H3        31.170000       10.380000        5.980000
  C9        30.250000       12.200000        6.700000
  H4        30.980000       12.730000        6.160000
  C10       31.010000       15.690000        6.790000
  H5        31.400000       14.950000        6.050000
  C11       31.620001       16.950001        6.750000
  H6        32.099998       17.250000        5.790000
  C12       31.240000       17.910000        7.700000
  H7        31.629999       18.840000        7.720000
  C13       30.150000       17.629999        8.530000
  H8        29.790001       18.400000        9.260000
  C6        27.700001       16.510000       10.200000
  C1        26.340000       16.780001        9.950000
  H1        25.799999       16.309999        9.120000
  C2        25.629999       17.650000       10.700000
  H2        24.590000       17.520000       10.840000
  C3        26.250000       18.360001       11.760000
  H3        25.900000       19.309999       12.130000
  C4        27.650000       18.059999       12.050000
  H4        28.170000       18.580000       12.870000
  C5        28.360001       17.150000       11.250000
  H5        29.320000       16.760000       11.550000
