206
 generated by VMD
  IR        20.900000       34.040001       15.740000
  C1        25.110001       34.320000       14.940000
  C2        24.840000       35.259998       15.870000
  N1        23.920000       33.560001       14.790000
  C3a       22.920000       34.119999       15.570000
  N2        23.469999       35.130001       16.309999
  C4        22.660000       35.660000       17.379999
  C5a       21.389999       35.330002       17.360001
  C6        20.570000       35.540001       18.530001
  H1        19.530001       35.320000       18.459999
  C7        21.100000       36.160000       19.660000
  H2        20.510000       36.459999       20.480000
  C8        22.410000       36.470001       19.690001
  H3        22.680000       37.160000       20.450001
  C9        23.219999       36.209999       18.549999
  H4        24.299999       36.299999       18.650000
  C10       25.990000       36.060001       16.320000
  H5        25.889999       36.709999       17.139999
  C11       27.209999       35.980000       15.620000
  H6        28.040001       36.520000       15.940000
  C12       27.410000       35.029999       14.640000
  H7        28.360001       34.880001       14.190000
  C13       26.379999       34.169998       14.330000
  H8        26.570000       33.480000       13.570000
  C6        23.780001       32.389999       13.990000
  C1        23.379999       32.669998       12.660000
  H1        22.690001       33.480000       12.460000
  C2        23.750000       31.830000       11.620000
  H2        23.480000       32.040001       10.570000
  C3        24.549999       30.719999       11.910000
  H3        25.290001       30.360001       11.190000
  C4        24.820000       30.459999       13.260000
  H4        25.370001       29.510000       13.350000
  C5        24.450001       31.219999       14.320000
  H5        24.750000       31.000000       15.370000
  C1        20.690001       31.000000       18.930000
  C2        19.370001       31.299999       18.680000
  N1        21.459999       31.770000       17.980000
  C3b       20.670000       32.549999       17.200001
  N2        19.400000       32.139999       17.570000
  C4        18.400000       32.930000       16.950001
  C5b       18.840000       34.070000       16.290001
  C6        17.860001       35.000000       15.800000
  H1        18.139999       35.869999       15.230000
  C7        16.459999       34.740002       15.940000
  H2        15.910000       35.680000       15.890000
  C8        16.059999       33.520000       16.549999
  H3        15.040000       33.169998       16.360001
  C9        17.049999       32.630001       17.040001
  H4        16.639999       31.760000       17.400000
  C10       18.459999       30.700001       19.490000
  H5        17.469999       31.100000       19.660000
  C11       18.910000       29.850000       20.580000
  H6        18.180000       29.540001       21.290001
  C12       20.290001       29.629999       20.870001
  H7        20.559999       29.360001       21.860001
  C13       21.180000       30.190001       19.959999
  H8        22.219999       30.120001       20.059999
  C6        22.840000       31.969999       18.370001
  C1        23.139999       32.970001       19.270000
  H1        22.350000       33.549999       19.730000
  C2        24.480000       33.080002       19.700001
  H2        24.840000       33.959999       20.160000
  C3        25.480000       32.220001       19.230000
  H3        26.530001       32.330002       19.510000
  C4        25.120001       31.309999       18.270000
  H4        25.910000       30.650000       17.770000
  C5        23.840000       31.120001       17.850000
  H5        23.670000       30.280001       17.230000
  C1        20.100000       31.830000       12.150000
  C2        20.120001       33.150002       11.790000
  N1        20.120001       31.830000       13.580000
  C3c       20.100000       33.099998       14.100000
  N2        20.070000       33.970001       12.970000
  C4        20.110001       35.340000       13.180000
  C5c       20.799999       35.639999       14.370000
  C6        21.040001       37.009998       14.600000
  H1        21.350000       37.310001       15.580000
  C7        20.639999       38.000000       13.730000
  H2        20.969999       39.040001       13.930000
  C8        20.000000       37.650002       12.540000
  H3        19.709999       38.349998       11.780000
  C9        19.719999       36.340000       12.260000
  H4        19.170000       36.080002       11.320000
  C10       20.410000       33.430000       10.470000
  H5        20.549999       34.450001       10.210000
  C11       20.540001       32.500000        9.500000
  H6        20.540001       32.669998        8.430000
  C12       20.450001       31.180000        9.860000
  H7        20.420000       30.370001        9.130000
  C13       20.219999       30.860001       11.170000
  H8        19.990000       29.830000       11.440000
  C6        20.110001       30.620001       14.340000
  C1        21.070000       29.660000       14.110000
  H1        21.950001       30.020000       13.590000
  C2        20.920000       28.379999       14.570000
  H2        21.740000       27.680000       14.410000
  C3        19.830000       28.049999       15.360000
  H3        19.790001       26.980000       15.630000
  C4        18.860001       28.980000       15.630000
  H4        18.160000       28.830000       16.480000
  C5        18.920000       30.290001       15.050000
  H5        18.090000       31.010000       15.140000
  IR        15.150000       29.379999        8.570000
  C1        12.730000       30.410000       12.050000
  C2        13.970000       30.250000       12.580000
  N1        12.840000       30.219999       10.710000
  C3a       14.070000       29.959999       10.280000
  N2        14.780000       29.850000       11.470000
  C4        15.980000       29.120001       11.400000
  C5a       16.520000       28.850000       10.130000
  C6        17.770000       28.260000        9.990000
  H1        18.129999       28.080000        8.970000
  C7        18.430000       27.860001       11.130000
  H2        19.340000       27.320000       11.050000
  C8        17.889999       28.049999       12.400000
  H3        18.360001       27.590000       13.190000
  C9        16.660000       28.629999       12.530000
  H4        16.020000       28.500000       13.400000
  C10       14.220000       30.610001       13.930000
  H5        15.290000       30.590000       14.180000
  C11       13.190000       31.040001       14.780000
  H6        13.400000       31.400000       15.810000
  C12       11.920000       31.080000       14.250000
  H7        11.270000       31.700001       14.740000
  C13       11.650000       30.760000       12.890000
  H8        10.660000       30.549999       12.550000
  C6        11.760000       30.650000        9.880000
  C1        11.700000       32.020000        9.560000
  H1        12.550000       32.639999        9.860000
  C2        10.810000       32.480000        8.600000
  H2        10.900000       33.520000        8.340000
  C3         9.900000       31.629999        7.970000
  H3         9.090000       32.049999        7.430000
  C4        10.020000       30.230000        8.200000
  H4         9.510000       29.540001        7.520000
  C5        10.920000       29.790001        9.190000
  H5        10.870000       28.780001        9.380000
  C1        17.469999       32.970001        7.680000
  C2        17.850000       32.099998        6.710000
  N1        16.610001       32.270000        8.530000
  C3b       16.430000       31.000000        8.120000
  N2        17.230000       30.879999        6.970000
  C4        17.240000       29.580000        6.390000
  C5b       16.400000       28.690001        7.040000
  C6        16.360001       27.379999        6.550000
  H1        16.030001       26.590000        7.170000
  C7        17.120001       26.959999        5.430000
  H2        17.180000       25.940001        5.000000
  C8        17.879999       27.879999        4.740000
  H3        18.520000       27.690001        3.830000
  C9        17.940001       29.200001        5.210000
  H4        18.740000       29.709999        4.810000
  C10       18.750000       32.520000        5.700000
  H5        18.900000       31.870001        4.860000
  C11       19.230000       33.799999        5.690000
  H6        20.030001       34.169998        5.040000
  C12       18.879999       34.660000        6.720000
  H7        18.940001       35.689999        6.570000
  C13       18.010000       34.240002        7.730000
  H8        17.900000       34.889999        8.530000
  C6        16.110001       32.820000        9.800000
  C1        16.860001       32.509998       10.900000
  H1        17.459999       31.650000       11.030000
  C2        16.629999       33.240002       12.070000
  H2        17.190001       32.939999       12.860000
  C3        15.640000       34.130001       12.190000
  H3        15.370000       34.500000       13.200000
  C4        14.910000       34.459999       11.010000
  H4        14.240000       35.330002       10.970000
  C5        15.170000       33.779999        9.820000
  H5        14.800000       34.090000        8.860000
  C1        12.230000       29.820000        5.340000
  C2        12.050000       28.559999        5.790000
  N1        13.340000       30.400000        6.090000
  C3c       13.730000       29.520000        7.050000
  N2        12.920000       28.430000        6.940000
  C4        13.280000       27.260000        7.710000
  C5c       14.050000       27.530001        8.780000
  C6        14.200000       26.610001        9.810000
  H1        14.650000       26.850000       10.740000
  C7        13.570000       25.360001        9.740000
  H2        13.590000       24.590000       10.560000
  C8        12.830000       25.020000        8.670000
  H3        12.350000       24.059999        8.550000
  C9        12.720000       25.959999        7.650000
  H4        12.310000       25.570000        6.650000
  C10       11.120000       27.760000        5.250000
  H5        11.030000       26.690001        5.440000
  C11       10.290000       28.150000        4.160000
  H6         9.420000       27.500000        4.000000
  C12       10.430000       29.510000        3.810000
  H7         9.680000       30.170000        3.350000
  C13       11.450000       30.350000        4.300000
  H8        11.630000       31.309999        3.940000
  C6        14.120000       31.549999        5.570000
  C1        14.950000       31.330000        4.460000
  H1        15.020000       30.400000        3.870000
  C2        15.720000       32.410000        3.960000
  H2        16.530001       32.290001        3.270000
  C3        15.730000       33.639999        4.640000
  H3        16.070000       34.490002        4.050000
  C4        14.920000       33.810001        5.800000
  H4        15.100000       34.730000        6.410000
  C5        14.120000       32.770000        6.240000
  H5        13.530000       32.910000        7.160000
