206
 generated by VMD
 Ir       23.423485      -91.023956      -45.542618
 C        23.175194      -89.344116      -41.547920
 C        24.037708      -88.529770      -42.114151
 N        22.904697      -90.383987      -42.349045
 C        23.495947      -90.258438      -43.640579
 N        24.309189      -89.086967      -43.444691
 C        25.144009      -88.798401      -44.523163
 C        24.834314      -89.473648      -45.721794
 C        25.586121      -89.075333      -46.835808
 H        25.681240      -89.793304      -47.654442
 C        26.603001      -88.164581      -46.781174
 H        27.100849      -87.958580      -47.710213
 C        26.898787      -87.530510      -45.544979
 H        27.801937      -86.861076      -45.528156
 C        26.158058      -87.838608      -44.437096
 H        26.183876      -87.349945      -43.447029
 C        24.557301      -87.411278      -41.336914
 H        25.296318      -86.785233      -41.684067
 C        23.985733      -87.097527      -40.102219
 H        24.194729      -86.089233      -39.795181
 C        23.071140      -87.986420      -39.503899
 H        22.597210      -87.741318      -38.531982
 C        22.683346      -89.147926      -40.170319
 H        22.403706      -89.981430      -39.550339
 C        21.893969      -91.306381      -42.009445
 C        20.629456      -91.048584      -42.474686
 H        20.398472      -90.344940      -43.237137
 C        19.541763      -91.700317      -41.896080
 H        18.560209      -91.350067      -42.120525
 C        19.726807      -92.629448      -40.881355
 H        18.903423      -93.137848      -40.407154
 C        21.017910      -92.930367      -40.448238
 H        21.184122      -93.433960      -39.485081
 C        22.148392      -92.284500      -41.052029
 H        23.149883      -92.362099      -40.710278
 C        20.600712      -88.073067      -47.197159
 C        20.894474      -88.922363      -48.235329
 N        21.285645      -88.542877      -46.055428
 C        22.020405      -89.705383      -46.339134
 N        21.810978      -89.823654      -47.723278
 C        22.389931      -90.992271      -48.345642
 C        23.495907      -91.508957      -47.589302
 C        24.283110      -92.577385      -48.155144
 H        25.328266      -92.745163      -47.805569
 C        23.846308      -93.160553      -49.321175
 H        24.358114      -94.042801      -49.667702
 C        22.701811      -92.677185      -49.952591
 H        22.364616      -93.283707      -50.793152
 C        21.939686      -91.559769      -49.550068
 H        20.957920      -91.303726      -50.003036
 C        20.309036      -88.632950      -49.519390
 H        20.663456      -89.097763      -50.401054
 C        19.509186      -87.521629      -49.731300
 H        19.374376      -87.145493      -50.702766
 C        19.225090      -86.662529      -48.710747
 H        18.698765      -85.754929      -48.783794
 C        19.761513      -86.942177      -47.436794
 H        19.448933      -86.296921      -46.613361
 C        21.644028      -87.608765      -45.020874
 C        22.660131      -86.676529      -45.238518
 H        23.065525      -86.676529      -46.185387
 C        22.973780      -85.752274      -44.233994
 H        23.857189      -85.171143      -44.345276
 C        22.291267      -85.907318      -43.003284
 H        22.692791      -85.418411      -42.113426
 C        21.207279      -86.792549      -42.836464
 H        20.772884      -86.821976      -41.836746
 C        20.857876      -87.677628      -43.867176
 H        19.843359      -88.045105      -43.833778
 C        20.925026      -94.335846      -44.284424
 C        22.181362      -94.625015      -43.790043
 N        21.043091      -93.257408      -45.180260
 C        22.346661      -92.768127      -45.231308
 N        23.028868      -93.671455      -44.406212
 C        24.424658      -93.548836      -44.417786
 C        24.948109      -92.399376      -44.955132
 C        26.344650      -92.327820      -45.227451
 H        26.749809      -91.502007      -45.652275
 C        27.195805      -93.452812      -44.960938
 H        28.237816      -93.383499      -45.287148
 C        26.664482      -94.602272      -44.405205
 H        27.291382      -95.470520      -44.158562
 C        25.290905      -94.685577      -44.166565
 H        24.775547      -95.591980      -44.017357
 C        22.345013      -95.646362      -42.849739
 H        23.215294      -95.886772      -42.335724
 C        21.284763      -96.354980      -42.389923
 H        21.518124      -97.144936      -41.702606
 C        20.000275      -96.108994      -42.918110
 H        19.104235      -96.537064      -42.518528
 C        19.857754      -95.058228      -43.892883
 H        18.911142      -94.884552      -44.417824
 C        20.040630      -93.003525      -46.207741
 C        19.053459      -92.066750      -45.966831
 H        18.845881      -91.835152      -44.924393
 C        18.197399      -91.624496      -47.007782
 H        17.663857      -90.705124      -47.083923
 C        18.407898      -92.197388      -48.255653
 H        17.607553      -92.031532      -49.022552
 C        19.366264      -93.189110      -48.508888
 H        19.614914      -93.538353      -49.577255
 C        20.214760      -93.599991      -47.460304
 H        21.196508      -94.075905      -47.714409
 Ir       23.423485      -91.023956      -33.185230
 C        21.669502      -89.974808      -29.334797
 C        20.718845      -90.717041      -30.002882
 N        22.705105      -89.727219      -30.229403
 C        22.398472      -90.318146      -31.470238
 N        21.136269      -90.913277      -31.336206
 C        20.547340      -91.465179      -32.545612
 C        21.522690      -91.972679      -33.422504
 C        21.119989      -92.828369      -34.443398
 H        21.856003      -93.386932      -35.020275
 C        19.776711      -93.188324      -34.648663
 H        19.328747      -93.889008      -35.329964
 C        18.832426      -92.559235      -33.834614
 H        17.873514      -92.920853      -34.005844
 C        19.206394      -91.650604      -32.771629
 H        18.475063      -91.482254      -32.040459
 C        19.513443      -91.139381      -29.344143
 H        18.747715      -91.769623      -29.791641
 C        19.305679      -90.762543      -27.942810
 H        18.345333      -90.933716      -27.418468
 C        20.279606      -90.000694      -27.319153
 H        20.220913      -89.610146      -26.310873
 C        21.472710      -89.564644      -27.994034
 H        22.154305      -88.893265      -27.484655
 C        23.671654      -88.639938      -29.967876
 C        23.277039      -87.353790      -30.234728
 H        22.763241      -87.176003      -31.172653
 C        23.874733      -86.298050      -29.619858
 H        23.676823      -85.268639      -29.802494
 C        24.945477      -86.420525      -28.737186
 H        25.648235      -85.660995      -28.621233
 C        25.318310      -87.747849      -28.414391
 H        26.051720      -87.843147      -27.610882
 C        24.732769      -88.823212      -29.067570
 H        25.192074      -89.787704      -28.892679
 C        24.921227      -94.974228      -32.076233
 C        25.617218      -94.675980      -33.214142
 N        23.919231      -93.943329      -31.830791
 C        24.013765      -92.947289      -32.791092
 N        25.006310      -93.425354      -33.693256
 C        25.090172      -92.760864      -34.951836
 C        24.109909      -91.757507      -35.056061
 C        23.848824      -91.212906      -36.320908
 H        23.011440      -90.582069      -36.429230
 C        24.559134      -91.663795      -37.430931
 H        24.090118      -91.507584      -38.458466
 C        25.503826      -92.673050      -37.298420
 H        25.955055      -93.053467      -38.182152
 C        25.729233      -93.280449      -36.059731
 H        26.263512      -94.270462      -36.124687
 C        26.863945      -95.296799      -33.409195
 H        27.344906      -95.088852      -34.323708
 C        27.405975      -96.182549      -32.480938
 H        28.355770      -96.715317      -32.585556
 C        26.599653      -96.657425      -31.433775
 H        26.680607      -97.618210      -31.072775
 C        25.403194      -95.991425      -31.151934
 H        24.735588      -96.423149      -30.458746
 C        23.162792      -93.882690      -30.577347
 C        23.632500      -92.989685      -29.538643
 H        24.512674      -92.428215      -29.781849
 C        22.875690      -92.838875      -28.394135
 H        23.145309      -92.153976      -27.615145
 C        21.747730      -93.665306      -28.224382
 H        21.368082      -93.694687      -27.222980
 C        21.329975      -94.560226      -29.229967
 H        20.444111      -95.182487      -28.978319
 C        21.987732      -94.613083      -30.482151
 H        21.644547      -95.082336      -31.368784
 C        27.069530      -88.530365      -32.537956
 C        26.054535      -87.666389      -32.994278
 N        26.499756      -89.805573      -32.629612
 C        25.208076      -89.828255      -33.095608
 N        24.926199      -88.502792      -33.346825
 C        23.813427      -88.305801      -34.171349
 C        22.798973      -89.234131      -34.007385
 C        21.632055      -88.994011      -34.735428
 H        20.765400      -89.463264      -34.399406
 C        21.453499      -88.005997      -35.605968
 H        20.459953      -87.820511      -35.911690
 C        22.485382      -87.124748      -35.860367
 H        22.389843      -86.456345      -36.749756
 C        23.651878      -87.243279      -35.121628
 H        24.439075      -86.493515      -35.078304
 C        26.330467      -86.289368      -32.734722
 H        25.674858      -85.538887      -33.232975
 C        27.434128      -85.872566      -32.044643
 H        27.531464      -84.783981      -31.850677
 C        28.404736      -86.766006      -31.629086
 H        29.079887      -86.543640      -30.839636
 C        28.251060      -88.099808      -31.945072
 H        29.046043      -88.775818      -31.941923
 C        27.046444      -91.091553      -32.199745
 C        26.676785      -91.609184      -30.976509
 H        26.112488      -90.999458      -30.282600
 C        27.361809      -92.681274      -30.476542
 H        27.184978      -93.028198      -29.410061
 C        28.384392      -93.298477      -31.104774
 H        29.047676      -94.023445      -30.559723
 C        28.843830      -92.729774      -32.278694
 H        29.816734      -92.948822      -32.667126
 C        28.235447      -91.559570      -32.778484
 H        28.868389      -90.849319      -33.301590
