206
 generated by VMD
  IR         1.420000       48.540001       23.580000
  C1        -2.530000       46.860001       24.520000
  C2        -2.140000       47.439999       25.660000
  N1        -1.430000       46.950001       23.650000
  C3a       -0.330000       47.610001       24.250000
  N2        -0.780000       47.900002       25.490000
  C4         0.290000       48.480000       26.299999
  C5a        1.440000       48.970001       25.650000
  C6         2.380000       49.700001       26.370001
  H1         3.290000       49.880001       25.809999
  C7         2.290000       49.970001       27.709999
  H2         3.150000       50.290001       28.280001
  C8         1.180000       49.470001       28.379999
  H3         1.190000       49.330002       29.490000
  C9         0.190000       48.750000       27.709999
  H4        -0.810000       48.730000       28.150000
  C10       -2.980000       47.480000       26.780001
  H5        -2.620000       47.470001       27.770000
  C11       -4.310000       47.020000       26.620001
  H6        -5.130000       47.320000       27.230000
  C12       -4.720000       46.369999       25.440001
  H7        -5.590000       45.730000       25.469999
  C13       -3.810000       46.259998       24.389999
  H8        -4.150000       46.000000       23.309999
  C6        -1.410000       46.299999       22.360001
  C1        -1.290000       44.889999       22.230000
  H1        -0.530000       44.410000       22.850000
  C2        -1.650000       44.259998       21.070000
  H2        -1.380000       43.230000       21.209999
  C3        -2.120000       45.029999       19.980000
  H3        -2.600000       44.520000       19.160000
  C4        -2.250000       46.410000       20.100000
  H4        -2.780000       46.990002       19.389999
  C5        -1.850000       47.049999       21.250000
  H5        -1.980000       48.130001       21.430000
  C1        -0.130000       52.480000       22.629999
  C2         1.220000       52.630001       22.730000
  N1        -0.400000       51.119999       23.020000
  C3b        0.790000       50.480000       23.320000
  N2         1.800000       51.369999       23.150000
  C4         3.140000       50.900002       23.070000
  C5b        3.250000       49.490002       23.340000
  C6         4.490000       48.910000       23.280001
  H1         4.670000       47.919998       23.700001
  C7         5.600000       49.630001       22.930000
  H2         6.600000       49.250000       22.959999
  C8         5.510000       50.959999       22.590000
  H3         6.310000       51.459999       22.070000
  C9         4.310000       51.630001       22.660000
  H4         4.190000       52.689999       22.410000
  C10        1.780000       53.889999       22.350000
  H5         2.800000       53.970001       22.299999
  C11        0.980000       54.970001       21.950001
  H6         1.490000       55.759998       21.530001
  C12       -0.430000       54.810001       21.930000
  H7        -1.190000       55.639999       21.900000
  C13       -0.970000       53.529999       22.219999
  H8        -2.000000       53.380001       22.120001
  C6        -1.660000       50.910000       23.639999
  C1        -1.770000       50.970001       25.030001
  H1        -0.920000       51.209999       25.590000
  C2        -2.960000       50.650002       25.719999
  H2        -3.020000       50.720001       26.760000
  C3        -4.090000       50.380001       24.959999
  H3        -5.050000       50.049999       25.410000
  C4        -4.040000       50.540001       23.580000
  H4        -4.980000       50.439999       22.950001
  C5        -2.840000       50.740002       22.959999
  H5        -2.770000       50.540001       21.900000
  C1         1.760000       47.250000       19.400000
  C2         2.370000       46.259998       20.150000
  N1         1.390000       48.240002       20.360001
  C3c        1.630000       47.889999       21.670000
  N2         2.420000       46.720001       21.570000
  C4         2.790000       46.029999       22.790001
  C5c        2.400000       46.680000       23.950001
  C6         2.580000       46.020000       25.160000
  H1         2.180000       46.430000       26.049999
  C7         3.190000       44.790001       25.230000
  H2         3.520000       44.480000       26.240000
  C8         3.620000       44.160000       24.090000
  H3         4.170000       43.250000       24.030001
  C9         3.440000       44.840000       22.870001
  H4         3.700000       44.240002       21.959999
  C10        2.750000       45.049999       19.520000
  H5         3.280000       44.270000       20.040001
  C11        2.510000       44.939999       18.160000
  H6         2.720000       44.040001       17.629999
  C12        1.830000       45.910000       17.360001
  H7         1.590000       45.820000       16.379999
  C13        1.490000       47.099998       18.040001
  H8         0.910000       47.790001       17.440001
  C6         0.990000       49.520000       19.870001
  C1         1.870000       50.580002       19.940001
  H1         2.950000       50.410000       20.110001
  C2         1.430000       51.810001       19.379999
  H2         2.090000       52.660000       19.389999
  C3         0.150000       51.919998       18.730000
  H3        -0.190000       52.860001       18.280001
  C4        -0.750000       50.860001       18.730000
  H4        -1.860000       50.970001       18.530001
  C5        -0.340000       49.660000       19.400000
  H5        -1.090000       48.919998       19.530001
  IR         6.960000       36.580002       17.969999
  C1         7.610000       40.849998       17.080000
  C2         6.420000       40.810001       17.799999
  N1         8.100000       39.500000       16.980000
  C3a        7.240000       38.639999       17.620001
  N2         6.220000       39.480000       18.180000
  C4         5.130000       38.799999       18.740000
  C5a        5.080000       37.439999       18.580000
  C6         3.960000       36.740002       19.080000
  H1         3.820000       35.700001       18.680000
  C7         2.990000       37.299999       19.770000
  H2         2.090000       36.689999       19.959999
  C8         3.040000       38.660000       20.100000
  H3         2.640000       38.939999       21.080000
  C9         4.070000       39.389999       19.510000
  H4         4.190000       40.450001       19.680000
  C10        5.670000       41.990002       17.959999
  H5         4.640000       41.950001       18.180000
  C11        6.170000       43.180000       17.510000
  H6         5.610000       44.070000       17.820000
  C12        7.390000       43.250000       16.879999
  H7         7.700000       44.240002       16.559999
  C13        8.150000       42.060001       16.670000
  H8         9.090000       42.200001       16.190001
  C6         8.960000       39.139999       15.890000
  C1         8.400000       38.869999       14.610000
  H1         7.300000       38.910000       14.510000
  C2         9.290000       38.450001       13.570000
  H2         8.770000       38.340000       12.640000
  C3        10.640000       38.209999       13.850000
  H3        11.290000       37.880001       13.050000
  C4        11.150000       38.340000       15.140000
  H4        12.200000       38.250000       15.200000
  C5        10.330000       38.830002       16.200001
  H5        10.730000       39.029999       17.150000
  C1         7.880000       36.099998       22.299999
  C2         7.550000       34.869999       21.870001
  N1         7.670000       37.029999       21.170000
  C3b        7.300000       36.330002       19.969999
  N2         7.160000       35.029999       20.480000
  C4         6.450000       34.169998       19.590000
  C5b        6.440000       34.570000       18.240000
  C6         5.880000       33.660000       17.299999
  H1         5.850000       33.779999       16.260000
  C7         5.360000       32.430000       17.709999
  H2         4.970000       31.719999       17.049999
  C8         5.320000       32.130001       19.090000
  H3         5.010000       31.170000       19.480000
  C9         5.830000       33.049999       20.000000
  H4         5.650000       32.770000       20.990000
  C10        7.740000       33.730000       22.639999
  H5         7.380000       32.779999       22.299999
  C11        8.260000       33.840000       23.950001
  H6         8.730000       32.990002       24.360001
  C12        8.570000       35.130001       24.410000
  H7         8.770000       35.240002       25.480000
  C13        8.430000       36.230000       23.549999
  H8         8.960000       37.200001       23.740000
  C6         7.330000       38.389999       21.340000
  C1         6.220000       38.830002       22.059999
  H1         5.450000       38.080002       22.219999
  C2         6.010000       40.209999       22.309999
  H2         5.210000       40.560001       22.860001
  C3         6.930000       41.150002       21.809999
  H3         6.850000       42.200001       22.129999
  C4         8.040000       40.720001       21.030001
  H4         8.780000       41.410000       20.700001
  C5         8.240000       39.380001       20.799999
  H5         8.840000       39.040001       20.000000
  C1        10.610000       35.080002       16.230000
  C2         9.740000       35.139999       15.170000
  N1        10.000000       35.459999       17.379999
  C3c        8.590000       35.730000       17.090000
  N2         8.450000       35.500000       15.700000
  C4         7.190000       35.619999       15.120000
  C5c        6.350000       36.410000       15.950000
  C6         5.120000       36.830002       15.420000
  H1         4.670000       37.610001       16.000000
  C7         4.700000       36.410000       14.140000
  H2         3.640000       36.779999       13.880000
  C8         5.550000       35.610001       13.330000
  H3         5.270000       35.369999       12.300000
  C9         6.800000       35.250000       13.860000
  H4         7.430000       34.790001       13.150000
  C10       10.190000       34.860001       13.920000
  H5         9.470000       34.419998       13.230000
  C11       11.570000       34.590000       13.710000
  H6        11.980000       34.119999       12.840000
  C12       12.500000       34.599998       14.770000
  H7        13.550000       34.349998       14.670000
  C13       11.980000       34.700001       16.080000
  H8        12.720000       34.849998       16.879999
  C6        10.600000       35.369999       18.740000
  C1        10.500000       34.189999       19.490000
  H1        10.470000       33.169998       19.080000
  C2        10.820000       34.320000       20.860001
  H2        10.490000       33.549999       21.530001
  C3        11.310000       35.450001       21.469999
  H3        11.290000       35.529999       22.540001
  C4        11.420000       36.570000       20.660000
  H4        11.880000       37.500000       20.959999
  C5        11.110000       36.500000       19.309999
  H5        11.090000       37.389999       18.680000
