206
 generated by VMD
  IR         0.340000       -0.545000       39.389999
  C1         1.110000       -2.375000       35.500000
  C2        -0.160000       -2.865000       35.970001
  N1         1.560000       -1.555000       36.540001
  C3a        0.640000       -1.565000       37.590000
  N2        -0.370000       -2.415000       37.279999
  C4        -1.330000       -2.725000       38.310001
  C5a       -1.350000       -1.805000       39.340000
  C6        -2.420000       -1.805000       40.139999
  H1        -2.510000       -1.035000       40.919998
  C7        -3.500000       -2.715000       40.110001
  H2        -4.380000       -2.535000       40.730000
  C8        -3.420000       -3.755000       39.130001
  H3        -4.230000       -4.355000       38.869999
  C9        -2.330000       -3.785000       38.250000
  H4        -2.490000       -4.435000       37.439999
  C10       -0.900000       -3.645000       35.189999
  H5        -1.960000       -3.935000       35.389999
  C11       -0.450000       -3.995000       33.849998
  H6        -1.030000       -4.675000       33.220001
  C12        0.770000       -3.505000       33.369999
  H7         1.090000       -3.605000       32.380001
  C13        1.530000       -2.705000       34.180000
  H8         2.510000       -2.395000       33.910000
  C6         2.410000       -0.415000       36.150002
  C1         3.800000       -0.705000       35.950001
  H1         4.150000       -1.705000       35.720001
  C2         4.720000        0.365000       35.740002
  H2         5.740000        0.065000       35.369999
  C3         4.260000        1.675000       35.810001
  H3         4.920000        2.475000       35.820000
  C4         2.890000        1.905000       36.029999
  H4         2.490000        2.875000       35.970001
  C5         1.970000        0.875000       36.180000
  H5         1.010000        1.095000       36.650002
  C1        -2.290000        2.785000       38.410000
  C2        -1.990000        2.905000       39.810001
  N1        -1.760000        1.635000       37.959999
  C3b       -1.050000        0.945000       38.980000
  N2        -1.330000        1.735000       40.139999
  C4        -1.060000        1.115000       41.389999
  C5b       -0.020000        0.175000       41.320000
  C6         0.590000       -0.325000       42.459999
  H1         1.570000       -0.715000       42.459999
  C7         0.120000        0.105000       43.730000
  H2         0.570000       -0.285000       44.650002
  C8        -0.970000        0.965000       43.830002
  H3        -1.530000        0.855000       44.770000
  C9        -1.530000        1.525000       42.660000
  H4        -2.350000        2.185000       42.750000
  C10       -2.400000        3.985000       40.490002
  H5        -1.920000        4.055000       41.439999
  C11       -3.160000        4.955000       39.880001
  H6        -3.440000        5.875000       40.349998
  C12       -3.450000        4.835000       38.529999
  H7        -3.910000        5.545000       37.919998
  C13       -3.050000        3.775000       37.750000
  H8        -3.310000        3.685000       36.709999
  C6        -2.170000        0.895000       36.790001
  C1        -3.280000        0.015000       36.910000
  H1        -4.070000        0.225000       37.630001
  C2        -3.560000       -0.835000       35.919998
  H2        -4.290000       -1.615000       36.110001
  C3        -2.750000       -0.865000       34.799999
  H3        -3.150000       -1.265000       33.900002
  C4        -1.630000       -0.025000       34.680000
  H4        -0.940000       -0.175000       33.820000
  C5        -1.390000        0.955000       35.660000
  H5        -0.840000        1.815000       35.369999
  C1         4.170000        1.535000       39.509998
  C2         4.480000        0.175000       39.450001
  N1         2.770000        1.695000       39.470001
  C3c        2.170000        0.435000       39.619999
  N2         3.260000       -0.475000       39.520000
  C4         3.020000       -1.855000       39.599998
  C5c        1.660000       -2.035000       40.080002
  C6         1.270000       -3.175000       40.820000
  H1         0.270000       -3.085000       41.279999
  C7         2.230000       -4.155000       41.080002
  H2         2.020000       -4.815000       41.889999
  C8         3.490000       -4.055000       40.610001
  H3         4.160000       -4.865000       40.799999
  C9         3.880000       -2.915000       39.869999
  H4         4.920000       -2.855000       39.639999
  C10        5.790000       -0.215000       39.130001
  H5         6.130000       -1.235000       39.150002
  C11        6.850000        0.675000       38.930000
  H6         7.760000        0.385000       38.380001
  C12        6.570000        2.055000       38.970001
  H7         7.360000        2.815000       38.970001
  C13        5.240000        2.425000       39.320000
  H8         5.140000        3.525000       39.250000
  C6         2.110000        2.935000       39.869999
  C1         2.030000        3.255000       41.189999
  H1         2.410000        2.675000       41.910000
  C2         1.390000        4.355000       41.619999
  H2         1.460000        4.535000       42.680000
  C3         0.790000        5.275000       40.680000
  H3         0.330000        6.105000       41.130001
  C4         0.900000        5.005000       39.310001
  H4         0.270000        5.595000       38.610001
  C5         1.560000        3.825000       38.939999
  H5         1.830000        3.795000       37.910000
  IR         7.240000        4.070000       44.119999
  C1         9.570000        7.630000       45.200001
  C2         8.870000        8.020000       44.130001
  N1         9.200000        6.310000       45.529999
  C3a        8.320000        5.820000       44.610001
  N2         8.070000        6.930000       43.770000
  C4         6.930000        6.780000       42.939999
  C5a        6.370000        5.540000       42.869999
  C6         5.190000        5.310000       42.150002
  H1         4.940000        4.270000       41.790001
  C7         4.480000        6.430000       41.570000
  H2         3.450000        6.320000       41.209999
  C8         5.020000        7.680000       41.610001
  H3         4.440000        8.530000       41.279999
  C9         6.260000        7.890000       42.279999
  H4         6.860000        8.770000       42.009998
  C10        9.170000        9.220000       43.540001
  H5         8.660000        9.580000       42.650002
  C11       10.240000        9.980000       43.980000
  H6        10.220000       10.930000       43.470001
  C12       11.100000        9.600000       44.980000
  H7        11.950000       10.120000       45.400002
  C13       10.720000        8.430000       45.650002
  H8        11.210000        8.190000       46.490002
  C6         9.930000        5.640000       46.590000
  C1        11.020000        4.860000       46.230000
  H1        11.530000        5.180000       45.320000
  C2        11.660000        4.040000       47.200001
  H2        12.630000        3.490000       47.009998
  C3        11.150000        3.950000       48.509998
  H3        11.520000        3.370000       49.340000
  C4        10.120000        4.810000       48.860001
  H4         9.750000        4.690000       49.860001
  C5         9.550000        5.740000       47.930000
  H5         9.100000        6.640000       48.240002
  C1         3.690000        4.340000       46.639999
  C2         3.440000        3.280000       45.740002
  N1         4.930000        4.910000       46.230000
  C3b        5.470000        4.210000       45.150002
  N2         4.550000        3.230000       44.889999
  C4         4.850000        2.280000       43.790001
  C5b        6.190000        2.400000       43.400002
  C6         6.710000        1.260000       42.730000
  H1         7.670000        1.360000       42.389999
  C7         6.100000       -0.010000       42.680000
  H2         6.600000       -0.860000       42.189999
  C8         4.830000       -0.190000       43.189999
  H3         4.540000       -1.190000       43.410000
  C9         4.210000        1.010000       43.639999
  H4         3.220000        1.120000       43.590000
  C10        2.240000        2.550000       46.000000
  H5         1.880000        1.790000       45.360001
  C11        1.350000        2.920000       47.060001
  H6         0.290000        2.700000       47.000000
  C12        1.630000        3.960000       47.910000
  H7         0.940000        4.230000       48.709999
  C13        2.810000        4.650000       47.689999
  H8         3.080000        5.390000       48.450001
  C6         5.180000        6.320000       46.299999
  C1         6.270000        6.900000       46.910000
  H1         6.950000        6.300000       47.470001
  C2         6.570000        8.230000       46.799999
  H2         7.450000        8.630000       47.169998
  C3         5.680000        9.110000       46.180000
  H3         5.680000       10.170000       46.259998
  C4         4.580000        8.560000       45.529999
  H4         3.830000        9.150000       45.080002
  C5         4.320000        7.160000       45.610001
  H5         3.500000        6.700000       45.049999
  C1         9.430000        1.340000       46.709999
  C2        10.310000        1.460000       45.599998
  N1         8.290000        2.110000       46.450001
  C3c        8.340000        2.720000       45.220001
  N2         9.620000        2.240000       44.680000
  C4         9.820000        2.620000       43.279999
  C5c        8.930000        3.640000       42.889999
  C6         9.100000        4.060000       41.610001
  H1         8.530000        4.980000       41.279999
  C7        10.110000        3.550000       40.799999
  H2        10.080000        3.900000       39.779999
  C8        10.980000        2.560000       41.209999
  H3        11.790000        2.370000       40.630001
  C9        10.900000        2.090000       42.439999
  H4        11.790000        1.470000       42.820000
  C10       11.560000        1.020000       45.700001
  H5        12.200000        1.080000       44.860001
  C11       11.960000        0.280000       46.849998
  H6        12.910000       -0.190000       46.860001
  C12       11.120000        0.160000       47.930000
  H7        11.520000       -0.450000       48.689999
  C13        9.850000        0.740000       47.919998
  H8         9.140000        0.470000       48.650002
  C6         7.090000        2.070000       47.250000
  C1         6.800000        3.080000       48.180000
  H1         7.100000        4.120000       47.869999
  C2         5.900000        2.770000       49.200001
  H2         5.950000        3.220000       50.150002
  C3         5.140000        1.570000       49.160000
  H3         4.450000        1.370000       49.930000
  C4         5.340000        0.660000       48.139999
  H4         4.730000       -0.220000       47.910000
  C5         6.350000        0.910000       47.220001
  H5         6.690000        0.110000       46.610001
