206
 generated by VMD
 Ir       23.793156       25.156635     -101.413979
 C        23.203833       22.488907      -97.920227
 C        24.451424       22.182835      -98.424347
 N        22.713591       23.490013      -98.737747
 C        23.589790       23.754875      -99.867493
 N        24.618469       22.977753      -99.616112
 C        25.625307       23.023712     -100.535820
 C        25.596077       24.095230     -101.469574
 C        26.638578       24.209042     -102.436447
 H        26.520866       25.047562     -103.140450
 C        27.630241       23.225712     -102.571213
 H        28.444897       23.340839     -103.295013
 C        27.651901       22.140099     -101.716476
 H        28.415218       21.461498     -101.822975
 C        26.712486       22.044220     -100.722183
 H        26.822378       21.163425     -100.099747
 C        25.275593       21.363533      -97.686455
 H        26.390789       21.188103      -97.894928
 C        24.841118       20.801647      -96.454941
 H        25.490616       20.316494      -95.862427
 C        23.507053       21.021919      -96.014542
 H        23.083374       20.497097      -95.194389
 C        22.644897       21.974384      -96.729530
 H        21.597370       21.971855      -96.443901
 C        21.282043       23.888195      -98.685486
 C        20.384865       23.046875      -99.346649
 H        20.627382       22.049419      -99.646278
 C        19.030815       23.456551      -99.429153
 H        18.414364       23.027496     -100.200905
 C        18.603260       24.620514      -98.754250
 H        17.509987       24.817696      -98.631477
 C        19.542761       25.461826      -98.175598
 H        19.184708       26.315918      -97.614059
 C        20.881115       25.093105      -98.152054
 H        21.655972       25.705219      -97.614174
 C        25.854197       28.566601      -99.510384
 C        25.954865       28.851898     -100.870636
 N        25.188862       27.343853      -99.429688
 C        24.917019       26.807163     -100.693642
 N        25.328289       27.753227     -101.538406
 C        25.074944       27.390652     -102.923775
 C        24.321907       26.222912     -103.129227
 C        24.073690       25.905159     -104.461075
 H        23.603832       24.915413     -104.541931
 C        24.292156       26.788441     -105.535591
 H        23.930668       26.642319     -106.477173
 C        24.913471       28.000992     -105.341965
 H        25.214272       28.678177     -106.186378
 C        25.292191       28.289295     -104.011032
 H        25.828007       29.216316     -103.870903
 C        26.706177       30.042583     -101.311996
 H        26.894062       30.216541     -102.391182
 C        27.309620       30.853222     -100.361557
 H        27.898926       31.625237     -100.711441
 C        27.190876       30.544876      -98.980286
 H        27.701670       31.206951      -98.262756
 C        26.423561       29.414379      -98.496246
 H        26.355251       29.254501      -97.427231
 C        24.734661       26.779419      -98.089539
 C        23.763716       27.501640      -97.424210
 H        23.151285       28.192944      -97.944427
 C        23.534006       27.258591      -96.047745
 H        22.772654       27.755451      -95.501503
 C        24.337292       26.326614      -95.318115
 H        23.995880       25.846622      -94.373367
 C        25.312084       25.603100      -96.048119
 H        25.876209       24.846500      -95.507828
 C        25.513275       25.844872      -97.407707
 H        26.169712       25.196918      -98.000450
 C        19.801296       26.799278     -101.452209
 C        19.634338       25.538033     -101.936340
 N        21.165592       27.073296     -101.472412
 C        21.926048       25.931179     -101.713615
 N        20.959988       24.954189     -102.045311
 C        21.400074       23.600811     -102.275063
 C        22.832527       23.566238     -102.422653
 C        23.374285       22.374134     -102.954155
 H        24.301075       22.408657     -103.346550
 C        22.517849       21.333126     -103.295067
 H        22.940825       20.429131     -103.703323
 C        21.122833       21.381798     -103.071320
 H        20.550854       20.659573     -103.588745
 C        20.518787       22.512436     -102.560844
 H        19.519386       22.530407     -102.192368
 C        18.317917       25.038620     -102.255112
 H        18.065285       23.977184     -102.270599
 C        17.214987       25.872162     -102.023483
 H        16.149925       25.637798     -102.235191
 C        17.385975       27.129570     -101.497284
 H        16.562620       27.796631     -101.493073
 C        18.692867       27.623848     -101.277924
 H        18.881023       28.540695     -100.677429
 C        21.728569       28.518822     -101.572922
 C        21.857574       29.073017     -102.847176
 H        21.310802       28.643959     -103.625603
 C        22.522846       30.312397     -103.033340
 H        22.250935       31.056168     -103.773994
 C        23.131725       30.945087     -101.921333
 H        23.706928       31.815716     -102.103951
 C        22.929991       30.351200     -100.672256
 H        23.368731       30.793068      -99.868042
 C        22.167374       29.209133     -100.453621
 H        22.104134       28.798302      -99.436508
 Ir       23.793156       25.156635      -85.693588
 C        22.671143       22.676003      -89.014732
 C        23.559258       23.570915      -89.496170
 N        22.655476       22.854206      -87.606125
 C        23.470995       23.924660      -87.272873
 N        24.105600       24.348288      -88.407776
 C        25.197702       25.274040      -88.228355
 C        25.291039       25.833755      -87.045052
 C        26.502968       26.520115      -86.663559
 H        26.522953       27.017050      -85.721458
 C        27.551086       26.656981      -87.571808
 H        28.392258       27.265198      -87.390144
 C        27.466000       26.056292      -88.773903
 H        28.160587       26.413406      -89.492661
 C        26.287720       25.337929      -89.118744
 H        26.302608       24.715525      -90.011429
 C        23.874039       23.449055      -90.928329
 H        24.657913       24.012360      -91.344406
 C        23.092707       22.606426      -91.743370
 H        23.317421       22.489750      -92.752716
 C        22.160561       21.748653      -91.197266
 H        21.652151       21.025139      -91.785095
 C        21.980011       21.747589      -89.831978
 H        21.251709       21.095932      -89.464935
 C        21.940870       22.045151      -86.676994
 C        20.629150       22.516346      -86.422714
 H        20.431145       23.580336      -86.392334
 C        19.618095       21.634216      -86.070984
 H        18.579847       21.968405      -85.898193
 C        19.915958       20.269356      -86.002838
 H        19.167002       19.519005      -86.270493
 C        21.255896       19.896763      -86.172379
 H        21.363216       18.814884      -85.995979
 C        22.291744       20.717445      -86.475029
 H        23.328405       20.356369      -86.664375
 C        27.169727       22.956028      -83.899734
 C        26.999287       24.031672      -83.057816
 N        26.120583       23.054440      -84.888626
 C        25.354387       24.159414      -84.707321
 N        25.840828       24.657681      -83.510239
 C        25.248684       25.904802      -83.190010
 C        24.489796       26.498718      -84.190086
 C        24.017036       27.840572      -83.986786
 H        23.375961       28.329546      -84.701012
 C        24.274891       28.537296      -82.763962
 H        24.208000       29.611496      -82.937805
 C        24.985962       27.856319      -81.738708
 H        24.892971       28.240591      -80.717590
 C        25.455547       26.538788      -81.975159
 H        25.897106       26.133053      -81.141479
 C        27.908943       24.153484      -82.056870
 H        28.126286       25.094639      -81.571075
 C        29.012920       23.212448      -81.963165
 H        29.792126       23.441757      -81.275162
 C        29.213898       22.159832      -82.905777
 H        30.196083       21.779558      -83.034592
 C        28.208603       22.020100      -83.856392
 H        28.236198       21.300411      -84.616516
 C        26.395443       22.324432      -86.108490
 C        27.208252       22.900457      -87.061127
 H        27.688616       23.851810      -86.870667
 C        27.531357       22.126936      -88.196854
 H        27.909107       22.572365      -89.076904
 C        27.042751       20.826046      -88.368469
 H        27.237801       20.238213      -89.268143
 C        26.169117       20.357567      -87.421585
 H        25.653820       19.344769      -87.557236
 C        25.856455       21.031225      -86.281700
 H        25.303062       20.494862      -85.557152
 C        20.413193       23.971348      -83.330719
 C        19.972723       24.972454      -84.153015
 N        21.835203       23.958542      -83.482452
 C        22.276703       24.946854      -84.326263
 N        21.100903       25.634327      -84.750031
 C        21.223312       26.661034      -85.673874
 C        22.338982       26.449654      -86.506226
 C        22.466640       27.348297      -87.584900
 H        23.401119       27.380238      -88.106659
 C        21.569439       28.364861      -87.827057
 H        21.680801       28.952400      -88.761345
 C        20.453159       28.505817      -87.001068
 H        19.675114       29.229187      -87.152985
 C        20.274998       27.678871      -85.925285
 H        19.395481       27.831333      -85.249336
 C        18.620384       25.001839      -84.427269
 H        18.288990       25.695673      -85.159637
 C        17.702103       24.204247      -83.841339
 H        16.626598       24.334827      -83.847595
 C        18.147703       23.247963      -82.965523
 H        17.472721       22.644999      -82.356644
 C        19.488134       23.149437      -82.710693
 H        19.836689       22.505548      -81.904083
 C        22.666397       23.035524      -82.776093
 C        22.425739       21.683434      -82.876274
 H        21.821619       21.396482      -83.728973
 C        22.972837       20.796291      -81.989616
 H        22.796236       19.733557      -82.155159
 C        23.859283       21.240749      -81.021233
 H        24.196356       20.444477      -80.334404
 C        24.142323       22.576199      -80.898094
 H        25.048912       22.909199      -80.348358
 C        23.480536       23.544014      -81.723610
 H        23.586967       24.628515      -81.556488
