206
 generated by VMD
  IR        40.820000        6.610000       11.890000
  C1        44.470001        9.050000       11.470000
  C2        44.349998        8.930000       12.820000
  N1        43.320000        8.390000       10.790000
  C3a       42.500000        7.810000       11.740000
  N2        43.070000        8.230000       12.950000
  C4        42.270000        7.950000       14.120000
  C5a       41.169998        7.080000       13.930000
  C6        40.560001        6.620000       15.090000
  H1        40.000000        5.690000       14.930000
  C7        40.869999        7.060000       16.420000
  H2        40.400002        6.760000       17.309999
  C8        41.980000        7.940000       16.549999
  H3        42.299999        8.290000       17.510000
  C9        42.709999        8.330000       15.410000
  H4        43.680000        8.600000       15.680000
  C10       45.270000        9.590000       13.660000
  H5        45.340000        9.270000       14.650000
  C11       46.099998       10.550000       13.170000
  H6        46.560001       11.330000       13.790000
  C12       46.209999       10.700000       11.770000
  H7        46.740002       11.490000       11.280000
  C13       45.439999        9.850000       10.920000
  H8        45.759998        9.680000        9.830000
  C6        43.180000        8.350000        9.400000
  C1        44.160000        7.770000        8.560000
  H1        45.029999        7.440000        9.010000
  C2        44.130001        7.970000        7.140000
  H2        44.689999        7.350000        6.490000
  C3        43.209999        8.850000        6.610000
  H3        42.970001        9.050000        5.550000
  C4        42.310001        9.530000        7.440000
  H4        41.730000       10.390000        7.130000
  C5        42.259998        9.210000        8.820000
  H5        41.529999        9.820000        9.420000
  C1        42.540001        2.570000       12.300000
  C2        41.189999        2.410000       12.040000
  N1        42.680000        3.990000       12.350000
  C3b       41.520000        4.680000       12.140000
  N2        40.540001        3.660000       11.980000
  C4        39.160000        4.090000       12.070000
  C5b       39.110001        5.490000       12.410000
  C6        37.910000        5.960000       12.890000
  H1        37.830002        6.990000       13.180000
  C7        36.770000        5.190000       12.900000
  H2        36.000000        5.400000       13.580000
  C8        36.849998        3.920000       12.400000
  H3        35.980000        3.330000       12.400000
  C9        38.029999        3.320000       12.000000
  H4        38.020000        2.400000       11.490000
  C10       40.770000        1.120000       11.730000
  H5        39.799999        0.920000       11.230000
  C11       41.660000        0.060000       11.770000
  H6        41.380001       -0.980000       11.600000
  C12       43.029999        0.280000       12.030000
  H7        43.650002       -0.490000       11.630000
  C13       43.480000        1.570000       12.330000
  H8        44.549999        1.850000       12.230000
  C6        44.000000        4.560000       12.550000
  C1        44.740002        4.930000       11.430000
  H1        44.470001        4.660000       10.450000
  C2        45.900002        5.760000       11.600000
  H2        46.060001        6.490000       10.820000
  C3        46.450001        6.010000       12.860000
  H3        47.299999        6.720000       13.060000
  C4        45.730000        5.590000       14.000000
  H4        46.040001        5.610000       15.060000
  C5        44.459999        4.940000       13.830000
  H5        43.889999        4.520000       14.620000
  C1        39.000000        5.980000        7.980000
  C2        38.580002        7.260000        8.370000
  N1        39.950001        5.500000        8.940000
  C3c       40.090000        6.460000        9.980000
  N2        39.290001        7.550000        9.590000
  C4        39.279999        8.670000       10.500000
  C5c       39.669998        8.370000       11.770000
  C6        39.400002        9.310000       12.780000
  H1        39.689999        9.110000       13.770000
  C7        38.880001       10.580000       12.550000
  H2        38.709999       11.300000       13.380000
  C8        38.580002       10.920000       11.260000
  H3        38.250000       11.970000       10.980000
  C9        38.810001        9.990000       10.230000
  H4        38.750000       10.310000        9.170000
  C10       37.790001        7.980000        7.420000
  H5        37.919998        8.980000        7.560000
  C11       37.549999        7.460000        6.150000
  H6        37.099998        8.010000        5.430000
  C12       37.939999        6.140000        5.880000
  H7        37.570000        5.700000        4.930000
  C13       38.619999        5.400000        6.760000
  H8        39.040001        4.430000        6.360000
  C6        41.000000        4.640000        8.520000
  C1        42.090000        5.270000        7.960000
  H1        41.950001        6.400000        7.730000
  C2        43.310001        4.620000        7.810000
  H2        44.220001        5.120000        7.620000
  C3        43.349998        3.270000        8.230000
  H3        44.259998        2.720000        8.050000
  C4        42.230000        2.620000        8.770000
  H4        42.410000        1.690000        9.200000
  C5        41.020000        3.300000        8.910000
  H5        40.220001        2.700000        9.430000
  IR        47.500000       15.500000        7.810000
  C1        45.250000       18.350000       10.310000
  C2        44.500000       17.180000       10.260000
  N1        46.380001       18.129999        9.430000
  C3a       46.360001       16.790001        8.940000
  N2        45.169998       16.190001        9.470000
  C4        44.939999       14.800000        9.170000
  C5a       45.750000       14.400000        8.080000
  C6        45.439999       13.160000        7.480000
  H1        45.990002       12.740000        6.600000
  C7        44.500000       12.330000        8.020000
  H2        44.130001       11.470000        7.410000
  C8        43.820000       12.630000        9.210000
  H3        43.029999       11.980000        9.560000
  C9        43.970001       13.920000        9.750000
  H4        43.320000       14.160000       10.560000
  C10       43.290001       17.120001       11.040000
  H5        42.930000       16.219999       11.450000
  C11       42.880001       18.170000       11.780000
  H6        42.020000       18.190001       12.490000
  C12       43.680000       19.350000       11.830000
  H7        43.410000       20.170000       12.430000
  C13       44.840000       19.410000       11.110000
  H8        45.380001       20.309999       11.110000
  C6        47.299999       19.219999        9.020000
  C1        47.430000       19.540001        7.650000
  H1        46.580002       19.440001        6.980000
  C2        48.560001       20.260000        7.170000
  H2        48.669998       20.490000        6.150000
  C3        49.520000       20.620001        8.110000
  H3        50.490002       21.020000        7.970000
  C4        49.400002       20.389999        9.470000
  H4        50.020000       20.980000       10.140000
  C5        48.320000       19.690001        9.910000
  H5        48.419998       19.410000       10.910000
  C1        49.200001       12.930000       11.020000
  C2        49.380001       12.300000        9.790000
  N1        48.500000       14.170000       10.680000
  C3b       48.299999       14.230000        9.250000
  N2        48.959999       13.200000        8.740000
  C4        49.230000       13.120000        7.380000
  C5b       48.480000       14.020000        6.650000
  C6        48.580002       14.050000        5.220000
  H1        47.930000       14.720000        4.630000
  C7        49.619999       13.350000        4.580000
  H2        49.939999       13.610000        3.590000
  C8        50.400002       12.460000        5.330000
  H3        51.130001       11.880000        4.880000
  C9        50.200001       12.350000        6.740000
  H4        50.970001       11.970000        7.410000
  C10       49.790001       11.010000        9.840000
  H5        50.090000       10.530000        8.950000
  C11       49.919998       10.270000       11.060000
  H6        50.130001        9.190000       10.910000
  C12       49.779999       10.940000       12.280000
  H7        49.740002       10.500000       13.240000
  C13       49.410000       12.290000       12.170000
  H8        49.299999       12.810000       13.100000
  C6        47.959999       15.090000       11.660000
  C1        46.959999       14.650000       12.550000
  H1        46.549999       13.630000       12.540000
  C2        46.400002       15.560000       13.450000
  H2        45.770000       15.200000       14.200000
  C3        46.799999       16.850000       13.440000
  H3        46.320000       17.510000       14.190000
  C4        47.930000       17.270000       12.670000
  H4        48.470001       18.180000       12.850000
  C5        48.459999       16.400000       11.740000
  H5        49.320000       16.629999       11.210000
  C1        50.959999       17.299999        5.930000
  C2        49.939999       17.540001        5.000000
  N1        50.410000       16.709999        7.110000
  C3c       49.029999       16.660000        7.030000
  N2        48.730000       17.219999        5.710000
  C4        47.330002       17.250000        5.370000
  C5c       46.520000       16.450001        6.150000
  C6        45.189999       16.299999        5.800000
  H1        44.520000       15.590000        6.270000
  C7        44.700001       17.000000        4.650000
  H2        43.669998       16.940001        4.470000
  C8        45.490002       17.879999        3.910000
  H3        45.070000       18.629999        3.260000
  C9        46.820000       17.980000        4.280000
  H4        47.360001       18.900000        3.950000
  C10       50.209999       18.090000        3.770000
  H5        49.490002       18.049999        3.010000
  C11       51.520000       18.260000        3.450000
  H6        51.810001       18.660000        2.490000
  C12       52.549999       18.040001        4.350000
  H7        53.610001       18.129999        4.050000
  C13       52.290001       17.520000        5.590000
  H8        52.980000       17.680000        6.360000
  C6        51.150002       16.629999        8.370000
  C1        51.400002       15.410000        9.060000
  H1        51.480000       14.490000        8.510000
  C2        51.810001       15.380000       10.410000
  H2        51.880001       14.430000       10.920000
  C3        51.930000       16.520000       11.140000
  H3        52.400002       16.549999       12.120000
  C4        51.619999       17.760000       10.540000
  H4        51.430000       18.629999       11.120000
  C5        51.290001       17.760000        9.170000
  H5        51.029999       18.660000        8.770000
