206
 generated by VMD
 Ir      117.336365       19.716827       -2.043943
 C       117.519196       22.926350        0.920060
 C       118.206390       23.377014       -0.196218
 N       117.063080       21.584606        0.625138
 C       117.571243       21.215025       -0.635528
 N       118.197006       22.353748       -1.136663
 C       118.664703       22.256207       -2.537891
 C       118.777634       20.945265       -2.962602
 C       119.567795       20.567802       -4.110538
 H       119.852921       19.462337       -4.144449
 C       120.148773       21.580318       -4.857978
 H       120.791809       21.316242       -5.761184
 C       119.959961       22.970768       -4.466703
 H       120.404877       23.639854       -5.141735
 C       119.221954       23.298717       -3.303689
 H       118.777588       24.281395       -3.248155
 C       118.672363       24.703465       -0.151435
 H       119.189255       25.226353       -0.978599
 C       118.622871       25.382126        0.988465
 H       118.794266       26.454178        1.031205
 C       117.896118       24.950279        2.137614
 H       117.691406       25.491800        2.992743
 C       117.287460       23.692871        2.030617
 H       116.797195       23.239262        2.920161
 C       116.413788       20.667831        1.551930
 C       115.118782       20.314770        1.211491
 H       114.582504       20.572922        0.333045
 C       114.352982       19.566303        2.138991
 H       113.538712       18.920372        1.793414
 C       114.864754       19.300865        3.396702
 H       114.417709       18.877716        4.296477
 C       116.176620       19.626287        3.621165
 H       116.609314       19.354847        4.595488
 C       117.003677       20.235260        2.713400
 H       118.090164       20.150560        2.755373
 C       114.418663       21.504322       -4.796367
 C       114.856384       20.432951       -5.478395
 N       115.035873       21.521158       -3.573350
 C       115.965149       20.491783       -3.417036
 N       115.883217       19.872869       -4.648921
 C       116.663704       18.696590       -4.785320
 C       117.281433       18.284483       -3.626403
 C       117.900452       17.041878       -3.548032
 H       118.424591       16.653524       -2.670499
 C       117.995209       16.222549       -4.616777
 H       118.533035       15.319614       -4.581161
 C       117.430374       16.666058       -5.809112
 H       117.430176       15.941769       -6.681526
 C       116.743240       17.888435       -5.930513
 H       116.428360       18.132235       -6.938879
 C       114.305161       20.087616       -6.735094
 H       114.695221       19.223366       -7.294937
 C       113.277222       20.861057       -7.198265
 H       112.607269       20.291685       -7.785106
 C       112.785583       22.002174       -6.545015
 H       112.298248       22.794777       -7.071222
 C       113.358627       22.347744       -5.283470
 H       113.049438       23.253864       -4.759782
 C       114.662888       22.356483       -2.510940
 C       113.543381       22.035080       -1.703039
 H       112.804276       21.390795       -2.077739
 C       113.303856       22.901340       -0.582895
 H       112.551651       22.606979        0.137477
 C       114.110596       23.988560       -0.307372
 H       113.870255       24.771423        0.448842
 C       115.125656       24.319258       -1.161136
 H       115.768051       24.979076       -0.619687
 C       115.384506       23.523449       -2.289224
 H       116.017883       23.946598       -3.037736
 C       114.803345       16.823593       -0.129407
 C       115.943787       16.846174        0.655320
 N       115.048019       17.607115       -1.208307
 C       116.254700       18.153885       -1.139848
 N       116.871414       17.612284       -0.011430
 C       118.340103       17.762924        0.051594
 C       118.846863       18.639004       -0.953479
 C       120.214035       18.860798       -1.035131
 H       120.728134       19.442730       -1.811244
 C       121.191772       18.308601       -0.129314
 H       122.171547       18.744698       -0.209747
 C       120.640762       17.472040        0.866805
 H       121.269974       17.028168        1.583157
 C       119.302017       17.230721        0.945168
 H       118.997406       16.689953        1.828162
 C       115.923767       16.292118        1.949317
 H       116.833969       16.035011        2.525794
 C       114.718521       15.626686        2.355109
 H       114.816673       14.912783        3.186192
 C       113.567245       15.614574        1.536133
 H       112.737366       14.918785        1.717501
 C       113.587952       16.286949        0.336472
 H       112.644608       16.559355       -0.008777
 C       114.316574       17.377989       -2.401653
 C       113.378387       18.350201       -2.721530
 H       113.337143       19.248199       -2.083648
 C       112.451920       18.124962       -3.738098
 H       111.597137       18.807018       -3.986175
 C       112.446625       16.865416       -4.334516
 H       111.873657       16.684397       -5.294691
 C       113.337631       15.902027       -3.988252
 H       113.391464       14.942163       -4.514715
 C       114.283302       16.107975       -2.995334
 H       114.804321       15.334898       -2.415424
 Ir      117.336380       19.716827        8.920005
 C       115.447372       22.668102        6.264866
 C       114.551056       21.642639        6.369425
 N       116.619232       22.271736        7.010884
 C       116.423912       21.027744        7.600573
 N       115.122009       20.714436        7.268620
 C       114.627213       19.545956        7.862282
 C       115.568848       18.739000        8.447639
 C       115.326996       17.389030        8.777320
 H       116.160690       16.687920        8.956168
 C       114.043259       16.933176        8.597520
 H       113.666519       16.047440        9.140965
 C       113.031738       17.708967        8.018914
 H       112.064919       17.178537        7.797791
 C       113.349655       19.000595        7.659018
 H       112.493217       19.605623        7.793776
 C       113.213348       21.842480        5.843575
 H       112.462219       21.064232        5.674086
 C       112.868042       23.104715        5.459757
 H       111.846451       23.354774        5.179154
 C       113.777687       24.149235        5.418120
 H       113.490265       25.140369        5.137509
 C       115.101501       23.932924        5.738944
 H       115.665359       24.631533        5.187127
 C       117.905457       23.012684        6.917889
 C       118.303238       23.982311        7.824139
 H       117.893036       23.988338        8.805465
 C       119.438446       24.726313        7.441166
 H       119.527740       25.618309        7.965825
 C       120.134964       24.578316        6.249926
 H       120.916786       25.274340        6.016680
 C       119.662476       23.608219        5.308779
 H       119.979370       23.481285        4.299592
 C       118.612976       22.775652        5.681355
 H       118.333069       22.073837        4.994843
 C       115.489441       20.781349       12.670825
 C       116.308678       19.717285       12.994428
 N       115.502495       21.017372       11.258479
 C       116.377197       20.120182       10.704547
 N       116.736557       19.265846       11.769191
 C       117.344360       18.051224       11.401254
 C       118.046265       18.194086       10.171653
 C       118.981750       17.193634        9.844308
 H       119.686081       17.409660        8.992517
 C       119.281693       16.121944       10.712417
 H       119.916954       15.315561       10.469317
 C       118.605423       16.049767       11.926312
 H       118.896378       15.419600       12.710298
 C       117.650894       16.959774       12.261237
 H       117.248627       16.856064       13.232795
 C       116.493423       19.424568       14.385253
 H       117.017715       18.587385       14.643790
 C       115.804764       20.117352       15.328813
 H       115.866776       19.949066       16.378969
 C       114.985382       21.191414       15.005383
 H       114.409592       21.598034       15.825768
 C       114.788162       21.573399       13.645791
 H       114.287888       22.491501       13.357669
 C       114.643204       21.959461       10.460618
 C       115.094437       23.223450       10.079278
 H       116.126511       23.537697       10.140689
 C       114.135193       24.108036        9.610814
 H       114.621101       24.895208        9.075700
 C       112.809845       23.742390        9.387082
 H       111.969711       24.384693        9.136817
 C       112.469833       22.433115        9.599669
 H       111.507233       22.011715        9.436810
 C       113.351715       21.565939       10.147574
 H       112.911545       20.670441       10.626351
 C       121.111862       21.679996        9.647874
 C       121.269455       21.134825        8.406520
 N       119.860535       21.373524       10.078675
 C       119.130585       20.689121        9.169084
 N       119.965256       20.551355        8.077413
 C       119.406311       19.844475        6.893683
 C       118.324738       18.982153        7.226437
 C       117.894730       17.930433        6.407492
 H       117.038452       17.413420        6.637251
 C       118.632736       17.602486        5.244479
 H       118.374222       16.799994        4.610936
 C       119.740692       18.354607        4.942687
 H       120.164238       18.168159        3.992508
 C       120.106087       19.476540        5.698431
 H       120.941856       20.096581        5.287657
 C       122.517761       21.246052        7.709696
 H       122.679993       20.786156        6.732359
 C       123.584869       21.891277        8.299144
 H       124.461777       21.956173        7.647284
 C       123.377457       22.556654        9.490806
 H       124.232895       23.111198        9.944333
 C       122.165039       22.477062       10.127547
 H       122.056580       22.877213       11.133836
 C       119.332016       21.742636       11.348565
 C       118.583748       22.907509       11.588075
 H       118.300713       23.558844       10.746741
 C       118.215492       23.298258       12.898538
 H       117.506561       24.096523       12.978515
 C       118.622314       22.483677       14.015788
 H       118.429321       22.892412       15.031016
 C       119.356369       21.328568       13.777915
 H       119.931503       20.902103       14.592624
 C       119.703819       20.967339       12.477231
 H       120.096909       20.005360       12.342048
