206
 generated by VMD
  IR        44.680000        1.500000       52.970001
  C1        41.790001       -1.640000       52.029999
  C2        42.049999       -1.090000       50.830002
  N1        42.360001       -0.830000       53.080002
  C3a       43.139999        0.210000       52.480000
  N2        42.810001        0.110000       51.130001
  C4        43.410000        1.130000       50.279999
  C5a       44.439999        1.870000       50.919998
  C6        45.169998        2.680000       50.049999
  H1        46.000000        3.240000       50.470001
  C7        44.939999        2.800000       48.669998
  H2        45.520000        3.540000       48.070000
  C8        43.900002        2.160000       48.119999
  H3        43.860001        2.130000       47.000000
  C9        43.110001        1.330000       48.889999
  H4        42.200001        0.960000       48.439999
  C10       41.590000       -1.710000       49.590000
  H5        41.900002       -1.210000       48.669998
  C11       40.910000       -2.970000       49.730000
  H6        40.759998       -3.580000       48.860001
  C12       40.849998       -3.580000       51.020000
  H7        40.299999       -4.460000       51.070000
  C13       41.130001       -2.880000       52.169998
  H8        40.880001       -3.190000       53.189999
  C6        42.290001       -1.140000       54.430000
  C1        43.259998       -2.000000       54.910000
  H1        43.930000       -2.510000       54.209999
  C2        43.220001       -2.390000       56.200001
  H2        43.990002       -3.070000       56.689999
  C3        42.139999       -2.010000       57.009998
  H3        42.369999       -2.190000       58.070000
  C4        41.080002       -1.210000       56.509998
  H4        40.209999       -0.890000       57.130001
  C5        41.180000       -0.740000       55.209999
  H5        40.430000       -0.020000       54.950001
  C1        48.009998       -0.650000       51.320000
  C2        48.590000        0.500000       51.840000
  N1        46.680000       -0.720000       51.669998
  C3b       46.389999        0.430000       52.430000
  N2        47.570000        1.170000       52.480000
  C4        47.509998        2.390000       53.240002
  C5b       46.220001        2.930000       53.230000
  C6        46.049999        4.260000       53.570000
  H1        45.119999        4.720000       53.330002
  C7        47.200001        5.020000       53.930000
  H2        47.119999        6.030000       54.270000
  C8        48.459999        4.430000       53.930000
  H3        49.250000        4.930000       54.419998
  C9        48.650002        3.070000       53.599998
  H4        49.529999        2.530000       53.630001
  C10       49.869999        0.840000       51.439999
  H5        50.230000        1.840000       51.580002
  C11       50.619999        0.000000       50.650002
  H6        51.590000        0.330000       50.310001
  C12       50.070000       -1.190000       50.119999
  H7        50.700001       -1.820000       49.520000
  C13       48.779999       -1.550000       50.529999
  H8        48.270000       -2.430000       50.150002
  C6        45.980000       -1.970000       51.650002
  C1        46.330002       -2.890000       52.599998
  H1        47.119999       -2.570000       53.299999
  C2        45.720001       -4.120000       52.639999
  H2        46.000000       -4.870000       53.330002
  C3        44.700001       -4.470000       51.730000
  H3        44.250000       -5.450000       51.759998
  C4        44.389999       -3.550000       50.709999
  H4        43.930000       -3.880000       49.810001
  C5        45.049999       -2.290000       50.680000
  H5        44.770000       -1.560000       49.919998
  C1        44.549999        0.820000       57.330002
  C2        43.439999        1.590000       56.959999
  N1        45.320000        0.650000       56.160000
  C3c       44.730000        1.460000       55.070000
  N2        43.650002        2.020000       55.660000
  C4        43.009998        3.060000       54.849998
  C5c       43.169998        2.880000       53.470001
  C6        42.360001        3.620000       52.590000
  H1        42.450001        3.230000       51.540001
  C7        41.540001        4.680000       53.070000
  H2        41.040001        5.350000       52.320000
  C8        41.490002        4.980000       54.410000
  H3        41.020000        5.860000       54.820000
  C9        42.169998        4.150000       55.360001
  H4        42.349998        4.510000       56.419998
  C10       42.509998        2.000000       57.910000
  H5        41.750000        2.670000       57.630001
  C11       42.759998        1.720000       59.279999
  H6        41.950001        1.880000       59.930000
  C12       43.849998        0.990000       59.610001
  H7        44.020000        0.810000       60.650002
  C13       44.759998        0.530000       58.680000
  H8        45.660000        0.150000       59.040001
  C6        46.590000        0.220000       56.080002
  C1        46.810001       -1.060000       55.650002
  H1        45.990002       -1.460000       55.049999
  C2        48.099998       -1.530000       55.419998
  H2        48.240002       -2.560000       55.150002
  C3        49.169998       -0.660000       55.459999
  H3        50.200001       -0.960000       55.200001
  C4        48.939999        0.680000       55.869999
  H4        49.730000        1.400000       55.849998
  C5        47.650002        1.140000       56.209999
  H5        47.560001        2.050000       56.689999
  IR        52.299999        3.730000       43.540001
  C1        49.549999        3.680000       46.939999
  C2        50.639999        4.510000       47.259998
  N1        49.720001        3.360000       45.549999
  C3a       50.889999        4.010000       45.049999
  N2        51.410000        4.700000       46.110001
  C4        52.509998        5.560000       45.860001
  C5a       53.279999        5.160000       44.779999
  C6        54.220001        6.130000       44.310001
  H1        54.770000        5.940000       43.400002
  C7        54.430000        7.400000       45.020000
  H2        55.240002        7.970000       44.660000
  C8        53.720001        7.720000       46.119999
  H3        53.849998        8.580000       46.720001
  C9        52.720001        6.790000       46.549999
  H4        52.290001        7.000000       47.520000
  C10       50.759998        4.830000       48.669998
  H5        51.650002        5.200000       49.080002
  C11       49.830002        4.340000       49.619999
  H6        50.139999        4.320000       50.709999
  C12       48.790001        3.540000       49.259998
  H7        48.200001        3.100000       49.990002
  C13       48.669998        3.180000       47.880001
  H8        48.009998        2.370000       47.610001
  C6        48.840000        2.540000       44.790001
  C1        48.009998        3.140000       43.849998
  H1        48.009998        4.150000       43.689999
  C2        47.049999        2.260000       43.220001
  H2        46.240002        2.660000       42.590000
  C3        46.980000        0.890000       43.430000
  H3        46.369999        0.260000       42.840000
  C4        47.970001        0.270000       44.230000
  H4        48.320000       -0.720000       43.910000
  C5        48.860001        1.160000       44.919998
  H5        49.389999        0.660000       45.770000
  C1        51.439999        6.800000       40.529999
  C2        52.599998        6.240000       40.150002
  N1        51.090000        6.170000       41.730000
  C3b       51.980000        5.170000       42.080002
  N2        52.959999        5.190000       41.090000
  C4        54.130001        4.430000       41.310001
  C5b       53.980000        3.420000       42.310001
  C6        54.980000        2.450000       42.459999
  H1        54.750000        1.690000       43.209999
  C7        56.169998        2.460000       41.770000
  H2        57.029999        1.990000       42.200001
  C8        56.360001        3.490000       40.840000
  H3        57.270000        3.490000       40.230000
  C9        55.360001        4.490000       40.630001
  H4        55.570000        5.380000       40.090000
  C10       53.139999        6.680000       38.970001
  H5        53.669998        5.890000       38.470001
  C11       52.599998        7.790000       38.310001
  H6        52.889999        7.960000       37.340000
  C12       51.470001        8.470000       38.810001
  H7        51.209999        9.480000       38.349998
  C13       50.869999        7.930000       39.889999
  H8        50.000000        8.380000       40.410000
  C6        50.349998        6.830000       42.779999
  C1        50.900002        8.010000       43.279999
  H1        51.900002        8.250000       43.209999
  C2        50.040001        8.900000       43.849998
  H2        50.480000        9.760000       44.169998
  C3        48.680000        8.700000       43.900002
  H3        48.110001        9.390000       44.529999
  C4        48.090000        7.560000       43.320000
  H4        47.080002        7.310000       43.570000
  C5        48.950001        6.600000       42.730000
  H5        48.619999        5.670000       42.310001
  C1        50.549999        0.280000       41.580002
  C2        51.240002       -0.270000       42.610001
  N1        50.700001        1.640000       41.599998
  C3c       51.549999        1.990000       42.619999
  N2        51.840000        0.830000       43.290001
  C4        52.439999        0.930000       44.560001
  C5c       53.080002        2.170000       44.779999
  C6        53.939999        2.320000       45.910000
  H1        54.529999        3.200000       45.939999
  C7        54.090000        1.290000       46.860001
  H2        54.650002        1.440000       47.799999
  C8        53.330002        0.140000       46.750000
  H3        53.230000       -0.430000       47.709999
  C9        52.560001       -0.060000       45.610001
  H4        52.139999       -1.050000       45.490002
  C10       51.209999       -1.620000       42.790001
  H5        51.869999       -2.080000       43.529999
  C11       50.340000       -2.470000       42.090000
  H6        50.230000       -3.510000       42.250000
  C12       49.630001       -1.960000       41.020000
  H7        49.049999       -2.590000       40.360001
  C13       49.720001       -0.570000       40.770000
  H8        49.009998       -0.070000       40.099998
  C6        50.169998        2.460000       40.490002
  C1        51.080002        3.000000       39.619999
  H1        52.099998        2.830000       39.810001
  C2        50.709999        3.870000       38.610001
  H2        51.540001        4.110000       37.849998
  C3        49.369999        4.340000       38.660000
  H3        49.189999        5.300000       38.200001
  C4        48.450001        3.830000       39.580002
  H4        47.400002        4.080000       39.520000
  C5        48.840000        2.860000       40.540001
  H5        48.110001        2.220000       40.990002
