206
 generated by VMD
 Ir       90.189743      -11.404297       24.705120
 C        89.444557       -9.675152       28.623459
 C        88.673508      -10.816288       28.563643
 N        90.252647       -9.664206       27.473900
 C        90.017975      -10.774624       26.676216
 N        89.086243      -11.505466       27.408573
 C        88.862724      -12.834080       26.946693
 C        89.298576      -13.084776       25.641289
 C        89.193085      -14.384167       25.121815
 H        89.522789      -14.595306       24.119011
 C        88.671829      -15.429564       25.898502
 H        88.629333      -16.423702       25.484152
 C        88.235977      -15.178865       27.203907
 H        87.818085      -15.984491       27.793173
 C        88.330338      -13.892212       27.727089
 H        88.017960      -13.715542       28.744442
 C        87.654831      -10.992666       29.510265
 H        86.966553      -11.820007       29.428551
 C        87.439583      -10.040192       30.517769
 H        86.614052      -10.169363       31.208721
 C        88.250237       -8.908045       30.584721
 H        88.100365       -8.162670       31.346792
 C        89.262482       -8.731667       29.645756
 H        89.950981       -7.916614       29.766830
 C        91.265518       -8.658987       27.253628
 C        91.095100       -7.715029       26.235691
 H        90.167618       -7.682639       25.691978
 C        92.071243       -6.741879       26.010691
 H        91.998703       -6.095838       25.153271
 C        93.198967       -6.677770       26.840046
 H        93.938042       -5.899428       26.690208
 C        93.361221       -7.608990       27.877254
 H        94.213837       -7.552669       28.527849
 C        92.402191       -8.604321       28.077446
 H        92.518715       -9.300863       28.893444
 C        94.131157      -13.239494       24.763149
 C        93.668648      -13.430235       23.473848
 N        93.055954      -12.703604       25.505619
 C        91.936836      -12.514305       24.709606
 N        92.315041      -13.008520       23.473312
 C        91.281029      -13.050900       22.487602
 C        90.140511      -12.301456       22.796566
 C        89.117859      -12.198027       21.833454
 H        88.207748      -11.677565       22.074715
 C        89.243416      -12.805824       20.580891
 H        88.446953      -12.704052       19.859924
 C        90.380020      -13.564709       20.281706
 H        90.505737      -13.986694       19.290432
 C        91.388557      -13.706354       21.232967
 H        92.175949      -14.414131       21.058403
 C        94.570236      -13.906929       22.494198
 H        94.276176      -13.973295       21.463848
 C        95.898849      -14.186737       22.826302
 H        96.582733      -14.534101       22.068649
 C        96.346771      -13.983257       24.142529
 H        97.380051      -14.168949       24.396404
 C        95.458046      -13.506563       25.106857
 H        95.819962      -13.313269       26.102779
 C        93.006676      -12.773155       26.952803
 C        92.177711      -13.715893       27.562527
 H        91.617447      -14.413755       26.961533
 C        92.060150      -13.742435       28.952374
 H        91.395264      -14.460089       29.425655
 C        92.774879      -12.832382       29.748346
 H        92.667732      -12.842735       30.820499
 C        93.612801      -11.899086       29.133083
 H        94.170540      -11.191784       29.731956
 C        93.734268      -11.863102       27.733456
 H        94.392723      -11.145449       27.267834
 C        91.446938       -8.048410       22.209068
 C        90.082283       -7.923110       22.316776
 N        91.832748       -9.124542       23.042250
 C        90.732193       -9.690538       23.672028
 N        89.672684       -8.905872       23.239437
 C        88.447800       -9.143831       23.921516
 C        88.314713      -10.443686       24.423481
 C        87.061172      -10.819359       24.950920
 H        86.902771      -11.826994       25.274940
 C        86.002213       -9.906572       25.041100
 H        85.065292      -10.222908       25.455719
 C        86.175568       -8.593082       24.599066
 H        85.370178       -7.873464       24.706284
 C        87.392624       -8.202272       24.040985
 H        87.563049       -7.171563       23.805412
 C        89.419113       -6.969556       21.551039
 H        88.336975       -6.905251       21.569523
 C        90.126122       -6.125268       20.695282
 H        89.612129       -5.364435       20.120087
 C        91.518906       -6.240679       20.598129
 H        92.069733       -5.595549       19.937683
 C        92.177361       -7.206971       21.359913
 H        93.249069       -7.287758       21.280441
 C        93.194366       -9.599157       23.127855
 C        93.824173      -10.089783       21.985294
 H        93.260323      -10.221184       21.080967
 C        95.182022      -10.447807       22.028561
 H        95.651855      -10.849270       21.143410
 C        95.907532      -10.305775       23.212261
 H        96.938461      -10.613594       23.255234
 C        95.271301       -9.815151       24.362480
 H        95.825165       -9.724810       25.284531
 C        93.923218       -9.463270       24.327404
 H        93.414230       -9.163261       25.231911
 Ir       90.189735      -11.404297       35.790947
 C        86.490379      -11.825899       33.507462
 C        87.349037      -12.723244       32.922668
 N        87.198166      -11.129244       34.493469
 C        88.506180      -11.566545       34.573238
 N        88.592056      -12.548689       33.587681
 C        89.851913      -13.197285       33.444210
 C        90.701080      -13.029324       34.548927
 C        91.796249      -13.892216       34.685020
 H        92.421066      -13.814161       35.562183
 C        92.085876      -14.856077       33.726906
 H        92.935509      -15.519205       33.865757
 C        91.280449      -14.976383       32.593628
 H        91.514809      -15.711420       31.824146
 C        90.168633      -14.142265       32.443562
 H        89.680099      -14.096239       31.484959
 C        86.890366      -13.519104       31.858562
 H        87.504128      -14.313046       31.459873
 C        85.582443      -13.392149       31.387146
 H        85.241379      -13.988558       30.552364
 C        84.719536      -12.472630       31.981430
 H        83.715683      -12.351074       31.595570
 C        85.169601      -11.698946       33.051365
 H        84.492569      -10.999861       33.527504
 C        86.750839       -9.842731       34.953560
 C        87.139839       -8.700077       34.248634
 H        87.889282       -8.778004       33.480732
 C        86.607254       -7.453572       34.584911
 H        86.752190       -6.607180       33.936207
 C        85.725151       -7.339384       35.672314
 H        85.380829       -6.362921       35.996910
 C        85.350616       -8.475443       36.389385
 H        84.776772       -8.362755       37.291664
 C        85.844521       -9.728991       36.020634
 H        85.517563      -10.610146       36.542614
 C        89.316360      -14.364727       38.883480
 C        90.525833      -13.832762       39.246113
 N        88.922485      -13.731562       37.690975
 C        89.866539      -12.811157       37.269283
 N        90.862328      -12.886265       38.249012
 C        91.992851      -12.025059       38.049179
 C        92.054146      -11.469976       36.768780
 C        93.274498      -10.913576       36.330986
 H        93.353745      -10.548813       35.313751
 C        94.384651      -10.862206       37.171711
 H        95.325813      -10.482182       36.799820
 C        94.289719      -11.357346       38.476093
 H        95.131653      -11.278843       39.143841
 C        93.095306      -11.926033       38.922611
 H        92.965317      -12.063313       39.975586
 C        91.137695      -14.283403       40.425793
 H        92.044235      -13.833857       40.782169
 C        90.533791      -15.285341       41.211426
 H        91.030365      -15.641869       42.098442
 C        89.315491      -15.827196       40.815262
 H        88.864433      -16.623827       41.389736
 C        88.692947      -15.354374       39.652733
 H        87.722221      -15.737385       39.386093
 C        87.604492      -13.883936       37.119698
 C        87.435448      -14.718166       36.011505
 H        88.284317      -15.206404       35.562134
 C        86.156464      -14.895117       35.472988
 H        86.017433      -15.546377       34.625034
 C        85.050781      -14.260019       36.033173
 H        84.068161      -14.394716       35.612915
 C        85.223145      -13.431932       37.157211
 H        84.374275      -12.943695       37.606586
 C        86.499603      -13.245541       37.693607
 H        86.629440      -12.632046       38.573021
 C        90.017410       -7.863085       38.323044
 C        90.448776       -7.385635       37.105274
 N        89.668121       -9.206383       38.134235
 C        89.913307       -9.633011       36.838482
 N        90.365997       -8.479568       36.200089
 C        90.671585       -8.624914       34.811424
 C        90.878525       -9.954733       34.397587
 C        91.367294      -10.179506       33.097443
 H        91.632980      -11.181894       32.798225
 C        91.594818       -9.119267       32.217770
 H        91.968834       -9.326664       31.226051
 C        91.338867       -7.805934       32.616570
 H        91.530762       -6.984569       31.942001
 C        90.874893       -7.565125       33.911419
 H        90.619545       -6.553297       34.193203
 C        90.877335       -6.053570       37.008095
 H        91.331345       -5.667837       36.109661
 C        90.833549       -5.208849       38.133450
 H        91.235123       -4.205719       38.065842
 C        90.387146       -5.708477       39.364708
 H        90.380615       -5.080744       40.234081
 C        89.978676       -7.037243       39.452641
 H        89.638298       -7.411741       40.407310
 C        88.841263       -9.902464       39.085213
 C        89.412521      -10.652218       40.113285
 H        90.487869      -10.744396       40.167446
 C        88.611824      -11.227512       41.099293
 H        89.046906      -11.889744       41.830215
 C        87.229172      -11.030880       41.074379
 H        86.599106      -11.400425       41.877213
 C        86.639542      -10.297163       40.043945
 H        85.568100      -10.195541       39.980007
 C        87.449203       -9.731306       39.052399
 H        87.018822       -9.056339       38.325424
