206
 generated by VMD
 Ir       -0.708588        0.227784       -7.242502
 C         3.545883       -0.196336       -8.012037
 C         3.167465       -1.393874       -7.443703
 N         2.438530        0.672414       -7.936869
 C         1.352524        0.032084       -7.356880
 N         1.823547       -1.218101       -7.004633
 C         0.957306       -1.983224       -6.164389
 C        -0.328735       -1.427678       -5.987848
 C        -1.203613       -2.030658       -5.084078
 H        -2.177834       -1.591823       -4.900972
 C        -0.850044       -3.188689       -4.384830
 H        -1.560318       -3.659285       -3.721016
 C         0.429092       -3.744233       -4.568600
 H         0.708855       -4.634989       -4.020069
 C         1.324677       -3.141255       -5.450670
 H         2.319611       -3.538566       -5.529142
 C         4.068016       -2.472447       -7.473604
 H         3.751892       -3.446700       -7.158186
 C         5.332443       -2.331565       -8.057968
 H         6.019569       -3.156545       -8.050108
 C         5.697906       -1.107001       -8.627773
 H         6.668510       -1.004411       -9.097668
 C         4.805504       -0.045674       -8.605635
 H         5.089981        0.891229       -9.056721
 C         2.633652        2.096997       -7.888067
 C         2.992485        2.704576       -6.682461
 H         3.104446        2.103492       -5.794170
 C         3.216873        4.083961       -6.633936
 H         3.481354        4.550269       -5.697666
 C         3.076035        4.860429       -7.784918
 H         3.258034        5.922664       -7.751244
 C         2.703903        4.257520       -8.991659
 H         2.591934        4.858603       -9.879946
 C         2.485909        2.873469       -9.046280
 H         2.201721        2.416493       -9.977577
 C        -2.053177       -2.866426      -10.036901
 C        -3.190262       -2.422883       -9.421993
 N        -0.983818       -2.097547       -9.536798
 C        -1.425476       -1.159268       -8.604074
 N        -2.805275       -1.355945       -8.573046
 C        -3.538773       -0.428712       -7.790337
 C        -2.782814        0.227221       -6.811565
 C        -3.446159        0.955232       -5.819361
 H        -2.885757        1.361575       -4.985741
 C        -4.838303        1.080371       -5.818029
 H        -5.327736        1.632461       -5.033205
 C        -5.587791        0.477500       -6.830606
 H        -6.660782        0.566014       -6.843510
 C        -4.941483       -0.277041       -7.820375
 H        -5.507927       -0.656358       -8.648233
 C        -4.410362       -3.091756       -9.681530
 H        -5.302704       -2.845504       -9.134268
 C        -4.453262       -4.178132      -10.566597
 H        -5.381699       -4.685125      -10.758871
 C        -3.286354       -4.604481      -11.196144
 H        -3.299759       -5.463408      -11.860573
 C        -2.082932       -3.939784      -10.934517
 H        -1.177544       -4.313579      -11.383661
 C         0.393219       -2.454362       -9.786322
 C         0.878426       -3.665771       -9.281767
 H         0.311142       -4.205354       -8.533251
 C         2.099937       -4.170722       -9.728445
 H         2.474373       -5.105468       -9.325520
 C         2.855171       -3.467999      -10.670095
 H         3.808441       -3.855256      -11.012894
 C         2.385864       -2.246810      -11.162184
 H         2.975983       -1.681140      -11.877213
 C         1.164345       -1.741860      -10.715506
 H         0.818886       -0.775420      -11.063154
 C        -0.978928        3.909636       -9.555288
 C        -0.714104        4.331998       -8.273815
 N        -1.176407        2.527066       -9.491266
 C        -1.043274        2.039010       -8.208544
 N        -0.776939        3.173511       -7.453712
 C        -0.608742        2.964044       -6.052416
 C        -0.322052        1.640908       -5.690165
 C         0.049248        1.368779       -4.372063
 H         0.255737        0.359113       -4.071503
 C         0.123230        2.388583       -3.419899
 H         0.412315        2.153531       -2.396530
 C        -0.199692        3.699191       -3.761404
 H        -0.189835        4.484132       -3.024469
 C        -0.570633        3.993678       -5.079840
 H        -0.968857        4.967252       -5.308048
 C        -0.384872        5.685344       -8.062719
 H        -0.100952        6.044545       -7.089701
 C        -0.311394        6.575793       -9.141748
 H        -0.029083        7.611493       -8.982635
 C        -0.577072        6.126409      -10.436224
 H        -0.459763        6.791596      -11.280655
 C        -0.915726        4.791242      -10.638330
 H        -1.136963        4.452912      -11.643515
 C        -1.651978        1.757119      -10.613150
 C        -3.007263        1.433181      -10.688433
 H        -3.691086        1.768853       -9.925474
 C        -3.471390        0.663726      -11.765940
 H        -4.521263        0.402411      -11.814718
 C        -2.589653        0.236390      -12.759178
 H        -2.952972       -0.338737      -13.601160
 C        -1.227463        0.560328      -12.676662
 H        -0.538223        0.185548      -13.417147
 C        -0.766861        1.338628      -11.609610
 H         0.276611        1.604609      -11.554733
 Ir       -0.708588        0.227785        7.435331
 C         3.260727       -0.430248        5.693960
 C         2.868057        0.794127        5.197859
 N         2.243179       -0.875262        6.540344
 C         1.197006        0.041875        6.626251
 N         1.600647        1.073819        5.785080
 C         0.706131        2.191886        5.712471
 C        -0.567780        1.969934        6.250601
 C        -1.554176        2.953868        6.085976
 H        -2.572456        2.755218        6.366411
 C        -1.274406        4.174258        5.445910
 H        -2.042923        4.913993        5.336023
 C         0.007912        4.410216        4.955036
 H         0.267311        5.370463        4.541710
 C         0.996170        3.421117        5.076416
 H         1.986038        3.650476        4.726347
 C         3.725319        1.482844        4.324717
 H         3.396027        2.365743        3.795797
 C         4.987183        0.952352        4.005392
 H         5.667053        1.518022        3.384424
 C         5.373604       -0.285045        4.521284
 H         6.339607       -0.697839        4.276899
 C         4.501526       -0.983102        5.353270
 H         4.783142       -1.962063        5.692717
 C         2.311844       -2.135959        7.248814
 C         2.326447       -2.141762        8.644613
 H         2.152061       -1.222689        9.184147
 C         2.432556       -3.340557        9.344995
 H         2.467339       -3.342450       10.431314
 C         2.500626       -4.555407        8.658113
 H         2.526016       -5.486924        9.200548
 C         2.485512       -4.554271        7.248983
 H         2.539612       -5.493724        6.713625
 C         2.389679       -3.346634        6.552610
 H         2.405090       -3.349902        5.473700
 C        -0.003265        2.504533       11.102201
 C        -1.369377        2.474894       10.954319
 N         0.550919        1.883632        9.979189
 C        -0.438644        1.460855        9.085077
 N        -1.619720        1.864848        9.700495
 C        -2.817856        1.635680        8.963907
 C        -2.702469        0.652463        7.969288
 C        -3.858162        0.257966        7.288958
 H        -3.814003       -0.576353        6.597244
 C        -5.087906        0.880576        7.522354
 H        -5.964493        0.564189        6.976553
 C        -5.181015        1.894004        8.468082
 H        -6.105576        2.456151        8.576166
 C        -4.050629        2.271802        9.200190
 H        -4.115494        3.106121        9.870192
 C        -2.181519        2.964626       12.005552
 H        -3.252327        2.837938       11.962927
 C        -1.605629        3.491857       13.156109
 H        -2.237755        3.836371       13.966490
 C        -0.213074        3.529843       13.292570
 H         0.255325        3.902787       14.186340
 C         0.582901        3.040606       12.256773
 H         1.664223        3.083037       12.358471
 C         1.966705        1.604206        9.858538
 C         2.676147        2.072560        8.753260
 H         2.218735        2.767280        8.070150
 C         4.007828        1.686027        8.560827
 H         4.548782        2.008485        7.685389
 C         4.644226        0.853492        9.487804
 H         5.664009        0.525943        9.316505
 C         3.943054        0.416832       10.626659
 H         4.432671       -0.219666       11.348143
 C         2.610870        0.798696       10.805750
 H         2.090988        0.498593       11.702549
 C        -1.008774       -3.637807        9.421686
 C        -1.083298       -3.938827        8.083055
 N        -0.985329       -2.236296        9.537529
 C        -1.018318       -1.623939        8.297478
 N        -1.084450       -2.692134        7.406921
 C        -1.066231       -2.333317        6.021275
 C        -1.294823       -0.964484        5.783264
 C        -1.526520       -0.528996        4.470190
 H        -1.775482        0.496649        4.293077
 C        -1.462059       -1.418617        3.399757
 H        -1.635330       -1.064426        2.390291
 C        -1.173660       -2.770748        3.622168
 H        -1.071365       -3.451541        2.792074
 C        -0.972290       -3.228098        4.936544
 H        -0.590408       -4.225014        5.083582
 C        -1.104919       -5.295401        7.689051
 H        -1.272522       -5.572318        6.660347
 C        -1.017776       -6.315578        8.642488
 H        -0.961487       -7.345667        8.326178
 C        -0.935486       -5.987533       10.001354
 H        -0.864212       -6.760096       10.748795
 C        -0.927528       -4.648648       10.394569
 H        -0.839798       -4.401447       11.444185
 C        -1.180603       -1.565291       10.801859
 C        -2.459122       -1.172117       11.192356
 H        -3.279816       -1.219028       10.482670
 C        -2.683342       -0.665952       12.470490
 H        -3.675934       -0.376962       12.781696
 C        -1.618263       -0.539451       13.375471
 H        -1.797203       -0.185863       14.375446
 C        -0.326080       -0.914938       12.985764
 H         0.501221       -0.832652       13.675323
 C        -0.105736       -1.434617       11.697514
 H         0.887360       -1.718938       11.399647
