206
 generated by VMD
 Ir       89.071777      -42.388329       83.604607
 C        93.370209      -42.477657       83.447083
 C        93.114670      -41.740192       82.318924
 N        92.249863      -43.030663       83.924561
 C        91.147850      -42.536903       83.259003
 N        91.693176      -41.675713       82.259628
 C        90.840149      -40.618725       81.909485
 C        89.496689      -40.726562       82.399376
 C        88.596466      -39.704369       82.110573
 H        87.537971      -39.881935       82.545380
 C        88.985023      -38.585941       81.361481
 H        88.306992      -37.758713       81.230835
 C        90.314987      -38.416382       80.945129
 H        90.586929      -37.498711       80.442406
 C        91.215233      -39.488697       81.146828
 H        92.224045      -39.455284       80.719177
 C        94.173859      -41.224892       81.538223
 H        93.924545      -40.447235       80.828926
 C        95.461433      -41.581810       81.944855
 H        96.300560      -41.286049       81.320282
 C        95.699631      -42.289040       83.086609
 H        96.755936      -42.457764       83.470993
 C        94.672562      -42.752010       83.872787
 H        94.828278      -43.225883       84.838913
 C        92.182587      -44.371262       84.511131
 C        91.736351      -45.416527       83.750946
 H        91.743019      -45.253193       82.645554
 C        91.713493      -46.745811       84.133553
 H        91.231552      -47.559380       83.614273
 C        92.083374      -46.976109       85.441734
 H        92.093063      -48.008934       85.831711
 C        92.505875      -45.941196       86.275620
 H        92.653748      -46.119720       87.295647
 C        92.545143      -44.621307       85.831825
 H        93.117493      -43.870285       86.473221
 C        88.852600      -39.332054       86.685913
 C        87.509514      -39.596901       86.392517
 N        89.658829      -40.186218       85.921707
 C        88.870529      -41.067589       85.235870
 N        87.528900      -40.686352       85.515518
 C        86.550133      -41.385315       84.806183
 C        86.990829      -42.006546       83.667915
 C        86.068756      -42.756882       82.806763
 H        86.250145      -43.124596       81.788879
 C        84.748642      -42.883362       83.264923
 H        84.043694      -43.473930       82.671227
 C        84.243942      -42.244736       84.393166
 H        83.329514      -42.581505       84.828934
 C        85.165497      -41.530579       85.164925
 H        84.767868      -40.834373       85.919106
 C        86.468620      -38.671494       86.684006
 H        85.453621      -38.809441       86.431335
 C        86.736404      -37.470757       87.297287
 H        85.973999      -36.748878       87.462585
 C        88.041512      -37.298561       87.821922
 H        88.260925      -36.556648       88.665924
 C        89.081978      -38.131035       87.485001
 H        90.053146      -37.709755       87.551659
 C        91.098480      -39.936020       85.752869
 C        91.970749      -40.749569       86.402634
 H        91.666389      -41.669586       86.898666
 C        93.366776      -40.452698       86.353867
 H        94.127090      -41.033035       86.746567
 C        93.759018      -39.245613       85.794846
 H        94.773300      -38.964760       86.000877
 C        92.826599      -38.383186       85.195015
 H        93.007965      -37.661179       84.482269
 C        91.522751      -38.769814       85.068146
 H        90.822845      -38.216537       84.452248
 C        88.341415      -46.061066       85.693695
 C        88.248978      -46.465378       84.385681
 N        88.562378      -44.700851       85.715805
 C        88.556404      -44.216896       84.469543
 N        88.314171      -45.255264       83.615891
 C        88.481361      -45.023720       82.232513
 C        88.932762      -43.730202       81.924561
 C        89.513557      -43.523926       80.639633
 H        89.431091      -42.580574       80.289650
 C        89.669464      -44.577339       79.731613
 H        90.124237      -44.356560       78.827484
 C        89.057800      -45.845451       79.969803
 H        88.843674      -46.468750       79.148247
 C        88.524338      -46.059875       81.237610
 H        87.957458      -46.972298       81.447937
 C        87.944290      -47.822559       84.095459
 H        87.702866      -48.128830       83.070808
 C        87.701103      -48.726547       85.156288
 H        87.499222      -49.742813       85.040733
 C        87.814598      -48.278053       86.466431
 H        87.539322      -48.911552       87.303871
 C        88.126343      -46.937164       86.743065
 H        88.200943      -46.517117       87.713684
 C        88.429367      -43.967777       86.939041
 C        87.167709      -43.470276       87.209213
 H        86.316261      -43.795876       86.604218
 C        87.037155      -42.484249       88.137650
 H        86.097374      -42.043640       88.378662
 C        88.069626      -42.075661       88.987694
 H        87.889694      -41.706841       89.968201
 C        89.348236      -42.632393       88.745872
 H        90.112755      -42.327782       89.330780
 C        89.500908      -43.566231       87.736893
 H        90.347672      -44.154305       87.624344
 Ir       89.071777      -42.388329       95.421112
 C        91.299728      -44.689308       92.406265
 C        90.032928      -44.589485       91.869766
 N        91.177460      -44.149124       93.675064
 C        90.008682      -43.533020       93.947044
 N        89.254990      -43.822174       92.841225
 C        87.802170      -43.436661       92.910599
 C        87.527573      -42.700272       94.056122
 C        86.193665      -42.270294       94.281326
 H        85.888702      -41.613441       95.123611
 C        85.235825      -42.559307       93.311981
 H        84.260735      -42.173378       93.533920
 C        85.561462      -43.229416       92.165070
 H        84.847900      -43.560955       91.447571
 C        86.828201      -43.730366       91.916397
 H        86.993149      -44.339722       91.003120
 C        89.689896      -45.221485       90.719109
 H        88.717262      -45.285149       90.384666
 C        90.743111      -45.900978       90.087509
 H        90.441879      -46.380402       89.114258
 C        92.035248      -45.982155       90.644287
 H        92.783211      -46.527985       90.068863
 C        92.298264      -45.330269       91.891388
 H        93.351837      -45.307343       92.176971
 C        92.089157      -44.560997       94.710182
 C        92.016541      -45.848167       95.274040
 H        91.055359      -46.269310       95.293396
 C        93.041321      -46.298565       96.178665
 H        93.116997      -47.311508       96.630692
 C        94.061104      -45.425766       96.538872
 H        94.741714      -45.756729       97.334503
 C        94.064804      -44.160690       95.987709
 H        94.651962      -43.391449       96.386719
 C        93.143204      -43.691650       95.085007
 H        93.328781      -42.808914       94.564484
 C        89.673370      -38.215736       94.093651
 C        88.672905      -38.178726       94.949165
 N        89.946167      -39.606476       93.768936
 C        89.093895      -40.435493       94.599335
 N        88.373505      -39.496552       95.291817
 C        87.469513      -40.019585       96.295120
 C        87.813705      -41.307991       96.709412
 C        86.986275      -41.925194       97.688866
 H        87.076263      -42.991989       97.896355
 C        85.847733      -41.272629       98.219986
 H        85.384544      -41.786407       99.088364
 C        85.466759      -40.004105       97.736763
 H        84.398376      -39.729885       97.911606
 C        86.278053      -39.391594       96.732460
 H        85.901215      -38.808224       95.961571
 C        88.322975      -37.002705       95.513359
 H        87.596634      -36.921505       96.311378
 C        88.983597      -35.784569       95.264908
 H        88.920624      -35.085747       96.131332
 C        90.029526      -35.823929       94.384354
 H        90.639648      -35.023075       94.183136
 C        90.389084      -37.043037       93.773781
 H        91.094315      -36.996376       92.973358
 C        90.776657      -40.019478       92.628044
 C        90.479950      -39.706604       91.325172
 H        89.606644      -39.044662       91.107056
 C        91.257240      -40.166004       90.263779
 H        90.880463      -40.070053       89.275131
 C        92.301407      -41.039207       90.640244
 H        92.756592      -41.585457       89.868668
 C        92.539749      -41.438103       91.957016
 H        93.192749      -42.333954       92.068588
 C        91.787994      -40.802101       92.952385
 H        91.962921      -40.960739       94.043640
 C        91.877594      -41.671795       98.739456
 C        91.284958      -42.882881       99.014870
 N        91.395775      -41.265854       97.523041
 C        90.516968      -42.235458       96.932724
 N        90.525681      -43.240662       97.885399
 C        89.740143      -44.421379       97.560089
 C        88.909348      -44.265366       96.432289
 C        88.072945      -45.268379       96.021927
 H        87.312149      -45.175735       95.234833
 C        88.102051      -46.538006       96.625084
 H        87.403946      -47.288605       96.278458
 C        88.945404      -46.770790       97.719002
 H        89.068573      -47.834816       98.198135
 C        89.725388      -45.730492       98.195145
 H        90.278046      -45.847435       99.101776
 C        91.479614      -43.414330      100.320648
 H        90.989914      -44.291542      100.727707
 C        92.213020      -42.688301      101.296761
 H        92.379242      -43.089962      102.351051
 C        92.818054      -41.460915      101.030334
 H        93.286072      -40.937454      101.883011
 C        92.696594      -40.932919       99.730011
 H        93.376099      -40.267246       99.300079
 C        91.568909      -39.926220       97.036926
 C        92.679398      -39.695778       96.212372
 H        93.418350      -40.442085       96.034721
 C        93.136261      -38.412605       95.971222
 H        94.109421      -38.211842       95.523033
 C        92.514084      -37.286568       96.600838
 H        92.688248      -36.247528       96.424316
 C        91.438255      -37.527370       97.485321
 H        91.000160      -36.638554       98.024185
 C        90.945389      -38.808331       97.660904
 H        90.110077      -38.986580       98.345291
