206
 generated by VMD
 Ir       13.052248     -113.466774       18.889576
 C        16.105871     -114.141388       21.923512
 C        15.925316     -112.776817       21.907991
 N        15.341106     -114.675476       20.872473
 C        14.665789     -113.674019       20.182297
 N        15.055592     -112.506042       20.821182
 C        14.474201     -111.318298       20.320417
 C        13.253969     -111.508865       19.649431
 C        12.479692     -110.375290       19.342989
 H        11.496331     -110.499985       18.911076
 C        12.932763     -109.088402       19.622906
 H        12.304392     -108.235672       19.401531
 C        14.176243     -108.899010       20.230185
 H        14.531311     -107.899231       20.440350
 C        14.951426     -110.009445       20.582058
 H        15.960789     -109.868263       20.936821
 C        16.514597     -111.996796       22.918747
 H        16.354319     -110.931122       22.953770
 C        17.256773     -112.599396       23.930552
 H        17.688112     -111.983704       24.715574
 C        17.437248     -113.986336       23.946453
 H        17.977016     -114.466537       24.750296
 C        16.857767     -114.766350       22.937704
 H        16.951994     -115.839500       22.976036
 C        15.508989     -116.034874       20.401360
 C        16.229641     -116.267654       19.224426
 H        16.755136     -115.463493       18.751589
 C        16.269569     -117.560760       18.680290
 H        16.741661     -117.708473       17.720337
 C        15.620045     -118.616768       19.310266
 H        15.647501     -119.608261       18.876930
 C        14.917175     -118.388298       20.500046
 H        14.373898     -119.188148       20.960039
 C        14.867451     -117.095200       21.042177
 H        14.395359     -116.947487       22.002131
 C         9.690620     -114.304306       21.549200
 C         9.111480     -113.739738       20.439043
 N        11.083507     -114.245010       21.376701
 C        11.415920     -113.672157       20.151657
 N        10.183052     -113.350868       19.592274
 C        10.219707     -112.814491       18.266247
 C        11.446840     -112.964180       17.606974
 C        11.497431     -112.804718       16.212875
 H        12.429494     -112.950912       15.698595
 C        10.361885     -112.491241       15.477230
 H        10.409043     -112.424797       14.399101
 C         9.145649     -112.283508       16.133137
 H         8.249294     -112.030457       15.575359
 C         9.076408     -112.429626       17.518616
 H         8.185965     -112.100258       18.029034
 C         7.704129     -113.714264       20.333141
 H         7.212161     -113.356430       19.445377
 C         6.905310     -114.253372       21.343412
 H         5.829357     -114.219666       21.264109
 C         7.500427     -114.826584       22.475256
 H         6.888548     -115.235825       23.270384
 C         8.897980     -114.852051       22.579155
 H         9.351393     -115.285980       23.455811
 C        12.004969     -114.498138       22.460093
 C        12.679582     -113.425842       23.053965
 H        12.573088     -112.448730       22.626755
 C        13.479983     -113.633087       24.180244
 H        14.001619     -112.804352       24.623861
 C        13.615571     -114.912628       24.714655
 H        14.230286     -115.069641       25.601151
 C        12.961416     -115.993942       24.120565
 H        13.130266     -116.994583       24.492476
 C        12.149408     -115.791016       23.001120
 H        11.627772     -116.619751       22.557508
 C        13.163277     -117.404099       17.000736
 C        14.119102     -116.672066       16.320499
 N        12.547671     -116.527618       17.913813
 C        13.108910     -115.264610       17.864746
 N        14.096093     -115.374252       16.881716
 C        14.975863     -114.252029       16.772509
 C        14.486435     -113.081718       17.368347
 C        15.093332     -111.863770       17.046360
 H        14.644377     -110.939346       17.394611
 C        16.212721     -111.810265       16.215330
 H        16.651119     -110.854340       15.968512
 C        16.748343     -112.988434       15.693007
 H        17.645496     -112.956940       15.099943
 C        16.130819     -114.207161       15.967176
 H        16.627857     -115.112762       15.683218
 C        14.910172     -117.326523       15.348089
 H        15.588238     -116.771400       14.728277
 C        14.756121     -118.689896       15.103344
 H        15.350601     -119.174561       14.343349
 C        13.793139     -119.416840       15.818546
 H        13.658795     -120.470741       15.627132
 C        12.996756     -118.762764       16.767052
 H        12.253765     -119.319054       17.305109
 C        11.269241     -116.803497       18.524483
 C        10.102816     -116.362961       17.889835
 H        10.165751     -115.788193       16.983971
 C         8.856688     -116.576462       18.492311
 H         7.958722     -116.250862       17.992270
 C         8.774388     -117.203445       19.742119
 H         7.812822     -117.366714       20.201069
 C         9.948880     -117.625938       20.387230
 H         9.885279     -118.114807       21.346218
 C        11.186943     -117.430473       19.774290
 H        12.090179     -117.787842       20.248581
 Ir       13.052247     -113.466774       31.755301
 C        14.628822     -110.421059       34.425434
 C        14.916424     -109.938019       33.169983
 N        14.120327     -111.714630       34.266701
 C        13.994518     -112.045471       32.936501
 N        14.491066     -110.936127       32.256004
 C        14.332624     -110.950821       30.835909
 C        13.858795     -112.156868       30.308332
 C        13.838772     -112.323746       28.910135
 H        13.559029     -113.269363       28.481586
 C        14.247965     -111.297523       28.058008
 H        14.252405     -111.472290       26.989109
 C        14.681742     -110.082458       28.581787
 H        15.050591     -109.307678       27.926741
 C        14.704517     -109.897919       29.966536
 H        14.871338     -108.907982       30.348352
 C        15.510786     -108.653816       33.058838
 H        15.886587     -108.299866       32.120491
 C        15.765732     -107.892662       34.206940
 H        16.264460     -106.947746       34.114201
 C        15.446854     -108.402374       35.465595
 H        15.722755     -107.864746       36.361721
 C        14.864176     -109.659904       35.569534
 H        14.563993     -110.031509       36.537361
 C        14.263384     -112.690269       35.313148
 C        15.520741     -113.290771       35.503563
 H        16.250742     -113.234924       34.729755
 C        15.773138     -114.032257       36.664116
 H        16.749647     -114.448799       36.830307
 C        14.761843     -114.209328       37.615349
 H        14.949215     -114.803299       38.495171
 C        13.498152     -113.644913       37.406013
 H        12.683950     -113.867439       38.092491
 C        13.253820     -112.885384       36.255920
 H        12.259448     -112.486877       36.077263
 C         9.143001     -111.571579       31.405426
 C         9.021404     -112.750526       30.702932
 N        10.483683     -111.444511       31.787170
 C        11.232361     -112.541107       31.370920
 N        10.324615     -113.319214       30.669321
 C        10.877689     -114.420090       29.962009
 C        12.211612     -114.727997       30.277037
 C        12.873819     -115.713547       29.535233
 H        13.896208     -115.972420       29.776491
 C        12.230631     -116.382156       28.488638
 H        12.783150     -117.087677       27.883770
 C        10.905562     -116.087585       28.180222
 H        10.377319     -116.635429       27.419815
 C        10.224627     -115.111061       28.913788
 H         9.250662     -114.795685       28.585560
 C         7.750322     -113.138802       30.230497
 H         7.594355     -114.102852       29.795656
 C         6.635734     -112.312820       30.439682
 H         5.696441     -112.581078       29.991940
 C         6.776059     -111.124863       31.150415
 H         5.916579     -110.484001       31.310097
 C         8.033725     -110.745216       31.638519
 H         8.126123     -109.828255       32.184456
 C        11.049831     -110.157242       32.113049
 C        11.402634     -109.276901       31.087606
 H        11.307657     -109.589355       30.055590
 C        11.903746     -108.003349       31.382158
 H        12.189532     -107.347015       30.584375
 C        12.060044     -107.614456       32.712997
 H        12.472006     -106.641350       32.944405
 C        11.714365     -108.490082       33.753510
 H        11.882324     -108.200378       34.778038
 C        11.205263     -109.759323       33.448120
 H        10.979913     -110.456055       34.249855
 C        12.009754     -116.054871       35.053101
 C        13.334814     -116.314056       34.813023
 N        11.532866     -115.270645       33.991936
 C        12.550772     -114.958267       33.108143
 N        13.635397     -115.669426       33.593884
 C        14.795624     -115.656319       32.762802
 C        14.854059     -114.571266       31.878916
 C        16.073704     -114.295395       31.256218
 H        16.115753     -113.516693       30.502253
 C        17.208357     -115.064560       31.497553
 H        18.152449     -114.807549       31.024235
 C        17.137409     -116.177063       32.342842
 H        17.988455     -116.821884       32.473701
 C        15.918549     -116.484314       32.961693
 H        15.815697     -117.428101       33.464165
 C        14.099926     -117.007248       35.762646
 H        15.156191     -117.147224       35.638916
 C        13.507046     -117.427536       36.963627
 H        14.099375     -117.931259       37.710159
 C        12.152596     -117.168343       37.197693
 H        11.688698     -117.499939       38.117607
 C        11.398146     -116.484177       36.245842
 H        10.366198     -116.235565       36.450233
 C        10.154018     -115.362022       33.597179
 C         9.691909     -116.551193       33.012352
 H        10.390589     -117.344627       32.790504
 C         8.341205     -116.703384       32.729446
 H         7.970577     -117.634491       32.345959
 C         7.446430     -115.657761       33.011688
 H         6.396832     -115.782883       32.803627
 C         7.901418     -114.473289       33.581440
 H         7.218905     -113.653580       33.774170
 C         9.261919     -114.321106       33.866356
 H         9.639782     -113.372726       34.214493
