206
 generated by VMD
  IR        18.129999       19.920000       30.809999
  C1        19.549999       22.700001       34.060001
  C2        20.059999       21.440001       34.330002
  N1        18.740000       22.450001       32.869999
  C3a       18.780001       21.150000       32.369999
  N2        19.690001       20.549999       33.250000
  C4        20.420000       19.459999       32.610001
  C5a       19.860001       18.930000       31.450001
  C6        20.530001       17.889999       30.799999
  H1        20.049999       17.340000       30.010000
  C7        21.780001       17.510000       31.250000
  H2        22.250000       16.709999       30.709999
  C8        22.389999       18.090000       32.349998
  H3        23.389999       17.820000       32.520000
  C9        21.740000       19.080000       33.080002
  H4        22.200001       19.620001       33.820000
  C10       20.930000       21.370001       35.500000
  H5        21.389999       20.430000       35.770000
  C11       21.219999       22.480000       36.250000
  H6        21.980000       22.379999       37.009998
  C12       20.690001       23.730000       35.880001
  H7        20.650000       24.549999       36.630001
  C13       19.920000       23.870001       34.750000
  H8        19.730000       24.850000       34.279999
  C6        17.709999       23.389999       32.459999
  C1        16.440001       23.219999       33.060001
  H1        16.430000       22.790001       34.029999
  C2        15.380000       23.980000       32.590000
  H2        14.390000       23.740000       32.820000
  C3        15.600000       24.920000       31.570000
  H3        14.800000       25.469999       31.139999
  C4        16.879999       25.139999       31.010000
  H4        17.100000       25.959999       30.360001
  C5        17.920000       24.340000       31.430000
  H5        18.840000       24.670000       31.139999
  C1        20.740000       21.490000       27.559999
  C2        19.790001       20.660000       26.959999
  N1        20.490000       21.430000       28.980000
  C3b       19.299999       20.700001       29.219999
  N2        18.910000       20.219999       27.969999
  C4        17.990000       19.190001       27.930000
  C5b       17.770000       18.629999       29.219999
  C6        16.910000       17.559999       29.309999
  H1        17.059999       16.930000       30.219999
  C7        16.209999       17.040001       28.219999
  H2        15.290000       16.510000       28.299999
  C8        16.389999       17.540001       26.920000
  H3        15.770000       17.139999       26.100000
  C9        17.240000       18.680000       26.730000
  H4        17.270000       19.190001       25.770000
  C10       19.840000       20.480000       25.549999
  H5        19.280001       19.670000       25.070000
  C11       20.900000       21.040001       24.790001
  H6        21.110001       20.660000       23.809999
  C12       21.870001       21.850000       25.379999
  H7        22.730000       22.020000       24.750000
  C13       21.760000       22.090000       26.780001
  H8        22.420000       22.760000       27.360001
  C6        21.540001       21.709999       29.870001
  C1        21.420000       22.709999       30.830000
  H1        20.610001       23.410000       30.879999
  C2        22.370001       22.850000       31.889999
  H2        22.430000       23.680000       32.610001
  C3        23.379999       21.879999       31.940001
  H3        24.040001       21.900000       32.790001
  C4        23.570000       20.990000       30.930000
  H4        24.480000       20.410000       30.959999
  C5        22.650000       20.870001       29.860001
  H5        22.870001       20.240000       29.010000
  C1        14.320000       22.010000       30.309999
  C2        14.060000       20.969999       31.209999
  N1        15.660000       21.809999       29.840000
  C3c       16.260000       20.709999       30.480000
  N2        15.240000       20.200001       31.340000
  C4        15.560000       19.080000       32.119999
  C5c       16.950001       18.959999       32.320000
  C6        17.379999       17.900000       33.119999
  H1        18.430000       17.760000       33.290001
  C7        16.510000       17.020000       33.750000
  H2        16.900000       16.250000       34.340000
  C8        15.100000       17.180000       33.549999
  H3        14.340000       16.510000       33.910000
  C9        14.620000       18.219999       32.689999
  H4        13.640000       18.049999       32.180000
  C10       12.770000       20.900000       31.730000
  H5        12.600000       20.340000       32.639999
  C11       11.820000       21.820000       31.370001
  H6        10.900000       21.790001       31.969999
  C12       12.100000       22.799999       30.450001
  H7        11.420000       23.639999       30.110001
  C13       13.390000       22.940001       29.920000
  H8        13.680000       23.940001       29.660000
  C6        16.040001       22.290001       28.540001
  C1        15.280000       21.790001       27.520000
  H1        14.490000       21.090000       27.700001
  C2        15.680000       21.969999       26.200001
  H2        15.030000       21.510000       25.410000
  C3        16.770000       22.750000       25.900000
  H3        16.990000       22.870001       24.910000
  C4        17.570000       23.270000       26.930000
  H4        18.530001       23.700001       26.650000
  C5        17.219999       23.080000       28.280001
  H5        17.940001       23.110001       29.090000
  IR        15.890000       21.020000       17.990000
  C1        17.450001       25.090000       18.650000
  C2        17.830000       24.350000       19.670000
  N1        16.660000       24.190001       17.860001
  C3a       16.620001       22.940001       18.360001
  N2        17.280001       23.090000       19.500000
  C4        17.350000       21.950001       20.379999
  C5a       16.940001       20.750000       19.830000
  C6        17.070000       19.570000       20.590000
  H1        16.990000       18.600000       20.129999
  C7        17.459999       19.540001       21.910000
  H2        17.629999       18.570000       22.299999
  C8        17.760000       20.780001       22.490000
  H3        18.170000       20.860001       23.530001
  C9        17.709999       21.969999       21.719999
  H4        17.700001       22.910000       22.260000
  C10       18.780001       24.920000       20.580000
  H5        19.000000       24.469999       21.469999
  C11       19.379999       26.190001       20.330000
  H6        19.959999       26.600000       21.090000
  C12       18.990000       26.879999       19.209999
  H7        19.549999       27.760000       18.969999
  C13       17.980000       26.370001       18.400000
  H8        17.559999       26.930000       17.639999
  C6        15.840000       24.680000       16.850000
  C1        16.260000       24.459999       15.500000
  H1        17.110001       23.889999       15.270000
  C2        15.630000       25.200001       14.470000
  H2        16.030001       24.990000       13.490000
  C3        14.580000       26.110001       14.810000
  H3        14.300000       26.719999       13.970000
  C4        14.140000       26.260000       16.150000
  H4        13.540000       27.110001       16.440001
  C5        14.710000       25.500000       17.129999
  H5        14.320000       25.549999       18.160000
  C1        18.990000       19.639999       15.410000
  C2        18.020000       18.639999       15.350000
  N1        18.590000       20.469999       16.389999
  C3b       17.420000       20.090000       17.020000
  N2        17.100000       18.930000       16.420000
  C4        16.010000       18.240000       16.980000
  C5b       15.160000       19.030001       17.820000
  C6        14.150000       18.440001       18.559999
  H1        13.480000       19.170000       19.020000
  C7        13.980000       17.040001       18.450001
  H2        13.250000       16.559999       19.129999
  C8        14.730000       16.219999       17.600000
  H3        14.420000       15.220000       17.389999
  C9        15.760000       16.809999       16.900000
  H4        16.370001       16.170000       16.290001
  C10       18.260000       17.610001       14.420000
  H5        17.680000       16.700001       14.350000
  C11       19.420000       17.610001       13.590000
  H6        19.530001       16.990000       12.760000
  C12       20.320000       18.629999       13.700000
  H7        21.200001       18.709999       13.070000
  C13       20.080000       19.670000       14.600000
  H8        20.790001       20.510000       14.590000
  C6        19.590000       21.309999       17.070000
  C1        19.879999       22.540001       16.600000
  H1        19.889999       22.660000       15.470000
  C2        20.590000       23.420000       17.459999
  H2        21.139999       24.110001       16.870001
  C3        20.959999       23.030001       18.730000
  H3        21.290001       23.820000       19.450001
  C4        20.639999       21.809999       19.290001
  H4        21.309999       21.639999       20.160000
  C5        19.930000       20.920000       18.440001
  H5        19.430000       20.049999       18.830000
  C1        13.510000       22.240000       14.530000
  C2        12.840000       22.709999       15.650000
  N1        14.560000       21.400000       15.040000
  C3c       14.600000       21.430000       16.440001
  N2        13.470000       22.200001       16.799999
  C4        13.200000       22.240000       18.209999
  C5c       14.150000       21.620001       19.059999
  C6        13.870000       21.299999       20.389999
  H1        14.580000       20.610001       20.930000
  C7        12.630000       21.719999       20.860001
  H2        12.370000       21.219999       21.719999
  C8        11.700000       22.350000       20.030001
  H3        10.730000       22.690001       20.320000
  C9        11.950000       22.600000       18.680000
  H4        11.100000       22.870001       18.080000
  C10       11.770000       23.600000       15.490000
  H5        11.370000       24.209999       16.290001
  C11       11.360000       24.020000       14.240000
  H6        10.490000       24.650000       14.240000
  C12       12.050000       23.559999       13.160000
  H7        11.900000       23.840000       12.130000
  C13       13.140000       22.620001       13.230000
  H8        13.200000       21.930000       12.440000
  C6        15.170000       20.290001       14.260000
  C1        14.580000       19.040001       14.270000
  H1        14.080000       18.860001       15.220000
  C2        14.920000       18.120001       13.320000
  H2        14.350000       17.180000       13.370000
  C3        15.820000       18.389999       12.320000
  H3        16.280001       17.670000       11.640000
  C4        16.389999       19.670000       12.290000
  H4        17.040001       19.900000       11.420000
  C5        16.110001       20.620001       13.270000
  H5        16.719999       21.500000       13.470000
