206
 generated by VMD
 Ir       80.597069      -87.498627      -24.994942
 C        78.182785      -85.078270      -27.648954
 C        77.552567      -86.302048      -27.619022
 N        79.431694      -85.227119      -27.006573
 C        79.575424      -86.510895      -26.497976
 N        78.437775      -87.173248      -26.940186
 C        78.396729      -88.565979      -26.665014
 C        79.168610      -88.951569      -25.556366
 C        78.988022      -90.237206      -25.036934
 H        79.489304      -90.512596      -24.118090
 C        78.107666      -91.146851      -25.628651
 H        78.007713      -92.141052      -25.220406
 C        77.387711      -90.780739      -26.764185
 H        76.764214      -91.499664      -27.276815
 C        77.537483      -89.485199      -27.290823
 H        77.079750      -89.249290      -28.241997
 C        76.256859      -86.414635      -28.128891
 H        75.722687      -87.358017      -28.083096
 C        75.599869      -85.303452      -28.663429
 H        74.599243      -85.405426      -29.060976
 C        76.252304      -84.069565      -28.691244
 H        75.747620      -83.198578      -29.110847
 C        77.548004      -83.956978      -28.181374
 H        78.030243      -82.994125      -28.200285
 C        80.551483      -84.368233      -27.314133
 C        81.614487      -84.875847      -28.061760
 H        81.573944      -85.882675      -28.452080
 C        82.739044      -84.077370      -28.320051
 H        83.569000      -84.477890      -28.881342
 C        82.795326      -82.771385      -27.822212
 H        83.682877      -82.175079      -27.982740
 C        81.732315      -82.263779      -27.074587
 H        81.793152      -81.267052      -26.660053
 C        80.607712      -83.052254      -26.816208
 H        79.774521      -82.651619      -26.268681
 C        78.313278      -86.241592      -21.535833
 C        79.366547      -86.960312      -21.033365
 N        78.311768      -86.409225      -22.938686
 C        79.401962      -87.169838      -23.331417
 N        80.004593      -87.557091      -22.139414
 C        80.927948      -88.621002      -22.262768
 C        81.468491      -88.776665      -23.553223
 C        82.352180      -89.839859      -23.783478
 H        82.800575      -89.968842      -24.754248
 C        82.668671      -90.757080      -22.775188
 H        83.307411      -91.601730      -22.989803
 C        82.102676      -90.611420      -21.500618
 H        82.335464      -91.317093      -20.718042
 C        81.239166      -89.538330      -21.245979
 H        80.768768      -89.459450      -20.277676
 C        79.626266      -86.921112      -19.648586
 H        80.484070      -87.430161      -19.229343
 C        78.812546      -86.173111      -18.790667
 H        79.011780      -86.161415      -17.726025
 C        77.738983      -85.444290      -19.317348
 H        77.102371      -84.863457      -18.669386
 C        77.487762      -85.483475      -20.696857
 H        76.677299      -84.894348      -21.097567
 C        77.077057      -86.409439      -23.679964
 C        76.424576      -87.621140      -23.898947
 H        76.844528      -88.542130      -23.532444
 C        75.208191      -87.641655      -24.593836
 H        74.718613      -88.582642      -24.790951
 C        74.642197      -86.440674      -25.047386
 H        73.703049      -86.451096      -25.582182
 C        75.297913      -85.229088      -24.814638
 H        74.864197      -84.308197      -25.177910
 C        76.519562      -85.208466      -24.128250
 H        77.024940      -84.267159      -23.956638
 C        83.630501      -84.405914      -24.536880
 C        84.203339      -85.305168      -25.404697
 N        82.433441      -84.986481      -24.085569
 C        82.190895      -86.212776      -24.662518
 N        83.316597      -86.409470      -25.473381
 C        83.267731      -87.572449      -26.306023
 C        81.979858      -88.097931      -26.486706
 C        81.784935      -89.050087      -27.501352
 H        80.801735      -89.463905      -27.680166
 C        82.843170      -89.497284      -28.298248
 H        82.671173      -90.211319      -29.084034
 C        84.132416      -89.002121      -28.081799
 H        84.969391      -89.352341      -28.673410
 C        84.346313      -88.039749      -27.078798
 H        85.343063      -87.736343      -26.845892
 C        85.421242      -84.973038      -26.022593
 H        85.880920      -85.624168      -26.745720
 C        86.033516      -83.741959      -25.757696
 H        86.970436      -83.492523      -26.244789
 C        85.433098      -82.832916      -24.883316
 H        85.900352      -81.882034      -24.688145
 C        84.220451      -83.164948      -24.273926
 H        83.717445      -82.432983      -23.670757
 C        81.699402      -84.460434      -22.957493
 C        82.193268      -84.659142      -21.665867
 H        83.067520      -85.275681      -21.520069
 C        81.538315      -84.082367      -20.570526
 H        81.919479      -84.239113      -19.571701
 C        80.389496      -83.306877      -20.766815
 H        79.865860      -82.887177      -19.921440
 C        79.887177      -83.118156      -22.063797
 H        79.009689      -82.501511      -22.223362
 C        80.536865      -83.695038      -23.150637
 H        80.106339      -83.618607      -24.145725
 Ir       80.597076      -87.498634      -12.537264
 C        84.462738      -86.965134      -10.536242
 C        83.539413      -86.989151       -9.520370
 N        83.751556      -87.088364      -11.742905
 C        82.385628      -87.207718      -11.531718
 N        82.262520      -87.130699      -10.136577
 C        80.932785      -87.072342       -9.641995
 C        79.971283      -86.818817      -10.634436
 C        78.691040      -86.399124      -10.257722
 H        77.973045      -86.116333      -11.016620
 C        78.338562      -86.282944       -8.910072
 H        77.368744      -85.910660       -8.635736
 C        79.272911      -86.606674       -7.911779
 H        79.007431      -86.537262       -6.875488
 C        80.561554      -87.006363       -8.283054
 H        81.221893      -87.409454       -7.526043
 C        83.982773      -86.838501       -8.185179
 H        83.288162      -86.769516       -7.367644
 C        85.348412      -86.693527       -7.902154
 H        85.681755      -86.620697       -6.883098
 C        86.279091      -86.679199       -8.948882
 H        87.323273      -86.535355       -8.735591
 C        85.833588      -86.810043      -10.261631
 H        86.558411      -86.778931      -11.070986
 C        84.399063      -87.033417      -13.035116
 C        84.485001      -88.196075      -13.819541
 H        84.004791      -89.101746      -13.481058
 C        85.165848      -88.171646      -15.032656
 H        85.234085      -89.065987      -15.636556
 C        85.771286      -86.984329      -15.478350
 H        86.297455      -86.973114      -16.422762
 C        85.682106      -85.821564      -14.707691
 H        86.131493      -84.906006      -15.053381
 C        84.995995      -85.846100      -13.486074
 H        84.924530      -84.951660      -12.895942
 C        79.478409      -91.241905      -10.617339
 C        78.300194      -90.704323      -11.070018
 N        80.528870      -90.431870      -11.097839
 C        80.036652      -89.377777      -11.860397
 N        78.655533      -89.595238      -11.871563
 C        77.937225      -88.800919      -12.800861
 C        78.614952      -87.653198      -13.249313
 C        78.003494      -86.847939      -14.218172
 H        78.492203      -85.942276      -14.551388
 C        76.762901      -87.189789      -14.779045
 H        76.336655      -86.575256      -15.553162
 C        76.114853      -88.357101      -14.359508
 H        75.198799      -88.667915      -14.836617
 C        76.688194      -89.152771      -13.367090
 H        76.195099      -90.068024      -13.083764
 C        77.080597      -91.234993      -10.620295
 H        76.138870      -90.787613      -10.904056
 C        77.068924      -92.332825       -9.746899
 H        76.129105      -92.711327       -9.369050
 C        78.271545      -92.890091       -9.314633
 H        78.273605      -93.745972       -8.653291
 C        79.477333      -92.349533       -9.761036
 H        80.406540      -92.807327       -9.438090
 C        81.875580      -90.538956      -10.594349
 C        82.122864      -90.369659       -9.227459
 H        81.311058      -90.109962       -8.562534
 C        83.425148      -90.496956       -8.728208
 H        83.606613      -90.345276       -7.672861
 C        84.488602      -90.783539       -9.590495
 H        85.490265      -90.871567       -9.194628
 C        84.241264      -90.942841      -10.957299
 H        85.071716      -91.132339      -11.633340
 C        82.939041      -90.825539      -11.456638
 H        82.771011      -90.917130      -12.514692
 C        82.027618      -88.405373      -16.555901
 C        82.173203      -87.045441      -16.449108
 N        81.397774      -88.869164      -15.387144
 C        81.185730      -87.828156      -14.494097
 N        81.672913      -86.699486      -15.166677
 C        81.632004      -85.476097      -14.435965
 C        80.835541      -85.530640      -13.283068
 C        80.514580      -84.328072      -12.631968
 H        79.823647      -84.339188      -11.801372
 C        81.025513      -83.111282      -13.077017
 H        80.836174      -82.207153      -12.524485
 C        81.867767      -83.066849      -14.189909
 H        82.289513      -82.131500      -14.528951
 C        82.182152      -84.249207      -14.868364
 H        82.962540      -84.238503      -15.596500
 C        82.786270      -86.332809      -17.495817
 H        82.807892      -85.252663      -17.492752
 C        83.282593      -87.000206      -18.619938
 H        83.738518      -86.440674      -19.412951
 C        83.157417      -88.390236      -18.702698
 H        83.573547      -88.920547      -19.545429
 C        82.515556      -89.092766      -17.685463
 H        82.419403      -90.162704      -17.758101
 C        80.582726      -90.053558      -15.400639
 C        79.266068      -89.966888      -15.838707
 H        78.909363      -89.054657      -16.307308
 C        78.410812      -91.062752      -15.711330
 H        77.373436      -90.965775      -16.011570
 C        78.867004      -92.255386      -15.137476
 H        78.193680      -93.080330      -14.999971
 C        80.202744      -92.351852      -14.711231
 H        80.572006      -93.263672      -14.281900
 C        81.054764      -91.255890      -14.852375
 H        82.101471      -91.352356      -14.605169
