206
 generated by VMD
  IR        30.770000       48.299999       30.950001
  C1        33.029999       49.090000       34.549999
  C2        33.860001       48.349998       33.759998
  N1        31.780001       49.200001       33.910000
  C3a       31.920000       48.619999       32.639999
  N2        33.230000       48.130001       32.560001
  C4        33.520000       47.330002       31.400000
  C5a       32.340000       46.869999       30.790001
  C6        32.380001       45.730000       29.959999
  H1        31.540001       45.020000       29.760000
  C7        33.639999       45.160000       29.620001
  H2        33.619999       44.279999       28.990000
  C8        34.799999       45.630001       30.180000
  H3        35.650002       45.200001       29.770000
  C9        34.759998       46.689999       31.100000
  H4        35.650002       47.230000       31.389999
  C10       35.209999       48.250000       34.150002
  H5        35.970001       47.750000       33.480000
  C11       35.720001       48.849998       35.340000
  H6        36.689999       48.709999       35.740002
  C12       34.849998       49.560001       36.099998
  H7        35.349998       50.230000       36.759998
  C13       33.500000       49.689999       35.669998
  H8        32.880001       50.230000       36.419998
  C6        30.799999       49.000000       34.790001
  C1        30.010000       50.049999       35.180000
  H1        30.200001       51.060001       34.849998
  C2        29.090000       49.849998       36.139999
  H2        28.480000       50.689999       36.470001
  C3        28.840000       48.610001       36.790001
  H3        28.219999       48.599998       37.660000
  C4        29.639999       47.520000       36.369999
  H4        29.400000       46.439999       36.610001
  C5        30.660000       47.720001       35.389999
  H5        31.420000       46.910000       35.180000
  C1        32.500000       51.290001       28.400000
  C2        31.510000       50.779999       27.670000
  N1        32.709999       50.500000       29.430000
  C3b       31.870001       49.380001       29.500000
  N2        31.209999       49.549999       28.350000
  C4        30.350000       48.500000       28.020000
  C5b       29.900000       47.790001       29.139999
  C6        28.840000       46.889999       28.980000
  H1        28.370001       46.459999       29.910000
  C7        28.209999       46.700001       27.780001
  H2        27.379999       45.990002       27.650000
  C8        28.620001       47.360001       26.620001
  H3        28.160000       47.419998       25.629999
  C9        29.690001       48.299999       26.780001
  H4        30.150000       48.889999       26.020000
  C10       30.990000       51.549999       26.610001
  H5        30.209999       51.189999       25.950001
  C11       31.469999       52.849998       26.350000
  H6        31.240000       53.389999       25.469999
  C12       32.529999       53.330002       27.070000
  H7        33.160000       54.209999       26.910000
  C13       33.049999       52.540001       28.150000
  H8        33.660000       52.990002       28.959999
  C6        34.000000       50.560001       30.170000
  C1        35.139999       49.880001       29.709999
  H1        35.060001       49.340000       28.799999
  C2        36.299999       49.900002       30.430000
  H2        37.169998       49.410000       30.120001
  C3        36.389999       50.630001       31.629999
  H3        37.340000       50.630001       32.150002
  C4        35.189999       51.290001       32.090000
  H4        35.139999       51.660000       33.020000
  C5        34.020000       51.290001       31.360001
  H5        33.200001       51.860001       31.790001
  C1        26.950001       50.480000       31.400000
  C2        26.750000       49.220001       31.889999
  N1        28.309999       50.529999       31.010000
  C3c       29.010000       49.349998       31.240000
  N2        28.010000       48.570000       31.879999
  C4        28.430000       47.369999       32.540001
  C5c       29.650000       46.900002       32.110001
  C6        30.150000       45.700001       32.700001
  H1        31.090000       45.250000       32.360001
  C7        29.450001       45.040001       33.740002
  H2        29.610001       43.970001       33.930000
  C8        28.250000       45.610001       34.180000
  H3        27.760000       45.119999       34.980000
  C9        27.719999       46.759998       33.590000
  H4        26.719999       46.980000       33.820000
  C10       25.379999       48.770000       32.000000
  H5        25.260000       47.740002       32.320000
  C11       24.309999       49.610001       31.639999
  H6        23.270000       49.250000       31.580000
  C12       24.570000       50.959999       31.200001
  H7        23.730000       51.599998       30.889999
  C13       25.900000       51.389999       31.070000
  H8        26.110001       52.410000       30.680000
  C6        29.030001       51.750000       30.700001
  C1        30.070000       52.040001       31.590000
  H1        30.389999       51.450001       32.430000
  C2        30.860001       53.150002       31.270000
  H2        31.580000       53.570000       32.020000
  C3        30.719999       53.840000       30.049999
  H3        31.370001       54.689999       29.959999
  C4        29.690001       53.549999       29.230000
  H4        29.580000       54.130001       28.340000
  C5        28.740000       52.490002       29.540001
  H5        27.690001       52.380001       29.219999
  IR        27.690001       41.180000       41.040001
  C1        28.590000       39.250000       44.810001
  C2        29.490000       38.650002       43.880001
  N1        27.809999       40.139999       44.150002
  C3a       28.280001       40.290001       42.820000
  N2        29.299999       39.340000       42.680000
  C4        29.980000       39.279999       41.410000
  C5a       29.459999       40.200001       40.439999
  C6        30.100000       40.279999       39.160000
  H1        29.870001       40.959999       38.410000
  C7        31.190001       39.400002       38.830002
  H2        31.520000       39.290001       37.860001
  C8        31.549999       38.459999       39.799999
  H3        32.189999       37.689999       39.540001
  C9        31.000000       38.400002       41.080002
  H4        31.549999       37.849998       41.779999
  C10       30.209999       37.599998       44.299999
  H5        30.900000       37.130001       43.599998
  C11       30.200001       37.160000       45.630001
  H6        30.990000       36.480000       45.980000
  C12       29.340000       37.759998       46.570000
  H7        29.410000       37.470001       47.610001
  C13       28.520000       38.840000       46.169998
  H8        28.059999       39.459999       46.950001
  C6        26.459999       40.410000       44.619999
  C1        25.450001       39.470001       44.459999
  H1        25.690001       38.540001       44.049999
  C2        24.240000       39.630001       45.090000
  H2        23.660000       38.779999       45.110001
  C3        24.010000       40.790001       45.860001
  H3        23.150000       40.790001       46.520000
  C4        24.940001       41.840000       46.049999
  H4        24.889999       42.520000       46.910000
  C5        26.160000       41.619999       45.349998
  H5        26.910000       42.369999       45.130001
  C1        30.090000       44.900002       41.209999
  C2        29.139999       45.060001       40.240002
  N1        29.940001       43.509998       41.610001
  C3b       28.840000       42.900002       40.990002
  N2        28.430000       43.790001       40.029999
  C4        27.660000       43.209999       38.910000
  C5b       27.459999       41.799999       39.049999
  C6        27.110001       41.040001       37.930000
  H1        26.889999       39.990002       38.000000
  C7        26.930000       41.599998       36.680000
  H2        26.969999       40.980000       35.750000
  C8        26.980000       43.000000       36.520000
  H3        26.780001       43.500000       35.599998
  C9        27.400000       43.779999       37.639999
  H4        27.000000       44.759998       37.619999
  C10       29.100000       46.220001       39.459999
  H5        28.469999       46.369999       38.570000
  C11       29.930000       47.330002       39.799999
  H6        29.840000       48.230000       39.160000
  C12       30.920000       47.230000       40.849998
  H7        31.360001       48.099998       41.240002
  C13       31.000000       45.970001       41.480000
  H8        31.889999       45.759998       42.070000
  C6        30.950001       42.790001       42.270000
  C1        30.850000       42.639999       43.700001
  H1        29.980000       42.980000       44.189999
  C2        31.760000       41.820000       44.320000
  H2        31.490000       41.509998       45.330002
  C3        32.790001       41.150002       43.560001
  H3        33.240002       40.270000       44.060001
  C4        32.939999       41.380001       42.169998
  H4        33.669998       40.910000       41.470001
  C5        32.000000       42.200001       41.570000
  H5        32.040001       42.310001       40.470001
  C1        23.760000       42.799999       42.080002
  C2        23.680000       41.410000       42.160000
  N1        25.040001       43.090000       41.630001
  C3c       25.750000       41.930000       41.349998
  N2        24.940001       40.910000       41.610001
  C4        25.309999       39.590000       41.070000
  C5c       26.639999       39.380001       40.689999
  C6        27.059999       38.110001       40.160000
  H1        28.090000       37.970001       39.779999
  C7        26.209999       36.990002       40.060001
  H2        26.590000       36.029999       39.730000
  C8        24.879999       37.189999       40.470001
  H3        24.170000       36.430000       40.380001
  C9        24.450001       38.470001       40.900002
  H4        23.410000       38.689999       41.099998
  C10       22.500000       40.830002       42.680000
  H5        22.639999       39.810001       42.980000
  C11       21.360001       41.630001       42.950001
  H6        20.500000       41.250000       43.439999
  C12       21.459999       43.040001       42.750000
  H7        20.559999       43.570000       42.840000
  C13       22.650000       43.660000       42.290001
  H8        22.830000       44.740002       42.130001
  C6        25.559999       44.389999       41.860001
  C1        26.150000       44.570000       43.110001
  H1        25.850000       44.049999       44.049999
  C2        26.930000       45.700001       43.410000
  H2        27.240000       45.980000       44.459999
  C3        27.040001       46.700001       42.450001
  H3        27.620001       47.540001       42.730000
  C4        26.530001       46.490002       41.180000
  H4        26.549999       47.180000       40.330002
  C5        25.750000       45.389999       40.910000
  H5        24.980000       45.590000       40.220001
