206
 generated by VMD
 Ir       84.720993        0.216833       -5.282001
 C        87.528656        0.060003       -8.595647
 C        87.641312        1.331549       -8.096471
 N        86.444901       -0.548877       -7.934328
 C        85.886612        0.296968       -6.996852
 N        86.609238        1.474002       -7.137611
 C        86.147049        2.582576       -6.371417
 C        85.279556        2.257042       -5.318760
 C        84.840843        3.274071       -4.467305
 H        84.156754        3.056275       -3.663762
 C        85.247223        4.599165       -4.658820
 H        84.859726        5.381652       -4.008778
 C        86.104919        4.924697       -5.713473
 H        86.436386        5.948017       -5.837761
 C        86.536629        3.925137       -6.580601
 H        87.055481        4.212813       -7.474767
 C        88.694145        2.143544       -8.555830
 H        88.879852        3.117604       -8.114672
 C        89.603943        1.670718       -9.515568
 H        90.407082        2.304504       -9.851260
 C        89.469742        0.372626      -10.009171
 H        90.160828       -0.011664      -10.746816
 C        88.426712       -0.439368       -9.547817
 H        88.362717       -1.460273       -9.885102
 C        85.757614       -1.680757       -8.518353
 C        84.909454       -1.471353       -9.615385
 H        84.692101       -0.468924       -9.951233
 C        84.324852       -2.569663      -10.252607
 H        83.706993       -2.417638      -11.127440
 C        84.570618       -3.873180       -9.805681
 H        84.085487       -4.716650      -10.279928
 C        85.417938       -4.073507       -8.704537
 H        85.572922       -5.073883       -8.312965
 C        86.000732       -2.979394       -8.058421
 H        86.618591       -3.131418       -7.183586
 C        87.759727       -0.606010       -2.263158
 C        86.631691       -0.290914       -1.534705
 N        87.442642       -0.398477       -3.612706
 C        86.140121        0.020521       -3.781451
 N        85.650955        0.102766       -2.481850
 C        84.287674        0.513190       -2.352205
 C        83.551147        0.468441       -3.546416
 C        82.159714        0.640037       -3.478966
 H        81.566360        0.572070       -4.373900
 C        81.512878        0.864091       -2.257001
 H        80.438538        1.023189       -2.243307
 C        82.253159        0.939584       -1.081252
 H        81.764931        1.149862       -0.137048
 C        83.639297        0.777749       -1.122686
 H        84.217773        1.032909       -0.254897
 C        86.652252       -0.472676       -0.132193
 H        85.767357       -0.324386        0.454644
 C        87.800102       -0.948551        0.495398
 H        87.796021       -1.104269        1.567889
 C        88.940727       -1.246177       -0.244735
 H        89.841827       -1.581612        0.241467
 C        88.917381       -1.081885       -1.633570
 H        89.780884       -1.377550       -2.215591
 C        88.467087       -0.336950       -4.634287
 C        89.298935        0.787675       -4.710071
 H        89.075958        1.665904       -4.116270
 C        90.418167        0.773668       -5.545612
 H        91.101204        1.606282       -5.542123
 C        90.701172       -0.352375       -6.334047
 H        91.580582       -0.380521       -6.944021
 C        89.843552       -1.468608       -6.282037
 H        90.057693       -2.333564       -6.882615
 C        88.731468       -1.449720       -5.431495
 H        88.044807       -2.290725       -5.417195
 C        83.303642       -3.885068       -5.538349
 C        82.654099       -3.240564       -6.558304
 N        84.021866       -2.927883       -4.805581
 C        83.871185       -1.673173       -5.368604
 N        82.984062       -1.860507       -6.424646
 C        82.458847       -0.666597       -7.002676
 C        83.073494        0.524032       -6.563128
 C        82.535950        1.754159       -6.980421
 H        83.006500        2.677360       -6.685144
 C        81.407013        1.812495       -7.801152
 H        80.979095        2.769449       -8.055173
 C        80.813766        0.626063       -8.245606
 H        79.942108        0.666155       -8.876397
 C        81.345978       -0.604749       -7.852209
 H        80.866699       -1.502772       -8.204842
 C        81.881104       -3.988113       -7.473150
 H        81.457458       -3.542024       -8.349584
 C        81.757690       -5.369720       -7.318133
 H        81.166519       -5.942070       -8.023352
 C        82.411591       -6.026813       -6.269499
 H        82.314148       -7.096201       -6.141778
 C        83.200661       -5.275752       -5.383451
 H        83.723740       -5.783237       -4.594435
 C        84.287361       -3.120090       -3.403095
 C        83.234802       -2.979007       -2.494023
 H        82.235847       -2.755414       -2.850543
 C        83.475624       -3.127198       -1.120764
 H        82.659836       -3.034144       -0.422242
 C        84.760048       -3.425549       -0.662683
 H        84.942505       -3.524662        0.395799
 C        85.803650       -3.575710       -1.577860
 H        86.811127       -3.714099       -1.213134
 C        85.572624       -3.427519       -2.949125
 H        86.388550       -3.498223       -3.648318
 Ir       84.720993        0.216834        7.096571
 C        87.728951        0.113695       10.266564
 C        87.815857        1.385036        9.739534
 N        86.680969       -0.537939        9.599564
 C        86.075089        0.289645        8.665881
 N        86.764763        1.488164        8.787138
 C        86.206123        2.597644        8.072525
 C        85.262825        2.260792        7.091904
 C        84.721466        3.278134        6.292369
 H        84.012070        3.035473        5.516246
 C        85.083252        4.619056        6.470257
 H        84.659653        5.381379        5.844216
 C        86.002502        4.956593        7.468788
 H        86.339195        5.977679        7.569374
 C        86.554619        3.952523        8.265536
 H        87.179535        4.224469        9.105729
 C        88.838264        2.237675       10.181354
 H        89.009033        3.179483        9.693567
 C        89.739532        1.818816       11.167897
 H        90.503380        2.487088       11.526299
 C        89.630234        0.530005       11.704613
 H        90.294388        0.218792       12.502523
 C        88.620285       -0.327514       11.251782
 H        88.517769       -1.300303       11.705121
 C        86.321533       -1.901483        9.861201
 C        86.937424       -2.929048        9.142039
 H        87.612328       -2.698817        8.333499
 C        86.667191       -4.268873        9.466761
 H        87.076843       -5.068146        8.858282
 C        85.782883       -4.576937       10.501751
 H        85.536865       -5.607280       10.707582
 C        85.174988       -3.553568       11.231803
 H        84.499725       -3.784638       12.042123
 C        85.435425       -2.213743       10.905085
 H        84.965118       -1.429111       11.460577
 C        81.008148        1.270004        9.142213
 C        80.640213        1.031901        7.841894
 N        82.403336        1.138137        9.206703
 C        82.942810        0.837955        7.960687
 N        81.839195        0.810403        7.115833
 C        82.123337        0.732801        5.720460
 C        83.462524        0.446808        5.408509
 C        83.849594        0.421852        4.058936
 H        84.852905        0.139280        3.792637
 C        82.935860        0.691968        3.033406
 H        83.256874        0.668199        2.008232
 C        81.605637        0.987038        3.351464
 H        80.888062        1.155757        2.565388
 C        81.201614        1.007113        4.684041
 H        80.177551        1.243616        4.901894
 C        79.269432        1.057079        7.507179
 H        78.931633        0.672789        6.560018
 C        78.308846        1.382530        8.465746
 H        77.275131        1.460801        8.179745
 C        78.693253        1.635430        9.785396
 H        77.959503        1.890499       10.532089
 C        80.052155        1.561355       10.128351
 H        80.331978        1.648752       11.159738
 C        83.151794        1.474279       10.392411
 C        83.886536        2.665025       10.442726
 H        83.864296        3.342324        9.599712
 C        84.600250        3.000482       11.598552
 H        85.211487        3.891753       11.603851
 C        84.566200        2.170746       12.717961
 H        85.130417        2.426591       13.605656
 C        83.808022        0.993119       12.682553
 H        83.740570        0.366769       13.565071
 C        83.115936        0.640347       11.520717
 H        82.527786       -0.264882       11.502288
 C        84.225189       -4.104374        7.025601
 C        85.302261       -3.871845        6.196605
 N        83.693634       -2.860058        7.380749
 C        84.428085       -1.816170        6.831047
 N        85.416901       -2.466518        6.084718
 C        86.367523       -1.628571        5.425660
 C        86.394073       -0.308128        5.896643
 C        87.453262        0.528269        5.506308
 H        87.480026        1.551554        5.825893
 C        88.469955        0.063062        4.673118
 H        89.275925        0.724763        4.373656
 C        88.435417       -1.253185        4.191245
 H        89.227226       -1.621464        3.560364
 C        87.372696       -2.086070        4.548789
 H        87.231110       -2.992305        3.991213
 C        86.068146       -4.972891        5.743153
 H        86.905777       -4.841073        5.087713
 C        85.734009       -6.270159        6.131153
 H        86.316177       -7.103094        5.778028
 C        84.644005       -6.487892        6.973494
 H        84.362495       -7.488952        7.253372
 C        83.899399       -5.404999        7.422714
 H        83.092743       -5.566875        8.126494
 C        82.334251       -2.720691        7.842019
 C        81.326752       -2.420763        6.926141
 H        81.576210       -2.197995        5.901524
 C        79.996086       -2.337380        7.346609
 H        79.221886       -2.098873        6.638143
 C        79.670288       -2.549045        8.695963
 H        78.645218       -2.470453        9.018997
 C        80.687233       -2.849813        9.615617
 H        80.436096       -3.054427       10.648458
 C        82.018723       -2.942272        9.191035
 H        82.784805       -3.198933        9.889282
