206
 generated by VMD
  IR        37.939999       56.630001       39.049999
  C1        34.959999       54.220001       37.020000
  C2        35.320000       55.040001       36.040001
  N1        35.610001       54.590000       38.169998
  C3a       36.500000       55.560001       37.959999
  N2        36.340000       55.900002       36.630001
  C4        37.169998       56.970001       36.160000
  C5a       37.689999       57.709999       37.220001
  C6        38.180000       58.990002       36.950001
  H1        38.470001       59.560001       37.820000
  C7        38.230000       59.540001       35.689999
  H2        38.639999       60.459999       35.450001
  C8        37.779999       58.740002       34.650002
  H3        38.139999       59.070000       33.750000
  C9        37.299999       57.470001       34.869999
  H4        36.910000       56.849998       34.070000
  C10       34.779999       54.990002       34.779999
  H5        34.730000       55.849998       34.189999
  C11       33.970001       53.919998       34.520000
  H6        33.470001       53.919998       33.580002
  C12       33.599998       53.029999       35.509998
  H7        33.060001       52.160000       35.209999
  C13       34.130001       53.139999       36.779999
  H8        33.900002       52.509998       37.650002
  C6        35.400002       53.860001       39.410000
  C1        36.360001       52.950001       39.820000
  H1        37.389999       53.290001       39.820000
  C2        36.080002       51.790001       40.520000
  H2        36.669998       50.910000       40.360001
  C3        34.759998       51.599998       40.919998
  H3        34.430000       50.770000       41.500000
  C4        33.779999       52.549999       40.619999
  H4        32.799999       52.380001       41.090000
  C5        34.080002       53.700001       39.869999
  H5        33.209999       54.259998       39.529999
  C1        41.590000       54.959999       37.540001
  C2        42.000000       56.080002       38.270000
  N1        40.150002       54.990002       37.520000
  C3b       39.709999       56.040001       38.250000
  N2        40.779999       56.700001       38.770000
  C4        40.570000       57.770000       39.709999
  C5b       39.209999       58.000000       39.990002
  C6        38.970001       59.029999       40.889999
  H1        37.959999       59.240002       41.270000
  C7        39.959999       59.860001       41.439999
  H2        39.599998       60.759998       41.849998
  C8        41.320000       59.580002       41.180000
  H3        42.090000       60.310001       41.509998
  C9        41.619999       58.470001       40.349998
  H4        42.540001       58.040001       40.450001
  C10       43.340000       56.470001       38.290001
  H5        43.730000       57.180000       39.029999
  C11       44.230000       55.860001       37.360001
  H6        45.110001       56.470001       37.139999
  C12       43.900002       54.700001       36.700001
  H7        44.630001       54.080002       36.290001
  C13       42.560001       54.180000       36.820000
  H8        42.430000       53.299999       36.250000
  C6        39.369999       53.869999       37.060001
  C1        39.369999       52.750000       37.939999
  H1        39.930000       52.730000       38.840000
  C2        38.820000       51.540001       37.590000
  H2        38.790001       50.709999       38.230000
  C3        38.209999       51.480000       36.320000
  H3        37.650002       50.599998       36.020000
  C4        38.250000       52.570000       35.400002
  H4        37.750000       52.630001       34.450001
  C5        38.910000       53.779999       35.750000
  H5        39.040001       54.490002       34.959999
  C1        38.160000       55.299999       43.220001
  C2        37.080002       56.150002       43.220001
  N1        38.630001       55.139999       41.910000
  C3c       37.849998       55.820000       40.980000
  N2        36.860001       56.450001       41.820000
  C4        35.889999       57.169998       41.119999
  C5c       36.250000       57.700001       39.840000
  C6        35.340000       58.560001       39.250000
  H1        35.529999       59.180000       38.349998
  C7        34.029999       58.709999       39.750000
  H2        33.389999       59.540001       39.480000
  C8        33.610001       58.040001       40.880001
  H3        32.570000       57.680000       40.959999
  C9        34.570000       57.340000       41.599998
  H4        34.349998       56.860001       42.549999
  C10       36.430000       56.410000       44.380001
  H5        35.639999       57.139999       44.410000
  C11       36.790001       55.820000       45.560001
  H6        36.060001       55.790001       46.299999
  C12       37.869999       54.889999       45.639999
  H7        38.380001       54.740002       46.599998
  C13       38.590000       54.660000       44.450001
  H8        39.310001       53.939999       44.450001
  C6        39.669998       54.080002       41.580002
  C1        40.939999       54.320000       41.220001
  H1        41.180000       55.330002       40.970001
  C2        41.840000       53.240002       41.029999
  H2        42.830002       53.480000       40.740002
  C3        41.410000       51.980000       41.189999
  H3        42.090000       51.180000       41.020000
  C4        40.110001       51.700001       41.590000
  H4        39.770000       50.630001       41.570000
  C5        39.169998       52.759998       41.820000
  H5        38.220001       52.619999       42.189999
  IR        32.660000       62.825001       46.410000
  C1        34.369999       59.445000       48.610001
  C2        33.459999       59.955002       49.419998
  N1        34.400002       60.244999       47.430000
  C3a       33.389999       61.224998       47.490002
  N2        32.790001       61.025002       48.709999
  C4        31.549999       61.735001       48.919998
  C5a       31.500000       62.895000       48.139999
  C6        30.610001       63.884998       48.529999
  H1        30.760000       64.875000       48.180000
  C7        29.570000       63.605000       49.430000
  H2        28.639999       64.154999       49.470001
  C8        29.600000       62.365002       50.130001
  H3        28.760000       62.264999       50.790001
  C9        30.600000       61.415001       49.919998
  H4        30.840000       60.555000       50.570000
  C10       33.380001       59.465000       50.700001
  H5        32.599998       59.855000       51.340000
  C11       34.180000       58.424999       51.180000
  H6        34.070000       58.005001       52.209999
  C12       35.200001       58.005001       50.330002
  H7        35.750000       57.105000       50.580002
  C13       35.250000       58.404999       49.000000
  H8        35.869999       57.945000       48.290001
  C6        35.500000       60.075001       46.349998
  C1        36.799999       60.145000       46.630001
  H1        37.040001       60.105000       47.689999
  C2        37.770000       60.125000       45.619999
  H2        38.820000       60.044998       45.790001
  C3        37.450001       59.994999       44.299999
  H3        38.230000       60.025002       43.560001
  C4        36.080002       59.904999       43.980000
  H4        35.660000       59.884998       42.939999
  C5        35.119999       59.974998       45.000000
  H5        34.110001       60.235001       44.770000
  C1        29.049999       61.035000       44.490002
  C2        28.900000       62.334999       44.389999
  N1        30.320000       60.825001       45.180000
  C3b       30.940001       62.014999       45.480000
  N2        29.990000       62.955002       45.070000
  C4        30.410000       64.315002       45.009998
  C5b       31.730000       64.514999       45.509998
  C6        32.369999       65.735001       45.259998
  H1        33.130001       66.135002       45.950001
  C7        31.840000       66.665001       44.349998
  H2        32.369999       67.574997       44.169998
  C8        30.540001       66.464996       43.919998
  H3        30.030001       67.375000       43.540001
  C9        29.820000       65.364998       44.250000
  H4        28.790001       65.345001       43.919998
  C10       27.719999       62.755001       43.709999
  H5        27.410000       63.744999       43.580002
  C11       26.730000       61.794998       43.259998
  H6        25.750000       62.095001       42.889999
  C12       26.930000       60.435001       43.480000
  H7        26.200001       59.744999       43.160000
  C13       28.080000       60.075001       44.049999
  H8        28.389999       59.055000       43.959999
  C6        30.750000       59.555000       45.580002
  C1        30.389999       59.064999       46.830002
  H1        29.900000       59.685001       47.599998
  C2        30.420000       57.735001       47.099998
  H2        30.230000       57.375000       48.150002
  C3        31.080000       56.825001       46.240002
  H3        31.309999       55.775002       46.570000
  C4        31.590000       57.325001       45.040001
  H4        32.360001       56.735001       44.599998
  C5        31.400000       58.724998       44.689999
  H5        31.690001       59.095001       43.770000
  C1        35.400002       63.134998       43.060001
  C2        36.130001       63.455002       44.160000
  N1        34.060001       62.915001       43.459999
  C3c       33.939999       63.115002       44.830002
  N2        35.230000       63.555000       45.230000
  C4        35.330002       64.154999       46.560001
  C5c       34.150002       63.985001       47.349998
  C6        34.029999       64.595001       48.599998
  H1        33.119999       64.665001       49.160000
  C7        35.169998       65.334999       49.099998
  H2        35.080002       65.964996       50.000000
  C8        36.330002       65.375000       48.380001
  H3        37.250000       65.815002       48.770000
  C9        36.419998       64.815002       47.130001
  H4        37.340000       65.025002       46.529999
  C10       37.549999       63.645000       44.009998
  H5        38.139999       63.595001       44.900002
  C11       38.160000       63.555000       42.720001
  H6        39.240002       63.505001       42.610001
  C12       37.349998       63.435001       41.630001
  H7        37.720001       63.485001       40.610001
  C13       36.009998       63.185001       41.830002
  H8        35.380001       63.055000       40.959999
  C6        33.000000       62.645000       42.570000
  C1        32.840000       61.314999       42.209999
  H1        33.619999       60.564999       42.299999
  C2        31.670000       60.904999       41.540001
  H2        31.629999       59.924999       41.029999
  C3        30.629999       61.805000       41.369999
  H3        29.629999       61.605000       41.110001
  C4        30.770000       63.134998       41.750000
  H4        29.889999       63.794998       41.709999
  C5        31.980000       63.535000       42.360001
  H5        32.189999       64.504997       42.740002
