206
 generated by VMD
 Ir        0.626092       -0.398590       -6.437560
 C         0.240043       -4.060215       -8.811942
 C        -0.015543       -4.459347       -7.518278
 N         0.548397       -2.690983       -8.769258
 C         0.493060       -2.188759       -7.482980
 N         0.137929       -3.295834       -6.708851
 C        -0.012439       -3.054909       -5.308156
 C         0.499225       -1.819008       -4.881951
 C         0.635097       -1.589237       -3.499727
 H         1.136439       -0.691681       -3.159079
 C         0.201120       -2.535973       -2.571736
 H         0.318744       -2.329868       -1.512166
 C        -0.366058       -3.738598       -3.001269
 H        -0.720618       -4.453503       -2.281969
 C        -0.482460       -3.990696       -4.360644
 H        -1.094133       -4.811886       -4.681437
 C        -0.369443       -5.803802       -7.274760
 H        -0.540625       -6.166744       -6.275827
 C        -0.463318       -6.718075       -8.328986
 H        -0.729185       -7.740707       -8.139153
 C        -0.216818       -6.287899       -9.641459
 H        -0.291727       -6.984657      -10.466006
 C         0.136262       -4.965775       -9.884222
 H         0.300861       -4.630077      -10.901549
 C         1.060634       -1.987446       -9.918453
 C         2.356104       -2.252029      -10.374909
 H         3.007399       -2.874218       -9.791818
 C         2.802885       -1.677578      -11.572612
 H         3.798227       -1.882999      -11.929966
 C         1.951585       -0.852169      -12.322319
 H         2.299595       -0.421772      -13.252831
 C         0.656461       -0.582664      -11.852606
 H        -0.011285        0.040638      -12.420591
 C         0.213300       -1.148407      -10.658226
 H        -0.774456       -0.920658      -10.294263
 C        -3.595521        0.459267       -5.656432
 C        -2.912324        1.334713       -4.844680
 N        -2.635700       -0.324337       -6.334157
 C        -1.349949        0.039276       -5.967099
 N        -1.530833        1.053371       -5.040713
 C        -0.346224        1.580669       -4.445016
 C         0.839617        1.210903       -5.085912
 C         2.041556        1.824627       -4.696196
 H         2.959460        1.554897       -5.186089
 C         2.059625        2.772179       -3.667398
 H         2.994437        3.231365       -3.371802
 C         0.876106        3.110912       -3.015059
 H         0.879708        3.832230       -2.203776
 C        -0.321864        2.510799       -3.394840
 H        -1.185704        2.662388       -2.764523
 C        -3.633272        2.213009       -4.019738
 H        -3.149606        3.019222       -3.486364
 C        -5.032295        2.171200       -3.997677
 H        -5.583187        2.840027       -3.356045
 C        -5.713040        1.277222       -4.825255
 H        -6.787380        1.228054       -4.799939
 C        -4.988002        0.425053       -5.667529
 H        -5.529974       -0.235775       -6.334719
 C        -2.974005       -1.594841       -6.933128
 C        -3.383602       -2.653904       -6.122561
 H        -3.468721       -2.520611       -5.053313
 C        -3.657289       -3.903187       -6.685833
 H        -4.013134       -4.710770       -6.060390
 C        -3.513609       -4.098331       -8.064093
 H        -3.725205       -5.063770       -8.507887
 C        -3.107157       -3.030556       -8.885351
 H        -2.949378       -3.188412       -9.939859
 C        -2.856684       -1.780155       -8.314338
 H        -2.623069       -0.937061       -8.949731
 C         1.460503        2.610653       -9.498202
 C         2.630127        1.913013       -9.391073
 N         0.539404        2.034184       -8.611656
 C         1.099128        0.975830       -7.917325
 N         2.394534        0.902416       -8.414452
 C         3.225375       -0.093616       -7.833313
 C         2.730664       -0.612461       -6.632328
 C         3.577841       -1.345196       -5.794657
 H         3.246535       -1.613232       -4.811604
 C         4.890205       -1.626091       -6.185168
 H         5.501365       -2.263462       -5.565221
 C         5.372192       -1.170448       -7.415200
 H         6.373350       -1.410702       -7.737164
 C         4.542986       -0.406662       -8.242218
 H         4.847569       -0.219254       -9.255037
 C         3.724139        2.266602      -10.192021
 H         4.689219        1.801216      -10.059985
 C         3.618197        3.314034      -11.112977
 H         4.449706        3.556843      -11.767913
 C         2.422212        4.021496      -11.223053
 H         2.333902        4.838676      -11.915820
 C         1.338936        3.681534      -10.404808
 H         0.439880        4.273323      -10.434554
 C        -0.767736        2.592228       -8.361709
 C        -0.925184        3.597614       -7.402538
 H        -0.070577        3.973709       -6.870377
 C        -2.204114        4.097370       -7.124186
 H        -2.325987        4.883011       -6.401334
 C        -3.327864        3.583031       -7.800209
 H        -4.309034        3.936516       -7.550905
 C        -3.156762        2.590153       -8.771916
 H        -4.014989        2.205345       -9.300756
 C        -1.877831        2.090397       -9.050269
 H        -1.755363        1.334682       -9.814401
 Ir        0.626093       -0.398594        8.007847
 C        -3.702180        0.206264        7.678604
 C        -3.472948        0.086750        9.029408
 N        -2.470575       -0.004490        7.022838
 C        -1.447406       -0.244343        7.929703
 N        -2.087684       -0.205769        9.169319
 C        -1.266129       -0.470860       10.302048
 C         0.109512       -0.355125       10.057079
 C         0.990294       -0.270039       11.148996
 H         2.038281       -0.112553       10.987679
 C         0.509892       -0.351391       12.459032
 H         1.206647       -0.371490       13.285488
 C        -0.857360       -0.507996       12.696297
 H        -1.226180       -0.540642       13.713800
 C        -1.744210       -0.583256       11.623528
 H        -2.739639       -0.943966       11.790892
 C        -4.543632        0.330788        9.917545
 H        -4.383827        0.324955       10.979115
 C        -5.815085        0.661060        9.428747
 H        -6.611968        0.888359       10.119770
 C        -6.035452        0.757130        8.056229
 H        -7.016045        0.981548        7.666906
 C        -4.973981        0.531628        7.176548
 H        -5.137259        0.626793        6.104597
 C        -2.410482       -0.246979        5.610009
 C        -2.661334       -1.534904        5.120802
 H        -2.763615       -2.359009        5.798512
 C        -2.783205       -1.747250        3.739298
 H        -2.951547       -2.738819        3.364394
 C        -2.624252       -0.672791        2.846625
 H        -2.664301       -0.854992        1.783705
 C        -2.360221        0.610222        3.337309
 H        -2.178393        1.422272        2.654431
 C        -2.261911        0.818775        4.713296
 H        -2.119928        1.820168        5.085247
 C         1.828801        3.766945        8.559772
 C         3.019356        3.078915        8.444031
 N         0.781625        2.821564        8.462391
 C         1.275708        1.547947        8.280222
 N         2.659593        1.716160        8.272060
 C         3.424277        0.507763        8.194393
 C         2.677215       -0.647320        8.445950
 C         3.325627       -1.822018        8.841619
 H         2.759424       -2.692352        9.103588
 C         4.726473       -1.861279        8.940071
 H         5.213525       -2.777142        9.266687
 C         5.484971       -0.735672        8.623709
 H         6.557946       -0.778515        8.656666
 C         4.836907        0.443935        8.241299
 H         5.424943        1.240578        7.809933
 C         4.224521        3.781757        8.559254
 H         5.179136        3.274845        8.510828
 C         4.232023        5.167732        8.769588
 H         5.163746        5.700840        8.864374
 C         3.017905        5.851963        8.879810
 H         3.002950        6.919239        9.042889
 C         1.812739        5.149105        8.764589
 H         0.875746        5.682163        8.810413
 C        -0.550109        3.104687        8.897842
 C        -0.854857        3.063541       10.263802
 H        -0.061063        2.906544       10.987576
 C        -2.173904        3.238792       10.701180
 H        -2.397405        3.157017       11.748158
 C        -3.188206        3.455193        9.772600
 H        -4.213888        3.571278       10.103508
 C        -2.893847        3.487629        8.402601
 H        -3.692898        3.591248        7.683659
 C        -1.581212        3.317287        7.971111
 H        -1.349322        3.358192        6.916433
 C         1.165360       -0.787033        3.724809
 C         0.694229       -2.014690        4.116702
 N         1.427723       -0.041142        4.882269
 C         1.108526       -0.756283        6.030696
 N         0.696255       -1.989056        5.540377
 C         0.411439       -2.983795        6.535044
 C         0.306056       -2.488052        7.840124
 C        -0.008024       -3.386318        8.875238
 H        -0.028813       -3.033047        9.898994
 C        -0.224764       -4.734550        8.626242
 H        -0.470160       -5.414616        9.435371
 C        -0.119380       -5.230293        7.321159
 H        -0.317281       -6.268543        7.122745
 C         0.217090       -4.355473        6.279058
 H         0.456209       -4.777527        5.312778
 C         0.277470       -2.936798        3.141749
 H        -0.118228       -3.893330        3.423646
 C         0.346190       -2.608906        1.788877
 H        -0.012597       -3.305904        1.045794
 C         0.841358       -1.360031        1.388486
 H         0.911513       -1.097805        0.346556
 C         1.254498       -0.446636        2.366764
 H         1.646701        0.513699        2.060923
 C         1.993745        1.284771        4.851264
 C         1.147755        2.395130        4.854248
 H         0.087063        2.259975        5.000078
 C         1.667489        3.682861        4.702828
 H         1.008425        4.534840        4.683505
 C         3.050359        3.868946        4.559834
 H         3.455827        4.857189        4.431885
 C         3.909528        2.753677        4.558324
 H         4.960185        2.885029        4.421709
 C         3.372996        1.462147        4.711592
 H         4.039172        0.615086        4.751534
