206
 generated by VMD
  IR        25.150000       42.200001       11.520000
  C1        22.549999       44.650002        9.130000
  C2        23.270000       43.910000        8.200000
  N1        23.139999       44.520000       10.370000
  C3a       24.180000       43.540001       10.280000
  N2        24.320000       43.290001        8.950000
  C4        25.430000       42.459999        8.600000
  C5a       25.900000       41.660000        9.650000
  C6        26.889999       40.720001        9.290000
  H1        27.209999       40.040001       10.080000
  C7        27.500000       40.720001        8.010000
  H2        28.379999       40.099998        7.750000
  C8        27.010000       41.540001        7.010000
  H3        27.580000       41.680000        6.050000
  C9        25.990000       42.430000        7.270000
  H4        25.480000       43.020000        6.480000
  C10       22.830000       43.889999        6.910000
  H5        23.270000       43.169998        6.180000
  C11       21.760000       44.720001        6.570000
  H6        21.290001       44.610001        5.630000
  C12       21.240000       45.590000        7.490000
  H7        20.379999       46.259998        7.230000
  C13       21.549999       45.500000        8.810000
  H8        20.950001       46.029999        9.500000
  C6        22.990000       45.540001       11.410000
  C1        22.030001       45.410000       12.450000
  H1        21.650000       44.400002       12.670000
  C2        21.750000       46.540001       13.210000
  H2        21.030001       46.459999       13.960000
  C3        22.219999       47.779999       12.900000
  H3        21.870001       48.630001       13.260000
  C4        23.170000       47.889999       11.890000
  H4        23.320000       48.869999       11.410000
  C5        23.639999       46.790001       11.140000
  H5        24.549999       46.869999       10.580000
  C1        22.629999       38.790001       10.580000
  C2        23.660000       38.209999       11.350000
  N1        22.760000       40.150002       10.650000
  C3b       23.920000       40.529999       11.380000
  N2        24.469999       39.299999       11.770000
  C4        25.770000       39.360001       12.370000
  C5b       26.190001       40.650002       12.560000
  C6        27.330000       40.790001       13.410000
  H1        27.570000       41.790001       13.770000
  C7        28.090000       39.730000       13.840000
  H2        28.969999       39.840000       14.430000
  C8        27.690001       38.450001       13.580000
  H3        28.360001       37.680000       13.920000
  C9        26.500000       38.230000       12.880000
  H4        26.230000       37.139999       12.810000
  C10       23.790001       36.860001       11.490000
  H5        24.400000       36.400002       12.300000
  C11       22.940001       36.029999       10.730000
  H6        23.059999       34.950001       10.840000
  C12       22.010000       36.580002        9.820000
  H7        21.629999       36.040001        9.010000
  C13       21.830000       37.950001        9.820000
  H8        20.950001       38.349998        9.400000
  C6        21.559999       40.990002       10.530000
  C1        20.719999       41.169998       11.660000
  H1        21.070000       40.970001       12.650000
  C2        19.510000       41.880001       11.540000
  H2        19.000000       41.840000       12.450000
  C3        19.080000       42.470001       10.360000
  H3        18.090000       42.889999       10.340000
  C4        19.920000       42.310001        9.240000
  H4        19.520000       42.500000        8.250000
  C5        21.139999       41.590000        9.310000
  H5        21.570000       41.450001        8.300000
  C1        23.969999       43.720001       15.440000
  C2        25.010000       44.549999       15.080000
  N1        23.850000       42.730000       14.440000
  C3c       24.700001       42.980000       13.370000
  N2        25.430000       44.090000       13.800000
  C4        26.309999       44.619999       12.820000
  C5c       26.590000       43.750000       11.770000
  C6        27.660000       44.029999       10.920000
  H1        27.790001       43.480000        9.970000
  C7        28.360001       45.189999       11.050000
  H2        28.990000       45.490002       10.250000
  C8        28.080000       46.099998       12.060000
  H3        28.320000       47.180000       12.010000
  C9        27.059999       45.770000       12.950000
  H4        26.850000       46.580002       13.710000
  C10       25.480000       45.500000       16.000000
  H5        26.389999       46.110001       15.890000
  C11       24.799999       45.650002       17.240000
  H6        25.170000       46.360001       17.990000
  C12       23.650000       44.939999       17.400000
  H7        22.969999       45.160000       18.240000
  C13       23.250000       43.950001       16.540001
  H8        22.280001       43.439999       16.799999
  C6        23.309999       41.480000       14.840000
  C1        24.219999       40.549999       15.450000
  H1        25.209999       40.610001       15.040000
  C2        23.719999       39.560001       16.340000
  H2        24.360001       38.759998       16.490000
  C3        22.420000       39.549999       16.680000
  H3        22.129999       38.860001       17.440001
  C4        21.480000       40.450001       16.129999
  H4        20.440001       40.290001       16.240000
  C5        21.920000       41.430000       15.180000
  H5        21.250000       42.049999       14.630000
  IR        36.209999       34.110001       15.340000
  C1        36.450001       29.770000       15.100000
  C2        36.959999       30.209999       13.860000
  N1        36.189999       30.850000       15.860000
  C3a       36.529999       32.060001       15.240000
  N2        37.020000       31.610001       14.000000
  C4        37.570000       32.580002       13.160000
  C5a       37.040001       33.849998       13.400000
  C6        37.320000       34.900002       12.510000
  H1        36.939999       35.889999       12.690000
  C7        38.150002       34.650002       11.360000
  H2        38.279999       35.490002       10.680000
  C8        38.610001       33.400002       11.120000
  H3        39.230000       33.299999       10.270000
  C9        38.330002       32.389999       12.010000
  H4        38.630001       31.389999       11.840000
  C10       37.020000       29.379999       12.760000
  H5        37.380001       29.610001       11.750000
  C11       36.770000       28.000000       12.950000
  H6        37.259998       27.340000       12.310000
  C12       36.360001       27.570000       14.210000
  H7        36.250000       26.510000       14.450000
  C13       36.139999       28.410000       15.320000
  H8        35.590000       28.010000       16.180000
  C6        35.790001       30.690001       17.250000
  C1        36.849998       30.670000       18.180000
  H1        37.869999       30.860001       17.900000
  C2        36.540001       30.430000       19.480000
  H2        37.220001       30.010000       20.209999
  C3        35.220001       30.350000       19.920000
  H3        35.139999       30.469999       21.010000
  C4        34.160000       30.350000       19.040001
  H4        33.200001       30.010000       19.420000
  C5        34.439999       30.559999       17.690001
  H5        33.689999       30.969999       17.040001
  C1        40.220001       35.320000       16.740000
  C2        39.520000       36.439999       16.660000
  N1        39.389999       34.299999       16.219999
  C3b       38.169998       34.779999       15.760000
  N2        38.209999       36.130001       16.059999
  C4        37.119999       36.939999       15.540000
  C5b       36.009998       36.169998       15.110000
  C6        34.820000       36.830002       14.880000
  H1        33.900002       36.330002       14.670000
  C7        34.799999       38.180000       14.890000
  H2        34.000000       38.730000       14.480000
  C8        35.950001       38.930000       15.120000
  H3        35.849998       40.009998       14.990000
  C9        37.110001       38.290001       15.480000
  H4        38.000000       38.900002       15.710000
  C10       40.240002       37.630001       17.040001
  H5        39.580002       38.509998       17.120001
  C11       41.549999       37.619999       17.559999
  H6        41.810001       38.419998       18.260000
  C12       42.270000       36.439999       17.590000
  H7        43.349998       36.520000       17.709999
  C13       41.599998       35.299999       17.180000
  H8        42.119999       34.369999       17.000000
  C6        39.980000       33.139999       15.710000
  C1        40.529999       33.220001       14.420000
  H1        40.200001       33.910000       13.720000
  C2        41.320000       32.209999       13.980000
  H2        41.660000       32.299999       12.930000
  C3        41.509998       31.090000       14.760000
  H3        42.070000       30.260000       14.420000
  C4        40.930000       31.020000       16.040001
  H4        41.220001       30.139999       16.559999
  C5        40.110001       32.040001       16.549999
  H5        39.650002       32.060001       17.559999
  C1        34.139999       34.349998       19.129999
  C2        33.250000       33.740002       18.280001
  N1        35.279999       34.619999       18.420000
  C3c       35.160000       34.250000       17.139999
  N2        33.900002       33.720001       17.049999
  C4        33.320000       33.560001       15.720000
  C5c       34.240002       33.740002       14.670000
  C6        33.740002       33.669998       13.350000
  H1        34.520000       33.669998       12.570000
  C7        32.360001       33.470001       13.060000
  H2        32.080002       33.299999       12.030000
  C8        31.430000       33.340000       14.120000
  H3        30.500000       32.919998       13.940000
  C9        31.920000       33.419998       15.410000
  H4        31.260000       33.049999       16.170000
  C10       32.200001       32.950001       18.830000
  H5        31.379999       32.490002       18.230000
  C11       32.130001       32.709999       20.200001
  H6        31.500000       31.969999       20.629999
  C12       33.020000       33.299999       21.040001
  H7        33.099998       32.990002       22.049999
  C13       33.930000       34.150002       20.549999
  H8        34.349998       34.830002       21.360001
  C6        36.189999       35.680000       18.820000
  C1        37.470001       35.439999       19.410000
  H1        37.869999       34.430000       19.590000
  C2        38.330002       36.470001       19.760000
  H2        39.310001       36.200001       20.230000
  C3        37.930000       37.770000       19.559999
  H3        38.639999       38.599998       19.750000
  C4        36.660000       38.009998       19.020000
  H4        36.360001       39.040001       18.950001
  C5        35.779999       36.990002       18.610001
  H5        34.779999       37.189999       18.340000
