206
 generated by VMD
 Ir        1.917529      105.009407      -69.382263
 C        -0.646901      101.684929      -70.546631
 C        -0.551228      101.540482      -69.207199
 N         0.054109      102.873047      -70.928688
 C         0.627399      103.471375      -69.799644
 N         0.340944      102.608803      -68.727394
 C         0.859182      102.946838      -67.482498
 C         1.746389      104.048477      -67.541367
 C         2.484384      104.397995      -66.428665
 H         3.188289      105.167213      -66.504913
 C         2.235343      103.741379      -65.202194
 H         2.734699      104.167313      -64.322983
 C         1.355432      102.667358      -65.092499
 H         1.278495      102.133080      -64.177490
 C         0.681155      102.282867      -66.254356
 H        -0.241788      101.686440      -66.102844
 C        -1.257069      100.472885      -68.628281
 H        -1.170485      100.332314      -67.543411
 C        -1.932620       99.528961      -69.387726
 H        -2.607255       98.916138      -68.790817
 C        -1.887915       99.652641      -70.739960
 H        -2.326739       98.895950      -71.339996
 C        -1.279534      100.741653      -71.391266
 H        -1.389525      100.755768      -72.457199
 C         0.188855      103.249641      -72.360405
 C        -0.573123      104.203468      -72.820312
 H        -1.104432      104.858749      -72.132202
 C        -0.685481      104.431282      -74.220345
 H        -1.259078      105.257469      -74.571075
 C        -0.017157      103.631981      -75.141037
 H        -0.316611      103.673584      -76.173065
 C         0.763835      102.604218      -74.618111
 H         1.543367      102.062859      -75.120468
 C         0.932712      102.429565      -73.231468
 H         1.484376      101.515892      -72.932358
 C        -1.032990      107.960739      -68.280151
 C         0.221219      108.579849      -67.928940
 N        -0.733720      106.667839      -68.618134
 C         0.602395      106.418991      -68.686493
 N         1.191499      107.678833      -68.247559
 C         2.658960      107.700462      -68.338097
 C         3.237327      106.448074      -68.688950
 C         4.629340      106.360138      -68.569473
 H         5.162257      105.618134      -69.169403
 C         5.457610      107.408203      -68.156052
 H         6.444739      107.179497      -67.966919
 C         4.813779      108.661896      -67.829948
 H         5.405866      109.563644      -67.777222
 C         3.407892      108.720917      -67.906158
 H         2.902272      109.489128      -67.393219
 C         0.213035      109.894547      -67.418350
 H         1.040656      110.187309      -66.832565
 C        -0.983634      110.565239      -67.349312
 H        -0.999217      111.490479      -66.803154
 C        -2.204148      110.024849      -67.708786
 H        -3.167462      110.583267      -67.757828
 C        -2.211354      108.707436      -68.235367
 H        -3.134782      108.372353      -68.646698
 C        -1.788319      105.695129      -68.776413
 C        -2.632266      105.717522      -69.912666
 H        -2.569415      106.515564      -70.683685
 C        -3.706559      104.815414      -70.120239
 H        -4.169791      104.751328      -71.120544
 C        -3.993197      103.809479      -69.192375
 H        -4.731339      103.060265      -69.367981
 C        -3.165320      103.692879      -68.087242
 H        -3.330195      102.836899      -67.364525
 C        -2.136222      104.677719      -67.868927
 H        -1.554633      104.694054      -66.961975
 C         2.038793      106.551514      -73.481117
 C         2.969375      105.476402      -73.538177
 N         1.652585      106.758598      -72.137589
 C         2.213422      105.798843      -71.295441
 N         3.077699      105.052185      -72.113510
 C         3.805804      104.070869      -71.472504
 C         3.453096      103.790939      -70.166267
 C         4.205995      102.877625      -69.441826
 H         4.041320      102.781975      -68.372841
 C         5.338716      102.233543      -69.966606
 H         5.650624      101.397942      -69.368622
 C         5.690080      102.506760      -71.245392
 H         6.467996      101.894173      -71.634071
 C         5.009898      103.423431      -72.052902
 H         5.375087      103.651085      -73.043365
 C         3.627374      105.124260      -74.743561
 H         4.064664      104.149048      -74.880478
 C         3.405536      105.846573      -75.896835
 H         3.803956      105.434555      -76.867203
 C         2.481036      106.886711      -75.833450
 H         2.486606      107.512482      -76.663986
 C         1.782497      107.252281      -74.641357
 H         0.988694      107.965546      -74.629654
 C         1.221078      107.982208      -71.691856
 C         2.181350      108.863419      -71.458527
 H         3.209916      108.578072      -71.543587
 C         1.894387      110.206787      -71.122192
 H         2.633689      110.925797      -70.830032
 C         0.556934      110.625191      -70.968704
 H         0.318999      111.534821      -70.437241
 C        -0.504468      109.749275      -71.249405
 H        -1.499646      110.113991      -71.216187
 C        -0.152661      108.405914      -71.648163
 H        -0.957475      107.683548      -71.864182
 Ir        1.917529      105.009407      -54.573761
 C         0.869033      100.706535      -54.336384
 C         1.480603      100.880386      -55.561157
 N         0.867778      101.956711      -53.746498
 C         1.364688      102.987671      -54.643387
 N         1.744035      102.292389      -55.691235
 C         2.267650      103.021263      -56.718987
 C         2.621743      104.368988      -56.437668
 C         3.199327      105.169876      -57.467037
 H         3.412763      106.209442      -57.173222
 C         3.318694      104.703667      -58.784954
 H         3.794647      105.315613      -59.559414
 C         2.928180      103.417107      -59.104111
 H         3.066036      103.100456      -60.071182
 C         2.446447      102.593384      -58.119366
 H         2.178863      101.602859      -58.469429
 C         1.818633       99.763504      -56.291443
 H         2.492307       99.761322      -57.220993
 C         1.504773       98.457947      -55.824429
 H         1.870111       97.649994      -56.295643
 C         0.759052       98.302170      -54.623665
 H         0.359243       97.367111      -54.318031
 C         0.478481       99.470276      -53.776009
 H        -0.228850       99.310257      -52.967941
 C         0.045461      102.232079      -52.538788
 C        -1.317235      102.444412      -52.757580
 H        -1.815335      102.173851      -53.664333
 C        -2.112565      102.834763      -51.651611
 H        -3.049569      103.328529      -51.846344
 C        -1.547978      102.883606      -50.358566
 H        -2.216414      102.968506      -49.466839
 C        -0.176822      102.738510      -50.203083
 H         0.222911      102.721169      -49.196648
 C         0.614528      102.420807      -51.298775
 H         1.713706      102.207581      -51.195114
 C         6.038667      104.943405      -52.989063
 C         5.900393      106.246002      -53.464344
 N         4.831840      104.306870      -53.276642
 C         3.950292      105.139397      -53.976120
 N         4.585345      106.310852      -54.022957
 C         3.787347      107.334488      -54.678894
 C         2.466695      106.978378      -54.998207
 C         1.714425      107.978531      -55.606640
 H         0.747861      107.582924      -55.947437
 C         2.102344      109.330795      -55.665081
 H         1.477733      110.093094      -55.924614
 C         3.347511      109.730644      -55.236736
 H         3.739179      110.774109      -55.377800
 C         4.179919      108.705589      -54.732502
 H         5.175300      109.013062      -54.448288
 C         7.050754      107.168259      -53.408447
 H         6.990869      108.166183      -53.888817
 C         8.256291      106.716537      -52.891502
 H         9.060876      107.360710      -52.949677
 C         8.373172      105.385666      -52.409607
 H         9.354661      105.065590      -52.024467
 C         7.258788      104.458771      -52.399288
 H         7.413987      103.466904      -51.992939
 C         4.532344      102.908524      -52.751450
 C         4.422486      102.785492      -51.380394
 H         4.228490      103.633316      -50.774445
 C         4.493682      101.501083      -50.787342
 H         4.372996      101.348251      -49.744759
 C         4.746423      100.335693      -51.577396
 H         4.470340       99.309906      -51.244167
 C         4.840125      100.513168      -52.979652
 H         4.964536       99.618904      -53.585789
 C         4.751521      101.784813      -53.547523
 H         4.690085      101.909256      -54.635113
 C        -0.109629      106.205734      -50.955177
 C        -1.124789      105.992737      -51.836708
 N         1.072604      106.250366      -51.688068
 C         0.893506      105.813599      -52.998817
 N        -0.508851      105.680222      -53.114616
 C        -1.051390      105.152481      -54.341496
 C        -0.038216      105.143707      -55.365360
 C        -0.493356      104.948265      -56.688896
 H         0.112268      105.225975      -57.444008
 C        -1.854232      104.781204      -56.920219
 H        -2.191725      104.636459      -57.934097
 C        -2.809371      104.728806      -55.879322
 H        -3.816193      104.851830      -56.175426
 C        -2.443637      104.916122      -54.562149
 H        -3.079194      104.691574      -53.737198
 C        -2.501403      106.120010      -51.421097
 H        -3.329209      105.614075      -51.920551
 C        -2.766383      106.436142      -50.081409
 H        -3.765776      106.585846      -49.619995
 C        -1.738608      106.610794      -49.186775
 H        -1.957318      107.014175      -48.231602
 C        -0.400298      106.566895      -49.642174
 H         0.458013      106.503220      -48.938004
 C         2.329997      107.025612      -51.203766
 C         2.397840      108.388985      -51.493774
 H         1.511266      108.882751      -51.737053
 C         3.584752      109.124374      -51.241295
 H         3.615485      110.159821      -50.920990
 C         4.733764      108.443207      -50.768646
 H         5.633883      108.995369      -50.684326
 C         4.580504      107.087196      -50.466446
 H         5.400895      106.586716      -50.133305
 C         3.387773      106.381485      -50.580772
 H         3.382278      105.306015      -50.355774
