206
 generated by VMD
 Ir       32.976574      -67.126846       49.542099
 C        32.286835      -67.387589       53.772793
 C        33.209576      -68.328812       53.482895
 N        32.105713      -66.633041       52.583652
 C        32.859398      -67.197601       51.566193
 N        33.613632      -68.205078       52.101288
 C        34.662174      -68.738770       51.266048
 C        34.608971      -68.414581       49.995514
 C        35.757183      -68.628334       49.146202
 H        35.660019      -68.413086       48.107391
 C        36.900711      -69.245903       49.649338
 H        37.705059      -69.548599       49.039497
 C        36.964954      -69.549911       50.959511
 H        37.731827      -70.238663       51.212719
 C        35.846466      -69.286209       51.797806
 H        35.974651      -69.371277       52.875229
 C        33.689552      -69.123550       54.624393
 H        34.506741      -69.774002       54.505981
 C        33.021645      -69.037971       55.861877
 H        33.363277      -69.574173       56.685699
 C        32.047089      -68.087067       56.083061
 H        31.622036      -67.932724       57.043797
 C        31.710192      -67.231781       55.057590
 H        30.955330      -66.540924       55.264221
 C        31.302193      -65.463684       52.459251
 C        29.962231      -65.745514       52.095406
 H        29.744375      -66.558655       51.414574
 C        28.932148      -64.903831       52.488602
 H        27.875481      -65.115067       52.247078
 C        29.242811      -63.790184       53.275669
 H        28.542339      -63.426807       54.032570
 C        30.599373      -63.528954       53.509125
 H        30.703592      -62.576450       54.052246
 C        31.649437      -64.290634       53.115051
 H        32.706886      -64.069267       53.386513
 C        36.159637      -64.087830       49.234962
 C        35.875282      -64.393860       47.923328
 N        35.230164      -64.854301       50.033020
 C        34.429893      -65.637909       49.267235
 N        34.766548      -65.233719       47.986145
 C        34.120735      -66.028282       47.006302
 C        33.472588      -67.166260       47.468597
 C        32.957272      -68.100723       46.505989
 H        32.394882      -68.969437       46.804752
 C        33.060627      -67.847137       45.101631
 H        32.996391      -68.789635       44.557430
 C        33.659828      -66.628975       44.680267
 H        33.443214      -66.283638       43.663986
 C        34.175415      -65.734459       45.653053
 H        34.524475      -64.866341       45.229820
 C        36.661171      -63.798031       46.989750
 H        36.805305      -64.202553       45.997482
 C        37.762451      -62.945984       47.407238
 H        38.453102      -62.639320       46.657532
 C        38.088367      -62.719673       48.778175
 H        39.085045      -62.448441       49.020988
 C        37.201988      -63.275600       49.694187
 H        37.329105      -63.200844       50.730888
 C        35.656097      -65.047989       51.403267
 C        36.563744      -66.046616       51.684227
 H        37.003021      -66.630219       50.885139
 C        37.028610      -66.150482       53.013023
 H        37.497959      -67.028824       53.364906
 C        36.584782      -65.285919       54.021019
 H        36.892124      -65.391121       55.063843
 C        35.615601      -64.377579       53.682060
 H        35.136322      -63.713966       54.481823
 C        35.162292      -64.193428       52.412613
 H        34.537964      -63.354214       52.255024
 C        29.366640      -64.920517       48.826042
 C        29.007442      -66.240417       48.861469
 N        30.796675      -64.920425       48.808685
 C        31.316128      -66.190506       48.780914
 N        30.185833      -67.060638       48.784416
 C        30.396971      -68.430435       48.825180
 C        31.604622      -68.727280       49.485226
 C        31.840973      -70.096169       49.725395
 H        32.828773      -70.394745       50.011063
 C        30.960941      -71.087982       49.352783
 H        31.169617      -72.126465       49.682198
 C        29.754591      -70.740921       48.742493
 H        28.987358      -71.442230       48.475639
 C        29.467216      -69.432213       48.463913
 H        28.513142      -69.174728       47.937469
 C        27.695501      -66.519089       49.187119
 H        27.439369      -67.538437       49.338524
 C        26.729115      -65.588501       49.338158
 H        25.659502      -65.758499       49.366882
 C        27.086485      -64.268929       49.232758
 H        26.355854      -63.459076       49.218128
 C        28.389994      -63.949982       48.967159
 H        28.653770      -62.921043       48.725479
 C        31.556011      -63.710487       48.773308
 C        31.351048      -62.746109       49.734589
 H        30.854252      -63.102081       50.629509
 C        31.806818      -61.466805       49.566780
 H        31.668207      -60.763069       50.387470
 C        32.568043      -61.141792       48.455021
 H        32.836777      -60.071987       48.403091
 C        32.812729      -62.076218       47.482559
 H        33.644138      -61.929420       46.759922
 C        32.234650      -63.385933       47.563675
 H        32.303028      -64.109718       46.734909
 Ir       32.976574      -67.126846       64.857483
 C        32.742409      -62.785789       65.083832
 C        31.516201      -63.223450       65.628044
 N        33.495483      -63.866966       64.809006
 C        32.884720      -65.075401       65.170616
 N        31.657887      -64.623161       65.690765
 C        30.832653      -65.590637       66.266945
 C        31.058880      -66.863045       65.736671
 C        30.176624      -67.911758       66.044617
 H        30.346756      -68.903488       65.664574
 C        29.048664      -67.657967       66.903214
 H        28.372391      -68.497360       67.054764
 C        28.820610      -66.405884       67.363609
 H        27.987082      -66.303040       68.005135
 C        29.702873      -65.397163       67.055847
 H        29.540646      -64.395805       67.355614
 C        30.418045      -62.393185       65.712959
 H        29.417816      -62.621536       66.100266
 C        30.601284      -61.014343       65.451782
 H        29.974222      -60.352112       65.955307
 C        31.850094      -60.586224       65.007050
 H        32.087013      -59.526737       64.885979
 C        32.954071      -61.427223       64.761978
 H        33.799366      -61.029739       64.187881
 C        34.874542      -63.708797       64.372116
 C        35.831909      -63.683952       65.407356
 H        35.578667      -63.869286       66.435181
 C        37.123337      -63.445374       65.062424
 H        37.870804      -63.022266       65.721199
 C        37.528706      -63.371407       63.731026
 H        38.616257      -63.491768       63.623138
 C        36.621323      -63.376251       62.694382
 H        36.976082      -63.040646       61.723244
 C        35.279121      -63.584969       63.010498
 H        34.609806      -63.998398       62.279617
 C        34.480968      -68.318497       68.835037
 C        34.382847      -69.441681       68.142494
 N        33.939346      -67.302299       68.014252
 C        33.447701      -67.787872       66.808884
 N        33.748802      -69.137680       66.847206
 C        33.200607      -69.952652       65.774872
 C        32.741676      -69.187729       64.672974
 C        32.480751      -69.853165       63.492416
 H        32.246735      -69.357384       62.575943
 C        32.490387      -71.203247       63.478333
 H        32.059700      -71.756897       62.691833
 C        32.750435      -71.947983       64.625351
 H        32.617996      -73.028427       64.533714
 C        33.140530      -71.302681       65.772614
 H        33.393768      -71.908615       66.659081
 C        34.781670      -70.628380       68.857758
 H        34.844505      -71.511383       68.199921
 C        35.335701      -70.612389       70.153664
 H        36.042347      -71.411194       70.398949
 C        35.384354      -69.429108       70.867241
 H        35.532528      -69.504166       71.944084
 C        34.956860      -68.292183       70.202965
 H        34.790390      -67.359818       70.723236
 C        33.444794      -66.139618       68.612061
 C        32.169609      -66.217102       69.195923
 H        31.461311      -66.908600       68.887474
 C        31.750269      -65.203499       69.992523
 H        30.709518      -65.291946       70.360237
 C        32.534832      -64.082642       70.156967
 H        32.209473      -63.250092       70.721855
 C        33.799240      -64.015289       69.543419
 H        34.326530      -63.133976       69.815712
 C        34.287769      -65.039032       68.715050
 H        35.285416      -65.061134       68.228928
 C        36.711243      -67.376297       62.690323
 C        35.838219      -66.770386       61.820045
 N        36.031296      -67.641083       63.849701
 C        34.748550      -67.271637       63.761482
 N        34.625610      -66.747406       62.501854
 C        33.280899      -66.590057       61.956055
 C        32.255306      -66.765854       62.903984
 C        30.922691      -66.698135       62.438316
 H        30.163326      -66.694572       63.238411
 C        30.596725      -66.504448       61.065460
 H        29.559742      -66.335732       60.811684
 C        31.632057      -66.378708       60.107506
 H        31.427780      -65.962959       59.180614
 C        32.934425      -66.456467       60.564011
 H        33.676884      -66.089485       59.882698
 C        36.360512      -65.985184       60.752441
 H        35.739250      -65.528946       59.946297
 C        37.728191      -65.745514       60.645588
 H        38.141499      -65.008392       60.001198
 C        38.591217      -66.331436       61.516029
 H        39.602924      -66.021072       61.568207
 C        38.125252      -67.177269       62.442390
 H        38.946030      -67.855339       62.844193
 C        36.455051      -68.696915       64.753777
 C        37.078255      -68.451065       66.016823
 H        37.268517      -67.439247       66.407364
 C        37.450714      -69.477127       66.872086
 H        37.946117      -69.202652       67.838234
 C        37.240494      -70.778946       66.483391
 H        37.449074      -71.605682       67.191971
 C        36.667538      -71.024742       65.229034
 H        36.589851      -72.056107       64.935677
 C        36.234573      -70.008774       64.355392
 H        35.938568      -70.213348       63.363708
