206
 generated by VMD
 Ir       70.876640       10.668573      -75.843781
 C        75.030090       11.730537      -75.527451
 C        74.572342       11.816298      -74.289230
 N        73.929398       11.574230      -76.401886
 C        72.789223       11.501652      -75.753769
 N        73.135361       11.794237      -74.425629
 C        72.099930       11.773140      -73.396622
 C        70.950592       11.075335      -73.710594
 C        69.940964       10.842838      -72.769592
 H        69.310783        9.964728      -72.859604
 C        70.047821       11.327644      -71.441528
 H        69.215622       11.333563      -70.768997
 C        71.067993       12.197603      -71.149437
 H        71.089478       12.747076      -70.271072
 C        72.156708       12.392764      -72.083252
 H        72.942612       13.119875      -71.833710
 C        75.463135       11.841990      -73.230728
 H        75.051743       11.567067      -72.261307
 C        76.843246       11.801418      -73.461678
 H        77.493187       11.849726      -72.640610
 C        77.287949       11.717060      -74.785507
 H        78.331711       11.570974      -75.021805
 C        76.367477       11.703346      -75.803070
 H        76.718513       11.569673      -76.769974
 C        74.043251       11.881258      -77.784515
 C        73.951523       13.239697      -78.136139
 H        73.557968       14.010120      -77.484100
 C        74.214371       13.630255      -79.430305
 H        74.100082       14.679234      -79.624680
 C        74.666145       12.690223      -80.435120
 H        75.076157       13.025866      -81.393982
 C        74.676361       11.335419      -80.058151
 H        74.887558       10.541353      -80.815948
 C        74.397034       10.886370      -78.761261
 H        74.433464        9.883072      -78.460815
 C        71.668274        6.560016      -74.397415
 C        70.380142        6.617597      -74.603104
 N        72.252289        7.784660      -74.781830
 C        71.271011        8.673070      -75.188919
 N        70.113678        7.898363      -75.146637
 C        68.888809        8.507448      -75.646156
 C        68.912460        9.924887      -75.611374
 C        67.779434       10.633369      -75.770477
 H        67.738625       11.691782      -75.611420
 C        66.585381        9.939194      -76.130142
 H        65.835587       10.484699      -76.552444
 C        66.471466        8.549342      -76.155380
 H        65.597420        8.081289      -76.551956
 C        67.651276        7.825251      -75.938248
 H        67.762131        6.818639      -76.139847
 C        69.645279        5.436149      -74.240540
 H        68.583786        5.416830      -74.542778
 C        70.242233        4.299889      -73.660912
 H        69.742912        3.397508      -73.480392
 C        71.623367        4.341447      -73.407043
 H        72.112297        3.431114      -73.108643
 C        72.318947        5.463578      -73.812477
 H        73.353828        5.466459      -73.400139
 C        73.684311        8.051828      -74.625473
 C        74.198364        8.271972      -73.322952
 H        73.625229        8.589520      -72.504913
 C        75.595703        8.189034      -73.184563
 H        76.159729        8.355721      -72.250328
 C        76.491913        7.996240      -74.251907
 H        77.542313        8.159296      -74.124359
 C        75.919029        7.934870      -75.584930
 H        76.647247        8.110022      -76.412704
 C        74.533882        7.921155      -75.705727
 H        74.108154        7.471454      -76.557037
 C        70.064644       10.471537      -80.105110
 C        70.100525       11.775312      -79.793686
 N        70.317070        9.760883      -79.005722
 C        70.513123       10.589680      -77.901749
 N        70.432480       11.864012      -78.450356
 C        70.533890       13.052979      -77.564369
 C        70.306305       12.634003      -76.263191
 C        69.971893       13.745045      -75.355247
 H        69.781258       13.547791      -74.282700
 C        69.970337       15.097618      -75.727722
 H        69.792877       15.877476      -74.997498
 C        70.373947       15.439695      -77.027794
 H        70.479324       16.488930      -77.356125
 C        70.645859       14.402752      -77.934341
 H        71.070541       14.585482      -78.930664
 C        69.862434       12.736360      -80.863129
 H        69.926727       13.818983      -80.649612
 C        69.782776       12.295834      -82.177086
 H        69.991783       13.104996      -82.958542
 C        69.709488       10.921593      -82.429047
 H        69.238029       10.581924      -83.360367
 C        69.849113       10.014318      -81.388107
 H        69.771469        8.955649      -81.608551
 C        70.467422        8.346761      -79.017914
 C        71.760147        7.840189      -78.843643
 H        72.645233        8.429680      -78.452591
 C        71.902634        6.455311      -78.826118
 H        72.800095        6.006716      -78.439934
 C        70.825577        5.553048      -79.091370
 H        70.986984        4.491519      -78.771217
 C        69.604004        6.115879      -79.352676
 H        68.731049        5.434451      -79.478386
 C        69.359062        7.492411      -79.288116
 H        68.460861        7.939605      -79.562073
 Ir       70.876633       10.668573      -64.828835
 C        73.028221       12.937777      -61.788048
 C        72.242134       12.049604      -61.091621
 N        72.752045       12.718719      -63.170055
 C        71.793625       11.773260      -63.351311
 N        71.431961       11.390791      -62.040771
 C        70.101135       10.863163      -61.964485
 C        69.651276       10.310434      -63.154907
 C        68.395981        9.681694      -63.140862
 H        68.126427        8.814163      -63.832397
 C        67.538574        9.751650      -62.053398
 H        66.768982        9.066847      -61.956612
 C        67.928444       10.390453      -60.882790
 H        67.165443       10.759287      -60.185665
 C        69.207291       10.978800      -60.850861
 H        69.609558       11.404545      -59.921600
 C        72.256027       12.011894      -59.687843
 H        72.140945       11.028666      -59.285702
 C        72.979317       13.023361      -58.997711
 H        73.039276       12.980934      -57.930470
 C        73.771927       13.853045      -59.735809
 H        74.444000       14.562887      -59.297470
 C        73.819267       13.855650      -61.119125
 H        74.235306       14.678129      -61.646889
 C        73.607597       13.224482      -64.168373
 C        74.686905       12.505482      -64.780441
 H        74.995987       11.540861      -64.496399
 C        75.384796       13.178108      -65.792877
 H        75.982483       12.713766      -66.530609
 C        75.022156       14.482830      -66.183510
 H        75.603767       14.946285      -67.030937
 C        73.957481       15.138882      -65.586380
 H        73.499611       15.903564      -66.217819
 C        73.265533       14.495499      -64.570869
 H        72.490067       15.111414      -64.150505
 C        72.571732        6.746830      -64.074394
 C        71.791267        6.567653      -65.154564
 N        72.507324        8.141141      -63.747368
 C        71.569405        8.765520      -64.458611
 N        71.156860        7.796362      -65.370667
 C        70.220016        8.151423      -66.351662
 C        69.710426        9.463919      -66.142670
 C        68.730911       10.016172      -66.965569
 H        68.291313       10.978819      -66.686531
 C        68.187233        9.252043      -68.013153
 H        67.304810        9.593408      -68.481651
 C        68.758423        7.992747      -68.359161
 H        68.260849        7.438046      -69.146332
 C        69.713943        7.456930      -67.548691
 H        69.905762        6.401834      -67.640762
 C        71.736710        5.256104      -65.745972
 H        71.070847        5.151536      -66.586563
 C        72.460800        4.203117      -65.325729
 H        72.292313        3.186817      -65.773438
 C        73.214653        4.365858      -64.135460
 H        73.374252        3.572247      -63.433319
 C        73.333862        5.702192      -63.611916
 H        74.140625        5.821796      -62.991158
 C        73.576233        8.744781      -62.968243
 C        74.708496        9.227357      -63.597931
 H        75.083626        8.764731      -64.507301
 C        75.649200        9.785887      -62.727562
 H        76.621536        9.982134      -63.057178
 C        75.506073        9.895544      -61.348835
 H        76.295418       10.332122      -60.782154
 C        74.327660        9.409081      -60.788116
 H        74.128082        9.279236      -59.753994
 C        73.368210        8.804869      -61.578094
 H        72.623833        8.343130      -61.017731
 C        73.393448       11.707943      -68.255074
 C        72.631020       12.788456      -67.985634
 N        72.954849       10.691584      -67.401123
 C        71.914230       11.224222      -66.555016
 N        71.687408       12.477401      -67.010422
 C        70.399994       12.930456      -66.686386
 C        69.937363       12.499818      -65.405640
 C        68.914749       13.294573      -64.843033
 H        68.329437       12.879030      -64.053825
 C        68.408112       14.471483      -65.398369
 H        67.501434       14.848150      -64.888321
 C        68.857834       14.907410      -66.606979
 H        68.456100       15.702993      -67.153015
 C        69.832230       14.120745      -67.250885
 H        70.101212       14.321886      -68.316620
 C        72.978134       14.055210      -68.605423
 H        72.472092       14.982494      -68.349548
 C        74.058228       14.162640      -69.566231
 H        74.135414       15.068453      -70.134422
 C        74.799026       13.021406      -69.801834
 H        75.590103       13.125519      -70.563248
 C        74.446579       11.795874      -69.173538
 H        75.029137       10.909241      -69.378502
 C        72.994507        9.329319      -67.887390
 C        73.939972        8.467094      -67.465065
 H        74.534180        8.713997      -66.571503
 C        74.176422        7.284186      -68.085884
 H        75.087234        6.738680      -67.974350
 C        73.312332        6.919792      -69.096756
 H        73.417198        6.033533      -69.650604
 C        72.357506        7.735505      -69.546463
 H        71.874901        7.586914      -70.517334
 C        72.239433        8.983020      -68.988190
 H        71.558563        9.665829      -69.386040
