206
 generated by VMD
 Ir      -38.829163       69.402695     -145.725220
 C       -36.705963       65.696030     -145.542877
 C       -38.094532       65.324318     -145.430573
 N       -36.617817       66.955368     -146.157135
 C       -37.925697       67.565979     -146.185654
 N       -38.781590       66.463257     -145.867447
 C       -40.120514       66.829254     -146.167831
 C       -40.504158       68.126907     -145.771301
 C       -41.852509       68.417221     -145.625839
 H       -42.225708       69.436172     -145.441025
 C       -42.874710       67.519287     -146.027985
 H       -43.853455       67.988815     -146.109161
 C       -42.498787       66.328621     -146.651215
 H       -43.214981       65.609612     -146.943619
 C       -41.119919       65.911980     -146.654861
 H       -40.982178       64.852165     -146.878281
 C       -38.339424       64.111320     -144.854843
 H       -39.415741       63.836296     -144.835022
 C       -37.360302       63.340385     -144.203079
 H       -37.616852       62.362740     -143.688812
 C       -36.006187       63.692616     -144.201233
 H       -35.185646       63.019402     -143.978317
 C       -35.710464       64.864456     -144.903534
 H       -34.676598       65.294846     -144.997253
 C       -35.567799       67.202393     -147.105881
 C       -35.309055       66.266930     -148.059021
 H       -36.003277       65.457939     -148.164825
 C       -34.310326       66.499428     -148.972305
 H       -34.198921       65.918259     -149.917313
 C       -33.480583       67.613815     -148.858444
 H       -32.781036       67.722992     -149.733276
 C       -33.767303       68.612320     -147.863571
 H       -33.139229       69.484436     -147.734558
 C       -34.772789       68.365311     -146.968826
 H       -34.937912       69.077682     -146.171799
 C       -40.186832       71.007278     -149.579346
 C       -40.730122       71.851013     -148.666412
 N       -39.498066       70.008743     -148.907776
 C       -39.567780       70.130951     -147.526611
 N       -40.335876       71.368851     -147.434113
 C       -40.579227       71.775085     -146.066498
 C       -39.927086       71.067276     -145.075165
 C       -40.096397       71.427322     -143.698364
 H       -39.495949       70.964783     -142.918152
 C       -40.900284       72.478165     -143.311356
 H       -40.985111       72.787567     -142.292603
 C       -41.647911       73.144897     -144.316605
 H       -42.599220       73.686897     -144.167786
 C       -41.439247       72.828415     -145.660965
 H       -41.696865       73.576645     -146.417725
 C       -41.574211       72.830078     -149.077225
 H       -41.941296       73.642357     -148.446716
 C       -42.006298       73.011658     -150.405548
 H       -42.634636       73.852058     -150.716232
 C       -41.440994       72.119392     -151.326248
 H       -41.862480       72.104095     -152.282928
 C       -40.509697       71.149902     -150.895370
 H       -39.886551       70.669647     -151.625824
 C       -38.992554       68.905426     -149.722229
 C       -39.770714       67.737473     -149.715790
 H       -40.805923       67.687798     -149.558395
 C       -39.191875       66.599716     -150.184677
 H       -39.626846       65.690445     -149.869354
 C       -37.873039       66.629990     -150.678497
 H       -37.547951       65.754654     -151.265869
 C       -37.168526       67.858810     -150.797501
 H       -36.234467       67.855728     -151.362320
 C       -37.716286       69.008606     -150.290039
 H       -37.268845       69.985519     -150.387711
 C       -35.176697       71.727997     -145.344788
 C       -35.287540       71.076744     -144.114182
 N       -36.391399       71.553391     -146.022293
 C       -37.214832       70.629669     -145.327377
 N       -36.516392       70.377518     -144.116425
 C       -37.124229       69.465393     -143.217834
 C       -38.368992       68.924393     -143.699799
 C       -38.982529       67.959068     -142.935516
 H       -39.999313       67.730461     -143.281342
 C       -38.450970       67.457336     -141.732544
 H       -38.842407       66.627762     -141.161011
 C       -37.262222       68.083298     -141.231979
 H       -36.859329       67.647537     -140.303589
 C       -36.615356       69.065536     -141.994705
 H       -35.910473       69.718872     -141.517212
 C       -34.368004       71.314468     -143.135681
 H       -34.248474       70.830551     -142.168762
 C       -33.309532       72.222702     -143.299820
 H       -32.643257       72.545883     -142.517181
 C       -33.172905       72.847244     -144.535095
 H       -32.488781       73.675934     -144.683868
 C       -34.079720       72.609589     -145.593826
 H       -33.779404       73.051605     -146.486755
 C       -36.805794       72.348404     -147.206390
 C       -37.620838       73.457710     -147.023010
 H       -37.679260       73.919922     -146.047272
 C       -38.107971       74.150848     -148.111557
 H       -38.731426       74.973724     -147.951660
 C       -37.779259       73.763802     -149.395844
 H       -38.464279       73.962097     -150.180969
 C       -36.786579       72.831314     -149.588303
 H       -36.502502       72.635674     -150.650146
 C       -36.316002       72.075119     -148.487457
 H       -35.515751       71.358719     -148.644180
 Ir      -38.829163       69.402695     -135.084457
 C       -41.834068       72.118103     -136.952850
 C       -41.021538       71.662163     -137.954865
 N       -41.238483       71.630829     -135.735992
 C       -40.105000       70.768616     -136.045670
 N       -40.016247       70.879189     -137.411133
 C       -38.653336       70.579468     -137.829727
 C       -37.880592       69.939438     -136.881546
 C       -36.504833       69.722031     -137.185867
 H       -35.864143       69.140762     -136.553925
 C       -35.965313       70.227097     -138.361115
 H       -34.971146       70.092453     -138.461639
 C       -36.694862       70.973732     -139.273697
 H       -36.158115       71.609207     -139.945770
 C       -38.031780       71.137802     -139.028076
 H       -38.659206       71.309464     -139.921249
 C       -41.419174       71.863091     -139.267731
 H       -40.983177       71.363800     -140.087677
 C       -42.579895       72.544189     -139.615601
 H       -42.849083       72.788239     -140.615189
 C       -43.349236       73.106750     -138.577972
 H       -44.251144       73.673424     -138.855011
 C       -42.995461       72.852478     -137.223511
 H       -43.666512       73.051346     -136.389999
 C       -41.809460       71.921188     -134.444107
 C       -42.553688       70.907715     -133.826447
 H       -42.788795       70.059830     -134.409134
 C       -42.797150       70.957397     -132.433014
 H       -43.457886       70.247131     -131.953903
 C       -42.208557       71.935532     -131.649628
 H       -42.386620       71.934494     -130.526291
 C       -41.312149       72.851730     -132.219574
 H       -40.687031       73.456459     -131.561584
 C       -41.166256       72.879845     -133.654572
 H       -40.530972       73.590179     -134.167633
 C       -39.911438       66.021080     -137.441360
 C       -38.805412       65.550659     -136.736816
 N       -40.242382       67.267639     -136.975464
 C       -39.337265       67.638840     -136.047729
 N       -38.465218       66.596954     -135.873077
 C       -37.296337       66.919479     -135.116699
 C       -37.281525       68.128960     -134.456451
 C       -36.186672       68.497604     -133.644470
 H       -36.170673       69.202454     -132.853638
 C       -35.097694       67.634941     -133.511292
 H       -34.351593       67.773788     -132.818359
 C       -35.103497       66.444794     -134.125229
 H       -34.318462       65.790771     -133.672379
 C       -36.171379       66.093155     -134.992737
 H       -36.234875       65.121132     -135.395035
 C       -38.240906       64.313133     -136.906448
 H       -37.758076       63.775578     -136.132492
 C       -38.756943       63.587490     -138.005890
 H       -38.435387       62.580872     -138.311035
 C       -39.865677       63.997276     -138.699707
 H       -40.287949       63.404591     -139.527420
 C       -40.458664       65.200790     -138.449860
 H       -41.327145       65.593048     -138.958557
 C       -41.371201       68.031281     -137.426636
 C       -41.484901       68.418655     -138.816452
 H       -40.630909       68.435211     -139.486176
 C       -42.673000       69.068375     -139.264648
 H       -42.831276       69.140129     -140.315369
 C       -43.748974       69.272644     -138.428024
 H       -44.685188       69.669861     -138.953674
 C       -43.581333       68.919205     -137.084457
 H       -44.280380       69.455429     -136.429550
 C       -42.431740       68.296112     -136.551361
 H       -42.272846       68.129784     -135.513092
 C       -40.183006       68.497704     -131.016418
 C       -39.431919       69.566116     -130.902603
 N       -40.307701       68.244720     -132.337524
 C       -39.578236       69.144424     -133.135849
 N       -39.039577       70.001205     -132.212173
 C       -38.241348       71.089630     -132.681610
 C       -37.940285       71.013168     -134.053482
 C       -37.255795       72.130997     -134.655579
 H       -37.049240       72.165810     -135.664703
 C       -36.809986       73.240341     -133.912140
 H       -36.377388       74.062561     -134.449753
 C       -37.176979       73.270844     -132.555756
 H       -36.742050       74.096603     -131.963867
 C       -37.880840       72.220947     -131.956665
 H       -38.388721       72.414612     -131.027496
 C       -39.327721       70.158737     -129.624298
 H       -39.073654       71.198624     -129.414825
 C       -39.834419       69.573608     -128.473831
 H       -39.389286       69.913872     -127.510620
 C       -40.621212       68.400986     -128.617065
 H       -41.075340       67.956787     -127.747284
 C       -40.778439       67.886017     -129.861328
 H       -41.496246       67.067322     -129.934738
 C       -41.067482       67.130630     -132.795486
 C       -40.305939       66.043579     -133.295181
 H       -39.188572       66.228699     -133.216339
 C       -41.003578       64.953789     -133.870377
 H       -40.475227       64.104645     -134.277191
 C       -42.368675       65.057724     -134.036819
 H       -42.875488       64.200287     -134.415802
 C       -43.068745       66.222496     -133.706787
 H       -43.906212       66.585709     -134.306549
 C       -42.406349       67.263687     -133.005096
 H       -42.958000       68.035179     -132.539719
