206
 generated by VMD
  IR        17.170000       40.900002        1.740000
  C1        14.770000       43.439999        4.360000
  C2        14.480000       42.130001        4.710000
  N1        15.680000       43.299999        3.280000
  C3a       15.920000       41.970001        2.960000
  N2        15.140000       41.250000        3.800000
  C4        15.150000       39.869999        3.610000
  C5a       15.690000       39.500000        2.370000
  C6        15.580000       38.160000        2.040000
  H1        15.980000       37.790001        1.110000
  C7        15.060000       37.169998        2.900000
  H2        15.020000       36.139999        2.640000
  C8        14.480000       37.570000        4.090000
  H3        14.160000       36.799999        4.860000
  C9        14.530000       38.869999        4.450000
  H4        14.350000       39.099998        5.510000
  C10       13.580000       41.900002        5.780000
  H5        13.390000       40.869999        6.070000
  C11       13.250000       42.990002        6.610000
  H6        12.880000       42.759998        7.590000
  C12       13.600000       44.299999        6.340000
  H7        13.550000       45.119999        7.100000
  C13       14.310000       44.549999        5.160000
  H8        14.590000       45.570000        4.960000
  C6        16.020000       44.400002        2.420000
  C1        15.140000       44.810001        1.420000
  H1        14.220000       44.369999        1.430000
  C2        15.390000       46.020000        0.740000
  H2        14.730000       46.349998       -0.080000
  C3        16.559999       46.750000        1.050000
  H3        16.830000       47.700001        0.520000
  C4        17.469999       46.259998        2.010000
  H4        18.389999       46.700001        2.240000
  C5        17.180000       45.099998        2.760000
  H5        17.680000       44.810001        3.670000
  C1        19.639999       38.990002        4.760000
  C2        19.940001       38.270000        3.620000
  N1        18.690001       40.000000        4.480000
  C3b       18.379999       39.930000        3.140000
  N2        19.209999       38.939999        2.580000
  C4        19.080000       38.630001        1.130000
  C5b       18.170000       39.450001        0.440000
  C6        18.059999       39.380001       -0.970000
  H1        17.389999       40.020000       -1.430000
  C7        18.900000       38.540001       -1.710000
  H2        19.020000       38.720001       -2.770000
  C8        19.799999       37.720001       -1.070000
  H3        20.540001       37.230000       -1.790000
  C9        19.940001       37.730000        0.330000
  H4        20.430000       36.959999        0.880000
  C10       20.959999       37.250000        3.730000
  H5        20.990000       36.369999        3.070000
  C11       21.469999       36.869999        4.920000
  H6        21.900000       35.880001        4.980000
  C12       21.180000       37.570000        6.110000
  H7        21.770000       37.320000        6.980000
  C13       20.180000       38.630001        6.040000
  H8        19.709999       39.160000        6.890000
  C6        17.820000       40.470001        5.480000
  C1        17.900000       41.830002        5.880000
  H1        18.450001       42.549999        5.320000
  C2        17.230000       42.240002        6.960000
  H2        16.920000       43.279999        7.000000
  C3        16.510000       41.270000        7.740000
  H3        15.740000       41.540001        8.470000
  C4        16.459999       39.900002        7.330000
  H4        16.010000       39.099998        8.000000
  C5        17.090000       39.560001        6.190000
  H5        16.770000       38.630001        5.700000
  C1        19.780001       43.630001       -0.350000
  C2        18.520000       43.950001       -0.870000
  N1        19.650000       42.599998        0.620000
  C3c       18.309999       42.240002        0.710000
  N2        17.639999       43.020000       -0.190000
  C4        16.309999       42.560001       -0.530000
  C5c       15.790000       41.520000        0.230000
  C6        14.540000       40.990002        0.000000
  H1        14.380000       39.939999        0.240000
  C7        13.590000       41.590000       -0.840000
  H2        12.570000       41.110001       -0.890000
  C8        14.020000       42.770000       -1.530000
  H3        13.350000       43.139999       -2.320000
  C9        15.390000       43.240002       -1.390000
  H4        15.650000       44.200001       -1.780000
  C10       18.410000       44.919998       -1.850000
  H5        17.530001       45.259998       -2.350000
  C11       19.500000       45.540001       -2.390000
  H6        19.410000       46.130001       -3.230000
  C12       20.790001       45.330002       -1.860000
  H7        21.580000       46.110001       -2.050000
  C13       20.930000       44.330002       -0.830000
  H8        21.930000       43.980000       -0.550000
  C6        20.650000       42.080002        1.470000
  C1        20.760000       42.500000        2.800000
  H1        19.820000       42.889999        3.250000
  C2        21.910000       42.150002        3.450000
  H2        21.879999       42.520000        4.480000
  C3        22.959999       41.330002        3.010000
  H3        23.889999       41.220001        3.530000
  C4        22.809999       40.930000        1.700000
  H4        23.690001       40.700001        1.140000
  C5        21.680000       41.250000        0.950000
  H5        21.620001       40.889999       -0.080000
  IR         8.920000       37.650002        7.680000
  C1         4.860000       37.169998        5.980000
  C2         4.880000       36.340000        7.070000
  N1         6.150000       37.730000        5.840000
  C3a        7.010000       37.250000        6.870000
  N2         6.190000       36.439999        7.580000
  C4         6.870000       35.680000        8.660000
  C5a        8.190000       36.080002        8.880000
  C6         8.990000       35.299999        9.720000
  H1        10.060000       35.570000        9.940000
  C7         8.500000       34.209999       10.460000
  H2         8.950000       33.869999       11.390000
  C8         7.200000       33.849998       10.180000
  H3         6.690000       33.099998       10.700000
  C9         6.420000       34.590000        9.300000
  H4         5.390000       34.490002        9.270000
  C10        3.690000       35.660000        7.410000
  H5         3.760000       34.939999        8.150000
  C11        2.500000       35.779999        6.670000
  H6         1.670000       35.220001        7.040000
  C12        2.540000       36.590000        5.500000
  H7         1.650000       37.000000        5.080000
  C13        3.750000       37.310001        5.200000
  H8         3.890000       37.939999        4.330000
  C6         6.410000       38.650002        4.760000
  C1         7.390000       38.330002        3.810000
  H1         7.860000       37.330002        3.960000
  C2         7.710000       39.209999        2.790000
  H2         8.500000       38.849998        2.120000
  C3         7.050000       40.470001        2.710000
  H3         7.290000       41.209999        2.020000
  C4         6.010000       40.720001        3.660000
  H4         5.820000       41.770000        3.730000
  C5         5.730000       39.810001        4.640000
  H5         4.900000       40.049999        5.290000
  C1         7.820000       40.509998       10.780000
  C2         9.170000       40.369999       10.900000
  N1         7.410000       39.570000        9.740000
  C3b        8.510000       38.950001        9.230000
  N2         9.570000       39.389999        9.880000
  C4        10.790000       38.869999        9.510000
  C5b       10.750000       37.799999        8.600000
  C6        11.950000       37.070000        8.320000
  H1        11.860000       36.080002        7.840000
  C7        13.160000       37.419998        8.900000
  H2        14.050000       37.000000        8.480000
  C8        13.140000       38.459999        9.880000
  H3        14.020000       38.720001       10.380000
  C9        11.990000       39.169998       10.160000
  H4        12.040000       40.200001       10.540000
  C10        9.860000       41.049999       11.960000
  H5        10.890000       40.830002       12.130000
  C11        9.180000       41.950001       12.820000
  H6         9.680000       42.270000       13.720000
  C12        7.810000       41.900002       12.810000
  H7         7.270000       42.520000       13.460000
  C13        7.110000       41.160000       11.810000
  H8         6.070000       40.930000       12.000000
  C6         6.070000       39.240002        9.480000
  C1         5.350000       40.099998        8.650000
  H1         5.850000       40.759998        7.910000
  C2         3.970000       40.090000        8.670000
  H2         3.420000       40.750000        7.990000
  C3         3.240000       39.259998        9.520000
  H3         2.180000       39.509998        9.590000
  C4         3.890000       38.380001       10.320000
  H4         3.390000       37.759998       10.980000
  C5         5.300000       38.380001       10.330000
  H5         5.820000       37.860001       11.140000
  C1        10.170000       40.520000        4.620000
  C2        10.700000       39.270000        4.130000
  N1         9.600000       40.209999        5.870000
  C3c        9.640000       38.869999        6.130000
  N2        10.370000       38.270000        5.140000
  C4        10.590000       36.869999        5.330000
  C5c        9.690000       36.240002        6.250000
  C6         9.560000       34.849998        6.260000
  H1         8.880000       34.330002        6.950000
  C7        10.490000       34.110001        5.550000
  H2        10.550000       33.070000        5.700000
  C8        11.440000       34.730000        4.790000
  H3        12.290000       34.119999        4.450000
  C9        11.570000       36.090000        4.640000
  H4        12.110000       36.509998        3.810000
  C10       11.440000       39.330002        2.960000
  H5        11.960000       38.490002        2.440000
  C11       11.690000       40.509998        2.280000
  H6        12.400000       40.490002        1.480000
  C12       11.050000       41.700001        2.690000
  H7        11.050000       42.619999        2.080000
  C13       10.290000       41.700001        3.870000
  H8        10.130000       42.590000        4.420000
  C6         9.260000       41.279999        6.800000
  C1        10.190000       41.570000        7.730000
  H1        11.130000       41.130001        7.670000
  C2        10.030000       42.669998        8.590000
  H2        10.450000       42.529999        9.560000
  C3         8.930000       43.439999        8.480000
  H3         8.750000       44.340000        9.080000
  C4         7.960000       43.139999        7.490000
  H4         7.070000       43.730000        7.350000
  C5         8.140000       42.080002        6.660000
  H5         7.490000       41.919998        5.850000
