206
 generated by VMD
 Ir       14.275480     -127.028275       68.543449
 C        15.448593     -126.898849       64.372841
 C        16.051626     -125.796623       64.961700
 N        14.596531     -127.436501       65.364319
 C        14.675566     -126.735840       66.540596
 N        15.581608     -125.704979       66.296875
 C        15.867434     -124.812759       67.386292
 C        15.327183     -125.179893       68.623528
 C        15.712423     -124.402534       69.772316
 H        15.103754     -124.288612       70.658401
 C        16.619951     -123.292679       69.620010
 H        16.704445     -122.527275       70.433960
 C        17.138998     -122.968964       68.374695
 H        17.750719     -122.189430       68.174629
 C        16.697126     -123.693428       67.288322
 H        16.930857     -123.228928       66.356979
 C        16.990271     -125.116089       64.212891
 H        17.323256     -124.177780       64.559448
 C        17.320940     -125.522667       62.905998
 H        18.046152     -124.983955       62.316032
 C        16.696707     -126.657593       62.375290
 H        17.008369     -126.944527       61.416000
 C        15.754742     -127.329338       63.060760
 H        15.327698     -128.320145       62.822357
 C        13.473669     -128.311676       65.067909
 C        12.248281     -127.710091       64.926743
 H        12.190176     -126.669159       65.030167
 C        11.125036     -128.436462       64.524712
 H        10.204912     -128.010468       64.674721
 C        11.260902     -129.826080       64.234573
 H        10.391397     -130.422180       64.075752
 C        12.535503     -130.436462       64.491928
 H        12.637892     -131.503204       64.336807
 C        13.665264     -129.695938       64.875061
 H        14.621822     -130.243958       65.037750
 C        18.132881     -128.439545       69.842590
 C        17.462420     -128.133286       71.020721
 N        17.277527     -128.205139       68.797394
 C        16.069918     -127.772736       69.197029
 N        16.196430     -127.724327       70.610199
 C        15.035681     -127.314209       71.353210
 C        13.886068     -126.970474       70.616493
 C        12.696762     -126.638107       71.159157
 H        11.983334     -126.085220       70.480751
 C        12.524569     -126.728081       72.540329
 H        11.627419     -126.278755       72.974991
 C        13.634794     -127.036232       73.337730
 H        13.611067     -126.900696       74.404587
 C        14.900179     -127.318588       72.821716
 H        15.632433     -127.891647       73.311615
 C        18.209099     -128.110229       72.279465
 H        17.827736     -127.795280       73.246292
 C        19.582989     -128.468323       72.331421
 H        20.095016     -128.691345       73.250923
 C        20.282019     -128.728958       71.154968
 H        21.351366     -128.848816       71.047562
 C        19.537764     -128.734711       69.920609
 H        20.161972     -128.842041       69.007782
 C        17.748611     -128.400940       67.474548
 C        18.762344     -127.562401       66.991623
 H        18.887304     -126.633469       67.439362
 C        19.277195     -127.896011       65.749962
 H        20.104706     -127.285858       65.349281
 C        18.785545     -129.002075       65.037903
 H        19.186705     -129.034790       63.987663
 C        17.774199     -129.809143       65.518753
 H        17.384295     -130.616882       64.917007
 C        17.225033     -129.518951       66.737236
 H        16.363630     -130.000076       67.127617
 C        11.703993     -130.592758       68.405663
 C        10.896997     -129.570007       68.046883
 N        13.070869     -130.031372       68.609383
 C        13.036480     -128.654770       68.480316
 N        11.694662     -128.380737       68.201859
 C        11.343332     -127.027939       68.215561
 C        12.405285     -126.090233       68.088089
 C        12.152109     -124.720215       67.751686
 H        12.971436     -124.093040       67.503792
 C        10.835367     -124.313736       67.438210
 H        10.625618     -123.271576       67.289246
 C         9.732458     -125.255859       67.548279
 H         8.842125     -125.048691       67.063202
 C         9.952803     -126.590286       67.952911
 H         9.213175     -127.296753       68.343506
 C         9.659861     -129.956848       67.505356
 H         9.051760     -129.252945       66.828201
 C         9.089420     -131.252151       67.497414
 H         8.148520     -131.493057       67.003281
 C         9.917101     -132.343475       67.997154
 H         9.598387     -133.332001       68.353363
 C        11.233650     -131.958267       68.363770
 H        11.895937     -132.793198       68.464142
 C        14.201738     -130.833038       68.885597
 C        14.571365     -131.740173       67.889221
 H        14.060665     -131.738373       66.942078
 C        15.639267     -132.602554       68.087677
 H        16.060011     -133.256348       67.378006
 C        16.395353     -132.400467       69.325005
 H        17.325823     -133.012375       69.404404
 C        15.991367     -131.511871       70.337967
 H        16.449739     -131.545441       71.370285
 C        14.882641     -130.717773       70.069016
 H        14.643181     -130.145187       70.912643
 Ir       14.275478     -127.028275       83.522034
 C        14.739323     -124.021843       80.430817
 C        13.967812     -124.900940       79.802841
 N        15.075966     -124.525742       81.661530
 C        14.443819     -125.667755       81.932312
 N        13.746143     -125.964233       80.776688
 C        13.004333     -127.190582       80.798355
 C        13.439178     -128.026825       81.824608
 C        13.113808     -129.383270       81.749550
 H        13.565266     -130.003098       82.509743
 C        12.342222     -129.930786       80.750809
 H        12.035664     -130.918442       80.699158
 C        11.858967     -129.051407       79.793091
 H        11.058527     -129.452515       79.296181
 C        12.145847     -127.706932       79.835350
 H        11.805637     -127.016335       79.071259
 C        13.531164     -124.733398       78.513275
 H        13.323996     -125.561340       77.911789
 C        13.779631     -123.511444       77.953201
 H        13.531628     -123.401466       76.923637
 C        14.553440     -122.561852       78.592422
 H        14.610016     -121.594391       78.145988
 C        15.013969     -122.785736       79.874489
 H        15.649162     -122.120575       80.475159
 C        15.922401     -123.767441       82.568787
 C        15.332958     -123.090866       83.623589
 H        14.630739     -123.649094       84.233322
 C        15.805498     -121.897690       84.140343
 H        15.119862     -121.169006       84.523781
 C        17.008493     -121.422012       83.625526
 H        17.493990     -120.539757       83.972099
 C        17.691431     -122.133194       82.635216
 H        18.693201     -121.751816       82.387833
 C        17.169718     -123.321022       82.094948
 H        17.680637     -123.675949       81.201035
 C        10.319578     -126.201973       84.957161
 C        10.682198     -127.384727       85.609085
 N        11.372133     -125.914520       84.016739
 C        12.349226     -126.842026       84.135109
 N        12.011620     -127.721207       85.116928
 C        12.960306     -128.718811       85.538086
 C        14.183840     -128.644058       84.846512
 C        15.121750     -129.596039       85.224052
 H        16.149721     -129.578766       84.834724
 C        14.890970     -130.623474       86.152832
 H        15.574423     -131.422241       86.102386
 C        13.672247     -130.649445       86.866730
 H        13.442671     -131.530945       87.503105
 C        12.722748     -129.632629       86.591949
 H        12.039238     -129.415497       87.317886
 C         9.773054     -128.059906       86.424988
 H        10.088865     -128.838303       87.130791
 C         8.406439     -127.660599       86.379951
 H         7.715311     -128.449219       86.688698
 C         8.024145     -126.456421       85.837814
 H         7.114656     -126.012169       86.084534
 C         9.003490     -125.654427       85.146378
 H         8.579384     -124.767380       84.759735
 C        11.459070     -124.650383       83.332039
 C        11.850023     -123.557808       84.158020
 H        12.024284     -123.661469       85.198639
 C        11.824718     -122.256470       83.716461
 H        12.128576     -121.440201       84.300217
 C        11.431417     -122.063766       82.376022
 H        11.501062     -121.082146       81.918236
 C        10.979794     -123.135880       81.549751
 H        10.735197     -123.084435       80.503983
 C        10.924072     -124.461411       82.061661
 H        10.428278     -125.182617       81.445908
 C        16.626545     -125.779228       87.003212
 C        17.563223     -126.370872       86.189896
 N        15.394892     -125.726524       86.337738
 C        15.472628     -126.218307       85.038582
 N        16.857208     -126.615135       84.948814
 C        17.232328     -127.104149       83.696037
 C        16.215967     -127.700356       82.883362
 C        16.642265     -128.339142       81.731827
 H        16.015209     -128.985748       81.084366
 C        17.959921     -128.197327       81.249886
 H        18.392160     -128.866241       80.516998
 C        18.898884     -127.451363       81.931122
 H        19.657598     -126.871429       81.378281
 C        18.547562     -126.979660       83.189713
 H        19.252748     -126.463028       83.835548
 C        18.845724     -126.481537       86.612564
 H        19.568533     -127.019897       86.024673
 C        19.256216     -125.985168       87.818893
 H        20.274111     -125.795334       87.915077
 C        18.358702     -125.315483       88.704147
 H        18.587538     -125.281334       89.776840
 C        17.009953     -125.249481       88.299271
 H        16.360035     -124.705475       88.863602
 C        14.236444     -124.921227       86.906586
 C        13.104807     -125.434685       87.412415
 H        12.931854     -126.472740       87.231491
 C        12.137941     -124.579086       88.000305
 H        11.258446     -125.030952       88.379913
 C        12.350315     -123.255356       88.027802
 H        11.605120     -122.624519       88.449722
 C        13.523634     -122.696289       87.538757
 H        13.583258     -121.577713       87.460495
 C        14.542868     -123.523575       86.958359
 H        15.461956     -123.178055       86.650330
