206
 generated by VMD
 Ir        0.777994       -0.117702       -6.877869
 C         1.270689       -2.406128       -3.184566
 C         2.547786       -2.219501       -3.643681
 N         0.393886       -1.830078       -4.131084
 C         1.094766       -1.269562       -5.186157
 N         2.425993       -1.526150       -4.884659
 C         3.380216       -1.080776       -5.850529
 C         2.891567       -0.108097       -6.730537
 C         3.788660        0.522800       -7.606319
 H         3.459530        1.339474       -8.219280
 C         5.132872        0.136311       -7.658455
 H         5.777670        0.567501       -8.402840
 C         5.607145       -0.867764       -6.805050
 H         6.634628       -1.186180       -6.864132
 C         4.727905       -1.476307       -5.905151
 H         5.066986       -2.347694       -5.360802
 C         3.634186       -2.707623       -2.884090
 H         4.652493       -2.509987       -3.182560
 C         3.405496       -3.390926       -1.687386
 H         4.236437       -3.801022       -1.126175
 C         2.098577       -3.577076       -1.231522
 H         1.910137       -4.121536       -0.321877
 C         1.027694       -3.075634       -1.977623
 H         0.025770       -3.210003       -1.604801
 C        -1.039868       -1.987713       -4.076340
 C        -1.600733       -3.274715       -4.043816
 H        -0.963950       -4.135765       -4.044598
 C        -2.991499       -3.428551       -3.982956
 H        -3.414018       -4.417816       -3.914177
 C        -3.822212       -2.300144       -3.978630
 H        -4.893965       -2.433121       -3.949348
 C        -3.265216       -1.026463       -4.008392
 H        -3.909770       -0.152092       -4.026642
 C        -1.877929       -0.863583       -4.066757
 H        -1.462947        0.110920       -4.253113
 C         0.978081        3.912685       -5.164127
 C         0.992687        4.127972       -6.527336
 N         0.883260        2.525738       -4.960979
 C         0.854971        1.826847       -6.158203
 N         0.936540        2.833172       -7.126629
 C         0.954117        2.386349       -8.491962
 C         0.756881        1.009830       -8.670525
 C         0.513977        0.519302       -9.960094
 H         0.312202       -0.534725      -10.110817
 C         0.453216        1.374386      -11.060295
 H         0.197653        0.990925      -12.033348
 C         0.688759        2.736626      -10.896851
 H         0.634159        3.402435      -11.743210
 C         0.950233        3.249023       -9.620575
 H         1.303289        4.259258       -9.541252
 C         1.052234        5.454010       -7.000381
 H         1.015445        5.683136       -8.043953
 C         1.099426        6.527290       -6.099529
 H         1.169529        7.541313       -6.469448
 C         1.079420        6.294411       -4.720158
 H         1.124389        7.116425       -4.026779
 C         1.020708        4.974461       -4.260006
 H         1.018440        4.800041       -3.188480
 C         0.693887        1.968487       -3.644836
 C         1.780483        1.367142       -2.996067
 H         2.697296        1.169979       -3.529339
 C         1.664377        1.005859       -1.646297
 H         2.513822        0.572445       -1.135216
 C         0.469034        1.250187       -0.950554
 H         0.421045        1.040577        0.104507
 C        -0.610600        1.833454       -1.604309
 H        -1.543318        1.994946       -1.084255
 C        -0.497977        2.203777       -2.951595
 H        -1.325306        2.695217       -3.441605
 C        -3.494456       -0.687290       -7.607418
 C        -2.950491       -1.946465       -7.738525
 N        -2.440670        0.205818       -7.328690
 C        -1.224923       -0.454613       -7.288876
 N        -1.550857       -1.785461       -7.572075
 C        -0.434412       -2.631901       -7.879303
 C         0.791113       -1.942924       -7.944866
 C         1.867136       -2.520664       -8.641281
 H         2.794073       -1.974331       -8.726768
 C         1.742836       -3.760754       -9.253281
 H         2.569340       -4.171471       -9.820286
 C         0.530899       -4.463043       -9.160557
 H         0.395097       -5.362553       -9.739723
 C        -0.537744       -3.920975       -8.444824
 H        -1.352892       -4.565289       -8.168797
 C        -3.802540       -3.035103       -7.989487
 H        -3.429521       -4.044033       -8.022831
 C        -5.185805       -2.842697       -8.130760
 H        -5.822474       -3.679752       -8.351421
 C        -5.720499       -1.552608       -8.018581
 H        -6.764299       -1.375973       -8.230671
 C        -4.871511       -0.472530       -7.740841
 H        -5.292105        0.519772       -7.673439
 C        -2.583919        1.624214       -7.496704
 C        -2.592751        2.162956       -8.781647
 H        -2.543079        1.511658       -9.641155
 C        -2.641930        3.552792       -8.955513
 H        -2.687132        3.966007       -9.956169
 C        -2.665623        4.399136       -7.844048
 H        -2.709464        5.469906       -7.984837
 C        -2.656791        3.860394       -6.559109
 H        -2.675948        4.509399       -5.696846
 C        -2.618446        2.475315       -6.377495
 H        -2.629400        2.054024       -5.385830
 Ir        0.777992       -0.117702        7.055504
 C        -3.340616        1.241692        7.482498
 C        -2.636730        2.009861        8.368317
 N        -2.458309        0.277691        6.961639
 C        -1.180119        0.440666        7.473259
 N        -1.315708        1.503510        8.357376
 C        -0.114746        1.950958        8.973473
 C         1.036487        1.597134        8.260117
 C         2.222959        2.298153        8.529953
 H         3.124704        2.071396        7.970581
 C         2.264505        3.298092        9.496330
 H         3.165062        3.874432        9.626495
 C         1.127731        3.604733       10.248535
 H         1.153021        4.382999       10.992897
 C        -0.063051        2.906670        9.994080
 H        -0.863467        2.978745       10.702278
 C        -3.286770        3.067451        9.042671
 H        -2.738936        3.732395        9.683548
 C        -4.649641        3.303123        8.813011
 H        -5.142718        4.101437        9.362717
 C        -5.352387        2.516880        7.914078
 H        -6.410072        2.689724        7.736534
 C        -4.701954        1.481647        7.239456
 H        -5.239833        0.887089        6.517654
 C        -2.922890       -0.951382        6.396439
 C        -3.156452       -2.037136        7.239998
 H        -2.935274       -1.956173        8.299164
 C        -3.665482       -3.229092        6.718918
 H        -3.752566       -4.091820        7.359245
 C        -3.948303       -3.339573        5.359543
 H        -4.352167       -4.258984        4.959946
 C        -3.707392       -2.249538        4.510727
 H        -3.867795       -2.349545        3.444946
 C        -3.204181       -1.057587        5.023674
 H        -3.004846       -0.223896        4.364487
 C         1.490337        2.145763        3.409676
 C         2.724743        1.636150        3.731293
 N         0.614454        1.811687        4.442451
 C         1.246185        1.074921        5.429108
 N         2.567400        0.997078        4.987610
 C         3.469274        0.357273        5.879280
 C         2.856516       -0.447277        6.858986
 C         3.668703       -1.306355        7.618088
 H         3.222488       -1.946873        8.355614
 C         5.050327       -1.341843        7.428497
 H         5.652424       -2.024914        8.018234
 C         5.662762       -0.514454        6.485916
 H         6.737476       -0.503258        6.380737
 C         4.874577        0.344143        5.721931
 H         5.357046        1.102158        5.130630
 C         3.796379        1.847965        2.853554
 H         4.769218        1.399265        3.030350
 C         3.625122        2.583199        1.672569
 H         4.462027        2.725639        0.999741
 C         2.374063        3.097569        1.350578
 H         2.236511        3.679195        0.452927
 C         1.303570        2.867676        2.215210
 H         0.316622        3.216953        1.937836
 C        -0.619959        2.527428        4.649651
 C        -0.686045        3.529293        5.619293
 H         0.159841        3.723759        6.255890
 C        -1.855818        4.280590        5.755630
 H        -1.902941        5.077892        6.490326
 C        -2.953684        4.030018        4.930450
 H        -3.877590        4.571507        5.087570
 C        -2.878719        3.036709        3.942169
 H        -3.682486        2.921181        3.238525
 C        -1.716295        2.281139        3.811096
 H        -1.664467        1.503239        3.060719
 C        -0.085747       -3.907326        5.066628
 C        -0.345512       -4.163471        6.396255
 N         0.430895       -2.611286        4.979668
 C         0.499897       -1.997540        6.221542
 N         0.020141       -2.975742        7.093750
 C        -0.033438       -2.590744        8.472557
 C         0.642883       -1.400280        8.750916
 C         0.945450       -1.075764       10.083862
 H         1.563522       -0.220631       10.293243
 C         0.512842       -1.896030       11.131386
 H         0.784332       -1.641949       12.154533
 C        -0.223866       -3.045105       10.859352
 H        -0.590964       -3.654705       11.675514
 C        -0.507836       -3.387699        9.537689
 H        -1.220728       -4.173840        9.347000
 C        -0.890391       -5.410954        6.749374
 H        -1.064259       -5.663353        7.783859
 C        -1.152641       -6.384693        5.781105
 H        -1.521778       -7.358719        6.069923
 C        -0.887478       -6.110954        4.435310
 H        -1.061478       -6.864452        3.674416
 C        -0.355770       -4.867748        4.079315
 H        -0.142036       -4.665306        3.040894
 C         1.150964       -2.159714        3.824768
 C         2.547537       -2.256065        3.796646
 H         3.076952       -2.603268        4.672066
 C         3.249000       -1.911510        2.642769
 H         4.321526       -1.984013        2.637527
 C         2.558500       -1.497711        1.501415
 H         3.100412       -1.250130        0.597015
 C         1.159582       -1.410400        1.518917
 H         0.625059       -1.188766        0.610260
 C         0.460855       -1.723560        2.683136
 H        -0.616682       -1.646297        2.704262
