206
 generated by VMD
 Ir       25.525667       58.496590       90.300110
 C        22.806290       56.386761       92.876511
 C        23.982903       56.191204       93.475708
 N        22.977497       57.058762       91.649475
 C        24.319170       57.312294       91.502029
 N        24.963703       56.744789       92.591080
 C        26.358912       56.572361       92.419434
 C        26.908651       57.354931       91.410095
 C        28.253036       57.115318       91.064674
 H        28.790918       57.763161       90.318024
 C        29.040701       56.225983       91.763283
 H        30.055847       56.216049       91.584747
 C        28.453232       55.406006       92.781433
 H        29.103163       54.945095       93.460587
 C        27.135824       55.611618       93.086655
 H        26.759937       55.101662       93.954727
 C        24.078979       55.628136       94.777519
 H        24.988995       55.161850       95.105919
 C        22.952885       55.467331       95.538414
 H        23.058302       55.107117       96.538132
 C        21.690731       55.779083       94.952698
 H        20.831266       55.653465       95.551804
 C        21.628439       56.176128       93.590088
 H        20.695915       56.586021       93.130112
 C        22.068462       56.980789       90.580612
 C        21.100277       57.938583       90.364616
 H        20.838470       58.642059       91.163544
 C        20.321486       57.889000       89.224823
 H        19.759579       58.773991       89.032089
 C        20.460796       56.874931       88.307899
 H        19.864670       56.844456       87.339188
 C        21.391249       55.879730       88.532700
 H        21.699352       55.137215       87.800339
 C        22.139626       55.890274       89.660225
 H        22.613052       54.964474       89.925110
 C        26.402344       61.766407       93.102737
 C        27.253761       61.996155       92.037041
 N        25.799576       60.581116       92.810234
 C        26.148539       60.036652       91.549759
 N        27.076035       60.890503       91.121643
 C        27.863361       60.381104       90.048553
 C        27.129448       59.485081       89.241821
 C        27.538149       59.118370       87.992989
 H        26.966393       58.385086       87.391243
 C        28.705219       59.681801       87.471275
 H        29.194321       59.318245       86.534897
 C        29.458632       60.546288       88.272987
 H        30.383699       60.893497       87.930939
 C        29.083202       60.882278       89.545250
 H        29.900415       61.317635       90.103485
 C        28.029720       63.165977       92.063339
 H        28.822386       63.341423       91.389694
 C        27.876709       64.002991       93.202904
 H        28.383366       64.940887       93.281967
 C        27.011173       63.774067       94.268387
 H        26.850037       64.488449       95.011215
 C        26.228996       62.613388       94.220222
 H        25.414482       62.455292       94.998856
 C        24.881540       59.920361       93.815170
 C        23.518375       59.794167       93.537033
 H        23.164326       60.150860       92.569962
 C        22.624866       59.445648       94.587875
 H        21.569586       59.344677       94.191528
 C        23.007553       59.175129       95.861954
 H        22.470341       58.656849       96.593994
 C        24.414749       59.316330       96.097244
 H        24.704098       59.063400       97.057510
 C        25.316910       59.707996       95.107742
 H        26.348585       59.959404       95.303818
 C        22.323442       60.318745       87.988380
 C        22.754826       59.257431       87.247696
 N        23.245420       60.483128       89.002792
 C        24.173954       59.407501       89.048065
 N        23.838932       58.698044       87.881096
 C        24.538588       57.521931       87.688629
 C        25.141441       56.979286       88.818237
 C        25.523724       55.631737       88.809029
 H        25.833241       55.236824       89.763611
 C        25.354156       54.841850       87.634537
 H        25.443928       53.714966       87.672760
 C        24.911793       55.452744       86.460388
 H        25.167294       54.986000       85.583878
 C        24.512959       56.774490       86.527557
 H        24.351492       57.281620       85.582397
 C        22.008224       58.796761       86.146339
 H        22.261707       57.885521       85.564804
 C        20.743271       59.374897       85.828445
 H        20.301090       59.076271       84.891327
 C        20.207020       60.368790       86.685135
 H        19.408836       61.061020       86.387444
 C        21.081514       60.817970       87.717850
 H        20.632248       61.543015       88.350357
 C        23.688021       61.757053       89.451157
 C        24.899799       62.225044       88.885941
 H        25.283779       61.568123       88.149521
 C        25.432816       63.461689       89.302124
 H        26.316881       63.804798       88.846497
 C        24.807827       64.188828       90.314919
 H        25.369844       65.060120       90.688934
 C        23.613781       63.766560       90.821030
 H        23.113846       64.474960       91.460983
 C        23.018497       62.553135       90.395660
 H        21.959743       62.318832       90.644539
 Ir       25.525665       58.496590      103.234581
 C        21.551098       57.266445      101.841843
 C        21.318932       57.862503      103.072372
 N        22.989750       57.206223      101.572121
 C        23.629967       57.795509      102.707230
 N        22.576794       58.176170      103.536697
 C        23.062477       58.702133      104.808220
 C        24.413296       58.726200      105.042564
 C        24.873270       59.052837      106.311203
 H        25.924110       59.248672      106.432800
 C        24.013941       59.401958      107.314819
 H        24.411671       59.781952      108.225441
 C        22.690937       59.365463      107.067368
 H        21.909519       59.524651      107.813797
 C        22.131218       59.036243      105.826027
 H        21.125509       58.755756      105.674469
 C        19.943029       58.081242      103.546143
 H        19.608376       58.735703      104.290375
 C        18.890388       57.556187      102.756546
 H        17.849430       57.564240      103.225304
 C        19.193386       56.967636      101.554749
 H        18.387512       56.720814      100.971527
 C        20.436607       56.775391      101.056610
 H        20.590860       56.369270      100.083282
 C        23.693556       56.374500      100.566345
 C        24.062407       56.902168       99.300476
 H        23.787453       57.945229       99.009903
 C        24.574629       56.073601       98.327644
 H        24.550053       56.477909       97.305084
 C        24.839340       54.716671       98.558411
 H        25.351795       54.191071       97.794647
 C        24.498894       54.186539       99.810593
 H        24.732929       53.151806      100.029358
 C        23.923145       55.031631      100.831284
 H        23.654549       54.585579      101.874023
 C        25.050837       62.660736      102.398987
 C        26.270386       62.605526      103.040131
 N        24.409901       61.422787      102.548264
 C        25.328156       60.534512      103.050041
 N        26.472401       61.312370      103.443535
 C        27.411808       60.619896      104.231689
 C        27.374050       59.185814      104.031235
 C        28.400928       58.513397      104.734276
 H        28.558275       57.483131      104.427673
 C        29.356604       59.086517      105.562416
 H        29.992350       58.348312      106.115845
 C        29.401848       60.492462      105.630013
 H        29.890585       61.059479      106.396255
 C        28.485292       61.239693      104.945198
 H        28.807447       62.171967      104.561951
 C        27.128952       63.690823      102.902328
 H        28.169960       63.634918      103.173035
 C        26.777132       64.897690      102.240067
 H        27.524220       65.596878      101.903770
 C        25.513552       64.937889      101.641769
 H        25.242912       65.840019      100.998184
 C        24.641123       63.839344      101.709335
 H        23.629444       63.901112      101.396149
 C        23.177933       61.123432      101.835495
 C        23.388926       60.515766      100.555801
 H        24.348717       60.439594      100.040443
 C        22.214767       60.339409       99.772827
 H        22.370117       59.940788       98.756577
 C        20.940626       60.709404      100.189430
 H        20.046940       60.444176       99.719566
 C        20.789883       61.252350      101.452362
 H        19.898743       61.831184      101.705582
 C        21.911186       61.504215      102.272820
 H        21.763741       62.314156      102.946503
 C        27.543558       57.622879       99.526894
 C        27.519440       56.408268      100.192200
 N        27.274090       58.595322      100.458847
 C        26.818695       58.030247      101.683357
 N        27.046539       56.661949      101.503510
 C        26.648388       55.811378      102.532776
 C        26.032814       56.457966      103.550369
 C        25.665493       55.790070      104.647308
 H        25.275208       56.362213      105.473587
 C        25.789803       54.399132      104.665878
 H        25.228064       53.808628      105.338066
 C        26.332111       53.692745      103.580048
 H        26.480539       52.684753      103.477478
 C        26.859165       54.445419      102.550919
 H        27.682007       53.953941      102.001389
 C        27.828062       55.183266       99.445389
 H        27.492458       54.274208       99.869629
 C        28.243980       55.282509       98.105820
 H        28.532841       54.368801       97.517761
 C        28.197092       56.516113       97.523560
 H        28.518881       56.670681       96.526733
 C        27.836802       57.678032       98.167160
 H        27.995865       58.572083       97.649597
 C        27.972237       59.890484      100.491104
 C        29.029758       60.040100      101.387581
 H        29.483080       59.212898      101.951080
 C        29.760933       61.267262      101.317932
 H        30.583361       61.351219      102.052490
 C        29.365431       62.298958      100.530731
 H        29.865370       63.222786      100.532608
 C        28.276815       62.113579       99.678467
 H        28.008278       62.911125       98.963058
 C        27.555141       60.899784       99.641205
 H        26.587421       60.805618       99.103836
