206
 generated by VMD
 Ir       98.876022       65.927216       19.835220
 C       101.654663       69.211868       20.913670
 C       101.407104       68.575722       22.078501
 N       100.884148       68.596481       19.885172
 C       100.122597       67.525696       20.476067
 N       100.438644       67.610046       21.791363
 C        99.826401       66.608498       22.671064
 C        99.118347       65.607681       21.916321
 C        98.669670       64.461853       22.630417
 H        98.245758       63.636833       22.081005
 C        98.782570       64.454880       24.029348
 H        98.415985       63.534634       24.550659
 C        99.359879       65.486176       24.803516
 H        99.287949       65.677513       25.882738
 C        99.944290       66.545204       24.068455
 H       100.200691       67.492889       24.523056
 C       102.118790       68.919495       23.240280
 H       102.134415       68.253296       24.020370
 C       103.024673       69.922333       23.264164
 H       103.452354       70.261887       24.178705
 C       103.286758       70.611031       22.042522
 H       104.141830       71.255295       22.029762
 C       102.626404       70.300652       20.864902
 H       102.697563       70.969604       20.005692
 C       100.468399       69.250626       18.768103
 C        99.471878       70.194962       18.918709
 H        99.135376       70.335922       19.943546
 C        99.373566       71.318161       18.038555
 H        98.596542       72.019630       18.173740
 C       100.285599       71.440689       17.034920
 H       100.120323       72.164223       16.269621
 C       101.278503       70.460480       16.885427
 H       101.713684       70.347832       15.924324
 C       101.353470       69.357758       17.720459
 H       101.983292       68.483246       17.463261
 C       101.899467       62.721676       19.352001
 C       100.682182       62.110210       19.068409
 N       101.574104       64.048683       19.630344
 C       100.212311       64.354851       19.600666
 N        99.667465       63.130039       19.256029
 C        98.318375       63.053387       19.243362
 C        97.634422       64.255554       19.548664
 C        96.223030       64.232475       19.712210
 H        95.808571       65.230530       19.526173
 C        95.500572       63.067326       19.725897
 H        94.528954       62.938560       20.245579
 C        96.209778       61.866467       19.454662
 H        95.687752       60.929527       19.563465
 C        97.584953       61.858772       19.260433
 H        98.084671       60.844315       19.284103
 C       100.723129       60.763596       18.584820
 H        99.802383       60.294838       18.199230
 C       101.933258       60.088547       18.368275
 H       101.891823       59.038666       18.192686
 C       103.142174       60.801193       18.560265
 H       104.054863       60.310081       18.184361
 C       103.119476       62.085094       19.059153
 H       104.006760       62.515385       19.444607
 C       102.518936       64.924507       20.270142
 C       102.615295       64.994339       21.663712
 H       102.028152       64.265717       22.253099
 C       103.574059       65.722954       22.278275
 H       103.949844       65.579666       23.282097
 C       104.414017       66.458542       21.474800
 H       105.179512       67.134308       22.096693
 C       104.352974       66.363159       20.091263
 H       105.234718       66.450844       19.484198
 C       103.369408       65.661400       19.452957
 H       103.280342       65.555573       18.360634
 C        98.523544       67.218224       15.632214
 C        97.511757       67.898499       16.300348
 N        99.023865       66.249344       16.587132
 C        98.475456       66.513992       17.855286
 N        97.449280       67.407234       17.701084
 C        96.632957       67.679138       18.874023
 C        97.320885       67.339149       20.032667
 C        96.865860       67.904877       21.240601
 H        97.357635       67.541664       22.093500
 C        95.734467       68.790138       21.296789
 H        95.724884       69.513092       22.095129
 C        94.939789       68.986557       20.108303
 H        93.981613       69.375328       20.184280
 C        95.432083       68.502846       18.878399
 H        94.828995       68.544510       17.997066
 C        96.895073       69.011673       15.663921
 H        96.145538       69.648972       16.156916
 C        97.373047       69.421638       14.427971
 H        96.930717       70.291794       13.894708
 C        98.390945       68.749054       13.757953
 H        98.452667       68.912376       12.660949
 C        98.922440       67.621658       14.378811
 H        99.551834       66.925262       13.839176
 C        99.563461       64.965012       16.221729
 C        98.738503       63.921516       15.869368
 H        97.708206       64.165550       15.810623
 C        99.309929       62.747372       15.473208
 H        98.584473       61.952408       15.184320
 C       100.668777       62.574471       15.294488
 H       101.030197       61.606026       15.005014
 C       101.532150       63.720596       15.394284
 H       102.478706       63.782734       14.892805
 C       100.959335       64.853668       15.989717
 H       101.567276       65.732971       16.189289
 Ir       98.876022       65.927216       33.848576
 C       100.867622       66.226990       37.650291
 C        99.982941       65.217606       37.933830
 N       100.570160       66.814789       36.486244
 C        99.588043       66.106644       35.826561
 N        99.240273       65.056900       36.729286
 C        98.782570       63.897709       36.085644
 C        98.493179       64.045204       34.688866
 C        98.054398       62.932171       33.976593
 H        97.844292       63.150074       32.858841
 C        97.899513       61.687035       34.600010
 H        97.655304       60.814987       34.016060
 C        98.258423       61.497444       35.943932
 H        98.200989       60.500984       36.359352
 C        98.612534       62.637184       36.703274
 H        98.768486       62.557480       37.785416
 C        99.988586       64.586983       39.198418
 H        99.465065       63.643661       39.276279
 C       100.881546       65.109169       40.136787
 H       100.853409       64.716766       41.150162
 C       101.776283       66.091690       39.829224
 H       102.581467       66.412811       40.564445
 C       101.804031       66.674988       38.585724
 H       102.568787       67.383286       38.276409
 C       100.695801       68.253006       36.238152
 C        99.585136       69.047386       36.308868
 H        98.709549       68.614044       36.851242
 C        99.566147       70.426369       36.199608
 H        98.694725       71.054817       36.102295
 C       100.781784       70.997185       35.887177
 H       100.857788       72.093384       35.779999
 C       101.939316       70.229805       35.760132
 H       102.817329       70.665619       35.394928
 C       101.913330       68.845596       35.914669
 H       102.916061       68.313400       36.034245
 C       102.076965       63.729164       31.897720
 C       101.098129       63.832962       30.902126
 N       101.634628       64.411469       33.038948
 C       100.455284       65.045868       32.764576
 N       100.111847       64.668274       31.436800
 C        98.862625       65.109314       30.995617
 C        97.984024       65.451630       31.988935
 C        96.624298       65.907761       31.676046
 H        95.778519       66.019829       32.366196
 C        96.315598       66.066719       30.316622
 H        95.325676       66.447937       30.046572
 C        97.158188       65.701324       29.271626
 H        96.981758       66.081818       28.289997
 C        98.434486       65.257820       29.631197
 H        99.033630       64.749725       28.860188
 C       101.047867       62.950027       29.787363
 H       100.297653       62.960625       29.045635
 C       101.985458       61.958218       29.623547
 H       101.919373       61.256893       28.827633
 C       103.114891       61.999443       30.478468
 H       104.107742       61.505859       30.192942
 C       103.149933       62.781197       31.608397
 H       103.793060       62.447731       32.383179
 C       102.273788       64.212151       34.348698
 C       103.049805       65.211945       34.841759
 H       103.084930       66.207108       34.401825
 C       103.778458       64.994919       36.050621
 H       104.342056       65.698563       36.556919
 C       103.805145       63.711742       36.576130
 H       104.551239       63.551331       37.329597
 C       103.052597       62.673622       36.002571
 H       102.727432       61.808540       36.458763
 C       102.201927       62.938999       34.967415
 H       101.476288       62.209362       34.626255
 C        99.348587       69.955574       32.457306
 C        98.116043       70.014519       33.057533
 N        99.810440       68.659340       32.534531
 C        98.889984       67.880203       33.111679
 N        97.805092       68.656586       33.404686
 C        96.795197       68.097382       34.218750
 C        97.081276       66.796783       34.664192
 C        96.353378       66.310898       35.788898
 H        96.252396       65.306892       35.820068
 C        95.418228       67.111664       36.454308
 H        94.947578       66.699379       37.279846
 C        95.000420       68.360870       35.903015
 H        94.057922       68.745712       36.173000
 C        95.735703       68.853149       34.828346
 H        95.404221       69.754227       34.302734
 C        97.390289       71.235992       33.040836
 H        96.343002       71.262123       33.364098
 C        97.929390       72.360199       32.372086
 H        97.483643       73.301788       32.331764
 C        99.185036       72.260315       31.785671
 H        99.588684       73.065445       31.179663
 C        99.899033       71.051620       31.816454
 H       100.846046       70.892227       31.367163
 C       100.940575       68.248215       31.756603
 C       100.657623       67.760574       30.493889
 H        99.650131       67.874252       30.082747
 C       101.605888       67.031532       29.845366
 H       101.445335       66.610535       28.879763
 C       102.927727       66.909439       30.285067
 H       103.743439       66.787064       29.614664
 C       103.228195       67.462402       31.552843
 H       104.170471       67.358887       31.900389
 C       102.236794       68.122208       32.256538
 H       102.421600       68.712326       33.089069
