206
 generated by VMD
  IR         0.900000       34.740002       27.590000
  C1        -3.180000       33.200001       28.240000
  C2        -3.310000       34.070000       27.160000
  N1        -1.820000       33.270000       28.680000
  C3a       -1.050000       34.200001       27.950001
  N2        -2.030000       34.689999       27.040001
  C4        -1.560000       35.759998       26.219999
  C5a       -0.280000       36.189999       26.570000
  C6         0.150000       37.389999       26.070000
  H1         0.790000       37.840000       26.750000
  C7        -0.640000       38.080002       25.090000
  H2        -0.150000       38.939999       24.520000
  C8        -1.880000       37.650002       24.690001
  H3        -2.460000       38.180000       23.980000
  C9        -2.360000       36.520000       25.379999
  H4        -3.440000       36.349998       25.320000
  C10       -4.570000       34.049999       26.400000
  H5        -4.540000       34.450001       25.400000
  C11       -5.640000       33.220001       26.840000
  H6        -6.560000       33.369999       26.280001
  C12       -5.500000       32.330002       27.980000
  H7        -6.270000       31.590000       28.080000
  C13       -4.240000       32.330002       28.629999
  H8        -4.130000       31.670000       29.420000
  C6        -1.500000       32.980000       30.020000
  C1        -1.050000       31.719999       30.450001
  H1        -0.980000       30.980000       29.709999
  C2        -0.520000       31.450001       31.730000
  H2        -0.210000       30.379999       31.950001
  C3        -0.520000       32.549999       32.590000
  H3        -0.220000       32.490002       33.650002
  C4        -1.090000       33.709999       32.230000
  H4        -1.210000       34.520000       32.939999
  C5        -1.570000       33.950001       30.959999
  H5        -2.080000       34.869999       30.660000
  C1         1.180000       33.360001       23.450001
  C2         2.250000       34.180000       23.600000
  N1         0.530000       33.250000       24.709999
  C3b        1.180000       34.060001       25.660000
  N2         2.210000       34.590000       24.930000
  C4         3.090000       35.540001       25.600000
  C5b        2.720000       35.689999       26.990000
  C6         3.600000       36.360001       27.830000
  H1         3.320000       36.400002       28.860001
  C7         4.800000       36.910000       27.389999
  H2         5.620000       37.060001       28.049999
  C8         5.160000       36.779999       26.070000
  H3         6.050000       37.310001       25.790001
  C9         4.320000       36.150002       25.139999
  H4         4.650000       36.180000       24.090000
  C10        3.120000       34.480000       22.530001
  H5         4.180000       34.480000       22.559999
  C11        2.680000       34.040001       21.250000
  H6         3.340000       34.209999       20.330000
  C12        1.550000       33.189999       21.139999
  H7         0.940000       33.180000       20.209999
  C13        0.870000       32.820000       22.260000
  H8         0.150000       32.070000       22.280001
  C6        -0.630000       32.419998       24.940001
  C1        -0.580000       31.209999       25.709999
  H1         0.260000       31.000000       26.299999
  C2        -1.700000       30.370001       25.670000
  H2        -1.560000       29.389999       26.160000
  C3        -2.830000       30.799999       24.950001
  H3        -3.650000       30.059999       24.980000
  C4        -2.840000       31.940001       24.200001
  H4        -3.750000       32.209999       23.719999
  C5        -1.750000       32.770000       24.180000
  H5        -1.920000       33.759998       23.709999
  C1         3.250000       31.770000       29.809999
  C2         2.720000       32.669998       30.790001
  N1         2.900000       32.380001       28.490000
  C3c        2.130000       33.529999       28.700001
  N2         2.110000       33.720001       30.070000
  C4         1.670000       34.950001       30.480000
  C5c        0.960000       35.669998       29.500000
  C6         0.420000       36.950001       29.799999
  H1        -0.480000       37.180000       29.299999
  C7         0.640000       37.470001       31.080000
  H2         0.070000       38.369999       31.450001
  C8         1.440000       36.790001       32.009998
  H3         1.720000       37.200001       33.020000
  C9         1.930000       35.520000       31.740000
  H4         2.870000       35.250000       32.209999
  C10        2.850000       32.349998       32.189999
  H5         2.630000       33.000000       33.000000
  C11        3.370000       31.040001       32.520000
  H6         3.240000       30.549999       33.490002
  C12        3.900000       30.200001       31.510000
  H7         4.560000       29.430000       31.920000
  C13        3.840000       30.600000       30.160000
  H8         4.400000       30.070000       29.490000
  C6         3.450000       32.099998       27.209999
  C1         4.480000       32.950001       26.670000
  H1         4.650000       33.880001       27.200001
  C2         5.020000       32.630001       25.410000
  H2         5.800000       33.130001       25.000000
  C3         4.620000       31.469999       24.740000
  H3         5.010000       31.309999       23.780001
  C4         3.650000       30.639999       25.209999
  H4         3.100000       30.139999       24.450001
  C5         3.050000       30.950001       26.450001
  H5         2.270000       30.340000       26.920000
  IR         6.960000       36.580002       17.969999
  C1         7.610000       40.849998       17.080000
  C2         6.420000       40.810001       17.799999
  N1         8.100000       39.500000       16.980000
  C3a        7.240000       38.639999       17.620001
  N2         6.220000       39.480000       18.180000
  C4         5.130000       38.799999       18.740000
  C5a        5.080000       37.439999       18.580000
  C6         3.960000       36.740002       19.080000
  H1         3.820000       35.700001       18.680000
  C7         2.990000       37.299999       19.770000
  H2         2.090000       36.689999       19.959999
  C8         3.040000       38.660000       20.100000
  H3         2.640000       38.939999       21.080000
  C9         4.070000       39.389999       19.510000
  H4         4.190000       40.450001       19.680000
  C10        5.670000       41.990002       17.959999
  H5         4.640000       41.950001       18.180000
  C11        6.170000       43.180000       17.510000
  H6         5.610000       44.070000       17.820000
  C12        7.390000       43.250000       16.879999
  H7         7.700000       44.240002       16.559999
  C13        8.150000       42.060001       16.670000
  H8         9.090000       42.200001       16.190001
  C6         8.960000       39.139999       15.890000
  C1         8.400000       38.869999       14.610000
  H1         7.300000       38.910000       14.510000
  C2         9.290000       38.450001       13.570000
  H2         8.770000       38.340000       12.640000
  C3        10.640000       38.209999       13.850000
  H3        11.290000       37.880001       13.050000
  C4        11.150000       38.340000       15.140000
  H4        12.200000       38.250000       15.200000
  C5        10.330000       38.830002       16.200001
  H5        10.730000       39.029999       17.150000
  C1         7.880000       36.099998       22.299999
  C2         7.550000       34.869999       21.870001
  N1         7.670000       37.029999       21.170000
  C3b        7.300000       36.330002       19.969999
  N2         7.160000       35.029999       20.480000
  C4         6.450000       34.169998       19.590000
  C5b        6.440000       34.570000       18.240000
  C6         5.880000       33.660000       17.299999
  H1         5.850000       33.779999       16.260000
  C7         5.360000       32.430000       17.709999
  H2         4.970000       31.719999       17.049999
  C8         5.320000       32.130001       19.090000
  H3         5.010000       31.170000       19.480000
  C9         5.830000       33.049999       20.000000
  H4         5.650000       32.770000       20.990000
  C10        7.740000       33.730000       22.639999
  H5         7.380000       32.779999       22.299999
  C11        8.260000       33.840000       23.950001
  H6         8.730000       32.990002       24.360001
  C12        8.570000       35.130001       24.410000
  H7         8.770000       35.240002       25.480000
  C13        8.430000       36.230000       23.549999
  H8         8.960000       37.200001       23.740000
  C6         7.330000       38.389999       21.340000
  C1         6.220000       38.830002       22.059999
  H1         5.450000       38.080002       22.219999
  C2         6.010000       40.209999       22.309999
  H2         5.210000       40.560001       22.860001
  C3         6.930000       41.150002       21.809999
  H3         6.850000       42.200001       22.129999
  C4         8.040000       40.720001       21.030001
  H4         8.780000       41.410000       20.700001
  C5         8.240000       39.380001       20.799999
  H5         8.840000       39.040001       20.000000
  C1        10.610000       35.080002       16.230000
  C2         9.740000       35.139999       15.170000
  N1        10.000000       35.459999       17.379999
  C3c        8.590000       35.730000       17.090000
  N2         8.450000       35.500000       15.700000
  C4         7.190000       35.619999       15.120000
  C5c        6.350000       36.410000       15.950000
  C6         5.120000       36.830002       15.420000
  H1         4.670000       37.610001       16.000000
  C7         4.700000       36.410000       14.140000
  H2         3.640000       36.779999       13.880000
  C8         5.550000       35.610001       13.330000
  H3         5.270000       35.369999       12.300000
  C9         6.800000       35.250000       13.860000
  H4         7.430000       34.790001       13.150000
  C10       10.190000       34.860001       13.920000
  H5         9.470000       34.419998       13.230000
  C11       11.570000       34.590000       13.710000
  H6        11.980000       34.119999       12.840000
  C12       12.500000       34.599998       14.770000
  H7        13.550000       34.349998       14.670000
  C13       11.980000       34.700001       16.080000
  H8        12.720000       34.849998       16.879999
  C6        10.600000       35.369999       18.740000
  C1        10.500000       34.189999       19.490000
  H1        10.470000       33.169998       19.080000
  C2        10.820000       34.320000       20.860001
  H2        10.490000       33.549999       21.530001
  C3        11.310000       35.450001       21.469999
  H3        11.290000       35.529999       22.540001
  C4        11.420000       36.570000       20.660000
  H4        11.880000       37.500000       20.959999
  C5        11.110000       36.500000       19.309999
  H5        11.090000       37.389999       18.680000
