206
 generated by VMD
 Ir       44.385845      -27.082790      105.848694
 C        40.777565      -25.064312      104.492027
 C        40.472290      -26.403576      104.655090
 N        42.062233      -24.919224      105.012573
 C        42.574986      -26.157042      105.490685
 N        41.576302      -27.059258      105.282974
 C        41.751347      -28.439228      105.588326
 C        43.115067      -28.772259      105.764282
 C        43.453922      -30.114243      105.810745
 H        44.437450      -30.385654      105.974167
 C        42.480072      -31.159836      105.916763
 H        42.690475      -32.206558      106.117264
 C        41.115604      -30.799259      105.851006
 H        40.320992      -31.498325      106.101204
 C        40.744720      -29.435146      105.639954
 H        39.676880      -29.228413      105.562019
 C        39.257401      -26.916470      104.207001
 H        39.163677      -27.983120      103.960281
 C        38.318180      -26.006479      103.756256
 H        37.329197      -26.349308      103.443237
 C        38.589462      -24.645947      103.555878
 H        37.825443      -23.940214      103.129242
 C        39.863182      -24.125183      103.933411
 H        40.193249      -23.138115      103.584480
 C        42.797600      -23.657436      105.161293
 C        43.284363      -23.153973      106.420013
 H        43.331490      -23.837791      107.206635
 C        44.002163      -21.955023      106.433670
 H        44.059128      -21.430655      107.380234
 C        44.268539      -21.203218      105.255524
 H        45.175476      -20.589983      105.245354
 C        43.773754      -21.749840      104.100098
 H        44.148003      -21.345667      103.182938
 C        43.046024      -22.934155      104.004677
 H        42.862484      -23.466269      103.053741
 C        44.315357      -27.819031      110.164459
 C        45.231216      -28.708752      109.675186
 N        43.793655      -27.100040      109.010086
 C        44.411419      -27.499119      107.863388
 N        45.273052      -28.585697      108.219818
 C        46.194771      -29.040974      107.270737
 C        46.092171      -28.368725      106.051003
 C        47.057060      -28.618767      105.112610
 H        47.037163      -28.230328      104.105972
 C        48.145370      -29.463097      105.384590
 H        48.852234      -29.701447      104.599457
 C        48.167305      -30.255611      106.544899
 H        49.045532      -30.818581      106.865829
 C        47.187347      -29.984665      107.516991
 H        47.111240      -30.711647      108.310852
 C        45.876442      -29.545559      110.572159
 H        46.774521      -30.033287      110.229111
 C        45.607178      -29.492516      111.941124
 H        46.376526      -29.987595      112.595573
 C        44.682056      -28.637962      112.394653
 H        44.629143      -28.538948      113.410530
 C        43.983356      -27.780254      111.499374
 H        43.406567      -27.029865      111.956787
 C        42.969070      -25.945572      109.108871
 C        41.731106      -26.026600      108.563538
 H        41.361080      -27.017124      108.335861
 C        40.822235      -25.014284      108.700935
 H        39.873695      -25.015999      108.167679
 C        41.212532      -23.878517      109.435173
 H        40.595879      -23.041321      109.565674
 C        42.486217      -23.811878      110.046959
 H        42.794147      -22.844341      110.489624
 C        43.335541      -24.845591      109.887299
 H        44.215126      -24.908554      110.518845
 C        46.884342      -23.432720      105.616364
 C        46.605328      -23.793293      104.311516
 N        46.321629      -24.473263      106.369171
 C        45.689487      -25.461828      105.628273
 N        45.802101      -24.999741      104.291000
 C        45.099388      -25.760693      103.291229
 C        44.585686      -27.011158      103.751068
 C        43.949562      -27.814777      102.843185
 H        43.557854      -28.836893      103.094284
 C        43.812489      -27.495209      101.461815
 H        43.307884      -28.186924      100.849030
 C        44.404167      -26.279671      101.002159
 H        44.180153      -26.012232       99.943626
 C        44.993187      -25.469406      101.935287
 H        45.293243      -24.468811      101.653564
 C        47.177944      -23.012592      103.297012
 H        47.186783      -23.401817      102.287155
 C        47.912846      -21.843151      103.508743
 H        47.957047      -21.081247      102.753136
 C        48.123848      -21.539755      104.848312
 H        48.799282      -20.760252      105.162582
 C        47.667805      -22.320335      105.941620
 H        47.954956      -22.149017      107.002502
 C        46.723591      -24.622028      107.807648
 C        46.403763      -23.690128      108.831299
 H        46.039253      -22.658279      108.612610
 C        46.814415      -23.986340      110.118820
 H        46.754494      -23.228329      110.924515
 C        47.419827      -25.172886      110.407761
 H        47.515015      -25.610638      111.449020
 C        47.762848      -26.133072      109.403137
 H        48.070541      -27.144993      109.768021
 C        47.435802      -25.822105      108.093430
 H        47.652660      -26.579136      107.271301
 Ir       44.385845      -27.082790      120.728325
 C        42.213322      -28.378822      117.087982
 C        42.527649      -27.039436      116.914047
 N        42.715782      -28.681797      118.405945
 C        43.444206      -27.656467      119.015778
 N        43.368835      -26.638914      117.997597
 C        44.538422      -25.699442      118.062828
 C        45.029152      -25.521729      119.394859
 C        46.117622      -24.654066      119.557358
 H        46.365501      -24.645191      120.556046
 C        46.665981      -23.901768      118.540726
 H        47.482590      -23.191381      118.732544
 C        46.203091      -24.128920      117.222153
 H        46.587067      -23.597225      116.277710
 C        45.127815      -24.996090      116.996994
 H        44.603271      -25.112803      116.033386
 C        41.792870      -26.351303      115.968338
 H        41.701805      -25.199802      116.061913
 C        40.990952      -26.943779      115.071899
 H        40.349480      -26.426695      114.404648
 C        40.773735      -28.324486      115.160614
 H        40.103683      -28.761896      114.449554
 C        41.326973      -29.085167      116.230324
 H        41.464745      -30.172600      116.111969
 C        42.871807      -30.006180      118.843399
 C        43.404903      -31.044697      118.079262
 H        43.884178      -30.760666      117.239136
 C        43.237362      -32.398834      118.467522
 H        43.329185      -33.228168      117.779709
 C        42.539757      -32.693306      119.631882
 H        42.535076      -33.657875      120.059067
 C        42.002022      -31.633636      120.401581
 H        41.314690      -31.826790      121.225761
 C        42.203426      -30.349964      120.003952
 H        41.482693      -29.635113      120.368538
 C        48.645229      -28.058910      120.070801
 C        48.612297      -27.444767      121.265686
 N        47.304054      -28.240641      119.696075
 C        46.405609      -27.650589      120.601639
 N        47.247581      -27.214283      121.621796
 C        46.620605      -26.609840      122.717087
 C        45.258141      -26.148684      122.414719
 C        44.590645      -25.480419      123.449310
 H        43.589752      -25.095999      123.291100
 C        45.201607      -25.358168      124.715240
 H        44.756439      -24.764687      125.483231
 C        46.439423      -25.925941      124.995323
 H        46.961758      -25.908466      125.992798
 C        47.183044      -26.544403      123.978745
 H        48.171143      -27.000023      124.199142
 C        49.857121      -27.144852      121.865242
 H        49.924831      -27.031204      122.908218
 C        51.025665      -27.225441      121.135437
 H        51.999844      -26.840797      121.528656
 C        50.959068      -27.718952      119.794464
 H        51.764442      -27.398893      119.125404
 C        49.762924      -28.167536      119.261444
 H        49.711987      -28.535736      118.229591
 C        46.850616      -28.892775      118.491081
 C        46.516972      -28.102709      117.439087
 H        46.535271      -26.999542      117.448380
 C        46.361652      -28.682175      116.188889
 H        46.414825      -28.046810      115.328842
 C        46.468460      -30.045185      116.013977
 H        46.246124      -30.506592      115.031494
 C        46.804146      -30.884930      117.094742
 H        46.970322      -31.979984      117.082855
 C        47.020157      -30.241524      118.350235
 H        47.774269      -30.687412      119.038559
 C        43.103825      -30.253002      123.186775
 C        42.131824      -29.361443      123.353020
 N        44.100594      -29.683689      122.413124
 C        43.861481      -28.431976      122.200211
 N        42.556152      -28.188208      122.734917
 C        41.895172      -26.994406      122.372086
 C        42.466175      -26.312202      121.281464
 C        41.825623      -25.251339      120.722397
 H        42.177341      -24.691484      119.769791
 C        40.614895      -24.773560      121.237343
 H        40.066334      -24.002415      120.724106
 C        40.031693      -25.385420      122.373840
 H        39.016796      -25.173393      122.607140
 C        40.668388      -26.566551      122.937531
 H        40.191471      -26.816023      123.899727
 C        40.953770      -29.732407      123.922478
 H        40.228310      -28.982260      124.292732
 C        40.784775      -31.072525      124.328094
 H        40.025047      -31.385208      124.989258
 C        41.721958      -32.041924      124.141136
 H        41.865906      -32.928780      124.702362
 C        42.964832      -31.606647      123.525185
 H        43.689468      -32.315102      123.265205
 C        45.334953      -30.410721      122.182098
 C        46.401665      -30.269306      123.073296
 H        46.234699      -29.632542      123.944870
 C        47.476891      -31.132950      123.048698
 H        48.261612      -30.992027      123.778389
 C        47.495926      -32.151905      122.104683
 H        48.321548      -32.854210      122.067108
 C        46.417870      -32.378540      121.258308
 H        46.396950      -33.187458      120.596405
 C        45.342644      -31.514896      121.282906
 H        44.719234      -31.378895      120.515930
