206
 generated by VMD
 Ir       61.514965      -81.826141      -73.126648
 C        65.744766      -81.962219      -72.211197
 C        65.118423      -82.582230      -71.089508
 N        64.785248      -81.559509      -73.079094
 C        63.523964      -82.051880      -72.655952
 N        63.761597      -82.656296      -71.414703
 C        62.638065      -83.267868      -70.749451
 C        61.402115      -83.118248      -71.462006
 C        60.226166      -83.743484      -70.932281
 H        59.297676      -83.776672      -71.395538
 C        60.270546      -84.438583      -69.672806
 H        59.409714      -84.705948      -69.173416
 C        61.494789      -84.431892      -68.998062
 H        61.527336      -84.747864      -68.013580
 C        62.674919      -83.897766      -69.514313
 H        63.554260      -84.209946      -69.040718
 C        65.886276      -82.870834      -70.029129
 H        65.421249      -83.342529      -69.164116
 C        67.276917      -82.701416      -70.034340
 H        67.883537      -83.189850      -69.258163
 C        67.917122      -82.118683      -71.145081
 H        68.998024      -82.078362      -71.170212
 C        67.149345      -81.747841      -72.272827
 H        67.674232      -81.544952      -73.215027
 C        65.014633      -80.400284      -73.927551
 C        65.012016      -79.117493      -73.394875
 H        64.902298      -79.002663      -72.362701
 C        65.439613      -78.048645      -74.144096
 H        65.630417      -77.199127      -73.595261
 C        65.830956      -78.256477      -75.483887
 H        66.368927      -77.455421      -75.977951
 C        65.823334      -79.504776      -76.151115
 H        66.452225      -79.705620      -77.027847
 C        65.346474      -80.561111      -75.324333
 H        65.010445      -81.532593      -75.665955
 C        60.911034      -85.415161      -75.652817
 C        59.838139      -84.588493      -75.838577
 N        61.659832      -84.769691      -74.586380
 C        61.117214      -83.523140      -74.242630
 N        59.910912      -83.465073      -74.893204
 C        58.917892      -82.536819      -74.313599
 C        59.418442      -81.837494      -73.169876
 C        58.520180      -81.234955      -72.284119
 H        58.852562      -80.647995      -71.446991
 C        57.152473      -81.271057      -72.475380
 H        56.439110      -81.082718      -71.634819
 C        56.619431      -81.827011      -73.656433
 H        55.581348      -81.822647      -73.898827
 C        57.519722      -82.502029      -74.535660
 H        57.187675      -82.486023      -75.540787
 C        58.769234      -84.973305      -76.654037
 H        57.809937      -84.441055      -76.743332
 C        58.877617      -86.150284      -77.453766
 H        58.008682      -86.393921      -78.096634
 C        60.014717      -87.036041      -77.331131
 H        60.195015      -87.762436      -78.067642
 C        60.972168      -86.652115      -76.368446
 H        61.689377      -87.404694      -76.046692
 C        62.597275      -85.448494      -73.789810
 C        63.993896      -85.300766      -74.113907
 H        64.274742      -84.614105      -74.863724
 C        64.909904      -85.850037      -73.251297
 H        65.931076      -85.485748      -73.367935
 C        64.479225      -86.565659      -72.072388
 H        65.247643      -86.664627      -71.280792
 C        63.104164      -86.789062      -71.813919
 H        62.643440      -87.298019      -70.934998
 C        62.204025      -86.211853      -72.692886
 H        61.127220      -86.289139      -72.451622
 C        61.639503      -78.754951      -76.241646
 C        62.090141      -78.174683      -75.056267
 N        61.267460      -80.052734      -75.921722
 C        61.395836      -80.292007      -74.559982
 N        61.837990      -79.166397      -74.010788
 C        61.725479      -79.030746      -72.547974
 C        61.563393      -80.193176      -71.786469
 C        61.452045      -80.122299      -70.353714
 H        61.238403      -81.030762      -69.758774
 C        61.573532      -78.923050      -69.623016
 H        61.563560      -78.927704      -68.539131
 C        61.767033      -77.756981      -70.384476
 H        61.813984      -76.819122      -69.928398
 C        61.779022      -77.822189      -71.800034
 H        61.797600      -76.933517      -72.416412
 C        62.619678      -76.864532      -75.104080
 H        63.202248      -76.623810      -74.236511
 C        62.534637      -76.093750      -76.292007
 H        63.014862      -75.154434      -76.397675
 C        61.966011      -76.699921      -77.452744
 H        61.809196      -76.054459      -78.263779
 C        61.483845      -78.033943      -77.454788
 H        61.052925      -78.594566      -78.305908
 C        61.185085      -81.010101      -76.965744
 C        62.393097      -81.625153      -77.290436
 H        63.402000      -81.156509      -77.209946
 C        62.452381      -82.762833      -78.113510
 H        63.411667      -83.153473      -78.565369
 C        61.271729      -83.229156      -78.681229
 H        61.370262      -84.075027      -79.309868
 C        60.061485      -82.677704      -78.296135
 H        59.061607      -82.947388      -78.651825
 C        60.022591      -81.550926      -77.508621
 H        59.225525      -80.906471      -77.750206
 Ir       61.514961      -81.826141      -62.337833
 C        59.172607      -80.042831      -59.049202
 C        59.431084      -79.024490      -59.938961
 N        59.883045      -81.225357      -59.561005
 C        60.608791      -80.913452      -60.733570
 N        60.408352      -79.511185      -60.941498
 C        60.990852      -78.952301      -62.069572
 C        61.782486      -79.789307      -62.860172
 C        62.753777      -79.290543      -63.780567
 H        63.362144      -79.948669      -64.351578
 C        62.916992      -77.895683      -63.862015
 H        63.547386      -77.423264      -64.632416
 C        62.171013      -77.068436      -63.025372
 H        62.496246      -76.113106      -62.752464
 C        61.198006      -77.551773      -62.178177
 H        60.587955      -76.767601      -61.815521
 C        58.715912      -77.798904      -59.713032
 H        58.717964      -77.068436      -60.518089
 C        57.910812      -77.590485      -58.560089
 H        57.206303      -76.813004      -58.502613
 C        57.710381      -78.670395      -57.651886
 H        56.873734      -78.653221      -56.972897
 C        58.310020      -79.859894      -57.946724
 H        58.062042      -80.664734      -57.293621
 C        60.190342      -82.400009      -58.804924
 C        61.263462      -82.272369      -57.874374
 H        61.832809      -81.305542      -57.962692
 C        61.359043      -83.269760      -56.922966
 H        62.248550      -83.285614      -56.348915
 C        60.490120      -84.343407      -56.855583
 H        60.891045      -85.252747      -56.338120
 C        59.382141      -84.445145      -57.763458
 H        58.565193      -85.225235      -57.731052
 C        59.294258      -83.486176      -58.791447
 H        58.418221      -83.393753      -59.423443
 C        58.262589      -81.730377      -65.303757
 C        59.406738      -81.818428      -66.037704
 N        58.670845      -81.609726      -63.984749
 C        60.049477      -81.777679      -63.825821
 N        60.476593      -81.909828      -65.117722
 C        61.898476      -82.173981      -65.258743
 C        62.506603      -82.541183      -64.071838
 C        63.740128      -83.186363      -64.111153
 H        64.328331      -83.433922      -63.259193
 C        64.417297      -83.306870      -65.305397
 H        65.411446      -83.727341      -65.272598
 C        63.907104      -82.850601      -66.514084
 H        64.504662      -82.698807      -67.356743
 C        62.628349      -82.200180      -66.417969
 H        62.338223      -81.421539      -67.118568
 C        59.387573      -81.917252      -67.418625
 H        60.206669      -82.388367      -67.985229
 C        58.144440      -81.925545      -68.120590
 H        58.242672      -82.161026      -69.156052
 C        56.944740      -81.879990      -67.397018
 H        56.112427      -82.331024      -67.887756
 C        57.016361      -81.794556      -65.981903
 H        56.082893      -81.902847      -65.378983
 C        57.780930      -81.053032      -62.936733
 C        57.259491      -81.836182      -61.881943
 H        57.705086      -82.798782      -61.693676
 C        56.337563      -81.304092      -61.005005
 H        56.019917      -81.811447      -60.137314
 C        55.894642      -80.007034      -61.218479
 H        55.325302      -79.329544      -60.521370
 C        56.484795      -79.185455      -62.220341
 H        56.229454      -78.108459      -62.132164
 C        57.395760      -79.760490      -63.065086
 H        57.738708      -79.279045      -63.952496
 C        61.185234      -86.050880      -61.272453
 C        62.281803      -85.574524      -60.536709
 N        60.750870      -84.933716      -61.999413
 C        61.488297      -83.799088      -61.747593
 N        62.448803      -84.155655      -60.842678
 C        63.312141      -83.175446      -60.353157
 C        63.159248      -81.905319      -61.016251
 C        64.159599      -80.978806      -60.828140
 H        63.969826      -80.024643      -61.204525
 C        65.294640      -81.219528      -60.069569
 H        66.201126      -80.552811      -60.117043
 C        65.429161      -82.413544      -59.398201
 H        66.333641      -82.640732      -58.877235
 C        64.428467      -83.392303      -59.553604
 H        64.573235      -84.344131      -58.984425
 C        63.062225      -86.572647      -59.943066
 H        64.004013      -86.214325      -59.504494
 C        62.753120      -87.941742      -60.265297
 H        63.405144      -88.682686      -59.748310
 C        61.653717      -88.366287      -60.976395
 H        61.707760      -89.407471      -61.309097
 C        60.789860      -87.362930      -61.501400
 H        59.871056      -87.616318      -62.068668
 C        59.846596      -84.978256      -63.162296
 C        58.475155      -84.930367      -62.925972
 H        58.134533      -84.855560      -61.929588
 C        57.590294      -85.033264      -63.992332
 H        56.557159      -84.800842      -63.711411
 C        58.077560      -85.354912      -65.292801
 H        57.370033      -85.093956      -66.158249
 C        59.478783      -85.440491      -65.466743
 H        59.816822      -85.629837      -66.539108
 C        60.380386      -85.179680      -64.413940
 H        61.385376      -85.060333      -64.549026
