206
 generated by VMD
  IR        20.059999       33.799999       35.009998
  C1        24.190001       34.509998       33.790001
  C2        23.549999       35.740002       33.480000
  N1        23.219999       33.580002       34.119999
  C3a       21.870001       34.029999       34.049999
  N2        22.100000       35.430000       33.610001
  C4        20.930000       36.209999       33.439999
  C5a       19.750000       35.490002       33.730000
  C6        18.549999       35.990002       33.270000
  H1        17.639999       35.389999       33.330002
  C7        18.480000       37.180000       32.580002
  H2        17.600000       37.410000       32.029999
  C8        19.709999       37.900002       32.410000
  H3        19.660000       38.849998       31.790001
  C9        20.920000       37.400002       32.779999
  H4        21.799999       37.910000       32.430000
  C10       24.309999       36.889999       33.310001
  H5        23.900000       37.840000       32.970001
  C11       25.660000       36.799999       33.700001
  H6        26.150000       37.730000       34.009998
  C12       26.299999       35.639999       34.009998
  H7        27.320000       35.669998       34.360001
  C13       25.510000       34.470001       34.000000
  H8        25.980000       33.570000       34.310001
  C6        23.510000       32.139999       34.119999
  C1        23.450001       31.309999       33.000000
  H1        22.959999       31.719999       32.130001
  C2        23.840000       29.980000       33.090000
  H2        23.590000       29.410000       32.209999
  C3        24.270000       29.389999       34.270000
  H3        24.370001       28.280001       34.320000
  C4        24.250000       30.160000       35.470001
  H4        24.430000       29.670000       36.419998
  C5        23.889999       31.510000       35.360001
  H5        23.940001       32.330002       36.099998
  C1        20.400000       36.060001       38.669998
  C2        19.080000       35.630001       38.630001
  N1        21.010000       35.849998       37.389999
  C3b       20.049999       35.169998       36.590000
  N2        18.870001       35.119999       37.330002
  C4        17.709999       34.480000       36.799999
  C5b       18.030001       33.689999       35.660000
  C6        17.040001       32.779999       35.150002
  H1        17.280001       32.250000       34.250000
  C7        15.840000       32.700001       35.810001
  H2        15.110000       32.029999       35.430000
  C8        15.580000       33.480000       36.900002
  H3        14.730000       33.330002       37.520000
  C9        16.490000       34.430000       37.330002
  H4        16.100000       35.150002       37.990002
  C10       18.230000       35.810001       39.720001
  H5        17.120001       35.590000       39.650002
  C11       18.670000       36.540001       40.840000
  H6        18.190001       36.400002       41.779999
  C12       20.030001       37.070000       40.889999
  H7        20.330000       37.730000       41.680000
  C13       20.920000       36.759998       39.779999
  H8        21.990000       37.090000       39.779999
  C6        21.920000       36.799999       36.810001
  C1        21.420000       38.070000       36.450001
  H1        20.360001       38.200001       36.650002
  C2        22.320000       39.070000       35.980000
  H2        22.010000       40.099998       35.930000
  C3        23.719999       38.889999       35.930000
  H3        24.410000       39.680000       35.770000
  C4        24.180000       37.669998       36.400002
  H4        25.160000       37.389999       36.419998
  C5        23.309999       36.650002       36.830002
  H5        23.920000       35.880001       37.410000
  C1        21.250000       30.049999       37.110001
  C2        20.860001       29.680000       35.840000
  N1        21.080000       31.420000       37.150002
  C3c       20.559999       32.000000       35.970001
  N2        20.440001       30.889999       35.169998
  C4        19.740000       31.090000       33.880001
  C5c       19.719999       32.419998       33.459999
  C6        19.440001       32.720001       32.160000
  H1        19.459999       33.799999       31.830000
  C7        19.170000       31.740000       31.240000
  H2        19.230000       32.020000       30.200001
  C8        19.100000       30.420000       31.629999
  H3        18.670000       29.690001       30.930000
  C9        19.379999       30.080000       32.959999
  H4        19.450001       29.070000       33.169998
  C10       21.000000       28.280001       35.490002
  H5        20.410000       27.809999       34.730000
  C11       21.410000       27.350000       36.410000
  H6        21.350000       26.370001       36.070000
  C12       21.740000       27.770000       37.740002
  H7        21.889999       27.100000       38.610001
  C13       21.760000       29.139999       38.029999
  H8        21.900000       29.540001       39.009998
  C6        21.309999       32.090000       38.360001
  C1        20.420000       31.920000       39.450001
  H1        19.719999       31.110001       39.430000
  C2        20.510000       32.619999       40.669998
  H2        19.830000       32.599998       41.480000
  C3        21.600000       33.480000       40.830002
  H3        21.660000       34.009998       41.759998
  C4        22.459999       33.610001       39.740002
  H4        23.340000       34.180000       39.919998
  C5        22.379999       32.980000       38.450001
  H5        22.930000       33.209999       37.570000
  IR        31.440001       31.580000       37.849998
  C1        30.670000       28.650000       34.639999
  C2        29.440001       29.000000       35.150002
  N1        31.670000       29.340000       35.470001
  C3a       31.049999       30.070000       36.509998
  N2        29.650000       29.799999       36.380001
  C4        28.799999       30.440001       37.270000
  C5a       29.389999       31.230000       38.259998
  C6        28.709999       31.600000       39.459999
  H1        29.190001       32.180000       40.209999
  C7        27.400000       31.120001       39.639999
  H2        26.760000       31.459999       40.470001
  C8        26.840000       30.280001       38.680000
  H3        26.080000       29.600000       38.910000
  C9        27.480000       29.969999       37.500000
  H4        26.809999       29.530001       36.810001
  C10       28.299999       28.549999       34.400002
  H5        27.340000       29.000000       34.639999
  C11       28.420000       27.670000       33.290001
  H6        27.639999       27.530001       32.599998
  C12       29.719999       27.309999       32.830002
  H7        29.850000       26.930000       31.830000
  C13       30.790001       27.840000       33.490002
  H8        31.740000       27.620001       33.060001
  C6        33.060001       29.010000       35.540001
  C1        33.380001       27.840000       36.290001
  H1        32.509998       27.410000       36.860001
  C2        34.650002       27.330000       36.099998
  H2        34.959999       26.580000       36.779999
  C3        35.580002       27.900000       35.250000
  H3        36.650002       27.660000       35.480000
  C4        35.240002       29.049999       34.459999
  H4        35.889999       29.530001       33.669998
  C5        33.980000       29.639999       34.680000
  H5        33.580002       30.410000       34.029999
  C1        29.969999       35.080002       35.619999
  C2        29.920000       35.450001       36.930000
  N1        30.360001       33.750000       35.619999
  C3b       30.719999       33.290001       36.889999
  N2        30.440001       34.369999       37.680000
  C4        30.790001       34.200001       39.080002
  C5b       31.610001       33.110001       39.310001
  C6        32.330002       33.040001       40.500000
  H1        32.919998       32.209999       40.810001
  C7        32.099998       33.959999       41.500000
  H2        32.610001       33.810001       42.439999
  C8        31.200001       35.009998       41.369999
  H3        30.830000       35.540001       42.189999
  C9        30.490000       35.040001       40.119999
  H4        29.490000       35.459999       40.049999
  C10       29.530001       36.720001       37.320000
  H5        29.860001       37.169998       38.270000
  C11       29.160000       37.689999       36.340000
  H6        29.030001       38.669998       36.740002
  C12       29.240000       37.360001       34.980000
  H7        29.400000       38.189999       34.330002
  C13       29.660000       36.049999       34.630001
  H8        29.870001       35.810001       33.560001
  C6        30.110001       32.860001       34.459999
  C1        31.150000       32.349998       33.650002
  H1        32.160000       32.410000       34.020000
  C2        30.860001       31.629999       32.509998
  H2        31.600000       31.129999       31.950001
  C3        29.530001       31.469999       32.150002
  H3        29.080000       30.760000       31.400000
  C4        28.480000       31.900000       33.009998
  H4        27.480000       31.500000       32.740002
  C5        28.820000       32.610001       34.130001
  H5        28.100000       33.130001       34.720001
  C1        35.709999       32.259998       37.220001
  C2        35.639999       31.129999       38.049999
  N1        34.369999       32.619999       37.020000
  C3c       33.480000       31.780001       37.650002
  N2        34.230000       30.840000       38.299999
  C4        33.580002       29.809999       38.980000
  C5c       32.150002       29.980000       39.029999
  C6        31.459999       29.200001       39.930000
  H1        30.420000       29.240000       39.860001
  C7        32.070000       28.299999       40.790001
  H2        31.530001       27.850000       41.669998
  C8        33.430000       28.100000       40.720001
  H3        33.919998       27.469999       41.430000
  C9        34.180000       28.870001       39.810001
  H4        35.279999       28.670000       39.779999
  C10       36.860001       30.750000       38.619999
  H5        36.779999       29.969999       39.389999
  C11       37.990002       31.620001       38.419998
  H6        38.930000       31.250000       38.889999
  C12       38.020000       32.709999       37.580002
  H7        38.880001       33.369999       37.730000
  C13       36.810001       33.049999       36.910000
  H8        36.750000       33.900002       36.200001
  C6        33.910000       33.919998       36.500000
  C1        33.799999       34.070000       35.119999
  H1        34.040001       33.250000       34.500000
  C2        33.430000       35.299999       34.590000
  H2        33.200001       35.250000       33.520000
  C3        33.330002       36.439999       35.439999
  H3        32.709999       37.310001       35.020000
  C4        33.500000       36.240002       36.830002
  H4        33.340000       37.169998       37.470001
  C5        33.720001       34.959999       37.380001
  H5        33.669998       34.759998       38.380001
