206
 generated by VMD
 Ir      110.263947      -96.108704      -18.633762
 C       111.323036     -100.075180      -20.436483
 C       111.815506     -100.036423      -19.116684
 N       110.809631      -98.759445      -20.664667
 C       110.882347      -97.905945      -19.520622
 N       111.563126      -98.741913      -18.610083
 C       112.306335      -98.019028      -17.712765
 C       111.988373      -96.629578      -17.532328
 C       112.671631      -95.840347      -16.567158
 H       112.513199      -94.758072      -16.589451
 C       113.572166      -96.454384      -15.711939
 H       113.904945      -95.844223      -14.840015
 C       113.870102      -97.877441      -15.821178
 H       114.416031      -98.317139      -15.029707
 C       113.259872      -98.612091      -16.803230
 H       113.673523      -99.508789      -17.090664
 C       112.292000     -101.296021      -18.623764
 H       112.621994     -101.343613      -17.587070
 C       112.310219     -102.443192      -19.406164
 H       112.670776     -103.309814      -18.878262
 C       111.858337     -102.437790      -20.727406
 H       111.962921     -103.332504      -21.332590
 C       111.341568     -101.236313      -21.221170
 H       110.863373     -101.333847      -22.136326
 C       110.569046      -98.205376      -21.980619
 C       111.579811      -97.582214      -22.712557
 H       112.535370      -97.399292      -22.252089
 C       111.273201      -97.129211      -23.989464
 H       111.996544      -96.496391      -24.470402
 C       110.001877      -97.320374      -24.574936
 H       109.698395      -96.872772      -25.512196
 C       109.010254      -98.087677      -23.835453
 H       107.982803      -98.158966      -24.287308
 C       109.326462      -98.440689      -22.554987
 H       108.632629      -99.021118      -21.996054
 C       107.666267      -97.488785      -15.427261
 C       107.553879      -96.080978      -15.417721
 N       108.646126      -97.810875      -16.299633
 C       109.150467      -96.696945      -16.947868
 N       108.483101      -95.661499      -16.361475
 C       109.086548      -94.374992      -16.561834
 C       109.955750      -94.276535      -17.654392
 C       110.703094      -93.088791      -17.800528
 H       111.281425      -92.829605      -18.689716
 C       110.494720      -91.941498      -16.957787
 H       111.088974      -91.031281      -16.874910
 C       109.628876      -92.143463      -15.889277
 H       109.348099      -91.296417      -15.323856
 C       108.883942      -93.306808      -15.760439
 H       107.973663      -93.257278      -15.314646
 C       106.296936      -95.510483      -14.875378
 H       105.972427      -94.485016      -14.792814
 C       105.340256      -96.333817      -14.314051
 H       104.525452      -95.953918      -13.684000
 C       105.519791      -97.732376      -14.370583
 H       104.760307      -98.344215      -13.847755
 C       106.740906      -98.295853      -14.873325
 H       106.923492      -99.351418      -14.879395
 C       109.359009      -99.101227      -16.198603
 C       108.952225     -100.070641      -17.119125
 H       108.278290      -99.880890      -17.933994
 C       109.342926     -101.390984      -16.879871
 H       109.179192     -102.160233      -17.588354
 C       110.138382     -101.696640      -15.777956
 H       110.054718     -102.671478      -15.395185
 C       110.617584     -100.733154      -14.942400
 H       111.337570     -100.857864      -14.168139
 C       110.248787      -99.374474      -15.193901
 H       110.790237      -98.623123      -14.804806
 C       107.085167      -95.272369      -21.470079
 C       108.222496      -94.682716      -22.023525
 N       107.509216      -95.794022      -20.238918
 C       108.798355      -95.603302      -19.998386
 N       109.196396      -94.823578      -21.115248
 C       110.544342      -94.390167      -21.079269
 C       111.417175      -95.135498      -20.170231
 C       112.802261      -95.027817      -20.328188
 H       113.457367      -95.826096      -19.957668
 C       113.381950      -94.047821      -21.154724
 H       114.411972      -93.873352      -20.938557
 C       112.575516      -93.260521      -21.960657
 H       113.089241      -92.687241      -22.676147
 C       111.182335      -93.404343      -21.889460
 H       110.599167      -92.634079      -22.341471
 C       108.111145      -94.106567      -23.325008
 H       109.098923      -93.775864      -23.674803
 C       106.992241      -94.164337      -24.134705
 H       107.039139      -93.750572      -25.122833
 C       105.868179      -94.857483      -23.603928
 H       105.086357      -95.146408      -24.224308
 C       105.902176      -95.342888      -22.254658
 H       104.993790      -95.852341      -21.677607
 C       106.588181      -96.442688      -19.426361
 C       106.398911      -97.782028      -19.589556
 H       107.073105      -98.336273      -20.224903
 C       105.561111      -98.476059      -18.794678
 H       105.709282      -99.541946      -18.698721
 C       104.729561      -97.795914      -17.899731
 H       103.859375      -98.331284      -17.596668
 C       104.785492      -96.385696      -17.793957
 H       103.895523      -95.838806      -17.493849
 C       105.757767      -95.682343      -18.539574
 H       105.965942      -94.692795      -18.294668
 Ir      110.263947      -96.108704       -8.350779
 C       106.007126      -96.629776       -9.176037
 C       105.979935      -95.739250       -8.184467
 N       107.328995      -97.092850       -9.315094
 C       108.204842      -96.453789       -8.500113
 N       107.379959      -95.588959       -7.725371
 C       108.108353      -94.824005       -6.649415
 C       109.537460      -94.909248       -6.761086
 C       110.328690      -94.250198       -5.773657
 H       111.431229      -94.346985       -5.860423
 C       109.722488      -93.505997       -4.756997
 H       110.252220      -92.847275       -4.066596
 C       108.293747      -93.437126       -4.720374
 H       107.822464      -92.876846       -3.874814
 C       107.531113      -94.090355       -5.695607
 H       106.471848      -94.111008       -5.629653
 C       104.831451      -95.148087       -7.840647
 H       104.714088      -94.731834       -6.854008
 C       103.660385      -95.349892       -8.565884
 H       102.746460      -95.400116       -7.949107
 C       103.755569      -96.139458       -9.683079
 H       102.879242      -96.193604      -10.349802
 C       104.940231      -96.882782       -9.924246
 H       104.990036      -97.764755      -10.571119
 C       107.648216      -98.452621       -9.939056
 C       107.328911      -99.689911       -9.386929
 H       106.834885      -99.737396       -8.378269
 C       107.384827     -100.839401      -10.149984
 H       107.250519     -101.808411       -9.766069
 C       107.693756     -100.755112      -11.496704
 H       107.340500     -101.552155      -12.149416
 C       108.121986      -99.603836      -12.033537
 H       108.338219      -99.492401      -13.077484
 C       108.156342      -98.460167      -11.266100
 H       108.538818      -97.559937      -11.764391
 C       110.600975      -92.010544       -9.826605
 C       111.918365      -92.275314       -9.426624
 N       109.809380      -93.125000       -9.652699
 C       110.592178      -94.223099       -9.184177
 N       111.839233      -93.665100       -9.003965
 C       112.776123      -94.526993       -8.337030
 C       112.304329      -95.809769       -7.922307
 C       113.176567      -96.747360       -7.371090
 H       112.744354      -97.770187       -7.312685
 C       114.527885      -96.374146       -7.142073
 H       115.165031      -97.079262       -6.642714
 C       115.022331      -95.042480       -7.502055
 H       116.020721      -94.784302       -7.276324
 C       114.174759      -94.144547       -8.157759
 H       114.482819      -93.106567       -8.194765
 C       112.904922      -91.326965       -9.478067
 H       113.913437      -91.556137       -9.469791
 C       112.638016      -90.051117       -9.953524
 H       113.520081      -89.515846      -10.341785
 C       111.408112      -89.757446      -10.473976
 H       111.272278      -88.930588      -11.165333
 C       110.417801      -90.757980      -10.323221
 H       109.377281      -90.385971      -10.464077
 C       108.470398      -93.259033      -10.115044
 C       108.236053      -94.190216      -11.113684
 H       108.958481      -94.903442      -11.515581
 C       106.925598      -94.402023      -11.490969
 H       106.650803      -94.992416      -12.344273
 C       105.866714      -93.743080      -10.848352
 H       104.894653      -94.069809      -11.045679
 C       106.112724      -92.845627       -9.860956
 H       105.385040      -92.637672       -9.131683
 C       107.464890      -92.595474       -9.493162
 H       107.728653      -91.999252       -8.633188
 C       112.385643      -98.904770      -11.112478
 C       111.897072      -99.667145      -10.070465
 N       111.875420      -97.639587      -10.856579
 C       111.088814      -97.495041       -9.704685
 N       111.019760      -98.848785       -9.281841
 C       110.436378      -99.058655       -7.994357
 C       110.197540      -97.921921       -7.222750
 C       109.690506      -98.092239       -5.903544
 H       109.258499      -97.258057       -5.412011
 C       109.325691      -99.374908       -5.387045
 H       108.572861      -99.409859       -4.622241
 C       109.476250     -100.505936       -6.249609
 H       109.184723     -101.442307       -5.824275
 C       110.071930     -100.357697       -7.552910
 H       110.374809     -101.132767       -8.204538
 C       112.386551     -100.975952       -9.887882
 H       112.035309     -101.769073       -9.251570
 C       113.440918     -101.394409      -10.642937
 H       113.536064     -102.438538      -10.818487
 C       113.853790     -100.613464      -11.721348
 H       114.841888     -100.817688      -12.218307
 C       113.232544      -99.389580      -11.972664
 H       113.525734      -98.917587      -12.844372
 C       111.988823      -96.581696      -11.742355
 C       112.882698      -95.520203      -11.491131
 H       113.568153      -95.607666      -10.686523
 C       112.770218      -94.328278      -12.132744
 H       113.415543      -93.528152      -11.764439
 C       111.923454      -94.160934      -13.228731
 H       112.034103      -93.328262      -13.877514
 C       111.062714      -95.242310      -13.572727
 H       110.493774      -95.270096      -14.488880
 C       111.033066      -96.411942      -12.780769
 H       110.298630      -97.168793      -12.944418
