206
 generated by VMD
  IR        36.320000       38.770000        5.570000
  C1        38.549999       35.070000        6.220000
  C2        39.169998       35.689999        5.170000
  N1        37.369999       35.790001        6.560000
  C3a       37.299999       36.959999        5.700000
  N2        38.380001       36.820000        4.800000
  C4        38.349998       37.650002        3.640000
  C5a       37.310001       38.610001        3.690000
  C6        37.020000       39.380001        2.530000
  H1        36.209999       40.099998        2.470000
  C7        37.650002       39.090000        1.310000
  H2        37.480000       39.779999        0.490000
  C8        38.540001       38.029999        1.190000
  H3        38.830002       37.610001        0.270000
  C9        38.910000       37.320000        2.330000
  H4        39.830002       36.810001        2.280000
  C10       40.459999       35.110001        4.760000
  H5        41.139999       35.639999        4.140000
  C11       41.110001       34.060001        5.450000
  H6        42.150002       33.750000        5.270000
  C12       40.439999       33.540001        6.550000
  H7        40.759998       32.680000        7.080000
  C13       39.160000       34.099998        6.880000
  H8        38.700001       33.689999        7.830000
  C6        36.270000       35.270000        7.260000
  C1        36.049999       35.650002        8.630000
  H1        36.630001       36.349998        9.160000
  C2        34.810001       35.290001        9.240000
  H2        34.389999       35.860001       10.040000
  C3        33.849998       34.650002        8.400000
  H3        32.959999       34.240002        8.840000
  C4        34.060001       34.250000        7.100000
  H4        33.360001       33.529999        6.650000
  C5        35.340000       34.540001        6.550000
  H5        35.610001       34.150002        5.580000
  C1        39.669998       41.529999        5.770000
  C2        38.619999       42.340000        5.630000
  N1        39.200001       40.220001        5.920000
  C3b       37.840000       40.180000        5.940000
  N2        37.459999       41.480000        5.770000
  C4        36.029999       41.709999        5.580000
  C5b       35.310001       40.570000        5.190000
  C6        34.130001       40.680000        4.490000
  H1        33.619999       39.810001        4.160000
  C7        33.619999       41.919998        4.180000
  H2        32.790001       41.970001        3.480000
  C8        34.189999       43.080002        4.610000
  H3        33.709999       44.009998        4.500000
  C9        35.439999       42.939999        5.300000
  H4        35.970001       43.849998        5.610000
  C10       38.759998       43.669998        5.280000
  H5        37.959999       44.259998        4.930000
  C11       40.060001       44.220001        5.170000
  H6        40.250000       45.270000        5.160000
  C12       41.169998       43.380001        5.320000
  H7        42.189999       43.730000        5.070000
  C13       40.939999       42.029999        5.580000
  H8        41.799999       41.380001        5.710000
  C6        40.009998       39.230000        6.540000
  C1        39.619999       38.630001        7.690000
  H1        38.910000       39.160000        8.270000
  C2        40.290001       37.529999        8.160000
  H2        40.150002       37.290001        9.180000
  C3        41.389999       37.000000        7.450000
  H3        41.840000       36.080002        7.750000
  C4        41.790001       37.630001        6.260000
  H4        42.730000       37.430000        5.690000
  C5        41.060001       38.709999        5.830000
  H5        41.480000       39.299999        5.070000
  C1        33.810001       38.750000        9.170000
  C2        33.000000       38.270000        8.260000
  N1        35.029999       39.169998        8.570000
  C3c       35.070000       38.779999        7.230000
  N2        33.730000       38.259998        7.050000
  C4        33.529999       37.730000        5.780000
  C5c       34.669998       37.630001        4.950000
  C6        34.700001       36.740002        3.900000
  H1        35.639999       36.810001        3.370000
  C7        33.610001       36.070000        3.500000
  H2        33.630001       35.450001        2.620000
  C8        32.439999       36.099998        4.250000
  H3        31.610001       35.509998        3.970000
  C9        32.400002       36.900002        5.420000
  H4        31.530001       36.910000        5.970000
  C10       31.750000       37.830002        8.690000
  H5        31.150000       37.330002        7.940000
  C11       31.290001       38.009998       10.020000
  H6        30.340000       37.669998       10.310000
  C12       32.119999       38.580002       10.990000
  H7        31.700001       38.720001       11.950000
  C13       33.380001       38.939999       10.550000
  H8        33.980000       39.310001       11.310000
  C6        36.029999       39.980000        9.270000
  C1        36.720001       39.410000       10.360000
  H1        36.410000       38.369999       10.670000
  C2        37.680000       40.189999       10.950000
  H2        38.310001       39.790001       11.740000
  C3        37.939999       41.509998       10.510000
  H3        38.549999       42.020000       11.250000
  C4        37.169998       42.119999        9.550000
  H4        36.990002       43.189999        9.570000
  C5        36.259998       41.340000        8.910000
  H5        35.560001       41.860001        8.330000
  IR        25.889999       32.869999        3.030000
  C1        26.160000       34.400002       -1.100000
  C2        24.959999       33.810001       -1.040000
  N1        26.750000       34.040001        0.090000
  C3a       25.969999       33.459999        1.000000
  N2        24.770000       33.320000        0.280000
  C4        23.650000       32.820000        1.040000
  C5a       23.879999       32.669998        2.450000
  C6        22.740000       32.259998        3.180000
  H1        22.900000       31.930000        4.190000
  C7        21.500000       32.000000        2.530000
  H2        20.770000       31.480000        3.120000
  C8        21.280001       32.250000        1.220000
  H3        20.340000       32.180000        0.770000
  C9        22.360001       32.630001        0.440000
  H4        22.250000       32.810001       -0.620000
  C10       24.000000       34.110001       -2.100000
  H5        23.170000       33.439999       -2.340000
  C11       24.330000       35.020000       -3.140000
  H6        23.700001       35.049999       -3.940000
  C12       25.590000       35.570000       -3.100000
  H7        26.090000       35.860001       -4.010000
  C13       26.500000       35.330002       -2.060000
  H8        27.420000       35.820000       -2.090000
  C6        28.190001       34.020000        0.060000
  C1        28.900000       33.130001       -0.800000
  H1        28.510000       32.669998       -1.680000
  C2        30.230000       32.849998       -0.550000
  H2        30.799999       32.040001       -1.010000
  C3        30.889999       33.590000        0.470000
  H3        31.969999       33.590000        0.520000
  C4        30.150000       34.509998        1.300000
  H4        30.740000       35.099998        2.010000
  C5        28.790001       34.709999        1.070000
  H5        28.160000       35.209999        1.850000
  C1        24.840000       36.759998        4.920000
  C2        24.780001       35.860001        5.980000
  N1        25.150000       35.990002        3.740000
  C3b       25.370001       34.639999        4.040000
  N2        25.040001       34.580002        5.450000
  C4        24.840000       33.169998        5.880000
  C5b       25.450001       32.230000        5.040000
  C6        25.629999       30.990000        5.610000
  H1        26.000000       30.250000        4.920000
  C7        25.299999       30.670000        6.900000
  H2        25.680000       29.820000        7.510000
  C8        24.559999       31.610001        7.680000
  H3        24.350000       31.420000        8.700000
  C9        24.320000       32.880001        7.160000
  H4        23.709999       33.549999        7.760000
  C10       24.590000       36.330002        7.300000
  H5        24.690001       35.580002        8.090000
  C11       24.650000       37.720001        7.520000
  H6        24.830000       38.099998        8.520000
  C12       24.780001       38.630001        6.510000
  H7        25.280001       39.520000        6.730000
  C13       24.830000       38.119999        5.200000
  H8        24.860001       38.869999        4.380000
  C6        24.750000       36.480000        2.460000
  C1        23.620001       35.889999        1.810000
  H1        22.959999       35.180000        2.170000
  C2        23.190001       36.410000        0.600000
  H2        22.430000       35.810001        0.060000
  C3        23.750000       37.560001        0.050000
  H3        23.350000       37.970001       -0.880000
  C4        24.840000       38.130001        0.650000
  H4        24.940001       39.209999        0.420000
  C5        25.410000       37.610001        1.850000
  H5        26.360001       37.900002        2.260000
  C1        30.129999       32.720001        4.170000
  C2        30.049999       31.910000        3.030000
  N1        28.809999       33.160000        4.470000
  C3c       27.870001       32.630001        3.580000
  N2        28.629999       31.820000        2.710000
  C4        27.830000       30.950001        1.850000
  C5c       26.480000       31.000000        2.200000
  C6        25.610001       29.969999        1.710000
  H1        24.590000       29.959999        2.100000
  C7        26.080000       29.070000        0.710000
  H2        25.370001       28.459999        0.180000
  C8        27.410000       29.160000        0.320000
  H3        27.709999       28.719999       -0.620000
  C9        28.299999       29.990000        0.920000
  H4        29.360001       29.950001        0.820000
  C10       31.230000       31.320000        2.500000
  H5        31.160000       30.469999        1.830000
  C11       32.439999       31.600000        3.200000
  H6        33.259998       30.910000        3.040000
  C12       32.480000       32.470001        4.330000
  H7        33.439999       32.730000        4.750000
  C13       31.299999       33.000000        4.830000
  H8        31.389999       33.720001        5.710000
  C6        28.450001       33.740002        5.780000
  C1        28.320000       32.910000        6.870000
  H1        28.490000       31.830000        6.660000
  C2        28.030001       33.310001        8.170000
  H2        27.830000       32.639999        8.980000
  C3        27.889999       34.650002        8.470000
  H3        27.830000       35.049999        9.440000
  C4        28.139999       35.570000        7.380000
  H4        28.059999       36.660000        7.520000
  C5        28.360001       35.139999        6.060000
  H5        28.680000       35.869999        5.340000
