206
 generated by VMD
  IR        58.990002       54.320000       14.690000
  C1        57.740002       51.360001       11.820000
  C2        59.119999       51.220001       11.850000
  N1        57.430000       52.480000       12.630000
  C3a       58.500000       53.099998       13.120000
  N2        59.520000       52.310001       12.640000
  C4        60.750000       52.529999       13.330000
  C5a       60.860001       53.389999       14.400000
  C6        61.990002       53.700001       15.140000
  H1        62.060001       54.389999       16.000000
  C7        63.189999       53.189999       14.640000
  H2        64.199997       53.459999       15.050000
  C8        63.209999       52.330002       13.550000
  H3        64.070000       51.759998       13.220000
  C9        62.000000       52.029999       12.890000
  H4        62.119999       51.470001       11.990000
  C10       59.689999       50.110001       11.320000
  H5        60.700001       49.919998       11.510000
  C11       58.919998       49.099998       10.640000
  H6        59.310001       48.299999       10.090000
  C12       57.540001       49.290001       10.610000
  H7        56.820000       48.590000       10.110000
  C13       56.990002       50.380001       11.200000
  H8        56.000000       50.630001       10.870000
  C6        56.169998       53.139999       12.300000
  C1        54.980000       52.709999       12.990000
  H1        55.049999       51.790001       13.570000
  C2        53.900002       53.520000       13.060000
  H2        53.119999       53.240002       13.770000
  C3        53.910000       54.720001       12.360000
  H3        52.950001       55.139999       12.340000
  C4        55.009998       55.080002       11.540000
  H4        54.930000       55.900002       10.740000
  C5        56.169998       54.310001       11.520000
  H5        57.119999       54.700001       11.080000
  C1        58.009998       51.580002       17.870001
  C2        58.130001       52.830002       18.420000
  N1        58.419998       51.720001       16.540001
  C3b       58.889999       52.990002       16.320000
  N2        58.779999       53.619999       17.520000
  C4        59.419998       54.919998       17.520000
  C5b       59.599998       55.509998       16.290001
  C6        60.310001       56.730000       16.170000
  H1        60.450001       57.189999       15.200000
  C7        60.880001       57.349998       17.320000
  H2        61.660000       58.070000       17.209999
  C8        60.610001       56.810001       18.510000
  H3        60.790001       57.259998       19.490000
  C9        59.930000       55.580002       18.639999
  H4        59.750000       55.389999       19.610001
  C10       57.709999       53.040001       19.760000
  H5        57.459999       54.049999       20.010000
  C11       57.169998       52.000000       20.520000
  H6        56.750000       52.310001       21.469999
  C12       57.020000       50.750000       19.910000
  H7        56.610001       49.919998       20.520000
  C13       57.480000       50.480000       18.580000
  H8        57.389999       49.500000       18.080000
  C6        58.689999       50.590000       15.710000
  C1        59.869999       49.910000       15.970000
  H1        60.730000       50.570000       16.090000
  C2        60.009998       48.549999       16.139999
  H2        60.930000       48.040001       16.400000
  C3        58.919998       47.790001       15.880000
  H3        59.009998       46.779999       16.200001
  C4        57.740002       48.419998       15.440000
  H4        56.860001       47.900002       15.250000
  C5        57.570000       49.770000       15.340000
  H5        56.619999       50.299999       15.180000
  C1        55.360001       56.810001       15.140000
  C2        56.000000       57.240002       14.020000
  N1        56.160000       55.750000       15.700000
  C3c       57.310001       55.500000       14.890000
  N2        57.189999       56.509998       13.840000
  C4        58.340000       56.849998       13.190000
  C5c       59.279999       55.840000       13.190000
  C6        60.549999       55.980000       12.530000
  H1        61.360001       55.290001       12.780000
  C7        60.860001       57.240002       11.910000
  H2        61.770000       57.279999       11.300000
  C8        59.959999       58.240002       11.920000
  H3        60.189999       59.200001       11.530000
  C9        58.680000       58.049999       12.520000
  H4        58.009998       58.860001       12.280000
  C10       55.369999       58.209999       13.200000
  H5        55.810001       58.380001       12.250000
  C11       54.110001       58.689999       13.570000
  H6        53.689999       59.529999       12.990000
  C12       53.400002       58.220001       14.690000
  H7        52.480000       58.669998       15.040000
  C13       54.060001       57.290001       15.510000
  H8        53.599998       56.889999       16.420000
  C6        55.889999       55.119999       16.959999
  C1        55.430000       53.810001       16.910000
  H1        55.430000       53.299999       15.950000
  C2        54.790001       53.299999       18.020000
  H2        54.320000       52.330002       18.049999
  C3        54.580002       54.130001       19.190001
  H3        54.060001       53.869999       20.059999
  C4        55.090000       55.459999       19.219999
  H4        54.779999       56.139999       20.000000
  C5        55.740002       55.869999       18.070000
  H5        56.139999       56.900002       18.150000
  IR        60.480000       53.360001        4.940000
  C1        62.779999       56.820000        3.690000
  C2        63.389999       55.779999        3.160000
  N1        61.830002       56.310001        4.650000
  C3a       61.759998       54.900002        4.520000
  N2        62.799999       54.570000        3.690000
  C4        63.160000       53.189999        3.770000
  C5a       62.169998       52.320000        4.280000
  C6        62.450001       50.990002        4.280000
  H1        61.880001       50.389999        5.000000
  C7        63.560001       50.470001        3.630000
  H2        63.869999       49.419998        3.560000
  C8        64.449997       51.360001        3.020000
  H3        65.260002       51.070000        2.390000
  C9        64.269997       52.709999        3.130000
  H4        65.050003       53.369999        2.800000
  C10       64.419998       56.040001        2.220000
  H5        65.029999       55.230000        1.940000
  C11       64.650002       57.330002        1.840000
  H6        65.199997       57.470001        0.910000
  C12       64.040001       58.439999        2.380000
  H7        64.419998       59.430000        2.290000
  C13       63.080002       58.139999        3.410000
  H8        62.599998       58.930000        3.980000
  C6        61.790001       57.000000        5.880000
  C1        62.950001       57.009998        6.750000
  H1        63.820000       56.400002        6.580000
  C2        62.900002       57.900002        7.820000
  H2        63.799999       58.009998        8.430000
  C3        61.770000       58.759998        8.070000
  H3        61.740002       59.459999        8.900000
  C4        60.650002       58.689999        7.250000
  H4        59.650002       59.049999        7.580000
  C5        60.669998       57.830002        6.140000
  H5        59.919998       57.740002        5.450000
  C1        58.900002       52.709999        0.890000
  C2        58.389999       51.709999        1.690000
  N1        59.779999       53.480000        1.760000
  C3b       59.810001       52.900002        3.040000
  N2        59.000000       51.820000        2.960000
  C4        58.959999       50.939999        4.100000
  C5b       59.450001       51.560001        5.270000
  C6        59.400002       50.880001        6.490000
  H1        59.930000       51.220001        7.370000
  C7        59.000000       49.580002        6.510000
  H2        59.540001       48.950001        7.230000
  C8        58.580002       48.939999        5.360000
  H3        58.549999       47.840000        5.280000
  C9        58.540001       49.599998        4.190000
  H4        58.169998       49.080002        3.310000
  C10       57.430000       50.919998        1.150000
  H5        56.759998       50.349998        1.740000
  C11       56.840000       51.290001       -0.080000
  H6        55.889999       50.810001       -0.380000
  C12       57.439999       52.209999       -0.870000
  H7        57.029999       52.410000       -1.830000
  C13       58.459999       52.950001       -0.380000
  H8        58.910000       53.570000       -1.070000
  C6        60.529999       54.580002        1.240000
  C1        60.349998       55.910000        1.700000
  H1        59.900002       56.009998        2.670000
  C2        60.709999       57.090000        1.020000
  H2        60.290001       58.020000        1.340000
  C3        61.630001       56.900002       -0.030000
  H3        61.980000       57.770000       -0.560000
  C4        61.959999       55.599998       -0.430000
  H4        62.869999       55.509998       -1.000000
  C5        61.330002       54.470001        0.120000
  H5        61.599998       53.450001       -0.300000
  C1        57.419998       55.790001        6.840000
  C2        58.320000       55.529999        7.890000
  N1        57.830002       55.080002        5.680000
  C3c       58.980000       54.340000        5.980000
  N2        59.209999       54.549999        7.320000
  C4        60.380001       53.910000        7.850000
  C5c       61.270000       53.450001        6.870000
  C6        62.490002       52.840000        7.300000
  H1        63.410000       52.750000        6.630000
  C7        62.840000       52.720001        8.580000
  H2        63.880001       52.549999        8.820000
  C8        61.970001       53.110001        9.580000
  H3        62.290001       53.139999       10.590000
  C9        60.720001       53.660000        9.200000
  H4        60.180000       54.130001       10.030000
  C10       58.220001       56.139999        9.080000
  H5        59.080002       56.099998        9.770000
  C11       57.250000       57.110001        9.280000
  H6        57.419998       57.599998       10.280000
  C12       56.389999       57.439999        8.250000
  H7        55.790001       58.320000        8.410000
  C13       56.509998       56.759998        7.000000
  H8        55.759998       56.919998        6.320000
  C6        57.200001       55.169998        4.370000
  C1        56.650002       53.980000        3.780000
  H1        56.599998       53.049999        4.300000
  C2        56.200001       54.029999        2.480000
  H2        55.610001       53.209999        2.140000
  C3        56.270000       55.240002        1.740000
  H3        56.060001       55.169998        0.720000
  C4        56.820000       56.389999        2.310000
  H4        56.770000       57.369999        1.860000
  C5        57.240002       56.330002        3.650000
  H5        57.790001       57.169998        3.970000
