206
 generated by VMD
  IR        28.389999       26.139999       16.280001
  C1        28.150000       27.660000       12.260000
  C2        28.480000       28.760000       13.060000
  N1        27.910000       26.549999       13.050000
  C3a       28.270000       26.910000       14.380000
  N2        28.510000       28.299999       14.310000
  C4        28.770000       28.969999       15.550000
  C5a       28.459999       28.219999       16.709999
  C6        28.299999       28.809999       18.020000
  H1        27.879999       28.290001       18.959999
  C7        28.680000       30.150000       18.170000
  H2        28.660000       30.559999       19.180000
  C8        29.000000       30.889999       17.040001
  H3        29.120001       31.940001       16.969999
  C9        29.010000       30.360001       15.750000
  H4        29.270000       30.920000       14.870000
  C10       28.670000       30.049999       12.390000
  H5        29.280001       30.700001       12.850000
  C11       28.490000       30.190001       11.060000
  H6        28.459999       31.139999       10.720000
  C12       28.250000       29.059999       10.230000
  H7        28.000000       29.000000        9.220000
  C13       28.049999       27.830000       10.900000
  H8        27.930000       26.959999       10.280000
  C6        26.840000       25.650000       12.720000
  C1        25.520000       26.120001       12.850000
  H1        25.309999       27.120001       12.990000
  C2        24.469999       25.200001       12.960000
  H2        23.610001       25.580000       13.460000
  C3        24.719999       23.820000       12.840000
  H3        23.920000       23.129999       12.480000
  C4        26.020000       23.389999       12.730000
  H4        26.150000       22.330000       12.520000
  C5        27.070000       24.290001       12.610000
  H5        28.049999       23.870001       12.570000
  C1        32.610001       25.650000       16.620001
  C2        32.080002       25.250000       17.860001
  N1        31.580000       26.230000       15.880000
  C3b       30.430000       26.180000       16.559999
  N2        30.770000       25.700001       17.790001
  C4        29.760000       25.760000       18.790001
  C5b       28.510000       25.590000       18.299999
  C6        27.530001       25.670000       19.290001
  H1        26.580000       25.730000       18.900000
  C7        27.770000       25.879999       20.610001
  H2        26.910000       25.990000       21.290001
  C8        29.090000       25.950001       21.100000
  H3        29.360001       26.280001       22.090000
  C9        30.059999       25.930000       20.139999
  H4        31.030001       26.090000       20.410000
  C10       32.849998       24.629999       18.850000
  H5        32.599998       24.770000       19.920000
  C11       34.230000       24.430000       18.580000
  H6        34.919998       24.100000       19.370001
  C12       34.799999       24.809999       17.389999
  H7        35.840000       24.940001       17.200001
  C13       33.980000       25.340000       16.379999
  H8        34.290001       25.280001       15.340000
  C6        31.820000       27.260000       14.890000
  C1        32.029999       26.790001       13.560000
  H1        32.070000       25.760000       13.320000
  C2        32.310001       27.750000       12.600000
  H2        32.450001       27.450001       11.600000
  C3        32.509998       29.090000       12.970000
  H3        32.720001       29.809999       12.170000
  C4        32.380001       29.500000       14.290000
  H4        32.889999       30.420000       14.620000
  C5        32.040001       28.570000       15.280000
  H5        32.080002       28.770000       16.360001
  C1        27.610001       21.830000       15.530000
  C2        26.350000       22.389999       15.750000
  N1        28.540001       22.930000       15.600000
  C3c       27.920000       24.150000       15.890000
  N2        26.580000       23.770000       15.950000
  C4        25.740000       24.850000       16.420000
  C5c       26.250000       26.160000       16.219999
  C6        25.379999       27.219999       16.170000
  H1        25.680000       28.170000       15.740000
  C7        24.080000       26.990000       16.459999
  H2        23.520000       27.910000       16.629999
  C8        23.530001       25.750000       16.760000
  H3        22.459999       25.719999       16.920000
  C9        24.379999       24.610001       16.780001
  H4        24.180000       23.670000       17.230000
  C10       25.270000       21.510000       15.800000
  H5        24.340000       21.760000       16.330000
  C11       25.450001       20.139999       15.450000
  H6        24.620001       19.400000       15.470000
  C12       26.760000       19.530001       15.300000
  H7        26.910000       18.500000       15.040000
  C13       27.850000       20.450001       15.370000
  H8        28.860001       20.120001       15.140000
  C6        29.879999       22.799999       15.490000
  C1        30.530001       23.030001       14.290000
  H1        30.059999       23.709999       13.640000
  C2        31.920000       22.830000       14.190000
  H2        32.270000       22.540001       13.210000
  C3        32.689999       22.299999       15.230000
  H3        33.750000       22.350000       15.260000
  C4        31.980000       21.900000       16.389999
  H4        32.430000       21.500000       17.209999
  C5        30.580000       22.120001       16.540001
  H5        29.980000       21.549999       17.230000
  IR        15.150000       29.379999        8.570000
  C1        12.730000       30.410000       12.050000
  C2        13.970000       30.250000       12.580000
  N1        12.840000       30.219999       10.710000
  C3a       14.070000       29.959999       10.280000
  N2        14.780000       29.850000       11.470000
  C4        15.980000       29.120001       11.400000
  C5a       16.520000       28.850000       10.130000
  C6        17.770000       28.260000        9.990000
  H1        18.129999       28.080000        8.970000
  C7        18.430000       27.860001       11.130000
  H2        19.340000       27.320000       11.050000
  C8        17.889999       28.049999       12.400000
  H3        18.360001       27.590000       13.190000
  C9        16.660000       28.629999       12.530000
  H4        16.020000       28.500000       13.400000
  C10       14.220000       30.610001       13.930000
  H5        15.290000       30.590000       14.180000
  C11       13.190000       31.040001       14.780000
  H6        13.400000       31.400000       15.810000
  C12       11.920000       31.080000       14.250000
  H7        11.270000       31.700001       14.740000
  C13       11.650000       30.760000       12.890000
  H8        10.660000       30.549999       12.550000
  C6        11.760000       30.650000        9.880000
  C1        11.700000       32.020000        9.560000
  H1        12.550000       32.639999        9.860000
  C2        10.810000       32.480000        8.600000
  H2        10.900000       33.520000        8.340000
  C3         9.900000       31.629999        7.970000
  H3         9.090000       32.049999        7.430000
  C4        10.020000       30.230000        8.200000
  H4         9.510000       29.540001        7.520000
  C5        10.920000       29.790001        9.190000
  H5        10.870000       28.780001        9.380000
  C1        17.469999       32.970001        7.680000
  C2        17.850000       32.099998        6.710000
  N1        16.610001       32.270000        8.530000
  C3b       16.430000       31.000000        8.120000
  N2        17.230000       30.879999        6.970000
  C4        17.240000       29.580000        6.390000
  C5b       16.400000       28.690001        7.040000
  C6        16.360001       27.379999        6.550000
  H1        16.030001       26.590000        7.170000
  C7        17.120001       26.959999        5.430000
  H2        17.180000       25.940001        5.000000
  C8        17.879999       27.879999        4.740000
  H3        18.520000       27.690001        3.830000
  C9        17.940001       29.200001        5.210000
  H4        18.740000       29.709999        4.810000
  C10       18.750000       32.520000        5.700000
  H5        18.900000       31.870001        4.860000
  C11       19.230000       33.799999        5.690000
  H6        20.030001       34.169998        5.040000
  C12       18.879999       34.660000        6.720000
  H7        18.940001       35.689999        6.570000
  C13       18.010000       34.240002        7.730000
  H8        17.900000       34.889999        8.530000
  C6        16.110001       32.820000        9.800000
  C1        16.860001       32.509998       10.900000
  H1        17.459999       31.650000       11.030000
  C2        16.629999       33.240002       12.070000
  H2        17.190001       32.939999       12.860000
  C3        15.640000       34.130001       12.190000
  H3        15.370000       34.500000       13.200000
  C4        14.910000       34.459999       11.010000
  H4        14.240000       35.330002       10.970000
  C5        15.170000       33.779999        9.820000
  H5        14.800000       34.090000        8.860000
  C1        12.230000       29.820000        5.340000
  C2        12.050000       28.559999        5.790000
  N1        13.340000       30.400000        6.090000
  C3c       13.730000       29.520000        7.050000
  N2        12.920000       28.430000        6.940000
  C4        13.280000       27.260000        7.710000
  C5c       14.050000       27.530001        8.780000
  C6        14.200000       26.610001        9.810000
  H1        14.650000       26.850000       10.740000
  C7        13.570000       25.360001        9.740000
  H2        13.590000       24.590000       10.560000
  C8        12.830000       25.020000        8.670000
  H3        12.350000       24.059999        8.550000
  C9        12.720000       25.959999        7.650000
  H4        12.310000       25.570000        6.650000
  C10       11.120000       27.760000        5.250000
  H5        11.030000       26.690001        5.440000
  C11       10.290000       28.150000        4.160000
  H6         9.420000       27.500000        4.000000
  C12       10.430000       29.510000        3.810000
  H7         9.680000       30.170000        3.350000
  C13       11.450000       30.350000        4.300000
  H8        11.630000       31.309999        3.940000
  C6        14.120000       31.549999        5.570000
  C1        14.950000       31.330000        4.460000
  H1        15.020000       30.400000        3.870000
  C2        15.720000       32.410000        3.960000
  H2        16.530001       32.290001        3.270000
  C3        15.730000       33.639999        4.640000
  H3        16.070000       34.490002        4.050000
  C4        14.920000       33.810001        5.800000
  H4        15.100000       34.730000        6.410000
  C5        14.120000       32.770000        6.240000
  H5        13.530000       32.910000        7.160000
