206
 generated by VMD
  IR         0.720000       51.599998       47.419998
  C1        -3.140000       51.150002       45.490002
  C2        -2.710000       52.430000       45.070000
  N1        -2.180000       50.599998       46.279999
  C3a       -1.090000       51.480000       46.450001
  N2        -1.480000       52.669998       45.740002
  C4        -0.420000       53.660000       45.599998
  C5a        0.560000       53.500000       46.540001
  C6         1.470000       54.509998       46.740002
  H1         2.090000       54.599998       47.590000
  C7         1.490000       55.610001       45.930000
  H2         2.340000       56.270000       45.950001
  C8         0.590000       55.689999       44.830002
  H3         0.330000       56.619999       44.490002
  C9        -0.390000       54.700001       44.680000
  H4        -1.070000       54.669998       43.779999
  C10       -3.490000       53.130001       44.230000
  H5        -3.150000       54.040001       43.919998
  C11       -4.710000       52.630001       43.730000
  H6        -5.370000       53.279999       43.180000
  C12       -5.220000       51.419998       44.180000
  H7        -6.140000       50.980000       43.790001
  C13       -4.390000       50.709999       45.099998
  H8        -4.870000       49.860001       45.580002
  C6        -2.340000       49.360001       46.980000
  C1        -2.670000       49.279999       48.349998
  H1        -2.570000       50.150002       48.959999
  C2        -2.610000       48.029999       49.020000
  H2        -2.690000       47.970001       50.119999
  C3        -2.280000       46.849998       48.290001
  H3        -2.160000       45.930000       48.880001
  C4        -2.060000       46.919998       46.900002
  H4        -1.710000       46.080002       46.349998
  C5        -2.090000       48.160000       46.250000
  H5        -1.870000       48.230000       45.180000
  C1         3.320000       50.369999       44.130001
  C2         4.170000       50.410000       45.220001
  N1         2.020000       50.709999       44.639999
  C3b        2.010000       51.040001       45.919998
  N2         3.320000       50.930000       46.259998
  C4         3.630000       51.619999       47.480000
  C5b        2.580000       51.990002       48.270000
  C6         2.880000       52.639999       49.500000
  H1         2.150000       52.720001       50.310001
  C7         4.230000       52.810001       49.900002
  H2         4.490000       53.200001       50.849998
  C8         5.290000       52.389999       49.090000
  H3         6.310000       52.450001       49.389999
  C9         4.940000       51.799999       47.900002
  H4         5.740000       51.529999       47.169998
  C10        5.460000       49.869999       45.070000
  H5         6.200000       50.060001       45.779999
  C11        5.910000       49.330002       43.860001
  H6         6.730000       48.740002       43.779999
  C12        5.060000       49.400002       42.709999
  H7         5.220000       48.750000       41.830002
  C13        3.750000       49.860001       42.840000
  H8         3.040000       49.759998       42.020000
  C6         0.850000       50.790001       43.700001
  C1        -0.090000       49.770000       43.689999
  H1         0.030000       48.779999       44.119999
  C2        -1.230000       49.889999       42.849998
  H2        -2.060000       49.130001       43.000000
  C3        -1.400000       51.070000       42.060001
  H3        -2.180000       51.110001       41.320000
  C4        -0.480000       52.049999       42.169998
  H4        -0.630000       52.869999       41.549999
  C5         0.680000       51.919998       42.880001
  H5         1.490000       52.700001       42.900002
  C1         1.120000       48.009998       49.779999
  C2         0.330000       48.840000       50.630001
  N1         1.210000       48.689999       48.590000
  C3c        0.730000       49.939999       48.610001
  N2         0.140000       50.040001       49.939999
  C4        -0.590000       51.259998       50.139999
  C5c       -0.310000       52.250000       49.150002
  C6        -0.650000       53.570000       49.480000
  H1        -0.340000       54.360001       48.849998
  C7        -1.250000       53.919998       50.680000
  H2        -1.590000       54.919998       50.830002
  C8        -1.630000       52.910000       51.610001
  H3        -2.280000       53.139999       52.520000
  C9        -1.290000       51.590000       51.250000
  H4        -1.720000       50.770000       51.799999
  C10       -0.170000       48.240002       51.799999
  H5        -0.300000       48.810001       52.639999
  C11        0.140000       46.919998       52.119999
  H6        -0.120000       46.689999       53.130001
  C12        0.840000       46.090000       51.259998
  H7         1.030000       45.080002       51.560001
  C13        1.310000       46.660000       50.080002
  H8         1.820000       46.070000       49.400002
  C6         2.080000       48.250000       47.580002
  C1         3.440000       48.290001       47.889999
  H1         3.890000       48.869999       48.709999
  C2         4.330000       47.639999       47.040001
  H2         5.290000       47.529999       47.360001
  C3         3.870000       46.959999       45.840000
  H3         4.540000       46.759998       44.990002
  C4         2.500000       46.980000       45.599998
  H4         2.100000       46.520000       44.669998
  C5         1.600000       47.630001       46.430000
  H5         0.530000       47.720001       46.169998
  IR         5.860000       40.759998       36.880001
  C1        10.140000       40.130001       37.299999
  C2         9.940000       39.869999       35.930000
  N1         8.960000       40.660000       37.810001
  C3a        7.920000       40.689999       36.900002
  N2         8.560000       40.290001       35.750000
  C4         7.740000       40.209999       34.619999
  C5a        6.350000       40.020000       34.990002
  C6         5.470000       39.480000       34.099998
  H1         4.480000       39.119999       34.380001
  C7         5.820000       39.299999       32.770000
  H2         5.070000       39.299999       31.959999
  C8         7.150000       39.480000       32.380001
  H3         7.490000       39.119999       31.400000
  C9         8.150000       39.980000       33.259998
  H4         9.080000       40.349998       32.919998
  C10       10.960000       39.220001       35.180000
  H5        10.870000       39.080002       34.090000
  C11       12.120000       38.900002       35.799999
  H6        12.990000       38.669998       35.180000
  C12       12.380000       39.130001       37.139999
  H7        13.190000       38.650002       37.650002
  C13       11.320000       39.770000       37.880001
  H8        11.450000       39.869999       38.939999
  C6         8.860000       41.110001       39.189999
  C1         9.060000       42.470001       39.430000
  H1         8.820000       43.090000       38.610001
  C2         9.280000       42.939999       40.740002
  H2         9.380000       43.980000       40.830002
  C3         9.070000       42.110001       41.840000
  H3         8.670000       42.560001       42.759998
  C4         8.880000       40.730000       41.619999
  H4         9.010000       39.950001       42.380001
  C5         8.790000       40.259998       40.320000
  H5         8.490000       39.290001       40.279999
  C1         4.850000       44.660000       35.070000
  C2         3.720000       43.849998       34.860001
  N1         5.860000       43.770000       35.680000
  C3b        5.380000       42.500000       35.830002
  N2         4.070000       42.549999       35.389999
  C4         3.290000       41.360001       35.599998
  C5b        3.800000       40.500000       36.590000
  C6         2.950000       39.560001       37.169998
  H1         3.230000       38.869999       37.959999
  C7         1.690000       39.349998       36.660000
  H2         0.980000       38.619999       37.060001
  C8         1.200000       40.110001       35.650002
  H3         0.190000       39.919998       35.160000
  C9         1.960000       41.150002       35.130001
  H4         1.560000       41.660000       34.299999
  C10        2.580000       44.400002       34.220001
  H5         1.680000       43.880001       33.849998
  C11        2.630000       45.689999       33.689999
  H6         1.900000       46.150002       33.009998
  C12        3.760000       46.470001       33.939999
  H7         3.880000       47.540001       33.700001
  C13        4.840000       45.970001       34.660000
  H8         5.580000       46.680000       35.009998
  C6         7.280000       43.970001       35.549999
  C1         8.010000       43.389999       34.549999
  H1         7.410000       42.669998       33.970001
  C2         9.360000       43.610001       34.459999
  H2         9.890000       42.959999       33.820000
  C3        10.050000       44.369999       35.439999
  H3        11.150000       44.470001       35.500000
  C4         9.330000       45.020000       36.439999
  H4         9.740000       45.919998       36.889999
  C5         7.920000       44.770000       36.540001
  H5         7.390000       45.270000       37.270000
  C1         5.510000       41.900002       41.009998
  C2         5.620000       40.509998       41.009998
  N1         5.340000       42.299999       39.730000
  C3c        5.360000       41.259998       38.840000
  N2         5.500000       40.070000       39.660000
  C4         5.540000       38.830002       39.000000
  C5c        6.050000       38.880001       37.740002
  C6         6.280000       37.680000       37.110001
  H1         6.800000       37.770000       36.209999
  C7         6.150000       36.480000       37.759998
  H2         6.770000       35.619999       37.480000
  C8         5.550000       36.419998       39.009998
  H3         4.960000       35.549999       39.240002
  C9         5.210000       37.619999       39.669998
  H4         4.720000       37.570000       40.610001
  C10        5.770000       39.720001       42.209999
  H5         6.100000       38.660000       42.279999
  C11        5.720000       40.459999       43.389999
  H6         5.530000       39.939999       44.349998
  C12        5.710000       41.849998       43.340000
  H7         5.640000       42.320000       44.320000
  C13        5.500000       42.590000       42.200001
  H8         5.310000       43.680000       42.250000
  C6         4.990000       43.709999       39.410000
  C1         5.950000       44.730000       39.630001
  H1         7.000000       44.410000       39.939999
  C2         5.650000       46.040001       39.279999
  H2         6.420000       46.790001       39.500000
  C3         4.470000       46.349998       38.619999
  H3         4.280000       47.360001       38.290001
  C4         3.500000       45.419998       38.349998
  H4         2.540000       45.599998       37.910000
  C5         3.780000       44.139999       38.779999
  H5         3.010000       43.349998       38.770000
