206
 generated by VMD
  IR        40.820000        6.610000       11.890000
  C1        44.470001        9.050000       11.470000
  C2        44.349998        8.930000       12.820000
  N1        43.320000        8.390000       10.790000
  C3a       42.500000        7.810000       11.740000
  N2        43.070000        8.230000       12.950000
  C4        42.270000        7.950000       14.120000
  C5a       41.169998        7.080000       13.930000
  C6        40.560001        6.620000       15.090000
  H1        40.000000        5.690000       14.930000
  C7        40.869999        7.060000       16.420000
  H2        40.400002        6.760000       17.309999
  C8        41.980000        7.940000       16.549999
  H3        42.299999        8.290000       17.510000
  C9        42.709999        8.330000       15.410000
  H4        43.680000        8.600000       15.680000
  C10       45.270000        9.590000       13.660000
  H5        45.340000        9.270000       14.650000
  C11       46.099998       10.550000       13.170000
  H6        46.560001       11.330000       13.790000
  C12       46.209999       10.700000       11.770000
  H7        46.740002       11.490000       11.280000
  C13       45.439999        9.850000       10.920000
  H8        45.759998        9.680000        9.830000
  C6        43.180000        8.350000        9.400000
  C1        44.160000        7.770000        8.560000
  H1        45.029999        7.440000        9.010000
  C2        44.130001        7.970000        7.140000
  H2        44.689999        7.350000        6.490000
  C3        43.209999        8.850000        6.610000
  H3        42.970001        9.050000        5.550000
  C4        42.310001        9.530000        7.440000
  H4        41.730000       10.390000        7.130000
  C5        42.259998        9.210000        8.820000
  H5        41.529999        9.820000        9.420000
  C1        42.540001        2.570000       12.300000
  C2        41.189999        2.410000       12.040000
  N1        42.680000        3.990000       12.350000
  C3b       41.520000        4.680000       12.140000
  N2        40.540001        3.660000       11.980000
  C4        39.160000        4.090000       12.070000
  C5b       39.110001        5.490000       12.410000
  C6        37.910000        5.960000       12.890000
  H1        37.830002        6.990000       13.180000
  C7        36.770000        5.190000       12.900000
  H2        36.000000        5.400000       13.580000
  C8        36.849998        3.920000       12.400000
  H3        35.980000        3.330000       12.400000
  C9        38.029999        3.320000       12.000000
  H4        38.020000        2.400000       11.490000
  C10       40.770000        1.120000       11.730000
  H5        39.799999        0.920000       11.230000
  C11       41.660000        0.060000       11.770000
  H6        41.380001       -0.980000       11.600000
  C12       43.029999        0.280000       12.030000
  H7        43.650002       -0.490000       11.630000
  C13       43.480000        1.570000       12.330000
  H8        44.549999        1.850000       12.230000
  C6        44.000000        4.560000       12.550000
  C1        44.740002        4.930000       11.430000
  H1        44.470001        4.660000       10.450000
  C2        45.900002        5.760000       11.600000
  H2        46.060001        6.490000       10.820000
  C3        46.450001        6.010000       12.860000
  H3        47.299999        6.720000       13.060000
  C4        45.730000        5.590000       14.000000
  H4        46.040001        5.610000       15.060000
  C5        44.459999        4.940000       13.830000
  H5        43.889999        4.520000       14.620000
  C1        39.000000        5.980000        7.980000
  C2        38.580002        7.260000        8.370000
  N1        39.950001        5.500000        8.940000
  C3c       40.090000        6.460000        9.980000
  N2        39.290001        7.550000        9.590000
  C4        39.279999        8.670000       10.500000
  C5c       39.669998        8.370000       11.770000
  C6        39.400002        9.310000       12.780000
  H1        39.689999        9.110000       13.770000
  C7        38.880001       10.580000       12.550000
  H2        38.709999       11.300000       13.380000
  C8        38.580002       10.920000       11.260000
  H3        38.250000       11.970000       10.980000
  C9        38.810001        9.990000       10.230000
  H4        38.750000       10.310000        9.170000
  C10       37.790001        7.980000        7.420000
  H5        37.919998        8.980000        7.560000
  C11       37.549999        7.460000        6.150000
  H6        37.099998        8.010000        5.430000
  C12       37.939999        6.140000        5.880000
  H7        37.570000        5.700000        4.930000
  C13       38.619999        5.400000        6.760000
  H8        39.040001        4.430000        6.360000
  C6        41.000000        4.640000        8.520000
  C1        42.090000        5.270000        7.960000
  H1        41.950001        6.400000        7.730000
  C2        43.310001        4.620000        7.810000
  H2        44.220001        5.120000        7.620000
  C3        43.349998        3.270000        8.230000
  H3        44.259998        2.720000        8.050000
  C4        42.230000        2.620000        8.770000
  H4        42.410000        1.690000        9.200000
  C5        41.020000        3.300000        8.910000
  H5        40.220001        2.700000        9.430000
  IR        27.120001       12.750000        9.580000
  C1        24.719999       11.810000        6.170000
  C2        24.440001       10.860000        7.040000
  N1        25.770000       12.560000        6.680000
  C3a       26.209999       12.090000        7.880000
  N2        25.350000       11.030000        8.120000
  C4        25.570000       10.240000        9.320000
  C5a       26.360001       10.900000       10.280000
  C6        26.549999       10.320000       11.570000
  H1        27.160000       10.810000       12.300000
  C7        26.100000        8.990000       11.840000
  H2        26.280001        8.580000       12.850000
  C8        25.410000        8.340000       10.830000
  H3        25.049999        7.380000       11.100000
  C9        25.190001        8.880000        9.550000
  H4        24.879999        8.270000        8.710000
  C10       23.330000       10.040000        6.860000
  H5        23.170000        9.230000        7.530000
  C11       22.440001       10.210000        5.790000
  H6        21.950001        9.300000        5.480000
  C12       22.809999       11.150000        4.830000
  H7        22.430000       11.060000        3.860000
  C13       23.870001       12.010000        5.060000
  H8        24.049999       12.720000        4.350000
  C6        26.379999       13.500000        5.900000
  C1        27.059999       13.130000        4.710000
  H1        27.020000       12.070000        4.330000
  C2        27.780001       14.070000        3.980000
  H2        27.990000       13.820000        2.960000
  C3        27.889999       15.340000        4.510000
  H3        28.709999       15.990000        4.120000
  C4        27.110001       15.730000        5.640000
  H4        27.240000       16.760000        6.000000
  C5        26.360001       14.820000        6.340000
  H5        25.760000       15.070000        7.180000
  C1        24.270000       14.810000       12.100000
  C2        25.440001       14.950000       12.810000
  N1        24.420000       13.970000       10.950000
  C3b       25.730000       13.570000       10.890000
  N2        26.330000       14.160000       12.000000
  C4        27.650000       13.650000       12.260000
  C5b       28.350000       12.990000       11.250000
  C6        29.629999       12.580000       11.380000
  H1        30.360001       12.340000       10.620000
  C7        30.320000       12.760000       12.590000
  H2        31.400000       12.560000       12.690000
  C8        29.639999       13.350000       13.680000
  H3        29.980000       13.420000       14.670000
  C9        28.309999       13.810000       13.480000
  H4        27.650000       13.940000       14.370000
  C10       25.480000       15.730000       13.950000
  H5        26.469999       16.040001       14.260000
  C11       24.330000       16.360001       14.460000
  H6        24.400000       17.209999       15.130000
  C12       23.150000       16.250000       13.730000
  H7        22.250000       16.680000       14.230000
  C13       23.110001       15.450000       12.590000
  H8        22.280001       15.290000       11.980000
  C6        23.379999       13.490000       10.060000
  C1        22.610001       12.420000       10.440000
  H1        22.990000       11.890000       11.280000
  C2        21.600000       11.900000        9.630000
  H2        21.020000       11.110000       10.030000
  C3        21.360001       12.510000        8.440000
  H3        20.559999       12.120000        7.790000
  C4        22.129999       13.620000        8.040000
  H4        21.959999       14.130000        7.100000
  C5        23.110001       14.140000        8.860000
  H5        23.700001       14.970000        8.480000
  C1        29.510000       16.360001        8.510000
  C2        30.030001       15.370000        7.710000
  N1        28.450001       15.700000        9.270000
  C3c       28.260000       14.380000        8.990000
  N2        29.299999       14.160000        8.060000
  C4        29.480000       12.740000        7.680000
  C5c       28.799999       11.900000        8.630000
  C6        28.969999       10.560000        8.540000
  H1        28.840000       10.000000        9.410000
  C7        29.760000       10.020000        7.560000
  H2        29.760000        9.010000        7.460000
  C8        30.440001       10.840000        6.680000
  H3        31.170000       10.380000        5.980000
  C9        30.250000       12.200000        6.700000
  H4        30.980000       12.730000        6.160000
  C10       31.010000       15.690000        6.790000
  H5        31.400000       14.950000        6.050000
  C11       31.620001       16.950001        6.750000
  H6        32.099998       17.250000        5.790000
  C12       31.240000       17.910000        7.700000
  H7        31.629999       18.840000        7.720000
  C13       30.150000       17.629999        8.530000
  H8        29.790001       18.400000        9.260000
  C6        27.700001       16.510000       10.200000
  C1        26.340000       16.780001        9.950000
  H1        25.799999       16.309999        9.120000
  C2        25.629999       17.650000       10.700000
  H2        24.590000       17.520000       10.840000
  C3        26.250000       18.360001       11.760000
  H3        25.900000       19.309999       12.130000
  C4        27.650000       18.059999       12.050000
  H4        28.170000       18.580000       12.870000
  C5        28.360001       17.150000       11.250000
  H5        29.320000       16.760000       11.550000
