206
 generated by VMD
  IR        33.849998       51.320000       47.020000
  C1        34.619999       48.599998       43.730000
  C2        35.860001       48.790001       44.240002
  N1        33.660000       49.349998       44.470001
  C3a       34.299999       50.099998       45.439999
  N2        35.689999       49.770000       45.250000
  C4        36.549999       50.560001       46.080002
  C5a       35.919998       51.520000       46.860001
  C6        36.680000       52.439999       47.540001
  H1        36.220001       53.250000       48.099998
  C7        38.099998       52.439999       47.639999
  H2        38.580002       53.230000       48.290001
  C8        38.720001       51.400002       46.950001
  H3        39.799999       51.110001       47.200001
  C9        37.950001       50.490002       46.160000
  H4        38.450001       49.709999       45.689999
  C10       37.009998       48.200001       43.610001
  H5        37.980000       48.610001       43.830002
  C11       36.779999       47.360001       42.529999
  H6        37.630001       46.919998       42.009998
  C12       35.520000       47.110001       42.060001
  H7        35.320000       46.430000       41.279999
  C13       34.419998       47.740002       42.650002
  H8        33.380001       47.580002       42.389999
  C6        32.209999       49.340000       44.110001
  C1        31.459999       48.299999       44.639999
  H1        32.000000       47.549999       45.270000
  C2        30.059999       48.250000       44.540001
  H2        29.440001       47.419998       44.910000
  C3        29.410000       49.299999       43.830002
  H3        28.299999       49.349998       43.750000
  C4        30.170000       50.320000       43.290001
  H4        29.790001       51.150002       42.770000
  C5        31.590000       50.340000       43.389999
  H5        32.130001       51.099998       42.810001
  C1        35.209999       48.730000       50.400002
  C2        34.919998       49.910000       51.000000
  N1        34.930000       48.820000       49.009998
  C3b       34.389999       50.080002       48.689999
  N2        34.459999       50.770000       49.910000
  C4        34.299999       52.240002       49.900002
  C5b       33.849998       52.730000       48.660000
  C6        33.410000       54.049999       48.540001
  H1        33.029999       54.380001       47.560001
  C7        33.400002       54.860001       49.630001
  H2        33.020000       55.910000       49.680000
  C8        33.939999       54.380001       50.849998
  H3        34.029999       55.060001       51.790001
  C9        34.340000       53.080002       51.009998
  H4        34.669998       52.770000       52.000000
  C10       34.910000       49.990002       52.400002
  H5        34.880001       50.930000       52.980000
  C11       35.099998       48.820000       53.160000
  H6        35.000000       48.980000       54.220001
  C12       35.389999       47.599998       52.540001
  H7        35.290001       46.759998       53.049999
  C13       35.430000       47.590000       51.150002
  H8        35.430000       46.520000       50.740002
  C6        35.259998       47.740002       48.130001
  C1        34.220001       47.200001       47.369999
  H1        33.410000       47.860001       47.200001
  C2        34.419998       46.060001       46.630001
  H2        33.660000       45.689999       45.939999
  C3        35.689999       45.459999       46.549999
  H3        35.740002       44.459999       46.180000
  C4        36.759998       46.049999       47.250000
  H4        37.680000       45.669998       47.310001
  C5        36.580002       47.230000       48.040001
  H5        37.360001       47.820000       48.400002
  C1        29.549999       51.369999       47.119999
  C2        29.870001       52.509998       46.279999
  N1        30.709999       50.779999       47.490002
  C3c       31.790001       51.419998       47.009998
  N2        31.309999       52.529999       46.209999
  C4        32.209999       53.049999       45.290001
  C5c       33.549999       52.750000       45.480000
  C6        34.500000       53.220001       44.560001
  H1        35.590000       53.009998       44.730000
  C7        34.200001       54.029999       43.459999
  H2        35.049999       54.209999       42.740002
  C8        32.860001       54.360001       43.259998
  H3        32.689999       55.180000       42.619999
  C9        31.850000       53.880001       44.130001
  H4        30.959999       54.509998       44.169998
  C10       28.860001       53.259998       45.630001
  H5        29.030001       54.320000       45.240002
  C11       27.520000       52.820000       45.709999
  H6        26.780001       53.430000       45.169998
  C12       27.209999       51.669998       46.470001
  H7        26.120001       51.500000       46.660000
  C13       28.190001       50.970001       47.209999
  H8        27.950001       50.189999       47.840000
  C6        30.760000       49.930000       48.680000
  C1        31.000000       50.590000       49.869999
  H1        31.080000       51.650002       49.919998
  C2        31.180000       49.820000       51.020000
  H2        31.180000       50.209999       52.020000
  C3        31.209999       48.410000       50.990002
  H3        31.660000       47.889999       51.770000
  C4        31.030001       47.759998       49.759998
  H4        30.719999       46.740002       49.709999
  C5        30.780001       48.580002       48.630001
  H5        30.809999       48.160000       47.580002
  IR        45.349998       57.040001       45.270000
  C1        44.349998       55.270000       49.160000
  C2        43.169998       55.580002       48.549999
  N1        45.380001       55.599998       48.220001
  C3a       44.830002       56.130001       47.070000
  N2        43.480000       56.020000       47.259998
  C4        42.650002       56.610001       46.259998
  C5a       43.270000       57.360001       45.259998
  C6        42.520000       58.040001       44.279999
  H1        42.930000       58.560001       43.470001
  C7        41.150002       58.029999       44.310001
  H2        40.580002       58.619999       43.529999
  C8        40.480000       57.279999       45.259998
  H3        39.340000       57.419998       45.349998
  C9        41.200001       56.549999       46.200001
  H4        40.750000       55.709999       46.759998
  C10       41.970001       55.119999       49.150002
  H5        41.119999       55.759998       49.040001
  C11       42.020000       54.220001       50.209999
  H6        41.150002       53.680000       50.330002
  C12       43.200001       53.770000       50.750000
  H7        43.250000       52.910000       51.349998
  C13       44.360001       54.349998       50.230000
  H8        45.270000       54.189999       50.830002
  C6        46.759998       55.730000       48.680000
  C1        47.360001       56.980000       48.810001
  H1        46.700001       57.849998       48.779999
  C2        48.689999       57.029999       49.119999
  H2        49.060001       57.990002       49.439999
  C3        49.500000       55.900002       49.169998
  H3        50.540001       55.959999       49.340000
  C4        48.900002       54.639999       49.090000
  H4        49.500000       53.770000       49.310001
  C5        47.509998       54.590000       48.860001
  H5        47.099998       53.580002       48.759998
  C1        45.419998       53.669998       42.490002
  C2        45.549999       54.770000       41.709999
  N1        45.060001       54.169998       43.759998
  C3b       45.139999       55.560001       43.820000
  N2        45.520000       55.919998       42.580002
  C4        45.799999       57.220001       42.330002
  C5b       45.430000       58.029999       43.419998
  C6        45.349998       59.410000       43.200001
  H1        45.090000       60.060001       44.049999
  C7        45.590000       59.950001       41.910000
  H2        45.639999       61.009998       41.730000
  C8        46.029999       59.230000       40.889999
  H3        46.000000       59.610001       39.849998
  C9        46.169998       57.799999       41.080002
  H4        46.709999       57.160000       40.340000
  C10       45.540001       54.669998       40.340000
  H5        45.360001       55.570000       39.669998
  C11       45.419998       53.439999       39.700001
  H6        45.529999       53.209999       38.610001
  C12       45.320000       52.340000       40.500000
  H7        45.410000       51.369999       40.060001
  C13       45.270000       52.480000       41.860001
  H8        44.779999       51.720001       42.450001
  C6        44.340000       53.330002       44.669998
  C1        44.880001       53.009998       45.919998
  H1        45.869999       53.389999       46.189999
  C2        44.049999       52.560001       46.910000
  H2        44.480000       52.330002       47.950001
  C3        42.689999       52.470001       46.730000
  H3        41.939999       52.459999       47.540001
  C4        42.150002       52.669998       45.459999
  H4        41.060001       52.619999       45.299999
  C5        42.959999       53.189999       44.419998
  H5        42.549999       53.669998       43.509998
  C1        49.650002       56.790001       45.770000
  C2        49.410000       58.090000       46.020000
  N1        48.450001       56.160000       45.330002
  C3c       47.410000       57.020000       45.369999
  N2        48.020000       58.270000       45.750000
  C4        47.070000       59.240002       46.279999
  C5c       45.790001       58.799999       46.380001
  C6        44.860001       59.590000       47.099998
  H1        43.869999       59.160000       47.119999
  C7        45.130001       60.810001       47.599998
  H2        44.410000       61.500000       47.919998
  C8        46.410000       61.279999       47.439999
  H3        46.740002       62.080002       48.080002
  C9        47.380001       60.540001       46.790001
  H4        48.299999       60.950001       46.439999
  C10       50.450001       58.970001       46.500000
  H5        50.020000       59.910000       46.889999
  C11       51.740002       58.509998       46.610001
  H6        52.570000       59.080002       46.970001
  C12       51.990002       57.209999       46.290001
  H7        53.020000       56.970001       45.970001
  C13       51.000000       56.299999       45.910000
  H8        51.200001       55.349998       45.490002
  C6        48.459999       54.910000       44.669998
  C1        48.500000       53.700001       45.369999
  H1        48.349998       53.590000       46.470001
  C2        48.650002       52.520000       44.689999
  H2        48.840000       51.639999       45.220001
  C3        48.910000       52.500000       43.340000
  H3        49.180000       51.570000       42.820000
  C4        48.939999       53.650002       42.570000
  H4        49.299999       53.639999       41.560001
  C5        48.720001       54.880001       43.290001
  H5        48.959999       55.810001       42.810001
