206
 generated by VMD
 Ir       85.517761      -61.802719      -60.794395
 C        84.322189      -57.705254      -59.745430
 C        84.097900      -58.441422      -58.615013
 N        84.845383      -58.588089      -60.718407
 C        84.987854      -59.882721      -60.207100
 N        84.530479      -59.766312      -58.899521
 C        84.631172      -60.946564      -58.110241
 C        84.727562      -62.119667      -58.856323
 C        84.508362      -63.355331      -58.225777
 H        84.524223      -64.259766      -58.803841
 C        84.231491      -63.417885      -56.859161
 H        84.108185      -64.375618      -56.377132
 C        84.178650      -62.239365      -56.104454
 H        83.956512      -62.288452      -55.045609
 C        84.391251      -61.010616      -56.720554
 H        84.550552      -60.135345      -56.104172
 C        83.508919      -57.814560      -57.496956
 H        83.249908      -58.383530      -56.620781
 C        83.178131      -56.456947      -57.537979
 H        82.740768      -55.981758      -56.672523
 C        83.435661      -55.716576      -58.699669
 H        83.200310      -54.661293      -58.731094
 C        84.007690      -56.340729      -59.803398
 H        84.212112      -55.757927      -60.690956
 C        85.070740      -58.186199      -62.084534
 C        86.379478      -58.103207      -62.575645
 H        87.188461      -58.503120      -62.003166
 C        86.609314      -57.560211      -63.844475
 H        87.612305      -57.534973      -64.239784
 C        85.539032      -57.122162      -64.628761
 H        85.725449      -56.736725      -65.625954
 C        84.226151      -57.220196      -64.153664
 H        83.399513      -56.891586      -64.754501
 C        83.998718      -57.760487      -62.875519
 H        82.987076      -57.847404      -62.513695
 C        89.074989      -62.223354      -58.340187
 C        88.707100      -63.506187      -58.644661
 N        88.276428      -61.368034      -59.112152
 C        87.364700      -62.078537      -59.882431
 N        87.679642      -63.398491      -59.622940
 C        86.995499      -64.363190      -60.431778
 C        85.862541      -63.866455      -61.098900
 C        85.132217      -64.725266      -61.926582
 H        84.263672      -64.368065      -62.449791
 C        85.521393      -66.064270      -62.099213
 H        84.936829      -66.722069      -62.722572
 C        86.643997      -66.551376      -61.432205
 H        86.910645      -67.595261      -61.519493
 C        87.394363      -65.702194      -60.606903
 H        88.310730      -66.071449      -60.178398
 C        89.301971      -64.571213      -57.941483
 H        88.999466      -65.594994      -58.112854
 C        90.249916      -64.317612      -56.951141
 H        90.700073      -65.145630      -56.408241
 C        90.625450      -63.005905      -56.657036
 H        91.335144      -62.803513      -55.869217
 C        90.040947      -61.950504      -57.360092
 H        90.342346      -60.937843      -57.153015
 C        88.575348      -59.978844      -59.314362
 C        87.856323      -58.998619      -58.619545
 H        87.184296      -59.296288      -57.822811
 C        88.000519      -57.652782      -58.940842
 H        87.429489      -56.900021      -58.432724
 C        88.881744      -57.267914      -59.967201
 H        88.962326      -56.239449      -60.254883
 C        89.624939      -58.242722      -60.648384
 H        90.258286      -57.955894      -61.474884
 C        89.483826      -59.595474      -60.315147
 H        90.120132      -60.329262      -60.770538
 C        86.701202      -60.954704      -64.887718
 C        85.338127      -60.780312      -64.886604
 N        87.078735      -61.457054      -63.626724
 C        85.970276      -61.579964      -62.800209
 N        84.896164      -61.198174      -63.599335
 C        83.602051      -61.368080      -63.011627
 C        83.608627      -61.874355      -61.707268
 C        82.396217      -62.205193      -61.083145
 H        82.399185      -62.667629      -60.112503
 C        81.175163      -61.990036      -61.731468
 H        80.253708      -62.227322      -61.220467
 C        81.164101      -61.446747      -63.013237
 H        80.231781      -61.220100      -63.503456
 C        82.371307      -61.152924      -63.657440
 H        82.328239      -60.754875      -64.663376
 C        84.731651      -60.242447      -66.034378
 H        83.684586      -59.998241      -66.049393
 C        85.495102      -59.902435      -67.156754
 H        85.012543      -59.477001      -68.024879
 C        86.874039      -60.090660      -67.136490
 H        87.479065      -59.824295      -67.992638
 C        87.479156      -60.609268      -65.993958
 H        88.559540      -60.692825      -65.969887
 C        88.282730      -62.206009      -63.484039
 C        88.285721      -63.557716      -63.832146
 H        87.350098      -64.078239      -63.975502
 C        89.489563      -64.238159      -64.009789
 H        89.479355      -65.271278      -64.329086
 C        90.705597      -63.571098      -63.820557
 H        91.635880      -64.089111      -64.017647
 C        90.710510      -62.220886      -63.441872
 H        91.649223      -61.707275      -63.286575
 C        89.504257      -61.543152      -63.273544
 H        89.505684      -60.479378      -63.068192
 Ir       85.517761      -61.802719      -50.922768
 C        82.406387      -63.268501      -48.254654
 C        81.740341      -62.417107      -49.113377
 N        83.779846      -63.154770      -48.535366
 C        84.015884      -62.280197      -49.580307
 N        82.740005      -61.818893      -49.921219
 C        82.679268      -60.921799      -51.035500
 C        83.823181      -60.926735      -51.844734
 C        83.769638      -60.283272      -53.090996
 H        84.648903      -60.248772      -53.725273
 C        82.614014      -59.641777      -53.526104
 H        82.577187      -59.184761      -54.507881
 C        81.483246      -59.612167      -52.705986
 H        80.601418      -59.069000      -53.000851
 C        81.528152      -60.233673      -51.453140
 H        80.762733      -60.019958      -50.738052
 C        80.336990      -62.358223      -49.068268
 H        79.788002      -61.773922      -49.793739
 C        79.623184      -63.135681      -48.153423
 H        78.553391      -62.997650      -48.056580
 C        80.297867      -64.009041      -47.301270
 H        79.750122      -64.589500      -46.583195
 C        81.698807      -64.070633      -47.355698
 H        82.219452      -64.759041      -46.699936
 C        84.790436      -63.697487      -47.662300
 C        85.219193      -62.952042      -46.562759
 H        84.907906      -61.924706      -46.448402
 C        86.127060      -63.511299      -45.647606
 H        86.460617      -62.933781      -44.796539
 C        86.622437      -64.809090      -45.848930
 H        87.346893      -65.225830      -45.163872
 C        86.190598      -65.547623      -46.960411
 H        86.565216      -66.548790      -47.109474
 C        85.285828      -64.995277      -47.863625
 H        84.986549      -65.546631      -48.741890
 C        85.290062      -65.280342      -53.522396
 C        86.242950      -64.469994      -54.111580
 N        84.715439      -64.555725      -52.468670
 C        85.318924      -63.312332      -52.331638
 N        86.226799      -63.262589      -53.374752
 C        86.821854      -61.980774      -53.590073
 C        86.802017      -61.136074      -52.467850
 C        87.417267      -59.872581      -52.565033
 H        87.465363      -59.238522      -51.699554
 C        87.996674      -59.451073      -53.760117
 H        88.433609      -58.462238      -53.827930
 C        87.974701      -60.288857      -54.884277
 H        88.358734      -59.939499      -55.836212
 C        87.398178      -61.552349      -54.797104
 H        87.280708      -62.136787      -55.691269
 C        86.976837      -64.961159      -55.188503
 H        87.761322      -64.361366      -55.630020
 C        86.744385      -66.246132      -55.688309
 H        87.282471      -66.592270      -56.563667
 C        85.782494      -67.066109      -55.094002
 H        85.590942      -68.056236      -55.475510
 C        85.063782      -66.579147      -53.998314
 H        84.356590      -67.230064      -53.497528
 C        83.374092      -64.819824      -52.023766
 C        82.318604      -64.061333      -52.550964
 H        82.502289      -63.364799      -53.358925
 C        81.022560      -64.224037      -52.050682
 H        80.230087      -63.574989      -52.399429
 C        80.772308      -65.145241      -51.020699
 H        79.781342      -65.240570      -50.618851
 C        81.827118      -65.894112      -50.496124
 H        81.653442      -66.548218      -49.649437
 C        83.121437      -65.743736      -51.003105
 H        83.927727      -66.377747      -50.640846
 C        88.905884      -63.280220      -48.643326
 C        88.502945      -62.157387      -47.964355
 N        88.118744      -63.362976      -49.810741
 C        87.229149      -62.316475      -49.895859
 N        87.491951      -61.551773      -48.759037
 C        86.779617      -60.312386      -48.677803
 C        85.860207      -60.089180      -49.717594
 C        85.173302      -58.865768      -49.777779
 H        84.532524      -58.651825      -50.618629
 C        85.363617      -57.890236      -48.801552
 H        84.787323      -56.973358      -48.833382
 C        86.263672      -58.113441      -47.756760
 H        86.434761      -57.348541      -47.014763
 C        86.980667      -59.314888      -47.700012
 H        87.699394      -59.435287      -46.917236
 C        89.112518      -61.870056      -46.724693
 H        88.738022      -61.080849      -46.095558
 C        90.121300      -62.699852      -46.218338
 H        90.583992      -62.470360      -45.267265
 C        90.514603      -63.833527      -46.934586
 H        91.338898      -64.448280      -46.582577
 C        89.900848      -64.125061      -48.150486
 H        90.195618      -65.009308      -48.688461
 C        88.486603      -64.206749      -50.905148
 C        89.385437      -63.739738      -51.863380
 H        89.686470      -62.698849      -51.857555
 C        89.885498      -64.606026      -52.845909
 H        90.546143      -64.237053      -53.606781
 C        89.480141      -65.946251      -52.855770
 H        89.889465      -66.626572      -53.589943
 C        88.569221      -66.415970      -51.904350
 H        88.285774      -67.458351      -51.882103
 C        88.066071      -65.542763      -50.933769
 H        87.305328      -65.885284      -50.240555
