206
 generated by VMD
  IR        29.670000        2.840000       35.580002
  C1        29.330000       -1.080000       37.180000
  C2        30.090000       -1.310000       36.060001
  N1        28.920000        0.230000       37.200001
  C3a       29.500000        0.920000       36.209999
  N2        30.160000       -0.020000       35.450001
  C4        30.709999        0.380000       34.259998
  C5a       30.480000        1.740000       33.959999
  C6        31.040001        2.260000       32.799999
  H1        30.740000        3.000000       32.259998
  C7        31.910000        1.490000       32.020000
  H2        31.980000        1.960000       31.030001
  C8        32.130001        0.170000       32.270000
  H3        32.650002       -0.570000       31.700001
  C9        31.469999       -0.390000       33.380001
  H4        32.020000       -1.230000       33.810001
  C10       30.650000       -2.540000       35.840000
  H5        31.370001       -2.720000       35.070000
  C11       30.540001       -3.540000       36.820000
  H6        31.190001       -4.400000       36.720001
  C12       29.760000       -3.280000       37.959999
  H7        29.709999       -3.990000       38.779999
  C13       29.170000       -2.050000       38.130001
  H8        28.840000       -1.870000       39.150002
  C6        27.730000        0.560000       38.009998
  C1        26.469999        0.460000       37.470001
  H1        26.320000       -0.160000       36.650002
  C2        25.290001        0.810000       38.200001
  H2        24.290001        1.050000       37.770000
  C3        25.410000        1.310000       39.509998
  H3        24.600000        1.910000       40.009998
  C4        26.690001        1.390000       40.040001
  H4        26.830000        2.170000       40.730000
  C5        27.820000        1.040000       39.349998
  H5        28.740000        0.960000       39.869999
  C1        33.650002        3.910000       37.099998
  C2        33.270000        4.910000       36.270000
  N1        32.660000        2.870000       36.900002
  C3b       31.670000        3.260000       36.040001
  N2        32.090000        4.520000       35.590000
  C4        31.309999        5.090000       34.549999
  C5b       29.990000        4.650000       34.570000
  C6        29.150000        5.180000       33.590000
  H1        28.080000        5.100000       33.700001
  C7        29.620001        5.880000       32.490002
  H2        29.020000        5.930000       31.559999
  C8        30.969999        6.330000       32.570000
  H3        31.120001        7.230000       32.009998
  C9        31.740000        5.970000       33.639999
  H4        32.799999        6.330000       33.730000
  C10       34.090000        6.100000       36.279999
  H5        33.869999        6.940000       35.599998
  C11       35.230000        6.140000       37.049999
  H6        35.849998        7.010000       36.939999
  C12       35.619999        5.060000       37.930000
  H7        36.590000        4.910000       38.400002
  C13       34.790001        3.930000       37.910000
  H8        34.959999        3.280000       38.730000
  C6        33.070000        1.510000       37.160000
  C1        32.330002        0.710000       38.070000
  H1        31.559999        1.010000       38.759998
  C2        32.529999       -0.710000       38.139999
  H2        31.830000       -1.280000       38.820000
  C3        33.529999       -1.280000       37.310001
  H3        33.490002       -2.370000       37.259998
  C4        34.349998       -0.490000       36.490002
  H4        35.009998       -0.990000       35.799999
  C5        34.139999        0.920000       36.439999
  H5        34.919998        1.420000       35.849998
  C1        27.440001        4.600000       38.820000
  C2        26.389999        4.340000       37.840000
  N1        28.700001        4.330000       38.290001
  C3c       28.540001        3.830000       37.049999
  N2        27.110001        3.810000       36.770000
  C4        26.700001        3.470000       35.509998
  C5c       27.660000        2.650000       34.919998
  C6        27.330000        2.160000       33.660000
  H1        27.900000        1.410000       33.130001
  C7        26.209999        2.510000       32.950001
  H2        26.030001        2.150000       32.000000
  C8        25.250000        3.390000       33.570000
  H3        24.219999        3.580000       33.290001
  C9        25.620001        3.910000       34.820000
  H4        25.100000        4.820000       35.000000
  C10       25.020000        4.630000       38.209999
  H5        24.180000        4.410000       37.619999
  C11       24.830000        5.260000       39.450001
  H6        23.920000        5.330000       40.060001
  C12       25.820000        5.550000       40.330002
  H7        25.559999        6.170000       41.189999
  C13       27.120001        5.220000       40.029999
  H8        27.790001        5.180000       40.840000
  C6        29.809999        5.170000       38.759998
  C1        30.940001        4.580000       39.360001
  H1        30.990000        3.510000       39.369999
  C2        31.889999        5.280000       40.090000
  H2        32.730000        4.740000       40.599998
  C3        31.840000        6.680000       39.959999
  H3        32.509998        7.150000       40.750000
  C4        30.840000        7.290000       39.209999
  H4        31.070000        8.320000       39.009998
  C5        29.799999        6.580000       38.660000
  H5        28.900000        7.170000       38.509998
  IR        23.850000        7.940000       26.889999
  C1        27.570000        8.360000       29.150000
  C2        26.830000        9.490000       29.440001
  N1        26.860001        7.690000       28.139999
  C3a       25.620001        8.280000       27.910000
  N2        25.600000        9.410000       28.750000
  C4        24.570000       10.430000       28.450001
  C5a       23.610001        9.980000       27.559999
  C6        22.530001       10.790000       27.180000
  H1        21.639999       10.310000       26.840000
  C7        22.440001       12.080000       27.760000
  H2        21.629999       12.690000       27.420000
  C8        23.370001       12.600000       28.620001
  H3        23.190001       13.600000       28.930000
  C9        24.459999       11.800000       28.950001
  H4        25.110001       12.090000       29.809999
  C10       27.379999       10.380000       30.280001
  H5        26.850000       11.280000       30.490000
  C11       28.610001       10.220000       30.840000
  H6        28.900000       10.960000       31.520000
  C12       29.370001        9.110000       30.510000
  H7        30.440001        9.150000       30.820000
  C13       28.820000        8.150000       29.680000
  H8        29.420000        7.190000       29.469999
  C6        27.639999        7.090000       27.100000
  C1        28.049999        7.910000       26.059999
  H1        28.010000        9.030000       26.100000
  C2        28.670000        7.270000       24.969999
  H2        29.040001        7.870000       24.190001
  C3        28.740000        5.880000       24.780001
  H3        29.330000        5.440000       24.059999
  C4        28.260000        5.080000       25.879999
  H4        28.170000        4.070000       25.709999
  C5        27.680000        5.710000       27.000000
  H5        27.320000        5.140000       27.760000
  C1        21.139999        7.030000       30.240000
  C2        20.420000        6.730000       29.059999
  N1        22.420000        7.400000       29.840000
  C3b       22.540001        7.440000       28.420000
  N2        21.299999        7.090000       28.010000
  C4        21.040001        7.310000       26.570000
  C5b       22.030001        7.910000       25.830000
  C6        21.740000        8.460000       24.570000
  H1        22.530001        9.060000       24.110001
  C7        20.440001        8.300000       24.059999
  H2        20.250000        8.750000       23.080000
  C8        19.459999        7.510000       24.670000
  H3        18.490000        7.390000       24.370001
  C9        19.809999        7.070000       25.959999
  H4        19.080000        6.480000       26.450001
  C10       19.100000        6.280000       29.129999
  H5        18.559999        5.980000       28.219999
  C11       18.459999        6.130000       30.350000
  H6        17.510000        5.640000       30.250000
  C12       19.139999        6.550000       31.520000
  H7        18.590000        6.630000       32.439999
  C13       20.490000        6.980000       31.459999
  H8        20.980000        7.510000       32.240002
  C6        23.580000        7.540000       30.780001
  C1        24.740000        6.700000       30.740000
  H1        24.850000        5.760000       30.170000
  C2        25.660000        6.810000       31.790001
  H2        26.450001        6.070000       31.930000
  C3        25.600000        7.820000       32.799999
  H3        26.420000        8.040000       33.470001
  C4        24.490000        8.630000       32.750000
  H4        24.360001        9.520000       33.360001
  C5        23.469999        8.480000       31.790001
  H5        22.520000        9.080000       31.860001
  C1        24.760000        4.130000       25.030001
  C2        25.350000        5.070000       24.209999
  N1        24.139999        4.810000       26.090000
  C3c       24.260000        6.160000       25.889999
  N2        24.980000        6.340000       24.680000
  C4        24.980000        7.640000       24.190001
  C5c       24.850000        8.670000       25.170000
  C6        25.400000        9.930000       24.830000
  H1        25.430000       10.610000       25.650000
  C7        25.940001       10.180000       23.600000
  H2        26.639999       11.000000       23.520000
  C8        25.809999        9.230000       22.610001
  H3        26.309999        9.400000       21.700001
  C9        25.350000        7.930000       22.900000
  H4        25.110001        7.240000       22.150000
  C10       26.080000        4.710000       23.070000
  H5        26.450001        5.550000       22.440001
  C11       26.200001        3.300000       22.770000
  H6        26.459999        3.020000       21.770000
  C12       25.530001        2.370000       23.559999
  H7        25.260000        1.340000       23.250000
  C13       24.820000        2.770000       24.700001
  H8        24.150000        2.060000       25.219999
  C6        23.410000        4.190000       27.100000
  C1        24.160000        3.750000       28.209999
  H1        25.209999        3.870000       28.160000
  C2        23.510000        3.160000       29.350000
  H2        24.200001        2.980000       30.219999
  C3        22.139999        2.960000       29.299999
  H3        21.690001        2.680000       30.240000
  C4        21.370001        3.270000       28.110001
  H4        20.420000        2.790000       27.910000
  C5        22.020000        3.960000       27.040001
  H5        21.500000        4.390000       26.230000
