206
 generated by VMD
  IR        43.340000       42.630001       45.810001
  C1        45.610001       42.240002       49.590000
  C2        46.549999       42.080002       48.529999
  N1        44.310001       42.320000       48.919998
  C3a       44.360001       42.290001       47.599998
  N2        45.820000       42.189999       47.320000
  C4        46.259998       42.520000       45.980000
  C5a       45.270000       42.560001       45.020000
  C6        45.680000       42.770000       43.709999
  H1        45.040001       42.720001       42.880001
  C7        47.020000       42.970001       43.389999
  H2        47.459999       43.320000       42.459999
  C8        48.009998       42.980000       44.330002
  H3        49.009998       43.169998       44.070000
  C9        47.650002       42.700001       45.630001
  H4        48.230000       42.939999       46.450001
  C10       47.919998       41.919998       48.889999
  H5        48.619999       41.730000       48.099998
  C11       48.349998       41.860001       50.230000
  H6        49.349998       41.689999       50.400002
  C12       47.380001       41.990002       51.270000
  H7        47.660000       41.750000       52.250000
  C13       46.009998       42.189999       50.950001
  H8        45.259998       42.320000       51.689999
  C6        43.029999       42.250000       49.689999
  C1        42.160000       41.119999       49.680000
  H1        42.400002       40.209999       49.110001
  C2        40.959999       41.169998       50.349998
  H2        40.259998       40.349998       50.330002
  C3        40.580002       42.279999       51.150002
  H3        39.580002       42.490002       51.480000
  C4        41.490002       43.349998       51.240002
  H4        41.270000       44.209999       51.860001
  C5        42.689999       43.330002       50.500000
  H5        43.439999       44.139999       50.639999
  C1        43.709999       46.880001       45.130001
  C2        42.980000       46.490002       44.020000
  N1        44.020000       45.750000       45.860001
  C3b       43.470001       44.639999       45.380001
  N2        42.860001       45.049999       44.220001
  C4        42.200001       44.099998       43.529999
  C5b       42.549999       42.759998       43.840000
  C6        42.180000       41.669998       43.009998
  H1        42.779999       40.730000       43.119999
  C7        41.360001       41.900002       41.900002
  H2        41.000000       41.099998       41.320000
  C8        40.880001       43.220001       41.650002
  H3        40.360001       43.430000       40.669998
  C9        41.250000       44.290001       42.480000
  H4        40.919998       45.209999       42.160000
  C10       42.380001       47.490002       43.049999
  H5        42.029999       47.230000       42.040001
  C11       42.619999       48.840000       43.320000
  H6        42.509998       49.599998       42.470001
  C12       43.290001       49.200001       44.500000
  H7        43.119999       50.189999       44.930000
  C13       43.840000       48.240002       45.380001
  H8        44.230000       48.590000       46.320000
  C6        45.049999       45.880001       46.869999
  C1        46.380001       45.919998       46.490002
  H1        46.580002       45.730000       45.470001
  C2        47.459999       46.160000       47.310001
  H2        48.470001       46.110001       46.900002
  C3        47.160000       46.139999       48.660000
  H3        48.009998       46.099998       49.400002
  C4        45.820000       46.080002       49.139999
  H4        45.529999       46.029999       50.220001
  C5        44.740002       45.990002       48.240002
  H5        43.790001       45.599998       48.610001
  C1        39.330002       42.340000       47.400002
  C2        39.750000       41.040001       47.299999
  N1        40.270000       43.090000       46.669998
  C3c       41.299999       42.380001       46.189999
  N2        40.990002       41.110001       46.549999
  C4        41.950001       40.070000       46.250000
  C5c       43.200001       40.509998       45.750000
  C6        44.209999       39.610001       45.410000
  H1        45.139999       39.950001       44.880001
  C7        44.049999       38.259998       45.590000
  H2        44.810001       37.639999       45.119999
  C8        42.830002       37.770000       46.020000
  H3        42.689999       36.750000       46.189999
  C9        41.830002       38.619999       46.330002
  H4        40.889999       38.230000       46.570000
  C10       38.919998       40.000000       47.889999
  H5        39.270000       38.990002       47.799999
  C11       37.630001       40.330002       48.389999
  H6        37.240002       39.480000       48.950001
  C12       37.180000       41.630001       48.410000
  H7        36.209999       41.970001       48.720001
  C13       38.020000       42.650002       47.930000
  H8        37.639999       43.590000       47.660000
  C6        40.330002       44.529999       46.830002
  C1        41.200001       45.200001       47.730000
  H1        41.910000       44.560001       48.230000
  C2        41.360001       46.590000       47.660000
  H2        41.980000       47.060001       48.310001
  C3        40.639999       47.349998       46.680000
  H3        40.880001       48.410000       46.590000
  C4        39.759998       46.700001       45.790001
  H4        39.369999       47.180000       44.930000
  C5        39.599998       45.299999       45.910000
  H5        38.990002       44.740002       45.189999
  IR        50.630001       36.200001       38.880001
  C1        51.930000       33.070000       41.669998
  C2        50.619999       32.900002       41.480000
  N1        52.279999       34.220001       40.900002
  C3a       51.169998       34.779999       40.299999
  N2        50.160000       33.980000       40.759998
  C4        48.810001       34.450001       40.529999
  C5a       48.759998       35.369999       39.509998
  C6        47.490002       35.869999       39.090000
  H1        47.500000       36.560001       38.310001
  C7        46.310001       35.450001       39.730000
  H2        45.340000       35.860001       39.380001
  C8        46.389999       34.450001       40.730000
  H3        45.520000       34.290001       41.270000
  C9        47.669998       33.910000       41.070000
  H4        47.660000       33.080002       41.720001
  C10       50.060001       31.750000       42.000000
  H5        49.060001       31.500000       41.720001
  C11       50.840000       30.820000       42.720001
  H6        50.450001       29.860001       43.049999
  C12       52.150002       31.150000       43.060001
  H7        52.779999       30.469999       43.660000
  C13       52.720001       32.220001       42.500000
  H8        53.700001       32.529999       42.869999
  C6        53.639999       34.509998       40.610001
  C1        54.419998       33.470001       40.060001
  H1        53.980000       32.860001       39.330002
  C2        55.830002       33.580002       40.169998
  H2        56.560001       32.919998       39.680000
  C3        56.470001       34.730000       40.689999
  H3        57.439999       34.959999       40.250000
  C4        55.709999       35.790001       41.130001
  H4        56.009998       36.810001       41.180000
  C5        54.310001       35.619999       41.180000
  H5        53.680000       36.340000       41.689999
  C1        50.389999       33.860001       35.189999
  C2        50.250000       35.139999       34.759998
  N1        50.470001       33.849998       36.590000
  C3b       50.430000       35.150002       37.070000
  N2        50.279999       35.959999       36.020000
  C4        49.970001       37.230000       36.270000
  C5b       49.770000       37.590000       37.599998
  C6        49.070000       38.820000       37.970001
  H1        48.540001       38.740002       38.959999
  C7        48.840000       39.720001       36.970001
  H2        48.130001       40.540001       37.119999
  C8        49.250000       39.349998       35.669998
  H3        48.970001       40.070000       34.919998
  C9        49.810001       38.169998       35.299999
  H4        50.240002       38.070000       34.330002
  C10       50.400002       35.419998       33.330002
  H5        50.529999       36.419998       33.020000
  C11       50.759998       34.389999       32.450001
  H6        50.919998       34.570000       31.389999
  C12       50.919998       33.090000       32.910000
  H7        51.169998       32.410000       32.200001
  C13       50.619999       32.840000       34.240002
  H8        50.500000       31.780001       34.520000
  C6        50.570000       32.580002       37.400002
  C1        49.459999       32.130001       38.049999
  H1        48.580002       32.720001       38.150002
  C2        49.619999       30.980000       38.820000
  H2        48.779999       30.620001       39.410000
  C3        50.770000       30.209999       38.990002
  H3        51.040001       29.490000       39.810001
  C4        51.840000       30.660000       38.270000
  H4        52.740002       30.139999       38.160000
  C5        51.779999       31.850000       37.470001
  H5        52.709999       32.299999       37.250000
  C1        54.740002       37.720001       38.330002
  C2        54.200001       38.400002       39.419998
  N1        53.639999       36.990002       37.740002
  C3c       52.459999       37.119999       38.509998
  N2        52.779999       38.029999       39.540001
  C4        51.810001       38.470001       40.490002
  C5c       50.740002       37.509998       40.570000
  C6        49.750000       37.790001       41.529999
  H1        48.869999       37.220001       41.500000
  C7        49.820000       38.820000       42.410000
  H2        48.919998       38.779999       43.049999
  C8        50.830002       39.740002       42.369999
  H3        50.740002       40.689999       42.930000
  C9        51.840000       39.580002       41.380001
  H4        52.650002       40.230000       41.450001
  C10       55.080002       39.270000       40.169998
  H5        54.790001       39.730000       41.070000
  C11       56.430000       39.340000       39.779999
  H6        57.049999       39.910000       40.419998
  C12       57.000000       38.660000       38.709999
  H7        58.009998       38.930000       38.369999
  C13       56.090000       37.939999       37.930000
  H8        56.720001       37.400002       37.180000
  C6        53.770000       36.200001       36.590000
  C1        53.730000       36.730000       35.279999
  H1        53.169998       37.680000       35.119999
  C2        54.209999       35.980000       34.169998
  H2        54.360001       36.509998       33.240002
  C3        54.650002       34.660000       34.389999
  H3        54.820000       34.000000       33.619999
  C4        54.660000       34.130001       35.709999
  H4        54.520000       33.099998       35.880001
  C5        54.250000       34.939999       36.720001
  H5        54.090000       34.520000       37.680000
