206
 generated by VMD
  IR        36.320000       38.770000        5.570000
  C1        38.549999       35.070000        6.220000
  C2        39.169998       35.689999        5.170000
  N1        37.369999       35.790001        6.560000
  C3a       37.299999       36.959999        5.700000
  N2        38.380001       36.820000        4.800000
  C4        38.349998       37.650002        3.640000
  C5a       37.310001       38.610001        3.690000
  C6        37.020000       39.380001        2.530000
  H1        36.209999       40.099998        2.470000
  C7        37.650002       39.090000        1.310000
  H2        37.480000       39.779999        0.490000
  C8        38.540001       38.029999        1.190000
  H3        38.830002       37.610001        0.270000
  C9        38.910000       37.320000        2.330000
  H4        39.830002       36.810001        2.280000
  C10       40.459999       35.110001        4.760000
  H5        41.139999       35.639999        4.140000
  C11       41.110001       34.060001        5.450000
  H6        42.150002       33.750000        5.270000
  C12       40.439999       33.540001        6.550000
  H7        40.759998       32.680000        7.080000
  C13       39.160000       34.099998        6.880000
  H8        38.700001       33.689999        7.830000
  C6        36.270000       35.270000        7.260000
  C1        36.049999       35.650002        8.630000
  H1        36.630001       36.349998        9.160000
  C2        34.810001       35.290001        9.240000
  H2        34.389999       35.860001       10.040000
  C3        33.849998       34.650002        8.400000
  H3        32.959999       34.240002        8.840000
  C4        34.060001       34.250000        7.100000
  H4        33.360001       33.529999        6.650000
  C5        35.340000       34.540001        6.550000
  H5        35.610001       34.150002        5.580000
  C1        39.669998       41.529999        5.770000
  C2        38.619999       42.340000        5.630000
  N1        39.200001       40.220001        5.920000
  C3b       37.840000       40.180000        5.940000
  N2        37.459999       41.480000        5.770000
  C4        36.029999       41.709999        5.580000
  C5b       35.310001       40.570000        5.190000
  C6        34.130001       40.680000        4.490000
  H1        33.619999       39.810001        4.160000
  C7        33.619999       41.919998        4.180000
  H2        32.790001       41.970001        3.480000
  C8        34.189999       43.080002        4.610000
  H3        33.709999       44.009998        4.500000
  C9        35.439999       42.939999        5.300000
  H4        35.970001       43.849998        5.610000
  C10       38.759998       43.669998        5.280000
  H5        37.959999       44.259998        4.930000
  C11       40.060001       44.220001        5.170000
  H6        40.250000       45.270000        5.160000
  C12       41.169998       43.380001        5.320000
  H7        42.189999       43.730000        5.070000
  C13       40.939999       42.029999        5.580000
  H8        41.799999       41.380001        5.710000
  C6        40.009998       39.230000        6.540000
  C1        39.619999       38.630001        7.690000
  H1        38.910000       39.160000        8.270000
  C2        40.290001       37.529999        8.160000
  H2        40.150002       37.290001        9.180000
  C3        41.389999       37.000000        7.450000
  H3        41.840000       36.080002        7.750000
  C4        41.790001       37.630001        6.260000
  H4        42.730000       37.430000        5.690000
  C5        41.060001       38.709999        5.830000
  H5        41.480000       39.299999        5.070000
  C1        33.810001       38.750000        9.170000
  C2        33.000000       38.270000        8.260000
  N1        35.029999       39.169998        8.570000
  C3c       35.070000       38.779999        7.230000
  N2        33.730000       38.259998        7.050000
  C4        33.529999       37.730000        5.780000
  C5c       34.669998       37.630001        4.950000
  C6        34.700001       36.740002        3.900000
  H1        35.639999       36.810001        3.370000
  C7        33.610001       36.070000        3.500000
  H2        33.630001       35.450001        2.620000
  C8        32.439999       36.099998        4.250000
  H3        31.610001       35.509998        3.970000
  C9        32.400002       36.900002        5.420000
  H4        31.530001       36.910000        5.970000
  C10       31.750000       37.830002        8.690000
  H5        31.150000       37.330002        7.940000
  C11       31.290001       38.009998       10.020000
  H6        30.340000       37.669998       10.310000
  C12       32.119999       38.580002       10.990000
  H7        31.700001       38.720001       11.950000
  C13       33.380001       38.939999       10.550000
  H8        33.980000       39.310001       11.310000
  C6        36.029999       39.980000        9.270000
  C1        36.720001       39.410000       10.360000
  H1        36.410000       38.369999       10.670000
  C2        37.680000       40.189999       10.950000
  H2        38.310001       39.790001       11.740000
  C3        37.939999       41.509998       10.510000
  H3        38.549999       42.020000       11.250000
  C4        37.169998       42.119999        9.550000
  H4        36.990002       43.189999        9.570000
  C5        36.259998       41.340000        8.910000
  H5        35.560001       41.860001        8.330000
  IR        46.189999       41.590000        9.120000
  C1        45.970001       39.840000       13.150000
  C2        44.689999       39.919998       12.740000
  N1        46.810001       40.480000       12.120000
  C3a       46.029999       40.889999       11.120000
  N2        44.709999       40.500000       11.480000
  C4        43.650002       40.700001       10.400000
  C5a       44.139999       41.500000        9.350000
  C6        43.139999       42.110001        8.530000
  H1        43.310001       43.000000        7.930000
  C7        41.790001       41.770000        8.750000
  H2        41.160000       42.230000        8.030000
  C8        41.310001       40.910000        9.740000
  H3        40.270000       40.880001       10.110000
  C9        42.290001       40.430000       10.620000
  H4        41.939999       39.980000       11.570000
  C10       43.720001       39.299999       13.580000
  H5        42.650002       39.230000       13.350000
  C11       44.070000       38.540001       14.720000
  H6        43.320000       37.980000       15.270000
  C12       45.410000       38.500000       15.110000
  H7        45.720001       37.750000       15.850000
  C13       46.430000       39.139999       14.390000
  H8        47.500000       38.820000       14.480000
  C6        48.130001       40.990002       12.380000
  C1        49.230000       40.500000       11.640000
  H1        49.189999       39.480000       11.290000
  C2        50.450001       41.180000       11.690000
  H2        51.349998       40.799999       11.330000
  C3        50.549999       42.310001       12.520000
  H3        51.490002       42.869999       12.470000
  C4        49.419998       42.740002       13.230000
  H4        49.529999       43.639999       13.880000
  C5        48.220001       42.110001       13.170000
  H5        47.590000       42.270000       14.050000
  C1        45.930000       37.740002        6.970000
  C2        45.779999       38.730000        5.990000
  N1        45.930000       38.430000        8.270000
  C3b       45.799999       39.830002        8.090000
  N2        45.730000       39.959999        6.670000
  C4        45.490002       41.320000        6.290000
  C5b       45.889999       42.310001        7.170000
  C6        45.910000       43.590000        6.700000
  H1        46.599998       44.270000        7.180000
  C7        45.410000       44.009998        5.510000
  H2        45.320000       45.099998        5.310000
  C8        44.820000       43.049999        4.670000
  H3        44.169998       43.299999        3.820000
  C9        44.889999       41.709999        5.040000
  H4        44.410000       41.009998        4.410000
  C10       45.970001       38.340000        4.640000
  H5        45.990002       39.139999        3.870000
  C11       46.009998       37.000000        4.270000
  H6        45.680000       36.790001        3.290000
  C12       45.990002       36.009998        5.250000
  H7        46.110001       34.939999        4.860000
  C13       46.049999       36.400002        6.610000
  H8        46.259998       35.660000        7.370000
  C6        45.459999       37.689999        9.430000
  C1        46.349998       37.290001       10.290000
  H1        47.380001       37.619999       10.130000
  C2        46.119999       36.520000       11.420000
  H2        46.959999       36.119999       11.880000
  C3        44.799999       36.049999       11.660000
  H3        44.560001       35.480000       12.520000
  C4        43.849998       36.389999       10.710000
  H4        42.820000       36.220001       11.030000
  C5        44.110001       37.189999        9.590000
  H5        43.290001       37.660000        9.050000
  C1        50.240002       42.849998        8.130000
  C2        49.820000       43.759998        8.970000
  N1        49.369999       41.730000        8.150000
  C3c       48.209999       42.090000        8.820000
  N2        48.580002       43.349998        9.410000
  C4        47.580002       43.990002       10.230000
  C5c       46.259998       43.509998        9.990000
  C6        45.180000       44.070000       10.690000
  H1        44.209999       43.740002       10.400000
  C7        45.380001       45.070000       11.590000
  H2        44.490002       45.470001       12.090000
  C8        46.660000       45.500000       11.890000
  H3        46.750000       46.200001       12.700000
  C9        47.730000       44.930000       11.250000
  H4        48.639999       45.250000       11.620000
  C10       50.520000       44.959999        9.070000
  H5        50.200001       45.740002        9.810000
  C11       51.570000       45.279999        8.230000
  H6        51.849998       46.380001        8.190000
  C12       52.000000       44.349998        7.290000
  H7        52.650002       44.669998        6.520000
  C13       51.310001       43.119999        7.230000
  H8        51.360001       42.630001        6.290000
  C6        49.860001       40.369999        8.090000
  C1        51.049999       40.040001        8.720000
  H1        51.610001       40.770000        9.320000
  C2        51.700001       38.889999        8.400000
  H2        52.470001       38.599998        9.090000
  C3        51.270000       38.119999        7.370000
  H3        51.830002       37.279999        7.150000
  C4        50.070000       38.430000        6.740000
  H4        49.540001       37.730000        6.000000
  C5        49.410000       39.610001        7.020000
  H5        48.610001       39.930000        6.490000
