206
 generated by VMD
  IR        38.880001       49.189999        3.230000
  C1        43.090000       49.910000        2.130000
  C2        43.130001       49.139999        3.340000
  N1        41.750000       50.279999        1.900000
  C3a       40.880001       49.709999        2.930000
  N2        41.730000       48.939999        3.760000
  C4        41.160000       48.240002        4.890000
  C5a       39.770000       48.250000        4.900000
  C6        39.150002       47.720001        6.000000
  H1        38.070000       47.740002        6.150000
  C7        39.820000       47.139999        7.040000
  H2        39.419998       47.169998        8.060000
  C8        41.230000       47.130001        7.020000
  H3        41.700001       46.849998        7.940000
  C9        41.910000       47.660000        5.980000
  H4        42.910000       47.830002        6.100000
  C10       44.389999       48.660000        3.740000
  H5        44.570000       48.160000        4.720000
  C11       45.549999       48.880001        2.930000
  H6        46.480000       48.459999        3.100000
  C12       45.450001       49.740002        1.810000
  H7        46.400002       50.009998        1.410000
  C13       44.250000       50.290001        1.460000
  H8        44.259998       51.000000        0.640000
  C6        41.320000       51.259998        0.870000
  C1        41.599998       50.959999       -0.460000
  H1        42.410000       50.290001       -0.690000
  C2        40.980000       51.660000       -1.540000
  H2        41.240002       51.529999       -2.580000
  C3        40.240002       52.790001       -1.190000
  H3        39.520000       53.139999       -1.990000
  C4        40.060001       53.160000        0.140000
  H4        39.410000       54.000000        0.360000
  C5        40.520000       52.360001        1.180000
  H5        40.250000       52.639999        2.220000
  C1        39.009998       45.189999        1.550000
  C2        37.740002       45.310001        2.050000
  N1        39.639999       46.380001        1.750000
  C3b       38.840000       47.270000        2.480000
  N2        37.680000       46.580002        2.650000
  C4        36.669998       47.209999        3.480000
  C5b       36.939999       48.520000        3.870000
  C6        35.950001       49.310001        4.440000
  H1        36.099998       50.369999        4.500000
  C7        34.660000       48.840000        4.630000
  H2        33.889999       49.570000        4.800000
  C8        34.349998       47.470001        4.330000
  H3        33.380001       47.009998        4.480000
  C9        35.419998       46.650002        3.830000
  H4        35.310001       45.619999        4.030000
  C10       36.919998       44.169998        2.050000
  H5        35.919998       44.369999        2.370000
  C11       37.290001       42.970001        1.420000
  H6        36.709999       42.080002        1.370000
  C12       38.549999       42.939999        0.790000
  H7        38.779999       42.099998        0.150000
  C13       39.439999       44.000000        0.920000
  H8        40.439999       43.990002        0.420000
  C6        40.919998       46.619999        1.170000
  C1        42.060001       46.360001        1.900000
  H1        41.939999       46.150002        2.930000
  C2        43.330002       46.160000        1.300000
  H2        44.330002       46.119999        1.860000
  C3        43.439999       46.110001       -0.040000
  H3        44.430000       46.029999       -0.510000
  C4        42.340000       46.389999       -0.850000
  H4        42.270000       46.090000       -1.840000
  C5        41.130001       46.830002       -0.220000
  H5        40.470001       47.430000       -0.810000
  C1        36.720001       51.689999        0.280000
  C2        37.090000       52.520000        1.340000
  N1        37.160000       50.419998        0.650000
  C3c       37.779999       50.380001        1.840000
  N2        37.669998       51.730000        2.300000
  C4        38.110001       52.000000        3.670000
  C5c       38.830002       50.959999        4.320000
  C6        39.230000       51.240002        5.650000
  H1        40.110001       50.759998        6.060000
  C7        38.799999       52.369999        6.310000
  H2        39.180000       52.549999        7.300000
  C8        38.080002       53.330002        5.660000
  H3        37.740002       54.220001        6.290000
  C9        37.709999       53.209999        4.380000
  H4        37.080002       53.950001        3.980000
  C10       36.820000       53.919998        1.210000
  H5        37.080002       54.549999        2.050000
  C11       36.200001       54.330002        0.070000
  H6        36.369999       55.320000       -0.240000
  C12       35.779999       53.419998       -0.920000
  H7        35.330002       53.880001       -1.790000
  C13       36.040001       52.099998       -0.860000
  H8        35.790001       51.480000       -1.710000
  C6        37.209999       49.330002       -0.290000
  C1        38.009998       49.389999       -1.460000
  H1        38.349998       50.340000       -1.800000
  C2        38.150002       48.259998       -2.300000
  H2        38.910000       48.240002       -3.030000
  C3        37.450001       47.160000       -1.940000
  H3        37.540001       46.340000       -2.510000
  C4        36.650002       47.070000       -0.830000
  H4        36.330002       46.090000       -0.500000
  C5        36.430000       48.160000       -0.060000
  H5        36.130001       47.919998        0.930000
  IR        49.060001       54.180000        9.170000
  C1        51.090000       55.279999        5.490000
  C2        51.599998       56.119999        6.420000
  N1        50.020000       54.660000        6.080000
  C3a       49.830002       54.930000        7.400000
  N2        50.849998       55.860001        7.650000
  C4        51.080002       56.290001        8.940000
  C5a       50.470001       55.570000        9.930000
  C6        50.669998       55.950001       11.290000
  H1        50.040001       55.470001       12.080000
  C7        51.459999       57.070000       11.670000
  H2        51.570000       57.189999       12.690000
  C8        52.099998       57.770000       10.650000
  H3        52.540001       58.759998       10.800000
  C9        51.889999       57.389999        9.300000
  H4        52.310001       58.049999        8.620000
  C10       52.849998       56.779999        6.100000
  H5        53.240002       57.560001        6.660000
  C11       53.439999       56.520000        4.860000
  H6        54.049999       57.279999        4.380000
  C12       52.919998       55.560001        3.990000
  H7        53.570000       55.110001        3.280000
  C13       51.689999       54.990002        4.310000
  H8        50.990002       54.660000        3.500000
  C6        49.119999       53.910000        5.210000
  C1        47.759998       54.110001        5.330000
  H1        47.389999       54.939999        5.930000
  C2        46.779999       53.270000        4.760000
  H2        45.709999       53.470001        4.990000
  C3        47.240002       52.139999        3.990000
  H3        46.639999       51.250000        3.760000
  C4        48.590000       52.020000        3.780000
  H4        49.070000       51.400002        3.020000
  C5        49.529999       52.810001        4.450000
  H5        50.610001       52.470001        4.620000
  C1        51.980000       51.090000       10.020000
  C2        51.230000       51.119999       11.130000
  N1        51.480000       52.049999        9.180000
  C3b       50.360001       52.639999        9.650000
  N2        50.150002       51.990002       10.850000
  C4        49.070000       52.549999       11.680000
  C5b       48.500000       53.700001       11.190000
  C6        47.500000       54.279999       11.970000
  H1        47.099998       55.290001       11.810000
  C7        47.099998       53.660000       13.180000
  H2        46.189999       54.110001       13.640000
  C8        47.680000       52.480000       13.590000
  H3        47.259998       51.820000       14.360000
  C9        48.669998       51.880001       12.830000
  H4        49.139999       51.119999       13.380000
  C10       51.470001       50.299999       12.220000
  H5        51.060001       50.439999       13.220000
  C11       52.490002       49.340000       12.070000
  H6        52.740002       48.740002       12.990000
  C12       53.330002       49.330002       10.920000
  H7        54.189999       48.740002       10.920000
  C13       53.049999       50.160000        9.870000
  H8        53.709999       50.189999        8.950000
  C6        52.400002       52.669998        8.260000
  C1        52.689999       52.020000        7.080000
  H1        52.230000       51.110001        6.810000
  C2        53.830002       52.349998        6.330000
  H2        54.169998       51.560001        5.620000
  C3        54.660000       53.380001        6.790000
  H3        55.500000       53.549999        6.210000
  C4        54.389999       54.009998        7.990000
  H4        55.160000       54.750000        8.280000
  C5        53.270000       53.730000        8.740000
  H5        53.080002       54.340000        9.610000
  C1        45.610001       51.779999        8.260000
  C2        45.180000       53.080002        8.140000
  N1        46.970001       51.919998        8.520000
  C3c       47.389999       53.169998        8.580000
  N2        46.299999       53.919998        8.360000
  C4        46.430000       55.320000        8.430000
  C5c       47.590000       55.700001        9.060000
  C6        47.669998       56.959999        9.650000
  H1        48.439999       57.320000       10.340000
  C7        46.610001       57.810001        9.480000
  H2        46.900002       58.840000        9.740000
  C8        45.419998       57.470001        8.790000
  H3        44.509998       57.880001        8.940000
  C9        45.389999       56.200001        8.220000
  H4        44.590000       56.009998        7.520000
  C10       43.790001       53.349998        7.950000
  H5        43.439999       54.340000        8.050000
  C11       42.830002       52.340000        7.910000
  H6        41.820000       52.509998        8.160000
  C12       43.310001       51.000000        8.110000
  H7        42.560001       50.310001        8.220000
  C13       44.680000       50.720001        8.200000
  H8        45.070000       49.750000        8.270000
  C6        47.880001       50.810001        8.440000
  C1        48.880001       50.759998        7.490000
  H1        49.080002       51.669998        6.930000
  C2        49.779999       49.689999        7.480000
  H2        50.480000       49.610001        6.640000
  C3        49.770000       48.680000        8.470000
  H3        50.320000       47.770000        8.320000
  C4        48.759998       48.779999        9.440000
  H4        48.889999       48.000000       10.210000
  C5        47.860001       49.849998        9.440000
  H5        47.029999       49.849998       10.170000
