206
 generated by VMD
 Ir        0.553160        0.222102       -7.328344
 C        -1.000586       -2.382207      -10.459711
 C        -0.103883       -3.172938       -9.779732
 N        -0.908311       -1.088428       -9.921917
 C         0.017543       -1.023576       -8.896496
 N         0.524791       -2.321551       -8.826050
 C         1.494864       -2.556872       -7.794168
 C         1.869345       -1.403401       -7.069897
 C         2.980743       -1.465840       -6.216728
 H         3.320275       -0.566432       -5.727257
 C         3.682925       -2.651380       -6.033325
 H         4.549481       -2.662927       -5.381065
 C         3.293880       -3.805879       -6.705763
 H         3.803071       -4.748239       -6.533175
 C         2.206676       -3.761016       -7.581419
 H         1.915981       -4.669469       -8.082428
 C        -0.070846       -4.544740      -10.063932
 H         0.708909       -5.185088       -9.676201
 C        -0.961235       -5.108748      -10.981268
 H        -0.969933       -6.174424      -11.136070
 C        -1.861923       -4.290883      -11.673403
 H        -2.515815       -4.708339      -12.415266
 C        -1.870607       -2.914302      -11.411201
 H        -2.555010       -2.275643      -11.957380
 C        -1.498732        0.061669      -10.566570
 C        -0.783425        0.726948      -11.561979
 H         0.232145        0.428983      -11.770624
 C        -1.324882        1.849397      -12.185709
 H        -0.775255        2.337013      -12.980404
 C        -2.589654        2.319876      -11.806368
 H        -3.010605        3.192304      -12.287376
 C        -3.304958        1.654597      -10.810957
 H        -4.248074        2.052203      -10.477722
 C        -2.764995        0.518839      -10.191771
 H        -3.324571        0.005117       -9.427399
 C        -1.411240       -1.963529       -4.109674
 C        -0.642874       -1.021326       -3.467983
 N        -1.346655       -1.674456       -5.484470
 C        -0.530116       -0.591866       -5.754412
 N        -0.125192       -0.175149       -4.488323
 C         0.749908        0.953984       -4.451500
 C         1.369635        1.249160       -5.674042
 C         2.361653        2.235637       -5.697874
 H         2.879856        2.462350       -6.620407
 C         2.732326        2.932230       -4.536169
 H         3.515498        3.665817       -4.587053
 C         2.088117        2.650878       -3.324090
 H         2.360216        3.179592       -2.430713
 C         1.089417        1.668668       -3.288548
 H         0.502559        1.568068       -2.382799
 C        -0.461092       -1.124578       -2.080074
 H         0.183368       -0.442761       -1.559402
 C        -1.047962       -2.173783       -1.366806
 H        -0.925427       -2.225116       -0.287756
 C        -1.824787       -3.128781       -2.034278
 H        -2.219844       -3.978486       -1.506231
 C        -2.005081       -3.012221       -3.417646
 H        -2.592723       -3.757352       -3.925541
 C        -2.321356       -2.228906       -6.402153
 C        -3.602563       -1.668268       -6.457785
 H        -3.836680       -0.802980       -5.856234
 C        -4.613140       -2.302432       -7.196142
 H        -5.603792       -1.897103       -7.200224
 C        -4.334339       -3.488187       -7.886038
 H        -5.120740       -3.980062       -8.454397
 C        -3.053132       -4.048823       -7.830404
 H        -2.828387       -4.932715       -8.396378
 C        -2.057407       -3.419438       -7.073168
 H        -1.077491       -3.875287       -7.005583
 C        -1.893822        3.688350       -8.338701
 C        -0.811025        3.792847       -9.176395
 N        -1.632831        2.633626       -7.447109
 C        -0.448927        1.996589       -7.752161
 N         0.063515        2.732021       -8.820545
 C         1.267770        2.221980       -9.416388
 C         1.868910        1.168802       -8.706989
 C         3.125382        0.707882       -9.111624
 H         3.658607       -0.006886       -8.512976
 C         3.763762        1.233591      -10.245247
 H         4.727659        0.853045      -10.547222
 C         3.132179        2.247355      -10.983274
 H         3.593006        2.617244      -11.888216
 C         1.897690        2.734895      -10.575792
 H         1.362077        3.384144      -11.245861
 C        -0.821435        4.794330      -10.170340
 H         0.046238        4.997952      -10.765554
 C        -1.942320        5.609648      -10.346792
 H        -1.969720        6.321181      -11.167992
 C        -3.059582        5.451912       -9.517908
 H        -3.938295        6.065274       -9.661963
 C        -3.032645        4.496432       -8.505674
 H        -3.910990        4.324211       -7.910906
 C        -2.171814        2.657372       -6.106794
 C        -1.544823        3.432134       -5.126171
 H        -0.656877        3.994753       -5.370943
 C        -2.067751        3.470219       -3.833155
 H        -1.564889        4.062762       -3.070446
 C        -3.216182        2.746852       -3.516216
 H        -3.648739        2.817736       -2.525123
 C        -3.843174        1.972090       -4.496841
 H        -4.732609        1.396161       -4.256613
 C        -3.332566        1.929740       -5.795336
 H        -3.837927        1.377641       -6.565659
 Ir        0.553159        0.222101        6.367212
 C        -3.259280       -0.270148        8.444302
 C        -3.512053       -0.705472        7.160790
 N        -1.907640        0.103849        8.490061
 C        -1.287135       -0.075204        7.269892
 N        -2.277153       -0.614139        6.465895
 C        -1.832150       -1.149323        5.224061
 C        -0.500472       -0.860770        4.888244
 C         0.041580       -1.416103        3.717653
 H         1.060266       -1.207412        3.454356
 C        -0.722073       -2.260507        2.897882
 H        -0.269429       -2.714509        2.032150
 C        -2.041590       -2.567147        3.238688
 H        -2.625433       -3.220284        2.614077
 C        -2.586461       -2.016078        4.400685
 H        -3.574338       -2.328530        4.693727
 C        -4.821150       -1.091380        6.827720
 H        -5.094655       -1.281683        5.801766
 C        -5.840832       -1.073882        7.793609
 H        -6.831387       -1.405376        7.526820
 C        -5.562087       -0.639075        9.092125
 H        -6.348801       -0.600398        9.831428
 C        -4.265150       -0.235076        9.420210
 H        -4.050799        0.081340       10.426258
 C        -1.349274        0.863242        9.582284
 C        -1.416039        2.260342        9.539190
 H        -1.799211        2.760975        8.660131
 C        -1.001974        3.002674       10.640686
 H        -0.988004        4.086292       10.587041
 C        -0.519657        2.361217       11.789818
 H        -0.314034        2.930891       12.673046
 C        -0.427208        0.959853       11.814964
 H        -0.014042        0.472530       12.689211
 C        -0.850773        0.217521       10.716586
 H        -0.788732       -0.866096       10.745289
 C         2.540393       -3.488503        7.451885
 C         3.552056       -2.680127        6.974738
 N         1.337075       -2.787929        7.312884
 C         1.545168       -1.559885        6.728241
 N         2.912460       -1.519294        6.468888
 C         3.319315       -0.495825        5.559834
 C         2.301882        0.391972        5.185472
 C         2.556569        1.346686        4.197568
 H         1.764782        1.986521        3.837312
 C         3.824987        1.444489        3.604821
 H         4.005115        2.189113        2.838734
 C         4.843910        0.570003        3.983724
 H         5.792656        0.592212        3.475209
 C         4.594416       -0.402287        4.955375
 H         5.370917       -1.119407        5.172825
 C         4.881107       -3.108695        7.112031
 H         5.704387       -2.447097        6.862628
 C         5.177877       -4.340341        7.695702
 H         6.209661       -4.650298        7.825130
 C         4.145433       -5.165778        8.141590
 H         4.364017       -6.129828        8.583208
 C         2.816381       -4.737210        8.004297
 H         2.020405       -5.408368        8.272757
 C         0.049056       -3.430552        7.461012
 C        -0.484345       -4.136706        6.380720
 H         0.079246       -4.241563        5.468212
 C        -1.751837       -4.725060        6.495180
 H        -2.179951       -5.226640        5.639531
 C        -2.488749       -4.611527        7.681340
 H        -3.458824       -5.067298        7.772040
 C        -1.945846       -3.905374        8.758513
 H        -2.521598       -3.782426        9.666035
 C        -0.675533       -3.312755        8.652647
 H        -0.252899       -2.797351        9.491598
 C         2.341366        2.859355        9.347113
 C         1.607428        3.700605        8.553746
 N         2.300624        1.579402        8.773912
 C         1.504874        1.569849        7.631812
 N         1.119690        2.895473        7.484320
 C         0.392411        3.195138        6.294291
 C        -0.221529        2.089612        5.706254
 C        -1.131935        2.306842        4.663770
 H        -1.678689        1.465453        4.248408
 C        -1.388182        3.585404        4.171515
 H        -2.026892        3.716083        3.315552
 C        -0.729555        4.686666        4.735370
 H        -0.879848        5.667777        4.309421
 C         0.164828        4.496055        5.793173
 H         0.792210        5.312368        6.101433
 C         1.464648        5.049022        8.920471
 H         0.827914        5.710035        8.359195
 C         2.093654        5.533833       10.067602
 H         2.002400        6.579873       10.334763
 C         2.860248        4.687802       10.864262
 H         3.361167        5.058489       11.749345
 C         2.974522        3.339387       10.506891
 H         3.541010        2.668298       11.142761
 C         3.329031        0.617555        9.053427
 C         4.605512        0.830367        8.517319
 H         4.757134        1.574990        7.760584
 C         5.688302        0.061331        8.962564
 H         6.665890        0.215608        8.541947
 C         5.493125       -0.933829        9.939379
 H         6.331860       -1.493805       10.314413
 C         4.208184       -1.159436       10.449703
 H         4.047942       -1.939210       11.180167
 C         3.128214       -0.386134       10.013052
 H         2.137856       -0.570782       10.394753
