206
 generated by VMD
  IR        58.590000       26.690001       35.590000
  C1        59.180000       22.389999       35.150002
  C2        58.599998       22.629999       36.380001
  N1        59.139999       23.680000       34.509998
  C3a       58.630001       24.620001       35.349998
  N2        58.230000       23.930000       36.400002
  C4        57.500000       24.680000       37.389999
  C5a       57.610001       26.080000       37.299999
  C6        56.990002       26.940001       38.230000
  H1        57.240002       27.959999       38.400002
  C7        56.060001       26.370001       39.130001
  H2        55.360001       27.049999       39.680000
  C8        55.860001       25.049999       39.189999
  H3        55.029999       24.709999       39.750000
  C9        56.599998       24.150000       38.380001
  H4        56.450001       23.070000       38.470001
  C10       58.540001       21.520000       37.270000
  H5        58.099998       21.709999       38.230000
  C11       58.900002       20.260000       36.889999
  H6        58.849998       19.410000       37.490002
  C12       59.340000       20.040001       35.570000
  H7        59.619999       19.030001       35.220001
  C13       59.470001       21.129999       34.720001
  H8        60.060001       20.930000       33.830002
  C6        59.189999       23.760000       33.110001
  C1        58.009998       23.580000       32.389999
  H1        57.110001       23.350000       32.959999
  C2        58.049999       23.600000       30.990000
  H2        57.160000       23.469999       30.459999
  C3        59.220001       23.959999       30.340000
  H3        59.099998       24.010000       29.260000
  C4        60.430000       24.309999       31.030001
  H4        61.250000       24.670000       30.540001
  C5        60.349998       24.219999       32.430000
  H5        61.119999       24.850000       32.849998
  C1        54.560001       27.660000       34.400002
  C2        55.040001       28.860001       34.910000
  N1        55.570000       26.750000       34.349998
  C3b       56.759998       27.290001       34.790001
  N2        56.349998       28.590000       35.189999
  C4        57.360001       29.440001       35.730000
  C5b       58.490002       28.750000       36.189999
  C6        59.480000       29.549999       36.700001
  H1        60.389999       29.049999       37.049999
  C7        59.560001       30.910000       36.680000
  H2        60.240002       31.520000       37.209999
  C8        58.459999       31.580000       36.189999
  H3        58.549999       32.680000       35.939999
  C9        57.369999       30.809999       35.740002
  H4        56.619999       31.230000       35.270000
  C10       54.150002       29.959999       34.980000
  H5        54.540001       30.969999       35.070000
  C11       52.750000       29.820000       34.779999
  H6        52.139999       30.559999       35.130001
  C12       52.250000       28.590000       34.369999
  H7        51.259998       28.190001       34.520000
  C13       53.200001       27.549999       34.099998
  H8        52.820000       26.590000       33.720001
  C6        55.250000       25.389999       33.950001
  C1        54.889999       24.440001       34.910000
  H1        54.840000       24.510000       36.000000
  C2        54.389999       23.200001       34.410000
  H2        54.389999       22.290001       35.040001
  C3        54.150002       23.110001       33.049999
  H3        53.619999       22.260000       32.610001
  C4        54.389999       24.080000       32.119999
  H4        53.830002       24.209999       31.180000
  C5        55.049999       25.200001       32.580002
  H5        55.340000       25.910000       31.889999
  C1        60.930000       27.760000       32.110001
  C2        61.950001       27.500000       33.029999
  N1        59.680000       27.690001       32.709999
  C3c       59.779999       27.280001       34.020000
  N2        61.200001       27.110001       34.169998
  C4        61.580002       26.740000       35.509998
  C5c       60.520000       26.500000       36.369999
  C6        60.759998       26.250000       37.720001
  H1        59.939999       26.360001       38.520000
  C7        62.110001       26.080000       38.150002
  H2        62.259998       25.780001       39.189999
  C8        63.189999       26.400000       37.299999
  H3        64.169998       26.680000       37.689999
  C9        62.860001       26.770000       35.990002
  H4        63.630001       27.250000       35.490002
  C10       63.240002       27.530001       32.630001
  H5        64.139999       27.430000       33.279999
  C11       63.619999       27.709999       31.270000
  H6        64.660004       27.790001       31.110001
  C12       62.650002       27.920000       30.290001
  H7        62.950001       28.209999       29.299999
  C13       61.290001       27.950001       30.700001
  H8        60.560001       28.180000       29.969999
  C6        58.650002       28.510000       32.349998
  C1        58.730000       29.850000       32.599998
  H1        59.660000       30.290001       32.840000
  C2        57.610001       30.650000       32.349998
  H2        57.500000       31.610001       32.790001
  C3        56.470001       30.049999       31.820000
  H3        55.639999       30.670000       31.430000
  C4        56.419998       28.690001       31.500000
  H4        55.439999       28.420000       31.190001
  C5        57.540001       27.879999       31.780001
  H5        57.580002       26.799999       31.660000
  IR        46.700001       20.350000       27.010000
  C1        46.540001       20.629999       31.379999
  C2        46.410000       21.959999       30.980000
  N1        46.740002       19.790001       30.280001
  C3a       46.590000       20.549999       29.070000
  N2        46.419998       21.920000       29.530001
  C4        46.369999       22.930000       28.559999
  C5a       46.660000       22.500000       27.219999
  C6        46.580002       23.389999       26.139999
  H1        47.200001       23.299999       25.270000
  C7        45.889999       24.639999       26.340000
  H2        45.459999       25.219999       25.480000
  C8        45.570000       25.040001       27.629999
  H3        45.240002       26.059999       27.840000
  C9        45.830002       24.260000       28.700001
  H4        45.500000       24.549999       29.660000
  C10       46.169998       23.010000       31.959999
  H5        46.000000       23.969999       31.700001
  C11       46.130001       22.639999       33.320000
  H6        45.730000       23.280001       34.090000
  C12       46.240002       21.320000       33.689999
  H7        46.560001       21.049999       34.700001
  C13       46.419998       20.320000       32.759998
  H8        46.410000       19.350000       32.980000
  C6        47.090000       18.430000       30.379999
  C1        46.180000       17.400000       29.920000
  H1        45.330002       17.709999       29.389999
  C2        46.430000       16.080000       30.260000
  H2        45.820000       15.280000       29.889999
  C3        47.400002       15.760000       31.170000
  H3        47.580002       14.720000       31.490000
  C4        48.220001       16.700001       31.680000
  H4        48.900002       16.490000       32.500000
  C5        48.070000       18.040001       31.260000
  H5        48.470001       18.840000       31.879999
  C1        42.570000       19.990000       25.719999
  C2        43.310001       20.049999       24.559999
  N1        43.459999       20.379999       26.780001
  C3b       44.740002       20.540001       26.330000
  N2        44.619999       20.500000       24.910000
  C4        45.820000       20.719999       24.160000
  C5b       46.970001       20.490000       24.889999
  C6        48.160000       20.790001       24.139999
  H1        49.090000       20.860001       24.680000
  C7        48.169998       21.250000       22.830000
  H2        49.169998       21.430000       22.420000
  C8        46.990002       21.459999       22.139999
  H3        46.840000       21.920000       21.100000
  C9        45.810001       21.180000       22.910000
  H4        44.939999       21.690001       22.670000
  C10       42.700001       19.719999       23.320000
  H5        43.310001       19.670000       22.420000
  C11       41.389999       19.240000       23.309999
  H6        40.860001       19.240000       22.400000
  C12       40.689999       19.090000       24.480000
  H7        39.730000       18.610001       24.469999
  C13       41.240002       19.520000       25.680000
  H8        40.650002       19.280001       26.530001
  C6        42.959999       20.990000       27.990000
  C1        43.419998       20.410000       29.180000
  H1        43.919998       19.440001       29.290001
  C2        43.070000       21.120001       30.350000
  H2        43.529999       20.879999       31.290001
  C3        42.169998       22.240000       30.320000
  H3        41.910000       22.809999       31.240000
  C4        41.750000       22.709999       29.110001
  H4        40.959999       23.430000       29.080000
  C5        42.110001       22.049999       27.889999
  H5        41.799999       22.370001       26.879999
  C1        47.340000       16.020000       26.740000
  C2        48.549999       16.559999       27.250000
  N1        46.540001       17.090000       26.410000
  C3c       47.160000       18.340000       26.799999
  N2        48.400002       17.959999       27.290001
  C4        49.169998       19.049999       27.830000
  C5c       48.770000       20.309999       27.400000
  C6        49.650002       21.410000       27.540001
  H1        49.590000       22.170000       26.820000
  C7        50.869999       21.200001       28.230000
  H2        51.660000       21.930000       28.190001
  C8        51.209999       19.959999       28.750000
  H3        51.910000       19.990000       29.469999
  C9        50.430000       18.860001       28.540001
  H4        50.610001       18.059999       29.160000
  C10       49.650002       15.640000       27.520000
  H5        50.610001       15.940000       27.930000
  C11       49.549999       14.310000       27.040001
  H6        50.520000       13.780000       27.100000
  C12       48.380001       13.850000       26.480000
  H7        48.400002       12.840000       26.190001
  C13       47.279999       14.720000       26.360001
  H8        46.410000       14.260000       25.860001
  C6        45.270000       16.990000       25.610001
  C1        44.169998       16.549999       26.260000
  H1        44.320000       16.340000       27.270000
  C2        43.029999       16.180000       25.549999
  H2        42.189999       15.840000       26.020000
  C3        43.009998       16.330000       24.150000
  H3        42.189999       15.970000       23.490000
  C4        44.080002       16.850000       23.469999
  H4        44.090000       16.780001       22.430000
  C5        45.209999       17.059999       24.190001
  H5        46.160000       17.170000       23.570000
