206
 generated by VMD
 Ir       -8.810932       -8.212741     -137.843155
 C        -8.375029      -12.284636     -136.339386
 C        -7.123273      -11.799964     -136.663574
 N        -9.221926      -11.127528     -136.477844
 C        -8.509218      -10.058116     -136.922485
 N        -7.259574      -10.478765     -136.914856
 C        -6.268058       -9.473495     -137.200912
 C        -6.749908       -8.289899     -137.790085
 C        -5.888931       -7.239324     -138.169434
 H        -6.121788       -6.456912     -138.851654
 C        -4.544958       -7.304713     -137.734406
 H        -3.921112       -6.375329     -137.778671
 C        -4.065977       -8.375371     -137.093872
 H        -3.114311       -8.284862     -136.641937
 C        -4.872489       -9.517705     -136.852417
 H        -4.452550      -10.400113     -136.360474
 C        -6.063596      -12.751191     -136.656403
 H        -5.093303      -12.376513     -136.919922
 C        -6.236331      -14.032393     -136.220184
 H        -5.491716      -14.758901     -136.167877
 C        -7.502706      -14.433543     -135.751373
 H        -7.675394      -15.456504     -135.370941
 C        -8.556765      -13.532903     -135.824203
 H        -9.536573      -13.986981     -135.705948
 C       -10.446758      -11.080462     -135.794861
 C       -10.449352      -10.684089     -134.458405
 H        -9.483881      -10.463580     -134.003387
 C       -11.654285      -10.685262     -133.744171
 H       -11.646688      -10.381219     -132.745468
 C       -12.848057      -10.918099     -134.408768
 H       -13.714813      -10.817515     -133.759216
 C       -12.927946      -11.178578     -135.818909
 H       -13.820877      -11.246737     -136.308929
 C       -11.686367      -11.220353     -136.475586
 H       -11.856237      -11.026738     -137.524323
 C        -8.149874       -5.460658     -134.589401
 C        -8.250429       -4.627631     -135.696854
 N        -8.440758       -6.738853     -134.953125
 C        -8.770063       -6.822267     -136.289505
 N        -8.566874       -5.482245     -136.715134
 C        -8.804861       -5.207427     -138.094284
 C        -8.778025       -6.347959     -138.908569
 C        -9.019203       -6.107848     -140.236862
 H        -9.028902       -6.977212     -140.903748
 C        -9.417681       -4.945434     -140.825439
 H        -9.447054       -4.727122     -141.858337
 C        -9.478989       -3.836667     -140.009415
 H       -10.010508       -2.908378     -140.378693
 C        -9.147383       -4.003253     -138.650818
 H        -9.294519       -3.279763     -138.006836
 C        -8.047565       -3.238244     -135.508575
 H        -8.411726       -2.530524     -136.248062
 C        -7.517370       -2.703061     -134.303558
 H        -7.120042       -1.763078     -134.331207
 C        -7.315403       -3.553149     -133.223022
 H        -6.618587       -3.440301     -132.407974
 C        -7.730571       -4.917829     -133.372345
 H        -7.628402       -5.586131     -132.504395
 C        -8.282808       -7.788344     -133.960358
 C        -7.062339       -8.457234     -133.830994
 H        -6.136899       -8.371942     -134.406998
 C        -6.933759       -9.316146     -132.698135
 H        -6.172372      -10.119124     -132.675354
 C        -7.944452       -9.282641     -131.753326
 H        -7.849599       -9.783303     -130.785156
 C        -9.087795       -8.539639     -131.817413
 H        -9.648148       -8.161445     -130.947327
 C        -9.295618       -7.861896     -133.000244
 H       -10.194517       -7.371846     -133.127274
 C       -13.125788       -8.369575     -138.140381
 C       -12.767467       -9.078919     -139.290527
 N       -12.009565       -7.843204     -137.504471
 C       -10.848339       -8.252036     -138.119781
 N       -11.351849       -9.070170     -139.189819
 C       -10.308134       -9.575452     -140.045532
 C        -9.019682       -9.288482     -139.623215
 C        -7.931499       -9.622001     -140.427719
 H        -6.895856       -9.139119     -140.290726
 C        -8.165646      -10.407201     -141.596039
 H        -7.283670      -10.742494     -142.147202
 C        -9.475359      -10.632985     -142.070343
 H        -9.681610      -10.847016     -143.120377
 C       -10.517467      -10.151231     -141.267975
 H       -11.425461      -10.089976     -141.763031
 C       -13.723837       -9.659406     -140.047760
 H       -13.576826      -10.171107     -141.027069
 C       -15.096600       -9.679370     -139.671570
 H       -15.744678      -10.098111     -140.391464
 C       -15.516594       -9.037673     -138.506561
 H       -16.567142       -8.922933     -138.313217
 C       -14.533775       -8.371303     -137.726425
 H       -14.861692       -7.824880     -136.882263
 C       -12.032299       -6.635015     -136.869919
 C       -12.197973       -5.490245     -137.595566
 H       -12.547487       -5.539567     -138.591309
 C       -12.080210       -4.257360     -136.945160
 H       -11.899534       -3.358504     -137.480621
 C       -11.835352       -4.250413     -135.573853
 H       -11.927635       -3.312804     -134.992676
 C       -11.737886       -5.426940     -134.824997
 H       -11.466682       -5.204087     -133.821915
 C       -11.827816       -6.668656     -135.487549
 H       -11.675066       -7.640462     -135.024231
 Ir       -8.810934       -8.212741     -121.868675
 C        -5.119705       -7.890388     -124.207870
 C        -5.731609       -6.655639     -124.424118
 N        -5.930078       -8.725701     -123.432533
 C        -7.071702       -7.984506     -122.972610
 N        -6.949335       -6.695638     -123.636879
 C        -7.999090       -5.780894     -123.479523
 C        -9.158175       -6.296773     -122.804993
 C       -10.256170       -5.473802     -122.518600
 H       -11.261126       -5.844934     -122.477074
 C       -10.076344       -4.046157     -122.608551
 H       -10.744545       -3.332047     -122.056778
 C        -8.937635       -3.542634     -123.221985
 H        -8.861866       -2.487325     -123.493980
 C        -7.961179       -4.353234     -123.680649
 H        -7.068294       -3.942071     -124.065742
 C        -5.056570       -5.616200     -125.188576
 H        -5.437919       -4.689116     -125.303406
 C        -3.796928       -5.923867     -125.742424
 H        -3.119583       -5.170928     -126.112274
 C        -3.203378       -7.140384     -125.499146
 H        -2.434856       -7.529193     -126.172638
 C        -3.820440       -8.107469     -124.736725
 H        -3.384996       -8.958686     -124.462463
 C        -5.667913      -10.090436     -123.206985
 C        -5.364349      -10.571136     -121.873810
 H        -5.486904       -9.897662     -121.079514
 C        -4.862455      -11.853524     -121.718613
 H        -4.683280      -12.272428     -120.748352
 C        -4.473712      -12.592287     -122.802361
 H        -4.026273      -13.594668     -122.695457
 C        -4.669700      -12.148654     -124.059692
 H        -4.247228      -12.653906     -124.922913
 C        -5.291523      -10.895670     -124.254288
 H        -5.160293      -10.377959     -125.202522
 C        -7.850719       -6.587192     -117.958923
 C        -9.195074       -6.882426     -117.910477
 N        -7.476957       -6.661813     -119.345474
 C        -8.503616       -7.122882     -120.119995
 N        -9.634424       -7.101718     -119.252113
 C       -10.891386       -7.472205     -119.829773
 C       -10.762527       -8.216243     -120.986542
 C       -12.034967       -8.511432     -121.588501
 H       -12.037922       -8.887240     -122.598526
 C       -13.260958       -8.110234     -121.074905
 H       -14.126226       -8.421916     -121.670441
 C       -13.336803       -7.369733     -119.909355
 H       -14.259216       -6.893252     -119.421684
 C       -12.057289       -7.061597     -119.333511
 H       -11.976290       -6.202231     -118.759460
 C        -9.868532       -6.886603     -116.659470
 H       -10.904163       -7.217736     -116.610260
 C        -9.134804       -6.693782     -115.488541
 H        -9.651213       -6.444411     -114.605286
 C        -7.778226       -6.496783     -115.536407
 H        -7.210376       -6.468642     -114.625992
 C        -7.135343       -6.376136     -116.760971
 H        -6.078081       -6.310308     -116.683113
 C        -6.373491       -5.888295     -119.865318
 C        -5.441146       -6.616517     -120.616661
 H        -5.340194       -7.707696     -120.662926
 C        -4.467782       -5.825341     -121.266357
 H        -3.832239       -6.253551     -122.018372
 C        -4.349584       -4.413598     -121.024872
 H        -3.594373       -3.788302     -121.551712
 C        -5.289957       -3.801261     -120.248901
 H        -5.122806       -2.794230     -119.930534
 C        -6.322872       -4.553025     -119.599640
 H        -7.108768       -4.124799     -118.953423
 C        -8.247749      -12.334633     -120.481514
 C        -8.527489      -12.427458     -121.870369
 N        -8.417362      -11.014063     -120.133484
 C        -8.698128      -10.202788     -121.300529
 N        -8.776457      -11.121531     -122.335846
 C        -8.961351      -10.522016     -123.631599
 C        -9.452909       -9.221995     -123.602997
 C       -10.029871       -8.665412     -124.769760
 H       -10.800827       -7.966559     -124.640015
 C        -9.972982       -9.424735     -125.965073
 H       -10.565617       -9.152293     -126.821320
 C        -9.382128      -10.678880     -126.005302
 H        -9.114138      -10.981767     -126.924942
 C        -8.911604      -11.282512     -124.875374
 H        -8.271765      -12.073123     -125.024849
 C        -8.588577      -13.756824     -122.469002
 H        -8.773533      -13.943798     -123.522820
 C        -8.609957      -14.883356     -121.608902
 H        -8.885132      -15.807422     -122.152763
 C        -8.411572      -14.738761     -120.254715
 H        -8.410423      -15.639388     -119.712982
 C        -8.211319      -13.453513     -119.716805
 H        -8.104500      -13.450070     -118.618134
 C        -8.464998      -10.504753     -118.718834
 C        -7.284183      -10.375443     -118.074577
 H        -6.450256      -10.631323     -118.645355
 C        -7.249284      -10.165545     -116.697876
 H        -6.368799      -10.070331     -116.190147
 C        -8.458633      -10.023776     -115.990570
 H        -8.535746       -9.955619     -114.882866
 C        -9.670752      -10.068379     -116.628128
 H       -10.535055      -10.134852     -116.049202
 C        -9.652042      -10.414755     -117.939262
 H       -10.653063      -10.764676     -118.357010
