206
 generated by VMD
 Ir       12.961828      -39.789551      -26.519882
 C        12.669853      -43.571564      -28.680233
 C        11.977313      -43.820145      -27.556000
 N        13.178522      -42.299652      -28.630291
 C        12.808510      -41.612171      -27.519001
 N        12.080635      -42.583691      -26.851507
 C        11.328767      -42.146923      -25.681667
 C        11.756939      -40.903088      -25.218046
 C        10.952236      -40.340874      -24.250126
 H        11.171099      -39.373371      -23.907875
 C         9.694561      -40.851234      -23.783993
 H         9.193925      -40.248062      -23.031631
 C         9.281880      -42.106979      -24.274414
 H         8.405428      -42.548882      -23.898182
 C        10.097559      -42.765656      -25.208069
 H         9.818577      -43.736526      -25.452986
 C        11.341133      -45.047806      -27.382149
 H        10.915064      -45.190403      -26.400959
 C        11.395109      -46.000942      -28.416321
 H        10.793696      -46.830517      -28.346954
 C        12.069038      -45.743828      -29.618530
 H        11.725333      -46.284908      -30.494713
 C        12.723829      -44.524704      -29.714401
 H        13.255145      -44.264545      -30.634739
 C        14.113333      -41.889515      -29.540737
 C        13.753403      -41.281239      -30.753975
 H        12.684639      -41.226532      -30.993038
 C        14.759090      -40.776447      -31.613266
 H        14.579157      -40.481953      -32.661457
 C        16.056715      -40.839947      -31.174591
 H        16.815784      -40.508293      -31.864460
 C        16.455847      -41.432953      -30.012638
 H        17.392302      -41.199501      -29.675816
 C        15.413267      -41.956383      -29.226093
 H        15.679890      -42.508827      -28.278137
 C         9.036643      -37.833557      -26.941086
 C         9.780680      -37.071972      -26.024734
 N         9.966651      -38.774574      -27.489235
 C        11.196571      -38.698265      -26.924194
 N        11.103352      -37.563194      -26.056938
 C        12.313214      -37.175491      -25.320923
 C        13.200609      -38.233093      -25.133007
 C        14.387346      -37.921410      -24.413902
 H        14.965118      -38.674995      -23.939260
 C        14.650902      -36.651054      -23.986313
 H        15.529295      -36.472851      -23.374947
 C        13.812828      -35.607491      -24.285000
 H        14.137774      -34.584412      -24.047901
 C        12.632137      -35.855057      -24.898499
 H        11.992960      -34.972332      -25.089146
 C         9.074255      -35.999935      -25.371971
 H         9.545428      -35.429214      -24.584522
 C         7.743956      -35.783485      -25.684792
 H         7.094221      -35.357719      -25.036819
 C         7.111372      -36.472092      -26.673611
 H         6.050935      -36.164604      -26.889545
 C         7.749594      -37.564896      -27.252098
 H         7.169996      -38.424103      -27.623352
 C         9.404322      -39.922592      -28.229664
 C         8.311964      -40.604794      -27.696125
 H         7.682701      -40.182068      -26.896919
 C         8.085749      -41.927036      -28.071621
 H         7.132062      -42.435520      -27.852242
 C         8.893147      -42.607391      -28.955662
 H         8.418222      -43.548698      -29.349346
 C         9.950743      -41.894978      -29.530170
 H        10.524714      -42.328705      -30.293018
 C        10.188416      -40.565102      -29.151443
 H        11.102318      -39.961384      -29.454777
 C        16.031925      -37.663063      -28.906162
 C        16.734440      -38.566811      -28.240494
 N        14.621742      -37.838875      -28.534988
 C        14.474504      -38.747368      -27.537506
 N        15.778059      -39.203781      -27.398472
 C        15.945429      -40.102425      -26.301876
 C        14.756094      -40.632004      -25.754128
 C        14.807858      -41.487625      -24.627792
 H        13.895606      -42.084942      -24.438288
 C        16.045662      -41.764832      -23.998188
 H        16.096090      -42.534081      -23.287834
 C        17.218924      -41.174500      -24.477737
 H        18.235170      -41.319267      -24.087246
 C        17.174641      -40.309105      -25.622742
 H        18.079977      -39.826889      -25.918097
 C        17.980991      -38.776600      -28.605865
 H        18.429224      -39.626076      -28.126198
 C        18.654615      -38.122299      -29.600361
 H        19.685360      -38.110176      -29.662941
 C        17.971912      -37.150162      -30.281223
 H        18.492819      -36.407036      -30.851234
 C        16.639807      -36.954739      -29.888031
 H        16.198009      -36.094265      -30.230812
 C        13.595176      -36.930603      -28.990730
 C        13.536656      -35.685032      -28.383831
 H        14.058245      -35.388439      -27.467876
 C        12.622398      -34.770935      -28.818295
 H        12.718170      -33.770180      -28.427635
 C        11.658130      -35.114639      -29.786358
 H        11.039745      -34.452339      -30.303623
 C        11.663143      -36.404789      -30.314842
 H        10.904703      -36.737747      -30.985889
 C        12.672028      -37.270943      -29.988766
 H        12.482094      -38.333679      -30.208569
 Ir       12.961828      -39.789551      -16.337637
 C        11.818432      -38.048698      -20.234262
 C        10.705333      -38.771210      -19.810476
 N        12.807207      -38.342728      -19.300844
 C        12.371080      -39.150230      -18.291323
 N        11.079300      -39.393524      -18.582888
 C        10.491209      -40.456589      -17.730513
 C        11.197363      -40.834919      -16.617046
 C        10.681524      -41.840271      -15.785852
 H        11.169361      -42.117615      -14.910583
 C         9.468274      -42.459656      -16.055273
 H         9.244156      -43.477489      -15.702875
 C         8.717972      -41.992493      -17.129240
 H         7.759770      -42.462223      -17.202053
 C         9.221618      -41.024086      -17.984652
 H         8.688745      -40.765373      -18.903790
 C         9.486470      -38.476604      -20.455521
 H         8.685900      -38.945358      -20.068279
 C         9.360819      -37.566959      -21.540350
 H         8.367622      -37.385246      -21.945122
 C        10.456762      -36.895432      -21.906635
 H        10.244273      -35.990959      -22.423721
 C        11.716955      -37.125923      -21.281105
 H        12.549742      -36.491089      -21.648872
 C        14.157120      -38.248436      -19.637066
 C        14.826925      -39.357414      -20.227428
 H        14.394728      -40.400032      -20.099951
 C        16.194921      -39.178558      -20.672840
 H        16.799965      -40.030495      -21.052883
 C        16.852310      -37.986282      -20.497837
 H        17.853453      -37.925644      -20.755789
 C        16.132898      -36.963097      -19.838348
 H        16.607611      -36.020885      -19.631744
 C        14.795313      -36.998772      -19.498650
 H        14.231432      -36.094048      -19.636890
 C        10.948294      -36.846912      -13.767683
 C        11.721503      -37.603790      -12.895056
 N        10.953054      -37.449001      -15.023536
 C        11.798306      -38.577446      -15.044916
 N        12.256683      -38.664577      -13.648063
 C        12.894494      -39.820522      -13.333122
 C        13.253888      -40.639275      -14.437015
 C        14.015448      -41.838245      -14.180686
 H        13.948347      -42.736130      -14.854182
 C        14.513577      -42.133572      -12.866133
 H        14.810986      -43.144279      -12.584849
 C        14.270210      -41.236336      -11.771080
 H        14.741735      -41.321655      -10.796511
 C        13.449968      -40.095078      -12.054347
 H        13.284142      -39.466797      -11.186789
 C        11.903400      -37.063942      -11.596953
 H        12.405825      -37.578789      -10.738351
 C        11.444582      -35.802589      -11.217234
 H        11.539330      -35.544243      -10.213849
 C        10.766734      -34.968460      -12.177258
 H        10.496578      -33.929024      -12.004084
 C        10.493252      -35.530312      -13.470017
 H        10.240252      -34.808422      -14.216719
 C         9.867386      -37.273441      -15.859598
 C         8.665865      -38.026810      -15.637379
 H         8.597846      -38.961567      -15.168229
 C         7.556098      -37.825306      -16.480238
 H         6.737466      -38.447334      -16.378620
 C         7.589244      -36.889061      -17.541065
 H         6.757542      -36.675583      -18.191216
 C         8.808174      -36.159504      -17.768764
 H         8.910677      -35.541637      -18.539892
 C         9.855963      -36.369873      -16.901825
 H        10.840452      -35.832985      -17.019009
 C        16.872631      -37.883453      -16.263361
 C        17.111660      -39.102432      -16.923254
 N        15.471493      -37.833664      -15.931194
 C        14.878004      -38.967323      -16.285585
 N        15.850815      -39.785606      -16.811275
 C        15.534203      -41.232719      -17.004463
 C        14.121071      -41.340797      -17.247131
 C        13.690651      -42.475357      -17.991920
 H        12.593857      -42.528114      -18.218107
 C        14.603640      -43.445686      -18.503309
 H        14.330355      -44.249893      -19.162220
 C        15.932489      -43.297623      -18.118168
 H        16.736687      -44.018539      -18.306978
 C        16.376154      -42.189003      -17.328087
 H        17.422771      -42.055054      -17.084879
 C        18.369831      -39.413280      -17.524319
 H        18.437174      -40.183838      -18.232632
 C        19.366385      -38.494480      -17.565372
 H        20.187803      -38.691860      -18.185707
 C        19.137417      -37.287407      -16.913031
 H        19.812580      -36.471874      -17.179790
 C        17.953884      -36.944786      -16.249355
 H        17.861139      -35.948952      -15.797570
 C        14.754074      -36.721649      -15.395821
 C        15.043438      -36.224815      -14.098582
 H        15.695492      -36.780556      -13.426363
 C        14.329588      -35.118294      -13.655713
 H        14.283216      -34.928658      -12.546665
 C        13.359352      -34.505241      -14.511173
 H        12.657283      -33.731789      -14.189662
 C        13.164364      -34.940998      -15.792187
 H        12.658886      -34.203583      -16.423069
 C        13.936760      -36.011478      -16.187374
 H        13.741283      -36.364479      -17.136047
