206
 generated by VMD
  IR        41.689999       26.510000       52.820000
  C1        43.990002       27.820000       49.349998
  C2        43.520000       26.540001       49.029999
  N1        43.560001       28.040001       50.599998
  C3a       42.840000       27.010000       51.150002
  N2        42.959999       26.040001       50.200001
  C4        42.750000       24.690001       50.730000
  C5a       41.790001       24.700001       51.790001
  C6        41.459999       23.410000       52.250000
  H1        40.849998       23.270000       53.180000
  C7        41.930000       22.190001       51.759998
  H2        41.450001       21.230000       51.900002
  C8        42.930000       22.200001       50.790001
  H3        43.509998       21.340000       50.580002
  C9        43.360001       23.430000       50.250000
  H4        44.310001       23.520000       49.740002
  C10       43.799999       25.980000       47.759998
  H5        43.060001       25.379999       47.310001
  C11       44.680000       26.580000       46.880001
  H6        45.020000       26.040001       46.040001
  C12       45.180000       27.850000       47.180000
  H7        46.110001       28.150000       46.860001
  C13       44.799999       28.510000       48.400002
  H8        45.150002       29.480000       48.639999
  C6        43.830002       29.350000       51.150002
  C1        42.910000       30.340000       50.830002
  H1        42.160000       30.209999       50.080002
  C2        43.270000       31.639999       51.259998
  H2        42.540001       32.360001       51.009998
  C3        44.500000       31.930000       51.860001
  H3        44.619999       32.849998       52.369999
  C4        45.410000       30.930000       52.110001
  H4        46.439999       31.100000       52.220001
  C5        45.029999       29.629999       51.810001
  H5        45.689999       28.709999       52.049999
  C1        37.700001       26.680000       51.130001
  C2        37.450001       26.450001       52.480000
  N1        39.090000       26.820000       50.900002
  C3b       39.759998       26.540001       52.060001
  N2        38.709999       26.299999       53.070000
  C4        39.200001       26.049999       54.450001
  C5b       40.590000       25.790001       54.490002
  C6        41.090000       25.230000       55.709999
  H1        42.130001       25.100000       55.810001
  C7        40.220001       25.030001       56.820000
  H2        40.660000       24.670000       57.730000
  C8        38.880001       25.430000       56.840000
  H3        38.220001       25.219999       57.570000
  C9        38.410000       25.940001       55.619999
  H4        37.439999       26.420000       55.669998
  C10       36.119999       26.350000       52.959999
  H5        36.110001       26.180000       54.009998
  C11       35.049999       26.530001       52.130001
  H6        34.060001       26.299999       52.500000
  C12       35.299999       26.790001       50.799999
  H7        34.470001       27.070000       50.150002
  C13       36.630001       26.830000       50.320000
  H8        36.900002       27.340000       49.380001
  C6        39.660000       26.850000       49.619999
  C1        39.849998       25.639999       48.970001
  H1        39.900002       24.719999       49.490002
  C2        40.169998       25.709999       47.549999
  H2        40.200001       24.860001       46.990002
  C3        40.400002       26.930000       46.950001
  H3        40.730000       27.080000       45.910000
  C4        40.299999       28.139999       47.660000
  H4        40.220001       29.110001       47.189999
  C5        39.980000       28.059999       49.070000
  H5        39.889999       28.860001       49.750000
  C1        42.250000       30.320000       54.599998
  C2        43.380001       29.620001       54.910000
  N1        41.369999       29.400000       54.000000
  C3c       41.889999       28.200001       53.950001
  N2        43.130001       28.280001       54.529999
  C4        43.930000       27.150000       54.580002
  C5c       43.529999       26.139999       53.700001
  C6        44.139999       24.900000       53.880001
  H1        44.090000       24.250000       53.099998
  C7        44.990002       24.570000       54.910000
  H2        45.360001       23.520000       55.139999
  C8        45.290001       25.510000       55.919998
  H3        45.720001       25.110001       56.810001
  C9        44.860001       26.840000       55.700001
  H4        45.290001       27.520000       56.400002
  C10       44.509998       30.230000       55.540001
  H5        45.430000       29.740000       55.790001
  C11       44.290001       31.549999       55.950001
  H6        45.139999       32.000000       56.450001
  C12       43.049999       32.240002       55.740002
  H7        42.810001       33.130001       56.349998
  C13       42.060001       31.660000       54.990002
  H8        41.200001       32.240002       54.720001
  C6        40.000000       29.620001       53.619999
  C1        39.880001       29.959999       52.330002
  H1        40.720001       30.260000       51.770000
  C2        38.610001       30.270000       51.849998
  H2        38.380001       29.990000       50.840000
  C3        37.529999       30.440001       52.680000
  H3        36.570000       30.790001       52.349998
  C4        37.650002       29.969999       53.980000
  H4        36.849998       30.070000       54.770000
  C5        38.860001       29.510000       54.500000
  H5        38.910000       29.160000       55.529999
  IR        53.490002       30.600000       58.369999
  C1        55.509998       32.919998       55.330002
  C2        56.259998       31.790001       55.430000
  N1        54.599998       32.950001       56.459999
  C3a       54.709999       31.750000       57.160000
  N2        55.790001       31.049999       56.549999
  C4        55.950001       29.690001       56.900002
  C5a       55.049999       29.270000       57.860001
  C6        55.119999       27.889999       58.119999
  H1        54.689999       27.459999       59.029999
  C7        55.939999       26.969999       57.450001
  H2        55.540001       25.940001       57.419998
  C8        56.820000       27.440001       56.500000
  H3        57.400002       26.750000       55.959999
  C9        56.810001       28.760000       56.200001
  H4        57.200001       29.040001       55.250000
  C10       57.299999       31.620001       54.549999
  H5        58.070000       30.889999       54.720001
  C11       57.619999       32.599998       53.570000
  H6        58.560001       32.680000       53.090000
  C12       56.880001       33.790001       53.570000
  H7        56.980000       34.509998       52.810001
  C13       55.810001       33.869999       54.389999
  H8        55.189999       34.669998       54.250000
  C6        53.900002       34.099998       56.820000
  C1        52.520000       34.240002       56.430000
  H1        52.040001       33.570000       55.709999
  C2        51.840000       35.439999       56.730000
  H2        50.849998       35.700001       56.470001
  C3        52.529999       36.520000       57.360001
  H3        52.000000       37.439999       57.619999
  C4        53.900002       36.400002       57.639999
  H4        54.310001       37.209999       58.230000
  C5        54.580002       35.189999       57.419998
  H5        55.540001       35.090000       57.939999
  C1        50.540001       29.100000       55.610001
  C2        50.220001       28.520000       56.869999
  N1        51.730000       29.719999       55.799999
  C3b       52.240002       29.620001       57.060001
  N2        51.320000       28.750000       57.750000
  C4        51.750000       28.250000       58.959999
  C5b       52.610001       29.150000       59.650002
  C6        52.990002       28.860001       61.000000
  H1        53.450001       29.650000       61.650002
  C7        52.560001       27.690001       61.610001
  H2        52.669998       27.490000       62.639999
  C8        51.750000       26.830000       60.950001
  H3        51.330002       26.010000       61.450001
  C9        51.279999       27.110001       59.680000
  H4        50.669998       26.370001       59.250000
  C10       49.160000       27.580000       56.919998
  H5        49.049999       26.870001       57.689999
  C11       48.360001       27.389999       55.700001
  H6        47.669998       26.620001       55.759998
  C12       48.700001       28.010000       54.509998
  H7        48.279999       27.799999       53.610001
  C13       49.849998       28.879999       54.419998
  H8        50.070000       29.200001       53.480000
  C6        52.669998       30.100000       54.720001
  C1        53.709999       29.180000       54.509998
  H1        53.619999       28.200001       54.889999
  C2        54.630001       29.400000       53.500000
  H2        55.410000       28.680000       53.560001
  C3        54.490002       30.530001       52.680000
  H3        55.049999       30.799999       51.840000
  C4        53.459999       31.490000       52.950001
  H4        53.779999       32.500000       52.619999
  C5        52.529999       31.270000       53.990002
  H5        51.860001       32.020000       54.369999
  C1        50.880001       33.740002       59.619999
  C2        52.090000       34.099998       60.099998
  N1        50.919998       32.439999       59.200001
  C3c       52.230000       31.959999       59.290001
  N2        52.910000       33.020000       59.869999
  C4        54.270000       32.709999       60.240002
  C5c       54.630001       31.420000       59.900002
  C6        55.759998       30.879999       60.570000
  H1        55.959999       29.799999       60.400002
  C7        56.520000       31.570000       61.480000
  H2        57.509998       31.150000       61.740002
  C8        56.099998       32.889999       61.770000
  H3        56.540001       33.500000       62.529999
  C9        54.970001       33.419998       61.180000
  H4        54.590000       34.360001       61.480000
  C10       52.230000       35.360001       60.660000
  H5        53.139999       35.830002       60.650002
  C11       51.080002       36.189999       60.740002
  H6        51.139999       37.119999       61.230000
  C12       49.820000       35.820000       60.310001
  H7        48.959999       36.470001       60.349998
  C13       49.759998       34.570000       59.709999
  H8        48.750000       34.320000       59.310001
  C6        49.830002       31.500000       59.189999
  C1        49.709999       30.540001       60.240002
  H1        50.349998       30.490000       61.099998
  C2        48.549999       29.820000       60.340000
  H2        48.330002       29.290001       61.240002
  C3        47.470001       30.049999       59.459999
  H3        46.580002       29.500000       59.580002
  C4        47.580002       30.959999       58.450001
  H4        46.820000       31.040001       57.720001
  C5        48.790001       31.660000       58.279999
  H5        49.130001       32.000000       57.230000
