206
 generated by VMD
 Ir        0.334370       -0.691406       -7.897957
 C         3.450115        0.779095       -5.261150
 C         3.868053        1.165440       -6.514450
 N         2.333683       -0.054005       -5.418388
 C         1.976505       -0.158043       -6.752441
 N         2.951809        0.558331       -7.424519
 C         2.905975        0.463322       -8.849602
 C         1.715866       -0.068390       -9.369526
 C         1.571789       -0.180481      -10.762104
 H         0.678402       -0.605015      -11.174934
 C         2.596001        0.221836      -11.629818
 H         2.471779        0.096245      -12.698788
 C         3.784874        0.743629      -11.109619
 H         4.572414        1.049953      -11.780174
 C         3.946091        0.853184       -9.731174
 H         4.909500        1.147278       -9.344460
 C         4.977894        2.012039       -6.622307
 H         5.339172        2.332973       -7.585934
 C         5.648235        2.474819       -5.482231
 H         6.541721        3.076412       -5.582092
 C         5.193810        2.093548       -4.210415
 H         5.710060        2.447441       -3.322529
 C         4.093647        1.245682       -4.104748
 H         3.740494        0.954506       -3.122452
 C         2.058758       -1.102032       -4.474319
 C         2.829311       -2.267567       -4.505322
 H         3.626286       -2.366886       -5.219028
 C         2.548603       -3.316864       -3.631721
 H         3.123714       -4.226364       -3.669716
 C         1.489861       -3.199345       -2.715168
 H         1.291779       -4.012066       -2.024338
 C         0.719303       -2.033813       -2.684166
 H        -0.107353       -1.961712       -1.994495
 C         1.000019       -0.984516       -3.557774
 H         0.360142       -0.119537       -3.597385
 C        -1.819778        3.086086       -8.230259
 C        -2.440964        2.241291       -9.114880
 N        -0.696613        2.406147       -7.715679
 C        -0.612106        1.130520       -8.247494
 N        -1.669426        1.065838       -9.135853
 C        -1.800644       -0.138649       -9.885384
 C        -1.158207       -1.230282       -9.292667
 C        -1.545612       -2.533070       -9.656059
 H        -1.095135       -3.382397       -9.183918
 C        -2.552658       -2.736851      -10.607079
 H        -2.913784       -3.735718      -10.802113
 C        -3.142441       -1.642899      -11.242481
 H        -3.894325       -1.802589      -12.005215
 C        -2.758484       -0.350025      -10.888561
 H        -3.081921        0.469093      -11.512524
 C        -3.651096        2.637371       -9.712296
 H        -4.226154        1.946438      -10.299767
 C        -4.207573        3.884354       -9.422188
 H        -5.156052        4.141911       -9.843044
 C        -3.562359        4.746445       -8.532757
 H        -3.974773        5.721363       -8.316296
 C        -2.361900        4.351639       -7.933147
 H        -1.852478        5.022953       -7.259037
 C         0.385574        3.095749       -7.079033
 C         1.219730        3.917881       -7.842175
 H         1.067181        3.977173       -8.914982
 C         2.231544        4.665947       -7.230598
 H         2.846214        5.328766       -7.820984
 C         2.419853        4.580700       -5.848042
 H         3.203945        5.161850       -5.369438
 C         1.597580        3.757301       -5.077335
 H         1.790112        3.642071       -4.023842
 C         0.577328        3.020420       -5.687000
 H        -0.037342        2.357597       -5.096615
 C        -2.288876       -2.405361       -4.842930
 C        -1.384220       -3.402710       -5.109371
 N        -1.978474       -1.328838       -5.692497
 C        -0.883976       -1.608864       -6.494102
 N        -0.525318       -2.903286       -6.124199
 C         0.610672       -3.457470       -6.812168
 C         1.120438       -2.663166       -7.850445
 C         2.084270       -3.200871       -8.714733
 H         2.458046       -2.615692       -9.547897
 C         2.536392       -4.513042       -8.560818
 H         3.283550       -4.907406       -9.232479
 C         2.049419       -5.299965       -7.517452
 H         2.335247       -6.331421       -7.438652
 C         1.111565       -4.764797       -6.628284
 H         0.935871       -5.271061       -5.696442
 C        -1.507801       -4.617496       -4.404659
 H        -0.859192       -5.460320       -4.613102
 C        -2.504280       -4.799053       -3.450939
 H        -2.576778       -5.732513       -2.911602
 C        -3.414902       -3.770676       -3.183147
 H        -4.197464       -3.904823       -2.462448
 C        -3.302227       -2.564541       -3.885395
 H        -3.997921       -1.766239       -3.676533
 C        -2.927284       -0.280846       -5.969727
 C        -3.959202       -0.500652       -6.884354
 H        -3.998756       -1.438587       -7.429073
 C        -4.914333        0.488838       -7.119141
 H        -5.692059        0.323029       -7.855518
 C        -4.856628        1.700928       -6.424732
 H        -5.568958        2.479168       -6.642746
 C        -3.825413        1.930912       -5.509949
 H        -3.751316        2.883606       -5.003811
 C        -2.858665        0.939896       -5.277790
 H        -2.058285        1.121738       -4.587559
 Ir        0.334370       -0.691406        6.384964
 C        -0.630104       -1.379608       10.602245
 C         0.691223       -1.729290       10.477245
 N        -1.070171       -0.957481        9.327984
 C        -0.049606       -1.030247        8.399574
 N         1.036053       -1.497849        9.127720
 C         2.241425       -1.678902        8.393276
 C         2.041775       -1.763550        7.013279
 C         3.077831       -2.257996        6.214661
 H         2.872997       -2.513584        5.184456
 C         4.314598       -2.588436        6.754768
 H         5.087467       -3.005177        6.118298
 C         4.543484       -2.426971        8.128136
 H         5.519428       -2.637718        8.542770
 C         3.506897       -1.972202        8.947388
 H         3.732578       -1.689392        9.962616
 C         1.367981       -2.266266       11.585110
 H         2.390949       -2.607670       11.507183
 C         0.714001       -2.432449       12.809849
 H         1.217045       -2.884777       13.649456
 C        -0.625450       -2.050732       12.918449
 H        -1.138744       -2.161652       13.865246
 C        -1.301231       -1.523674       11.820621
 H        -2.330956       -1.210758       11.930836
 C        -2.470280       -0.852455        9.009434
 C        -3.195801       -2.010418        8.712376
 H        -2.686283       -2.963184        8.637974
 C        -4.583744       -1.943554        8.524364
 H        -5.141720       -2.837719        8.312397
 C        -5.235249       -0.710068        8.630928
 H        -6.313656       -0.660122        8.495838
 C        -4.511940        0.447895        8.918232
 H        -5.019245        1.400654        9.002392
 C        -3.123997        0.381023        9.106251
 H        -2.566017        1.275192        9.318214
 C         3.062435        2.700089        6.792328
 C         3.208347        2.282143        5.487865
 N         2.055149        1.904350        7.369118
 C         1.552311        0.983566        6.457684
 N         2.242821        1.257599        5.286190
 C         1.787800        0.575920        4.128101
 C         1.066193       -0.596584        4.404350
 C         0.782097       -1.478359        3.340832
 H         0.342934       -2.435841        3.553101
 C         1.145653       -1.167568        2.028076
 H         0.936001       -1.869522        1.234791
 C         1.827591        0.019932        1.750561
 H         2.146114        0.244213        0.745354
 C         2.146938        0.886719        2.795841
 H         2.643883        1.816757        2.580738
 C         4.200344        2.871880        4.688969
 H         4.453575        2.440220        3.729309
 C         5.028069        3.872181        5.208950
 H         5.826294        4.280235        4.618000
 C         4.856579        4.303848        6.529469
 H         5.495461        5.062725        6.948681
 C         3.873016        3.702919        7.326450
 H         3.773392        4.006458        8.353848
 C         1.766365        1.919624        8.777725
 C         2.736290        1.502064        9.696140
 H         3.712025        1.199066        9.341820
 C         2.451836        1.465210       11.062748
 H         3.200081        1.149818       11.764790
 C         1.177841        1.828613       11.525639
 H         0.952873        1.775276       12.571178
 C         0.199474        2.257362       10.609142
 H        -0.779266        2.520432       10.964142
 C         0.494843        2.302872        9.240063
 H        -0.263073        2.619530        8.540211
 C        -2.910667        1.029839        4.105549
 C        -2.964897       -0.320900        3.871754
 N        -1.987370        1.226448        5.147316
 C        -1.435486        0.040947        5.586231
 N        -2.112717       -0.914005        4.837345
 C        -1.927174       -2.256313        5.246464
 C        -0.776768       -2.468552        6.021461
 C        -0.550404       -3.731506        6.564880
 H         0.318245       -3.903397        7.167873
 C        -1.452896       -4.784760        6.338673
 H        -1.227261       -5.769970        6.718204
 C        -2.606621       -4.571510        5.584930
 H        -3.301060       -5.377224        5.403881
 C        -2.844864       -3.307285        5.033958
 H        -3.745586       -3.130322        4.468987
 C        -3.707504       -0.803303        2.789066
 H        -3.706268       -1.849079        2.532452
 C        -4.408340        0.087406        1.963497
 H        -4.906483       -0.278942        1.071507
 C        -4.384945        1.453140        2.235035
 H        -4.995022        2.137856        1.655506
 C        -3.632660        1.934273        3.315536
 H        -3.586639        2.992279        3.499928
 C        -1.719669        2.529682        5.712132
 C        -0.644382        3.279655        5.242981
 H        -0.003605        2.875595        4.472374
 C        -0.402084        4.564320        5.752026
 H         0.427067        5.146072        5.379642
 C        -1.256630        5.101543        6.724857
 H        -1.081120        6.098549        7.105488
 C        -2.335091        4.341915        7.194725
 H        -2.987755        4.747242        7.957771
 C        -2.573944        3.067165        6.695148
 H        -3.440689        2.509052        7.024780
