206
 generated by VMD
  IR        32.450001       23.860001        6.100000
  C1        34.250000       23.330000        2.220000
  C2        33.220001       22.520000        2.250000
  N1        34.349998       23.969999        3.470000
  C3a       33.310001       23.500000        4.250000
  N2        32.619999       22.610001        3.480000
  C4        31.760000       21.700001        4.160000
  C5a       31.250000       22.280001        5.340000
  C6        30.230000       21.600000        6.020000
  H1        29.879999       21.969999        6.970000
  C7        29.700001       20.410000        5.560000
  H2        29.190001       19.820000        6.300000
  C8        30.230000       19.809999        4.420000
  H3        29.950001       18.850000        4.120000
  C9        31.270000       20.500000        3.700000
  H4        31.930000       19.959999        3.040000
  C10       32.810001       21.840000        1.080000
  H5        31.959999       21.170000        1.160000
  C11       33.520000       21.980000       -0.080000
  H6        33.330002       21.240000       -0.840000
  C12       34.660000       22.799999       -0.150000
  H7        35.369999       22.590000       -0.970000
  C13       34.980000       23.510000        1.020000
  H8        35.869999       24.160000        0.980000
  C6        35.509998       24.600000        3.900000
  C1        35.509998       25.969999        4.120000
  H1        34.590000       26.490000        3.950000
  C2        36.630001       26.580000        4.680000
  H2        36.610001       27.660000        4.950000
  C3        37.759998       25.830000        5.020000
  H3        38.580002       26.270000        5.520000
  C4        37.709999       24.520000        4.690000
  H4        38.650002       24.030001        4.780000
  C5        36.650002       23.840000        4.150000
  H5        36.730000       22.820000        3.920000
  C1        29.459999       26.690001        4.890000
  C2        29.240000       26.540001        6.220000
  N1        30.400000       25.719999        4.440000
  C3b       30.809999       24.990000        5.470000
  N2        30.049999       25.469999        6.540000
  C4        30.150000       24.820000        7.780000
  C5b       31.440001       24.219999        7.900000
  C6        31.870001       23.709999        9.130000
  H1        32.889999       23.340000        9.310000
  C7        30.980000       23.750000       10.210000
  H2        31.190001       23.150000       11.100000
  C8        29.730000       24.360001       10.120000
  H3        29.120001       24.320000       10.970000
  C9        29.290001       24.830000        8.860000
  H4        28.260000       25.100000        8.900000
  C10       28.580000       27.530001        6.980000
  H5        28.330000       27.290001        7.950000
  C11       28.110001       28.690001        6.360000
  H6        27.830000       29.530001        7.010000
  C12       28.219999       28.820000        4.950000
  H7        27.850000       29.660000        4.450000
  C13       28.940001       27.809999        4.270000
  H8        29.139999       27.969999        3.250000
  C6        30.350000       25.230000        3.080000
  C1        31.000000       26.040001        2.080000
  H1        31.400000       27.010000        2.310000
  C2        30.790001       25.690001        0.730000
  H2        31.440001       26.150000       -0.030000
  C3        29.990000       24.549999        0.400000
  H3        29.930000       24.340000       -0.710000
  C4        29.410000       23.740000        1.330000
  H4        29.010000       22.780001        1.110000
  C5        29.709999       24.040001        2.680000
  H5        29.309999       23.270000        3.420000
  C1        35.279999       26.750000        7.860000
  C2        35.910000       25.549999        7.940000
  N1        34.099998       26.469999        7.160000
  C3c       33.930000       25.200001        6.780000
  N2        35.070000       24.610001        7.280000
  C4        35.070000       23.190001        7.270000
  C5c       33.830002       22.520000        7.000000
  C6        33.650002       21.160000        7.300000
  H1        32.689999       20.670000        7.100000
  C7        34.630001       20.450001        7.960000
  H2        34.529999       19.420000        8.120000
  C8        35.849998       21.040001        8.180000
  H3        36.570000       20.480000        8.710000
  C9        36.119999       22.320000        7.760000
  H4        37.110001       22.750000        7.860000
  C10       37.200001       25.480000        8.670000
  H5        37.950001       24.740000        8.570000
  C11       37.770000       26.670000        9.160000
  H6        38.560001       26.500000        9.810000
  C12       37.060001       27.860001        9.040000
  H7        37.490002       28.730000        9.380000
  C13       35.849998       27.910000        8.370000
  H8        35.270000       28.820000        8.440000
  C6        33.020000       27.440001        7.200000
  C1        32.660000       27.860001        8.420000
  H1        32.970001       27.389999        9.390000
  C2        31.879999       29.059999        8.500000
  H2        31.330000       29.240000        9.430000
  C3        31.430000       29.770000        7.410000
  H3        31.110001       30.760000        7.570000
  C4        31.780001       29.330000        6.140000
  H4        31.219999       29.709999        5.250000
  C5        32.599998       28.160000        6.000000
  H5        32.520000       27.700001        4.990000
  IR        23.590000       23.510000        7.750000
  C1        21.250000       22.760000       11.270000
  C2        21.500000       24.070000       11.310000
  N1        21.879999       22.280001       10.140000
  C3a       22.620001       23.200001        9.530000
  N2        22.330000       24.370001       10.160000
  C4        23.070000       25.459999        9.680000
  C5a       24.139999       25.120001        8.890000
  C6        25.110001       26.120001        8.650000
  H1        25.950001       25.740000        8.100000
  C7        24.920000       27.389999        9.110000
  H2        25.629999       28.200001        9.070000
  C8        23.770000       27.820000        9.700000
  H3        23.500000       28.830000        9.850000
  C9        22.840000       26.830000       10.100000
  H4        21.860001       27.129999       10.570000
  C10       20.889999       24.879999       12.250000
  H5        21.139999       25.950001       12.470000
  C11       20.020000       24.420000       13.200000
  H6        19.350000       24.969999       13.770000
  C12       19.629999       23.090000       13.080000
  H7        18.840000       22.590000       13.640000
  C13       20.290001       22.250000       12.190000
  H8        20.070000       21.240000       12.310000
  C6        21.650000       21.000000        9.610000
  C1        22.219999       19.840000       10.260000
  H1        23.170000       19.940001       10.730000
  C2        21.500000       18.600000       10.320000
  H2        21.730000       17.879999       11.090000
  C3        20.299999       18.490000        9.630000
  H3        19.719999       17.600000        9.570000
  C4        19.809999       19.549999        8.900000
  H4        19.090000       19.459999        8.110000
  C5        20.410000       20.860001        8.900000
  H5        19.799999       21.610001        8.530000
  C1        21.420000       26.959999        6.680000
  C2        22.570000       27.040001        6.060000
  N1        21.280001       25.629999        7.050000
  C3b       22.400000       24.879999        6.720000
  N2        23.120001       25.740000        6.010000
  C4        24.340000       25.230000        5.460000
  C5b       24.889999       24.150000        6.210000
  C6        26.150000       23.680000        5.870000
  H1        26.410000       22.820000        6.440000
  C7        26.940001       24.330000        4.900000
  H2        28.020000       24.190001        4.880000
  C8        26.360001       25.420000        4.180000
  H3        26.910000       25.830000        3.300000
  C9        25.080000       25.840000        4.460000
  H4        24.639999       26.690001        3.940000
  C10       22.900000       28.240000        5.510000
  H5        23.780001       28.340000        5.000000
  C11       22.160000       29.450001        5.810000
  H6        22.629999       30.430000        5.680000
  C12       21.000000       29.299999        6.500000
  H7        20.570000       30.219999        6.930000
  C13       20.520000       28.059999        6.880000
  H8        19.590000       27.950001        7.370000
  C6        19.980000       25.059999        7.300000
  C1        19.459999       24.469999        6.200000
  H1        19.730000       24.709999        5.180000
  C2        18.340000       23.629999        6.360000
  H2        17.700001       23.530001        5.510000
  C3        17.840000       23.320000        7.610000
  H3        16.870001       22.959999        7.860000
  C4        18.360001       23.990000        8.720000
  H4        17.790001       24.010000        9.650000
  C5        19.440001       24.860001        8.560000
  H5        19.920000       25.440001        9.390000
  C1        22.590000       19.690001        6.110000
  C2        23.700001       19.480000        6.850000
  N1        22.400000       21.070000        5.990000
  C3c       23.379999       21.750000        6.690000
  N2        24.150000       20.680000        7.190000
  C4        25.230000       21.090000        8.080000
  C5c       25.100000       22.360001        8.670000
  C6        26.070000       22.700001        9.540000
  H1        26.030001       23.639999       10.050000
  C7        27.139999       21.799999        9.850000
  H2        27.950001       22.150000       10.420000
  C8        27.309999       20.600000        9.190000
  H3        28.180000       20.020000        9.190000
  C9        26.379999       20.270000        8.230000
  H4        26.420000       19.350000        7.720000
  C10       24.160000       18.219999        7.140000
  H5        24.639999       17.980000        8.020000
  C11       23.490000       17.160000        6.590000
  H6        23.750000       16.150000        6.810000
  C12       22.389999       17.320000        5.810000
  H7        22.000000       16.440001        5.230000
  C13       21.910000       18.629999        5.550000
  H8        21.049999       18.760000        4.910000
  C6        21.730000       21.570000        4.800000
  C1        22.459999       21.590000        3.630000
  H1        23.480000       21.900000        3.710000
  C2        21.830000       21.730000        2.390000
  H2        22.340000       21.570000        1.470000
  C3        20.480000       21.740000        2.330000
  H3        19.990000       21.670000        1.390000
  C4        19.730000       21.770000        3.540000
  H4        18.709999       22.000000        3.690000
  C5        20.370001       21.730000        4.740000
  H5        19.740000       21.500000        5.610000
