206
 generated by VMD
  IR        25.150000       42.200001       11.520000
  C1        22.549999       44.650002        9.130000
  C2        23.270000       43.910000        8.200000
  N1        23.139999       44.520000       10.370000
  C3a       24.180000       43.540001       10.280000
  N2        24.320000       43.290001        8.950000
  C4        25.430000       42.459999        8.600000
  C5a       25.900000       41.660000        9.650000
  C6        26.889999       40.720001        9.290000
  H1        27.209999       40.040001       10.080000
  C7        27.500000       40.720001        8.010000
  H2        28.379999       40.099998        7.750000
  C8        27.010000       41.540001        7.010000
  H3        27.580000       41.680000        6.050000
  C9        25.990000       42.430000        7.270000
  H4        25.480000       43.020000        6.480000
  C10       22.830000       43.889999        6.910000
  H5        23.270000       43.169998        6.180000
  C11       21.760000       44.720001        6.570000
  H6        21.290001       44.610001        5.630000
  C12       21.240000       45.590000        7.490000
  H7        20.379999       46.259998        7.230000
  C13       21.549999       45.500000        8.810000
  H8        20.950001       46.029999        9.500000
  C6        22.990000       45.540001       11.410000
  C1        22.030001       45.410000       12.450000
  H1        21.650000       44.400002       12.670000
  C2        21.750000       46.540001       13.210000
  H2        21.030001       46.459999       13.960000
  C3        22.219999       47.779999       12.900000
  H3        21.870001       48.630001       13.260000
  C4        23.170000       47.889999       11.890000
  H4        23.320000       48.869999       11.410000
  C5        23.639999       46.790001       11.140000
  H5        24.549999       46.869999       10.580000
  C1        22.629999       38.790001       10.580000
  C2        23.660000       38.209999       11.350000
  N1        22.760000       40.150002       10.650000
  C3b       23.920000       40.529999       11.380000
  N2        24.469999       39.299999       11.770000
  C4        25.770000       39.360001       12.370000
  C5b       26.190001       40.650002       12.560000
  C6        27.330000       40.790001       13.410000
  H1        27.570000       41.790001       13.770000
  C7        28.090000       39.730000       13.840000
  H2        28.969999       39.840000       14.430000
  C8        27.690001       38.450001       13.580000
  H3        28.360001       37.680000       13.920000
  C9        26.500000       38.230000       12.880000
  H4        26.230000       37.139999       12.810000
  C10       23.790001       36.860001       11.490000
  H5        24.400000       36.400002       12.300000
  C11       22.940001       36.029999       10.730000
  H6        23.059999       34.950001       10.840000
  C12       22.010000       36.580002        9.820000
  H7        21.629999       36.040001        9.010000
  C13       21.830000       37.950001        9.820000
  H8        20.950001       38.349998        9.400000
  C6        21.559999       40.990002       10.530000
  C1        20.719999       41.169998       11.660000
  H1        21.070000       40.970001       12.650000
  C2        19.510000       41.880001       11.540000
  H2        19.000000       41.840000       12.450000
  C3        19.080000       42.470001       10.360000
  H3        18.090000       42.889999       10.340000
  C4        19.920000       42.310001        9.240000
  H4        19.520000       42.500000        8.250000
  C5        21.139999       41.590000        9.310000
  H5        21.570000       41.450001        8.300000
  C1        23.969999       43.720001       15.440000
  C2        25.010000       44.549999       15.080000
  N1        23.850000       42.730000       14.440000
  C3c       24.700001       42.980000       13.370000
  N2        25.430000       44.090000       13.800000
  C4        26.309999       44.619999       12.820000
  C5c       26.590000       43.750000       11.770000
  C6        27.660000       44.029999       10.920000
  H1        27.790001       43.480000        9.970000
  C7        28.360001       45.189999       11.050000
  H2        28.990000       45.490002       10.250000
  C8        28.080000       46.099998       12.060000
  H3        28.320000       47.180000       12.010000
  C9        27.059999       45.770000       12.950000
  H4        26.850000       46.580002       13.710000
  C10       25.480000       45.500000       16.000000
  H5        26.389999       46.110001       15.890000
  C11       24.799999       45.650002       17.240000
  H6        25.170000       46.360001       17.990000
  C12       23.650000       44.939999       17.400000
  H7        22.969999       45.160000       18.240000
  C13       23.250000       43.950001       16.540001
  H8        22.280001       43.439999       16.799999
  C6        23.309999       41.480000       14.840000
  C1        24.219999       40.549999       15.450000
  H1        25.209999       40.610001       15.040000
  C2        23.719999       39.560001       16.340000
  H2        24.360001       38.759998       16.490000
  C3        22.420000       39.549999       16.680000
  H3        22.129999       38.860001       17.440001
  C4        21.480000       40.450001       16.129999
  H4        20.440001       40.290001       16.240000
  C5        21.920000       41.430000       15.180000
  H5        21.250000       42.049999       14.630000
  IR        17.170000       40.900002        1.740000
  C1        14.770000       43.439999        4.360000
  C2        14.480000       42.130001        4.710000
  N1        15.680000       43.299999        3.280000
  C3a       15.920000       41.970001        2.960000
  N2        15.140000       41.250000        3.800000
  C4        15.150000       39.869999        3.610000
  C5a       15.690000       39.500000        2.370000
  C6        15.580000       38.160000        2.040000
  H1        15.980000       37.790001        1.110000
  C7        15.060000       37.169998        2.900000
  H2        15.020000       36.139999        2.640000
  C8        14.480000       37.570000        4.090000
  H3        14.160000       36.799999        4.860000
  C9        14.530000       38.869999        4.450000
  H4        14.350000       39.099998        5.510000
  C10       13.580000       41.900002        5.780000
  H5        13.390000       40.869999        6.070000
  C11       13.250000       42.990002        6.610000
  H6        12.880000       42.759998        7.590000
  C12       13.600000       44.299999        6.340000
  H7        13.550000       45.119999        7.100000
  C13       14.310000       44.549999        5.160000
  H8        14.590000       45.570000        4.960000
  C6        16.020000       44.400002        2.420000
  C1        15.140000       44.810001        1.420000
  H1        14.220000       44.369999        1.430000
  C2        15.390000       46.020000        0.740000
  H2        14.730000       46.349998       -0.080000
  C3        16.559999       46.750000        1.050000
  H3        16.830000       47.700001        0.520000
  C4        17.469999       46.259998        2.010000
  H4        18.389999       46.700001        2.240000
  C5        17.180000       45.099998        2.760000
  H5        17.680000       44.810001        3.670000
  C1        19.639999       38.990002        4.760000
  C2        19.940001       38.270000        3.620000
  N1        18.690001       40.000000        4.480000
  C3b       18.379999       39.930000        3.140000
  N2        19.209999       38.939999        2.580000
  C4        19.080000       38.630001        1.130000
  C5b       18.170000       39.450001        0.440000
  C6        18.059999       39.380001       -0.970000
  H1        17.389999       40.020000       -1.430000
  C7        18.900000       38.540001       -1.710000
  H2        19.020000       38.720001       -2.770000
  C8        19.799999       37.720001       -1.070000
  H3        20.540001       37.230000       -1.790000
  C9        19.940001       37.730000        0.330000
  H4        20.430000       36.959999        0.880000
  C10       20.959999       37.250000        3.730000
  H5        20.990000       36.369999        3.070000
  C11       21.469999       36.869999        4.920000
  H6        21.900000       35.880001        4.980000
  C12       21.180000       37.570000        6.110000
  H7        21.770000       37.320000        6.980000
  C13       20.180000       38.630001        6.040000
  H8        19.709999       39.160000        6.890000
  C6        17.820000       40.470001        5.480000
  C1        17.900000       41.830002        5.880000
  H1        18.450001       42.549999        5.320000
  C2        17.230000       42.240002        6.960000
  H2        16.920000       43.279999        7.000000
  C3        16.510000       41.270000        7.740000
  H3        15.740000       41.540001        8.470000
  C4        16.459999       39.900002        7.330000
  H4        16.010000       39.099998        8.000000
  C5        17.090000       39.560001        6.190000
  H5        16.770000       38.630001        5.700000
  C1        19.780001       43.630001       -0.350000
  C2        18.520000       43.950001       -0.870000
  N1        19.650000       42.599998        0.620000
  C3c       18.309999       42.240002        0.710000
  N2        17.639999       43.020000       -0.190000
  C4        16.309999       42.560001       -0.530000
  C5c       15.790000       41.520000        0.230000
  C6        14.540000       40.990002        0.000000
  H1        14.380000       39.939999        0.240000
  C7        13.590000       41.590000       -0.840000
  H2        12.570000       41.110001       -0.890000
  C8        14.020000       42.770000       -1.530000
  H3        13.350000       43.139999       -2.320000
  C9        15.390000       43.240002       -1.390000
  H4        15.650000       44.200001       -1.780000
  C10       18.410000       44.919998       -1.850000
  H5        17.530001       45.259998       -2.350000
  C11       19.500000       45.540001       -2.390000
  H6        19.410000       46.130001       -3.230000
  C12       20.790001       45.330002       -1.860000
  H7        21.580000       46.110001       -2.050000
  C13       20.930000       44.330002       -0.830000
  H8        21.930000       43.980000       -0.550000
  C6        20.650000       42.080002        1.470000
  C1        20.760000       42.500000        2.800000
  H1        19.820000       42.889999        3.250000
  C2        21.910000       42.150002        3.450000
  H2        21.879999       42.520000        4.480000
  C3        22.959999       41.330002        3.010000
  H3        23.889999       41.220001        3.530000
  C4        22.809999       40.930000        1.700000
  H4        23.690001       40.700001        1.140000
  C5        21.680000       41.250000        0.950000
  H5        21.620001       40.889999       -0.080000
