206
 generated by VMD
 Ir      -33.480785       75.670525      -51.895184
 C       -33.329403       78.506699      -48.669071
 C       -34.377968       77.660553      -48.329273
 N       -32.972019       78.283524      -49.982491
 C       -33.699051       77.149055      -50.466755
 N       -34.621994       76.879799      -49.504120
 C       -35.586525       75.882126      -49.847385
 C       -35.175888       75.016960      -50.870258
 C       -36.041874       73.930008      -51.119083
 H       -35.697670       73.207413      -51.859531
 C       -37.321472       73.831932      -50.516167
 H       -38.079720       73.078506      -50.805672
 C       -37.687511       74.720047      -49.521297
 H       -38.750137       74.766579      -49.154202
 C       -36.856228       75.762466      -49.171413
 H       -37.044746       76.426804      -48.302258
 C       -34.862724       77.711563      -47.056282
 H       -35.573341       76.930183      -46.696594
 C       -34.368271       78.702805      -46.206367
 H       -34.596046       78.669807      -45.175045
 C       -33.494328       79.645096      -46.677551
 H       -33.088818       80.444656      -46.004971
 C       -32.877930       79.506424      -47.880642
 H       -32.047546       80.125999      -48.089417
 C       -32.321667       79.314369      -50.794212
 C       -30.912634       79.340416      -50.978729
 H       -30.358229       78.404663      -50.805843
 C       -30.355425       80.500732      -51.504162
 H       -29.319935       80.537544      -51.621223
 C       -31.064138       81.649033      -51.687843
 H       -30.673851       82.544250      -51.832283
 C       -32.443970       81.604851      -51.518112
 H       -32.985359       82.547989      -51.342892
 C       -33.143059       80.443596      -51.122944
 H       -34.202019       80.376236      -51.271809
 C       -31.740177       72.710083      -49.236588
 C       -31.961206       71.972015      -50.418369
 N       -31.963005       74.031479      -49.511620
 C       -32.427376       74.220016      -50.842678
 N       -32.444839       72.917595      -51.363132
 C       -33.058884       72.767792      -52.649254
 C       -33.417175       73.973480      -53.191978
 C       -33.760132       73.928360      -54.578354
 H       -33.837242       74.876755      -55.109196
 C       -33.932926       72.759949      -55.279118
 H       -34.240044       72.727020      -56.298527
 C       -33.635689       71.560913      -54.696045
 H       -33.833298       70.693207      -55.300552
 C       -33.149208       71.535110      -53.385635
 H       -32.853340       70.502716      -53.050220
 C       -31.803600       70.618675      -50.469719
 H       -31.694515       70.066582      -51.430496
 C       -31.538395       69.936142      -49.264389
 H       -31.425751       68.850899      -49.313992
 C       -31.478922       70.628525      -48.034523
 H       -31.639040       70.156647      -47.115936
 C       -31.511770       72.009636      -48.061676
 H       -31.159534       72.545929      -47.225540
 C       -31.230721       75.053497      -48.750542
 C       -29.894043       75.366211      -49.111649
 H       -29.504709       75.112549      -50.074284
 C       -29.138042       76.261536      -48.330959
 H       -28.165308       76.304047      -48.707497
 C       -29.635912       76.912994      -47.211529
 H       -28.947609       77.486710      -46.616554
 C       -30.968697       76.620010      -46.860180
 H       -31.318756       76.871857      -45.865074
 C       -31.762924       75.713226      -47.607597
 H       -32.716213       75.505905      -47.085236
 C       -30.273832       77.360474      -54.330086
 C       -31.397196       78.012459      -54.791683
 N       -30.697033       76.402649      -53.382469
 C       -32.056374       76.512726      -53.117947
 N       -32.475258       77.490913      -54.022156
 C       -33.834774       77.872528      -53.874550
 C       -34.608978       76.968826      -53.152245
 C       -35.999218       77.073135      -53.198708
 H       -36.635258       76.509392      -52.491924
 C       -36.592628       78.105492      -53.857952
 H       -37.618774       78.300293      -53.668297
 C       -35.848862       79.048676      -54.553532
 H       -36.197128       80.076035      -54.776569
 C       -34.464981       78.886978      -54.564217
 H       -33.921364       79.720200      -55.100887
 C       -31.286261       78.874527      -55.893650
 H       -32.124176       79.330276      -56.443642
 C       -29.997490       79.131912      -56.437084
 H       -29.889057       79.773186      -57.320553
 C       -28.932751       78.616058      -55.764454
 H       -27.907520       78.942535      -56.006767
 C       -29.053749       77.703255      -54.748657
 H       -28.087009       77.355850      -54.286785
 C       -29.876484       75.255737      -53.223106
 C       -30.064800       74.191528      -54.170250
 H       -31.086565       74.091568      -54.482983
 C       -28.994688       73.294800      -54.440334
 H       -29.286823       72.402298      -54.876465
 C       -27.787905       73.493958      -53.883820
 H       -26.997549       72.859558      -54.216507
 C       -27.534819       74.533386      -52.960979
 H       -26.653776       74.542686      -52.375336
 C       -28.596279       75.429886      -52.605896
 H       -28.513885       76.149551      -51.824165
 Ir      -33.480782       75.670525      -39.205868
 C       -30.300497       78.563370      -39.976089
 C       -29.694546       77.317039      -39.929264
 N       -31.663523       78.278870      -39.701637
 C       -31.885166       76.927589      -39.469681
 N       -30.667377       76.342377      -39.552803
 C       -30.625031       74.978714      -39.271278
 C       -31.780041       74.526703      -38.617260
 C       -31.740572       73.221832      -38.156464
 H       -32.591564       72.792328      -37.653332
 C       -30.674362       72.328308      -38.390850
 H       -30.681957       71.318146      -38.059784
 C       -29.524498       72.816368      -38.984245
 H       -28.695036       72.107834      -39.297585
 C       -29.494255       74.091415      -39.426334
 H       -28.710434       74.347366      -40.153671
 C       -28.299648       77.234741      -40.164391
 H       -27.842695       76.248688      -40.162895
 C       -27.654846       78.363617      -40.708233
 H       -26.720463       78.196098      -41.207298
 C       -28.255465       79.600296      -40.854450
 H       -27.834803       80.417664      -41.492767
 C       -29.578398       79.732887      -40.417107
 H       -30.045227       80.694595      -40.543541
 C       -32.606438       79.309891      -39.365326
 C       -32.625000       79.856049      -38.083191
 H       -31.864256       79.569702      -37.467255
 C       -33.398392       81.010109      -37.840279
 H       -33.459702       81.441940      -36.827030
 C       -34.181351       81.542488      -38.889774
 H       -34.842167       82.436722      -38.748413
 C       -34.201187       80.912552      -40.151749
 H       -34.809006       81.198898      -40.952660
 C       -33.358959       79.814270      -40.428581
 H       -33.123550       79.447647      -41.414669
 C       -33.198776       73.388229      -42.891106
 C       -34.064133       72.629364      -42.127380
 N       -32.779682       74.537842      -42.181347
 C       -33.388992       74.518593      -40.946449
 N       -34.254501       73.408020      -40.935383
 C       -35.041084       73.122955      -39.704319
 C       -34.890106       74.078598      -38.684246
 C       -35.696159       74.027206      -37.521172
 H       -35.558899       74.766602      -36.810860
 C       -36.702553       73.063065      -37.393036
 H       -37.491539       73.221436      -36.669968
 C       -36.877781       72.109032      -38.368279
 H       -37.838737       71.506424      -38.228523
 C       -36.093487       72.096390      -39.536366
 H       -36.020367       71.257622      -40.189529
 C       -34.643555       71.458633      -42.749115
 H       -34.977852       70.585251      -42.169144
 C       -34.226192       71.001572      -43.948074
 H       -34.392380       69.955315      -44.163311
 C       -33.334106       71.739090      -44.754581
 H       -33.197609       71.397476      -45.770538
 C       -32.749371       72.946091      -44.180351
 H       -31.915930       73.544762      -44.594193
 C       -31.538952       75.141609      -42.453102
 C       -31.513477       76.471054      -42.951035
 H       -32.377899       77.093246      -42.939072
 C       -30.366478       76.983444      -43.404076
 H       -30.234055       78.059753      -43.346500
 C       -29.201580       76.141830      -43.453075
 H       -28.184170       76.532120      -43.559135
 C       -29.255009       74.797699      -42.965279
 H       -28.386654       74.080460      -43.116714
 C       -30.418484       74.360825      -42.448013
 H       -30.372023       73.494377      -41.773838
 C       -37.136196       77.945351      -39.516098
 C       -36.548698       78.463776      -38.355721
 N       -36.291611       76.949646      -40.076424
 C       -35.170319       76.809799      -39.266216
 N       -35.330757       77.687378      -38.231125
 C       -34.478661       77.447205      -37.085548
 C       -33.469971       76.504349      -37.237740
 C       -32.599968       76.182220      -36.220081
 H       -32.195213       75.171616      -36.196865
 C       -32.486877       76.927170      -35.036705
 H       -31.683334       76.617416      -34.307541
 C       -33.399849       78.022675      -34.896210
 H       -33.439392       78.495590      -33.903896
 C       -34.411049       78.266281      -35.913822
 H       -34.976288       79.171982      -35.875099
 C       -37.209644       79.438843      -37.630604
 H       -36.900948       79.915909      -36.726662
 C       -38.459709       79.875519      -37.963402
 H       -38.999580       80.472313      -37.319839
 C       -39.077290       79.460838      -39.161625
 H       -39.895966       80.103668      -39.591908
 C       -38.403584       78.451340      -39.941067
 H       -38.942505       77.945099      -40.749889
 C       -36.446281       76.275635      -41.307144
 C       -35.734573       76.672478      -42.444416
 H       -34.781120       77.208542      -42.240055
 C       -36.151848       76.142128      -43.632740
 H       -35.518597       76.512138      -44.445625
 C       -37.129318       75.163971      -43.869930
 H       -37.491810       74.905869      -44.844292
 C       -37.800331       74.793289      -42.724968
 H       -38.798058       74.424789      -42.823208
 C       -37.458271       75.290817      -41.469078
 H       -38.024296       74.945145      -40.600616
