206
 generated by VMD
 Ir       18.590170       20.834736       49.989845
 C        22.630064       19.371609       48.906605
 C        22.565657       19.294453       50.290405
 N        21.510448       20.024616       48.472851
 C        20.626682       20.314121       49.500683
 N        21.337831       19.934223       50.611244
 C        20.810581       20.290447       51.940647
 C        19.379925       20.286064       51.886749
 C        18.749794       20.339458       53.134861
 H        17.662960       20.322010       53.154556
 C        19.531147       20.543392       54.295551
 H        19.032207       20.450542       55.245834
 C        20.911423       20.451420       54.271484
 H        21.374672       20.341648       55.244293
 C        21.606945       20.343754       53.075134
 H        22.602608       20.766525       53.054646
 C        23.480688       18.575954       50.983498
 H        23.637930       18.513266       52.059944
 C        24.564499       18.020004       50.289108
 H        25.378456       17.532703       50.763042
 C        24.656145       18.126705       48.896088
 H        25.447124       17.701653       48.395905
 C        23.669916       18.820129       48.237667
 H        23.781410       18.812675       47.122986
 C        21.183880       20.355766       47.084221
 C        20.776793       21.673790       46.884247
 H        20.808491       22.386066       47.654800
 C        20.404552       21.993629       45.595547
 H        19.640575       22.719406       45.252502
 C        20.530127       21.128624       44.518330
 H        20.261705       21.484499       43.532326
 C        20.911137       19.817087       44.727142
 H        21.094942       19.157768       43.851917
 C        21.215862       19.441399       46.038704
 H        21.517097       18.425854       46.179508
 C        16.490000       17.002354       49.888206
 C        15.650158       17.753384       50.616096
 N        17.653399       17.697533       49.641975
 C        17.579678       19.011875       50.089268
 N        16.327711       19.034233       50.724464
 C        15.902585       20.290798       51.195755
 C        16.756313       21.369907       50.885483
 C        16.397608       22.656807       51.281487
 H        16.784500       23.518219       50.749237
 C        15.304970       22.959726       52.158344
 H        15.117445       23.948969       52.485809
 C        14.495337       21.862381       52.453682
 H        13.491578       21.997576       52.719749
 C        14.721547       20.532608       52.060326
 H        13.849895       19.882668       52.228859
 C        14.482462       17.199537       51.085503
 H        13.692654       17.796255       51.553612
 C        14.164436       15.891418       50.813126
 H        13.428621       15.402628       51.400204
 C        14.977993       15.049295       50.051907
 H        14.801682       13.992193       50.058834
 C        16.146580       15.666706       49.561085
 H        16.990454       15.135569       49.159126
 C        18.958691       17.093010       49.727776
 C        19.410379       16.664629       50.968445
 H        18.793558       16.555210       51.831963
 C        20.638948       15.997768       50.964096
 H        20.908054       15.708703       51.970978
 C        21.368996       15.711946       49.819397
 H        22.434519       15.494162       49.796360
 C        20.956701       16.238701       48.554825
 H        21.456089       15.893873       47.678295
 C        19.771345       16.959393       48.533981
 H        19.349678       17.253368       47.525978
 C        16.577444       22.574831       46.596161
 C        17.192652       23.648857       47.147964
 N        16.924803       21.466614       47.280922
 C        17.827394       21.742966       48.316082
 N        18.004749       23.121138       48.234894
 C        19.072956       23.594585       49.002804
 C        19.412884       22.805067       50.133514
 C        20.258837       23.343395       51.103394
 H        20.307587       22.794456       52.058224
 C        20.878370       24.550949       50.935791
 H        21.709639       24.819586       51.562233
 C        20.729158       25.286545       49.751041
 H        21.228470       26.235020       49.645275
 C        19.830444       24.805733       48.809589
 H        19.431389       25.524059       48.100109
 C        17.185364       24.799072       46.485283
 H        17.504658       25.687748       46.978943
 C        16.745193       24.867895       45.135124
 H        16.901371       25.764202       44.575447
 C        16.164799       23.758625       44.508183
 H        15.742230       23.853401       43.553272
 C        16.000412       22.665575       45.324036
 H        15.433882       21.807758       44.892998
 C        16.327259       20.227409       46.902618
 C        15.301262       19.653309       47.714676
 H        14.916296       20.313507       48.584126
 C        14.734295       18.395081       47.463268
 H        13.857125       18.076378       47.960968
 C        15.309091       17.652205       46.445061
 H        15.122746       16.601589       46.508179
 C        16.433104       18.151779       45.705387
 H        16.947954       17.385496       45.161476
 C        16.910858       19.431492       45.881428
 H        17.865641       19.775267       45.368000
 Ir       18.590170       20.834736       64.211502
 C        22.060654       22.908787       65.664993
 C        22.482586       21.822662       65.036423
 N        20.646372       22.751760       65.658340
 C        20.220304       21.594269       65.137489
 N        21.348541       20.999477       64.829269
 C        21.260628       19.669792       64.278351
 C        20.030373       19.354336       63.776493
 C        19.867935       18.218588       62.976307
 H        18.917274       17.945568       62.612030
 C        20.954254       17.491409       62.618931
 H        20.795652       16.648409       61.954704
 C        22.204979       17.717787       63.156090
 H        23.093622       17.165606       62.992359
 C        22.358063       18.826004       63.948887
 H        23.326126       18.996181       64.349503
 C        23.868942       21.716488       64.746338
 H        24.177860       20.991150       64.039902
 C        24.732346       22.732910       65.076828
 H        25.765182       22.594471       64.853714
 C        24.267487       23.908112       65.603806
 H        24.884682       24.873154       65.584808
 C        22.877310       24.058826       65.895172
 H        22.425961       25.033163       66.111397
 C        19.954565       23.336380       66.832321
 C        19.007526       24.364288       66.677963
 H        19.030861       24.967056       65.783188
 C        18.164721       24.746902       67.713043
 H        17.309944       25.395000       67.611908
 C        18.423904       24.144485       68.966125
 H        17.728197       24.394623       69.740219
 C        19.326031       23.182598       69.188477
 H        19.621693       22.957096       70.249725
 C        20.114227       22.754654       68.161346
 H        21.086077       22.306543       68.370636
 C        19.187098       22.575094       60.166199
 C        17.945824       21.951984       60.174850
 N        19.654358       22.313120       61.443829
 C        18.807192       21.588745       62.237545
 N        17.712929       21.393055       61.415119
 C        16.757023       20.516037       61.886696
 C        17.075251       19.869867       63.119781
 C        16.157358       18.922798       63.641827
 H        16.348364       18.336950       64.432327
 C        14.917009       18.672924       63.016693
 H        14.202148       18.099087       63.501652
 C        14.695299       19.260349       61.772034
 H        13.721242       19.285336       61.436790
 C        15.573120       20.177872       61.221321
 H        15.174136       20.906719       60.459026
 C        17.326460       21.816000       58.853722
 H        16.245958       21.551571       58.892387
 C        17.927675       22.225006       57.678749
 H        17.351585       22.250607       56.796951
 C        19.129631       22.861092       57.725647
 H        19.643394       23.178652       56.812572
 C        19.778149       23.039162       58.920765
 H        20.802620       23.486217       58.922192
 C        21.023256       22.733788       61.824825
 C        21.086332       24.050497       62.130764
 H        20.361355       24.477566       62.756401
 C        22.259966       24.701138       61.902180
 H        22.318588       25.734829       62.199062
 C        23.389568       24.038311       61.466797
 H        24.368986       24.464325       61.441254
 C        23.332153       22.644270       61.211727
 H        24.210642       22.216766       60.745258
 C        22.144182       21.974606       61.434612
 H        21.963858       20.968880       61.052250
 C        15.576291       23.640175       65.707405
 C        15.543242       22.654793       66.605469
 N        16.451181       23.292368       64.650902
 C        17.090355       22.073063       64.920090
 N        16.390026       21.678263       66.086395
 C        17.010771       20.644043       66.731339
 C        18.077242       20.031017       66.095627
 C        18.626720       18.895180       66.627457
 H        19.368204       18.301704       66.059586
 C        18.205292       18.375177       67.826004
 H        18.872549       17.777405       68.423523
 C        17.113361       18.950153       68.459793
 H        16.740551       18.639431       69.399025
 C        16.462378       20.052410       67.856750
 H        15.483400       20.259674       68.188324
 C        14.693796       22.769382       67.727264
 H        14.597080       22.090513       68.551872
 C        14.097755       24.028404       67.918587
 H        13.399237       24.101612       68.746414
 C        14.122343       25.049824       66.991707
 H        13.514816       25.969540       67.081337
 C        14.889805       24.874121       65.876572
 H        15.419423       25.633038       65.274872
 C        16.262575       23.762747       63.204990
 C        15.161672       23.299030       62.469273
 H        14.301079       22.824444       62.971909
 C        14.986366       23.703829       61.156105
 H        13.977149       23.579418       60.758865
 C        15.952033       24.501060       60.522858
 H        15.855477       24.626087       59.489197
 C        17.094437       24.902000       61.223396
 H        17.982868       25.225964       60.732441
 C        17.210220       24.571728       62.577839
 H        18.053513       24.957764       63.062954
