206
 generated by VMD
  IR        41.689999       26.510000       52.820000
  C1        43.990002       27.820000       49.349998
  C2        43.520000       26.540001       49.029999
  N1        43.560001       28.040001       50.599998
  C3a       42.840000       27.010000       51.150002
  N2        42.959999       26.040001       50.200001
  C4        42.750000       24.690001       50.730000
  C5a       41.790001       24.700001       51.790001
  C6        41.459999       23.410000       52.250000
  H1        40.849998       23.270000       53.180000
  C7        41.930000       22.190001       51.759998
  H2        41.450001       21.230000       51.900002
  C8        42.930000       22.200001       50.790001
  H3        43.509998       21.340000       50.580002
  C9        43.360001       23.430000       50.250000
  H4        44.310001       23.520000       49.740002
  C10       43.799999       25.980000       47.759998
  H5        43.060001       25.379999       47.310001
  C11       44.680000       26.580000       46.880001
  H6        45.020000       26.040001       46.040001
  C12       45.180000       27.850000       47.180000
  H7        46.110001       28.150000       46.860001
  C13       44.799999       28.510000       48.400002
  H8        45.150002       29.480000       48.639999
  C6        43.830002       29.350000       51.150002
  C1        42.910000       30.340000       50.830002
  H1        42.160000       30.209999       50.080002
  C2        43.270000       31.639999       51.259998
  H2        42.540001       32.360001       51.009998
  C3        44.500000       31.930000       51.860001
  H3        44.619999       32.849998       52.369999
  C4        45.410000       30.930000       52.110001
  H4        46.439999       31.100000       52.220001
  C5        45.029999       29.629999       51.810001
  H5        45.689999       28.709999       52.049999
  C1        37.700001       26.680000       51.130001
  C2        37.450001       26.450001       52.480000
  N1        39.090000       26.820000       50.900002
  C3b       39.759998       26.540001       52.060001
  N2        38.709999       26.299999       53.070000
  C4        39.200001       26.049999       54.450001
  C5b       40.590000       25.790001       54.490002
  C6        41.090000       25.230000       55.709999
  H1        42.130001       25.100000       55.810001
  C7        40.220001       25.030001       56.820000
  H2        40.660000       24.670000       57.730000
  C8        38.880001       25.430000       56.840000
  H3        38.220001       25.219999       57.570000
  C9        38.410000       25.940001       55.619999
  H4        37.439999       26.420000       55.669998
  C10       36.119999       26.350000       52.959999
  H5        36.110001       26.180000       54.009998
  C11       35.049999       26.530001       52.130001
  H6        34.060001       26.299999       52.500000
  C12       35.299999       26.790001       50.799999
  H7        34.470001       27.070000       50.150002
  C13       36.630001       26.830000       50.320000
  H8        36.900002       27.340000       49.380001
  C6        39.660000       26.850000       49.619999
  C1        39.849998       25.639999       48.970001
  H1        39.900002       24.719999       49.490002
  C2        40.169998       25.709999       47.549999
  H2        40.200001       24.860001       46.990002
  C3        40.400002       26.930000       46.950001
  H3        40.730000       27.080000       45.910000
  C4        40.299999       28.139999       47.660000
  H4        40.220001       29.110001       47.189999
  C5        39.980000       28.059999       49.070000
  H5        39.889999       28.860001       49.750000
  C1        42.250000       30.320000       54.599998
  C2        43.380001       29.620001       54.910000
  N1        41.369999       29.400000       54.000000
  C3c       41.889999       28.200001       53.950001
  N2        43.130001       28.280001       54.529999
  C4        43.930000       27.150000       54.580002
  C5c       43.529999       26.139999       53.700001
  C6        44.139999       24.900000       53.880001
  H1        44.090000       24.250000       53.099998
  C7        44.990002       24.570000       54.910000
  H2        45.360001       23.520000       55.139999
  C8        45.290001       25.510000       55.919998
  H3        45.720001       25.110001       56.810001
  C9        44.860001       26.840000       55.700001
  H4        45.290001       27.520000       56.400002
  C10       44.509998       30.230000       55.540001
  H5        45.430000       29.740000       55.790001
  C11       44.290001       31.549999       55.950001
  H6        45.139999       32.000000       56.450001
  C12       43.049999       32.240002       55.740002
  H7        42.810001       33.130001       56.349998
  C13       42.060001       31.660000       54.990002
  H8        41.200001       32.240002       54.720001
  C6        40.000000       29.620001       53.619999
  C1        39.880001       29.959999       52.330002
  H1        40.720001       30.260000       51.770000
  C2        38.610001       30.270000       51.849998
  H2        38.380001       29.990000       50.840000
  C3        37.529999       30.440001       52.680000
  H3        36.570000       30.790001       52.349998
  C4        37.650002       29.969999       53.980000
  H4        36.849998       30.070000       54.770000
  C5        38.860001       29.510000       54.500000
  H5        38.910000       29.160000       55.529999
  IR        39.360001       29.730000       62.020000
  C1        36.959999       30.299999       65.580002
  C2        38.020000       31.200001       65.779999
  N1        37.049999       29.540001       64.400002
  C3a       38.349998       29.889999       63.810001
  N2        38.880001       30.879999       64.680000
  C4        40.320000       31.139999       64.489998
  C5a       40.820000       30.530001       63.310001
  C6        42.189999       30.790001       62.990002
  H1        42.509998       30.690001       61.959999
  C7        43.020000       31.600000       63.730000
  H2        44.049999       31.340000       63.570000
  C8        42.540001       32.150002       64.860001
  H3        43.119999       32.910000       65.360001
  C9        41.200001       31.910000       65.320000
  H4        40.869999       32.110001       66.309998
  C10       38.049999       31.969999       66.970001
  H5        38.590000       32.889999       66.919998
  C11       37.040001       31.840000       67.940002
  H6        37.240002       32.200001       68.949997
  C12       36.000000       30.990000       67.720001
  H7        35.200001       30.809999       68.489998
  C13       36.000000       30.240000       66.559998
  H8        35.070000       29.650000       66.419998
  C6        35.880001       29.170000       63.650002
  C1        35.080002       30.129999       63.099998
  H1        35.180000       31.150000       63.450001
  C2        34.090000       29.850000       62.180000
  H2        33.430000       30.620001       61.790001
  C3        33.860001       28.520000       61.830002
  H3        33.250000       28.430000       61.009998
  C4        34.599998       27.500000       62.410000
  H4        34.490002       26.540001       61.980000
  C5        35.630001       27.830000       63.340000
  H5        36.200001       27.059999       63.810001
  C1        38.599998       33.369999       59.980000
  C2        39.779999       32.840000       59.360001
  N1        38.279999       32.570000       61.029999
  C3b       39.169998       31.570000       61.160000
  N2        40.070000       31.719999       60.070000
  C4        40.930000       30.570000       59.709999
  C5b       40.680000       29.400000       60.480000
  C6        41.500000       28.280001       60.270000
  H1        41.200001       27.320000       60.619999
  C7        42.459999       28.280001       59.230000
  H2        42.840000       27.450001       58.680000
  C8        42.790001       29.440001       58.509998
  H3        43.669998       29.500000       57.840000
  C9        42.029999       30.540001       58.790001
  H4        42.360001       31.469999       58.380001
  C10       40.259998       33.490002       58.230000
  H5        41.139999       33.180000       57.720001
  C11       39.660000       34.599998       57.669998
  H6        39.950001       34.910000       56.709999
  C12       38.490002       35.099998       58.250000
  H7        38.119999       36.139999       57.980000
  C13       37.919998       34.509998       59.389999
  H8        37.139999       34.939999       60.009998
  C6        37.509998       33.110001       62.139999
  C1        38.279999       33.570000       63.259998
  H1        39.299999       33.330002       63.369999
  C2        37.650002       34.180000       64.339996
  H2        38.169998       34.360001       65.269997
  C3        36.250000       34.220001       64.379997
  H3        35.750000       34.439999       65.330002
  C4        35.490002       33.790001       63.290001
  H4        34.410000       34.099998       63.400002
  C5        36.099998       33.230000       62.180000
  H5        35.490002       32.759998       61.389999
  C1        36.630001       27.440001       59.439999
  C2        37.220001       26.540001       60.220001
  N1        37.119999       28.719999       59.849998
  C3c       38.040001       28.600000       60.869999
  N2        38.110001       27.230000       61.110001
  C4        38.939999       26.770000       62.070000
  C5c       39.830002       27.709999       62.630001
  C6        40.720001       27.240000       63.660000
  H1        41.490002       27.850000       64.180000
  C7        40.740002       25.920000       64.070000
  H2        41.480000       25.580000       64.879997
  C8        39.820000       25.010000       63.560001
  H3        39.930000       24.000000       63.869999
  C9        38.919998       25.450001       62.529999
  H4        38.130001       24.820000       62.330002
  C10       36.889999       25.209999       59.980000
  H5        37.320000       24.280001       60.439999
  C11       36.020000       24.870001       58.970001
  H6        35.900002       23.770000       58.709999
  C12       35.360001       25.790001       58.150002
  H7        34.400002       25.500000       57.910000
  C13       35.730000       27.139999       58.369999
  H8        35.369999       27.980000       57.700001
  C6        36.980000       29.900000       59.090000
  C1        37.900002       30.290001       58.119999
  H1        38.889999       29.820000       58.020000
  C2        37.560001       31.330000       57.290001
  H2        38.320000       31.629999       56.570000
  C3        36.330002       31.959999       57.290001
  H3        35.939999       32.500000       56.439999
  C4        35.410000       31.570000       58.310001
  H4        34.480000       32.099998       58.540001
  C5        35.720001       30.520000       59.139999
  H5        35.029999       30.100000       59.750000
