206
 generated by VMD
  IR        43.029999       25.190001       10.950000
  C1        46.570000       27.690001       11.640000
  C2        46.700001       26.709999       12.570000
  N1        45.250000       27.570000       11.070000
  C3a       44.619999       26.420000       11.470000
  N2        45.590000       25.809999       12.330000
  C4        45.290001       24.480000       12.620000
  C5a       43.950001       24.139999       12.540000
  C6        43.380001       23.059999       13.260000
  H1        42.529999       22.490000       12.810000
  C7        44.209999       22.320000       14.130000
  H2        43.619999       21.670000       14.880000
  C8        45.610001       22.559999       14.220000
  H3        46.299999       21.870001       14.690000
  C9        46.139999       23.650000       13.430000
  H4        47.180000       23.879999       13.440000
  C10       47.820000       26.740000       13.510000
  H5        47.910000       25.969999       14.210000
  C11       48.779999       27.730000       13.360000
  H6        49.709999       27.700001       13.990000
  C12       48.650002       28.639999       12.340000
  H7        49.389999       29.459999       12.290000
  C13       47.549999       28.620001       11.500000
  H8        47.500000       29.370001       10.750000
  C6        44.470001       28.740000       10.720000
  C1        44.020000       28.889999        9.400000
  H1        44.029999       28.000000        8.770000
  C2        43.630001       30.120001        8.890000
  H2        43.500000       30.260000        7.830000
  C3        43.450001       31.180000        9.740000
  H3        43.130001       32.189999        9.400000
  C4        43.910000       31.059999       11.080000
  H4        43.980000       31.910000       11.750000
  C5        44.380001       29.840000       11.580000
  H5        44.900002       29.719999       12.500000
  C1        45.049999       22.799999        7.970000
  C2        43.849998       22.160000        8.150000
  N1        45.160000       23.809999        8.940000
  C3b       43.959999       23.830000        9.690000
  N2        43.209999       22.790001        9.220000
  C4        42.000000       22.600000        9.900000
  C5b       41.520000       23.740000       10.610000
  C6        40.220001       23.900000       10.960000
  H1        39.910000       24.870001       11.400000
  C7        39.270000       22.940001       10.550000
  H2        38.189999       23.040001       10.620000
  C8        39.689999       21.709999        9.970000
  H3        38.970001       20.860001        9.890000
  C9        41.090000       21.559999        9.660000
  H4        41.549999       20.690001        9.720000
  C10       43.590000       21.040001        7.330000
  H5        42.619999       20.559999        7.560000
  C11       44.380001       20.690001        6.240000
  H6        44.340000       19.700001        5.810000
  C12       45.529999       21.450001        5.950000
  H7        46.250000       21.080000        5.220000
  C13       45.799999       22.469999        6.850000
  H8        46.730000       22.959999        6.780000
  C6        46.470001       24.290001        9.250000
  C1        46.810001       25.570000        8.850000
  H1        46.119999       26.320000        8.450000
  C2        48.160000       25.920000        9.080000
  H2        48.500000       26.940001        8.850000
  C3        49.070000       25.040001        9.660000
  H3        50.080002       25.389999        9.870000
  C4        48.630001       23.799999       10.080000
  H4        49.290001       23.200001       10.800000
  C5        47.320000       23.330000        9.860000
  H5        47.049999       22.320000        9.850000
  C1        40.959999       27.520000        8.010000
  C2        40.759998       28.139999        9.230000
  N1        41.779999       26.440001        8.210000
  C3c       41.990002       26.299999        9.600000
  N2        41.349998       27.360001       10.200000
  C4        41.180000       27.330000       11.620000
  C5c       41.770000       26.309999       12.290000
  C6        41.700001       26.230000       13.680000
  H1        42.230000       25.280001       14.040000
  C7        40.980000       27.230000       14.430000
  H2        41.009998       27.150000       15.470000
  C8        40.310001       28.230000       13.760000
  H3        39.889999       29.020000       14.340000
  C9        40.470001       28.280001       12.370000
  H4        39.779999       29.000000       11.870000
  C10       40.150002       29.389999        9.210000
  H5        39.740002       29.840000       10.100000
  C11       39.639999       30.010000        8.040000
  H6        39.240002       31.049999        7.960000
  C12       39.900002       29.370001        6.780000
  H7        39.509998       29.780001        5.870000
  C13       40.580002       28.170000        6.780000
  H8        40.730000       27.760000        5.830000
  C6        42.060001       25.559999        7.240000
  C1        43.049999       25.840000        6.300000
  H1        43.730000       26.730000        6.460000
  C2        43.090000       25.100000        5.110000
  H2        43.840000       25.309999        4.440000
  C3        42.279999       24.010000        4.910000
  H3        42.310001       23.650000        3.890000
  C4        41.360001       23.709999        5.870000
  H4        40.939999       22.670000        5.970000
  C5        41.189999       24.469999        7.070000
  H5        40.250000       24.270000        7.620000
  IR        37.799999       15.180000        4.290000
  C1        33.540001       15.370000        3.780000
  C2        33.740002       14.080000        4.210000
  N1        34.740002       16.080000        3.910000
  C3a       35.779999       15.270000        4.360000
  N2        35.160000       14.030000        4.590000
  C4        35.990002       12.940000        4.770000
  C5a       37.360001       13.120000        4.480000
  C6        38.209999       12.060000        4.740000
  H1        39.220001       12.150000        4.460000
  C7        37.700001       10.790000        5.240000
  H2        38.389999       10.060000        5.580000
  C8        36.349998       10.690000        5.430000
  H3        35.830002        9.790000        5.510000
  C9        35.520000       11.730000        5.230000
  H4        34.500000       11.750000        5.570000
  C10       32.689999       13.140000        4.150000
  H5        32.770000       12.140000        4.600000
  C11       31.450001       13.490000        3.510000
  H6        30.590000       12.800000        3.520000
  C12       31.280001       14.810000        3.090000
  H7        30.270000       15.200000        2.930000
  C13       32.310001       15.750000        3.250000
  H8        32.130001       16.780001        3.030000
  C6        34.790001       17.500000        3.670000
  C1        34.860001       17.969999        2.340000
  H1        34.470001       17.299999        1.590000
  C2        35.099998       19.320000        2.060000
  H2        35.139999       19.680000        1.000000
  C3        35.349998       20.160000        3.130000
  H3        35.759998       21.110001        2.840000
  C4        35.259998       19.680000        4.460000
  H4        35.150002       20.379999        5.320000
  C5        35.009998       18.340000        4.740000
  H5        34.759998       18.120001        5.820000
  C1        38.720001       15.120000        8.480000
  C2        39.830002       14.580000        7.900000
  N1        37.810001       15.420000        7.460000
  C3b       38.380001       15.190000        6.270000
  N2        39.619999       14.730000        6.530000
  C4        40.450001       14.490000        5.440000
  C5b       39.860001       14.690000        4.180000
  C6        40.619999       14.650000        2.970000
  H1        40.230000       15.110000        2.080000
  C7        42.040001       14.430000        3.070000
  H2        42.680000       14.620000        2.200000
  C8        42.599998       14.260000        4.330000
  H3        43.610001       13.880000        4.320000
  C9        41.820000       14.250000        5.460000
  H4        42.380001       14.270000        6.400000
  C10       40.669998       13.790000        8.600000
  H5        41.540001       13.510000        8.040000
  C11       40.389999       13.490000        9.940000
  H6        41.230000       13.010000       10.420000
  C12       39.340000       14.090000       10.600000
  H7        39.389999       13.950000       11.700000
  C13       38.500000       14.920000        9.870000
  H8        37.660000       15.390000       10.360000
  C6        36.400002       15.270000        7.680000
  C1        35.860001       13.990000        7.750000
  H1        36.529999       13.170000        7.940000
  C2        34.450001       13.800000        7.960000
  H2        33.919998       12.870000        7.900000
  C3        33.709999       14.900000        8.340000
  H3        32.619999       14.730000        8.610000
  C4        34.250000       16.160000        8.420000
  H4        33.570000       17.010000        8.490000
  C5        35.619999       16.360001        8.030000
  H5        36.099998       17.330000        7.940000
  C1        38.759998       19.340000        3.420000
  C2        38.360001       18.740000        2.230000
  N1        38.709999       18.320000        4.340000
  C3c       38.380001       17.090000        3.780000
  N2        38.139999       17.410000        2.460000
  C4        37.520000       16.440001        1.680000
  C5c       37.520000       15.160000        2.240000
  C6        37.009998       14.100000        1.460000
  H1        37.580002       13.210000        1.570000
  C7        36.400002       14.330000        0.260000
  H2        35.770000       13.560000       -0.220000
  C8        36.389999       15.590000       -0.330000
  H3        35.889999       15.880000       -1.290000
  C9        36.919998       16.639999        0.430000
  H4        36.750000       17.590000       -0.020000
  C10       38.290001       19.580000        1.120000
  H5        38.459999       19.150000        0.180000
  C11       38.310001       20.980000        1.300000
  H6        37.730000       21.559999        0.630000
  C12       38.610001       21.520000        2.570000
  H7        38.570000       22.530001        2.650000
  C13       38.919998       20.650000        3.610000
  H8        39.130001       21.049999        4.600000
  C6        39.290001       18.450001        5.650000
  C1        40.590000       17.940001        5.860000
  H1        41.110001       17.530001        5.030000
  C2        41.180000       17.790001        7.090000
  H2        42.020000       17.250000        7.170000
  C3        40.430000       18.150000        8.210000
  H3        40.889999       17.879999        9.110000
  C4        39.090000       18.639999        8.090000
  H4        38.490002       18.490000        8.990000
  C5        38.509998       18.740000        6.810000
  H5        37.490002       18.980000        6.740000
