206
 generated by VMD
 Ir        0.403358        0.069511       -6.932323
 C         1.157726       -3.656693       -4.774841
 C         1.915630       -3.774757       -5.921766
 N         0.477169       -2.420639       -4.857349
 C         0.787422       -1.748238       -6.025906
 N         1.699284       -2.577686       -6.670908
 C         2.325390       -2.016232       -7.834589
 C         2.025799       -0.671192       -8.069359
 C         2.771206        0.032513       -9.027773
 H         2.569313        1.078491       -9.208532
 C         3.794849       -0.590286       -9.750877
 H         4.354069       -0.021618      -10.477783
 C         4.070370       -1.940830       -9.538248
 H         4.825401       -2.434669      -10.127871
 C         3.330460       -2.659313       -8.595688
 H         3.420208       -3.732578       -8.579788
 C         2.697445       -4.929626       -6.100517
 H         3.235226       -5.114105       -7.009668
 C         2.708210       -5.938625       -5.124964
 H         3.336319       -6.807968       -5.257332
 C         1.938396       -5.802025       -3.974215
 H         1.922508       -6.576061       -3.226873
 C         1.157814       -4.656425       -3.799015
 H         0.564091       -4.557362       -2.911673
 C        -0.578640       -2.034557       -3.950043
 C        -1.887177       -2.423553       -4.205606
 H        -2.121315       -2.947197       -5.117025
 C        -2.932972       -2.024189       -3.357658
 H        -3.935341       -2.353577       -3.549917
 C        -2.660213       -1.213528       -2.252518
 H        -3.468868       -0.902050       -1.599873
 C        -1.351101       -0.802238       -1.998610
 H        -1.141056       -0.097996       -1.200785
 C        -0.308922       -1.227654       -2.836151
 H         0.713337       -0.941101       -2.609688
 C         3.137402        2.626419       -4.714615
 C         2.497982        3.479843       -5.586748
 N         2.724621        1.317978       -5.019745
 C         1.803699        1.323067       -6.056749
 N         1.711597        2.652351       -6.431883
 C         0.984348        2.896164       -7.630449
 C         0.217976        1.821918       -8.106243
 C        -0.638065        2.022388       -9.208197
 H        -1.211308        1.200615       -9.599976
 C        -0.735619        3.276550       -9.811646
 H        -1.485157        3.449684      -10.579971
 C         0.045696        4.336021       -9.348431
 H        -0.011738        5.298126       -9.823458
 C         0.902641        4.137566       -8.279568
 H         1.575836        4.926537       -7.992830
 C         2.697891        4.861179       -5.461260
 H         2.109703        5.570297       -6.023472
 C         3.555206        5.378075       -4.484976
 H         3.692524        6.440063       -4.392649
 C         4.212940        4.502357       -3.604631
 H         4.864944        4.888023       -2.835880
 C         3.996277        3.122776       -3.712332
 H         4.489685        2.451958       -3.029505
 C         3.573612        0.183350       -4.721022
 C         4.505459       -0.247314       -5.667643
 H         4.617027        0.286293       -6.599209
 C         5.302605       -1.365166       -5.402552
 H         6.035931       -1.683903       -6.118725
 C         5.166016       -2.052341       -4.191498
 H         5.766247       -2.941761       -3.999489
 C         4.244278       -1.612408       -3.237392
 H         4.124485       -2.155285       -2.312656
 C         3.445892       -0.485291       -3.498934
 H         2.797760       -0.110947       -2.729328
 C        -3.231731        1.235329       -4.814915
 C        -3.633915        0.235779       -5.669111
 N        -1.869534        1.485626       -5.080006
 C        -1.395073        0.658955       -6.081205
 N        -2.500462       -0.085693       -6.464630
 C        -2.345829       -0.843227       -7.672781
 C        -1.016911       -0.982140       -8.116495
 C        -0.774300       -1.682060       -9.303658
 H         0.225788       -1.780914       -9.684374
 C        -1.824379       -2.222530      -10.059978
 H        -1.613609       -2.762184      -10.972364
 C        -3.142040       -2.070595       -9.618189
 H        -3.956425       -2.474072      -10.199642
 C        -3.402317       -1.379936       -8.441135
 H        -4.425186       -1.163597       -8.177801
 C        -4.961376       -0.249439       -5.595612
 H        -5.265850       -1.112762       -6.151823
 C        -5.862339        0.303963       -4.676970
 H        -6.866978       -0.078548       -4.618683
 C        -5.447102        1.329559       -3.829901
 H        -6.133770        1.780304       -3.132254
 C        -4.124477        1.797997       -3.889442
 H        -3.819576        2.605202       -3.242950
 C        -1.250301        2.715912       -4.668245
 C        -1.408092        3.863152       -5.464144
 H        -1.802608        3.772324       -6.462446
 C        -0.964073        5.105946       -5.005013
 H        -1.138752        5.990417       -5.599743
 C        -0.326626        5.199764       -3.761211
 H         0.004440        6.164295       -3.403614
 C        -0.153309        4.060043       -2.979540
 H         0.338711        4.145618       -2.018190
 C        -0.611042        2.822754       -3.429644
 H        -0.458298        1.934528       -2.832716
 Ir        0.403362        0.069508        6.671673
 C        -3.698101        0.939602        7.906330
 C        -2.993683        2.053173        8.286129
 N        -2.791321        0.059799        7.306484
 C        -1.510181        0.565044        7.305462
 N        -1.641094        1.798790        7.926704
 C        -0.422600        2.482834        8.197723
 C         0.702332        1.986271        7.518269
 C         1.882175        2.732719        7.528522
 H         2.751888        2.379898        7.004959
 C         1.955173        3.951691        8.202755
 H         2.825634        4.570145        8.073551
 C         0.857105        4.423950        8.926792
 H         0.917683        5.363159        9.453785
 C        -0.328247        3.692284        8.932396
 H        -1.105762        3.973953        9.617321
 C        -3.685650        3.137619        8.877026
 H        -3.195244        4.075378        9.049980
 C        -5.059685        3.047119        9.115234
 H        -5.592876        3.887375        9.553612
 C        -5.760071        1.894466        8.754326
 H        -6.827961        1.836555        8.872887
 C        -5.073936        0.836075        8.149734
 H        -5.621456       -0.045570        7.866833
 C        -3.219929       -1.148663        6.650417
 C        -3.155300       -2.368027        7.348759
 H        -2.714287       -2.395920        8.335079
 C        -3.586693       -3.537670        6.731232
 H        -3.491787       -4.479492        7.250813
 C        -4.086315       -3.514004        5.425777
 H        -4.374844       -4.425922        4.945618
 C        -4.153980       -2.298397        4.736195
 H        -4.611176       -2.246460        3.765999
 C        -3.720783       -1.115726        5.348515
 H        -3.838852       -0.168396        4.834679
 C         0.489346        1.636650        2.611118
 C         1.797821        1.281006        2.866837
 N        -0.233715        1.501991        3.810139
 C         0.577969        1.004723        4.826412
 N         1.833012        0.914673        4.229538
 C         2.890701        0.470535        5.079845
 C         2.454269       -0.185341        6.245975
 C         3.400890       -0.907745        6.995403
 H         3.114262       -1.341427        7.943382
 C         4.734009       -0.989304        6.600605
 H         5.418385       -1.640556        7.129658
 C         5.167648       -0.294609        5.473019
 H         6.196655       -0.362164        5.161465
 C         4.252975        0.453842        4.723019
 H         4.630077        1.157757        4.002392
 C         2.733501        1.300194        1.817673
 H         3.770550        1.035469        1.995384
 C         2.347630        1.648975        0.519922
 H         3.086525        1.692673       -0.267183
 C         1.018452        1.991600        0.262852
 H         0.708126        2.235153       -0.734032
 C         0.094032        1.985435        1.310089
 H        -0.942123        2.211346        1.093182
 C        -1.428371        2.254829        4.049984
 C        -1.371620        3.374588        4.893024
 H        -0.464661        3.605751        5.421215
 C        -2.483578        4.215363        5.016556
 H        -2.452061        5.062878        5.688282
 C        -3.650475        3.949398        4.291840
 H        -4.488888        4.633148        4.328671
 C        -3.710262        2.825878        3.457554
 H        -4.602036        2.613510        2.885590
 C        -2.603153        1.968327        3.347984
 H        -2.662350        1.098259        2.725506
 C        -0.449661       -4.028328        5.438992
 C        -0.231789       -4.108368        6.793812
 N        -0.145325       -2.705791        5.050049
 C         0.218285       -1.930195        6.137402
 N         0.199650       -2.824486        7.197674
 C         0.633205       -2.307640        8.449512
 C         0.589298       -0.904266        8.545536
 C         0.959595       -0.316788        9.760059
 H         0.846451        0.746437        9.903065
 C         1.413380       -1.087830       10.831577
 H         1.797760       -0.584221       11.706581
 C         1.485294       -2.479931       10.715847
 H         1.821404       -3.077377       11.546917
 C         1.092743       -3.091713        9.528866
 H         1.278095       -4.147423        9.391293
 C        -0.524014       -5.316971        7.452888
 H        -0.407711       -5.397736        8.520855
 C        -1.031731       -6.410217        6.750294
 H        -1.268707       -7.324749        7.280643
 C        -1.264885       -6.304123        5.378513
 H        -1.657753       -7.150917        4.832989
 C        -0.970196       -5.114056        4.712330
 H        -1.177925       -5.020523        3.663807
 C         0.255936       -2.398300        3.710743
 C         1.568600       -2.654434        3.313869
 H         2.283382       -3.027939        4.029812
 C         1.955654       -2.417580        1.985001
 H         2.964218       -2.659714        1.671360
 C         1.037029       -1.906059        1.063391
 H         1.337704       -1.702297        0.044430
 C        -0.279907       -1.644413        1.472569
 H        -1.007179       -1.274666        0.762102
 C        -0.672138       -1.886772        2.785854
 H        -1.682510       -1.657669        3.104694
