206
 generated by VMD
  IR        34.310001       14.200000       25.780001
  C1        35.200001       18.070000       27.730000
  C2        36.340000       17.850000       26.930000
  N1        34.250000       16.950001       27.500000
  C3a       34.820000       16.059999       26.580000
  N2        36.080002       16.570000       26.320000
  C4        36.970001       15.580000       25.809999
  C5a       36.320000       14.470000       25.209999
  C6        37.000000       13.760000       24.209999
  H1        36.590000       12.860000       23.770000
  C7        38.250000       14.180000       23.719999
  H2        38.799999       13.850000       22.900000
  C8        38.919998       15.230000       24.340000
  H3        39.840000       15.550000       23.879999
  C9        38.270000       15.960000       25.340000
  H4        38.880001       16.700001       25.809999
  C10       37.349998       18.809999       26.870001
  H5        38.009998       18.799999       26.020000
  C11       37.250000       19.940001       27.629999
  H6        38.200001       20.450001       27.799999
  C12       36.150002       20.180000       28.420000
  H7        36.070000       21.030001       29.049999
  C13       35.130001       19.240000       28.459999
  H8        34.250000       19.389999       29.090000
  C6        32.910000       17.020000       27.760000
  C1        31.889999       16.990000       26.790001
  H1        32.169998       16.920000       25.770000
  C2        30.570000       17.170000       27.180000
  H2        29.900000       17.230000       26.400000
  C3        30.170000       17.250000       28.490000
  H3        29.139999       17.020000       28.740000
  C4        31.180000       17.309999       29.430000
  H4        30.860001       17.469999       30.480000
  C5        32.549999       17.170000       29.080000
  H5        33.380001       17.219999       29.850000
  C1        32.779999       15.640000       21.950001
  C2        32.529999       14.270000       22.010000
  N1        33.570000       15.900000       23.049999
  C3b       33.720001       14.740000       23.860001
  N2        33.130001       13.720000       23.180000
  C4        33.320000       12.420000       23.639999
  C5b       34.189999       12.390000       24.709999
  C6        34.880001       11.240000       25.059999
  H1        35.439999       11.220000       25.990000
  C7        34.720001       10.100000       24.170000
  H2        35.279999        9.240000       24.480000
  C8        33.770000       10.100000       23.129999
  H3        33.759998        9.310000       22.360001
  C9        32.959999       11.240000       22.930000
  H4        32.080002       11.040000       22.340000
  C10       31.770000       13.730000       20.910000
  H5        31.580000       12.660000       20.950001
  C11       31.240000       14.450000       19.879999
  H6        30.879999       13.890000       19.010000
  C12       31.490000       15.820000       19.840000
  H7        31.000000       16.299999       19.049999
  C13       32.270000       16.459999       20.860001
  H8        32.230000       17.530001       20.870001
  C6        34.349998       17.030001       23.150000
  C1        35.660000       17.010000       22.639999
  H1        36.160000       16.090000       22.570000
  C2        36.459999       18.190001       22.780001
  H2        37.430000       18.180000       22.240000
  C3        36.040001       19.280001       23.549999
  H3        36.660000       20.080000       23.879999
  C4        34.770000       19.219999       24.170000
  H4        34.279999       20.129999       24.389999
  C5        33.900002       18.139999       23.900000
  H5        32.799999       18.320000       24.120001
  C1        30.389999       13.560000       27.549999
  C2        31.230000       13.650000       28.639999
  N1        31.170000       13.510000       26.469999
  C3c       32.490002       13.650000       26.709999
  N2        32.529999       13.600000       28.090000
  C4        33.880001       13.660000       28.660000
  C5c       34.849998       13.520000       27.670000
  C6        36.130001       13.240000       28.049999
  H1        36.779999       13.120000       27.240000
  C7        36.470001       13.070000       29.370001
  H2        37.490002       12.960000       29.790001
  C8        35.500000       13.170000       30.410000
  H3        35.799999       12.660000       31.340000
  C9        34.220001       13.490000       30.000000
  H4        33.520000       13.560000       30.840000
  C10       30.770000       13.710000       29.930000
  H5        31.490000       13.550000       30.750000
  C11       29.440001       13.850000       30.180000
  H6        29.170000       14.120000       31.280001
  C12       28.510000       13.810000       29.110001
  H7        27.440001       13.900000       29.309999
  C13       29.010000       13.630000       27.790001
  H8        28.270000       13.420000       27.070000
  C6        30.590000       13.290000       25.209999
  C1        30.299999       12.000000       24.830000
  H1        30.420000       11.190000       25.530001
  C2        29.719999       11.750000       23.549999
  H2        29.740000       10.770000       23.139999
  C3        29.260000       12.810000       22.830000
  H3        28.780001       12.820000       21.879999
  C4        29.490000       14.110000       23.299999
  H4        29.520000       14.960000       22.639999
  C5        30.139999       14.360000       24.490000
  H5        30.090000       15.330000       24.709999
  IR        34.180000       26.500000       27.600000
  C1        32.009998       22.700001       27.230000
  C2        32.169998       22.850000       28.590000
  N1        32.740002       23.750000       26.549999
  C3a       33.250000       24.610001       27.520000
  N2        32.980000       24.049999       28.770000
  C4        33.580002       24.719999       29.950001
  C5a       33.950001       26.040001       29.680000
  C6        34.169998       26.900000       30.790001
  H1        34.060001       27.950001       30.680000
  C7        34.049999       26.430000       32.110001
  H2        34.029999       27.040001       32.990002
  C8        33.840000       25.090000       32.290001
  H3        33.669998       24.650000       33.259998
  C9        33.650002       24.230000       31.270000
  H4        33.450001       23.120001       31.430000
  C10       31.510000       21.889999       29.480000
  H5        31.660000       21.910000       30.530001
  C11       30.730000       20.900000       28.950001
  H6        30.129999       20.209999       29.549999
  C12       30.600000       20.730000       27.549999
  H7        29.709999       20.290001       27.180000
  C13       31.320000       21.650000       26.730000
  H8        31.360001       21.590000       25.700001
  C6        33.080002       23.629999       25.120001
  C1        34.090000       22.740000       24.719999
  H1        34.459999       22.170000       25.549999
  C2        34.410000       22.600000       23.379999
  H2        35.169998       21.940001       23.040001
  C3        33.619999       23.260000       22.400000
  H3        33.830002       23.059999       21.360001
  C4        32.599998       24.120001       22.840000
  H4        32.040001       24.690001       22.139999
  C5        32.349998       24.299999       24.160000
  H5        31.450001       24.900000       24.520000
  C1        30.910000       29.340000       27.920000
  C2        32.070000       30.139999       28.049999
  N1        31.299999       28.059999       27.799999
  C3b       32.680000       27.900000       27.950001
  N2        33.180000       29.200001       28.040001
  C4        34.590000       29.330000       28.209999
  C5b       35.349998       28.190001       27.889999
  C6        36.709999       28.250000       28.010000
  H1        37.310001       27.379999       27.990000
  C7        37.380001       29.480000       28.190001
  H2        38.410000       29.490000       27.940001
  C8        36.680000       30.650000       28.450001
  H3        37.330002       31.500000       28.459999
  C9        35.270000       30.570000       28.440001
  H4        34.759998       31.530001       28.690001
  C10       31.910000       31.549999       28.190001
  H5        32.820000       32.119999       28.120001
  C11       30.650000       32.130001       28.240000
  H6        30.549999       33.240002       28.400000
  C12       29.500000       31.280001       28.180000
  H7        28.530001       31.700001       28.290001
  C13       29.629999       29.910000       27.969999
  H8        28.730000       29.270000       27.770000
  C6        30.360001       26.940001       27.820000
  C1        30.170000       26.389999       29.120001
  H1        30.230000       27.080000       29.930000
  C2        29.620001       25.070000       29.219999
  H2        30.020000       24.360001       29.980000
  C3        29.090000       24.450001       28.110001
  H3        28.850000       23.430000       28.139999
  C4        29.020000       25.070000       26.870001
  H4        28.410000       24.650000       26.070000
  C5        29.830000       26.230000       26.700001
  H5        30.200001       26.480000       25.639999
  C1        34.810001       27.080000       23.340000
  C2        35.720001       26.120001       23.600000
  N1        34.189999       27.530001       24.490000
  C3c       34.680000       26.830000       25.570000
  N2        35.680000       25.980000       25.010000
  C4        36.330002       25.170000       26.010000
  C5c       35.980000       25.360001       27.370001
  C6        36.689999       24.620001       28.350000
  H1        36.630001       25.160000       29.320000
  C7        37.709999       23.700001       28.010000
  H2        38.380001       23.330000       28.690001
  C8        37.930000       23.480000       26.629999
  H3        38.459999       22.549999       26.370001
  C9        37.279999       24.200001       25.650000
  H4        37.200001       23.870001       24.570000
  C10       36.500000       25.559999       22.549999
  H5        37.259998       24.840000       22.700001
  C11       36.340000       25.930000       21.170000
  H6        37.160000       25.830000       20.379999
  C12       35.419998       26.930000       20.879999
  H7        35.480000       27.530001       19.959999
  C13       34.689999       27.480000       21.950001
  H8        33.709999       27.799999       21.639999
  C6        33.130001       28.549999       24.459999
  C1        33.450001       29.840000       24.620001
  H1        34.330002       30.139999       25.100000
  C2        32.520000       30.850000       24.620001
  H2        32.950001       31.790001       24.709999
  C3        31.160000       30.559999       24.320000
  H3        30.379999       31.360001       24.240000
  C4        30.799999       29.230000       24.100000
  H4        29.740000       29.049999       24.010000
  C5        31.790001       28.240000       24.110001
  H5        31.620001       27.160000       23.809999
