206
 generated by VMD
  IR         7.240000        4.070000       44.119999
  C1         9.570000        7.630000       45.200001
  C2         8.870000        8.020000       44.130001
  N1         9.200000        6.310000       45.529999
  C3a        8.320000        5.820000       44.610001
  N2         8.070000        6.930000       43.770000
  C4         6.930000        6.780000       42.939999
  C5a        6.370000        5.540000       42.869999
  C6         5.190000        5.310000       42.150002
  H1         4.940000        4.270000       41.790001
  C7         4.480000        6.430000       41.570000
  H2         3.450000        6.320000       41.209999
  C8         5.020000        7.680000       41.610001
  H3         4.440000        8.530000       41.279999
  C9         6.260000        7.890000       42.279999
  H4         6.860000        8.770000       42.009998
  C10        9.170000        9.220000       43.540001
  H5         8.660000        9.580000       42.650002
  C11       10.240000        9.980000       43.980000
  H6        10.220000       10.930000       43.470001
  C12       11.100000        9.600000       44.980000
  H7        11.950000       10.120000       45.400002
  C13       10.720000        8.430000       45.650002
  H8        11.210000        8.190000       46.490002
  C6         9.930000        5.640000       46.590000
  C1        11.020000        4.860000       46.230000
  H1        11.530000        5.180000       45.320000
  C2        11.660000        4.040000       47.200001
  H2        12.630000        3.490000       47.009998
  C3        11.150000        3.950000       48.509998
  H3        11.520000        3.370000       49.340000
  C4        10.120000        4.810000       48.860001
  H4         9.750000        4.690000       49.860001
  C5         9.550000        5.740000       47.930000
  H5         9.100000        6.640000       48.240002
  C1         3.690000        4.340000       46.639999
  C2         3.440000        3.280000       45.740002
  N1         4.930000        4.910000       46.230000
  C3b        5.470000        4.210000       45.150002
  N2         4.550000        3.230000       44.889999
  C4         4.850000        2.280000       43.790001
  C5b        6.190000        2.400000       43.400002
  C6         6.710000        1.260000       42.730000
  H1         7.670000        1.360000       42.389999
  C7         6.100000       -0.010000       42.680000
  H2         6.600000       -0.860000       42.189999
  C8         4.830000       -0.190000       43.189999
  H3         4.540000       -1.190000       43.410000
  C9         4.210000        1.010000       43.639999
  H4         3.220000        1.120000       43.590000
  C10        2.240000        2.550000       46.000000
  H5         1.880000        1.790000       45.360001
  C11        1.350000        2.920000       47.060001
  H6         0.290000        2.700000       47.000000
  C12        1.630000        3.960000       47.910000
  H7         0.940000        4.230000       48.709999
  C13        2.810000        4.650000       47.689999
  H8         3.080000        5.390000       48.450001
  C6         5.180000        6.320000       46.299999
  C1         6.270000        6.900000       46.910000
  H1         6.950000        6.300000       47.470001
  C2         6.570000        8.230000       46.799999
  H2         7.450000        8.630000       47.169998
  C3         5.680000        9.110000       46.180000
  H3         5.680000       10.170000       46.259998
  C4         4.580000        8.560000       45.529999
  H4         3.830000        9.150000       45.080002
  C5         4.320000        7.160000       45.610001
  H5         3.500000        6.700000       45.049999
  C1         9.430000        1.340000       46.709999
  C2        10.310000        1.460000       45.599998
  N1         8.290000        2.110000       46.450001
  C3c        8.340000        2.720000       45.220001
  N2         9.620000        2.240000       44.680000
  C4         9.820000        2.620000       43.279999
  C5c        8.930000        3.640000       42.889999
  C6         9.100000        4.060000       41.610001
  H1         8.530000        4.980000       41.279999
  C7        10.110000        3.550000       40.799999
  H2        10.080000        3.900000       39.779999
  C8        10.980000        2.560000       41.209999
  H3        11.790000        2.370000       40.630001
  C9        10.900000        2.090000       42.439999
  H4        11.790000        1.470000       42.820000
  C10       11.560000        1.020000       45.700001
  H5        12.200000        1.080000       44.860001
  C11       11.960000        0.280000       46.849998
  H6        12.910000       -0.190000       46.860001
  C12       11.120000        0.160000       47.930000
  H7        11.520000       -0.450000       48.689999
  C13        9.850000        0.740000       47.919998
  H8         9.140000        0.470000       48.650002
  C6         7.090000        2.070000       47.250000
  C1         6.800000        3.080000       48.180000
  H1         7.100000        4.120000       47.869999
  C2         5.900000        2.770000       49.200001
  H2         5.950000        3.220000       50.150002
  C3         5.140000        1.570000       49.160000
  H3         4.450000        1.370000       49.930000
  C4         5.340000        0.660000       48.139999
  H4         4.730000       -0.220000       47.910000
  C5         6.350000        0.910000       47.220001
  H5         6.690000        0.110000       46.610001
  IR         3.050000       10.230000       36.990002
  C1         6.540000       10.510000       39.480000
  C2         6.480000        9.270000       39.020000
  N1         5.320000       11.080000       39.020000
  C3a        4.510000       10.220000       38.389999
  N2         5.190000        9.100000       38.459999
  C4         4.570000        7.920000       37.910000
  C5a        3.550000        8.180000       37.040001
  C6         3.040000        7.160000       36.230000
  H1         2.230000        7.340000       35.580002
  C7         3.630000        5.940000       36.240002
  H2         3.240000        5.190000       35.560001
  C8         4.610000        5.600000       37.150002
  H3         5.080000        4.660000       37.279999
  C9         5.100000        6.600000       37.950001
  H4         5.860000        6.330000       38.639999
  C10        7.620000        8.440000       39.189999
  H5         7.680000        7.550000       38.619999
  C11        8.760000        8.930000       39.779999
  H6         9.580000        8.260000       39.900002
  C12        8.860000       10.250000       40.130001
  H7         9.870000       10.760000       40.310001
  C13        7.740000       11.120000       39.959999
  H8         7.830000       12.210000       40.020000
  C6         4.750000       12.120000       39.910000
  C1         4.570000       13.440000       39.459999
  H1         5.150000       13.790000       38.619999
  C2         3.810000       14.360000       40.169998
  H2         3.490000       15.320000       39.799999
  C3         3.360000       13.930000       41.439999
  H3         2.720000       14.620000       41.950001
  C4         3.520000       12.700000       41.939999
  H4         3.350000       12.540000       43.040001
  C5         4.210000       11.770000       41.220001
  H5         4.700000       10.940000       41.730000
  C1         5.550000       10.730000       33.349998
  C2         4.220000       10.820000       32.959999
  N1         5.440000       10.490000       34.709999
  C3b        4.160000       10.430000       35.189999
  N2         3.400000       10.670000       34.060001
  C4         2.040000       10.480000       34.200001
  C5b        1.620000        9.980000       35.470001
  C6         0.240000        9.720000       35.669998
  H1        -0.130000        9.260000       36.480000
  C7        -0.720000       10.020000       34.680000
  H2        -1.730000        9.970000       34.910000
  C8        -0.250000       10.420000       33.430000
  H3        -0.930000       10.870000       32.799999
  C9         1.090000       10.670000       33.189999
  H4         1.360000       11.360000       32.340000
  C10        4.010000       10.790000       31.510000
  H5         2.990000       11.110000       31.200001
  C11        5.030000       10.640000       30.590000
  H6         4.820000       10.800000       29.570000
  C12        6.320000       10.590000       31.020000
  H7         7.150000       10.450000       30.320000
  C13        6.610000       10.620000       32.360001
  H8         7.670000       10.490000       32.689999
  C6         6.660000       10.230000       35.509998
  C1         7.320000       11.370000       35.820000
  H1         6.790000       12.200000       36.180000
  C2         8.670000       11.300000       35.980000
  H2         9.180000       12.200000       36.279999
  C3         9.350000       10.100000       35.930000
  H3        10.370000        9.970000       36.220001
  C4         8.640000        8.900000       35.669998
  H4         9.250000        8.020000       35.509998
  C5         7.270000        8.960000       35.500000
  H5         6.700000        8.130000       35.080002
  C1         1.690000       14.370000       37.439999
  C2         0.900000       13.700000       38.279999
  N1         2.500000       13.460000       36.720001
  C3c        2.300000       12.150000       37.180000
  N2         1.210000       12.360000       38.060001
  C4         0.990000       11.280000       38.869999
  C5c        1.700000       10.120000       38.610001
  C6         1.400000        8.970000       39.290001
  H1         1.840000        8.000000       38.990002
  C7         0.460000        8.940000       40.290001
  H2         0.520000        8.200000       41.070000
  C8        -0.290000       10.080000       40.540001
  H3        -1.010000       10.160000       41.310001
  C9        -0.070000       11.240000       39.759998
  H4        -0.840000       11.960000       39.759998
  C10       -0.030000       14.410000       39.070000
  H5        -0.690000       14.020000       39.820000
  C11        0.100000       15.810000       39.060001
  H6        -0.650000       16.360001       39.619999
  C12        0.910000       16.510000       38.189999
  H7         0.880000       17.610001       38.080002
  C13        1.740000       15.790000       37.380001
  H8         2.730000       16.070000       36.980000
  C6         2.990000       13.710000       35.290001
  C1         2.060000       13.740000       34.240002
  H1         0.980000       13.850000       34.439999
  C2         2.490000       13.950000       32.939999
  H2         1.720000       14.280000       32.240002
  C3         3.860000       14.040000       32.650002
  H3         4.130000       14.020000       31.639999
  C4         4.800000       13.930000       33.680000
  H4         5.820000       13.680000       33.500000
  C5         4.350000       13.820000       35.000000
  H5         5.100000       13.810000       35.730000
