206
 generated by VMD
 Ir       52.718521     -132.925507      -15.625509
 C        50.846443     -134.890060      -19.049477
 C        49.825893     -134.317413      -18.391861
 N        52.006470     -134.536407      -18.470804
 C        51.804531     -133.765762      -17.324533
 N        50.461975     -133.660583      -17.288916
 C        49.878990     -132.806519      -16.281395
 C        50.671227     -132.535767      -15.159805
 C        50.014969     -131.908234      -14.083641
 H        50.579086     -131.884888      -13.165424
 C        48.691078     -131.414093      -14.071569
 H        48.219700     -131.026276      -13.152115
 C        47.882591     -131.741714      -15.194250
 H        46.960365     -131.275391      -15.132215
 C        48.437340     -132.392532      -16.293922
 H        47.770744     -132.733841      -17.075756
 C        48.528461     -134.741119      -18.771502
 H        47.717972     -134.701263      -18.033794
 C        48.337021     -135.511581      -19.933550
 H        47.399467     -135.948013      -20.153124
 C        49.408295     -135.922424      -20.706711
 H        49.274811     -136.412857      -21.656319
 C        50.696075     -135.659866      -20.215099
 H        51.496124     -136.071686      -20.747766
 C        53.177559     -135.387207      -18.511929
 C        53.306587     -136.482849      -17.673462
 H        52.520927     -136.841736      -17.141359
 C        54.470852     -137.268585      -17.613489
 H        54.429096     -138.202881      -17.141630
 C        55.571678     -136.902145      -18.467476
 H        56.481163     -137.399170      -18.205944
 C        55.463772     -135.683609      -19.153143
 H        56.328030     -135.331619      -19.762539
 C        54.271446     -134.961975      -19.211336
 H        54.246529     -134.007263      -19.662251
 C        53.115395     -128.848755      -16.825741
 C        53.848782     -128.926163      -15.743219
 N        52.577278     -130.106049      -17.050936
 C        52.888664     -130.963776      -16.116879
 N        53.604221     -130.245712      -15.264606
 C        53.804806     -130.830963      -13.960438
 C        53.208035     -132.090057      -13.769030
 C        53.043129     -132.519257      -12.495968
 H        52.660839     -133.541077      -12.287508
 C        53.411797     -131.711700      -11.417067
 H        53.025082     -132.029205      -10.462322
 C        54.104866     -130.514160      -11.576220
 H        54.067947     -129.774658      -10.805319
 C        54.324818     -130.055389      -12.827002
 H        54.562553     -129.048676      -12.936581
 C        54.766666     -127.908127      -15.393814
 H        55.551285     -128.045609      -14.600540
 C        54.929935     -126.792908      -16.199440
 H        55.625164     -125.951576      -16.061934
 C        54.185204     -126.724327      -17.385857
 H        54.245956     -125.882416      -17.907766
 C        53.361511     -127.747993      -17.745064
 H        53.196625     -127.928986      -18.776262
 C        51.926880     -130.432709      -18.287214
 C        52.689037     -130.889313      -19.402943
 H        53.768700     -130.716507      -19.471979
 C        52.046608     -131.482681      -20.511547
 H        52.593979     -131.572937      -21.483829
 C        50.621704     -131.584900      -20.535936
 H        50.139580     -132.086731      -21.381060
 C        49.837845     -131.080276      -19.493149
 H        48.734856     -131.001770      -19.619068
 C        50.539627     -130.562897      -18.331631
 H        49.987827     -130.171051      -17.524057
 C        56.757820     -134.449524      -16.150711
 C        56.102783     -135.447083      -15.435179
 N        55.863083     -133.370270      -16.278532
 C        54.662529     -133.650406      -15.687607
 N        54.809143     -134.920502      -15.181786
 C        53.690430     -135.465134      -14.397331
 C        52.460342     -134.862030      -14.770523
 C        51.260441     -135.551361      -14.580933
 H        50.326744     -135.073471      -14.676495
 C        51.338291     -136.771820      -13.989046
 H        50.437798     -137.416504      -13.988026
 C        52.527969     -137.346634      -13.571499
 H        52.446121     -138.215881      -12.961218
 C        53.691071     -136.692169      -13.686720
 H        54.571098     -136.923950      -13.156712
 C        56.853584     -136.616821      -15.047173
 H        56.457138     -137.435562      -14.489616
 C        58.186039     -136.670547      -15.413324
 H        58.687916     -137.533386      -15.032881
 C        58.805996     -135.702545      -16.173529
 H        59.737484     -135.866455      -16.830170
 C        58.115578     -134.587769      -16.521105
 H        58.659222     -133.787186      -17.041216
 C        56.242741     -131.990631      -16.676897
 C        56.106834     -131.539230      -18.017178
 H        55.631847     -132.271622      -18.681776
 C        56.577438     -130.285568      -18.428246
 H        56.183823     -129.831284      -19.288237
 C        57.301888     -129.494904      -17.460869
 H        57.577618     -128.497345      -17.750933
 C        57.428562     -129.862122      -16.155607
 H        57.548195     -129.043106      -15.446095
 C        56.908070     -131.138107      -15.762224
 H        57.143600     -131.444412      -14.761824
 Ir       52.718521     -132.925507       -1.531921
 C        48.408089     -133.281982       -2.052253
 C        48.534184     -133.478256       -0.667131
 N        49.667439     -133.276093       -2.604152
 C        50.702339     -133.364761       -1.668138
 N        49.996979     -133.620407       -0.474985
 C        50.860329     -134.014160        0.589430
 C        52.264702     -133.881226        0.327578
 C        53.149601     -134.573822        1.250437
 H        54.177414     -134.730377        0.974413
 C        52.755180     -135.385864        2.251904
 H        53.493732     -136.087738        2.722767
 C        51.364349     -135.532944        2.499032
 H        51.125278     -136.168091        3.330861
 C        50.451061     -134.774323        1.765212
 H        49.554832     -134.470306        2.292515
 C        47.345840     -133.514526        0.135634
 H        47.516121     -133.340454        1.171637
 C        46.094601     -133.332199       -0.443979
 H        45.219887     -133.309036        0.196286
 C        45.985046     -133.164520       -1.867946
 H        44.975021     -133.116547       -2.245904
 C        47.113068     -133.171295       -2.644100
 H        46.953220     -133.324646       -3.724393
 C        49.884373     -133.794479       -3.924612
 C        49.828384     -132.949615       -5.059680
 H        50.155361     -131.951935       -4.928941
 C        49.675735     -133.571777       -6.280918
 H        49.838799     -132.838318       -7.073331
 C        49.600723     -134.962158       -6.468364
 H        49.122013     -135.408707       -7.404224
 C        49.669312     -135.764587       -5.348861
 H        49.989571     -136.723450       -5.505441
 C        49.823578     -135.170074       -4.085989
 H        49.920387     -135.771179       -3.249452
 C        52.566643     -129.248856        0.904891
 C        53.849350     -129.776581        1.057059
 N        51.895973     -130.192490        0.052447
 C        52.720631     -131.217880       -0.391302
 N        53.946434     -130.926086        0.232611
 C        55.085037     -131.706329       -0.252769
 C        54.737774     -132.827682       -1.058046
 C        55.774460     -133.525330       -1.580707
 H        55.547089     -134.324585       -2.265701
 C        57.105080     -133.125885       -1.439413
 H        57.892666     -133.802795       -1.715253
 C        57.458820     -132.088379       -0.574777
 H        58.502827     -131.774200       -0.608623
 C        56.465019     -131.360550        0.026307
 H        56.636982     -130.556305        0.635108
 C        54.729431     -129.070099        1.895243
 H        55.708042     -129.475708        2.044245
 C        54.387772     -127.912857        2.568623
 H        55.122292     -127.382759        3.129675
 C        53.041145     -127.365036        2.413067
 H        52.577377     -126.858162        3.245530
 C        52.203873     -128.092255        1.559458
 H        51.242157     -127.723114        1.318343
 C        50.459148     -130.132599        0.004027
 C        49.840836     -129.694824       -1.230451
 H        50.486843     -129.767761       -2.101398
 C        48.468632     -129.670776       -1.382020
 H        48.081886     -129.352875       -2.383256
 C        47.704140     -130.013489       -0.268379
 H        46.561707     -129.989944       -0.241901
 C        48.305550     -130.388123        0.951025
 H        47.602314     -130.515366        1.744164
 C        49.680508     -130.412506        1.078259
 H        49.994507     -130.880920        2.028040
 C        54.050293     -131.668457       -5.502464
 C        53.990585     -132.972076       -5.582487
 N        53.665474     -131.238419       -4.224506
 C        53.288574     -132.329193       -3.435167
 N        53.441353     -133.393555       -4.303735
 C        53.209274     -134.676956       -3.787200
 C        53.110474     -134.806702       -2.428413
 C        52.779823     -136.056519       -1.919372
 H        52.892044     -136.222076       -0.827955
 C        52.519264     -137.147354       -2.674144
 H        52.412277     -138.146072       -2.180059
 C        52.504688     -136.976807       -4.013431
 H        52.021427     -137.681549       -4.712204
 C        52.932102     -135.790131       -4.596975
 H        52.808723     -135.751801       -5.671548
 C        54.426605     -133.619827       -6.814806
 H        54.271873     -134.679382       -7.019735
 C        54.844292     -132.758789       -7.875909
 H        55.095383     -133.095490       -8.911373
 C        55.074890     -131.407959       -7.670330
 H        55.212643     -130.738892       -8.485310
 C        54.630230     -130.873627       -6.445716
 H        54.988766     -129.907928       -6.126081
 C        54.110394     -129.963135       -3.640298
 C        53.164734     -128.962631       -3.304428
 H        52.237072     -128.874146       -3.903692
 C        53.438377     -127.911003       -2.350435
 H        52.613205     -127.304131       -1.987533
 C        54.713135     -127.909531       -1.803449
 H        54.920544     -127.312576       -0.908504
 C        55.653702     -128.839661       -2.157253
 H        56.604256     -128.817917       -1.778728
 C        55.409508     -129.840683       -3.071599
 H        56.172142     -130.616577       -3.316095
