206
 generated by VMD
 Ir       43.445324      -23.025669     -121.402527
 C        39.754356      -25.164188     -121.774673
 C        39.373894      -23.915371     -121.362595
 N        41.170490      -25.261393     -121.779831
 C        41.692833      -24.039452     -121.327591
 N        40.618782      -23.219543     -121.113434
 C        40.950268      -21.842636     -120.843567
 C        42.298931      -21.533184     -120.631042
 C        42.673546      -20.294868     -120.101303
 H        43.738022      -20.017654     -119.908844
 C        41.705193      -19.280584     -119.792557
 H        41.992599      -18.316643     -119.266525
 C        40.339634      -19.631102     -119.993774
 H        39.676449      -18.756405     -119.930573
 C        40.005085      -20.885799     -120.496574
 H        38.873703      -21.088190     -120.499496
 C        37.998642      -23.591797     -121.243500
 H        37.733406      -22.579178     -121.057327
 C        37.036003      -24.564659     -121.546402
 H        35.971561      -24.437504     -121.322342
 C        37.464424      -25.822926     -122.009567
 H        36.829636      -26.612385     -122.261765
 C        38.757355      -26.158844     -122.084274
 H        38.941063      -27.197525     -122.469360
 C        41.809563      -26.442989     -121.437042
 C        41.941628      -26.907677     -120.123306
 H        41.561661      -26.320137     -119.308609
 C        42.468506      -28.192444     -119.809998
 H        42.651100      -28.398987     -118.774475
 C        42.996971      -28.997288     -120.873734
 H        43.360157      -29.981709     -120.757889
 C        42.998711      -28.489403     -122.193192
 H        43.741524      -28.844158     -122.849289
 C        42.305241      -27.267113     -122.434052
 H        41.971260      -26.964569     -123.453293
 C        42.786636      -20.145599     -124.680862
 C        44.027298      -19.847122     -124.191910
 N        42.388103      -21.337116     -124.014557
 C        43.305702      -21.896048     -123.169266
 N        44.404148      -20.971416     -123.272095
 C        45.490776      -21.243248     -122.511093
 C        45.191551      -21.804783     -121.282852
 C        46.045010      -21.549656     -120.159012
 H        45.655273      -21.836285     -119.182053
 C        47.272766      -20.932163     -120.343979
 H        47.852547      -20.681919     -119.487869
 C        47.625736      -20.478214     -121.617340
 H        48.719109      -20.217999     -121.682327
 C        46.722279      -20.578138     -122.720917
 H        47.104282      -20.231159     -123.720215
 C        44.606579      -18.615444     -124.557022
 H        45.503029      -18.290989     -124.178726
 C        44.012211      -17.792725     -125.499969
 H        44.480392      -16.932800     -125.922150
 C        42.791138      -18.128996     -126.026184
 H        42.309608      -17.486317     -126.737930
 C        42.160194      -19.335226     -125.628159
 H        41.223782      -19.678957     -125.932755
 C        40.965416      -21.779598     -124.131042
 C        40.657303      -23.043745     -124.664047
 H        41.484093      -23.685135     -124.802750
 C        39.403282      -23.505882     -124.865189
 H        39.202080      -24.381897     -125.402878
 C        38.325081      -22.645287     -124.597855
 H        37.357304      -22.994427     -124.977875
 C        38.611065      -21.384415     -124.030212
 H        37.775307      -20.713539     -124.001282
 C        39.908264      -20.957935     -123.770218
 H        39.995975      -20.008089     -123.248962
 C        45.927795      -26.295742     -122.706879
 C        45.944016      -26.364599     -121.340210
 N        45.167000      -25.166794     -123.060242
 C        44.770027      -24.515400     -121.932770
 N        45.320751      -25.193501     -120.848114
 C        44.957291      -24.718109     -119.513748
 C        43.777744      -23.961678     -119.537598
 C        42.943192      -23.954510     -118.459045
 H        42.015491      -23.481285     -118.524872
 C        43.348194      -24.638401     -117.294800
 H        42.703953      -24.647232     -116.379120
 C        44.574856      -25.291286     -117.222397
 H        44.950623      -25.688313     -116.289352
 C        45.408058      -25.332970     -118.331055
 H        46.356846      -25.781506     -118.214767
 C        46.477673      -27.600372     -120.847588
 H        46.575108      -27.768362     -119.799316
 C        47.003010      -28.612461     -121.713501
 H        47.400665      -29.502163     -121.246155
 C        47.015656      -28.515640     -123.050415
 H        47.381752      -29.453667     -123.549088
 C        46.485550      -27.323832     -123.582474
 H        46.780323      -27.127644     -124.614227
 C        45.350571      -24.537220     -124.364594
 C        44.137543      -24.340595     -125.083557
 H        43.337620      -24.961508     -124.917160
 C        43.973232      -23.412571     -126.186401
 H        42.958672      -23.163441     -126.585907
 C        45.116776      -22.742283     -126.544357
 H        45.139893      -22.193092     -127.540176
 C        46.358242      -22.970531     -125.853516
 H        47.265724      -22.585438     -126.282440
 C        46.458340      -23.863274     -124.745056
 H        47.433990      -24.005201     -124.270752
 Ir       43.445324      -23.025669     -107.113083
 C        47.457863      -22.264000     -108.750366
 C        46.839653      -20.995754     -108.525909
 N        46.469124      -23.265118     -108.319023
 C        45.339355      -22.601936     -107.846344
 N        45.542961      -21.244770     -108.096046
 C        44.435234      -20.424717     -108.232559
 C        43.295174      -20.970425     -107.655609
 C        42.197380      -20.180614     -107.595177
 H        41.581390      -20.312653     -106.722183
 C        42.145393      -18.928606     -108.237564
 H        41.180126      -18.500866     -108.126709
 C        43.255947      -18.438444     -108.945465
 H        43.163429      -17.712637     -109.773262
 C        44.432884      -19.175983     -108.909958
 H        45.125031      -19.008053     -109.618286
 C        47.636414      -19.876226     -108.566322
 H        47.156105      -18.979883     -108.257172
 C        48.989773      -20.008560     -108.837250
 H        49.681423      -19.119442     -108.828018
 C        49.588509      -21.235352     -109.081772
 H        50.645634      -21.281891     -109.112312
 C        48.815300      -22.377052     -109.060165
 H        49.340950      -23.342575     -109.092804
 C        46.546074      -24.585339     -108.957764
 C        46.818066      -25.745527     -108.174774
 H        46.934258      -25.651108     -107.135887
 C        46.825615      -26.929058     -108.827606
 H        46.847733      -27.813206     -108.273445
 C        46.617901      -27.082920     -110.219330
 H        46.495720      -28.058212     -110.689941
 C        46.370811      -25.910389     -110.991028
 H        46.343712      -25.904156     -112.052971
 C        46.350037      -24.660339     -110.337463
 H        45.835739      -23.889046     -110.896294
 C        43.930939      -22.009018     -102.993500
 C        42.613914      -22.281431     -103.130325
 N        44.446362      -22.034172     -104.243027
 C        43.560158      -22.284269     -105.185196
 N        42.321243      -22.305153     -104.494720
 C        41.166924      -22.744213     -105.268066
 C        41.431110      -23.025845     -106.604218
 C        40.348534      -23.341316     -107.475952
 H        40.513943      -23.779675     -108.511795
 C        39.032410      -23.524578     -106.951218
 H        38.234589      -23.720266     -107.687416
 C        38.826347      -23.275328     -105.583885
 H        37.776039      -23.155483     -105.259094
 C        39.877201      -22.813334     -104.802307
 H        39.658127      -22.598837     -103.793045
 C        41.845367      -22.339027     -101.940643
 H        40.927223      -22.809387     -101.881744
 C        42.472614      -22.215794     -100.705307
 H        41.851913      -21.936005      -99.908966
 C        43.839355      -22.006618     -100.617767
 H        44.396248      -22.249577      -99.756523
 C        44.589439      -21.844711     -101.783379
 H        45.606976      -21.455877     -101.653671
 C        45.916077      -21.956131     -104.451454
 C        46.509895      -20.711494     -104.499985
 H        45.787910      -19.895622     -104.526123
 C        47.905117      -20.578899     -104.727768
 H        48.225803      -19.586699     -104.942947
 C        48.636608      -21.701763     -105.050873
 H        49.573940      -21.521633     -105.578278
 C        48.013481      -22.949677     -104.960739
 H        48.625717      -23.752678     -105.220078
 C        46.665951      -23.162651     -104.626358
 H        46.126003      -23.934589     -105.168549
 C        43.744221      -27.303562     -106.417236
 C        43.548569      -27.195391     -107.767807
 N        43.617321      -26.035994     -105.858704
 C        43.438206      -25.083282     -106.876282
 N        43.322659      -25.840973     -108.015030
 C        42.883713      -25.119289     -109.128090
 C        43.088928      -23.774616     -109.031464
 C        43.210865      -23.044388     -110.212646
 H        43.303864      -21.950775     -110.231674
 C        43.044453      -23.642456     -111.475632
 H        43.405273      -23.175930     -112.381866
 C        42.670803      -24.960163     -111.602264
 H        42.374393      -25.420927     -112.525330
 C        42.573231      -25.741285     -110.410324
 H        41.912724      -26.592991     -110.387444
 C        43.773384      -28.341129     -108.613174
 H        43.506046      -28.184341     -109.664246
 C        44.291756      -29.551834     -108.078857
 H        44.532417      -30.363613     -108.792999
 C        44.540676      -29.619316     -106.730835
 H        45.032051      -30.449436     -106.296143
 C        44.184082      -28.538956     -105.877686
 H        44.460350      -28.749535     -104.831772
 C        43.195347      -25.750706     -104.426697
 C        44.073372      -25.726372     -103.334961
 H        45.103210      -25.719728     -103.637779
 C        43.615700      -25.768871     -101.997200
 H        44.354103      -25.822487     -101.264809
 C        42.225464      -25.822985     -101.706841
 H        41.886917      -25.986792     -100.720200
 C        41.345154      -25.856770     -102.800926
 H        40.293720      -25.764130     -102.620903
 C        41.850670      -25.827374     -104.132462
 H        41.125149      -25.959820     -104.937744
