206
 generated by VMD
 Ir      -24.504421      -52.727745      -77.753281
 C       -25.868282      -54.707611      -81.424484
 C       -24.656570      -55.276649      -81.200546
 N       -25.994751      -53.593239      -80.516800
 C       -24.984264      -53.567406      -79.590698
 N       -24.197016      -54.709610      -79.948761
 C       -23.277870      -55.059616      -78.960999
 C       -22.878510      -54.029396      -78.126282
 C       -21.638008      -54.024323      -77.440102
 H       -21.569073      -53.534904      -76.437286
 C       -20.750687      -55.102638      -77.648140
 H       -19.673231      -54.880714      -77.297516
 C       -21.110525      -56.232346      -78.435532
 H       -20.557339      -57.163429      -78.422714
 C       -22.406416      -56.197338      -79.077827
 H       -22.745983      -57.012596      -79.673347
 C       -24.123827      -56.255432      -82.147690
 H       -23.195368      -56.691772      -81.951294
 C       -24.924557      -56.647842      -83.210251
 H       -24.587137      -57.486008      -83.878326
 C       -26.182278      -56.111221      -83.335022
 H       -26.768585      -56.387367      -84.230843
 C       -26.638092      -55.145531      -82.454300
 H       -27.610023      -54.753906      -82.625977
 C       -26.639503      -52.360111      -80.921127
 C       -27.738211      -51.891808      -80.185638
 H       -27.882549      -52.312813      -79.190140
 C       -28.639538      -50.976555      -80.710075
 H       -29.585052      -50.796501      -80.226669
 C       -28.342243      -50.326149      -81.879303
 H       -29.014553      -49.574821      -82.350044
 C       -27.242165      -50.789429      -82.651840
 H       -27.064182      -50.457851      -83.669022
 C       -26.372776      -51.770954      -82.161865
 H       -25.648594      -52.287407      -82.744995
 C       -26.470497      -55.624870      -75.220657
 C       -25.745045      -54.857658      -74.344818
 N       -26.115543      -55.254654      -76.528351
 C       -25.196239      -54.181816      -76.445923
 N       -24.956455      -53.998680      -75.114014
 C       -24.000553      -53.014221      -74.831711
 C       -23.789303      -52.060875      -75.871231
 C       -23.254059      -50.834572      -75.652618
 H       -23.238834      -50.110626      -76.493011
 C       -22.951563      -50.437134      -74.332489
 H       -22.682243      -49.433598      -74.013596
 C       -22.996201      -51.378971      -73.266357
 H       -22.513075      -51.134445      -72.289581
 C       -23.525013      -52.689278      -73.552811
 H       -23.189850      -53.499863      -73.102570
 C       -25.885990      -55.145866      -72.969513
 H       -25.243603      -54.508423      -72.332947
 C       -26.853149      -56.008141      -72.463745
 H       -26.768429      -56.431137      -71.473541
 C       -27.715618      -56.675461      -73.355392
 H       -28.347212      -57.484947      -72.989304
 C       -27.463097      -56.442421      -74.698975
 H       -27.962753      -57.039787      -75.408478
 C       -26.372757      -56.193451      -77.574829
 C       -27.373554      -55.902054      -78.484489
 H       -27.893459      -54.943184      -78.578667
 C       -27.650562      -56.936508      -79.407028
 H       -28.387869      -56.765511      -80.204552
 C       -26.968828      -58.150558      -79.392792
 H       -27.183088      -58.883667      -80.169556
 C       -25.945290      -58.334801      -78.483932
 H       -25.210217      -59.197624      -78.654846
 C       -25.615051      -57.391376      -77.490814
 H       -25.105444      -57.619781      -76.606934
 C       -27.598961      -49.814095      -77.213043
 C       -26.780159      -49.349724      -78.226318
 N       -27.133343      -51.041000      -76.817192
 C       -25.922388      -51.291962      -77.500137
 N       -25.732237      -50.233856      -78.358887
 C       -24.455578      -50.097076      -78.989464
 C       -23.558020      -51.092339      -78.786407
 C       -22.308214      -51.067345      -79.403473
 H       -21.695087      -51.977020      -79.072464
 C       -21.943024      -49.966118      -80.260696
 H       -21.018227      -50.029751      -80.739853
 C       -22.812759      -48.909206      -80.416565
 H       -22.570030      -48.171120      -81.146774
 C       -24.070230      -49.027863      -79.812500
 H       -24.662767      -48.082886      -79.832977
 C       -27.216661      -48.230225      -78.927155
 H       -26.556183      -47.658447      -79.559250
 C       -28.383644      -47.491089      -78.602760
 H       -28.826683      -46.654961      -79.196564
 C       -29.242016      -48.017906      -77.577835
 H       -30.118721      -47.482376      -77.273041
 C       -28.861717      -49.176300      -76.932938
 H       -29.530727      -49.499107      -76.197189
 C       -27.638565      -51.696686      -75.764320
 C       -28.807194      -52.444473      -75.895508
 H       -29.230011      -52.635025      -76.927505
 C       -29.508495      -52.822605      -74.742043
 H       -30.356586      -53.390099      -74.861206
 C       -28.999516      -52.609444      -73.485184
 H       -29.723106      -52.802746      -72.704193
 C       -27.821117      -51.932961      -73.376801
 H       -27.167965      -52.042309      -72.466064
 C       -27.089626      -51.430344      -74.498764
 H       -26.304714      -50.689823      -74.250488
 Ir      -24.504421      -52.727745      -64.641884
 C       -24.027214      -48.864056      -62.828613
 C       -23.123093      -49.638695      -62.141953
 N       -24.517151      -49.598850      -63.915375
 C       -24.009491      -50.895714      -63.940395
 N       -23.107275      -50.920418      -62.863228
 C       -22.656734      -52.160820      -62.453568
 C       -23.309830      -53.291718      -62.990162
 C       -22.808590      -54.535950      -62.652020
 H       -23.327871      -55.389454      -62.981384
 C       -21.686169      -54.672043      -61.732971
 H       -21.226950      -55.621643      -61.623589
 C       -21.159931      -53.521820      -61.214638
 H       -20.563517      -53.477711      -60.360741
 C       -21.605190      -52.304573      -61.575962
 H       -21.081394      -51.391273      -61.357071
 C       -22.504595      -49.143356      -60.974991
 H       -21.685581      -49.677345      -60.472023
 C       -22.921776      -47.882248      -60.422485
 H       -22.400225      -47.439537      -59.557735
 C       -23.837845      -47.120308      -61.149101
 H       -23.913670      -46.044525      -60.962696
 C       -24.365501      -47.597916      -62.358879
 H       -24.976379      -46.961411      -62.961693
 C       -25.374941      -48.985592      -64.897522
 C       -26.748646      -48.829987      -64.608688
 H       -27.001305      -48.794586      -63.560635
 C       -27.654068      -48.417542      -65.592865
 H       -28.738621      -48.286285      -65.345230
 C       -27.169369      -48.250130      -66.877396
 H       -27.943310      -48.173595      -67.618927
 C       -25.786459      -48.392639      -67.150620
 H       -25.334940      -47.970993      -68.078003
 C       -24.883186      -48.791588      -66.170090
 H       -23.795038      -48.671890      -66.451004
 C       -21.084620      -53.570946      -67.091385
 C       -21.602207      -54.804821      -66.827271
 N       -21.884239      -52.625473      -66.439323
 C       -22.939816      -53.237183      -65.886627
 N       -22.800438      -54.549229      -66.162125
 C       -23.826530      -55.396011      -65.756302
 C       -24.863132      -54.780472      -65.033630
 C       -26.066170      -55.472595      -64.691620
 H       -26.948158      -54.913910      -64.435165
 C       -26.215004      -56.833042      -65.140877
 H       -27.200489      -57.312302      -65.099304
 C       -25.184851      -57.408100      -65.874496
 H       -25.259960      -58.479248      -65.982178
 C       -24.023510      -56.721405      -66.129715
 H       -23.354538      -57.208481      -66.845840
 C       -20.841160      -55.915157      -66.914780
 H       -21.402122      -56.815918      -66.763588
 C       -19.485983      -55.805916      -67.254715
 H       -19.054007      -56.772697      -67.467133
 C       -18.940609      -54.597435      -67.629204
 H       -17.941818      -54.706581      -68.101013
 C       -19.745506      -53.468575      -67.556999
 H       -19.337437      -52.506416      -67.829651
 C       -21.295540      -51.445229      -65.874123
 C       -20.531952      -51.559364      -64.717049
 H       -20.156717      -52.532921      -64.454781
 C       -19.933855      -50.397640      -64.116226
 H       -19.442175      -50.358555      -63.164322
 C       -19.927694      -49.232376      -64.853874
 H       -19.362190      -48.345016      -64.426445
 C       -20.553066      -49.127506      -66.071869
 H       -20.715496      -48.131195      -66.485123
 C       -21.301308      -50.249142      -66.572937
 H       -21.928440      -50.225388      -67.459244
 C       -27.352509      -51.652199      -67.758881
 C       -28.013342      -51.575523      -66.536789
 N       -26.089062      -52.080223      -67.427536
 C       -25.940056      -52.357330      -66.072388
 N       -27.164696      -51.996426      -65.550461
 C       -27.254034      -51.896095      -64.166397
 C       -26.195393      -52.488838      -63.473618
 C       -26.270084      -52.527683      -62.064713
 H       -25.908726      -53.445030      -61.668480
 C       -27.263805      -51.880524      -61.387444
 H       -27.182419      -51.678719      -60.304459
 C       -28.336933      -51.288177      -62.045715
 H       -29.176811      -50.710724      -61.580036
 C       -28.279671      -51.271690      -63.444805
 H       -29.055004      -50.681091      -63.873699
 C       -29.331188      -51.124489      -66.586342
 H       -29.987286      -51.474289      -65.848389
 C       -29.811134      -50.493904      -67.754593
 H       -30.512955      -49.711254      -67.625710
 C       -29.030861      -50.509735      -68.931625
 H       -29.407249      -50.006573      -69.727402
 C       -27.816257      -51.187370      -68.919350
 H       -27.192968      -51.188271      -69.811371
 C       -25.155609      -52.534088      -68.423561
 C       -25.050903      -53.922470      -68.659424
 H       -25.703581      -54.573219      -68.132225
 C       -24.062653      -54.514862      -69.405029
 H       -23.948215      -55.509430      -69.368469
 C       -23.083559      -53.683411      -69.949615
 H       -22.294960      -54.216148      -70.384140
 C       -23.092327      -52.268837      -69.728249
 H       -22.108418      -51.806511      -69.831558
 C       -24.103489      -51.708466      -68.923050
 H       -24.031906      -50.693283      -68.663864
