206
 generated by VMD
 Ir       -7.570121      -44.996311       50.976723
 C        -7.781700      -41.409538       48.515141
 C        -6.551134      -41.321709       49.108932
 N        -8.434605      -42.528847       49.043022
 C        -7.632929      -43.187836       49.961800
 N        -6.465597      -42.426895       50.004387
 C        -5.405533      -42.944874       50.800476
 C        -5.624940      -44.245018       51.308887
 C        -4.550233      -44.922817       51.891808
 H        -4.707729      -45.889748       52.347919
 C        -3.270356      -44.366261       51.947117
 H        -2.461633      -44.903748       52.413139
 C        -3.058823      -43.088047       51.431152
 H        -2.057444      -42.689369       51.374603
 C        -4.122659      -42.365471       50.905476
 H        -4.009296      -41.293839       50.800346
 C        -5.690988      -40.263714       48.741646
 H        -4.724902      -40.147865       49.185555
 C        -6.089874      -39.334778       47.771046
 H        -5.426069      -38.523083       47.502686
 C        -7.334360      -39.447182       47.157188
 H        -7.634474      -38.757534       46.381226
 C        -8.187548      -40.492886       47.534508
 H        -9.143593      -40.593002       47.034458
 C        -9.862974      -42.674919       48.956856
 C       -10.657102      -42.159775       49.983444
 H       -10.209633      -41.850365       50.908989
 C       -12.035342      -42.027054       49.790211
 H       -12.649454      -41.658638       50.594475
 C       -12.621828      -42.416485       48.582611
 H       -13.677948      -42.256668       48.411827
 C       -11.830440      -42.960567       47.563454
 H       -12.287292      -43.269981       46.634449
 C       -10.454076      -43.093285       47.755993
 H        -9.833273      -43.509930       46.968269
 C        -5.897393      -47.563324       47.856045
 C        -6.022327      -48.391121       48.946571
 N        -6.283595      -46.280563       48.267601
 C        -6.687567      -46.264324       49.594643
 N        -6.516957      -47.586620       49.999149
 C        -6.937695      -47.875572       51.342758
 C        -7.182534      -46.729351       52.122520
 C        -7.352582      -46.885918       53.508873
 H        -7.436944      -46.020538       54.142433
 C        -7.325299      -48.157127       54.099785
 H        -7.391852      -48.257874       55.176502
 C        -7.139178      -49.291061       53.305840
 H        -7.095048      -50.276482       53.764328
 C        -6.961576      -49.153793       51.927902
 H        -6.958977      -50.037544       51.313759
 C        -5.669353      -49.748177       48.798595
 H        -5.682029      -50.421875       49.642445
 C        -5.227774      -50.250233       47.571915
 H        -4.948606      -51.285339       47.479595
 C        -5.122201      -49.390862       46.476089
 H        -4.779482      -49.762836       45.517559
 C        -5.463371      -48.046089       46.620949
 H        -5.441600      -47.389961       45.752430
 C        -5.961705      -45.095573       47.510117
 C        -4.733095      -44.459915       47.733398
 H        -4.043506      -44.845390       48.464748
 C        -4.396093      -43.313499       46.992744
 H        -3.472386      -42.797028       47.204693
 C        -5.288614      -42.812393       46.031288
 H        -5.016626      -41.935932       45.466980
 C        -6.511178      -43.445412       45.820518
 H        -7.215909      -43.045013       45.101326
 C        -6.844844      -44.594467       46.552124
 H        -7.793702      -45.088089       46.379486
 C       -11.739393      -46.183727       50.548561
 C       -11.738138      -45.353043       51.643719
 N       -10.407021      -46.331001       50.143478
 C        -9.543348      -45.624527       50.951912
 N       -10.368872      -45.035782       51.890202
 C        -9.707306      -44.313244       52.928841
 C        -8.384843      -43.953476       52.637360
 C        -7.712801      -43.079369       53.503036
 H        -6.686824      -42.805378       53.293037
 C        -8.334447      -42.572948       54.639961
 H        -7.789477      -41.915619       55.301037
 C        -9.644220      -42.959015       54.954842
 H       -10.098936      -42.618614       55.870247
 C       -10.332317      -43.827839       54.103806
 H       -11.264278      -44.245590       54.434616
 C       -12.958866      -44.991631       52.237434
 H       -12.994986      -44.290108       53.058144
 C       -14.169909      -45.502121       51.741013
 H       -15.102669      -45.249664       52.218533
 C       -14.156935      -46.357376       50.636169
 H       -15.079866      -46.763496       50.248661
 C       -12.942848      -46.689857       50.031563
 H       -12.939663      -47.319496       49.155640
 C        -9.995167      -47.324848       49.170876
 C        -9.767347      -48.637497       49.593662
 H        -9.860865      -48.891758       50.627880
 C        -9.341286      -49.589203       48.669254
 H        -9.141449      -50.602859       48.994484
 C        -9.134576      -49.237907       47.328003
 H        -8.769466      -49.971001       46.626747
 C        -9.365732      -47.922615       46.914268
 H        -9.216801      -47.654343       45.874290
 C        -9.790878      -46.961262       47.836197
 H        -9.949849      -45.950249       47.515755
 Ir       -7.570121      -44.996315       61.673214
 C        -5.485421      -48.018127       63.997509
 C        -4.813422      -46.843742       64.256195
 N        -6.423393      -47.743332       62.985878
 C        -6.381794      -46.412308       62.612858
 N        -5.352843      -45.877831       63.377708
 C        -4.967052      -44.546005       63.053989
 C        -5.910517      -43.834206       62.288540
 C        -5.619466      -42.512020       61.932709
 H        -6.286968      -41.972115       61.285992
 C        -4.415810      -41.906906       62.310402
 H        -4.209369      -40.883720       62.010624
 C        -3.471720      -42.626625       63.045250
 H        -2.520211      -42.175026       63.297428
 C        -3.747342      -43.946175       63.417049
 H        -2.954364      -44.527519       63.867962
 C        -3.851756      -46.824707       65.290283
 H        -3.383314      -45.902817       65.580757
 C        -3.566597      -47.980984       66.020088
 H        -2.803024      -47.961258       66.782043
 C        -4.248266      -49.172943       65.729805
 H        -3.925275      -50.092674       66.183533
 C        -5.219940      -49.184052       64.722870
 H        -5.767776      -50.093552       64.532112
 C        -6.989244      -48.775322       62.150166
 C        -6.437647      -49.007309       60.885242
 H        -5.557437      -48.474632       60.579170
 C        -7.046124      -49.918274       60.020607
 H        -6.647290      -50.056122       59.025505
 C        -8.185923      -50.619183       60.423710
 H        -8.657318      -51.321289       59.736519
 C        -8.729050      -50.396832       61.694565
 H        -9.610173      -50.939163       62.003117
 C        -8.129042      -49.476227       62.553268
 H        -8.554794      -49.287506       63.534657
 C       -10.062061      -43.690060       64.992325
 C       -10.400072      -42.869965       63.943333
 N        -8.948164      -44.442444       64.572754
 C        -8.584974      -44.137650       63.269604
 N        -9.476274      -43.129059       62.911938
 C        -9.269232      -42.555813       61.627598
 C        -8.496798      -43.332184       60.746582
 C        -8.378177      -42.929100       59.412994
 H        -7.760520      -43.486862       58.720535
 C        -9.014425      -41.776863       58.941692
 H        -8.891529      -41.471733       57.914513
 C        -9.767181      -40.990845       59.827148
 H       -10.245569      -40.092014       59.476929
 C        -9.877930      -41.371994       61.168293
 H       -10.326004      -40.684479       61.863312
 C       -11.543083      -42.045918       64.066063
 H       -11.904953      -41.480850       63.226330
 C       -12.304800      -42.056885       65.236008
 H       -13.192617      -41.437332       65.302536
 C       -11.949852      -42.896271       66.296875
 H       -12.530022      -42.918938       67.205658
 C       -10.815308      -43.710670       66.168213
 H       -10.553062      -44.374832       66.989075
 C        -8.141989      -45.190880       65.508240
 C        -7.110834      -44.548584       66.209290
 H        -6.853887      -43.534122       65.974876
 C        -6.394288      -45.246956       67.185532
 H        -5.605869      -44.734520       67.735535
 C        -6.676500      -46.580620       67.459564
 H        -6.069288      -47.133617       68.154175
 C        -7.708569      -47.232567       66.760986
 H        -7.924935      -48.267227       66.972054
 C        -8.434497      -46.534191       65.781288
 H        -9.216870      -47.043983       65.243790
 C       -10.761784      -47.400875       59.894226
 C        -9.727833      -47.490608       58.997681
 N       -10.326645      -46.572132       60.939953
 C        -9.038738      -46.122810       60.742207
 N        -8.680124      -46.670444       59.509289
 C        -7.443414      -46.213528       58.958950
 C        -6.591668      -45.589386       59.886459
 C        -5.284583      -45.275314       59.492142
 H        -4.588055      -44.867950       60.204674
 C        -4.843154      -45.519592       58.179142
 H        -3.860694      -45.200935       57.884811
 C        -5.716685      -46.099869       57.252903
 H        -5.403209      -46.247368       56.229149
 C        -7.018012      -46.428871       57.631599
 H        -7.728986      -46.691559       56.871525
 C        -9.880720      -48.299362       57.851276
 H        -9.047089      -48.467758       57.180084
 C       -11.083296      -48.971882       57.615196
 H       -11.207527      -49.545372       56.709068
 C       -12.134811      -48.854935       58.530479
 H       -13.069441      -49.373131       58.348160
 C       -11.967693      -48.070747       59.667198
 H       -12.797422      -47.960220       60.356712
 C       -11.181131      -46.207748       62.043530
 C       -11.142618      -46.979397       63.211079
 H       -10.412719      -47.768902       63.312725
 C       -12.053694      -46.722946       64.236885
 H       -12.000395      -47.288704       65.161964
 C       -13.005110      -45.714134       64.100098
 H       -13.715307      -45.524612       64.899033
 C       -13.043621      -44.942490       62.932545
 H       -13.739922      -44.118767       62.855404
 C       -12.131632      -45.189293       61.904259
 H       -12.144371      -44.577026       61.013714
