206
 generated by VMD
 Ir       23.063578      104.563477      -52.682365
 C        23.308636      102.486847      -56.461914
 C        23.247196      103.823380      -56.809479
 N        23.394142      102.396179      -55.078377
 C        23.324156      103.650696      -54.546967
 N        23.262695      104.495895      -55.608315
 C        23.279840      105.903725      -55.224892
 C        22.859489      106.233093      -53.906742
 C        22.591427      107.559708      -53.582142
 H        22.041815      107.743530      -52.634811
 C        22.875147      108.589951      -54.491806
 H        22.701529      109.564270      -54.201546
 C        23.399307      108.282738      -55.748856
 H        24.021828      108.913818      -56.361061
 C        23.660839      106.964821      -56.104790
 H        24.495235      106.840088      -56.811066
 C        23.004021      104.217682      -58.133446
 H        22.825188      105.277092      -58.421661
 C        22.886238      103.243736      -59.141533
 H        22.600029      103.520782      -60.173111
 C        22.943104      101.888962      -58.753395
 H        22.668499      101.226044      -59.530914
 C        23.103523      101.515945      -57.409477
 H        23.051651      100.443497      -57.217216
 C        23.164658      101.052292      -54.471180
 C        24.238789      100.158798      -54.179939
 H        25.268219      100.355103      -54.384720
 C        23.899601       98.931305      -53.670799
 H        24.631512       98.357536      -53.200485
 C        22.528175       98.576462      -53.467411
 H        22.141008       97.698639      -52.979012
 C        21.521511       99.500793      -53.732250
 H        20.500126       99.178955      -53.420326
 C        21.795576      100.750443      -54.199341
 H        20.999752      101.525360      -54.192108
 C        27.146008      105.822342      -51.582169
 C        26.347046      106.276779      -50.654678
 N        26.289692      105.177658      -52.466377
 C        24.962753      105.169022      -52.122055
 N        25.003540      105.833282      -50.877388
 C        23.792519      105.961494      -50.133148
 C        22.696024      105.691689      -50.940002
 C        21.435387      106.164764      -50.558960
 H        20.590748      105.775101      -51.100471
 C        21.252346      106.877243      -49.381935
 H        20.283619      107.164825      -49.090794
 C        22.278210      107.157471      -48.573441
 H        22.135139      107.621902      -47.572418
 C        23.546448      106.665283      -48.932640
 H        24.388374      106.793480      -48.188580
 C        26.811497      107.217270      -49.686607
 H        26.199207      107.993546      -49.165161
 C        28.167110      107.582138      -49.660538
 H        28.520485      108.325409      -48.867592
 C        28.995781      107.073822      -50.672981
 H        30.003780      107.410873      -50.866203
 C        28.463181      106.192841      -51.661415
 H        29.123138      105.826157      -52.427116
 C        26.883951      104.553802      -53.631130
 C        27.537203      103.333649      -53.534191
 H        27.384464      102.639160      -52.715134
 C        28.042126      102.729767      -54.709892
 H        28.568878      101.828873      -54.651291
 C        28.033985      103.335609      -55.976341
 H        28.288364      102.854248      -56.893555
 C        27.439381      104.586166      -56.057922
 H        27.665098      105.323227      -56.810181
 C        26.865047      105.220016      -54.891365
 H        26.213593      106.119164      -55.004242
 C        22.791363      100.955788      -50.268345
 C        21.529428      101.070435      -50.768223
 N        23.476746      102.117691      -50.634842
 C        22.777550      102.959015      -51.395233
 N        21.533134      102.293137      -51.425785
 C        20.514450      103.088852      -52.119476
 C        21.007870      104.098686      -53.014671
 C        20.106163      104.563393      -53.942558
 H        20.301247      105.394730      -54.601677
 C        18.845917      104.036072      -54.011189
 H        18.317631      104.332245      -54.859360
 C        18.311924      103.086617      -53.113144
 H        17.344814      102.657455      -53.193314
 C        19.186308      102.704880      -52.121464
 H        18.735907      102.364410      -51.250763
 C        20.593025      100.001900      -50.585220
 H        19.607098      100.151306      -50.944698
 C        21.040478       98.907768      -49.912643
 H        20.233803       98.213242      -49.630676
 C        22.311325       98.813538      -49.402576
 H        22.767803       97.830574      -49.166985
 C        23.283043       99.859917      -49.630989
 H        24.328190       99.793030      -49.439693
 C        24.574411      102.627274      -49.838371
 C        24.311052      103.203796      -48.573792
 H        23.278378      103.326767      -48.161766
 C        25.334389      103.655167      -47.742859
 H        25.066795      104.320259      -46.976212
 C        26.651381      103.399704      -48.177452
 H        27.426376      103.606949      -47.464554
 C        26.959850      102.804947      -49.395851
 H        27.756924      102.221992      -49.592678
 C        25.902996      102.481270      -50.286530
 H        26.065456      102.147148      -51.280998
 Ir       23.063580      104.563477      -42.508713
 C        23.644060      106.962387      -38.821442
 C        22.321476      106.600136      -38.783463
 N        24.141182      106.533981      -40.106445
 C        23.221603      105.864563      -40.875824
 N        22.033627      105.985397      -40.068230
 C        20.859852      105.379852      -40.546741
 C        21.073484      104.597008      -41.727303
 C        19.973114      103.859848      -42.232056
 H        20.049370      103.135681      -42.997543
 C        18.785664      103.826469      -41.518372
 H        18.194344      102.959885      -41.718300
 C        18.614992      104.578033      -40.361816
 H        17.725246      104.396965      -39.789394
 C        19.616579      105.435089      -39.873451
 H        19.468315      106.282600      -39.272591
 C        21.600910      106.696243      -37.569523
 H        20.571182      106.636322      -37.451336
 C        22.259483      106.985641      -36.359634
 H        21.849169      106.484879      -35.487457
 C        23.645634      107.236252      -36.425842
 H        24.069595      107.336235      -35.455711
 C        24.347153      107.309982      -37.649376
 H        25.257603      107.854233      -37.691444
 C        25.384769      107.066902      -40.604027
 C        26.660011      106.364960      -40.489891
 H        26.930984      105.530136      -39.858650
 C        27.737711      106.734955      -41.301224
 H        28.625420      106.297119      -41.141632
 C        27.668133      107.787369      -42.201332
 H        28.536011      108.019272      -42.758301
 C        26.449303      108.520592      -42.280258
 H        26.588287      109.448364      -42.798836
 C        25.341881      108.136681      -41.562325
 H        24.447010      108.683548      -41.747650
 C        22.964396      100.748558      -40.469009
 C        22.883511      100.407021      -41.893517
 N        23.271240      102.110321      -40.423599
 C        23.284882      102.679245      -41.615463
 N        22.989853      101.642326      -42.479614
 C        22.730942      101.964951      -43.842510
 C        22.363121      103.248505      -44.061134
 C        21.690090      103.641525      -45.232059
 H        21.433865      104.703979      -45.458626
 C        21.536705      102.629784      -46.192146
 H        21.196575      102.958527      -47.191769
 C        21.933014      101.272812      -46.047676
 H        21.910233      100.584694      -46.916565
 C        22.523434      100.931061      -44.858093
 H        23.140926      100.035812      -44.890236
 C        22.591789       99.091721      -42.251518
 H        22.360374       98.840134      -43.233582
 C        22.542469       98.143127      -41.278709
 H        22.491585       97.111038      -41.541389
 C        22.588963       98.432541      -39.906166
 H        22.579517       97.642471      -39.197708
 C        22.766024       99.799973      -39.513012
 H        23.109905      100.010284      -38.546673
 C        23.562840      102.803680      -39.172073
 C        24.858219      103.336662      -38.968781
 H        25.596554      103.430847      -39.715637
 C        25.232327      103.728561      -37.735027
 H        26.257889      104.148163      -37.637779
 C        24.272480      103.827263      -36.719425
 H        24.546310      104.364220      -35.845814
 C        22.965801      103.474991      -36.911762
 H        22.219772      103.413818      -36.096718
 C        22.575809      102.981430      -38.183147
 H        21.667633      102.378517      -38.339706
 C        26.885418      104.697052      -44.541397
 C        26.255669      105.874176      -44.935982
 N        26.004799      103.987366      -43.692947
 C        24.871620      104.699760      -43.549774
 N        25.038544      105.836884      -44.316128
 C        23.831299      106.645683      -44.497795
 C        22.765968      106.314758      -43.706924
 C        21.711014      107.193954      -43.632751
 H        20.678619      106.882538      -43.312454
 C        21.780823      108.397980      -44.251823
 H        21.011963      109.145569      -43.948235
 C        22.898514      108.817932      -45.060837
 H        22.846367      109.760483      -45.490807
 C        23.903484      107.844917      -45.227188
 H        24.414814      107.960808      -46.191971
 C        26.909779      106.773239      -45.828346
 H        26.570171      107.761002      -45.940163
 C        28.226196      106.431778      -46.168579
 H        28.959103      107.086327      -46.688786
 C        28.793743      105.185593      -45.757828
 H        29.746044      104.882797      -46.171036
 C        28.084675      104.290863      -45.002800
 H        28.603302      103.366966      -44.782936
 C        26.335514      102.620422      -43.323761
 C        27.022776      102.449814      -42.100540
 H        27.504181      103.288193      -41.639801
 C        27.230255      101.184525      -41.709412
 H        27.499367      101.016510      -40.704697
 C        26.867241      100.074646      -42.416862
 H        26.770206       99.169899      -41.824059
 C        26.345690      100.242645      -43.681725
 H        25.608040       99.475098      -43.922638
 C        26.040146      101.513580      -44.184883
 H        25.572926      101.581253      -45.217613
