206
 generated by VMD
 Ir     -101.349319       -3.989173     -118.589874
 C      -100.999878       -5.246696     -114.484085
 C      -101.655197       -6.307059     -115.093262
 N      -100.888428       -4.226333     -115.460327
 C      -101.472862       -4.525004     -116.617310
 N      -101.926193       -5.802047     -116.375336
 C      -102.256241       -6.499415     -117.576233
 C      -102.065552       -5.957973     -118.828064
 C      -102.355812       -6.521125     -120.060623
 H      -102.191925       -6.074016     -121.057541
 C      -103.066879       -7.722159     -120.016113
 H      -103.487503       -8.230594     -120.924774
 C      -103.341202       -8.354011     -118.810455
 H      -103.724854       -9.361701     -118.706657
 C      -102.960327       -7.728038     -117.605148
 H      -103.321747       -8.213878     -116.726883
 C      -101.729256       -7.501063     -114.455482
 H      -102.052689       -8.340030     -114.988235
 C      -101.227417       -7.691268     -113.118546
 H      -101.379715       -8.537341     -112.522263
 C      -100.598358       -6.594977     -112.532181
 H      -100.168320       -6.597205     -111.496109
 C      -100.485283       -5.429248     -113.215561
 H      -100.296021       -4.561084     -112.613922
 C      -100.767960       -2.875777     -114.918457
 C       -99.444214       -2.357127     -114.682297
 H       -98.618767       -3.066863     -114.733414
 C       -99.237762       -1.023986     -114.595642
 H       -98.202011       -0.682697     -114.636230
 C      -100.332291       -0.168689     -114.619370
 H      -100.045212        0.800763     -114.343430
 C      -101.655754       -0.675044     -114.683067
 H      -102.567581       -0.030204     -114.415558
 C      -101.893799       -2.035083     -114.863419
 H      -102.902405       -2.415569     -115.156937
 C       -97.293541       -5.276393     -119.278458
 C       -97.654099       -4.461680     -120.320389
 N       -98.461777       -5.460948     -118.531616
 C       -99.527725       -4.875281     -119.166412
 N       -99.011696       -4.346099     -120.307770
 C      -100.041290       -3.857108     -121.202423
 C      -101.255432       -3.558357     -120.627960
 C      -102.359711       -3.175533     -121.428543
 H      -103.313362       -2.942371     -120.972168
 C      -102.240044       -3.126460     -122.848068
 H      -103.113235       -3.151592     -123.461105
 C      -101.029579       -3.326694     -123.372742
 H      -100.720650       -3.128539     -124.402603
 C       -99.929764       -3.737567     -122.589294
 H       -99.096161       -3.748904     -123.149963
 C       -96.657623       -4.018680     -121.229721
 H       -96.888275       -3.119087     -121.761353
 C       -95.320267       -4.390403     -121.074478
 H       -94.632088       -3.875552     -121.735046
 C       -94.982788       -5.184257     -119.973099
 H       -93.924576       -5.495498     -119.861694
 C       -95.962906       -5.698184     -119.062805
 H       -95.727570       -6.339759     -118.195908
 C       -98.559402       -6.460681     -117.516876
 C       -98.671890       -7.769958     -117.959068
 H       -99.406113       -7.893840     -118.756042
 C       -97.922348       -8.844546     -117.532974
 H       -97.983063       -9.850844     -117.930176
 C       -97.102707       -8.632556     -116.476303
 H       -96.411407       -9.420878     -116.299522
 C       -97.082047       -7.359206     -115.875427
 H       -96.456383       -7.120818     -115.080055
 C       -97.764145       -6.270942     -116.335663
 H       -97.632065       -5.229403     -116.008926
 C      -100.392509        0.324605     -118.354622
 C      -101.699997        0.188470     -118.006989
 N       -99.902626       -0.993438     -118.670822
 C      -100.926407       -1.972881     -118.487350
 N      -102.080261       -1.163696     -118.098953
 C      -103.308838       -1.719199     -118.305405
 C      -103.288437       -3.098678     -118.287689
 C      -104.483665       -3.881351     -118.451920
 H      -104.396782       -4.940490     -118.707611
 C      -105.719940       -3.191589     -118.704803
 H      -106.634613       -3.795745     -118.691483
 C      -105.750214       -1.847110     -118.744370
 H      -106.634750       -1.317275     -118.996307
 C      -104.562675       -1.093414     -118.507324
 H      -104.781937       -0.045421     -118.379898
 C      -102.405373        1.323605     -117.533600
 H      -103.356384        1.139745     -117.101425
 C      -101.731277        2.544816     -117.438019
 H      -102.324890        3.440495     -117.185455
 C      -100.364822        2.700898     -117.734406
 H       -99.872498        3.664086     -117.770279
 C       -99.696716        1.573632     -118.240189
 H       -98.640350        1.606145     -118.527817
 C       -98.598999       -1.258334     -119.207260
 C       -97.694580       -1.879699     -118.355133
 H       -98.056519       -2.246158     -117.397842
 C       -96.351654       -1.801048     -118.658722
 H       -95.567825       -2.171149     -118.017365
 C       -95.906067       -1.058604     -119.821533
 H       -94.916885       -0.883777     -120.114563
 C       -96.861221       -0.457645     -120.691254
 H       -96.538452        0.246564     -121.444122
 C       -98.183304       -0.615112     -120.316574
 H       -98.888519       -0.153201     -121.035339
 Ir     -101.349319       -3.989173     -102.718887
 C       -98.366356       -6.733462     -100.828979
 C       -97.679489       -5.704450     -101.291969
 N       -99.725716       -6.527736     -101.308060
 C       -99.882767       -5.337226     -102.014191
 N       -98.579529       -4.837363     -101.981316
 C       -98.384949       -3.643123     -102.779327
 C       -99.554642       -2.884506     -102.934631
 C       -99.443329       -1.462608     -103.102859
 H      -100.316589       -0.910518     -103.464249
 C       -98.169746       -0.870017     -103.109009
 H       -98.143402        0.204640     -103.112610
 C       -97.013275       -1.662719     -103.057953
 H       -96.017731       -1.266254     -102.921509
 C       -97.180420       -3.047775     -102.964722
 H       -96.326141       -3.671287     -103.176254
 C       -96.326370       -5.612311     -100.884552
 H       -95.753113       -4.717055     -101.274033
 C       -95.782059       -6.392941      -99.934647
 H       -94.895950       -6.112369      -99.416382
 C       -96.511597       -7.456958      -99.455765
 H       -96.060928       -8.163434      -98.719704
 C       -97.835602       -7.612390      -99.930603
 H       -98.360901       -8.553792      -99.910141
 C      -100.775177       -7.410733     -100.855453
 C      -101.181763       -7.462377      -99.526276
 H      -100.642563       -6.875598      -98.806030
 C      -102.294479       -8.181497      -99.115387
 H      -102.444717       -8.424375      -98.053619
 C      -103.027039       -8.827176     -100.056633
 H      -103.894226       -9.301955      -99.631119
 C      -102.589294       -8.846929     -101.358749
 H      -103.100815       -9.626101     -101.975456
 C      -101.452881       -8.198054     -101.841782
 H      -100.826523       -8.592593     -102.701782
 C      -101.936020       -1.167003      -99.439796
 C      -103.022064       -1.075092     -100.171539
 N      -101.212112       -2.259261      -99.976578
 C      -101.770294       -2.791595     -101.137245
 N      -102.837997       -1.913825     -101.309906
 C      -103.412529       -1.891921     -102.696747
 C      -102.583237       -2.528465     -103.645370
 C      -102.848999       -2.192443     -105.002380
 H      -102.217300       -2.524158     -105.791504
 C      -103.944290       -1.375880     -105.371216
 H      -104.163269       -1.128844     -106.396118
 C      -104.751625       -0.789176     -104.416763
 H      -105.469803       -0.041431     -104.736130
 C      -104.578766       -1.138183     -103.060989
 H      -105.325989       -1.059837     -102.253036
 C      -103.977890       -0.076972      -99.823044
 H      -105.006020       -0.209655     -100.120285
 C      -103.631714        0.876763      -98.806854
 H      -104.335632        1.745541      -98.557404
 C      -102.525185        0.677762      -98.004311
 H      -102.203796        1.401067      -97.234863
 C      -101.639771       -0.340759      -98.347748
 H      -100.629486       -0.158477      -98.039536
 C      -100.049240       -2.776305      -99.257553
 C      -100.206696       -3.543067      -98.135818
 H      -101.229553       -3.914478      -97.938309
 C       -99.204933       -3.889735      -97.291840
 H       -99.405228       -4.581878      -96.485535
 C       -97.929993       -3.435786      -97.561768
 H       -97.070694       -3.770889      -96.974060
 C       -97.748047       -2.612691      -98.688721
 H       -96.789948       -2.422336      -99.074982
 C       -98.749466       -2.237743      -99.532394
 H       -98.511047       -1.770461     -100.517532
 C      -104.946899       -6.559707     -102.890717
 C      -104.275375       -6.867103     -104.016174
 N      -104.223938       -5.579303     -102.156509
 C      -102.975662       -5.261683     -102.873550
 N      -103.105820       -5.990100     -104.046478
 C      -102.240845       -5.487544     -105.083328
 C      -101.078354       -4.884505     -104.616348
 C      -100.141983       -4.616302     -105.644150
 H       -99.245956       -4.248809     -105.329224
 C      -100.399399       -4.803931     -106.980652
 H       -99.581039       -4.841239     -107.740059
 C      -101.637543       -5.258376     -107.367645
 H      -101.991852       -4.939261     -108.364410
 C      -102.518021       -5.583369     -106.384018
 H      -103.502853       -5.730426     -106.709869
 C      -104.720261       -7.920970     -104.813438
 H      -104.184204       -8.080474     -105.725418
 C      -106.063889       -8.379798     -104.669441
 H      -106.641678       -8.929965     -105.462967
 C      -106.815536       -7.951861     -103.481125
 H      -107.790787       -8.395595     -103.189240
 C      -106.185608       -7.106372     -102.589310
 H      -106.841095       -6.774421     -101.794357
 C      -104.713867       -4.992099     -100.952744
 C      -103.898331       -4.815803      -99.859894
 H      -102.921082       -5.151175     -100.044052
 C      -104.301514       -4.009540      -98.739731
 H      -103.820396       -4.124892      -97.765244
 C      -105.591293       -3.440547      -98.880135
 H      -106.022079       -2.857299      -98.035645
 C      -106.344131       -3.553558     -100.011230
 H      -107.459778       -3.384639      -99.973831
 C      -105.920982       -4.311595     -101.034561
 H      -106.599228       -4.386329     -101.862396
