206
 generated by VMD
 Ir       80.403046      -19.268082      -60.802677
 C        80.399872      -15.264860      -62.370609
 C        81.635788      -15.382412      -61.880291
 N        79.630272      -16.404190      -62.060551
 C        80.440063      -17.273739      -61.371922
 N        81.665680      -16.645962      -61.206825
 C        82.486145      -17.220486      -60.205551
 C        82.135681      -18.521027      -59.860344
 C        82.792984      -19.097130      -58.755737
 H        82.624336      -20.172071      -58.468410
 C        83.823936      -18.457129      -58.102325
 H        84.383774      -18.988304      -57.419006
 C        84.154472      -17.106628      -58.450176
 H        85.085526      -16.744644      -58.136806
 C        83.485428      -16.534147      -59.496910
 H        83.855881      -15.585885      -59.841103
 C        82.644112      -14.415627      -62.144108
 H        83.495132      -14.322065      -61.495712
 C        82.432129      -13.445054      -63.085358
 H        83.229355      -12.772876      -63.315372
 C        81.150070      -13.372790      -63.705364
 H        81.001686      -12.621678      -64.431458
 C        80.117081      -14.253095      -63.285625
 H        79.153290      -14.350801      -63.843098
 C        78.227249      -16.403194      -61.980350
 C        77.428284      -16.801540      -63.031239
 H        77.848618      -16.875416      -64.040970
 C        76.062469      -16.912844      -62.857212
 H        75.555634      -17.428684      -63.640232
 C        75.466469      -16.594898      -61.660473
 H        74.350647      -16.728348      -61.482079
 C        76.245514      -16.146595      -60.612228
 H        75.904701      -16.034094      -59.585686
 C        77.580902      -15.996667      -60.772724
 H        78.079605      -15.377288      -60.052265
 C        83.114319      -20.962166      -63.818321
 C        82.917427      -21.996077      -62.920734
 N        82.467484      -19.899828      -63.264385
 C        81.771378      -20.192188      -62.065655
 N        82.105072      -21.462818      -61.849422
 C        81.845184      -21.898388      -60.517643
 C        80.737900      -21.227476      -59.955418
 C        80.094330      -21.679472      -58.840694
 H        79.250610      -21.117710      -58.394287
 C        80.516998      -22.875008      -58.254402
 H        80.157074      -23.228081      -57.257416
 C        81.633286      -23.532539      -58.782867
 H        82.018806      -24.371651      -58.292397
 C        82.316086      -23.061495      -59.871166
 H        83.289337      -23.522923      -59.965363
 C        83.486832      -23.242350      -63.227139
 H        83.536102      -24.034653      -62.532352
 C        84.233246      -23.318745      -64.435287
 H        84.653656      -24.240026      -64.777481
 C        84.420395      -22.279167      -65.341415
 H        84.868347      -22.431868      -66.270988
 C        83.830917      -21.046801      -65.033035
 H        83.843994      -20.211727      -65.805817
 C        82.566406      -18.528652      -63.896358
 C        81.432648      -17.935707      -64.457169
 H        80.490074      -18.478062      -64.385010
 C        81.587776      -16.797264      -65.296204
 H        80.577423      -16.415545      -65.634415
 C        82.776352      -16.199234      -65.565559
 H        82.937210      -15.231399      -65.926834
 C        83.908966      -16.842659      -64.966667
 H        84.804489      -16.354359      -65.138145
 C        83.805481      -17.991388      -64.181732
 H        84.655899      -18.567274      -63.848370
 C        76.565002      -20.247707      -62.599419
 C        76.295959      -19.947815      -61.296043
 N        77.938568      -20.345520      -62.698559
 C        78.583290      -19.913227      -61.507481
 N        77.487099      -19.726524      -60.646725
 C        77.800018      -19.217508      -59.400620
 C        79.027451      -18.572201      -59.296272
 C        79.255402      -17.705709      -58.219547
 H        80.157806      -17.119068      -58.286713
 C        78.264771      -17.535011      -57.208794
 H        78.332581      -16.685944      -56.464561
 C        77.115219      -18.325577      -57.240784
 H        76.638229      -18.466434      -56.344101
 C        76.917976      -19.139011      -58.340790
 H        76.125336      -19.875526      -58.264206
 C        74.972443      -19.738329      -60.863552
 H        74.701752      -19.403851      -59.840008
 C        73.889702      -19.753014      -61.792454
 H        72.896713      -19.734598      -61.372295
 C        74.171082      -19.901983      -63.173733
 H        73.422928      -20.207706      -63.916500
 C        75.531128      -20.190813      -63.489738
 H        75.702408      -20.269833      -64.534737
 C        78.592247      -21.335178      -63.481556
 C        79.011681      -22.496237      -62.786640
 H        78.721146      -22.486225      -61.768414
 C        79.702621      -23.512188      -63.477329
 H        79.976959      -24.379635      -62.948971
 C        80.032921      -23.345451      -64.822021
 H        80.705795      -24.110146      -65.243195
 C        79.583115      -22.253925      -65.504990
 H        79.725052      -22.293800      -66.572495
 C        78.843529      -21.231787      -64.860062
 H        78.300919      -20.460630      -65.450562
 Ir       80.403053      -19.268082      -49.752499
 C        84.007912      -18.320328      -51.870438
 C        83.997910      -19.643429      -51.870590
 N        82.963554      -17.835918      -51.070396
 C        82.249077      -18.880531      -50.596359
 N        82.942688      -20.016548      -51.041748
 C        82.419037      -21.246563      -50.592461
 C        81.275665      -21.213821      -49.826931
 C        80.886230      -22.429983      -49.181957
 H        79.987686      -22.319946      -48.574493
 C        81.549271      -23.615541      -49.273773
 H        81.099182      -24.544231      -48.942776
 C        82.732605      -23.612228      -50.037582
 H        83.119965      -24.543324      -50.278229
 C        83.082748      -22.465076      -50.706936
 H        83.843452      -22.818184      -51.388664
 C        85.052582      -20.362780      -52.346294
 H        84.959641      -21.427273      -52.583809
 C        86.272346      -19.664307      -52.654877
 H        87.072449      -20.261124      -52.980999
 C        86.372688      -18.271671      -52.664886
 H        87.240440      -17.732363      -52.911381
 C        85.193413      -17.635708      -52.371723
 H        85.154343      -16.631817      -52.738441
 C        82.621506      -16.405712      -51.007050
 C        82.041458      -15.697788      -52.018623
 H        81.837112      -16.359360      -52.880756
 C        81.879517      -14.311871      -51.956093
 H        81.564445      -13.753350      -52.795425
 C        82.224274      -13.663267      -50.770828
 H        81.981201      -12.608008      -50.671135
 C        82.782257      -14.358335      -49.690346
 H        83.176186      -13.874453      -48.811268
 C        82.906372      -15.743201      -49.826145
 H        83.209030      -16.272388      -48.906277
 C        78.016487      -20.261124      -53.251564
 C        77.144730      -20.479280      -52.201302
 N        79.280609      -19.921865      -52.701019
 C        79.240570      -19.860952      -51.360989
 N        77.959610      -20.199432      -51.012909
 C        77.749908      -20.557232      -49.686825
 C        78.654419      -20.042442      -48.819790
 C        78.354767      -20.206078      -47.496338
 H        78.964981      -19.732952      -46.824627
 C        77.307495      -20.966423      -46.933746
 H        77.238983      -21.271587      -45.980080
 C        76.495239      -21.610466      -47.874836
 H        75.685638      -22.131248      -47.565285
 C        76.665817      -21.329910      -49.230968
 H        75.834091      -21.548626      -49.855637
 C        75.854851      -20.890697      -52.559410
 H        75.035477      -20.847620      -51.922806
 C        75.494629      -21.107153      -53.897018
 H        74.450798      -21.437229      -54.118942
 C        76.465096      -20.881283      -54.902596
 H        76.145050      -21.008213      -55.910244
 C        77.767067      -20.518772      -54.614212
 H        78.527802      -20.203379      -55.297295
 C        80.475700      -20.145145      -53.523277
 C        80.834732      -21.474857      -53.820534
 H        80.473907      -22.200726      -53.128704
 C        81.950394      -21.600796      -54.663170
 H        82.254089      -22.520500      -55.117054
 C        82.635681      -20.489222      -55.164856
 H        83.522690      -20.683224      -55.721161
 C        82.273010      -19.194567      -54.746120
 H        82.999985      -18.419899      -54.968414
 C        81.139328      -19.023289      -53.969959
 H        80.800354      -18.031948      -53.674263
 C        79.178024      -15.087245      -49.267521
 C        79.988503      -15.309495      -48.266956
 N        78.956062      -16.312840      -49.874767
 C        79.659225      -17.397125      -49.300678
 N        80.247284      -16.755184      -48.222019
 C        81.011536      -17.619122      -47.348740
 C        81.368317      -18.831333      -47.905197
 C        82.290115      -19.641636      -47.281734
 H        82.631798      -20.570633      -47.668018
 C        83.006546      -19.241774      -46.147263
 H        83.691757      -19.842430      -45.641590
 C        82.720734      -18.006889      -45.621651
 H        83.387405      -17.663067      -44.830818
 C        81.737488      -17.230591      -46.197498
 H        81.552658      -16.311409      -45.703995
 C        80.270905      -14.254978      -47.338493
 H        80.813919      -14.506561      -46.426826
 C        79.755630      -12.974066      -47.504498
 H        79.871887      -12.245010      -46.707840
 C        78.988594      -12.708522      -48.619682
 H        78.551346      -11.739219      -48.718525
 C        78.643486      -13.753279      -49.458302
 H        77.781075      -13.672773      -50.060104
 C        77.718628      -16.449116      -50.649109
 C        76.657043      -16.981342      -49.942097
 H        76.919189      -17.413712      -49.005379
 C        75.575874      -17.432852      -50.588711
 H        74.700462      -17.687422      -50.085770
 C        75.578293      -17.414940      -52.009193
 H        74.742065      -17.907696      -52.482590
 C        76.610886      -16.860043      -52.750042
 H        76.401810      -16.684130      -53.788811
 C        77.680534      -16.334385      -52.052742
 H        78.339050      -15.767682      -52.663067
