206
 generated by VMD
 Ir       71.987801      -88.089752      -16.062813
 C        69.155396      -85.663582      -13.702076
 C        69.470627      -84.918625      -14.816149
 N        69.986679      -86.875748      -13.770084
 C        70.838058      -86.844749      -14.898399
 N        70.591766      -85.580872      -15.524300
 C        71.282532      -85.313828      -16.697212
 C        72.211403      -86.267296      -17.121948
 C        73.264038      -85.965294      -18.038488
 H        73.974014      -86.701973      -18.325802
 C        73.362259      -84.641174      -18.503195
 H        74.059586      -84.351807      -19.305756
 C        72.473282      -83.680069      -18.026970
 H        72.710182      -82.661987      -18.009905
 C        71.427429      -83.988098      -17.184711
 H        70.735603      -83.189835      -17.132296
 C        68.668701      -83.746231      -15.033018
 H        68.734421      -83.274849      -16.010351
 C        67.713699      -83.292511      -14.082760
 H        66.967468      -82.594833      -14.328701
 C        67.456879      -84.086037      -12.927099
 H        66.540985      -83.951309      -12.375473
 C        68.151207      -85.253418      -12.798542
 H        67.865158      -85.860115      -11.970354
 C        70.257095      -87.758392      -12.677513
 C        71.194962      -87.280739      -11.715204
 H        71.718964      -86.332138      -12.019001
 C        71.221481      -87.957443      -10.510845
 H        72.030380      -87.733337       -9.865520
 C        70.409058      -89.040131      -10.227884
 H        70.788506      -89.728302       -9.429243
 C        69.432419      -89.489685      -11.179863
 H        68.660400      -90.297188      -11.009792
 C        69.425293      -88.870590      -12.445084
 H        68.633041      -89.036697      -13.166296
 C        69.138321      -89.117294      -19.257874
 C        70.369522      -89.308426      -19.808439
 N        69.368652      -88.594856      -17.994936
 C        70.722839      -88.590370      -17.648169
 N        71.317085      -89.043327      -18.792980
 C        72.757324      -89.211494      -18.698975
 C        73.228226      -89.174995      -17.398853
 C        74.489136      -89.695015      -17.117640
 H        74.976547      -89.640289      -16.172897
 C        75.318024      -90.087524      -18.146311
 H        76.320786      -90.393379      -17.887215
 C        74.942184      -90.036514      -19.482552
 H        75.633133      -90.076736      -20.264328
 C        73.628983      -89.499435      -19.716078
 H        73.389481      -88.978065      -20.639177
 C        70.531288      -89.793518      -21.095140
 H        71.439522      -90.331879      -21.410069
 C        69.389648      -90.107574      -21.892792
 H        69.631020      -90.615707      -22.798794
 C        68.106995      -89.964821      -21.345688
 H        67.368851      -90.606598      -21.770248
 C        67.993546      -89.478310      -20.016993
 H        66.998062      -89.493332      -19.511635
 C        68.324547      -87.845291      -17.254534
 C        67.715439      -88.341949      -16.079754
 H        68.183777      -89.169876      -15.573978
 C        66.662666      -87.666870      -15.498333
 H        66.264603      -87.934937      -14.559782
 C        66.182480      -86.526245      -16.124817
 H        65.494110      -85.732147      -15.719030
 C        66.850891      -85.971962      -17.253086
 H        66.529793      -84.940277      -17.508867
 C        67.890976      -86.679962      -17.792603
 H        68.317978      -86.439995      -18.739697
 C        71.749306      -91.855270      -13.859150
 C        72.716713      -91.097244      -13.180769
 N        71.352371      -91.030434      -14.920883
 C        71.990738      -89.811028      -14.931971
 N        72.845947      -89.813087      -13.865566
 C        73.586983      -88.663300      -13.592375
 C        73.452629      -87.649765      -14.607756
 C        74.370522      -86.624237      -14.591042
 H        74.179916      -85.835075      -15.246014
 C        75.411072      -86.541611      -13.678829
 H        76.279694      -85.838882      -13.820803
 C        75.522156      -87.481689      -12.679615
 H        76.363815      -87.473160      -12.021873
 C        74.602524      -88.547943      -12.650105
 H        74.723923      -89.284500      -11.817247
 C        73.467049      -91.815704      -12.243484
 H        74.325165      -91.267662      -11.829975
 C        73.274284      -93.241653      -12.185711
 H        73.893585      -93.747169      -11.409613
 C        72.298187      -93.943481      -12.855984
 H        72.449097      -95.027390      -12.864603
 C        71.456207      -93.207947      -13.738403
 H        70.631653      -93.689972      -14.302296
 C        70.606873      -91.479408      -16.110277
 C        69.215919      -91.486664      -16.045540
 H        68.747940      -91.164200      -15.155926
 C        68.480469      -91.962517      -17.124134
 H        67.409172      -91.751373      -17.034473
 C        69.145416      -92.593712      -18.215715
 H        68.540817      -92.649841      -19.189894
 C        70.559937      -92.602310      -18.207018
 H        71.041077      -93.055847      -19.135942
 C        71.305328      -91.977921      -17.185339
 H        72.311607      -91.814316      -17.241358
 Ir       71.987801      -88.089752       -0.791019
 C        74.436180      -84.958801        0.985035
 C        75.356415      -85.879158        0.457198
 N        73.145935      -85.526093        0.821726
 C        73.210793      -86.784698        0.229779
 N        74.615494      -86.967552        0.017487
 C        74.939804      -88.215118       -0.656673
 C        73.880203      -88.876595       -1.227457
 C        74.176559      -89.992516       -2.054866
 H        73.409439      -90.670227       -2.471078
 C        75.460175      -90.312088       -2.485206
 H        75.614349      -91.158409       -3.089008
 C        76.524643      -89.519348       -1.943483
 H        77.532410      -89.546867       -2.325794
 C        76.254257      -88.569412       -0.973682
 H        77.028786      -88.021942       -0.349668
 C        76.645096      -85.357864        0.333310
 H        77.381180      -85.875183       -0.200981
 C        76.995789      -84.053513        0.695624
 H        78.018555      -83.697426        0.507014
 C        76.040146      -83.172096        1.196463
 H        76.238510      -82.088768        1.336642
 C        74.784058      -83.623322        1.387644
 H        74.088974      -83.106209        1.979546
 C        71.957733      -84.889763        1.329304
 C        71.061478      -84.215057        0.428021
 H        71.245697      -84.015251       -0.624143
 C        70.000107      -83.399277        0.962229
 H        69.455292      -82.868858        0.204371
 C        69.741043      -83.440666        2.328562
 H        68.991684      -82.724457        2.678561
 C        70.596245      -84.135651        3.227744
 H        70.468597      -84.162216        4.311392
 C        71.718910      -84.859489        2.750905
 H        72.413956      -85.178947        3.440733
 C        71.910065      -86.129135       -4.672920
 C        71.235275      -87.318268       -4.861476
 N        72.376137      -86.159882       -3.343547
 C        71.967056      -87.328232       -2.688322
 N        71.320496      -88.029480       -3.613956
 C        70.977829      -89.350006       -3.263406
 C        71.089645      -89.616409       -1.925714
 C        70.673302      -90.853020       -1.421770
 H        70.793442      -91.101395       -0.372877
 C        70.376175      -91.884048       -2.326419
 H        69.917625      -92.698944       -1.830949
 C        70.219955      -91.614441       -3.684581
 H        69.749344      -92.393524       -4.202806
 C        70.556488      -90.370003       -4.180294
 H        70.670723      -90.205940       -5.281715
 C        70.593689      -87.523369       -6.150035
 H        69.844910      -88.252029       -6.242725
 C        70.748230      -86.583298       -7.197692
 H        70.316635      -86.813049       -8.115051
 C        71.438461      -85.369278       -6.980127
 H        71.424988      -84.603210       -7.778600
 C        72.064636      -85.125038       -5.720386
 H        72.689606      -84.222763       -5.693487
 C        73.406158      -85.258965       -2.934913
 C        74.773888      -85.612419       -3.015571
 H        75.136642      -86.640762       -3.367452
 C        75.769119      -84.701874       -2.686283
 H        76.819077      -84.825706       -2.725748
 C        75.512985      -83.414589       -2.251449
 H        76.327606      -82.800720       -1.909183
 C        74.165466      -83.053497       -2.115716
 H        74.146042      -81.955933       -1.999269
 C        73.137665      -83.926506       -2.456411
 H        72.120529      -83.673843       -2.682886
 C        68.229843      -86.661514        0.675005
 C        68.738129      -87.395821        1.734173
 N        69.072029      -86.885422       -0.336526
 C        70.150681      -87.658348       -0.051425
 N        69.903526      -88.079117        1.268713
 C        70.812775      -88.881119        1.906882
 C        71.993515      -89.060623        1.135369
 C        73.025681      -89.731354        1.722949
 H        73.897858      -90.053749        1.266034
 C        72.948578      -90.096115        3.083685
 H        73.729301      -90.730331        3.518795
 C        71.831970      -89.791748        3.872462
 H        71.825180      -89.805870        4.949986
 C        70.761581      -89.215973        3.186785
 H        69.768547      -89.642502        3.426907
 C        68.016571      -87.369400        2.961224
 H        68.459641      -87.789200        3.830050
 C        66.826637      -86.688156        3.069201
 H        66.369324      -86.842209        4.017325
 C        66.261314      -85.963081        1.975958
 H        65.251633      -85.625473        2.069056
 C        67.029854      -85.866257        0.783576
 H        66.715881      -85.175056        0.009516
 C        68.579117      -86.643723       -1.701631
 C        68.764999      -85.318184       -2.131523
 H        69.417908      -84.676788       -1.561243
 C        68.360062      -84.953430       -3.404344
 H        68.626389      -84.041786       -3.839063
 C        67.895111      -85.968994       -4.225952
 H        68.261909      -85.892830       -5.224481
 C        67.653618      -87.233513       -3.822248
 H        66.909103      -87.793808       -4.337471
 C        68.002884      -87.621750       -2.520292
 H        67.750000      -88.650421       -2.123312
