206
 generated by VMD
  IR        13.390000        1.060000       55.080002
  C1        16.440001       -0.480000       52.250000
  C2        16.809999       -0.920000       53.500000
  N1        15.270000        0.350000       52.459999
  C3a       14.950000        0.490000       53.830002
  N2        15.930000       -0.320000       54.410000
  C4        15.990000       -0.130000       55.849998
  C5a       14.830000        0.390000       56.439999
  C6        14.740000        0.420000       57.849998
  H1        13.850000        0.680000       58.400002
  C7        15.860000        0.100000       58.580002
  H2        15.910000        0.180000       59.689999
  C8        17.010000       -0.320000       57.970001
  H3        17.830000       -0.720000       58.520000
  C9        17.070000       -0.520000       56.599998
  H4        17.990000       -0.920000       56.290001
  C10       18.030001       -1.600000       53.689999
  H5        18.240000       -2.050000       54.590000
  C11       18.799999       -1.850000       52.520000
  H6        19.750000       -2.250000       52.650002
  C12       18.420000       -1.310000       51.259998
  H7        19.080000       -1.590000       50.570000
  C13       17.209999       -0.700000       51.130001
  H8        16.830000       -0.630000       50.110001
  C6        14.840000        1.390000       51.490002
  C1        15.520000        2.640000       51.509998
  H1        16.219999        2.950000       52.330002
  C2        15.530000        3.480000       50.369999
  H2        15.920000        4.460000       50.580002
  C3        14.960000        3.000000       49.189999
  H3        15.100000        3.510000       48.240002
  C4        14.350000        1.750000       49.169998
  H4        14.120000        1.260000       48.279999
  C5        14.240000        0.950000       50.320000
  H5        13.900000       -0.120000       50.160000
  C1        11.420000       -2.840000       55.730000
  C2        10.500000       -1.870000       56.200001
  N1        12.480000       -2.180000       55.180000
  C3b       12.360000       -0.740000       55.380001
  N2        11.140000       -0.600000       56.070000
  C4        11.050000        0.590000       56.830002
  C5b       11.980000        1.540000       56.610001
  C6        12.030000        2.740000       57.310001
  H1        12.890000        3.430000       57.130001
  C7        11.040000        3.080000       58.240002
  H2        11.220000        4.010000       58.740002
  C8        10.130000        2.050000       58.580002
  H3         9.490000        2.170000       59.419998
  C9        10.170000        0.830000       57.919998
  H4         9.570000        0.110000       58.330002
  C10        9.240000       -2.250000       56.730000
  H5         8.640000       -1.440000       57.160000
  C11        8.940000       -3.630000       56.740002
  H6         7.940000       -4.070000       56.779999
  C12        9.850000       -4.610000       56.299999
  H7         9.650000       -5.680000       56.349998
  C13       11.140000       -4.240000       55.830002
  H8        11.510000       -5.030000       55.189999
  C6        13.260000       -2.750000       54.180000
  C1        13.150000       -2.270000       52.860001
  H1        12.510000       -1.380000       52.669998
  C2        13.870000       -2.830000       51.790001
  H2        13.720000       -2.380000       50.790001
  C3        14.930000       -3.700000       52.040001
  H3        15.630000       -3.960000       51.349998
  C4        15.070000       -4.030000       53.349998
  H4        15.970000       -4.580000       53.560001
  C5        14.260000       -3.620000       54.439999
  H5        14.300000       -4.120000       55.389999
  C1        10.150000        3.170000       53.040001
  C2        11.190000        4.060000       52.990002
  N1        10.670000        1.940000       53.459999
  C3c       12.010000        2.040000       53.869999
  N2        12.340000        3.350000       53.509998
  C4        13.540000        3.820000       53.959999
  C5c       14.240000        3.010000       54.889999
  C6        15.520000        3.350000       55.310001
  H1        16.030001        2.560000       55.820000
  C7        16.090000        4.580000       54.889999
  H2        17.070000        4.840000       55.200001
  C8        15.430000        5.450000       54.000000
  H3        16.000000        6.230000       53.450001
  C9        14.180000        5.040000       53.529999
  H4        13.590000        5.480000       52.709999
  C10       10.920000        5.450000       52.740002
  H5        11.690000        6.230000       52.580002
  C11        9.690000        5.940000       52.459999
  H6         9.530000        7.020000       52.279999
  C12        8.670000        5.030000       52.459999
  H7         7.650000        5.490000       52.279999
  C13        8.870000        3.690000       52.830002
  H8         8.100000        2.900000       52.889999
  C6         9.940000        0.700000       53.009998
  C1        10.380000       -0.020000       51.910000
  H1        11.110000        0.430000       51.160000
  C2         9.690000       -1.250000       51.580002
  H2        10.150000       -2.060000       50.950001
  C3         8.550000       -1.650000       52.340000
  H3         8.420000       -2.700000       52.330002
  C4         8.110000       -0.830000       53.430000
  H4         7.200000       -1.000000       54.020000
  C5         8.880000        0.270000       53.779999
  H5         8.740000        0.710000       54.740002
  IR         2.470000        0.210000       57.630001
  C1         1.420000        1.980000       61.580002
  C2         2.280000        2.880000       61.020000
  N1         1.300000        0.870000       60.650002
  C3a        2.050000        1.060000       59.490002
  N2         2.740000        2.270000       59.770000
  C4         3.860000        2.450000       58.970001
  C5a        4.140000        1.480000       57.950001
  C6         5.350000        1.510000       57.290001
  H1         5.500000        0.820000       56.509998
  C7         6.380000        2.390000       57.560001
  H2         7.170000        2.500000       56.820000
  C8         6.150000        3.310000       58.570000
  H3         6.860000        4.060000       58.790001
  C9         4.940000        3.340000       59.250000
  H4         4.820000        4.110000       60.000000
  C10        2.460000        4.150000       61.630001
  H5         2.730000        5.090000       61.090000
  C11        1.850000        4.460000       62.900002
  H6         1.870000        5.470000       63.279999
  C12        1.040000        3.470000       63.459999
  H7         0.870000        3.500000       64.519997
  C13        0.780000        2.280000       62.790001
  H8        -0.030000        1.610000       63.169998
  C6         0.410000       -0.160000       60.860001
  C1        -0.690000       -0.210000       60.060001
  H1        -0.800000        0.320000       59.180000
  C2        -1.650000       -1.170000       60.240002
  H2        -2.570000       -1.320000       59.630001
  C3        -1.640000       -1.970000       61.380001
  H3        -2.520000       -2.490000       61.660000
  C4        -0.520000       -1.920000       62.200001
  H4        -0.490000       -2.680000       62.939999
  C5         0.520000       -1.040000       61.970001
  H5         1.390000       -1.040000       62.580002
  C1         1.580000        3.530000       54.970001
  C2         2.270000        2.650000       54.220001
  N1         1.330000        2.940000       56.180000
  C3b        1.840000        1.630000       56.250000
  N2         2.450000        1.470000       54.950001
  C4         2.740000        0.200000       54.630001
  C5b        3.170000       -0.540000       55.740002
  C6         3.980000       -1.680000       55.540001
  H1         4.330000       -2.140000       56.470001
  C7         4.380000       -2.070000       54.279999
  H2         5.010000       -2.950000       54.110001
  C8         3.920000       -1.300000       53.169998
  H3         4.170000       -1.450000       52.150002
  C9         3.010000       -0.240000       53.310001
  H4         2.270000        0.030000       52.549999
  C10        2.930000        3.150000       53.029999
  H5         3.610000        2.480000       52.520000
  C11        2.760000        4.450000       52.630001
  H6         3.430000        4.810000       51.869999
  C12        2.030000        5.380000       53.349998
  H7         1.710000        6.320000       52.889999
  C13        1.450000        4.850000       54.549999
  H8         0.890000        5.540000       55.169998
  C6         0.300000        3.370000       57.099998
  C1         0.720000        4.340000       58.110001
  H1         1.700000        4.610000       58.130001
  C2        -0.150000        4.760000       59.040001
  H2         0.230000        5.330000       59.849998
  C3        -1.450000        4.300000       58.990002
  H3        -2.180000        4.760000       59.740002
  C4        -1.910000        3.400000       58.009998
  H4        -2.900000        3.070000       58.110001
  C5        -1.040000        2.940000       57.020000
  H5        -1.370000        2.440000       56.090000
  C1        -0.610000       -2.900000       57.290001
  C2         0.240000       -3.430000       58.220001
  N1        -0.160000       -1.630000       56.849998
  C3c        1.130000       -1.350000       57.400002
  N2         1.370000       -2.520000       58.220001
  C4         2.750000       -2.570000       58.740002
  C5c        3.430000       -1.310000       58.720001
  C6         4.580000       -1.240000       59.450001
  H1         5.170000       -0.300000       59.459999
  C7         5.100000       -2.310000       60.180000
  H2         6.080000       -2.250000       60.529999
  C8         4.430000       -3.500000       60.130001
  H3         4.930000       -4.390000       60.509998
  C9         3.270000       -3.590000       59.419998
  H4         2.740000       -4.490000       59.529999
  C10       -0.130000       -4.500000       59.060001
  H5         0.470000       -4.780000       59.869999
  C11       -1.450000       -5.000000       58.959999
  H6        -1.750000       -5.940000       59.400002
  C12       -2.270000       -4.530000       57.990002
  H7        -3.290000       -4.850000       57.770000
  C13       -1.830000       -3.500000       57.110001
  H8        -2.590000       -3.130000       56.459999
  C6        -0.920000       -0.660000       56.020000
  C1        -2.090000       -0.150000       56.560001
  H1        -2.160000       -0.210000       57.630001
  C2        -3.140000        0.270000       55.770000
  H2        -3.910000        0.840000       56.189999
  C3        -3.070000        0.120000       54.349998
  H3        -3.920000        0.360000       53.740002
  C4        -1.920000       -0.380000       53.840000
  H4        -1.700000       -0.450000       52.779999
  C5        -0.840000       -0.720000       54.639999
  H5         0.040000       -1.160000       54.119999
