206
 generated by VMD
  IR        61.099998       41.820000       11.120000
  C1        61.560001       42.900002       15.340000
  C2        62.240002       41.709999       15.240000
  N1        61.029999       43.220001       14.090000
  C3a       61.580002       42.330002       13.110000
  N2        62.200001       41.320000       13.890000
  C4        62.630001       40.209999       13.120000
  C5a       61.930000       40.049999       11.920000
  C6        61.980000       38.830002       11.250000
  H1        61.080002       38.410000       10.910000
  C7        62.810001       37.799999       11.730000
  H2        62.840000       36.889999       11.200000
  C8        63.520000       38.020000       12.930000
  H3        63.910000       37.220001       13.460000
  C9        63.450001       39.220001       13.620000
  H4        64.089996       39.400002       14.410000
  C10       62.900002       41.119999       16.309999
  H5        63.529999       40.270000       16.290001
  C11       62.810001       41.810001       17.549999
  H6        63.180000       41.320000       18.450001
  C12       62.080002       42.950001       17.709999
  H7        61.970001       43.459999       18.719999
  C13       61.500000       43.490002       16.580000
  H8        61.130001       44.509998       16.549999
  C6        60.200001       44.250000       13.780000
  C1        58.830002       44.040001       13.680000
  H1        58.360001       43.110001       14.030000
  C2        57.990002       45.110001       13.340000
  H2        56.939999       44.950001       13.510000
  C3        58.509998       46.369999       13.060000
  H3        57.799999       47.139999       12.730000
  C4        59.869999       46.610001       13.080000
  H4        60.389999       47.490002       12.830000
  C5        60.730000       45.549999       13.490000
  H5        61.840000       45.669998       13.490000
  C1        64.739998       43.200001        9.290000
  C2        64.070000       42.639999        8.280000
  N1        64.099998       42.779999       10.470000
  C3b       62.930000       42.080002       10.220000
  N2        62.869999       42.049999        8.870000
  C4        61.770000       41.369999        8.260000
  C5b       60.799999       41.000000        9.180000
  C6        59.770000       40.080002        9.010000
  H1        59.029999       39.700001        9.740000
  C7        59.889999       39.279999        7.810000
  H2        59.240002       38.430000        7.670000
  C8        60.900002       39.570000        6.880000
  H3        60.950001       38.959999        6.010000
  C9        61.810001       40.660000        7.090000
  H4        62.419998       40.959999        6.260000
  C10       64.410004       42.830002        6.940000
  H5        64.169998       42.000000        6.300000
  C11       65.430000       43.770000        6.640000
  H6        65.790001       43.810001        5.610000
  C12       66.120003       44.340000        7.690000
  H7        66.769997       45.230000        7.530000
  C13       65.739998       44.060001        9.030000
  H8        66.150002       44.590000        9.840000
  C6        64.760002       42.820000       11.780000
  C1        64.360001       43.730000       12.760000
  H1        63.730000       44.570000       12.570000
  C2        64.900002       43.720001       14.070000
  H2        64.370003       44.279999       14.820000
  C3        65.949997       42.930000       14.430000
  H3        66.440002       43.099998       15.410000
  C4        66.389999       42.000000       13.440000
  H4        67.150002       41.270000       13.640000
  C5        65.769997       41.990002       12.160000
  H5        66.000000       41.200001       11.430000
  C1        58.439999       44.849998        9.150000
  C2        57.639999       43.740002        9.500000
  N1        59.740002       44.430000        9.650000
  C3c       59.779999       43.220001       10.300000
  N2        58.470001       42.740002       10.140000
  C4        58.090000       41.799999       11.110000
  C5c       59.200001       41.259998       11.840000
  C6        58.900002       40.360001       12.920000
  H1        59.700001       40.020000       13.520000
  C7        57.560001       40.150002       13.320000
  H2        57.310001       39.730000       14.300000
  C8        56.500000       40.689999       12.590000
  H3        55.500000       40.380001       12.840000
  C9        56.740002       41.540001       11.500000
  H4        55.860001       41.750000       10.910000
  C10       56.299999       43.689999        9.160000
  H5        55.750000       42.770000        9.270000
  C11       55.750000       44.820000        8.480000
  H6        54.720001       44.680000        8.080000
  C12       56.540001       45.959999        8.270000
  H7        56.259998       46.840000        7.640000
  C13       57.900002       46.020000        8.550000
  H8        58.509998       46.869999        8.390000
  C6        60.910000       45.099998        9.070000
  C1        61.700001       45.820000        9.910000
  H1        61.619999       45.770000       10.990000
  C2        62.619999       46.730000        9.360000
  H2        62.950001       47.410000       10.110000
  C3        62.840000       46.820000        7.960000
  H3        63.660000       47.470001        7.650000
  C4        62.110001       46.009998        7.140000
  H4        62.110001       46.160000        6.030000
  C5        61.110001       45.169998        7.700000
  H5        60.509998       44.570000        7.010000
  IR        58.380001       39.220001        1.590000
  C1        57.880001       35.099998        3.180000
  C2        58.439999       34.939999        1.930000
  N1        57.709999       36.439999        3.430000
  C3a       58.209999       37.259998        2.350000
  N2        58.700001       36.230000        1.450000
  C4        59.669998       36.759998        0.590000
  C5a       59.430000       38.049999        0.160000
  C6        60.130001       38.490002       -0.950000
  H1        59.939999       39.419998       -1.400000
  C7        60.950001       37.570000       -1.690000
  H2        61.680000       38.000000       -2.360000
  C8        61.070000       36.259998       -1.230000
  H3        61.580002       35.540001       -1.770000
  C9        60.520000       35.860001       -0.060000
  H4        60.930000       35.060001        0.520000
  C10       58.619999       33.680000        1.360000
  H5        59.169998       33.570000        0.420000
  C11       58.220001       32.549999        2.030000
  H6        58.230000       31.559999        1.570000
  C12       57.840000       32.680000        3.350000
  H7        57.709999       31.820000        3.940000
  C13       57.599998       33.959999        3.910000
  H8        57.369999       34.000000        4.990000
  C6        56.770000       36.980000        4.400000
  C1        57.180000       38.020000        5.210000
  H1        58.180000       38.419998        5.140000
  C2        56.290001       38.540001        6.190000
  H2        56.490002       39.549999        6.700000
  C3        54.990002       37.980000        6.300000
  H3        54.290001       38.529999        6.920000
  C4        54.639999       36.869999        5.440000
  H4        53.799999       36.259998        5.640000
  C5        55.500000       36.450001        4.430000
  H5        55.310001       35.680000        3.800000
  C1        62.320000       40.290001        3.160000
  C2        61.869999       41.419998        2.500000
  N1        61.380001       39.299999        3.050000
  C3b       60.279999       39.799999        2.270000
  N2        60.610001       41.130001        1.930000
  C4        59.900002       41.599998        0.770000
  C5b       58.660000       41.029999        0.490000
  C6        57.840000       41.650002       -0.390000
  H1        56.939999       41.080002       -0.680000
  C7        58.150002       42.869999       -1.060000
  H2        57.419998       43.349998       -1.790000
  C8        59.430000       43.410000       -0.820000
  H3        59.619999       44.340000       -1.360000
  C9        60.340000       42.759998        0.070000
  H4        61.330002       42.750000       -0.240000
  C10       62.619999       42.680000        2.470000
  H5        62.200001       43.599998        1.990000
  C11       63.889999       42.720001        3.120000
  H6        64.360001       43.700001        3.400000
  C12       64.410004       41.470001        3.640000
  H7        65.339996       41.549999        4.280000
  C13       63.580002       40.290001        3.710000
  H8        64.000000       39.450001        4.190000
  C6        61.610001       37.900002        3.220000
  C1        60.750000       37.180000        3.980000
  H1        59.939999       37.689999        4.490000
  C2        60.959999       35.840000        4.300000
  H2        60.180000       35.380001        4.810000
  C3        61.980000       35.180000        3.660000
  H3        62.330002       34.240002        3.930000
  C4        62.880001       35.930000        2.830000
  H4        63.779999       35.459999        2.450000
  C5        62.730000       37.290001        2.570000
  H5        63.560001       37.820000        2.160000
  C1        55.639999       41.270000        4.290000
  C2        54.840000       40.340000        3.650000
  N1        56.930000       41.200001        3.670000
  C3c       57.009998       40.290001        2.670000
  N2        55.689999       39.790001        2.640000
  C4        55.369999       39.169998        1.420000
  C5c       56.490002       38.840000        0.680000
  C6        56.240002       38.209999       -0.560000
  H1        57.080002       37.880001       -1.280000
  C7        54.959999       37.970001       -1.080000
  H2        54.889999       37.570000       -2.070000
  C8        53.840000       38.470001       -0.340000
  H3        52.930000       38.540001       -0.900000
  C9        54.090000       39.099998        0.890000
  H4        53.330002       39.599998        1.430000
  C10       53.590000       39.980000        4.220000
  H5        53.070000       39.110001        3.850000
  C11       53.200001       40.570000        5.390000
  H6        52.320000       40.049999        5.780000
  C12       53.980000       41.599998        5.970000
  H7        53.799999       41.790001        7.040000
  C13       55.250000       41.919998        5.500000
  H8        55.770000       42.820000        5.790000
  C6        57.959999       42.240002        3.910000
  C1        57.930000       43.480000        3.290000
  H1        57.070000       43.750000        2.700000
  C2        58.860001       44.490002        3.560000
  H2        59.020000       45.310001        2.910000
  C3        59.860001       44.160000        4.510000
  H3        60.650002       44.830002        4.670000
  C4        59.910000       42.869999        5.040000
  H4        60.680000       42.610001        5.780000
  C5        58.959999       41.900002        4.760000
  H5        59.040001       40.849998        5.000000
