206
 generated by VMD
  IR        61.099998       41.820000       11.120000
  C1        61.560001       42.900002       15.340000
  C2        62.240002       41.709999       15.240000
  N1        61.029999       43.220001       14.090000
  C3a       61.580002       42.330002       13.110000
  N2        62.200001       41.320000       13.890000
  C4        62.630001       40.209999       13.120000
  C5a       61.930000       40.049999       11.920000
  C6        61.980000       38.830002       11.250000
  H1        61.080002       38.410000       10.910000
  C7        62.810001       37.799999       11.730000
  H2        62.840000       36.889999       11.200000
  C8        63.520000       38.020000       12.930000
  H3        63.910000       37.220001       13.460000
  C9        63.450001       39.220001       13.620000
  H4        64.089996       39.400002       14.410000
  C10       62.900002       41.119999       16.309999
  H5        63.529999       40.270000       16.290001
  C11       62.810001       41.810001       17.549999
  H6        63.180000       41.320000       18.450001
  C12       62.080002       42.950001       17.709999
  H7        61.970001       43.459999       18.719999
  C13       61.500000       43.490002       16.580000
  H8        61.130001       44.509998       16.549999
  C6        60.200001       44.250000       13.780000
  C1        58.830002       44.040001       13.680000
  H1        58.360001       43.110001       14.030000
  C2        57.990002       45.110001       13.340000
  H2        56.939999       44.950001       13.510000
  C3        58.509998       46.369999       13.060000
  H3        57.799999       47.139999       12.730000
  C4        59.869999       46.610001       13.080000
  H4        60.389999       47.490002       12.830000
  C5        60.730000       45.549999       13.490000
  H5        61.840000       45.669998       13.490000
  C1        64.739998       43.200001        9.290000
  C2        64.070000       42.639999        8.280000
  N1        64.099998       42.779999       10.470000
  C3b       62.930000       42.080002       10.220000
  N2        62.869999       42.049999        8.870000
  C4        61.770000       41.369999        8.260000
  C5b       60.799999       41.000000        9.180000
  C6        59.770000       40.080002        9.010000
  H1        59.029999       39.700001        9.740000
  C7        59.889999       39.279999        7.810000
  H2        59.240002       38.430000        7.670000
  C8        60.900002       39.570000        6.880000
  H3        60.950001       38.959999        6.010000
  C9        61.810001       40.660000        7.090000
  H4        62.419998       40.959999        6.260000
  C10       64.410004       42.830002        6.940000
  H5        64.169998       42.000000        6.300000
  C11       65.430000       43.770000        6.640000
  H6        65.790001       43.810001        5.610000
  C12       66.120003       44.340000        7.690000
  H7        66.769997       45.230000        7.530000
  C13       65.739998       44.060001        9.030000
  H8        66.150002       44.590000        9.840000
  C6        64.760002       42.820000       11.780000
  C1        64.360001       43.730000       12.760000
  H1        63.730000       44.570000       12.570000
  C2        64.900002       43.720001       14.070000
  H2        64.370003       44.279999       14.820000
  C3        65.949997       42.930000       14.430000
  H3        66.440002       43.099998       15.410000
  C4        66.389999       42.000000       13.440000
  H4        67.150002       41.270000       13.640000
  C5        65.769997       41.990002       12.160000
  H5        66.000000       41.200001       11.430000
  C1        58.439999       44.849998        9.150000
  C2        57.639999       43.740002        9.500000
  N1        59.740002       44.430000        9.650000
  C3c       59.779999       43.220001       10.300000
  N2        58.470001       42.740002       10.140000
  C4        58.090000       41.799999       11.110000
  C5c       59.200001       41.259998       11.840000
  C6        58.900002       40.360001       12.920000
  H1        59.700001       40.020000       13.520000
  C7        57.560001       40.150002       13.320000
  H2        57.310001       39.730000       14.300000
  C8        56.500000       40.689999       12.590000
  H3        55.500000       40.380001       12.840000
  C9        56.740002       41.540001       11.500000
  H4        55.860001       41.750000       10.910000
  C10       56.299999       43.689999        9.160000
  H5        55.750000       42.770000        9.270000
  C11       55.750000       44.820000        8.480000
  H6        54.720001       44.680000        8.080000
  C12       56.540001       45.959999        8.270000
  H7        56.259998       46.840000        7.640000
  C13       57.900002       46.020000        8.550000
  H8        58.509998       46.869999        8.390000
  C6        60.910000       45.099998        9.070000
  C1        61.700001       45.820000        9.910000
  H1        61.619999       45.770000       10.990000
  C2        62.619999       46.730000        9.360000
  H2        62.950001       47.410000       10.110000
  C3        62.840000       46.820000        7.960000
  H3        63.660000       47.470001        7.650000
  C4        62.110001       46.009998        7.140000
  H4        62.110001       46.160000        6.030000
  C5        61.110001       45.169998        7.700000
  H5        60.509998       44.570000        7.010000
  IR        61.759998       33.150002       15.260000
  C1        59.430000       35.869999       12.780000
  C2        60.299999       35.310001       11.830000
  N1        59.840000       35.470001       14.030000
  C3a       60.910000       34.570000       14.020000
  N2        61.279999       34.570000       12.660000
  C4        62.529999       33.919998       12.440000
  C5a       63.070000       33.220001       13.570000
  C6        64.470001       32.840000       13.470000
  H1        65.000000       32.549999       14.360000
  C7        65.300003       33.169998       12.460000
  H2        66.410004       33.080002       12.600000
  C8        64.769997       33.880001       11.350000
  H3        65.480003       34.080002       10.570000
  C9        63.400002       34.139999       11.290000
  H4        62.959999       34.139999       10.300000
  C10       60.070000       35.580002       10.440000
  H5        60.540001       34.889999        9.780000
  C11       58.990002       36.360001       10.040000
  H6        58.810001       36.500000        8.980000
  C12       58.130001       36.950001       11.030000
  H7        57.369999       37.610001       10.640000
  C13       58.369999       36.730000       12.360000
  H8        57.869999       37.419998       13.060000
  C6        59.680000       36.340000       15.160000
  C1        58.520000       36.279999       15.970000
  H1        58.070000       35.330002       16.090000
  C2        58.279999       37.369999       16.780001
  H2        57.480000       37.119999       17.480000
  C3        59.110001       38.500000       16.870001
  H3        58.709999       39.500000       17.250000
  C4        60.240002       38.529999       16.080000
  H4        61.000000       39.130001       16.410000
  C5        60.520000       37.439999       15.240000
  H5        61.389999       37.439999       14.680000
  C1        60.310001       29.450001       13.340000
  C2        61.439999       29.100000       14.080000
  N1        60.189999       30.870001       13.530000
  C3b       61.130001       31.389999       14.410000
  N2        61.889999       30.260000       14.760000
  C4        62.810001       30.459999       15.880000
  C5b       63.009998       31.820000       16.250000
  C6        63.799999       32.029999       17.330000
  H1        63.900002       33.040001       17.690001
  C7        64.309998       30.990000       18.110001
  H2        65.070000       31.200001       18.840000
  C8        64.199997       29.660000       17.700001
  H3        64.529999       28.910000       18.420000
  C9        63.450001       29.370001       16.590000
  H4        63.279999       28.420000       16.250000
  C10       61.830002       27.750000       14.040000
  H5        62.709999       27.469999       14.580000
  C11       61.169998       26.780001       13.310000
  H6        61.470001       25.760000       13.380000
  C12       59.990002       27.150000       12.530000
  H7        59.790001       26.639999       11.600000
  C13       59.630001       28.500000       12.610000
  H8        58.740002       28.840000       12.150000
  C6        59.349998       31.590000       12.610000
  C1        58.119999       32.160000       13.120000
  H1        58.099998       32.279999       14.200000
  C2        57.290001       32.919998       12.320000
  H2        56.380001       33.349998       12.810000
  C3        57.650002       33.049999       10.980000
  H3        57.029999       33.610001       10.200000
  C4        58.820000       32.450001       10.470000
  H4        58.910000       32.540001        9.410000
  C5        59.639999       31.700001       11.290000
  H5        60.590000       31.440001       10.790000
  C1        59.700001       33.380001       19.110001
  C2        60.529999       34.389999       19.129999
  N1        59.810001       32.680000       17.900000
  C3c       60.740002       33.299999       17.059999
  N2        61.139999       34.389999       17.809999
  C4        62.150002       35.200001       17.270000
  C5c       62.840000       34.720001       16.190001
  C6        63.770000       35.560001       15.590000
  H1        64.470001       35.119999       14.850000
  C7        64.019997       36.830002       15.980000
  H2        64.889999       37.380001       15.540000
  C8        63.250000       37.330002       16.969999
  H3        63.139999       38.410000       17.170000
  C9        62.380001       36.520000       17.690001
  H4        61.770000       37.049999       18.410000
  C10       60.619999       35.200001       20.340000
  H5        61.169998       36.139999       20.389999
  C11       59.740002       34.849998       21.410000
  H6        59.610001       35.439999       22.350000
  C12       59.029999       33.660000       21.410000
  H7        58.250000       33.480000       22.110001
  C13       59.009998       32.939999       20.200001
  H8        58.689999       31.910000       20.200001
  C6        59.450001       31.260000       17.760000
  C1        58.410000       30.870001       16.879999
  H1        57.560001       31.559999       16.709999
  C2        58.290001       29.530001       16.350000
  H2        57.599998       29.350000       15.530000
  C3        59.240002       28.620001       16.790001
  H3        59.369999       27.670000       16.260000
  C4        60.220001       28.969999       17.680000
  H4        60.900002       28.290001       18.030001
  C5        60.340000       30.240000       18.200001
  H5        61.169998       30.520000       18.889999
