206
 generated by VMD
 Ir       40.404160     -110.792244       57.775486
 C        42.377625     -106.847702       58.031784
 C        42.839478     -107.355339       56.899750
 N        41.559303     -107.802032       58.692467
 C        41.453442     -108.988281       57.952469
 N        42.296227     -108.718613       56.850155
 C        42.398766     -109.732498       55.872128
 C        41.368889     -110.623512       55.916176
 C        41.249825     -111.559174       54.844467
 H        40.617863     -112.427811       55.084641
 C        42.148651     -111.585640       53.763718
 H        41.813671     -112.148911       52.890274
 C        43.227985     -110.744888       53.791275
 H        43.965797     -110.873840       53.057037
 C        43.378689     -109.823929       54.801479
 H        44.331295     -109.423782       54.982956
 C        43.632332     -106.679764       56.066582
 H        43.830353     -106.980560       55.056686
 C        44.131805     -105.474884       56.429066
 H        44.738274     -104.900467       55.738808
 C        43.701195     -104.864548       57.624168
 H        44.117176     -103.888084       57.890972
 C        42.850670     -105.600891       58.440559
 H        42.424149     -105.307037       59.438622
 C        41.181614     -107.702209       60.010796
 C        41.278740     -108.749451       60.930542
 H        41.991524     -109.514435       60.732170
 C        40.557083     -108.698509       62.142117
 H        40.331532     -109.599236       62.615314
 C        39.605659     -107.657608       62.358257
 H        38.802498     -107.754242       63.067261
 C        39.638439     -106.592178       61.522141
 H        39.124298     -105.677719       61.819504
 C        40.433926     -106.615166       60.372761
 H        40.445602     -105.770348       59.752480
 C        36.828133     -109.165268       55.748405
 C        36.746010     -110.544754       55.525314
 N        38.026634     -108.947212       56.477127
 C        38.698929     -110.162453       56.767143
 N        37.930809     -111.177437       56.139767
 C        38.398361     -112.486969       56.348610
 C        39.370556     -112.603302       57.367630
 C        39.805199     -113.847809       57.734226
 H        40.568657     -113.919518       58.498611
 C        39.315624     -114.966202       57.096024
 H        39.504650     -115.864182       57.624146
 C        38.337585     -114.893181       56.063210
 H        37.834938     -115.803307       55.740837
 C        37.923859     -113.613052       55.728119
 H        37.608147     -113.491928       54.705891
 C        35.615654     -111.074219       54.998760
 H        35.487869     -112.096817       54.754677
 C        34.569515     -110.201180       54.658348
 H        33.720264     -110.626587       54.236916
 C        34.539383     -108.789536       54.900551
 H        33.643745     -108.238937       55.139000
 C        35.733234     -108.299171       55.457737
 H        35.896397     -107.204010       55.567722
 C        38.689793     -107.676926       56.361877
 C        39.337410     -107.370972       55.119587
 H        39.469296     -108.165421       54.426147
 C        39.962963     -106.049690       54.990685
 H        40.299809     -105.775681       54.038395
 C        39.815353     -105.159370       56.100250
 H        40.089149     -104.099907       56.072449
 C        39.202717     -105.568016       57.302162
 H        39.215416     -104.728165       58.067261
 C        38.660828     -106.829254       57.402847
 H        38.439522     -107.217102       58.388138
 C        38.573071     -112.280060       61.453815
 C        39.931976     -112.500214       61.590977
 N        38.453102     -111.542343       60.261353
 C        39.682320     -111.264130       59.635479
 N        40.547619     -111.925293       60.503712
 C        41.930180     -111.964813       60.078194
 C        42.058289     -111.728676       58.717007
 C        43.300049     -112.025284       58.085384
 H        43.530041     -111.717094       57.013039
 C        44.432858     -112.507050       58.820740
 H        45.389221     -112.709221       58.405060
 C        44.220238     -112.727104       60.181763
 H        45.017128     -112.978348       60.879433
 C        42.968735     -112.475174       60.841812
 H        42.817150     -113.119400       61.747025
 C        40.350113     -113.188400       62.777046
 H        41.369720     -113.293915       63.009792
 C        39.414162     -113.594292       63.781063
 H        39.885223     -113.726631       64.750946
 C        38.052555     -113.352554       63.497520
 H        37.322441     -113.793549       64.147568
 C        37.661880     -112.725128       62.323845
 H        36.659904     -112.502289       62.070503
 C        37.174801     -110.836815       60.074043
 C        37.083260     -109.445518       60.094398
 H        37.811668     -108.838409       60.714279
 C        35.958298     -108.802338       59.552120
 H        36.115326     -107.749954       59.248062
 C        34.952290     -109.604904       59.032871
 H        34.017796     -109.139740       58.736824
 C        34.921059     -111.005913       59.124020
 H        34.029297     -111.557556       59.073471
 C        36.062317     -111.618317       59.773010
 H        36.024673     -112.649178       59.821167
 Ir       40.404160     -110.792252       70.208984
 C        44.192741     -110.855301       67.975098
 C        43.315262     -110.233246       67.111565
 N        43.398010     -111.270966       69.029709
 C        42.128845     -110.813995       69.031708
 N        42.036839     -110.184540       67.819351
 C        40.663284     -109.720749       67.416428
 C        39.749180     -109.887070       68.449219
 C        38.398773     -109.511215       68.225555
 H        37.612183     -109.532387       69.009598
 C        38.068573     -108.939697       66.998795
 H        37.039970     -108.649719       66.915710
 C        39.013000     -108.731445       66.031746
 H        38.790337     -108.394516       65.046463
 C        40.331314     -109.133881       66.163956
 H        41.018211     -109.009354       65.300667
 C        43.674007     -109.890945       65.848541
 H        42.996132     -109.567780       65.142883
 C        45.018730     -110.140625       65.533463
 H        45.300507     -109.808685       64.495087
 C        45.904945     -110.766159       66.433205
 H        46.930832     -110.906845       66.092255
 C        45.429176     -111.144745       67.729240
 H        46.208038     -111.478401       68.417824
 C        43.811951     -112.395844       69.826965
 C        43.776936     -113.704926       69.312119
 H        43.028015     -113.879738       68.597870
 C        44.355923     -114.790039       70.059578
 H        44.439663     -115.846237       69.722610
 C        44.886093     -114.540207       71.319740
 H        45.189957     -115.412338       71.913773
 C        44.860550     -113.245102       71.795395
 H        45.021278     -113.030258       72.807175
 C        44.365974     -112.163467       71.110069
 H        44.567749     -111.198822       71.446716
 C        40.609680     -106.933884       72.354996
 C        39.350426     -107.313599       72.420609
 N        41.296112     -107.789291       71.400497
 C        40.365883     -108.814644       70.968597
 N        39.225246     -108.464951       71.644440
 C        38.105534     -109.370010       71.487915
 C        38.498993     -110.646286       71.079979
 C        37.476910     -111.617035       70.885323
 H        37.694805     -112.554596       70.372772
 C        36.109390     -111.308029       71.081825
 H        35.430058     -112.185860       71.059189
 C        35.719429     -109.995468       71.417839
 H        34.655666     -109.742577       71.190567
 C        36.739754     -109.009369       71.586792
 H        36.632599     -108.014206       71.313324
 C        38.536438     -106.762009       73.346329
 H        37.530758     -107.113770       73.535721
 C        38.953857     -105.802002       74.287689
 H        38.356773     -105.845490       75.228218
 C        40.264252     -105.414597       74.227043
 H        40.707939     -104.785774       74.906624
 C        41.116859     -105.969025       73.250328
 H        42.077374     -105.518036       73.131058
 C        42.618759     -107.473358       70.841309
 C        42.879448     -106.340874       70.111298
 H        42.076576     -105.573929       69.986443
 C        44.130432     -106.103157       69.545319
 H        44.227882     -105.324745       68.828957
 C        45.056244     -107.156456       69.712440
 H        45.916924     -107.123337       69.113251
 C        44.757576     -108.352524       70.368195
 H        45.468758     -109.188049       70.174477
 C        43.519783     -108.420494       71.019089
 H        43.215103     -109.281319       71.661530
 C        41.184494     -112.876869       74.009354
 C        40.812286     -113.859901       73.121147
 N        41.225647     -111.703827       73.303032
 C        40.942238     -111.895782       71.908859
 N        40.741096     -113.264702       71.848007
 C        40.465412     -113.800949       70.523834
 C        40.219170     -112.816566       69.545654
 C        39.898834     -113.157928       68.259239
 H        39.573822     -112.454910       67.480118
 C        39.930397     -114.495621       67.827751
 H        39.645958     -114.713943       66.806808
 C        40.219547     -115.516357       68.742401
 H        40.343384     -116.635406       68.411819
 C        40.453285     -115.181953       70.065598
 H        40.549614     -115.949211       70.802574
 C        40.509720     -115.139832       73.664864
 H        40.094421     -115.978836       73.118408
 C        40.546967     -115.358521       75.067932
 H        40.304512     -116.373093       75.528748
 C        40.922287     -114.371277       75.977875
 H        40.829559     -114.617340       77.050705
 C        41.286552     -113.108803       75.470070
 H        41.922768     -112.440285       75.957932
 C        41.301250     -110.422630       73.946243
 C        42.583366     -109.882858       74.122421
 H        43.466370     -110.431366       73.889969
 C        42.806839     -108.848122       75.012794
 H        43.807213     -108.556183       75.332512
 C        41.738594     -108.334244       75.816719
 H        41.741570     -107.478386       76.455925
 C        40.461807     -108.926376       75.686691
 H        39.645683     -108.556473       76.371826
 C        40.236176     -109.910858       74.740913
 H        39.243996     -110.362633       74.644096
