206
 generated by VMD
 Ir        0.797153       17.503510       98.722656
 C         2.495296       13.663944       97.441086
 C         1.828845       14.144478       96.300323
 N         2.385953       14.627413       98.413635
 C         1.629627       15.697114       97.954712
 N         1.349275       15.421907       96.635406
 C         0.276182       16.192953       96.081291
 C        -0.359460       17.007881       97.019989
 C        -1.600251       17.586143       96.604469
 H        -2.121495       18.093328       97.425247
 C        -2.215239       17.297714       95.379196
 H        -3.120812       17.674099       95.133911
 C        -1.601222       16.497311       94.402802
 H        -2.067614       16.083044       93.561043
 C        -0.320248       15.999487       94.765259
 H         0.161979       15.362957       94.078827
 C         1.954126       13.455268       95.058273
 H         1.711311       13.999241       94.136627
 C         2.620523       12.253221       95.056213
 H         2.922466       11.836337       94.144058
 C         3.135484       11.665656       96.247925
 H         3.705286       10.768238       96.174660
 C         3.156991       12.443476       97.445236
 H         3.987686       12.187371       98.087540
 C         3.153085       14.577613       99.620209
 C         4.283191       15.293749       99.701538
 H         4.931581       15.262701       98.779137
 C         4.852645       15.651592      100.937241
 H         5.726644       16.293652      100.959213
 C         4.227087       15.174976      102.077957
 H         4.843395       15.231166      102.937088
 C         3.190753       14.242435      102.005325
 H         2.729890       13.785789      102.878868
 C         2.630586       13.986956      100.790482
 H         1.731750       13.372530      100.735054
 C         2.954544       20.164074       96.072762
 C         2.056329       20.988602       96.712189
 N         2.733692       18.908867       96.530014
 C         1.696510       18.832497       97.419189
 N         1.280721       20.107193       97.504425
 C         0.098871       20.356728       98.220215
 C        -0.281266       19.313145       99.152817
 C        -1.347378       19.521938       99.964249
 H        -1.635188       18.776356      100.658981
 C        -2.132489       20.701668       99.874603
 H        -3.104371       20.816006      100.412529
 C        -1.828566       21.650675       98.893570
 H        -2.592764       22.270832       98.544418
 C        -0.707755       21.485470       98.059601
 H        -0.574263       22.157360       97.287048
 C         2.060552       22.426487       96.375336
 H         1.389228       23.082865       96.880798
 C         2.983984       22.971474       95.437599
 H         3.013664       24.051544       95.282471
 C         3.935268       22.062618       94.910301
 H         4.778314       22.339703       94.244339
 C         3.883905       20.673252       95.226578
 H         4.627273       19.990282       94.857864
 C         3.393308       17.759476       95.841240
 C         3.132684       17.530325       94.512459
 H         2.366327       18.177464       93.983963
 C         4.002254       16.854603       93.745224
 H         3.733440       16.482231       92.758530
 C         5.303596       16.566441       94.229858
 H         6.034551       16.225060       93.480011
 C         5.543586       16.832050       95.619011
 H         6.438301       16.551937       96.077408
 C         4.568874       17.369213       96.475388
 H         4.630548       17.124815       97.536835
 C         2.914293       18.155251      102.486313
 C         1.899370       17.396828      102.882309
 N         2.828018       18.348392      101.092949
 C         1.704128       17.786503      100.539642
 N         1.187297       17.126434      101.669281
 C         0.194036       16.178055      101.324448
 C        -0.401946       16.386261      100.040955
 C        -1.428511       15.455917       99.756668
 H        -2.123326       15.622495       98.951508
 C        -1.680571       14.251967      100.503571
 H        -2.579236       13.566705      100.431366
 C        -0.947327       14.051279      101.655518
 H        -1.036221       13.282727      102.336060
 C        -0.051709       15.013416      102.096153
 H         0.203077       15.048210      103.101379
 C         1.802209       17.101974      104.285995
 H         1.269601       16.255840      104.657990
 C         2.728096       17.661934      105.167007
 H         2.569728       17.519512      106.171173
 C         3.799383       18.424633      104.729706
 H         4.435625       19.001972      105.314064
 C         3.880897       18.692894      103.396378
 H         4.751173       19.225964      103.091980
 C         3.530063       19.449711      100.414398
 C         4.739545       19.251553       99.678680
 H         5.262746       18.354790       99.733200
 C         5.307271       20.134001       98.796539
 H         6.346981       19.877216       98.467194
 C         4.734128       21.329420       98.559509
 H         5.184370       22.192938       98.047821
 C         3.527385       21.611904       99.225365
 H         3.205101       22.581711       99.120880
 C         2.961452       20.734390      100.187958
 H         2.063129       20.960693      100.695023
 Ir        0.797151       17.503510      112.354462
 C        -0.707568       16.430973      116.345505
 C        -1.481764       17.454233      115.992996
 N         0.245075       16.167683      115.286377
 C         0.025438       17.052477      114.201630
 N        -0.970111       17.861435      114.721115
 C        -1.309231       18.960434      113.827240
 C        -0.303040       19.231281      112.879608
 C        -0.213685       20.511269      112.364105
 H         0.432596       20.781609      111.593559
 C        -1.121073       21.497055      112.734062
 H        -1.200986       22.448288      112.210159
 C        -2.126406       21.203896      113.680557
 H        -2.620148       22.047350      114.166870
 C        -2.226141       19.920013      114.176651
 H        -3.022162       19.605042      114.830215
 C        -2.652665       17.766819      116.710907
 H        -2.944352       18.798901      116.814468
 C        -3.059273       16.954823      117.827515
 H        -3.780951       17.343687      118.531982
 C        -2.213458       15.887321      118.135147
 H        -2.559304       15.121890      118.823700
 C        -1.009862       15.612621      117.490021
 H        -0.619912       14.623354      117.587967
 C         1.502551       15.577744      115.679863
 C         2.468919       16.463070      116.010513
 H         2.235889       17.568844      116.119446
 C         3.779521       16.112629      116.317291
 H         4.556026       16.864838      116.302353
 C         4.125093       14.757108      116.357895
 H         5.078142       14.470250      116.904892
 C         3.109769       13.808342      116.091873
 H         3.426353       12.743306      116.038254
 C         1.827356       14.214440      115.681625
 H         1.106983       13.539937      115.357437
 C        -2.511147       16.233625      109.882065
 C        -1.624524       16.891228      108.992920
 N        -1.961690       16.404776      111.160736
 C        -0.818476       17.154253      111.125366
 N        -0.706408       17.542259      109.751686
 C         0.482175       18.345310      109.490776
 C         1.441772       18.411095      110.509476
 C         2.638673       19.072472      110.221024
 H         3.343091       19.365685      110.980377
 C         2.841812       19.708412      108.975540
 H         3.763366       20.152220      108.702827
 C         1.907054       19.614990      107.990295
 H         1.991157       20.205793      107.100754
 C         0.737960       18.934155      108.242050
 H         0.058227       18.791172      107.367264
 C        -1.764569       16.736153      107.620865
 H        -0.879296       16.800339      107.031662
 C        -2.836018       16.036093      107.180511
 H        -2.980998       15.941486      106.113113
 C        -3.830636       15.550267      108.046608
 H        -4.776156       15.106313      107.688431
 C        -3.692584       15.609337      109.454430
 H        -4.380557       15.449145      110.230331
 C        -2.603983       16.000038      112.373230
 C        -2.195969       14.824616      113.060181
 H        -1.243302       14.399559      112.713257
 C        -2.936285       14.355785      114.137085
 H        -2.532917       13.430882      114.565155
 C        -4.020478       15.030467      114.674240
 H        -4.558684       14.692794      115.616798
 C        -4.429858       16.163727      114.022224
 H        -5.341366       16.581385      114.281677
 C        -3.684964       16.661615      112.906143
 H        -3.905350       17.563553      112.451782
 C         3.250560       13.907863      112.046677
 C         3.998043       14.848991      112.699471
 N         2.042964       14.533607      111.603897
 C         2.081090       15.905737      111.967636
 N         3.351917       16.046494      112.542252
 C         3.689260       17.364511      112.875305
 C         2.605476       18.221338      113.180038
 C         2.803071       19.426235      113.780426
 H         1.960348       19.890604      114.230637
 C         4.164009       19.897293      113.921356
 H         4.416118       20.829865      114.366943
 C         5.273872       19.065632      113.582184
 H         6.246656       19.208855      113.970627
 C         5.015523       17.811440      113.111710
 H         5.840528       17.122763      112.916794
 C         5.182249       14.397490      113.222824
 H         5.826726       15.060586      113.713486
 C         5.640920       13.070765      113.047836
 H         6.332466       12.590736      113.757935
 C         4.910446       12.198394      112.289764
 H         5.334390       11.236883      112.044693
 C         3.659851       12.554932      111.820946
 H         3.070861       11.863548      111.223892
 C         1.275361       14.074708      110.530441
 C         1.226194       14.792390      109.336533
 H         1.666126       15.759192      109.252548
 C         0.466327       14.354765      108.203186
 H         0.506784       14.844630      107.238770
 C        -0.343381       13.171049      108.394470
 H        -0.982876       12.719161      107.632210
 C        -0.364108       12.452981      109.630981
 H        -1.209059       11.846993      109.802551
 C         0.512433       12.874381      110.643394
 H         0.357231       12.447183      111.610260
