206
 generated by VMD
  IR        32.919998       44.060001       17.240000
  C1        32.000000       39.820000       16.320000
  C2        32.490002       39.830002       17.610001
  N1        32.020000       41.139999       15.910000
  C3a       32.650002       42.009998       16.889999
  N2        32.880001       41.189999       17.889999
  C4        33.480000       41.750000       18.980000
  C5a       33.509998       43.169998       19.040001
  C6        34.099998       43.810001       20.170000
  H1        34.110001       44.910000       20.120001
  C7        34.759998       43.080002       21.170000
  H2        35.180000       43.580002       22.049999
  C8        34.799999       41.700001       21.110001
  H3        35.259998       41.200001       21.879999
  C9        34.169998       41.049999       20.080000
  H4        34.250000       39.970001       20.129999
  C10       32.389999       38.680000       18.360001
  H5        32.580002       38.610001       19.490000
  C11       31.840000       37.490002       17.809999
  H6        31.650000       36.700001       18.400000
  C12       31.459999       37.459999       16.440001
  H7        31.200001       36.560001       15.940000
  C13       31.459999       38.700001       15.650000
  H8        31.320000       38.580002       14.580000
  C6        31.830000       41.500000       14.480000
  C1        32.939999       41.330002       13.650000
  H1        33.790001       40.740002       13.920000
  C2        32.840000       41.779999       12.310000
  H2        33.750000       41.980000       11.770000
  C3        31.610001       42.270000       11.820000
  H3        31.469999       42.410000       10.720000
  C4        30.559999       42.490002       12.700000
  H4        29.610001       42.810001       12.290000
  C5        30.680000       42.110001       14.030000
  H5        29.820000       42.189999       14.750000
  C1        29.129999       45.340000       19.110001
  C2        29.980000       46.419998       19.340000
  N1        29.900000       44.389999       18.440001
  C3b       31.230000       44.799999       18.290001
  N2        31.240000       46.040001       18.780001
  C4        32.549999       46.660000       18.660000
  C5b       33.509998       45.939999       17.930000
  C6        34.750000       46.560001       17.809999
  H1        35.480000       45.880001       17.350000
  C7        34.990002       47.910000       18.129999
  H2        35.830002       48.419998       17.860001
  C8        34.020000       48.680000       18.730000
  H3        34.209999       49.720001       19.110001
  C9        32.790001       48.029999       18.980000
  H4        32.049999       48.619999       19.500000
  C10       29.500000       47.570000       20.129999
  H5        30.200001       48.380001       20.420000
  C11       28.209999       47.549999       20.639999
  H6        27.940001       48.330002       21.260000
  C12       27.360001       46.439999       20.389999
  H7        26.350000       46.459999       20.830000
  C13       27.770000       45.310001       19.580000
  H8        27.059999       44.509998       19.410000
  C6        29.270000       43.130001       17.860001
  C1        28.370001       43.320000       16.830000
  H1        28.370001       44.220001       16.270000
  C2        27.490000       42.270000       16.469999
  H2        26.809999       42.349998       15.660000
  C3        27.469999       41.040001       17.200001
  H3        27.080000       40.090000       16.770000
  C4        28.420000       40.889999       18.240000
  H4        28.450001       39.930000       18.750000
  C5        29.290001       41.930000       18.570000
  H5        30.110001       41.770000       19.280001
  C1        32.189999       45.590000       13.270000
  C2        33.380001       44.939999       13.150000
  N1        31.930000       45.730000       14.630000
  C3c       32.790001       44.959999       15.410000
  N2        33.740002       44.480000       14.480000
  C4        34.750000       43.560001       14.940000
  C5c       34.779999       43.540001       16.379999
  C6        35.910000       42.930000       16.969999
  H1        36.119999       43.150002       17.930000
  C7        36.900002       42.400002       16.150000
  H2        37.759998       41.939999       16.610001
  C8        36.799999       42.380001       14.740000
  H3        37.700001       42.189999       14.220000
  C9        35.730000       42.959999       14.090000
  H4        35.509998       42.799999       13.060000
  C10       34.040001       44.840000       11.870000
  H5        34.750000       44.049999       11.620000
  C11       33.410000       45.400002       10.750000
  H6        33.799999       45.419998        9.710000
  C12       32.189999       46.020000       10.870000
  H7        31.820000       46.580002       10.050000
  C13       31.610001       46.180000       12.150000
  H8        30.549999       46.490002       12.280000
  C6        31.040001       46.869999       15.200000
  C1        31.650000       48.099998       15.450000
  H1        32.560001       48.299999       14.980000
  C2        30.950001       49.130001       16.129999
  H2        31.059999       50.189999       15.930000
  C3        29.650000       48.869999       16.629999
  H3        29.190001       49.619999       17.219999
  C4        29.090000       47.630001       16.309999
  H4        28.160000       47.430000       16.670000
  C5        29.709999       46.660000       15.530000
  H5        29.200001       45.700001       15.370000
  IR        29.180000       42.650002        2.000000
  C1        33.040001       41.099998        0.590000
  C2        32.450001       39.980000        1.140000
  N1        32.160000       42.160000        0.740000
  C3a       31.010000       41.770000        1.420000
  N2        31.139999       40.410000        1.590000
  C4        30.100000       39.799999        2.400000
  C5a       29.049999       40.669998        2.800000
  C6        28.020000       40.130001        3.670000
  H1        27.000000       40.520000        3.650000
  C7        28.090000       38.830002        4.150000
  H2        27.270000       38.450001        4.840000
  C8        29.030001       37.980000        3.530000
  H3        29.080000       36.939999        3.800000
  C9        30.010000       38.450001        2.640000
  H4        30.590000       37.730000        2.160000
  C10       33.130001       38.790001        0.960000
  H5        32.790001       37.869999        1.440000
  C11       34.279999       38.709999        0.250000
  H6        34.520000       37.639999        0.040000
  C12       34.790001       39.810001       -0.380000
  H7        35.669998       39.770000       -1.080000
  C13       34.189999       41.040001       -0.190000
  H8        34.610001       41.799999       -0.840000
  C6        32.480000       43.450001        0.450000
  C1        32.930000       44.349998        1.410000
  H1        32.680000       44.139999        2.410000
  C2        33.480000       45.610001        1.150000
  H2        33.720001       46.150002        1.990000
  C3        33.540001       46.020000       -0.160000
  H3        34.150002       46.849998       -0.470000
  C4        33.000000       45.169998       -1.160000
  H4        32.950001       45.529999       -2.180000
  C5        32.470001       43.900002       -0.870000
  H5        32.320000       43.189999       -1.670000
  C1        26.500000       41.110001       -1.110000
  C2        25.780001       42.110001       -0.500000
  N1        27.750000       41.070000       -0.500000
  C3b       27.850000       41.930000        0.590000
  N2        26.650000       42.630001        0.540000
  C4        26.350000       43.349998        1.760000
  C5b       27.309999       43.189999        2.830000
  C6        26.980000       43.639999        4.110000
  H1        27.680000       43.700001        4.930000
  C7        25.820000       44.320000        4.360000
  H2        25.790001       44.990002        5.180000
  C8        24.950001       44.500000        3.300000
  H3        24.010000       44.910000        3.550000
  C9        25.139999       44.009998        2.000000
  H4        24.330000       43.950001        1.310000
  C10       24.510000       42.459999       -1.020000
  H5        24.100000       43.389999       -0.800000
  C11       24.000000       41.799999       -2.220000
  H6        22.950001       41.820000       -2.310000
  C12       24.760000       40.770000       -2.790000
  H7        24.150000       40.049999       -3.280000
  C13       26.010000       40.439999       -2.250000
  H8        26.660000       39.799999       -2.810000
  C6        28.750000       40.130001       -0.970000
  C1        29.889999       40.669998       -1.620000
  H1        30.150000       41.709999       -1.670000
  C2        30.860001       39.810001       -2.100000
  H2        31.820000       40.209999       -2.380000
  C3        30.760000       38.439999       -1.890000
  H3        31.670000       37.959999       -2.130000
  C4        29.580000       37.869999       -1.290000
  H4        29.490000       36.849998       -1.230000
  C5        28.600000       38.759998       -0.840000
  H5        27.820000       38.290001       -0.350000
  C1        29.379999       46.990002        1.250000
  C2        30.049999       46.799999        2.430000
  N1        29.000000       45.660000        0.780000
  C3c       29.309999       44.669998        1.740000
  N2        29.959999       45.380001        2.730000
  C4        30.209999       44.639999        3.920000
  C5c       30.190001       43.259998        3.710000
  C6        30.480000       42.450001        4.820000
  H1        30.480000       41.389999        4.790000
  C7        30.670000       42.959999        6.140000
  H2        30.760000       42.369999        6.990000
  C8        30.639999       44.360001        6.290000
  H3        30.709999       44.770000        7.280000
  C9        30.500000       45.209999        5.220000
  H4        30.150000       46.200001        5.340000
  C10       30.670000       47.880001        3.100000
  H5        31.280001       47.660000        4.030000
  C11       30.389999       49.240002        2.650000
  H6        30.900000       50.130001        3.070000
  C12       29.650000       49.380001        1.460000
  H7        29.559999       50.259998        0.960000
  C13       29.190001       48.259998        0.730000
  H8        28.570000       48.410000       -0.130000
  C6        28.160000       45.459999       -0.380000
  C1        28.709999       44.680000       -1.390000
  H1        29.700001       44.259998       -1.250000
  C2        28.040001       44.459999       -2.570000
  H2        28.400000       43.709999       -3.280000
  C3        26.770000       45.090000       -2.840000
  H3        26.430000       45.090000       -3.820000
  C4        26.260000       45.970001       -1.810000
  H4        25.280001       46.529999       -1.780000
  C5        26.950001       46.130001       -0.630000
  H5        26.660000       46.970001        0.070000
