206
 generated by VMD
 Ir       70.305054      121.647949      -48.120438
 C        73.671730      122.820473      -45.575417
 C        74.237610      121.940536      -46.466480
 N        72.311584      122.936584      -45.862320
 C        72.043907      122.292870      -47.114906
 N        73.231735      121.560905      -47.372192
 C        73.107681      120.669205      -48.467358
 C        71.791428      120.276154      -48.729263
 C        71.551086      119.149384      -49.511833
 H        70.854156      118.443069      -49.169170
 C        72.627151      118.471573      -50.114197
 H        72.419800      117.628571      -50.711075
 C        73.936386      118.924362      -49.843246
 H        74.749710      118.309502      -50.026070
 C        74.185272      120.025436      -49.039074
 H        75.139008      120.416412      -48.978851
 C        75.587967      121.616348      -46.460304
 H        76.115799      121.037910      -47.172058
 C        76.368256      122.232193      -45.443607
 H        77.396187      121.901108      -45.299599
 C        75.831635      123.047882      -44.492405
 H        76.457153      123.487976      -43.651371
 C        74.490585      123.352951      -44.608341
 H        74.036682      124.181076      -44.073196
 C        71.369736      123.614403      -45.155640
 C        70.547089      122.941879      -44.260117
 H        70.751076      121.906548      -43.952229
 C        69.567291      123.653732      -43.553474
 H        69.131332      123.139175      -42.715511
 C        69.377045      125.015884      -43.764980
 H        68.543854      125.491524      -43.230690
 C        70.124374      125.713081      -44.693970
 H        70.038773      126.718872      -44.991219
 C        71.168839      125.017540      -45.369720
 H        71.782066      125.515411      -46.158756
 C        70.660934      124.205742      -51.560490
 C        69.597183      123.447975      -51.837658
 N        71.313797      123.589684      -50.477600
 C        70.592194      122.527061      -49.956528
 N        69.498138      122.478088      -50.748753
 C        68.528305      121.458527      -50.494946
 C        68.775314      120.774803      -49.313541
 C        68.244324      119.554459      -48.907345
 H        68.475800      118.941200      -48.015583
 C        67.536301      118.845863      -49.951862
 H        67.232773      117.823082      -49.789448
 C        67.321472      119.468445      -51.190948
 H        66.793259      118.913742      -51.929047
 C        67.778778      120.806564      -51.437149
 H        67.410568      121.299667      -52.315937
 C        68.694351      123.744194      -52.859634
 H        68.227707      122.882492      -53.302155
 C        68.844223      124.979820      -53.541359
 H        68.229614      125.142311      -54.429028
 C        69.948944      125.753906      -53.251717
 H        70.007080      126.814201      -53.587257
 C        70.847931      125.359406      -52.224785
 H        71.610542      125.998772      -51.886055
 C        72.719452      123.856316      -50.151466
 C        73.069183      124.570862      -49.004463
 H        72.377655      125.139923      -48.424316
 C        74.416420      124.748947      -48.603180
 H        74.584305      125.090134      -47.596992
 C        75.473221      124.372574      -49.376293
 H        76.492783      124.702103      -49.091156
 C        75.142868      123.653160      -50.564529
 H        75.893677      123.232384      -51.204655
 C        73.777542      123.428551      -50.893650
 H        73.501808      122.767517      -51.728462
 C        66.573318      123.566109      -46.529156
 C        66.625732      122.247421      -46.026249
 N        67.805710      123.623520      -47.300072
 C        68.599716      122.502655      -47.262470
 N        67.821747      121.597748      -46.522202
 C        68.569199      120.584290      -45.903233
 C        69.899414      120.463196      -46.425205
 C        70.771240      119.515030      -45.787006
 H        71.777802      119.473885      -46.104385
 C        70.360649      118.852913      -44.606869
 H        71.080032      118.372246      -43.935493
 C        69.059204      118.991356      -44.121922
 H        68.747147      118.353485      -43.313004
 C        68.155609      119.871811      -44.735535
 H        67.138596      119.763260      -44.388412
 C        65.596779      121.735359      -45.256359
 H        65.563095      120.681641      -45.033768
 C        64.502625      122.604156      -44.956654
 H        63.623863      122.115303      -44.477798
 C        64.548599      123.947510      -45.358021
 H        63.702564      124.675583      -45.296082
 C        65.539566      124.475891      -46.176796
 H        65.583206      125.484787      -46.493687
 C        67.878357      124.658012      -48.338696
 C        68.842857      125.607483      -48.210846
 H        69.660217      125.532822      -47.502571
 C        68.744186      126.780266      -48.980164
 H        69.381424      127.532539      -48.577896
 C        67.746216      126.941040      -49.977516
 H        67.834885      127.835281      -50.596771
 C        66.851212      125.927994      -50.162186
 H        65.942825      126.068672      -50.802223
 C        66.896820      124.793091      -49.308304
 H        66.134537      124.022110      -49.451897
 Ir       70.305054      121.647949      -35.898529
 C        67.952362      121.822403      -39.454891
 C        67.062485      122.085564      -38.456562
 N        69.155701      121.895981      -38.917336
 C        69.157394      122.146233      -37.583252
 N        67.803787      122.355507      -37.308216
 C        67.471695      122.636017      -35.935760
 C        68.422218      122.163696      -35.040318
 C        68.147919      122.300064      -33.677025
 H        68.838745      121.887482      -32.968914
 C        66.918594      122.836182      -33.219692
 H        66.631317      123.192696      -32.181931
 C        66.034370      123.397049      -34.184155
 H        65.129181      124.041809      -33.883133
 C        66.317215      123.234978      -35.525841
 H        65.672699      123.790314      -36.212067
 C        65.651962      122.151314      -38.792721
 H        64.976425      122.788094      -38.249435
 C        65.282524      121.843445      -40.142509
 H        64.228485      122.063019      -40.399586
 C        66.199066      121.618835      -41.142555
 H        65.812614      121.436401      -42.095642
 C        67.545197      121.639923      -40.788727
 H        68.182861      121.321945      -41.576611
 C        70.284576      121.623444      -39.734306
 C        70.607216      120.320251      -39.986473
 H        69.957489      119.552124      -39.541580
 C        71.588852      120.012642      -40.907326
 H        71.849854      119.019592      -41.210552
 C        72.270233      121.047806      -41.621082
 H        73.030182      120.822205      -42.338154
 C        71.979218      122.368713      -41.295517
 H        72.306976      123.268135      -41.929092
 C        71.022552      122.624939      -40.325336
 H        70.697861      123.670052      -40.249779
 C        71.795578      125.403496      -34.492001
 C        72.481262      124.403618      -33.712090
 N        70.829018      124.697754      -35.236439
 C        70.993622      123.406792      -35.106022
 N        71.844208      123.166840      -34.098282
 C        71.749817      122.016655      -33.373882
 C        71.124741      120.942734      -34.052544
 C        71.131393      119.711243      -33.409271
 H        70.439537      118.933273      -33.839031
 C        71.864960      119.490784      -32.267262
 H        72.081146      118.460327      -31.893589
 C        72.549515      120.516411      -31.632544
 H        73.150879      120.233414      -30.744137
 C        72.476151      121.782303      -32.189983
 H        73.257477      122.436592      -31.924236
 C        73.557869      124.908943      -32.962574
 H        74.365410      124.344185      -32.518696
 C        73.903793      126.243645      -32.918797
 H        74.771011      126.547523      -32.372444
 C        73.291229      127.198708      -33.743916
 H        73.320816      128.128174      -33.325691
 C        72.207581      126.735397      -34.533237
 H        71.636505      127.384506      -35.118416
 C        69.675598      125.308372      -35.887119
 C        68.686874      125.910484      -35.103809
 H        68.678955      125.744270      -34.066986
 C        67.617722      126.623894      -35.748840
 H        66.761459      127.056122      -35.266350
 C        67.552902      126.667473      -37.115768
 H        66.777153      127.311760      -37.551670
 C        68.530121      126.058411      -37.884270
 H        68.363937      126.083282      -38.974113
 C        69.634659      125.419662      -37.284771
 H        70.347092      124.885681      -37.859230
 C        73.838821      120.292740      -38.000984
 C        73.143692      119.156433      -37.790993
 N        73.215721      121.243866      -37.215549
 C        72.033478      120.842575      -36.688423
 N        72.047401      119.532799      -37.048553
 C        70.849258      118.802238      -36.647636
 C        69.722046      119.660622      -36.337986
 C        68.428299      119.107834      -36.400703
 H        67.545174      119.659485      -36.274738
 C        68.275337      117.697388      -36.546097
 H        67.292770      117.259514      -36.650703
 C        69.407547      116.847702      -36.699226
 H        69.210312      115.816895      -36.755066
 C        70.663879      117.355682      -36.767624
 H        71.478287      116.636673      -36.593307
 C        73.446640      117.962929      -38.506714
 H        72.577522      117.252052      -38.610626
 C        74.442993      118.062347      -39.495388
 H        74.818939      117.088737      -39.848732
 C        75.197868      119.253525      -39.700760
 H        75.976364      119.257156      -40.458008
 C        74.936996      120.350143      -38.876217
 H        75.463516      121.239510      -39.211475
 C        73.872803      122.444160      -36.871414
 C        74.823685      122.398361      -35.829758
 H        74.873619      121.511734      -35.274769
 C        75.440453      123.556633      -35.482639
 H        75.901337      123.648750      -34.527550
 C        75.210457      124.765213      -36.148163
 H        75.190445      125.695412      -35.552063
 C        74.306305      124.830811      -37.184746
 H        74.032417      125.743858      -37.712318
 C        73.583344      123.706940      -37.476719
 H        72.555313      123.714661      -37.718376
