206
 generated by VMD
  IR        38.490002       21.530001       44.869999
  C1        40.880001       17.930000       44.070000
  C2        41.790001       18.930000       44.180000
  N1        39.610001       18.469999       44.250000
  C3a       39.660000       19.820000       44.369999
  N2        41.060001       20.110001       44.410000
  C4        41.410000       21.459999       44.740002
  C5a       40.419998       22.420000       44.599998
  C6        40.779999       23.750000       44.540001
  H1        40.110001       24.500000       44.169998
  C7        42.060001       24.209999       44.810001
  H2        42.189999       25.240000       45.090000
  C8        43.070000       23.320000       45.020000
  H3        44.119999       23.600000       44.980000
  C9        42.759998       21.910000       45.080002
  H4        43.509998       21.219999       45.439999
  C10       43.110001       18.680000       44.060001
  H5        43.759998       19.480000       44.119999
  C11       43.619999       17.389999       43.869999
  H6        44.650002       17.190001       44.040001
  C12       42.779999       16.370001       43.709999
  H7        43.150002       15.360000       43.509998
  C13       41.380001       16.610001       43.779999
  H8        40.660000       15.800000       43.599998
  C6        38.419998       17.719999       44.070000
  C1        37.630001       17.480000       45.160000
  H1        38.160000       17.629999       46.130001
  C2        36.389999       16.809999       44.990002
  H2        35.650002       16.639999       45.750000
  C3        35.990002       16.360001       43.750000
  H3        34.950001       16.000000       43.580002
  C4        36.799999       16.600000       42.639999
  H4        36.549999       16.389999       41.590000
  C5        38.040001       17.240000       42.759998
  H5        38.660000       17.370001       41.950001
  C1        39.000000       21.610001       49.180000
  C2        38.250000       22.719999       48.930000
  N1        39.520000       21.160000       47.930000
  C3b       38.930000       21.840000       46.880001
  N2        38.220001       22.879999       47.520000
  C4        37.509998       23.760000       46.669998
  C5b       37.509998       23.379999       45.310001
  C6        36.910000       24.240000       44.380001
  H1        36.990002       23.950001       43.320000
  C7        36.349998       25.480000       44.770000
  H2        36.279999       26.270000       44.090000
  C8        36.279999       25.799999       46.099998
  H3        36.160000       26.809999       46.360001
  C9        36.810001       24.889999       47.040001
  H4        36.520000       25.030001       48.080002
  C10       37.599998       23.379999       50.009998
  H5        37.450001       24.389999       50.040001
  C11       37.570000       22.780001       51.259998
  H6        37.270000       23.440001       52.099998
  C12       38.299999       21.549999       51.509998
  H7        38.349998       21.070000       52.450001
  C13       39.029999       21.020000       50.419998
  H8        39.480000       20.049999       50.509998
  C6        40.680000       20.230000       47.840000
  C1        40.500000       18.910000       47.599998
  H1        39.500000       18.469999       47.360001
  C2        41.619999       18.010000       47.549999
  H2        41.610001       17.110001       46.959999
  C3        42.889999       18.620001       47.610001
  H3        43.700001       17.930000       47.509998
  C4        43.060001       19.950001       47.750000
  H4        44.029999       20.379999       47.450001
  C5        41.959999       20.780001       47.910000
  H5        42.060001       21.850000       48.060001
  C1        34.639999       19.629999       45.020000
  C2        34.950001       19.740000       43.669998
  N1        35.599998       20.330000       45.730000
  C3c       36.560001       20.860001       44.869999
  N2        36.150002       20.469999       43.610001
  C4        36.799999       21.020000       42.490002
  C5c       37.990002       21.680000       42.790001
  C6        38.689999       22.340000       41.779999
  H1        39.669998       22.709999       42.099998
  C7        38.169998       22.420000       40.459999
  H2        38.799999       22.900000       39.650002
  C8        36.939999       21.889999       40.200001
  H3        36.509998       21.830000       39.240002
  C9        36.259998       21.110001       41.180000
  H4        35.259998       20.770000       40.869999
  C10       34.169998       19.000000       42.740002
  H5        34.580002       18.719999       41.750000
  C11       32.980000       18.370001       43.180000
  H6        32.430000       17.709999       42.549999
  C12       32.619999       18.400000       44.549999
  H7        31.750000       17.969999       45.020000
  C13       33.520000       18.959999       45.459999
  H8        33.230000       19.040001       46.529999
  C6        35.330002       20.830000       47.009998
  C1        35.779999       20.170000       48.180000
  H1        36.169998       19.160000       48.099998
  C2        35.459999       20.680000       49.430000
  H2        35.959999       20.170000       50.279999
  C3        34.860001       21.910000       49.549999
  H3        34.740002       22.379999       50.540001
  C4        34.410000       22.549999       48.389999
  H4        33.730000       23.400000       48.450001
  C5        34.580002       22.059999       47.060001
  H5        34.130001       22.469999       46.200001
  IR        40.790001       19.820000       35.110001
  C1        39.700001       16.160000       37.200001
  C2        40.200001       17.010000       38.200001
  N1        39.900002       16.820000       35.959999
  C3a       40.529999       18.049999       36.130001
  N2        40.700001       18.129999       37.549999
  C4        41.299999       19.379999       37.990002
  C5a       41.349998       20.379999       37.049999
  C6        41.750000       21.670000       37.490002
  H1        41.939999       22.520000       36.810001
  C7        41.880001       22.020000       38.830002
  H2        42.189999       22.990000       39.090000
  C8        41.709999       20.959999       39.779999
  H3        41.610001       21.129999       40.840000
  C9        41.529999       19.660000       39.340000
  H4        41.570000       18.730000       39.990002
  C10       39.860001       16.600000       39.490002
  H5        40.020000       17.230000       40.310001
  C11       39.099998       15.460000       39.770000
  H6        38.820000       15.240000       40.810001
  C12       38.610001       14.660000       38.740002
  H7        37.869999       13.850000       38.910000
  C13       38.939999       14.970000       37.470001
  H8        38.820000       14.290000       36.680000
  C6        39.580002       16.200001       34.700001
  C1        38.400002       16.600000       33.980000
  H1        37.619999       17.260000       34.349998
  C2        37.970001       15.830000       32.840000
  H2        37.029999       16.160000       32.439999
  C3        38.810001       14.840000       32.340000
  H3        38.380001       14.230000       31.540001
  C4        40.000000       14.460000       33.020000
  H4        40.669998       13.660000       32.700001
  C5        40.400002       15.120000       34.209999
  H5        41.150002       14.690000       34.770000
  C1        36.869999       21.600000       35.730000
  C2        37.610001       22.580000       35.099998
  N1        37.759998       20.530001       35.950001
  C3b       39.029999       20.809999       35.430000
  N2        38.939999       22.049999       34.959999
  C4        40.150002       22.650000       34.560001
  C5b       41.189999       21.770000       34.430000
  C6        42.419998       22.209999       33.930000
  H1        43.270000       21.540001       33.860001
  C7        42.639999       23.590000       33.799999
  H2        43.529999       23.780001       33.259998
  C8        41.580002       24.490000       33.889999
  H3        41.820000       25.440001       33.520000
  C9        40.340000       24.049999       34.310001
  H4        39.549999       24.780001       34.619999
  C10       36.910000       23.790001       34.700001
  H5        37.340000       24.420000       33.980000
  C11       35.549999       23.990000       35.040001
  H6        35.119999       24.900000       34.779999
  C12       34.810001       22.969999       35.680000
  H7        33.720001       23.110001       35.810001
  C13       35.459999       21.760000       36.070000
  H8        34.840000       21.090000       36.680000
  C6        37.419998       19.510000       36.889999
  C1        37.799999       19.600000       38.250000
  H1        38.430000       20.459999       38.669998
  C2        37.400002       18.639999       39.169998
  H2        37.590000       18.600000       40.209999
  C3        36.630001       17.540001       38.840000
  H3        36.450001       16.780001       39.580002
  C4        36.279999       17.400000       37.490002
  H4        35.490002       16.629999       37.450001
  C5        36.639999       18.350000       36.540001
  H5        36.189999       18.510000       35.580002
  C1        40.150002       18.330000       31.150000
  C2        41.430000       17.900000       31.459999
  N1        39.799999       19.129999       32.160000
  C3c       40.700001       19.240000       33.169998
  N2        41.810001       18.520000       32.689999
  C4        42.930000       18.400000       33.470001
  C5c       42.730000       18.940001       34.770000
  C6        43.730000       18.760000       35.680000
  H1        43.799999       19.190001       36.619999
  C7        44.840000       17.950001       35.360001
  H2        45.689999       17.900000       36.049999
  C8        44.959999       17.309999       34.119999
  H3        45.630001       16.490000       33.919998
  C9        43.970001       17.629999       33.189999
  H4        44.340000       17.850000       32.169998
  C10       42.080002       17.040001       30.530001
  H5        42.990002       16.570000       30.809999
  C11       41.480000       16.700001       29.340000
  H6        42.130001       16.129999       28.719999
  C12       40.180000       17.170000       28.980000
  H7        39.860001       17.030001       27.969999
  C13       39.459999       17.920000       29.950001
  H8        38.410000       18.129999       29.780001
  C6        38.720001       20.100000       31.920000
  C1        37.439999       19.580000       32.180000
  H1        37.360001       18.650000       32.720001
  C2        36.330002       20.389999       32.009998
  H2        35.380001       20.120001       32.349998
  C3        36.570000       21.719999       31.700001
  H3        35.939999       22.389999       32.240002
  C4        37.779999       22.230000       31.389999
  H4        37.820000       23.080000       30.750000
  C5        38.919998       21.420000       31.500000
  H5        39.939999       21.790001       31.180000
