206
 generated by VMD
  IR        44.680000        1.500000       52.970001
  C1        41.790001       -1.640000       52.029999
  C2        42.049999       -1.090000       50.830002
  N1        42.360001       -0.830000       53.080002
  C3a       43.139999        0.210000       52.480000
  N2        42.810001        0.110000       51.130001
  C4        43.410000        1.130000       50.279999
  C5a       44.439999        1.870000       50.919998
  C6        45.169998        2.680000       50.049999
  H1        46.000000        3.240000       50.470001
  C7        44.939999        2.800000       48.669998
  H2        45.520000        3.540000       48.070000
  C8        43.900002        2.160000       48.119999
  H3        43.860001        2.130000       47.000000
  C9        43.110001        1.330000       48.889999
  H4        42.200001        0.960000       48.439999
  C10       41.590000       -1.710000       49.590000
  H5        41.900002       -1.210000       48.669998
  C11       40.910000       -2.970000       49.730000
  H6        40.759998       -3.580000       48.860001
  C12       40.849998       -3.580000       51.020000
  H7        40.299999       -4.460000       51.070000
  C13       41.130001       -2.880000       52.169998
  H8        40.880001       -3.190000       53.189999
  C6        42.290001       -1.140000       54.430000
  C1        43.259998       -2.000000       54.910000
  H1        43.930000       -2.510000       54.209999
  C2        43.220001       -2.390000       56.200001
  H2        43.990002       -3.070000       56.689999
  C3        42.139999       -2.010000       57.009998
  H3        42.369999       -2.190000       58.070000
  C4        41.080002       -1.210000       56.509998
  H4        40.209999       -0.890000       57.130001
  C5        41.180000       -0.740000       55.209999
  H5        40.430000       -0.020000       54.950001
  C1        48.009998       -0.650000       51.320000
  C2        48.590000        0.500000       51.840000
  N1        46.680000       -0.720000       51.669998
  C3b       46.389999        0.430000       52.430000
  N2        47.570000        1.170000       52.480000
  C4        47.509998        2.390000       53.240002
  C5b       46.220001        2.930000       53.230000
  C6        46.049999        4.260000       53.570000
  H1        45.119999        4.720000       53.330002
  C7        47.200001        5.020000       53.930000
  H2        47.119999        6.030000       54.270000
  C8        48.459999        4.430000       53.930000
  H3        49.250000        4.930000       54.419998
  C9        48.650002        3.070000       53.599998
  H4        49.529999        2.530000       53.630001
  C10       49.869999        0.840000       51.439999
  H5        50.230000        1.840000       51.580002
  C11       50.619999        0.000000       50.650002
  H6        51.590000        0.330000       50.310001
  C12       50.070000       -1.190000       50.119999
  H7        50.700001       -1.820000       49.520000
  C13       48.779999       -1.550000       50.529999
  H8        48.270000       -2.430000       50.150002
  C6        45.980000       -1.970000       51.650002
  C1        46.330002       -2.890000       52.599998
  H1        47.119999       -2.570000       53.299999
  C2        45.720001       -4.120000       52.639999
  H2        46.000000       -4.870000       53.330002
  C3        44.700001       -4.470000       51.730000
  H3        44.250000       -5.450000       51.759998
  C4        44.389999       -3.550000       50.709999
  H4        43.930000       -3.880000       49.810001
  C5        45.049999       -2.290000       50.680000
  H5        44.770000       -1.560000       49.919998
  C1        44.549999        0.820000       57.330002
  C2        43.439999        1.590000       56.959999
  N1        45.320000        0.650000       56.160000
  C3c       44.730000        1.460000       55.070000
  N2        43.650002        2.020000       55.660000
  C4        43.009998        3.060000       54.849998
  C5c       43.169998        2.880000       53.470001
  C6        42.360001        3.620000       52.590000
  H1        42.450001        3.230000       51.540001
  C7        41.540001        4.680000       53.070000
  H2        41.040001        5.350000       52.320000
  C8        41.490002        4.980000       54.410000
  H3        41.020000        5.860000       54.820000
  C9        42.169998        4.150000       55.360001
  H4        42.349998        4.510000       56.419998
  C10       42.509998        2.000000       57.910000
  H5        41.750000        2.670000       57.630001
  C11       42.759998        1.720000       59.279999
  H6        41.950001        1.880000       59.930000
  C12       43.849998        0.990000       59.610001
  H7        44.020000        0.810000       60.650002
  C13       44.759998        0.530000       58.680000
  H8        45.660000        0.150000       59.040001
  C6        46.590000        0.220000       56.080002
  C1        46.810001       -1.060000       55.650002
  H1        45.990002       -1.460000       55.049999
  C2        48.099998       -1.530000       55.419998
  H2        48.240002       -2.560000       55.150002
  C3        49.169998       -0.660000       55.459999
  H3        50.200001       -0.960000       55.200001
  C4        48.939999        0.680000       55.869999
  H4        49.730000        1.400000       55.849998
  C5        47.650002        1.140000       56.209999
  H5        47.560001        2.050000       56.689999
  IR        55.330002        1.580000       60.680000
  C1        54.320000        4.840000       63.459999
  C2        55.660000        4.780000       63.490002
  N1        53.900002        3.810000       62.610001
  C3a       54.970001        3.020000       62.160000
  N2        56.029999        3.680000       62.680000
  C4        57.230000        3.260000       62.189999
  C5a       57.230000        2.200000       61.290001
  C6        58.419998        1.720000       60.830002
  H1        58.369999        0.890000       60.160000
  C7        59.650002        2.160000       61.360001
  H2        60.619999        1.960000       60.970001
  C8        59.639999        3.240000       62.220001
  H3        60.560001        3.780000       62.380001
  C9        58.459999        3.860000       62.560001
  H4        58.480000        4.740000       63.119999
  C10       56.279999        5.860000       64.050003
  H5        57.270000        5.700000       64.459999
  C11       55.709999        7.070000       64.389999
  H6        56.180000        7.750000       64.989998
  C12       54.270000        7.090000       64.330002
  H7        53.759998        8.030000       64.559998
  C13       53.599998        5.970000       63.840000
  H8        52.570000        5.900000       63.840000
  C6        52.580002        3.250000       62.700001
  C1        51.650002        3.410000       61.660000
  H1        51.950001        4.020000       60.880001
  C2        50.290001        3.060000       61.849998
  H2        49.669998        3.040000       60.959999
  C3        49.900002        2.370000       63.040001
  H3        48.840000        2.290000       63.340000
  C4        50.880001        2.080000       64.000000
  H4        50.799999        1.210000       64.660004
  C5        52.220001        2.560000       63.820000
  H5        53.029999        2.280000       64.510002
  C1        56.220001        3.930000       57.029999
  C2        56.160000        2.630000       56.630001
  N1        56.009998        3.970000       58.459999
  C3b       55.810001        2.650000       58.930000
  N2        55.980000        1.870000       57.750000
  C4        56.119999        0.430000       58.000000
  C5b       56.099998        0.100000       59.360001
  C6        56.689999       -1.200000       59.650002
  H1        56.619999       -1.600000       60.660000
  C7        57.250000       -2.020000       58.650002
  H2        57.900002       -2.890000       58.939999
  C8        57.070000       -1.710000       57.299999
  H3        57.250000       -2.410000       56.500000
  C9        56.529999       -0.460000       57.009998
  H4        56.369999       -0.330000       55.950001
  C10       56.529999        2.310000       55.290001
  H5        56.330002        1.360000       54.860001
  C11       57.029999        3.260000       54.400002
  H6        57.410000        2.840000       53.480000
  C12       57.169998        4.590000       54.820000
  H7        57.860001        5.130000       54.230000
  C13       56.759998        4.860000       56.189999
  H8        57.200001        5.830000       56.520000
  C6        56.000000        5.110000       59.310001
  C1        54.770000        5.580000       59.730000
  H1        53.880001        5.050000       59.430000
  C2        54.660000        6.750000       60.459999
  H2        53.709999        7.110000       60.680000
  C3        55.810001        7.430000       60.849998
  H3        55.639999        8.340000       61.410000
  C4        57.040001        6.880000       60.490002
  H4        57.860001        7.440000       60.810001
  C5        57.139999        5.750000       59.630001
  H5        58.090000        5.290000       59.470001
  C1        51.450001        0.200000       59.700001
  C2        51.650002       -0.230000       60.959999
  N1        52.560001        0.930000       59.299999
  C3c       53.470001        0.810000       60.279999
  N2        52.959999        0.110000       61.290001
  C4        53.889999       -0.440000       62.299999
  C5c       55.119999        0.150000       62.240002
  C6        56.150002       -0.340000       63.099998
  H1        57.119999       -0.240000       62.689999
  C7        55.889999       -1.190000       64.180000
  H2        56.549999       -1.320000       65.070000
  C8        54.610001       -1.730000       64.230003
  H3        54.410000       -2.520000       64.980003
  C9        53.560001       -1.390000       63.270000
  H4        52.630001       -1.970000       63.230000
  C10       50.689999       -0.960000       61.630001
  H5        50.810001       -1.260000       62.680000
  C11       49.450001       -1.250000       60.970001
  H6        48.709999       -1.960000       61.490002
  C12       49.200001       -0.760000       59.730000
  H7        48.520000       -1.230000       59.130001
  C13       50.220001       -0.060000       59.119999
  H8        50.119999        0.280000       58.099998
  C6        52.799999        1.240000       57.930000
  C1        52.790001        2.620000       57.570000
  H1        52.480000        3.350000       58.259998
  C2        52.990002        2.980000       56.240002
  H2        53.259998        3.990000       56.029999
  C3        53.169998        1.960000       55.320000
  H3        53.270000        2.190000       54.279999
  C4        53.189999        0.610000       55.700001
  H4        53.250000       -0.110000       54.820000
  C5        52.980000        0.260000       56.990002
  H5        53.270000       -0.780000       57.220001
