206
 generated by VMD
 Ir       81.151794       79.233566      -27.932434
 C        84.653427       77.023308      -26.527782
 C        84.786163       78.319626      -26.055193
 N        83.428329       76.974983      -27.297253
 C        82.893326       78.276787      -27.353626
 N        83.702942       79.051598      -26.526833
 C        83.230881       80.434967      -26.292027
 C        82.317337       80.845810      -27.245098
 C        82.012863       82.237877      -27.477554
 H        81.526703       82.452271      -28.488583
 C        82.595306       83.176651      -26.640373
 H        82.388535       84.285126      -26.806259
 C        83.490669       82.743347      -25.576107
 H        83.822289       83.542755      -24.982582
 C        83.806641       81.372818      -25.412960
 H        84.131149       81.042206      -24.437468
 C        85.881752       78.568474      -25.208807
 H        86.095886       79.532471      -24.709145
 C        86.826569       77.647156      -25.064270
 H        87.585800       77.713867      -24.289919
 C        86.696564       76.300247      -25.516064
 H        87.318573       75.503220      -25.305660
 C        85.519913       76.009239      -26.218752
 H        85.394867       75.013092      -26.697758
 C        82.949860       75.853188      -28.093273
 C        81.752518       75.304016      -27.666218
 H        81.120361       75.646088      -26.885651
 C        81.299667       74.106979      -28.273602
 H        80.231277       73.866989      -28.298962
 C        82.104263       73.455063      -29.191124
 H        82.029579       72.477966      -29.668831
 C        83.237259       74.105118      -29.604713
 H        83.844795       73.623428      -30.385143
 C        83.656891       75.326492      -29.145325
 H        84.314346       75.979294      -29.720657
 C        78.964417       79.518097      -24.135279
 C        78.266174       80.331596      -24.944777
 N        79.983711       78.957443      -24.858950
 C        80.045273       79.429543      -26.170792
 N        79.005951       80.338997      -26.173098
 C        78.738998       80.945694      -27.426914
 C        79.474319       80.438370      -28.474026
 C        79.175331       80.777069      -29.789051
 H        79.722916       80.429047      -30.669182
 C        78.212570       81.672745      -30.094589
 H        78.040054       81.990875      -31.081924
 C        77.512138       82.239098      -29.033440
 H        76.644707       82.921768      -29.292702
 C        77.734451       81.891037      -27.687878
 H        77.167793       82.473602      -26.970303
 C        77.078613       80.962479      -24.504223
 H        76.533783       81.649506      -25.170307
 C        76.649017       80.668373      -23.239967
 H        75.594429       80.706070      -23.178162
 C        77.339584       79.842712      -22.338852
 H        77.230583       79.938110      -21.279789
 C        78.543518       79.221832      -22.790899
 H        79.145660       78.613525      -22.113922
 C        80.777008       77.891228      -24.412346
 C        80.290970       76.560883      -24.469345
 H        79.256241       76.390862      -24.516428
 C        81.215942       75.533714      -24.079655
 H        80.933289       74.502609      -24.247953
 C        82.503143       75.820007      -23.667412
 H        83.194214       75.075500      -23.208469
 C        82.905457       77.120056      -23.538498
 H        83.972748       77.099548      -23.497623
 C        82.030029       78.165039      -23.876919
 H        82.298996       79.142128      -23.540108
 C        78.824310       76.172707      -29.847229
 C        79.955200       76.282028      -30.638462
 N        78.892044       77.158600      -28.919212
 C        80.009506       77.861794      -29.047611
 N        80.652725       77.378494      -30.187660
 C        81.700287       78.254036      -30.753105
 C        82.025223       79.347092      -29.896271
 C        82.977173       80.270432      -30.304016
 H        83.250061       81.192574      -29.774422
 C        83.729263       80.187561      -31.532379
 H        84.563065       80.864182      -31.592022
 C        83.395058       79.073273      -32.333866
 H        83.894714       78.917030      -33.246021
 C        82.447937       78.170547      -31.953545
 H        82.385612       77.297134      -32.584545
 C        80.273026       75.268997      -31.562878
 H        80.988831       75.397018      -32.398418
 C        79.327118       74.199402      -31.708916
 H        79.391113       73.621445      -32.642651
 C        78.178177       74.109756      -30.891479
 H        77.337692       73.451218      -31.147633
 C        77.978058       75.049103      -29.906952
 H        77.367477       74.720558      -29.130711
 C        77.691025       77.625839      -28.326878
 C        77.507401       77.275543      -26.995987
 H        78.331802       76.747513      -26.489475
 C        76.275131       77.482590      -26.378616
 H        76.010208       77.131317      -25.347202
 C        75.230118       77.951843      -27.172306
 H        74.275558       78.337570      -26.700043
 C        75.402512       78.251854      -28.484623
 H        74.606209       78.701782      -29.088665
 C        76.623596       78.075409      -29.117424
 H        76.792526       77.959396      -30.196033
 Ir       81.151794       79.233566      -14.016295
 C        80.676117       78.257812      -18.232149
 C        81.993546       78.731155      -18.118900
 N        80.063240       78.437210      -16.965101
 C        80.934128       79.028687      -16.053829
 N        82.133690       79.196121      -16.818487
 C        83.234329       79.756996      -16.050301
 C        83.061096       79.775894      -14.688048
 C        84.181564       80.135635      -13.892527
 H        84.133331       80.299133      -12.800765
 C        85.474075       80.254692      -14.392758
 H        86.259399       80.534409      -13.752745
 C        85.618011       80.117706      -15.812447
 H        86.574036       80.012474      -16.299723
 C        84.495682       79.978180      -16.610527
 H        84.476883       80.047058      -17.743624
 C        82.791031       78.404060      -19.216537
 H        83.827454       78.544411      -19.184174
 C        82.334885       77.679840      -20.322449
 H        83.042580       77.406815      -21.118071
 C        81.022690       77.214935      -20.377377
 H        80.671501       76.500458      -21.151192
 C        80.182526       77.535141      -19.372646
 H        79.141785       77.436325      -19.462074
 C        78.673584       78.136627      -16.735081
 C        78.303925       76.944763      -16.018402
 H        78.976517       76.144638      -15.721214
 C        76.921387       76.538895      -15.982969
 H        76.774078       75.589096      -15.504762
 C        75.951019       77.409248      -16.469341
 H        74.937607       76.998405      -16.504057
 C        76.300209       78.610474      -17.146101
 H        75.583939       79.305008      -17.588688
 C        77.658127       78.989784      -17.300648
 H        77.872818       79.752777      -17.958481
 C        82.626709       75.260162      -13.038626
 C        82.705276       75.969360      -11.857197
 N        82.193161       76.182968      -14.011173
 C        81.959671       77.443665      -13.447389
 N        82.305191       77.315178      -12.170395
 C        82.355545       78.505951      -11.419651
 C        81.752884       79.572792      -12.029207
 C        81.628754       80.788528      -11.348711
 H        81.194427       81.658936      -11.828354
 C        82.337318       80.965546      -10.150251
 H        82.027901       81.849213       -9.657104
 C        82.918961       79.878098       -9.501531
 H        83.181282       80.088470       -8.509598
 C        82.978149       78.652367      -10.135316
 H        83.643066       77.840065       -9.746512
 C        83.078735       75.232101      -10.660920
 H        82.873413       75.642319       -9.717646
 C        83.446526       73.866547      -10.732909
 H        83.762199       73.408478       -9.854768
 C        83.352585       73.158592      -11.952571
 H        83.520096       72.064774      -11.943027
 C        82.970123       73.845871      -13.144237
 H        83.059464       73.246986      -14.060074
 C        82.349365       75.874832      -15.396900
 C        83.510063       76.251846      -16.112961
 H        84.366203       76.854828      -15.647839
 C        83.684189       75.881866      -17.439909
 H        84.506096       76.073013      -18.078068
 C        82.757523       75.146416      -18.155582
 H        82.907318       74.990112      -19.209496
 C        81.576134       74.800934      -17.485096
 H        81.077499       74.035240      -18.104513
 C        81.371109       75.131241      -16.149632
 H        80.679657       74.676483      -15.467885
 C        77.060074       78.640167      -12.913130
 C        77.082047       79.932907      -13.410862
 N        78.340744       78.265488      -12.867586
 C        79.239326       79.161636      -13.348905
 N        78.448502       80.293472      -13.621760
 C        79.029953       81.416656      -14.148618
 C        80.395554       81.199974      -14.479929
 C        81.044830       82.205078      -15.134673
 H        82.059387       82.261688      -15.336846
 C        80.330719       83.339714      -15.574286
 H        80.875458       84.190857      -15.998454
 C        78.953552       83.479538      -15.361121
 H        78.322678       84.174698      -15.890341
 C        78.370407       82.480072      -14.581107
 H        77.680542       82.843063      -13.794962
 C        75.836395       80.609322      -13.544377
 H        75.803856       81.533478      -14.066166
 C        74.662598       80.020172      -13.135938
 H        73.838074       80.687569      -13.216800
 C        74.623260       78.706192      -12.576988
 H        73.717651       78.390701      -12.105357
 C        75.835464       77.963242      -12.557725
 H        75.801926       76.907227      -12.314410
 C        78.695969       77.155869      -11.968990
 C        78.577957       75.892639      -12.574575
 H        78.467911       75.841576      -13.646110
 C        78.895401       74.758018      -11.847290
 H        78.994873       73.816864      -12.289257
 C        79.429276       74.956573      -10.583112
 H        80.248085       74.306061      -10.373865
 C        79.499664       76.150146       -9.958023
 H        79.481087       76.163719       -8.893518
 C        79.134193       77.314758      -10.649328
 H        79.110870       78.322769      -10.136429
