206
 generated by VMD
  IR        30.770000       48.299999       30.950001
  C1        33.029999       49.090000       34.549999
  C2        33.860001       48.349998       33.759998
  N1        31.780001       49.200001       33.910000
  C3a       31.920000       48.619999       32.639999
  N2        33.230000       48.130001       32.560001
  C4        33.520000       47.330002       31.400000
  C5a       32.340000       46.869999       30.790001
  C6        32.380001       45.730000       29.959999
  H1        31.540001       45.020000       29.760000
  C7        33.639999       45.160000       29.620001
  H2        33.619999       44.279999       28.990000
  C8        34.799999       45.630001       30.180000
  H3        35.650002       45.200001       29.770000
  C9        34.759998       46.689999       31.100000
  H4        35.650002       47.230000       31.389999
  C10       35.209999       48.250000       34.150002
  H5        35.970001       47.750000       33.480000
  C11       35.720001       48.849998       35.340000
  H6        36.689999       48.709999       35.740002
  C12       34.849998       49.560001       36.099998
  H7        35.349998       50.230000       36.759998
  C13       33.500000       49.689999       35.669998
  H8        32.880001       50.230000       36.419998
  C6        30.799999       49.000000       34.790001
  C1        30.010000       50.049999       35.180000
  H1        30.200001       51.060001       34.849998
  C2        29.090000       49.849998       36.139999
  H2        28.480000       50.689999       36.470001
  C3        28.840000       48.610001       36.790001
  H3        28.219999       48.599998       37.660000
  C4        29.639999       47.520000       36.369999
  H4        29.400000       46.439999       36.610001
  C5        30.660000       47.720001       35.389999
  H5        31.420000       46.910000       35.180000
  C1        32.500000       51.290001       28.400000
  C2        31.510000       50.779999       27.670000
  N1        32.709999       50.500000       29.430000
  C3b       31.870001       49.380001       29.500000
  N2        31.209999       49.549999       28.350000
  C4        30.350000       48.500000       28.020000
  C5b       29.900000       47.790001       29.139999
  C6        28.840000       46.889999       28.980000
  H1        28.370001       46.459999       29.910000
  C7        28.209999       46.700001       27.780001
  H2        27.379999       45.990002       27.650000
  C8        28.620001       47.360001       26.620001
  H3        28.160000       47.419998       25.629999
  C9        29.690001       48.299999       26.780001
  H4        30.150000       48.889999       26.020000
  C10       30.990000       51.549999       26.610001
  H5        30.209999       51.189999       25.950001
  C11       31.469999       52.849998       26.350000
  H6        31.240000       53.389999       25.469999
  C12       32.529999       53.330002       27.070000
  H7        33.160000       54.209999       26.910000
  C13       33.049999       52.540001       28.150000
  H8        33.660000       52.990002       28.959999
  C6        34.000000       50.560001       30.170000
  C1        35.139999       49.880001       29.709999
  H1        35.060001       49.340000       28.799999
  C2        36.299999       49.900002       30.430000
  H2        37.169998       49.410000       30.120001
  C3        36.389999       50.630001       31.629999
  H3        37.340000       50.630001       32.150002
  C4        35.189999       51.290001       32.090000
  H4        35.139999       51.660000       33.020000
  C5        34.020000       51.290001       31.360001
  H5        33.200001       51.860001       31.790001
  C1        26.950001       50.480000       31.400000
  C2        26.750000       49.220001       31.889999
  N1        28.309999       50.529999       31.010000
  C3c       29.010000       49.349998       31.240000
  N2        28.010000       48.570000       31.879999
  C4        28.430000       47.369999       32.540001
  C5c       29.650000       46.900002       32.110001
  C6        30.150000       45.700001       32.700001
  H1        31.090000       45.250000       32.360001
  C7        29.450001       45.040001       33.740002
  H2        29.610001       43.970001       33.930000
  C8        28.250000       45.610001       34.180000
  H3        27.760000       45.119999       34.980000
  C9        27.719999       46.759998       33.590000
  H4        26.719999       46.980000       33.820000
  C10       25.379999       48.770000       32.000000
  H5        25.260000       47.740002       32.320000
  C11       24.309999       49.610001       31.639999
  H6        23.270000       49.250000       31.580000
  C12       24.570000       50.959999       31.200001
  H7        23.730000       51.599998       30.889999
  C13       25.900000       51.389999       31.070000
  H8        26.110001       52.410000       30.680000
  C6        29.030001       51.750000       30.700001
  C1        30.070000       52.040001       31.590000
  H1        30.389999       51.450001       32.430000
  C2        30.860001       53.150002       31.270000
  H2        31.580000       53.570000       32.020000
  C3        30.719999       53.840000       30.049999
  H3        31.370001       54.689999       29.959999
  C4        29.690001       53.549999       29.230000
  H4        29.580000       54.130001       28.340000
  C5        28.740000       52.490002       29.540001
  H5        27.690001       52.380001       29.219999
  IR        28.360001       58.790001       27.740000
  C1        24.799999       59.459999       25.360001
  C2        24.490000       58.400002       26.200001
  N1        26.180000       59.700001       25.549999
  C3a       26.719999       58.860001       26.490000
  N2        25.670000       58.040001       26.900000
  C4        25.959999       57.060001       27.910000
  C5a       27.230000       57.150002       28.490000
  C6        27.510000       56.290001       29.610001
  H1        28.500000       55.950001       29.879999
  C7        26.500000       55.380001       30.090000
  H2        26.790001       54.529999       30.760000
  C8        25.250000       55.330002       29.490000
  H3        24.500000       54.700001       29.740000
  C9        25.040001       56.119999       28.379999
  H4        24.170000       55.840000       27.830000
  C10       23.170000       58.000000       26.250000
  H5        22.940001       57.090000       26.730000
  C11       22.180000       58.639999       25.480000
  H6        21.150000       58.320000       25.510000
  C12       22.549999       59.720001       24.670000
  H7        21.770000       60.189999       24.150000
  C13       23.830000       60.119999       24.570000
  H8        24.209999       61.049999       24.110001
  C6        27.010000       60.410000       24.590000
  C1        27.690001       59.639999       23.680000
  H1        27.570000       58.599998       23.719999
  C2        28.420000       60.220001       22.639999
  H2        29.100000       59.630001       22.150000
  C3        28.440001       61.639999       22.510000
  H3        29.110001       62.099998       21.820000
  C4        27.799999       62.410000       23.540001
  H4        27.860001       63.490002       23.490000
  C5        27.049999       61.820000       24.570000
  H5        26.570000       62.490002       25.320000
  C1        26.660000       60.619999       31.250000
  C2        27.840000       60.040001       31.700001
  N1        26.570000       60.400002       29.900000
  C3b       27.620001       59.720001       29.410000
  N2        28.420000       59.490002       30.559999
  C4        29.660000       58.790001       30.360001
  C5b       29.959999       58.369999       29.049999
  C6        31.110001       57.770000       28.680000
  H1        31.080000       57.209999       27.700001
  C7        32.139999       57.630001       29.610001
  H2        32.980000       56.980000       29.350000
  C8        31.900000       58.000000       30.940001
  H3        32.570000       57.709999       31.730000
  C9        30.700001       58.560001       31.379999
  H4        30.600000       59.169998       32.230000
  C10       28.090000       59.959999       33.139999
  H5        28.920000       59.450001       33.619999
  C11       27.190001       60.529999       34.080002
  H6        27.450001       60.700001       35.110001
  C12       25.980000       61.070000       33.650002
  H7        25.150000       61.380001       34.270000
  C13       25.740000       61.130001       32.230000
  H8        24.719999       61.470001       31.950001
  C6        25.420000       60.860001       29.209999
  C1        24.180000       60.279999       29.510000
  H1        24.170000       59.330002       29.930000
  C2        23.080000       60.869999       28.910000
  H2        22.080000       60.470001       29.150000
  C3        23.230000       61.970001       28.049999
  H3        22.270000       62.220001       27.520000
  C4        24.459999       62.520000       27.750000
  H4        24.540001       63.330002       27.040001
  C5        25.580000       61.970001       28.309999
  H5        26.570000       62.240002       28.040001
  C1        30.950001       61.860001       25.950001
  C2        31.090000       60.779999       25.150000
  N1        29.950001       61.509998       27.000000
  C3c       29.590000       60.180000       26.879999
  N2        30.340000       59.730000       25.790001
  C4        30.309999       58.349998       25.570000
  C5c       29.240000       57.630001       26.170000
  C6        28.910000       56.299999       25.750000
  H1        28.010000       55.860001       26.100000
  C7        29.590000       55.730000       24.650000
  H2        29.420000       54.700001       24.400000
  C8        30.680000       56.450001       24.010000
  H3        30.980000       56.169998       23.059999
  C9        31.070000       57.730000       24.459999
  H4        32.020000       58.240002       24.270000
  C10       31.740000       61.029999       23.930000
  H5        31.600000       60.340000       23.020000
  C11       32.439999       62.200001       23.549999
  H6        32.869999       62.349998       22.559999
  C12       32.389999       63.330002       24.469999
  H7        33.070000       64.190002       24.530001
  C13       31.570000       63.119999       25.610001
  H8        31.330000       64.029999       26.120001
  C6        29.469999       62.439999       27.950001
  C1        28.760000       63.529999       27.440001
  H1        28.530001       63.580002       26.389999
  C2        28.290001       64.519997       28.290001
  H2        27.670000       65.330002       28.030001
  C3        28.480000       64.269997       29.719999
  H3        27.980000       65.010002       30.389999
  C4        29.230000       63.189999       30.219999
  H4        29.559999       63.150002       31.299999
  C5        29.700001       62.270000       29.290001
  H5        30.290001       61.549999       29.770000
