206
 generated by VMD
 Ir       17.974546     -120.429016       10.406009
 C        19.341984     -120.163513       14.494657
 C        19.154572     -121.516800       14.283994
 N        19.139740     -119.499451       13.291406
 C        18.766909     -120.405754       12.342351
 N        18.808155     -121.617004       12.955363
 C        18.527992     -122.728851       12.052817
 C        17.788090     -122.448265       10.871074
 C        17.257870     -123.497940       10.126657
 H        16.495415     -123.236618        9.362670
 C        17.571205     -124.828796       10.442918
 H        17.193031     -125.578873        9.844525
 C        18.394684     -125.108505       11.535142
 H        19.031301     -125.968460       11.660779
 C        18.924046     -124.079651       12.305364
 H        19.900200     -124.305908       12.759828
 C        19.145737     -122.422760       15.354817
 H        18.874409     -123.494629       15.232800
 C        19.397657     -121.963226       16.660213
 H        19.302048     -122.637184       17.531673
 C        19.574677     -120.576019       16.843628
 H        19.578312     -120.292664       17.862988
 C        19.496147     -119.676918       15.768252
 H        19.567636     -118.622894       16.039764
 C        18.991646     -118.015610       13.352094
 C        20.100660     -117.135315       13.172984
 H        21.107941     -117.448822       13.007756
 C        19.850214     -115.793076       13.302045
 H        20.541912     -115.109772       12.926869
 C        18.537460     -115.320404       13.620420
 H        18.192068     -114.300949       13.640899
 C        17.483139     -116.220627       13.746507
 H        16.479582     -115.748566       13.865388
 C        17.658329     -117.561996       13.588527
 H        16.771381     -118.221878       13.480046
 C        21.483536     -121.296677        7.877063
 C        20.443726     -121.276634        7.087451
 N        20.946335     -121.047211        9.134000
 C        19.593468     -120.830124        9.178935
 N        19.263309     -120.905624        7.808755
 C        17.915161     -120.648453        7.417258
 C        17.072628     -120.693848        8.519156
 C        15.702573     -120.900116        8.322694
 H        15.063937     -120.736694        9.173537
 C        15.163787     -121.037201        7.050914
 H        14.122881     -121.127716        6.931661
 C        15.936255     -120.997169        5.961745
 H        15.511698     -120.986359        4.933234
 C        17.311834     -120.764725        6.144633
 H        17.943897     -120.605675        5.220456
 C        20.539898     -121.739433        5.740615
 H        19.718834     -122.191452        5.131581
 C        21.786377     -122.123192        5.220494
 H        21.843170     -122.476471        4.135110
 C        22.881355     -122.131912        6.098588
 H        23.844082     -122.566803        5.872693
 C        22.714800     -121.728310        7.457326
 H        23.572292     -121.752548        8.105721
 C        21.865643     -121.004730       10.252957
 C        22.660271     -119.891167       10.484143
 H        22.441788     -118.908661       10.079854
 C        23.492737     -119.867134       11.627963
 H        24.125095     -119.052567       11.798537
 C        23.666042     -120.951309       12.502915
 H        24.182453     -120.916611       13.435554
 C        22.920048     -122.088669       12.230887
 H        23.188038     -123.084869       12.540511
 C        22.018049     -122.140366       11.101188
 H        21.277386     -122.970406       11.011424
 C        17.739483     -116.129929        9.789962
 C        16.612713     -116.385117       10.511603
 N        18.303043     -117.368958        9.471675
 C        17.664818     -118.418724        9.986993
 N        16.572321     -117.769882       10.602099
 C        15.618477     -118.734879       11.159823
 C        16.134058     -120.051170       11.417062
 C        15.393883     -120.821548       12.282306
 H        15.597903     -121.862106       12.480388
 C        14.273270     -120.313431       12.879828
 H        13.901692     -120.915428       13.645156
 C        13.708761     -119.048615       12.606566
 H        12.858463     -118.648178       13.099053
 C        14.396209     -118.324951       11.659240
 H        13.825668     -117.626579       11.145757
 C        15.832430     -115.296295       11.019279
 H        14.936307     -115.536636       11.531917
 C        16.285206     -114.043022       10.747258
 H        15.551856     -113.256790       10.985225
 C        17.415272     -113.802414       10.006211
 H        17.954136     -112.835251       10.072017
 C        18.242781     -114.892113        9.538150
 H        19.219767     -114.800491        9.125228
 C        19.112503     -117.544907        8.283099
 C        18.498020     -117.518082        7.009288
 H        17.394371     -117.405426        6.865855
 C        19.237194     -117.623245        5.832870
 H        18.712597     -117.887276        4.962937
 C        20.640087     -117.639191        5.975135
 H        21.202301     -117.561661        5.064254
 C        21.290890     -117.632111        7.203876
 H        22.190773     -117.226257        7.402356
 C        20.512867     -117.666176        8.390685
 H        20.934906     -117.793015        9.356500
 Ir       17.974546     -120.429024       23.253223
 C        18.231777     -122.720497       27.012939
 C        19.481541     -122.025818       26.894146
 N        17.525330     -122.543732       25.806675
 C        18.280163     -121.681732       24.895695
 N        19.441210     -121.300171       25.610317
 C        20.406025     -120.434250       24.969143
 C        19.956982     -119.906143       23.764252
 C        20.853901     -119.177673       23.029293
 H        20.636200     -118.778625       22.037994
 C        22.125782     -118.901764       23.445324
 H        22.943117     -118.774796       22.726200
 C        22.572060     -119.437599       24.671017
 H        23.624729     -119.361053       24.849152
 C        21.750925     -120.189255       25.436287
 H        22.168396     -120.732620       26.193775
 C        20.335674     -122.070206       28.010605
 H        21.379372     -121.678665       27.996918
 C        19.929966     -122.721527       29.219440
 H        20.452446     -122.693680       30.111877
 C        18.732159     -123.476013       29.221947
 H        18.633579     -124.092255       30.085617
 C        17.934818     -123.519379       28.114082
 H        17.074139     -124.178040       28.158596
 C        16.286572     -123.281326       25.449406
 C        15.177361     -123.112885       26.273159
 H        15.321119     -122.808090       27.295090
 C        13.868008     -123.518799       25.871128
 H        12.999740     -123.499405       26.512875
 C        13.795986     -124.274887       24.700607
 H        12.763591     -124.319351       24.238991
 C        14.928431     -124.546555       23.937729
 H        14.804504     -125.069977       22.995834
 C        16.161587     -123.986557       24.252274
 H        17.005898     -124.140427       23.547737
 C        16.998909     -116.790222       25.408829
 C        17.031967     -116.409966       24.092926
 N        17.228909     -118.131256       25.450588
 C        17.525269     -118.642822       24.179573
 N        17.397797     -117.558044       23.368641
 C        17.754372     -117.748627       21.974926
 C        18.026987     -119.061172       21.595417
 C        18.125172     -119.407059       20.253841
 H        18.084465     -120.442635       19.978863
 C        17.943325     -118.474915       19.244308
 H        17.748392     -118.850510       18.256569
 C        17.749912     -117.091583       19.578938
 H        17.634533     -116.292374       18.855789
 C        17.747568     -116.748962       20.975327
 H        18.040207     -115.756508       21.181248
 C        16.919466     -115.041595       23.798088
 H        16.862095     -114.839478       22.750111
 C        16.617882     -114.077911       24.774899
 H        16.503122     -113.032898       24.614395
 C        16.447678     -114.537323       26.096024
 H        16.041107     -113.851532       26.825745
 C        16.715675     -115.858963       26.433727
 H        16.578688     -116.236313       27.477249
 C        17.074787     -118.847404       26.673603
 C        18.167469     -119.048309       27.489567
 H        19.119278     -118.808243       27.094818
 C        18.052006     -119.354797       28.870014
 H        18.909508     -119.704468       29.546490
 C        16.843105     -119.351196       29.460560
 H        16.740509     -119.660126       30.510059
 C        15.686077     -119.184212       28.700363
 H        14.779452     -118.880478       29.101334
 C        15.816218     -119.122261       27.274242
 H        14.965301     -119.420486       26.699177
 C        14.163673     -121.899689       21.540775
 C        15.161295     -122.808197       21.181934
 N        14.829046     -120.898514       22.246685
 C        16.150217     -121.101288       22.371132
 N        16.357784     -122.303818       21.624783
 C        17.745226     -122.722916       21.417999
 C        18.732567     -122.042099       22.182289
 C        20.068108     -122.454956       21.951687
 H        20.806648     -122.352448       22.737152
 C        20.387638     -123.330887       20.937763
 H        21.412724     -123.643791       20.847252
 C        19.411324     -123.937935       20.202366
 H        19.765495     -124.627319       19.363369
 C        18.110313     -123.684227       20.383209
 H        17.427483     -124.123169       19.715694
 C        14.758131     -123.994987       20.489994
 H        15.541603     -124.676529       20.187035
 C        13.432685     -124.133453       20.214088
 H        13.062513     -125.112198       20.113529
 C        12.495049     -123.131836       20.533783
 H        11.470866     -123.382111       20.290051
 C        12.818501     -122.014954       21.213169
 H        12.027596     -121.346512       21.524700
 C        14.117460     -119.912575       23.018547
 C        13.279092     -120.277161       24.103310
 H        12.942298     -121.284744       24.174377
 C        12.696039     -119.289124       24.931526
 H        12.266633     -119.564468       25.853855
 C        12.953827     -118.004044       24.597305
 H        12.563873     -117.282578       25.174213
 C        13.740273     -117.611786       23.544765
 H        14.078433     -116.584274       23.505333
 C        14.237135     -118.532005       22.687023
 H        15.096528     -118.194687       22.162273
