206
 generated by VMD
 Ir        0.508823        0.463280       -6.647077
 C        -3.361670       -1.522568       -6.782352
 C        -3.617235       -0.223953       -7.140101
 N        -2.021038       -1.589020       -6.353875
 C        -1.397551       -0.349400       -6.480350
 N        -2.413374        0.493309       -6.914568
 C        -2.090525        1.867977       -7.009727
 C        -0.708868        2.143764       -7.018272
 C        -0.287607        3.456549       -7.300477
 H         0.761053        3.696899       -7.268264
 C        -1.204233        4.463827       -7.600623
 H        -0.862001        5.445371       -7.864534
 C        -2.578835        4.178312       -7.584615
 H        -3.284061        4.918688       -7.923141
 C        -3.015997        2.896065       -7.261000
 H        -4.065710        2.740314       -7.061390
 C        -4.874313        0.101587       -7.698553
 H        -5.059471        1.090864       -8.083715
 C        -5.840109       -0.880941       -7.905137
 H        -6.742371       -0.648281       -8.437576
 C        -5.577705       -2.199005       -7.525595
 H        -6.292646       -2.986698       -7.728817
 C        -4.335348       -2.514547       -6.953604
 H        -4.177469       -3.514908       -6.597304
 C        -1.595379       -2.613295       -5.437645
 C        -1.575361       -2.325872       -4.077097
 H        -1.526545       -1.298080       -3.748837
 C        -1.638918       -3.348598       -3.125259
 H        -1.630726       -3.107430       -2.068390
 C        -1.707983       -4.678459       -3.533175
 H        -1.826546       -5.466450       -2.799677
 C        -1.692091       -4.985329       -4.899402
 H        -1.811766       -6.004488       -5.229839
 C        -1.607723       -3.952063       -5.843779
 H        -1.566458       -4.202139       -6.891996
 C         1.167227        0.080381      -10.943972
 C         2.353846        0.582354      -10.460070
 N         0.260935        0.014767       -9.864697
 C         0.849308        0.449217       -8.688956
 N         2.140772        0.805983       -9.069534
 C         2.979555        1.282597       -8.021925
 C         2.289644        1.573391       -6.830177
 C         2.947889        2.305822       -5.828000
 H         2.393854        2.622791       -4.958360
 C         4.289068        2.668310       -5.966721
 H         4.780012        3.203455       -5.170672
 C         4.993032        2.318628       -7.114485
 H         6.038065        2.576248       -7.217136
 C         4.341894        1.615913       -8.138256
 H         4.938196        1.201160       -8.934060
 C         3.430273        0.715029      -11.344773
 H         4.375605        1.089691      -10.999700
 C         3.319277        0.346277      -12.685111
 H         4.134527        0.518122      -13.365727
 C         2.104364       -0.175961      -13.155273
 H         2.004637       -0.468473      -14.192525
 C         1.028152       -0.298914      -12.284902
 H         0.083622       -0.674120      -12.658244
 C        -1.153177       -0.066275      -10.094312
 C        -1.844461        1.093945      -10.461761
 H        -1.347353        2.054218      -10.430780
 C        -3.191156        1.011543      -10.823863
 H        -3.723921        1.906221      -11.110941
 C        -3.846758       -0.221081      -10.818716
 H        -4.907894       -0.275316      -11.038826
 C        -3.155874       -1.381029      -10.437132
 H        -3.678371       -2.319128      -10.334830
 C        -1.809179       -1.298626      -10.075031
 H        -1.284672       -2.182762       -9.753014
 C         3.581236       -2.387716       -5.507294
 C         3.232065       -1.741060       -4.348106
 N         2.652723       -1.974390       -6.489701
 C         1.743551       -1.060999       -5.981251
 N         2.086515       -0.978052       -4.642969
 C         1.186451       -0.218878       -3.848276
 C         0.430788        0.723516       -4.545891
 C        -0.461126        1.541304       -3.829924
 H        -0.972055        2.342205       -4.326830
 C        -0.658672        1.344816       -2.452076
 H        -1.371622        1.962135       -1.925272
 C         0.049059        0.351078       -1.776058
 H        -0.146500        0.168043       -0.730947
 C         0.981638       -0.415367       -2.463560
 H         1.588614       -1.123575       -1.923262
 C         4.065935       -1.863132       -3.218346
 H         3.839113       -1.329159       -2.308222
 C         5.228590       -2.622953       -3.283899
 H         5.906057       -2.663504       -2.436083
 C         5.571676       -3.290148       -4.464087
 H         6.469069       -3.884666       -4.519133
 C         4.730322       -3.177801       -5.572648
 H         4.957491       -3.751488       -6.467843
 C         2.692823       -2.430929       -7.859432
 C         3.827223       -2.155037       -8.639121
 H         4.668188       -1.640427       -8.200653
 C         3.836599       -2.501890       -9.997688
 H         4.676050       -2.218180      -10.609024
 C         2.732756       -3.134087      -10.568709
 H         2.724379       -3.365259      -11.625774
 C         1.598354       -3.409979       -9.789016
 H         0.735641       -3.885149      -10.235937
 C         1.581930       -3.053404       -8.437912
 H         0.691362       -3.218519       -7.851543
 Ir        0.508825        0.463280        6.484549
 C        -2.751226        3.342985        5.961506
 C        -2.768064        2.589554        4.808138
 N        -1.681684        2.878317        6.743723
 C        -1.007736        1.838430        6.131981
 N        -1.692245        1.661703        4.927315
 C        -1.209753        0.613644        4.083887
 C         0.048861        0.114353        4.454702
 C         0.727089       -0.731056        3.556320
 H         1.745504       -1.027781        3.774906
 C         0.131502       -1.126068        2.358389
 H         0.679415       -1.779367        1.686087
 C        -1.148380       -0.676487        2.023302
 H        -1.611776       -1.003345        1.110821
 C        -1.818726        0.178373        2.886351
 H        -2.864771        0.355688        2.725883
 C        -3.764656        2.841850        3.841053
 H        -3.791845        2.302700        2.909668
 C        -4.723619        3.838398        4.049328
 H        -5.477776        4.029711        3.309633
 C        -4.700527        4.582651        5.238426
 H        -5.440523        5.352553        5.413422
 C        -3.717855        4.339808        6.190784
 H        -3.717857        4.898405        7.119608
 C        -1.247185        3.570219        7.931362
 C        -0.609964        4.810389        7.819418
 H        -0.328112        5.176623        6.851053
 C        -0.316935        5.549002        8.973837
 H         0.169249        6.506822        8.891350
 C        -0.673998        5.057173       10.238232
 H        -0.455341        5.639032       11.124702
 C        -1.303764        3.807007       10.343504
 H        -1.592110        3.420506       11.304998
 C        -1.589922        3.068665        9.196352
 H        -2.054922        2.101393        9.286697
 C        -1.795111       -3.153721        7.366192
 C        -0.507837       -3.603386        7.184996
 N        -1.787823       -1.757238        7.155525
 C        -0.514183       -1.309416        6.843441
 N         0.264694       -2.455093        6.852257
 C         1.636847       -2.286350        6.498819
 C         2.071703       -0.958122        6.478489
 C         3.443419       -0.695324        6.328405
 H         3.792006        0.321383        6.318705
 C         4.359316       -1.741583        6.176468
 H         5.412764       -1.524221        6.053602
 C         3.910944       -3.060631        6.167940
 H         4.609720       -3.880516        6.033773
 C         2.553545       -3.333151        6.318613
 H         2.217258       -4.343405        6.137510
 C        -0.236876       -4.976608        7.296986
 H         0.774525       -5.357389        7.318886
 C        -1.273756       -5.881262        7.553846
 H        -1.064516       -6.936237        7.629646
 C        -2.575535       -5.411877        7.734251
 H        -3.379477       -6.103613        7.914379
 C        -2.833168       -4.037836        7.650923
 H        -3.841301       -3.682959        7.833382
 C        -2.996212       -1.025579        6.852407
 C        -3.679625       -1.282005        5.663462
 H        -3.320446       -2.039083        4.980728
 C        -4.816727       -0.539534        5.333860
 H        -5.367195       -0.767796        4.431158
 C        -5.269150        0.469357        6.191635
 H        -6.150663        1.048155        5.943195
 C        -4.586136        0.726053        7.394716
 H        -4.902643        1.533112        8.035246
 C        -3.462795       -0.036682        7.724316
 H        -2.982912        0.101337        8.683361
 C         1.969856        1.430302       10.490740
 C         2.431799        2.453924        9.712923
 N         1.231291        0.569824        9.665632
 C         1.217007        1.013767        8.354828
 N         1.957329        2.188866        8.395645
 C         2.142252        2.847908        7.150026
 C         1.849144        2.050133        6.039194
 C         2.287470        2.443361        4.770521
 H         2.196289        1.765079        3.946127
 C         2.948069        3.662722        4.595963
 H         3.203207        3.987883        3.599331
 C         3.184294        4.499119        5.690281
 H         3.664816        5.455851        5.558128
 C         2.781294        4.096712        6.967216
 H         2.794592        4.813070        7.767435
 C         3.188139        3.479980       10.294786
 H         3.650137        4.246969        9.691721
 C         3.454046        3.472143       11.668001
 H         3.998465        4.291733       12.127554
 C         2.977942        2.428526       12.459955
 H         3.189463        2.403337       13.513578
 C         2.243193        1.392748       11.871817
 H         1.938566        0.548512       12.466688
 C         0.698072       -0.691614       10.120550
 C         1.499155       -1.837564       10.094629
 H         2.519030       -1.775049        9.761539
 C         0.960112       -3.070375       10.485149
 H         1.578465       -3.949148       10.484266
 C        -0.385422       -3.157515       10.892958
 H        -0.805750       -4.110703       11.147032
 C        -1.172956       -2.001024       10.933212
 H        -2.199697       -2.063812       11.259035
 C        -0.633917       -0.768211       10.542686
 H        -1.246794        0.121647       10.593040
