206
 generated by VMD
  IR        60.799999       25.480000       21.910000
  C1        64.639999       24.230000       23.230000
  C2        64.879997       25.490000       22.730000
  N1        63.410000       23.820000       22.709999
  C3a       62.759998       24.850000       22.059999
  N2        63.669998       25.879999       22.100000
  C4        63.119999       27.260000       21.760000
  C5a       61.740002       27.309999       21.799999
  C6        61.040001       28.500000       21.549999
  H1        59.939999       28.570000       21.480000
  C7        61.750000       29.670000       21.490000
  H2        61.330002       30.660000       21.450001
  C8        63.180000       29.610001       21.490000
  H3        63.680000       30.490000       21.010000
  C9        63.889999       28.430000       21.629999
  H4        64.980003       28.450001       21.760000
  C10       66.089996       26.139999       23.030001
  H5        66.550003       26.920000       22.379999
  C11       67.050003       25.540001       23.879999
  H6        67.900002       26.120001       24.209999
  C12       66.750000       24.299999       24.420000
  H7        67.519997       23.850000       25.059999
  C13       65.599998       23.620001       24.110001
  H8        65.570000       22.629999       24.410000
  C6        63.040001       22.430000       22.549999
  C1        62.480000       22.010000       21.309999
  H1        62.310001       22.709999       20.530001
  C2        61.849998       20.750000       21.230000
  H2        61.119999       20.490000       20.469999
  C3        61.799999       19.959999       22.379999
  H3        61.520000       18.990000       22.190001
  C4        62.299999       20.350000       23.600000
  H4        62.220001       19.700001       24.520000
  C5        62.990002       21.590000       23.690001
  H5        63.419998       21.920000       24.650000
  C1        59.900002       26.809999       25.959999
  C2        58.709999       27.100000       25.260000
  N1        60.849998       26.230000       25.100000
  C3b       60.279999       26.080000       23.840000
  N2        59.000000       26.629999       23.969999
  C4        58.200001       26.650000       22.780001
  C5b       58.919998       26.410000       21.590000
  C6        58.180000       26.559999       20.420000
  H1        58.709999       26.490000       19.469999
  C7        56.840000       26.930000       20.290001
  H2        56.369999       26.969999       19.379999
  C8        56.049999       27.090000       21.450001
  H3        55.090000       27.629999       21.420000
  C9        56.730000       26.900000       22.650000
  H4        56.130001       26.760000       23.430000
  C10       57.639999       27.809999       25.900000
  H5        56.680000       27.870001       25.500000
  C11       57.820000       28.100000       27.290001
  H6        57.160000       28.770000       27.719999
  C12       58.900002       27.660000       28.010000
  H7        58.720001       27.590000       29.080000
  C13       59.970001       26.980000       27.370001
  H8        60.790001       26.559999       27.969999
  C6        62.220001       26.080000       25.469999
  C1        62.549999       24.920000       26.160000
  H1        61.869999       24.049999       26.080000
  C2        63.730000       24.820000       27.010000
  H2        63.980000       23.969999       27.770000
  C3        64.610001       25.889999       26.940001
  H3        65.449997       25.790001       27.629999
  C4        64.279999       27.090000       26.290001
  H4        64.989998       27.900000       26.350000
  C5        63.110001       27.180000       25.459999
  H5        62.779999       28.070000       24.900000
  C1        58.520000       21.709999       21.629999
  C2        58.849998       22.030001       20.330000
  N1        59.000000       22.760000       22.430000
  C3c       59.619999       23.790001       21.670000
  N2        59.520000       23.299999       20.370001
  C4        60.080002       24.219999       19.330000
  C5c       61.029999       25.100000       19.840000
  C6        61.860001       25.780001       18.920000
  H1        62.619999       26.469999       19.270000
  C7        61.759998       25.580000       17.530001
  H2        62.270000       26.270000       16.930000
  C8        60.709999       24.750000       17.070000
  H3        60.360001       24.940001       16.070000
  C9        59.910000       24.020000       17.940001
  H4        58.990002       23.639999       17.549999
  C10       58.619999       21.110001       19.280001
  H5        58.419998       21.540001       18.270000
  C11       58.150002       19.840000       19.600000
  H6        58.240002       19.090000       18.770000
  C12       57.889999       19.490000       20.879999
  H7        57.869999       18.440001       21.200001
  C13       58.070000       20.430000       21.910000
  H8        57.860001       20.090000       22.950001
  C6        58.639999       22.830000       23.860001
  C1        59.580002       22.650000       24.840000
  H1        60.630001       22.840000       24.549999
  C2        59.279999       22.520000       26.200001
  H2        60.049999       22.200001       26.910000
  C3        57.950001       22.590000       26.639999
  H3        57.779999       22.770000       27.709999
  C4        56.939999       22.820000       25.660000
  H4        55.880001       22.950001       25.870001
  C5        57.250000       22.940001       24.270000
  H5        56.450001       23.350000       23.629999
  IR        46.700001       20.350000       27.010000
  C1        46.540001       20.629999       31.379999
  C2        46.410000       21.959999       30.980000
  N1        46.740002       19.790001       30.280001
  C3a       46.590000       20.549999       29.070000
  N2        46.419998       21.920000       29.530001
  C4        46.369999       22.930000       28.559999
  C5a       46.660000       22.500000       27.219999
  C6        46.580002       23.389999       26.139999
  H1        47.200001       23.299999       25.270000
  C7        45.889999       24.639999       26.340000
  H2        45.459999       25.219999       25.480000
  C8        45.570000       25.040001       27.629999
  H3        45.240002       26.059999       27.840000
  C9        45.830002       24.260000       28.700001
  H4        45.500000       24.549999       29.660000
  C10       46.169998       23.010000       31.959999
  H5        46.000000       23.969999       31.700001
  C11       46.130001       22.639999       33.320000
  H6        45.730000       23.280001       34.090000
  C12       46.240002       21.320000       33.689999
  H7        46.560001       21.049999       34.700001
  C13       46.419998       20.320000       32.759998
  H8        46.410000       19.350000       32.980000
  C6        47.090000       18.430000       30.379999
  C1        46.180000       17.400000       29.920000
  H1        45.330002       17.709999       29.389999
  C2        46.430000       16.080000       30.260000
  H2        45.820000       15.280000       29.889999
  C3        47.400002       15.760000       31.170000
  H3        47.580002       14.720000       31.490000
  C4        48.220001       16.700001       31.680000
  H4        48.900002       16.490000       32.500000
  C5        48.070000       18.040001       31.260000
  H5        48.470001       18.840000       31.879999
  C1        42.570000       19.990000       25.719999
  C2        43.310001       20.049999       24.559999
  N1        43.459999       20.379999       26.780001
  C3b       44.740002       20.540001       26.330000
  N2        44.619999       20.500000       24.910000
  C4        45.820000       20.719999       24.160000
  C5b       46.970001       20.490000       24.889999
  C6        48.160000       20.790001       24.139999
  H1        49.090000       20.860001       24.680000
  C7        48.169998       21.250000       22.830000
  H2        49.169998       21.430000       22.420000
  C8        46.990002       21.459999       22.139999
  H3        46.840000       21.920000       21.100000
  C9        45.810001       21.180000       22.910000
  H4        44.939999       21.690001       22.670000
  C10       42.700001       19.719999       23.320000
  H5        43.310001       19.670000       22.420000
  C11       41.389999       19.240000       23.309999
  H6        40.860001       19.240000       22.400000
  C12       40.689999       19.090000       24.480000
  H7        39.730000       18.610001       24.469999
  C13       41.240002       19.520000       25.680000
  H8        40.650002       19.280001       26.530001
  C6        42.959999       20.990000       27.990000
  C1        43.419998       20.410000       29.180000
  H1        43.919998       19.440001       29.290001
  C2        43.070000       21.120001       30.350000
  H2        43.529999       20.879999       31.290001
  C3        42.169998       22.240000       30.320000
  H3        41.910000       22.809999       31.240000
  C4        41.750000       22.709999       29.110001
  H4        40.959999       23.430000       29.080000
  C5        42.110001       22.049999       27.889999
  H5        41.799999       22.370001       26.879999
  C1        47.340000       16.020000       26.740000
  C2        48.549999       16.559999       27.250000
  N1        46.540001       17.090000       26.410000
  C3c       47.160000       18.340000       26.799999
  N2        48.400002       17.959999       27.290001
  C4        49.169998       19.049999       27.830000
  C5c       48.770000       20.309999       27.400000
  C6        49.650002       21.410000       27.540001
  H1        49.590000       22.170000       26.820000
  C7        50.869999       21.200001       28.230000
  H2        51.660000       21.930000       28.190001
  C8        51.209999       19.959999       28.750000
  H3        51.910000       19.990000       29.469999
  C9        50.430000       18.860001       28.540001
  H4        50.610001       18.059999       29.160000
  C10       49.650002       15.640000       27.520000
  H5        50.610001       15.940000       27.930000
  C11       49.549999       14.310000       27.040001
  H6        50.520000       13.780000       27.100000
  C12       48.380001       13.850000       26.480000
  H7        48.400002       12.840000       26.190001
  C13       47.279999       14.720000       26.360001
  H8        46.410000       14.260000       25.860001
  C6        45.270000       16.990000       25.610001
  C1        44.169998       16.549999       26.260000
  H1        44.320000       16.340000       27.270000
  C2        43.029999       16.180000       25.549999
  H2        42.189999       15.840000       26.020000
  C3        43.009998       16.330000       24.150000
  H3        42.189999       15.970000       23.490000
  C4        44.080002       16.850000       23.469999
  H4        44.090000       16.780001       22.430000
  C5        45.209999       17.059999       24.190001
  H5        46.160000       17.170000       23.570000
