206
 generated by VMD
  IR        10.360000       51.220001       34.060001
  C1        10.770000       51.950001       38.279999
  C2        10.700000       50.580002       38.290001
  N1        10.440000       52.439999       37.080002
  C3a       10.320000       51.419998       36.160000
  N2        10.530000       50.230000       36.919998
  C4        11.080000       49.180000       36.169998
  C5a       11.090000       49.380001       34.750000
  C6        11.640000       48.389999       33.939999
  H1        11.600000       48.639999       32.810001
  C7        12.180000       47.220001       34.490002
  H2        12.690000       46.509998       33.860001
  C8        12.260000       47.040001       35.880001
  H3        12.760000       46.160000       36.259998
  C9        11.620000       47.990002       36.709999
  H4        11.540000       47.820000       37.790001
  C10       10.820000       49.860001       39.500000
  H5        11.020000       48.799999       39.419998
  C11       10.930000       50.630001       40.660000
  H6        10.930000       50.119999       41.619999
  C12       11.030000       51.990002       40.630001
  H7        11.250000       52.590000       41.570000
  C13       10.960000       52.689999       39.450001
  H8        11.140000       53.759998       39.380001
  C6         9.670000       53.669998       36.880001
  C1         8.330000       53.590000       36.619999
  H1         7.840000       52.619999       36.880001
  C2         7.460000       54.660000       36.509998
  H2         6.440000       54.630001       36.160000
  C3         8.060000       55.900002       36.570000
  H3         7.440000       56.810001       36.490002
  C4         9.430000       56.040001       36.790001
  H4         9.880000       56.980000       36.700001
  C5        10.260000       54.930000       36.930000
  H5        11.310000       55.110001       37.340000
  C1        14.560000       51.849998       33.139999
  C2        14.000000       51.520000       31.900000
  N1        13.540000       51.889999       34.099998
  C3b       12.330000       51.709999       33.490002
  N2        12.620000       51.459999       32.119999
  C4        11.520000       51.119999       31.330000
  C5b       10.430000       50.660000       32.020000
  C6         9.210000       50.240002       31.320000
  H1         8.360000       49.680000       31.730000
  C7         9.190000       50.430000       29.930000
  H2         8.280000       50.169998       29.379999
  C8        10.280000       50.860001       29.180000
  H3        10.130000       51.230000       28.190001
  C9        11.420000       51.230000       29.900000
  H4        12.360000       51.349998       29.340000
  C10       14.780000       51.020000       30.820000
  H5        14.390000       50.709999       29.889999
  C11       16.139999       50.860001       30.940001
  H6        16.719999       50.430000       30.160000
  C12       16.750000       51.419998       32.090000
  H7        17.860001       51.700001       32.110001
  C13       16.020000       51.830002       33.180000
  H8        16.530001       51.820000       34.110001
  C6        13.840000       51.880001       35.540001
  C1        13.660000       53.029999       36.240002
  H1        13.150000       53.900002       35.830002
  C2        14.060000       53.080002       37.610001
  H2        13.910000       53.869999       38.259998
  C3        14.780000       52.009998       38.119999
  H3        15.260000       52.200001       39.060001
  C4        15.020000       50.860001       37.349998
  H4        15.230000       49.910000       37.689999
  C5        14.460000       50.740002       36.110001
  H5        14.470000       49.799999       35.570000
  C1         8.450000       54.869999       32.869999
  C2         7.370000       54.049999       33.080002
  N1         9.600000       54.139999       33.080002
  C3c        9.290000       52.869999       33.360001
  N2         7.930000       52.750000       33.320000
  C4         7.360000       51.549999       33.799999
  C5c        8.300000       50.639999       34.310001
  C6         7.820000       49.610001       35.169998
  H1         8.380000       48.770000       35.169998
  C7         6.470000       49.529999       35.529999
  H2         6.200000       48.770000       36.180000
  C8         5.490000       50.340000       34.880001
  H3         4.490000       50.009998       34.860001
  C9         5.960000       51.369999       34.070000
  H4         5.260000       51.959999       33.470001
  C10        6.060000       54.549999       32.849998
  H5         5.200000       53.869999       32.849998
  C11        5.890000       55.869999       32.369999
  H6         4.970000       56.330002       32.200001
  C12        7.010000       56.669998       32.180000
  H7         6.930000       57.650002       31.719999
  C13        8.300000       56.169998       32.419998
  H8         9.200000       56.709999       32.270000
  C6        10.870000       54.660000       32.669998
  C1        11.260000       54.349998       31.379999
  H1        10.540000       53.900002       30.690001
  C2        12.570000       54.490002       31.040001
  H2        12.940000       54.250000       30.070000
  C3        13.520000       55.119999       31.850000
  H3        14.350000       55.650002       31.450001
  C4        13.100000       55.490002       33.150002
  H4        13.780000       55.919998       33.759998
  C5        11.790000       55.259998       33.529999
  H5        11.360000       55.669998       34.380001
  IR        17.030001       60.590000       31.350000
  C1        13.750000       59.950001       34.209999
  C2        13.360000       59.230000       33.099998
  N1        14.890000       60.619999       33.799999
  C3a       15.390000       60.259998       32.599998
  N2        14.430000       59.410000       32.119999
  C4        14.590000       58.970001       30.690001
  C5a       15.800000       59.400002       30.160000
  C6        16.100000       59.080002       28.809999
  H1        17.070000       59.310001       28.320000
  C7        15.190000       58.299999       28.100000
  H2        15.500000       58.070000       27.100000
  C8        14.040000       57.840000       28.680000
  H3        13.270000       57.330002       28.150000
  C9        13.660000       58.169998       29.969999
  H4        12.670000       57.830002       30.340000
  C10       12.150000       58.619999       33.029999
  H5        11.780000       58.209999       32.160000
  C11       11.380000       58.709999       34.200001
  H6        10.400000       58.160000       34.130001
  C12       11.800000       59.439999       35.330002
  H7        11.130000       59.439999       36.189999
  C13       13.070000       60.099998       35.299999
  H8        13.390000       60.509998       36.259998
  C6        15.260000       61.849998       34.450001
  C1        14.520000       63.029999       34.250000
  H1        14.060000       63.110001       33.310001
  C2        14.800000       64.199997       35.040001
  H2        14.240000       65.160004       35.009998
  C3        15.850000       64.169998       35.950001
  H3        16.120001       65.120003       36.430000
  C4        16.570000       63.000000       36.080002
  H4        17.500000       62.980000       36.560001
  C5        16.320000       61.840000       35.389999
  H5        16.770000       60.950001       35.689999
  C1        19.760000       57.230000       32.240002
  C2        20.139999       57.700001       31.070000
  N1        18.480000       57.830002       32.580002
  C3b       18.160000       58.810001       31.559999
  N2        19.219999       58.680000       30.700001
  C4        19.240000       59.610001       29.590000
  C5b       18.469999       60.750000       29.830000
  C6        18.410000       61.730000       28.799999
  H1        17.670000       62.529999       28.840000
  C7        19.090000       61.560001       27.570000
  H2        19.100000       62.459999       26.920000
  C8        19.799999       60.369999       27.309999
  H3        19.980000       60.150002       26.230000
  C9        19.840000       59.369999       28.330000
  H4        19.830000       58.349998       28.139999
  C10       21.370001       57.400002       30.600000
  H5        21.790001       57.849998       29.709999
  C11       22.309999       56.619999       31.299999
  H6        23.360001       56.889999       31.040001
  C12       21.920000       56.139999       32.520000
  H7        22.540001       55.630001       33.160000
  C13       20.629999       56.430000       33.009998
  H8        20.309999       55.900002       33.880001
  C6        17.610001       57.320000       33.650002
  C1        17.090000       56.049999       33.660000
  H1        17.389999       55.330002       32.860001
  C2        16.219999       55.619999       34.660000
  H2        15.690000       54.709999       34.520000
  C3        15.860000       56.619999       35.590000
  H3        15.040000       56.410000       36.209999
  C4        16.309999       57.939999       35.520000
  H4        15.730000       58.669998       36.130001
  C5        17.290001       58.220001       34.560001
  H5        17.799999       59.209999       34.480000
  C1        19.860001       63.330002       33.320000
  C2        18.950001       64.139999       32.680000
  N1        19.440001       62.040001       33.130001
  C3c       18.200001       61.970001       32.410000
  N2        17.920000       63.310001       32.200001
  C4        16.670000       63.590000       31.510000
  C5c       16.049999       62.450001       30.959999
  C6        14.890000       62.549999       30.240000
  H1        14.420000       61.730000       29.680000
  C7        14.200000       63.770000       30.129999
  H2        13.300000       63.799999       29.530001
  C8        14.740000       64.930000       30.700001
  H3        14.160000       65.949997       30.709999
  C9        15.960000       64.849998       31.350000
  H4        16.450001       65.739998       31.680000
  C10       19.280001       65.519997       32.570000
  H5        18.730000       66.260002       32.000000
  C11       20.520000       66.010002       33.060001
  H6        20.809999       67.110001       32.980000
  C12       21.450001       65.199997       33.709999
  H7        22.420000       65.660004       33.970001
  C13       21.129999       63.840000       33.889999
  H8        21.520000       63.240002       34.650002
  C6        20.280001       60.910000       33.410000
  C1        20.150000       60.330002       34.680000
  H1        19.540001       60.759998       35.439999
  C2        21.120001       59.480000       35.180000
  H2        21.160000       59.189999       36.230000
  C3        22.309999       59.209999       34.430000
  H3        23.080000       58.500000       34.639999
  C4        22.469999       59.849998       33.180000
  H4        23.440001       59.680000       32.630001
  C5        21.459999       60.639999       32.660000
  H5        21.590000       61.130001       31.690001
