206
 generated by VMD
 Ir        0.509178        0.251598       -7.102337
 C         3.868237       -1.136921       -4.683651
 C         3.587593        0.119659       -4.185612
 N         3.031845       -1.343912       -5.799324
 C         2.179008       -0.259823       -5.987823
 N         2.539486        0.642265       -4.989887
 C         1.779964        1.862419       -4.959126
 C         0.903030        2.031155       -6.049267
 C         0.185699        3.230732       -6.150021
 H        -0.407898        3.423910       -7.026108
 C         0.275543        4.210625       -5.154507
 H        -0.291645        5.123926       -5.257343
 C         1.093594        4.015049       -4.044079
 H         1.111042        4.749561       -3.253139
 C         1.850433        2.844643       -3.952702
 H         2.425671        2.668184       -3.048622
 C         4.354088        0.596207       -3.099567
 H         4.236443        1.589491       -2.723217
 C         5.368946       -0.193157       -2.548595
 H         6.034904        0.221252       -1.802151
 C         5.619343       -1.471516       -3.049892
 H         6.424484       -2.074909       -2.654598
 C         4.854015       -1.943398       -4.116520
 H         5.040951       -2.939016       -4.506771
 C         3.466061       -2.202042       -6.876156
 C         4.267387       -1.659185       -7.878792
 H         4.414112       -0.591492       -7.937962
 C         4.924000       -2.494808       -8.788952
 H         5.548985       -2.063255       -9.558537
 C         4.779427       -3.883011       -8.694149
 H         5.319473       -4.521885       -9.376720
 C         3.957550       -4.428200       -7.700024
 H         3.862053       -5.500957       -7.622112
 C         3.302933       -3.592577       -6.789986
 H         2.667248       -4.016739       -6.031837
 C        -2.736145       -0.441090       -4.258331
 C        -3.365700        0.006926       -5.399494
 N        -1.357643       -0.415377       -4.491528
 C        -1.074543       -0.000397       -5.782593
 N        -2.329868        0.250654       -6.334084
 C        -2.342518        0.630266       -7.712212
 C        -1.108067        1.092453       -8.175488
 C        -1.050018        1.792906       -9.377361
 H        -0.127445        2.244164       -9.695667
 C        -2.198830        1.980618      -10.156979
 H        -2.144405        2.530464      -11.085529
 C        -3.425068        1.470211       -9.723820
 H        -4.303341        1.578522      -10.335789
 C        -3.502048        0.784145       -8.503658
 H        -4.398949        0.243835       -8.258228
 C        -4.768932        0.107304       -5.411427
 H        -5.269024        0.603067       -6.231869
 C        -5.523849       -0.286228       -4.303211
 H        -6.597843       -0.217354       -4.337658
 C        -4.873913       -0.763412       -3.156273
 H        -5.443832       -1.081804       -2.303852
 C        -3.480637       -0.822561       -3.143337
 H        -2.976532       -1.168596       -2.256073
 C        -0.420666       -0.336735       -3.402588
 C        -0.477631        0.748592       -2.516293
 H        -1.160641        1.565853       -2.712730
 C         0.350677        0.790665       -1.401741
 H         0.281933        1.623228       -0.711590
 C         1.257084       -0.247931       -1.155270
 H         1.919533       -0.198393       -0.300392
 C         1.314632       -1.330925       -2.031857
 H         2.007038       -2.150517       -1.845722
 C         0.475895       -1.385052       -3.153191
 H         0.563740       -2.200497       -3.858906
 C         0.218590       -3.417149       -9.438648
 C         1.045761       -2.605209      -10.177792
 N        -0.216091       -2.665989       -8.336102
 C         0.313698       -1.387884       -8.355480
 N         1.085751       -1.355291       -9.511982
 C         1.761116       -0.123409       -9.776249
 C         1.868435        0.721863       -8.656750
 C         2.704956        1.845177       -8.739796
 H         2.785751        2.511219       -7.895016
 C         3.403835        2.139927       -9.913639
 H         4.053173        3.005739       -9.944218
 C         3.266296        1.314102      -11.035999
 H         3.782478        1.555500      -11.949123
 C         2.431046        0.198181      -10.965107
 H         2.185970       -0.321594      -11.876354
 C         1.668186       -3.137768      -11.323505
 H         2.385624       -2.553026      -11.888187
 C         1.434380       -4.458160      -11.713512
 H         1.933132       -4.864773      -12.583294
 C         0.577847       -5.267769      -10.962856
 H         0.368839       -6.280908      -11.273617
 C        -0.024475       -4.744934       -9.816021
 H        -0.680740       -5.375969       -9.233601
 C        -1.222675       -3.118195       -7.415012
 C        -2.570034       -2.816658       -7.664043
 H        -2.834309       -2.274204       -8.561375
 C        -3.546021       -3.142847       -6.733856
 H        -4.579315       -2.905125       -6.924610
 C        -3.193172       -3.785351       -5.529369
 H        -3.950409       -4.000633       -4.793476
 C        -1.856243       -4.098938       -5.287121
 H        -1.582127       -4.631670       -4.392719
 C        -0.870857       -3.775084       -6.227619
 H         0.162136       -4.034588       -6.041916
 Ir        0.509182        0.251598        6.908131
 C        -2.348606       -2.731255        5.529682
 C        -1.723953       -3.353111        6.589256
 N        -1.710552       -1.509499        5.311283
 C        -0.712494       -1.291183        6.249695
 N        -0.734463       -2.436489        7.051437
 C         0.087505       -2.390154        8.227161
 C         0.857868       -1.232677        8.376820
 C         1.735252       -1.132259        9.474415
 H         2.382160       -0.277374        9.570225
 C         1.821758       -2.150417       10.414242
 H         2.493484       -2.052254       11.256882
 C         1.042580       -3.303230       10.284592
 H         1.049049       -4.043238       11.059414
 C         0.185436       -3.423100        9.190453
 H        -0.496151       -4.257004        9.184399
 C        -2.181145       -4.622761        6.983418
 H        -1.665501       -5.197851        7.729263
 C        -3.262379       -5.226997        6.328106
 H        -3.539074       -6.245339        6.558361
 C        -3.906246       -4.571308        5.282162
 H        -4.738232       -5.034008        4.773632
 C        -3.449493       -3.313713        4.880619
 H        -3.967503       -2.789175        4.095551
 C        -1.805874       -0.813307        4.057835
 C        -1.070400       -1.271206        2.959511
 H        -0.402042       -2.107113        3.078892
 C        -1.205250       -0.645420        1.715042
 H        -0.655262       -1.015865        0.864407
 C        -2.055172        0.450317        1.575077
 H        -2.132427        0.961674        0.622471
 C        -2.800766        0.917944        2.671673
 H        -3.478973        1.744129        2.555218
 C        -2.666355        0.280102        3.908756
 H        -3.226330        0.650545        4.759991
 C        -1.950909        1.783611       10.149406
 C        -0.715630        2.326511       10.367218
 N        -1.926353        1.143351        8.890335
 C        -0.657307        1.203773        8.336018
 N         0.068077        1.985306        9.237976
 C         1.385662        2.347519        8.824612
 C         1.903534        1.578838        7.772785
 C         3.186928        1.893223        7.290546
 H         3.631916        1.274601        6.526417
 C         3.919735        2.954914        7.815727
 H         4.861580        3.237797        7.351261
 C         3.390579        3.728659        8.846409
 H         3.967403        4.539112        9.276459
 C         2.128754        3.430988        9.354244
 H         1.681179        4.100964       10.075291
 C        -0.484245        3.044964       11.550930
 H         0.480003        3.478968       11.759663
 C        -1.488888        3.186687       12.504402
 H        -1.283157        3.708796       13.427757
 C        -2.745159        2.629402       12.270702
 H        -3.544304        2.766132       12.976097
 C        -2.976101        1.923002       11.094372
 H        -3.957840        1.488600       10.927998
 C        -3.153629        0.976719        8.138710
 C        -3.577068       -0.302441        7.760498
 H        -2.961487       -1.161331        8.001888
 C        -4.834099       -0.490126        7.180542
 H        -5.133949       -1.476421        6.858498
 C        -5.687069        0.603683        6.989712
 H        -6.699387        0.435375        6.647957
 C        -5.273613        1.882841        7.368530
 H        -5.940811        2.723415        7.268562
 C        -4.007767        2.065868        7.928467
 H        -3.707920        3.052158        8.250515
 C         0.301937        3.123775        3.624500
 C         1.156223        2.142948        3.170013
 N        -0.070091        2.774137        4.936119
 C         0.493103        1.564762        5.306030
 N         1.238018        1.186996        4.198200
 C         1.885288       -0.085314        4.300022
 C         1.963963       -0.583151        5.609859
 C         2.810150       -1.684755        5.854477
 H         2.920639       -2.038984        6.860069
 C         3.519661       -2.291250        4.824306
 H         4.181568       -3.125629        5.036423
 C         3.390919       -1.824913        3.514744
 H         3.952175       -2.295340        2.718342
 C         2.573505       -0.727974        3.248913
 H         2.341717       -0.482647        2.225250
 C         1.740814        2.288370        1.894665
 H         2.512707        1.604666        1.569508
 C         1.442753        3.390118        1.102001
 H         1.925724        3.515617        0.136292
 C         0.549263        4.363552        1.570923
 H         0.302624        5.223314        0.967205
 C        -0.016087        4.225525        2.833038
 H        -0.716614        4.976900        3.178860
 C        -0.535782        3.779341        5.855904
 C         0.381969        4.646137        6.457981
 H         1.447029        4.469564        6.343697
 C        -0.063622        5.735401        7.212147
 H         0.647232        6.377806        7.705406
 C        -1.437664        5.965256        7.352798
 H        -1.783474        6.808743        7.933353
 C        -2.355408        5.098455        6.750721
 H        -3.421913        5.289814        6.840939
 C        -1.908520        4.004133        6.018299
 H        -2.604046        3.290525        5.613327
