206
 generated by VMD
  IR        61.099998       41.820000       11.120000
  C1        61.560001       42.900002       15.340000
  C2        62.240002       41.709999       15.240000
  N1        61.029999       43.220001       14.090000
  C3a       61.580002       42.330002       13.110000
  N2        62.200001       41.320000       13.890000
  C4        62.630001       40.209999       13.120000
  C5a       61.930000       40.049999       11.920000
  C6        61.980000       38.830002       11.250000
  H1        61.080002       38.410000       10.910000
  C7        62.810001       37.799999       11.730000
  H2        62.840000       36.889999       11.200000
  C8        63.520000       38.020000       12.930000
  H3        63.910000       37.220001       13.460000
  C9        63.450001       39.220001       13.620000
  H4        64.089996       39.400002       14.410000
  C10       62.900002       41.119999       16.309999
  H5        63.529999       40.270000       16.290001
  C11       62.810001       41.810001       17.549999
  H6        63.180000       41.320000       18.450001
  C12       62.080002       42.950001       17.709999
  H7        61.970001       43.459999       18.719999
  C13       61.500000       43.490002       16.580000
  H8        61.130001       44.509998       16.549999
  C6        60.200001       44.250000       13.780000
  C1        58.830002       44.040001       13.680000
  H1        58.360001       43.110001       14.030000
  C2        57.990002       45.110001       13.340000
  H2        56.939999       44.950001       13.510000
  C3        58.509998       46.369999       13.060000
  H3        57.799999       47.139999       12.730000
  C4        59.869999       46.610001       13.080000
  H4        60.389999       47.490002       12.830000
  C5        60.730000       45.549999       13.490000
  H5        61.840000       45.669998       13.490000
  C1        64.739998       43.200001        9.290000
  C2        64.070000       42.639999        8.280000
  N1        64.099998       42.779999       10.470000
  C3b       62.930000       42.080002       10.220000
  N2        62.869999       42.049999        8.870000
  C4        61.770000       41.369999        8.260000
  C5b       60.799999       41.000000        9.180000
  C6        59.770000       40.080002        9.010000
  H1        59.029999       39.700001        9.740000
  C7        59.889999       39.279999        7.810000
  H2        59.240002       38.430000        7.670000
  C8        60.900002       39.570000        6.880000
  H3        60.950001       38.959999        6.010000
  C9        61.810001       40.660000        7.090000
  H4        62.419998       40.959999        6.260000
  C10       64.410004       42.830002        6.940000
  H5        64.169998       42.000000        6.300000
  C11       65.430000       43.770000        6.640000
  H6        65.790001       43.810001        5.610000
  C12       66.120003       44.340000        7.690000
  H7        66.769997       45.230000        7.530000
  C13       65.739998       44.060001        9.030000
  H8        66.150002       44.590000        9.840000
  C6        64.760002       42.820000       11.780000
  C1        64.360001       43.730000       12.760000
  H1        63.730000       44.570000       12.570000
  C2        64.900002       43.720001       14.070000
  H2        64.370003       44.279999       14.820000
  C3        65.949997       42.930000       14.430000
  H3        66.440002       43.099998       15.410000
  C4        66.389999       42.000000       13.440000
  H4        67.150002       41.270000       13.640000
  C5        65.769997       41.990002       12.160000
  H5        66.000000       41.200001       11.430000
  C1        58.439999       44.849998        9.150000
  C2        57.639999       43.740002        9.500000
  N1        59.740002       44.430000        9.650000
  C3c       59.779999       43.220001       10.300000
  N2        58.470001       42.740002       10.140000
  C4        58.090000       41.799999       11.110000
  C5c       59.200001       41.259998       11.840000
  C6        58.900002       40.360001       12.920000
  H1        59.700001       40.020000       13.520000
  C7        57.560001       40.150002       13.320000
  H2        57.310001       39.730000       14.300000
  C8        56.500000       40.689999       12.590000
  H3        55.500000       40.380001       12.840000
  C9        56.740002       41.540001       11.500000
  H4        55.860001       41.750000       10.910000
  C10       56.299999       43.689999        9.160000
  H5        55.750000       42.770000        9.270000
  C11       55.750000       44.820000        8.480000
  H6        54.720001       44.680000        8.080000
  C12       56.540001       45.959999        8.270000
  H7        56.259998       46.840000        7.640000
  C13       57.900002       46.020000        8.550000
  H8        58.509998       46.869999        8.390000
  C6        60.910000       45.099998        9.070000
  C1        61.700001       45.820000        9.910000
  H1        61.619999       45.770000       10.990000
  C2        62.619999       46.730000        9.360000
  H2        62.950001       47.410000       10.110000
  C3        62.840000       46.820000        7.960000
  H3        63.660000       47.470001        7.650000
  C4        62.110001       46.009998        7.140000
  H4        62.110001       46.160000        6.030000
  C5        61.110001       45.169998        7.700000
  H5        60.509998       44.570000        7.010000
  IR        51.509998       47.080002        2.710000
  C1        50.910000       42.680000        3.240000
  C2        50.040001       43.270000        4.040000
  N1        51.730000       43.759998        2.710000
  C3a       51.320000       45.020000        3.140000
  N2        50.250000       44.680000        3.970000
  C4        49.689999       45.799999        4.700000
  C5a       49.869999       47.029999        4.050000
  C6        48.900002       48.070000        4.250000
  H1        49.160000       49.090000        3.950000
  C7        47.799999       47.830002        5.090000
  H2        47.040001       48.590000        5.110000
  C8        47.700001       46.630001        5.810000
  H3        46.820000       46.330002        6.360000
  C9        48.709999       45.680000        5.630000
  H4        48.779999       44.880001        6.350000
  C10       49.049999       42.439999        4.620000
  H5        48.299999       42.959999        5.290000
  C11       48.849998       41.160000        4.260000
  H6        47.930000       40.660000        4.450000
  C12       49.759998       40.560001        3.420000
  H7        49.660000       39.480000        3.160000
  C13       50.810001       41.360001        2.910000
  H8        51.740002       40.950001        2.550000
  C6        52.700001       43.470001        1.680000
  C1        52.330002       43.040001        0.410000
  H1        51.290001       42.849998        0.220000
  C2        53.240002       42.919998       -0.630000
  H2        52.990002       42.340000       -1.530000
  C3        54.529999       43.270000       -0.400000
  H3        55.130001       43.189999       -1.290000
  C4        54.919998       43.619999        0.870000
  H4        56.029999       43.610001        1.000000
  C5        54.080002       43.709999        1.980000
  H5        54.419998       43.490002        3.040000
  C1        48.320000       47.919998       -0.150000
  C2        49.189999       48.889999       -0.310000
  N1        48.939999       47.000000        0.730000
  C3b       50.160000       47.439999        1.240000
  N2        50.209999       48.709999        0.670000
  C4        51.160000       49.660000        1.340000
  C5b       51.599998       49.200001        2.600000
  C6        52.150002       50.200001        3.450000
  H1        52.410000       49.990002        4.460000
  C7        52.349998       51.529999        3.010000
  H2        52.779999       52.290001        3.640000
  C8        51.930000       51.939999        1.760000
  H3        51.950001       53.000000        1.530000
  C9        51.439999       50.980000        0.850000
  H4        51.410000       51.060001       -0.250000
  C10       48.849998       49.950001       -1.200000
  H5        49.639999       50.529999       -1.650000
  C11       47.520000       49.990002       -1.740000
  H6        47.180000       50.869999       -2.390000
  C12       46.680000       48.900002       -1.620000
  H7        45.639999       48.900002       -1.990000
  C13       47.070000       47.860001       -0.780000
  H8        46.250000       47.320000       -0.350000
  C6        48.330002       45.689999        0.950000
  C1        48.419998       44.709999        0.000000
  H1        49.139999       44.889999       -0.820000
  C2        47.720001       43.549999        0.020000
  H2        47.930000       42.790001       -0.720000
  C3        46.840000       43.330002        1.060000
  H3        46.330002       42.369999        1.180000
  C4        46.700001       44.340000        2.030000
  H4        46.230000       44.150002        2.950000
  C5        47.380001       45.520000        2.010000
  H5        47.389999       46.180000        2.910000
  C1        55.330002       47.200001        0.480000
  C2        55.709999       47.139999        1.770000
  N1        53.910000       47.189999        0.400000
  C3c       53.349998       47.090000        1.760000
  N2        54.480000       47.169998        2.560000
  C4        54.150002       47.549999        3.910000
  C5c       52.880001       47.160000        4.320000
  C6        52.669998       47.330002        5.710000
  H1        51.779999       46.980000        6.060000
  C7        53.570000       47.939999        6.550000
  H2        53.509998       47.830002        7.660000
  C8        54.740002       48.439999        6.030000
  H3        55.180000       49.310001        6.550000
  C9        54.980000       48.220001        4.710000
  H4        55.770000       48.779999        4.310000
  C10       57.060001       46.980000        2.080000
  H5        57.310001       47.000000        3.120000
  C11       58.040001       47.290001        1.090000
  H6        59.110001       47.560001        1.310000
  C12       57.590000       47.450001       -0.300000
  H7        58.290001       47.509998       -1.160000
  C13       56.240002       47.320000       -0.560000
  H8        55.990002       47.540001       -1.590000
  C6        53.200001       47.320000       -0.830000
  C1        52.119999       46.520000       -1.120000
  H1        51.910000       45.849998       -0.340000
  C2        51.250000       46.799999       -2.230000
  H2        50.610001       46.020000       -2.650000
  C3        51.619999       47.950001       -2.970000
  H3        51.049999       48.209999       -3.890000
  C4        52.639999       48.779999       -2.610000
  H4        53.110001       49.470001       -3.370000
  C5        53.419998       48.480000       -1.560000
  H5        54.230000       49.160000       -1.380000
