206
 generated by VMD
  IR        57.630001       43.580002       35.549999
  C1        56.860001       47.869999       35.020000
  C2        57.380001       47.450001       33.840000
  N1        56.950001       46.770000       35.959999
  C3a       57.549999       45.650002       35.419998
  N2        57.910000       46.139999       34.080002
  C4        58.830002       45.189999       33.430000
  C5a       58.759998       43.880001       33.820000
  C6        59.500000       42.959999       33.130001
  H1        59.189999       41.959999       33.389999
  C7        60.340000       43.320000       32.070000
  H2        60.669998       42.630001       31.360001
  C8        60.430000       44.669998       31.709999
  H3        60.830002       45.080002       30.820000
  C9        59.580002       45.549999       32.369999
  H4        59.540001       46.580002       32.040001
  C10       57.259998       48.270000       32.669998
  H5        57.849998       48.070000       31.790001
  C11       56.560001       49.419998       32.810001
  H6        56.400002       50.029999       31.920000
  C12       56.040001       49.860001       33.990002
  H7        55.259998       50.610001       33.869999
  C13       56.169998       49.090000       35.110001
  H8        55.660000       49.459999       36.020000
  C6        56.680000       46.849998       37.330002
  C1        57.740002       46.759998       38.240002
  H1        58.779999       47.099998       38.029999
  C2        57.490002       46.500000       39.599998
  H2        58.209999       46.419998       40.389999
  C3        56.209999       46.419998       40.049999
  H3        56.060001       46.419998       41.209999
  C4        55.070000       46.470001       39.180000
  H4        54.209999       46.000000       39.570000
  C5        55.369999       46.770000       37.810001
  H5        54.540001       47.080002       37.250000
  C1        54.029999       42.599998       33.470001
  C2        54.689999       41.450001       33.560001
  N1        54.889999       43.660000       33.910000
  C3b       56.139999       43.180000       34.220001
  N2        55.990002       41.810001       33.990002
  C4        57.130001       40.930000       34.270000
  C5b       57.770000       41.490002       35.410000
  C6        58.700001       40.610001       35.980000
  H1        59.500000       41.029999       36.490002
  C7        58.889999       39.310001       35.410000
  H2        59.660000       38.750000       35.939999
  C8        58.220001       38.840000       34.250000
  H3        58.220001       37.810001       33.970001
  C9        57.369999       39.730000       33.669998
  H4        57.119999       39.520000       32.590000
  C10       54.040001       40.230000       33.509998
  H5        54.599998       39.320000       33.580002
  C11       52.650002       40.180000       33.259998
  H6        52.279999       39.200001       32.990002
  C12       51.950001       41.360001       33.060001
  H7        50.830002       41.310001       33.090000
  C13       52.650002       42.580002       33.189999
  H8        52.000000       43.439999       32.990002
  C6        54.610001       44.980000       33.470001
  C1        54.919998       45.330002       32.150002
  H1        55.529999       44.740002       31.500000
  C2        54.369999       46.450001       31.510000
  H2        54.099998       46.480000       30.430000
  C3        53.509998       47.290001       32.240002
  H3        52.939999       48.130001       31.830000
  C4        53.270000       46.990002       33.599998
  H4        52.580002       47.599998       34.169998
  C5        53.730000       45.869999       34.209999
  H5        53.520000       45.770000       35.349998
  C1        55.730000       43.080002       39.470001
  C2        57.060001       43.139999       39.770000
  N1        55.680000       43.029999       38.070000
  C3c       56.840000       43.220001       37.439999
  N2        57.730000       43.259998       38.560001
  C4        59.080002       43.560001       38.259998
  C5c       59.320000       43.779999       36.889999
  C6        60.570000       44.299999       36.500000
  H1        60.720001       44.599998       35.509998
  C7        61.599998       44.410000       37.349998
  H2        62.580002       44.570000       36.970001
  C8        61.459999       44.049999       38.709999
  H3        62.200001       43.939999       39.459999
  C9        60.180000       43.660000       39.180000
  H4        60.099998       43.230000       40.139999
  C10       57.430000       43.049999       41.169998
  H5        58.450001       43.340000       41.380001
  C11       56.450001       42.970001       42.169998
  H6        56.669998       43.169998       43.209999
  C12       55.060001       42.840000       41.840000
  H7        54.410000       42.560001       42.630001
  C13       54.740002       42.900002       40.470001
  H8        53.700001       42.709999       40.119999
  C6        54.450001       42.490002       37.430000
  C1        54.169998       41.099998       37.439999
  H1        54.919998       40.480000       37.950001
  C2        52.900002       40.709999       37.110001
  H2        52.759998       39.570000       37.240002
  C3        51.880001       41.590000       36.630001
  H3        50.910000       41.299999       36.230000
  C4        52.230000       42.959999       36.570000
  H4        51.639999       43.660000       36.009998
  C5        53.480000       43.389999       36.950001
  H5        53.639999       44.419998       37.099998
  IR        50.630001       36.200001       38.880001
  C1        51.930000       33.070000       41.669998
  C2        50.619999       32.900002       41.480000
  N1        52.279999       34.220001       40.900002
  C3a       51.169998       34.779999       40.299999
  N2        50.160000       33.980000       40.759998
  C4        48.810001       34.450001       40.529999
  C5a       48.759998       35.369999       39.509998
  C6        47.490002       35.869999       39.090000
  H1        47.500000       36.560001       38.310001
  C7        46.310001       35.450001       39.730000
  H2        45.340000       35.860001       39.380001
  C8        46.389999       34.450001       40.730000
  H3        45.520000       34.290001       41.270000
  C9        47.669998       33.910000       41.070000
  H4        47.660000       33.080002       41.720001
  C10       50.060001       31.750000       42.000000
  H5        49.060001       31.500000       41.720001
  C11       50.840000       30.820000       42.720001
  H6        50.450001       29.860001       43.049999
  C12       52.150002       31.150000       43.060001
  H7        52.779999       30.469999       43.660000
  C13       52.720001       32.220001       42.500000
  H8        53.700001       32.529999       42.869999
  C6        53.639999       34.509998       40.610001
  C1        54.419998       33.470001       40.060001
  H1        53.980000       32.860001       39.330002
  C2        55.830002       33.580002       40.169998
  H2        56.560001       32.919998       39.680000
  C3        56.470001       34.730000       40.689999
  H3        57.439999       34.959999       40.250000
  C4        55.709999       35.790001       41.130001
  H4        56.009998       36.810001       41.180000
  C5        54.310001       35.619999       41.180000
  H5        53.680000       36.340000       41.689999
  C1        50.389999       33.860001       35.189999
  C2        50.250000       35.139999       34.759998
  N1        50.470001       33.849998       36.590000
  C3b       50.430000       35.150002       37.070000
  N2        50.279999       35.959999       36.020000
  C4        49.970001       37.230000       36.270000
  C5b       49.770000       37.590000       37.599998
  C6        49.070000       38.820000       37.970001
  H1        48.540001       38.740002       38.959999
  C7        48.840000       39.720001       36.970001
  H2        48.130001       40.540001       37.119999
  C8        49.250000       39.349998       35.669998
  H3        48.970001       40.070000       34.919998
  C9        49.810001       38.169998       35.299999
  H4        50.240002       38.070000       34.330002
  C10       50.400002       35.419998       33.330002
  H5        50.529999       36.419998       33.020000
  C11       50.759998       34.389999       32.450001
  H6        50.919998       34.570000       31.389999
  C12       50.919998       33.090000       32.910000
  H7        51.169998       32.410000       32.200001
  C13       50.619999       32.840000       34.240002
  H8        50.500000       31.780001       34.520000
  C6        50.570000       32.580002       37.400002
  C1        49.459999       32.130001       38.049999
  H1        48.580002       32.720001       38.150002
  C2        49.619999       30.980000       38.820000
  H2        48.779999       30.620001       39.410000
  C3        50.770000       30.209999       38.990002
  H3        51.040001       29.490000       39.810001
  C4        51.840000       30.660000       38.270000
  H4        52.740002       30.139999       38.160000
  C5        51.779999       31.850000       37.470001
  H5        52.709999       32.299999       37.250000
  C1        54.740002       37.720001       38.330002
  C2        54.200001       38.400002       39.419998
  N1        53.639999       36.990002       37.740002
  C3c       52.459999       37.119999       38.509998
  N2        52.779999       38.029999       39.540001
  C4        51.810001       38.470001       40.490002
  C5c       50.740002       37.509998       40.570000
  C6        49.750000       37.790001       41.529999
  H1        48.869999       37.220001       41.500000
  C7        49.820000       38.820000       42.410000
  H2        48.919998       38.779999       43.049999
  C8        50.830002       39.740002       42.369999
  H3        50.740002       40.689999       42.930000
  C9        51.840000       39.580002       41.380001
  H4        52.650002       40.230000       41.450001
  C10       55.080002       39.270000       40.169998
  H5        54.790001       39.730000       41.070000
  C11       56.430000       39.340000       39.779999
  H6        57.049999       39.910000       40.419998
  C12       57.000000       38.660000       38.709999
  H7        58.009998       38.930000       38.369999
  C13       56.090000       37.939999       37.930000
  H8        56.720001       37.400002       37.180000
  C6        53.770000       36.200001       36.590000
  C1        53.730000       36.730000       35.279999
  H1        53.169998       37.680000       35.119999
  C2        54.209999       35.980000       34.169998
  H2        54.360001       36.509998       33.240002
  C3        54.650002       34.660000       34.389999
  H3        54.820000       34.000000       33.619999
  C4        54.660000       34.130001       35.709999
  H4        54.520000       33.099998       35.880001
  C5        54.250000       34.939999       36.720001
  H5        54.090000       34.520000       37.680000
