206
 generated by VMD
 Ir      164.586273      -16.729813       10.609634
 C       162.990189      -12.706410       10.015537
 C       163.568573      -12.671313       11.280588
 N       163.089386      -14.050981        9.579994
 C       163.765411      -14.806655       10.460537
 N       164.025055      -13.974879       11.514114
 C       164.670105      -14.468280       12.667145
 C       165.247345      -15.763465       12.411652
 C       165.972992      -16.364178       13.442265
 H       166.454391      -17.336174       13.233253
 C       166.077042      -15.845056       14.711552
 H       166.668747      -16.393204       15.393040
 C       165.439072      -14.649829       14.962410
 H       165.444016      -14.175887       15.893995
 C       164.731476      -14.009334       13.980692
 H       164.429428      -12.990905       14.118441
 C       163.578583      -11.435790       11.946531
 H       164.114990      -11.436048       12.906149
 C       162.993469      -10.280797       11.359898
 H       163.157776       -9.361331       11.923357
 C       162.428940      -10.341676       10.059587
 H       162.039352       -9.482610        9.539268
 C       162.442230      -11.553376        9.351343
 H       161.992294      -11.703170        8.402126
 C       162.187134      -14.502379        8.568718
 C       161.080231      -15.285892        8.919544
 H       160.792038      -15.572314        9.894945
 C       160.180008      -15.723294        7.881809
 H       159.244888      -16.130062        8.191944
 C       160.429688      -15.421142        6.511095
 H       159.720337      -15.755885        5.742689
 C       161.461945      -14.528100        6.178480
 H       161.674759      -14.148850        5.159468
 C       162.369202      -14.175181        7.198505
 H       163.258820      -13.676322        6.922272
 C       168.497437      -16.297485        8.693264
 C       168.472794      -17.585865        9.098202
 N       167.360657      -15.641866        9.315750
 C       166.548141      -16.530731        9.958527
 N       167.185974      -17.766479        9.720242
 C       166.629730      -18.852051       10.471378
 C       165.428696      -18.569485       11.091850
 C       164.790970      -19.603487       11.841343
 H       163.895142      -19.557152       12.371597
 C       165.376389      -20.855225       12.115982
 H       164.957565      -21.709187       12.652493
 C       166.645889      -21.104877       11.506847
 H       167.162674      -22.019917       11.633095
 C       167.192429      -20.147009       10.638245
 H       168.109711      -20.326694       10.091988
 C       169.519440      -18.408001        8.630150
 H       169.878113      -19.187019        9.360554
 C       170.407333      -18.011028        7.619465
 H       171.256897      -18.616329        7.235893
 C       170.308685      -16.671822        7.194149
 H       170.801559      -16.304836        6.265766
 C       169.462051      -15.776242        7.837399
 H       169.645798      -14.764396        7.600742
 C       167.357285      -14.209603        9.517784
 C       167.474457      -13.735917       10.839638
 H       167.551041      -14.518147       11.580685
 C       167.123886      -12.332170       11.113300
 H       167.112228      -11.863141       12.044792
 C       166.718124      -11.528333        9.969051
 H       166.322388      -10.539378       10.114246
 C       166.594849      -12.043279        8.689159
 H       165.957382      -11.482606        7.991886
 C       166.944229      -13.401589        8.378967
 H       166.692902      -13.918525        7.481300
 C       163.020340      -18.941029        7.187244
 C       162.245850      -19.376308        8.250626
 N       163.967697      -18.062275        7.691040
 C       163.785263      -17.878899        9.036583
 N       162.692215      -18.688194        9.352150
 C       162.103928      -18.392847       10.601021
 C       162.703415      -17.340252       11.351528
 C       161.952606      -16.590069       12.235155
 H       162.339233      -15.665914       12.632963
 C       160.620941      -16.876522       12.491556
 H       160.037247      -16.155781       13.051142
 C       159.993759      -17.878284       11.848978
 H       158.892029      -17.858217       11.846771
 C       160.722580      -18.654991       10.919388
 H       160.225800      -19.576706       10.703411
 C       161.265869      -20.292404        8.008060
 H       160.666840      -20.845787        8.716248
 C       161.060883      -20.836086        6.714237
 H       160.277512      -21.501179        6.487305
 C       161.913956      -20.523594        5.629715
 H       162.005859      -21.225933        4.837963
 C       162.810669      -19.488886        5.871952
 H       163.320877      -19.099552        4.968071
 C       165.029816      -17.566082        6.874771
 C       165.006653      -16.276230        6.330853
 H       164.041245      -15.757846        6.202152
 C       166.128387      -15.822034        5.682163
 H       166.423874      -14.743880        5.636604
 C       167.201019      -16.635345        5.481590
 H       168.042435      -16.253624        4.954445
 C       167.195618      -17.930111        6.009369
 H       168.052368      -18.585281        5.894802
 C       166.091797      -18.385780        6.756939
 H       166.388367      -19.079098        7.595963
 Ir      164.586273      -16.729813       21.034857
 C       160.522415      -17.889687       19.934944
 C       160.663635      -16.666620       19.368317
 N       161.693649      -18.198837       20.621109
 C       162.634064      -17.181049       20.419273
 N       161.985809      -16.257153       19.667690
 C       162.707123      -15.047574       19.429560
 C       163.879059      -14.932845       20.177551
 C       164.520844      -13.704867       20.260563
 H       165.535995      -13.622056       20.601622
 C       163.986618      -12.619617       19.648487
 H       164.368851      -11.616376       19.887466
 C       162.825775      -12.792306       18.904694
 H       162.408035      -11.820273       18.517595
 C       162.150177      -14.005544       18.709707
 H       161.530548      -14.295335       17.824562
 C       159.619537      -16.234165       18.500135
 H       159.469452      -15.213003       18.250322
 C       158.492188      -16.957726       18.280092
 H       157.706039      -16.607536       17.618773
 C       158.370193      -18.185705       18.894739
 H       157.487564      -18.760181       18.704353
 C       159.343201      -18.641987       19.741068
 H       159.147583      -19.437733       20.348217
 C       161.765533      -19.214634       21.627535
 C       160.862930      -19.237337       22.699074
 H       160.579163      -18.327469       23.147429
 C       160.791626      -20.396311       23.512888
 H       160.226105      -20.231844       24.395632
 C       161.513229      -21.587845       23.187254
 H       161.117584      -22.457027       23.619205
 C       162.482391      -21.505707       22.140947
 H       163.108276      -22.335011       21.924047
 C       162.547150      -20.325123       21.356962
 H       163.373474      -20.093449       20.703890
 C       166.649490      -18.140175       17.502399
 C       167.568512      -17.413944       18.214371
 N       165.436249      -17.937914       18.094564
 C       165.548004      -17.075699       19.220928
 N       166.890320      -16.790241       19.255884
 C       167.318695      -15.918424       20.320936
 C       166.467224      -15.931304       21.416719
 C       166.896866      -15.289361       22.568119
 H       166.373901      -15.512431       23.419151
 C       168.106995      -14.618587       22.626726
 H       168.505463      -14.375964       23.564413
 C       168.973038      -14.614799       21.557493
 H       170.007202      -14.387074       21.610037
 C       168.559998      -15.251824       20.406187
 H       169.229767      -15.199677       19.570484
 C       168.939758      -17.401066       17.816242
 H       169.615051      -17.134109       18.572613
 C       169.411011      -17.973942       16.642086
 H       170.435654      -18.013405       16.389965
 C       168.461533      -18.677822       15.890469
 H       168.801514      -19.220509       15.051064
 C       167.100525      -18.808090       16.355782
 H       166.488235      -19.515890       15.801868
 C       164.187469      -18.223339       17.503595
 C       163.729904      -17.230661       16.697222
 H       163.739120      -16.227936       16.914824
 C       163.119446      -17.545240       15.493488
 H       163.014709      -16.650051       14.885653
 C       162.861389      -18.947800       15.249289
 H       162.543930      -19.177647       14.226307
 C       163.254547      -19.948345       16.141052
 H       163.027527      -20.988417       15.936085
 C       163.884491      -19.556154       17.292850
 H       164.034012      -20.160336       18.179090
 C       165.719666      -20.418819       23.108484
 C       164.844574      -19.714809       23.897644
 N       165.886230      -19.555511       21.986761
 C       165.170593      -18.359549       22.095959
 N       164.540039      -18.409254       23.313963
 C       163.885620      -17.183586       23.814024
 C       163.737381      -16.175659       22.876949
 C       163.260391      -14.876299       23.282215
 H       162.933350      -14.162112       22.478355
 C       162.942261      -14.580698       24.654043
 H       162.302521      -13.724133       24.831381
 C       163.273651      -15.598196       25.641703
 H       163.092041      -15.350210       26.662403
 C       163.620651      -16.864899       25.221050
 H       163.824326      -17.748787       25.842468
 C       164.264420      -20.401320       25.028227
 H       163.770294      -19.906282       25.807894
 C       164.380981      -21.734619       25.178329
 H       163.705856      -22.212606       25.818508
 C       165.301712      -22.492413       24.454929
 H       165.347931      -23.606400       24.507782
 C       165.996689      -21.809338       23.425848
 H       166.971771      -22.188204       23.073471
 C       167.096359      -19.682861       21.222324
 C       168.274612      -19.032734       21.603977
 H       168.242706      -18.247871       22.375971
 C       169.411026      -19.174080       20.769768
 H       170.257935      -18.561295       21.011703
 C       169.412567      -19.888687       19.571461
 H       170.263718      -19.781277       18.899902
 C       168.257248      -20.638773       19.297432
 H       168.158997      -21.020622       18.335594
 C       167.124771      -20.509209       20.053890
 H       166.150208      -20.767855       19.607780
