206
 generated by VMD
 Ir       24.296860     -119.764816      -28.191494
 C        22.263885     -116.789825      -30.564827
 C        23.056072     -116.035721      -29.684170
 N        22.290894     -118.113937      -30.066195
 C        23.062145     -118.293922      -29.014639
 N        23.571220     -117.023155      -28.751972
 C        24.526352     -116.886040      -27.646250
 C        25.227903     -118.055634      -27.369699
 C        26.203781     -117.954712      -26.401306
 H        26.753071     -118.845749      -26.075525
 C        26.511547     -116.754410      -25.736889
 H        27.450668     -116.561928      -25.128035
 C        25.778906     -115.619919      -26.012527
 H        25.792126     -114.743729      -25.388016
 C        24.776375     -115.709122      -26.999683
 H        24.145229     -114.836945      -27.114412
 C        23.249851     -114.762146      -29.973766
 H        23.926350     -114.268814      -29.368813
 C        22.612284     -114.098824      -30.998512
 H        22.800259     -113.062904      -31.204508
 C        21.788349     -114.855301      -31.846205
 H        21.311405     -114.386429      -32.687683
 C        21.631023     -116.221252      -31.676765
 H        21.158642     -116.792892      -32.503315
 C        21.368055     -119.084801      -30.587614
 C        21.879036     -120.144745      -31.378704
 H        23.010017     -120.328751      -31.373465
 C        20.971149     -120.925873      -32.090584
 H        21.289360     -121.784668      -32.588799
 C        19.599789     -120.676369      -31.958618
 H        18.973095     -121.066612      -32.708458
 C        19.079258     -119.646881      -31.130362
 H        18.021137     -119.584763      -30.931553
 C        19.965281     -118.869255      -30.421583
 H        19.791878     -117.935532      -29.996975
 C        27.066082     -119.999466      -31.514572
 C        27.506058     -120.966965      -30.623016
 N        26.104038     -119.253006      -30.864840
 C        25.824661     -119.669373      -29.555798
 N        26.806274     -120.719566      -29.389282
 C        26.865368     -121.288147      -28.101870
 C        25.717819     -121.054382      -27.306458
 C        25.737637     -121.613594      -26.010696
 H        24.761684     -121.562241      -25.509018
 C        26.872581     -122.345726      -25.479589
 H        26.939121     -122.511513      -24.441372
 C        27.986351     -122.477676      -26.248682
 H        28.869488     -122.968529      -25.891279
 C        27.983959     -121.961792      -27.521656
 H        28.809128     -122.222504      -28.174435
 C        28.348324     -121.995682      -30.980536
 H        28.717911     -122.696213      -30.216560
 C        28.840759     -122.063919      -32.276783
 H        29.478481     -122.915909      -32.585075
 C        28.553776     -121.065979      -33.249378
 H        29.031395     -120.988121      -34.252129
 C        27.678080     -119.997498      -32.830193
 H        27.483765     -119.215096      -33.568153
 C        25.840973     -117.951080      -31.383093
 C        25.069672     -117.795616      -32.503189
 H        24.421242     -118.579361      -32.913788
 C        25.121372     -116.650429      -33.257362
 H        24.383404     -116.496368      -34.063316
 C        25.848751     -115.544807      -32.896362
 H        25.945564     -114.610382      -33.537201
 C        26.550774     -115.625397      -31.695042
 H        27.229221     -114.821716      -31.357258
 C        26.483727     -116.806908      -30.888475
 H        26.616219     -116.792442      -29.873962
 C        21.844101     -123.189232      -29.372953
 C        21.248478     -122.554329      -28.311523
 N        23.121719     -122.541016      -29.503704
 C        23.292271     -121.549179      -28.604103
 N        22.173691     -121.603333      -27.816544
 C        22.284573     -121.006149      -26.599140
 C        22.919853     -119.797241      -26.607670
 C        22.960361     -118.963547      -25.483612
 H        23.321632     -117.979301      -25.499088
 C        22.321873     -119.376221      -24.322992
 H        22.342016     -118.832619      -23.436489
 C        21.650391     -120.603859      -24.296061
 H        21.382744     -120.991875      -23.358988
 C        21.602390     -121.370842      -25.410435
 H        21.115494     -122.289597      -25.292845
 C        19.964027     -122.849380      -27.758602
 H        19.367392     -122.060738      -27.281780
 C        19.201963     -123.796745      -28.472378
 H        18.462244     -124.407883      -27.984707
 C        19.710068     -124.323845      -29.683195
 H        19.150347     -125.153145      -30.248243
 C        20.985691     -124.097916      -30.128216
 H        21.491394     -124.834961      -30.731405
 C        24.244839     -123.263138      -29.866102
 C        24.720238     -123.179230      -31.149672
 H        24.204868     -122.519730      -31.774858
 C        25.804031     -123.916519      -31.572271
 H        26.174694     -123.991959      -32.582825
 C        26.507446     -124.680450      -30.639950
 H        27.543678     -124.947411      -30.807745
 C        26.050819     -124.818199      -29.363388
 H        26.359119     -125.702354      -28.765619
 C        24.896660     -124.106644      -28.931526
 H        24.603851     -124.188072      -27.905745
 Ir       24.296860     -119.764816      -16.702538
 C        24.048553     -122.673218      -13.445442
 C        22.790131     -122.223396      -13.593864
 N        24.895317     -121.916679      -14.335360
 C        24.241673     -120.901337      -14.968157
 N        22.896740     -121.107384      -14.476227
 C        22.091358     -119.978760      -14.716162
 C        22.572256     -119.105057      -15.674009
 C        21.874565     -117.892273      -15.801168
 H        22.484226     -117.030670      -16.235403
 C        20.764950     -117.541458      -15.018486
 H        20.215336     -116.649277      -15.311123
 C        20.345562     -118.397644      -14.030478
 H        19.582254     -118.181465      -13.312197
 C        21.037453     -119.616295      -13.888086
 H        20.598740     -120.308350      -13.271008
 C        21.762398     -122.990128      -13.124720
 H        20.744381     -122.782608      -13.307684
 C        21.969231     -124.166916      -12.448420
 H        21.182964     -124.752190      -12.112946
 C        23.247131     -124.678795      -12.270508
 H        23.336975     -125.703178      -11.908352
 C        24.305584     -123.900337      -12.775967
 H        25.275242     -124.056503      -12.375000
 C        26.304317     -122.224800      -14.344255
 C        27.180542     -121.628754      -13.393963
 H        26.743816     -120.764099      -12.872965
 C        28.472477     -122.154709      -13.170174
 H        29.236080     -121.701195      -12.553944
 C        28.878941     -123.161957      -13.961079
 H        29.947048     -123.438416      -13.956264
 C        28.104115     -123.691231      -15.024336
 H        28.490841     -124.263062      -15.845581
 C        26.832714     -123.181717      -15.180981
 H        26.241474     -123.453644      -16.088444
 C        21.512184     -121.823471      -19.277054
 C        21.365326     -120.513451      -19.688864
 N        22.414948     -121.867683      -18.274176
 C        22.966049     -120.633232      -17.976664
 N        22.306767     -119.783928      -18.833071
 C        22.921803     -118.498825      -19.010370
 C        24.134575     -118.367317      -18.327366
 C        24.931957     -117.230858      -18.558102
 H        25.774426     -117.029015      -17.923351
 C        24.429482     -116.216537      -19.448870
 H        25.174137     -115.431137      -19.749428
 C        23.205814     -116.367981      -20.064913
 H        22.763332     -115.513138      -20.554348
 C        22.438145     -117.513809      -19.839602
 H        21.487560     -117.498077      -20.280781
 C        20.288837     -120.115814      -20.575918
 H        20.409328     -119.115952      -21.070955
 C        19.422352     -121.077316      -21.118235
 H        18.532225     -120.857887      -21.635273
 C        19.661087     -122.411926      -20.713736
 H        19.034550     -123.253075      -21.052738
 C        20.645039     -122.752220      -19.787325
 H        20.850836     -123.860710      -19.695690
 C        22.353188     -122.936989      -17.245161
 C        23.541302     -123.534363      -16.950512
 H        24.404568     -122.937561      -17.068409
 C        23.574657     -124.700645      -16.191776
 H        24.497875     -125.044128      -15.703318
 C        22.347143     -125.244949      -15.726225
 H        22.449982     -125.924393      -14.911251
 C        21.149414     -124.672104      -16.086491
 H        20.213272     -125.145050      -15.659813
 C        21.110950     -123.489456      -16.827744
 H        20.239960     -122.834915      -16.940279
 C        28.033100     -120.894836      -18.675875
 C        28.402824     -120.068153      -17.672087
 N        26.640800     -121.085403      -18.543966
 C        26.097454     -120.318237      -17.516777
 N        27.222122     -119.704414      -16.950880
 C        27.014301     -118.957306      -15.783987
 C        25.644035     -118.491302      -15.614241
 C        25.358624     -117.728912      -14.530087
 H        24.348392     -117.325027      -14.345657
 C        26.386074     -117.255707      -13.700796
 H        26.273567     -116.363075      -13.111258
 C        27.652859     -117.824738      -13.798584
 H        28.272038     -117.569115      -13.004934
 C        27.977224     -118.711243      -14.823759
 H        28.736229     -119.423187      -14.598690
 C        29.639545     -119.490273      -17.628828
 H        29.915882     -118.903404      -16.759445
 C        30.509911     -119.591515      -18.715113
 H        31.417637     -119.056824      -18.721813
 C        30.148655     -120.402908      -19.827963
 H        30.803963     -120.470314      -20.694239
 C        28.931458     -121.134209      -19.739010
 H        28.585495     -121.962296      -20.425726
 C        25.959238     -121.363007      -19.678387
 C        25.714634     -120.347534      -20.614971
 H        26.100235     -119.330605      -20.516695
 C        24.921410     -120.567795      -21.704180
 H        24.965103     -119.946907      -22.518728
 C        24.245720     -121.776573      -21.861984
 H        23.480072     -121.979568      -22.553274
 C        24.485819     -122.832947      -21.008505
 H        23.748566     -123.618210      -20.888903
 C        25.399292     -122.636139      -19.902233
 H        25.182377     -123.357620      -19.107000
