206
 generated by VMD
  IR        20.900000       34.040001       15.740000
  C1        25.110001       34.320000       14.940000
  C2        24.840000       35.259998       15.870000
  N1        23.920000       33.560001       14.790000
  C3a       22.920000       34.119999       15.570000
  N2        23.469999       35.130001       16.309999
  C4        22.660000       35.660000       17.379999
  C5a       21.389999       35.330002       17.360001
  C6        20.570000       35.540001       18.530001
  H1        19.530001       35.320000       18.459999
  C7        21.100000       36.160000       19.660000
  H2        20.510000       36.459999       20.480000
  C8        22.410000       36.470001       19.690001
  H3        22.680000       37.160000       20.450001
  C9        23.219999       36.209999       18.549999
  H4        24.299999       36.299999       18.650000
  C10       25.990000       36.060001       16.320000
  H5        25.889999       36.709999       17.139999
  C11       27.209999       35.980000       15.620000
  H6        28.040001       36.520000       15.940000
  C12       27.410000       35.029999       14.640000
  H7        28.360001       34.880001       14.190000
  C13       26.379999       34.169998       14.330000
  H8        26.570000       33.480000       13.570000
  C6        23.780001       32.389999       13.990000
  C1        23.379999       32.669998       12.660000
  H1        22.690001       33.480000       12.460000
  C2        23.750000       31.830000       11.620000
  H2        23.480000       32.040001       10.570000
  C3        24.549999       30.719999       11.910000
  H3        25.290001       30.360001       11.190000
  C4        24.820000       30.459999       13.260000
  H4        25.370001       29.510000       13.350000
  C5        24.450001       31.219999       14.320000
  H5        24.750000       31.000000       15.370000
  C1        20.690001       31.000000       18.930000
  C2        19.370001       31.299999       18.680000
  N1        21.459999       31.770000       17.980000
  C3b       20.670000       32.549999       17.200001
  N2        19.400000       32.139999       17.570000
  C4        18.400000       32.930000       16.950001
  C5b       18.840000       34.070000       16.290001
  C6        17.860001       35.000000       15.800000
  H1        18.139999       35.869999       15.230000
  C7        16.459999       34.740002       15.940000
  H2        15.910000       35.680000       15.890000
  C8        16.059999       33.520000       16.549999
  H3        15.040000       33.169998       16.360001
  C9        17.049999       32.630001       17.040001
  H4        16.639999       31.760000       17.400000
  C10       18.459999       30.700001       19.490000
  H5        17.469999       31.100000       19.660000
  C11       18.910000       29.850000       20.580000
  H6        18.180000       29.540001       21.290001
  C12       20.290001       29.629999       20.870001
  H7        20.559999       29.360001       21.860001
  C13       21.180000       30.190001       19.959999
  H8        22.219999       30.120001       20.059999
  C6        22.840000       31.969999       18.370001
  C1        23.139999       32.970001       19.270000
  H1        22.350000       33.549999       19.730000
  C2        24.480000       33.080002       19.700001
  H2        24.840000       33.959999       20.160000
  C3        25.480000       32.220001       19.230000
  H3        26.530001       32.330002       19.510000
  C4        25.120001       31.309999       18.270000
  H4        25.910000       30.650000       17.770000
  C5        23.840000       31.120001       17.850000
  H5        23.670000       30.280001       17.230000
  C1        20.100000       31.830000       12.150000
  C2        20.120001       33.150002       11.790000
  N1        20.120001       31.830000       13.580000
  C3c       20.100000       33.099998       14.100000
  N2        20.070000       33.970001       12.970000
  C4        20.110001       35.340000       13.180000
  C5c       20.799999       35.639999       14.370000
  C6        21.040001       37.009998       14.600000
  H1        21.350000       37.310001       15.580000
  C7        20.639999       38.000000       13.730000
  H2        20.969999       39.040001       13.930000
  C8        20.000000       37.650002       12.540000
  H3        19.709999       38.349998       11.780000
  C9        19.719999       36.340000       12.260000
  H4        19.170000       36.080002       11.320000
  C10       20.410000       33.430000       10.470000
  H5        20.549999       34.450001       10.210000
  C11       20.540001       32.500000        9.500000
  H6        20.540001       32.669998        8.430000
  C12       20.450001       31.180000        9.860000
  H7        20.420000       30.370001        9.130000
  C13       20.219999       30.860001       11.170000
  H8        19.990000       29.830000       11.440000
  C6        20.110001       30.620001       14.340000
  C1        21.070000       29.660000       14.110000
  H1        21.950001       30.020000       13.590000
  C2        20.920000       28.379999       14.570000
  H2        21.740000       27.680000       14.410000
  C3        19.830000       28.049999       15.360000
  H3        19.790001       26.980000       15.630000
  C4        18.860001       28.980000       15.630000
  H4        18.160000       28.830000       16.480000
  C5        18.920000       30.290001       15.050000
  H5        18.090000       31.010000       15.140000
  IR         6.960000       36.580002       17.969999
  C1         7.610000       40.849998       17.080000
  C2         6.420000       40.810001       17.799999
  N1         8.100000       39.500000       16.980000
  C3a        7.240000       38.639999       17.620001
  N2         6.220000       39.480000       18.180000
  C4         5.130000       38.799999       18.740000
  C5a        5.080000       37.439999       18.580000
  C6         3.960000       36.740002       19.080000
  H1         3.820000       35.700001       18.680000
  C7         2.990000       37.299999       19.770000
  H2         2.090000       36.689999       19.959999
  C8         3.040000       38.660000       20.100000
  H3         2.640000       38.939999       21.080000
  C9         4.070000       39.389999       19.510000
  H4         4.190000       40.450001       19.680000
  C10        5.670000       41.990002       17.959999
  H5         4.640000       41.950001       18.180000
  C11        6.170000       43.180000       17.510000
  H6         5.610000       44.070000       17.820000
  C12        7.390000       43.250000       16.879999
  H7         7.700000       44.240002       16.559999
  C13        8.150000       42.060001       16.670000
  H8         9.090000       42.200001       16.190001
  C6         8.960000       39.139999       15.890000
  C1         8.400000       38.869999       14.610000
  H1         7.300000       38.910000       14.510000
  C2         9.290000       38.450001       13.570000
  H2         8.770000       38.340000       12.640000
  C3        10.640000       38.209999       13.850000
  H3        11.290000       37.880001       13.050000
  C4        11.150000       38.340000       15.140000
  H4        12.200000       38.250000       15.200000
  C5        10.330000       38.830002       16.200001
  H5        10.730000       39.029999       17.150000
  C1         7.880000       36.099998       22.299999
  C2         7.550000       34.869999       21.870001
  N1         7.670000       37.029999       21.170000
  C3b        7.300000       36.330002       19.969999
  N2         7.160000       35.029999       20.480000
  C4         6.450000       34.169998       19.590000
  C5b        6.440000       34.570000       18.240000
  C6         5.880000       33.660000       17.299999
  H1         5.850000       33.779999       16.260000
  C7         5.360000       32.430000       17.709999
  H2         4.970000       31.719999       17.049999
  C8         5.320000       32.130001       19.090000
  H3         5.010000       31.170000       19.480000
  C9         5.830000       33.049999       20.000000
  H4         5.650000       32.770000       20.990000
  C10        7.740000       33.730000       22.639999
  H5         7.380000       32.779999       22.299999
  C11        8.260000       33.840000       23.950001
  H6         8.730000       32.990002       24.360001
  C12        8.570000       35.130001       24.410000
  H7         8.770000       35.240002       25.480000
  C13        8.430000       36.230000       23.549999
  H8         8.960000       37.200001       23.740000
  C6         7.330000       38.389999       21.340000
  C1         6.220000       38.830002       22.059999
  H1         5.450000       38.080002       22.219999
  C2         6.010000       40.209999       22.309999
  H2         5.210000       40.560001       22.860001
  C3         6.930000       41.150002       21.809999
  H3         6.850000       42.200001       22.129999
  C4         8.040000       40.720001       21.030001
  H4         8.780000       41.410000       20.700001
  C5         8.240000       39.380001       20.799999
  H5         8.840000       39.040001       20.000000
  C1        10.610000       35.080002       16.230000
  C2         9.740000       35.139999       15.170000
  N1        10.000000       35.459999       17.379999
  C3c        8.590000       35.730000       17.090000
  N2         8.450000       35.500000       15.700000
  C4         7.190000       35.619999       15.120000
  C5c        6.350000       36.410000       15.950000
  C6         5.120000       36.830002       15.420000
  H1         4.670000       37.610001       16.000000
  C7         4.700000       36.410000       14.140000
  H2         3.640000       36.779999       13.880000
  C8         5.550000       35.610001       13.330000
  H3         5.270000       35.369999       12.300000
  C9         6.800000       35.250000       13.860000
  H4         7.430000       34.790001       13.150000
  C10       10.190000       34.860001       13.920000
  H5         9.470000       34.419998       13.230000
  C11       11.570000       34.590000       13.710000
  H6        11.980000       34.119999       12.840000
  C12       12.500000       34.599998       14.770000
  H7        13.550000       34.349998       14.670000
  C13       11.980000       34.700001       16.080000
  H8        12.720000       34.849998       16.879999
  C6        10.600000       35.369999       18.740000
  C1        10.500000       34.189999       19.490000
  H1        10.470000       33.169998       19.080000
  C2        10.820000       34.320000       20.860001
  H2        10.490000       33.549999       21.530001
  C3        11.310000       35.450001       21.469999
  H3        11.290000       35.529999       22.540001
  C4        11.420000       36.570000       20.660000
  H4        11.880000       37.500000       20.959999
  C5        11.110000       36.500000       19.309999
  H5        11.090000       37.389999       18.680000
