206
 generated by VMD
  IR        41.689999       26.510000       52.820000
  C1        43.990002       27.820000       49.349998
  C2        43.520000       26.540001       49.029999
  N1        43.560001       28.040001       50.599998
  C3a       42.840000       27.010000       51.150002
  N2        42.959999       26.040001       50.200001
  C4        42.750000       24.690001       50.730000
  C5a       41.790001       24.700001       51.790001
  C6        41.459999       23.410000       52.250000
  H1        40.849998       23.270000       53.180000
  C7        41.930000       22.190001       51.759998
  H2        41.450001       21.230000       51.900002
  C8        42.930000       22.200001       50.790001
  H3        43.509998       21.340000       50.580002
  C9        43.360001       23.430000       50.250000
  H4        44.310001       23.520000       49.740002
  C10       43.799999       25.980000       47.759998
  H5        43.060001       25.379999       47.310001
  C11       44.680000       26.580000       46.880001
  H6        45.020000       26.040001       46.040001
  C12       45.180000       27.850000       47.180000
  H7        46.110001       28.150000       46.860001
  C13       44.799999       28.510000       48.400002
  H8        45.150002       29.480000       48.639999
  C6        43.830002       29.350000       51.150002
  C1        42.910000       30.340000       50.830002
  H1        42.160000       30.209999       50.080002
  C2        43.270000       31.639999       51.259998
  H2        42.540001       32.360001       51.009998
  C3        44.500000       31.930000       51.860001
  H3        44.619999       32.849998       52.369999
  C4        45.410000       30.930000       52.110001
  H4        46.439999       31.100000       52.220001
  C5        45.029999       29.629999       51.810001
  H5        45.689999       28.709999       52.049999
  C1        37.700001       26.680000       51.130001
  C2        37.450001       26.450001       52.480000
  N1        39.090000       26.820000       50.900002
  C3b       39.759998       26.540001       52.060001
  N2        38.709999       26.299999       53.070000
  C4        39.200001       26.049999       54.450001
  C5b       40.590000       25.790001       54.490002
  C6        41.090000       25.230000       55.709999
  H1        42.130001       25.100000       55.810001
  C7        40.220001       25.030001       56.820000
  H2        40.660000       24.670000       57.730000
  C8        38.880001       25.430000       56.840000
  H3        38.220001       25.219999       57.570000
  C9        38.410000       25.940001       55.619999
  H4        37.439999       26.420000       55.669998
  C10       36.119999       26.350000       52.959999
  H5        36.110001       26.180000       54.009998
  C11       35.049999       26.530001       52.130001
  H6        34.060001       26.299999       52.500000
  C12       35.299999       26.790001       50.799999
  H7        34.470001       27.070000       50.150002
  C13       36.630001       26.830000       50.320000
  H8        36.900002       27.340000       49.380001
  C6        39.660000       26.850000       49.619999
  C1        39.849998       25.639999       48.970001
  H1        39.900002       24.719999       49.490002
  C2        40.169998       25.709999       47.549999
  H2        40.200001       24.860001       46.990002
  C3        40.400002       26.930000       46.950001
  H3        40.730000       27.080000       45.910000
  C4        40.299999       28.139999       47.660000
  H4        40.220001       29.110001       47.189999
  C5        39.980000       28.059999       49.070000
  H5        39.889999       28.860001       49.750000
  C1        42.250000       30.320000       54.599998
  C2        43.380001       29.620001       54.910000
  N1        41.369999       29.400000       54.000000
  C3c       41.889999       28.200001       53.950001
  N2        43.130001       28.280001       54.529999
  C4        43.930000       27.150000       54.580002
  C5c       43.529999       26.139999       53.700001
  C6        44.139999       24.900000       53.880001
  H1        44.090000       24.250000       53.099998
  C7        44.990002       24.570000       54.910000
  H2        45.360001       23.520000       55.139999
  C8        45.290001       25.510000       55.919998
  H3        45.720001       25.110001       56.810001
  C9        44.860001       26.840000       55.700001
  H4        45.290001       27.520000       56.400002
  C10       44.509998       30.230000       55.540001
  H5        45.430000       29.740000       55.790001
  C11       44.290001       31.549999       55.950001
  H6        45.139999       32.000000       56.450001
  C12       43.049999       32.240002       55.740002
  H7        42.810001       33.130001       56.349998
  C13       42.060001       31.660000       54.990002
  H8        41.200001       32.240002       54.720001
  C6        40.000000       29.620001       53.619999
  C1        39.880001       29.959999       52.330002
  H1        40.720001       30.260000       51.770000
  C2        38.610001       30.270000       51.849998
  H2        38.380001       29.990000       50.840000
  C3        37.529999       30.440001       52.680000
  H3        36.570000       30.790001       52.349998
  C4        37.650002       29.969999       53.980000
  H4        36.849998       30.070000       54.770000
  C5        38.860001       29.510000       54.500000
  H5        38.910000       29.160000       55.529999
  IR        38.480000       16.750000       55.349998
  C1        42.610001       17.740000       54.320000
  C2        41.930000       17.639999       53.099998
  N1        41.700001       17.350000       55.310001
  C3a       40.389999       17.160000       54.779999
  N2        40.549999       17.360001       53.389999
  C4        39.389999       17.260000       52.610001
  C5a       38.209999       17.260000       53.320000
  C6        37.000000       17.510000       52.709999
  H1        36.110001       17.719999       53.259998
  C7        36.910000       17.719999       51.330002
  H2        36.000000       17.809999       50.849998
  C8        38.060001       17.600000       50.509998
  H3        38.080002       17.379999       49.400002
  C9        39.360001       17.469999       51.180000
  H4        40.299999       17.400000       50.619999
  C10       42.709999       17.830000       51.950001
  H5        42.189999       17.969999       50.950001
  C11       44.070000       18.160000       51.939999
  H6        44.599998       18.090000       51.090000
  C12       44.639999       18.330000       53.180000
  H7        45.599998       18.700001       53.189999
  C13       43.900002       18.120001       54.360001
  H8        44.299999       18.250000       55.360001
  C6        42.150002       16.680000       56.509998
  C1        42.810001       15.410000       56.310001
  H1        43.070000       15.060000       55.299999
  C2        43.310001       14.840000       57.509998
  H2        43.509998       13.830000       57.580002
  C3        43.240002       15.500000       58.759998
  H3        43.660000       15.030000       59.630001
  C4        42.700001       16.760000       58.849998
  H4        42.529999       17.219999       59.820000
  C5        42.090000       17.340000       57.720001
  H5        41.950001       18.389999       57.630001
  C1        36.849998       20.680000       55.029999
  C2        35.740002       19.920000       55.279999
  N1        37.980000       19.879999       55.430000
  C3b       37.570000       18.590000       55.740002
  N2        36.220001       18.590000       55.709999
  C4        35.610001       17.330000       55.980000
  C5b       36.450001       16.219999       55.680000
  C6        35.950001       14.940000       55.889999
  H1        36.630001       14.090000       55.799999
  C7        34.720001       14.790000       56.430000
  H2        34.160000       13.850000       56.500000
  C8        33.900002       15.910000       56.759998
  H3        32.939999       15.770000       57.180000
  C9        34.369999       17.209999       56.470001
  H4        33.599998       17.990000       56.580002
  C10       34.459999       20.450001       55.049999
  H5        33.599998       19.780001       55.290001
  C11       34.320000       21.760000       54.590000
  H6        33.310001       22.010000       54.240002
  C12       35.439999       22.530001       54.279999
  H7        35.480000       23.520000       53.779999
  C13       36.730000       21.990000       54.580002
  H8        37.570000       22.650000       54.310001
  C6        39.299999       20.459999       55.849998
  C1        39.419998       21.030001       57.130001
  H1        38.610001       21.340000       57.689999
  C2        40.630001       21.620001       57.480000
  H2        40.759998       21.860001       58.480000
  C3        41.680000       21.760000       56.570000
  H3        42.669998       22.049999       56.889999
  C4        41.549999       21.250000       55.279999
  H4        42.400002       21.030001       54.619999
  C5        40.349998       20.590000       54.889999
  H5        40.400002       19.980000       54.040001
  C1        39.340000       15.270000       59.400002
  C2        39.770000       14.300000       58.520000
  N1        38.669998       16.209999       58.549999
  C3c       38.820000       15.910000       57.220001
  N2        39.459999       14.680000       57.220001
  C4        39.759998       14.140000       55.930000
  C5c       39.000000       14.790000       54.939999
  C6        38.910000       14.190000       53.660000
  H1        38.119999       14.430000       52.939999
  C7        39.590000       13.030000       53.369999
  H2        39.360001       12.580000       52.419998
  C8        40.330002       12.310000       54.340000
  H3        40.900002       11.500000       53.990002
  C9        40.470001       12.890000       55.599998
  H4        41.169998       12.460000       56.360001
  C10       40.529999       13.180000       59.000000
  H5        40.430000       12.230000       58.459999
  C11       40.930000       13.170000       60.349998
  H6        41.720001       12.480000       60.619999
  C12       40.430000       14.110000       61.230000
  H7        40.610001       14.050000       62.299999
  C13       39.570000       15.170000       60.759998
  H8        39.340000       15.940000       61.480000
  C6        38.180000       17.430000       59.180000
  C1        39.110001       18.350000       59.709999
  H1        40.160000       18.250000       59.689999
  C2        38.660000       19.600000       60.139999
  H2        39.320000       20.410000       60.310001
  C3        37.279999       19.920000       60.009998
  H3        36.930000       20.740000       60.610001
  C4        36.389999       19.010000       59.570000
  H4        35.369999       19.330000       59.480000
  C5        36.810001       17.730000       59.139999
  H5        35.959999       17.090000       58.830002
