206
 generated by VMD
 Ir       35.700371       -0.895089       64.306831
 C        37.188385       -1.662101       60.276794
 C        36.077984       -2.471037       60.379860
 N        37.173988       -0.740770       61.325714
 C        36.154587       -1.039723       62.282562
 N        35.410835       -2.042594       61.555592
 C        34.225456       -2.430328       62.214333
 C        34.111336       -1.995618       63.572052
 C        32.962723       -2.383354       64.246552
 H        32.874996       -2.059666       65.288864
 C        31.919090       -3.079307       63.559246
 H        30.962265       -2.992989       64.040115
 C        32.055386       -3.384375       62.200550
 H        31.169106       -3.726103       61.628426
 C        33.162537       -3.037789       61.470490
 H        33.169685       -3.099040       60.362339
 C        35.756035       -3.461736       59.379528
 H        35.033669       -4.251944       59.414936
 C        36.592964       -3.599236       58.289963
 H        36.315414       -4.308301       57.490658
 C        37.746330       -2.869375       58.188206
 H        38.280186       -2.902227       57.247292
 C        38.109077       -1.891390       59.144115
 H        38.962067       -1.208945       58.930870
 C        37.791744        0.552251       61.255161
 C        37.197136        1.478150       60.383293
 H        36.118191        1.421533       60.209908
 C        37.769218        2.723682       60.241615
 H        37.290176        3.235335       59.430115
 C        38.925316        3.065374       60.894981
 H        39.442513        3.912271       60.551369
 C        39.593575        2.104556       61.671165
 H        40.554733        2.370252       62.144737
 C        38.961052        0.849606       61.852322
 H        39.399200        0.201827       62.505398
 C        33.309212        2.698998       64.935783
 C        33.446861        2.213208       66.137642
 N        33.846893        1.818671       64.011322
 C        34.428303        0.721727       64.609390
 N        34.121243        0.954131       65.960350
 C        34.630966        0.022072       66.954109
 C        35.178368       -1.161515       66.336960
 C        35.749893       -2.128564       67.161140
 H        36.025120       -3.081048       66.671318
 C        35.766365       -1.937382       68.544174
 H        36.016361       -2.844482       69.103165
 C        35.239372       -0.744340       69.139091
 H        35.280975       -0.686314       70.209656
 C        34.669090        0.213219       68.312012
 H        34.373413        1.061381       68.824165
 C        32.904160        2.964109       67.276863
 H        32.911087        2.478138       68.250656
 C        32.227207        4.165846       67.054016
 H        31.991547        4.641272       67.984573
 C        31.981258        4.597846       65.774849
 H        31.750410        5.666752       65.729614
 C        32.580551        3.919753       64.732040
 H        32.554760        4.370913       63.726112
 C        33.402252        1.747858       62.637291
 C        32.735748        0.643996       62.136230
 H        31.978094        0.195951       62.761620
 C        32.506481        0.433978       60.792755
 H        31.666496       -0.261687       60.467987
 C        33.084507        1.289679       59.824940
 H        32.703957        1.288703       58.732887
 C        33.840431        2.380898       60.371223
 H        34.126537        3.151691       59.729103
 C        33.941216        2.673216       61.735222
 H        34.261833        3.710501       61.926399
 C        39.478004        0.929360       65.748276
 C        39.838943       -0.336092       65.388481
 N        38.068592        1.068963       65.584381
 C        37.483055       -0.123464       65.097496
 N        38.562191       -0.943119       64.965851
 C        38.391304       -2.154816       64.374588
 C        37.019836       -2.511616       64.299828
 C        36.676811       -3.783190       63.830971
 H        35.726280       -4.162012       64.043320
 C        37.683105       -4.732739       63.437744
 H        37.387295       -5.662659       63.112560
 C        39.001163       -4.318999       63.510185
 H        39.691353       -5.027992       63.194489
 C        39.426414       -3.113857       63.990288
 H        40.390640       -2.744561       63.745979
 C        41.144775       -0.817134       65.590973
 H        41.417839       -1.889193       65.664627
 C        42.112766        0.112568       65.997849
 H        43.159142       -0.248141       66.247238
 C        41.709782        1.441121       66.201920
 H        42.398235        2.168662       66.702530
 C        40.373104        1.849681       66.223686
 H        40.180122        2.912392       66.318558
 C        37.334969        2.286782       65.595268
 C        37.024902        2.832703       64.364166
 H        37.054409        2.199308       63.483063
 C        36.520020        4.183208       64.349068
 H        36.151192        4.577643       63.381966
 C        36.338860        4.883396       65.533226
 H        36.133263        5.958715       65.581375
 C        36.635971        4.271080       66.769180
 H        36.270401        4.787618       67.647446
 C        37.147575        2.971178       66.793976
 H        37.482567        2.497704       67.763870
 Ir       35.700371       -0.895088       79.359116
 C        37.442627       -4.809899       80.193329
 C        38.290211       -3.895846       80.703430
 N        36.183784       -4.060226       79.855820
 C        36.341915       -2.719212       80.121483
 N        37.710831       -2.614961       80.608322
 C        38.306488       -1.261847       80.538544
 C        37.767422       -0.449978       79.511719
 C        38.492195        0.636972       78.988419
 H        38.092003        1.221287       78.145256
 C        39.805603        0.950119       79.630127
 H        40.173676        1.939697       79.583664
 C        40.254204        0.211058       80.690338
 H        41.250835        0.359753       81.182693
 C        39.545929       -0.888640       81.124390
 H        39.892174       -1.257793       82.068016
 C        39.476471       -4.319619       81.184891
 H        40.163616       -3.740703       81.688568
 C        39.910488       -5.597533       81.035347
 H        40.847397       -5.885326       81.413200
 C        39.062843       -6.638078       80.525375
 H        39.385887       -7.641058       80.152451
 C        37.743423       -6.214051       80.227676
 H        37.032249       -6.985530       80.033905
 C        34.886383       -4.720285       80.115952
 C        33.796356       -4.603719       79.232285
 H        34.023453       -4.048163       78.372467
 C        32.542912       -5.209986       79.542152
 H        31.691975       -5.200857       78.836800
 C        32.425507       -5.806331       80.755249
 H        31.425423       -5.944596       81.159363
 C        33.494423       -6.081083       81.561241
 H        33.445034       -6.687351       82.387192
 C        34.717026       -5.474780       81.272568
 H        35.628464       -5.635900       81.811371
 C        34.456074        1.234240       82.896713
 C        34.074310        1.985944       81.858246
 N        35.249195        0.164501       82.391632
 C        35.415276        0.279984       81.014214
 N        34.682198        1.412101       80.719238
 C        34.895367        1.945054       79.409637
 C        35.350006        1.017347       78.501251
 C        35.732315        1.490208       77.253922
 H        35.976135        0.746151       76.482025
 C        35.650040        2.903451       76.938217
 H        35.877178        3.234352       75.951401
 C        35.213017        3.843837       77.881660
 H        35.127785        4.912455       77.623611
 C        34.900787        3.351960       79.117775
 H        34.822712        4.080151       79.909134
 C        33.156975        3.023806       82.069305
 H        32.896732        3.744068       81.254997
 C        32.762543        3.309928       83.344910
 H        32.096863        4.173776       83.578026
 C        33.112679        2.539317       84.431763
 H        32.794800        2.720756       85.427216
 C        33.964725        1.495079       84.144569
 H        33.993805        0.787603       84.990524
 C        35.953197       -0.672906       83.262108
 C        35.313576       -1.832806       83.612122
 H        34.294590       -1.883193       83.374985
 C        35.950241       -2.749289       84.436646
 H        35.430664       -3.643746       84.658882
 C        37.161247       -2.553142       85.038040
 H        37.469608       -3.267242       85.714699
 C        37.767563       -1.342599       84.714966
 H        38.675289       -1.083206       85.186287
 C        37.216240       -0.448395       83.792877
 H        37.809105        0.341415       83.323502
 C        31.645073       -2.013623       78.489319
 C        32.230881       -2.135330       77.274902
 N        32.553436       -1.516607       79.390686
 C        33.740616       -1.305859       78.829277
 N        33.522202       -1.648672       77.511261
 C        34.702023       -1.798668       76.713188
 C        35.901596       -1.798416       77.468185
 C        37.115807       -2.068491       76.767578
 H        38.006081       -2.194767       77.355759
 C        37.100975       -2.424091       75.406097
 H        38.050144       -2.535764       74.866936
 C        35.878479       -2.478062       74.679184
 H        35.925365       -2.883904       73.681396
 C        34.750305       -2.113154       75.382149
 H        33.870575       -1.743389       74.794739
 C        31.534599       -2.793864       76.234123
 H        31.901625       -2.773032       75.149384
 C        30.278851       -3.289579       76.422455
 H        29.875778       -3.932137       75.662155
 C        29.675957       -3.050872       77.625961
 H        28.666857       -3.417088       77.771896
 C        30.290951       -2.351153       78.704094
 H        29.768444       -2.384662       79.694687
 C        32.141117       -1.164053       80.682625
 C        31.476990        0.066481       80.785217
 H        31.419554        0.755012       79.954659
 C        30.711182        0.381076       81.911926
 H        29.965986        1.159291       81.873672
 C        30.815458       -0.500090       83.013954
 H        30.051172       -0.489479       83.756355
 C        31.607048       -1.657887       82.969345
 H        31.369755       -2.346311       83.776794
 C        32.264561       -2.026273       81.765327
 H        32.532139       -3.117528       81.623337
