206
 generated by VMD
  IR        34.310001       14.200000       25.780001
  C1        35.200001       18.070000       27.730000
  C2        36.340000       17.850000       26.930000
  N1        34.250000       16.950001       27.500000
  C3a       34.820000       16.059999       26.580000
  N2        36.080002       16.570000       26.320000
  C4        36.970001       15.580000       25.809999
  C5a       36.320000       14.470000       25.209999
  C6        37.000000       13.760000       24.209999
  H1        36.590000       12.860000       23.770000
  C7        38.250000       14.180000       23.719999
  H2        38.799999       13.850000       22.900000
  C8        38.919998       15.230000       24.340000
  H3        39.840000       15.550000       23.879999
  C9        38.270000       15.960000       25.340000
  H4        38.880001       16.700001       25.809999
  C10       37.349998       18.809999       26.870001
  H5        38.009998       18.799999       26.020000
  C11       37.250000       19.940001       27.629999
  H6        38.200001       20.450001       27.799999
  C12       36.150002       20.180000       28.420000
  H7        36.070000       21.030001       29.049999
  C13       35.130001       19.240000       28.459999
  H8        34.250000       19.389999       29.090000
  C6        32.910000       17.020000       27.760000
  C1        31.889999       16.990000       26.790001
  H1        32.169998       16.920000       25.770000
  C2        30.570000       17.170000       27.180000
  H2        29.900000       17.230000       26.400000
  C3        30.170000       17.250000       28.490000
  H3        29.139999       17.020000       28.740000
  C4        31.180000       17.309999       29.430000
  H4        30.860001       17.469999       30.480000
  C5        32.549999       17.170000       29.080000
  H5        33.380001       17.219999       29.850000
  C1        32.779999       15.640000       21.950001
  C2        32.529999       14.270000       22.010000
  N1        33.570000       15.900000       23.049999
  C3b       33.720001       14.740000       23.860001
  N2        33.130001       13.720000       23.180000
  C4        33.320000       12.420000       23.639999
  C5b       34.189999       12.390000       24.709999
  C6        34.880001       11.240000       25.059999
  H1        35.439999       11.220000       25.990000
  C7        34.720001       10.100000       24.170000
  H2        35.279999        9.240000       24.480000
  C8        33.770000       10.100000       23.129999
  H3        33.759998        9.310000       22.360001
  C9        32.959999       11.240000       22.930000
  H4        32.080002       11.040000       22.340000
  C10       31.770000       13.730000       20.910000
  H5        31.580000       12.660000       20.950001
  C11       31.240000       14.450000       19.879999
  H6        30.879999       13.890000       19.010000
  C12       31.490000       15.820000       19.840000
  H7        31.000000       16.299999       19.049999
  C13       32.270000       16.459999       20.860001
  H8        32.230000       17.530001       20.870001
  C6        34.349998       17.030001       23.150000
  C1        35.660000       17.010000       22.639999
  H1        36.160000       16.090000       22.570000
  C2        36.459999       18.190001       22.780001
  H2        37.430000       18.180000       22.240000
  C3        36.040001       19.280001       23.549999
  H3        36.660000       20.080000       23.879999
  C4        34.770000       19.219999       24.170000
  H4        34.279999       20.129999       24.389999
  C5        33.900002       18.139999       23.900000
  H5        32.799999       18.320000       24.120001
  C1        30.389999       13.560000       27.549999
  C2        31.230000       13.650000       28.639999
  N1        31.170000       13.510000       26.469999
  C3c       32.490002       13.650000       26.709999
  N2        32.529999       13.600000       28.090000
  C4        33.880001       13.660000       28.660000
  C5c       34.849998       13.520000       27.670000
  C6        36.130001       13.240000       28.049999
  H1        36.779999       13.120000       27.240000
  C7        36.470001       13.070000       29.370001
  H2        37.490002       12.960000       29.790001
  C8        35.500000       13.170000       30.410000
  H3        35.799999       12.660000       31.340000
  C9        34.220001       13.490000       30.000000
  H4        33.520000       13.560000       30.840000
  C10       30.770000       13.710000       29.930000
  H5        31.490000       13.550000       30.750000
  C11       29.440001       13.850000       30.180000
  H6        29.170000       14.120000       31.280001
  C12       28.510000       13.810000       29.110001
  H7        27.440001       13.900000       29.309999
  C13       29.010000       13.630000       27.790001
  H8        28.270000       13.420000       27.070000
  C6        30.590000       13.290000       25.209999
  C1        30.299999       12.000000       24.830000
  H1        30.420000       11.190000       25.530001
  C2        29.719999       11.750000       23.549999
  H2        29.740000       10.770000       23.139999
  C3        29.260000       12.810000       22.830000
  H3        28.780001       12.820000       21.879999
  C4        29.490000       14.110000       23.299999
  H4        29.520000       14.960000       22.639999
  C5        30.139999       14.360000       24.490000
  H5        30.090000       15.330000       24.709999
  IR        29.670000        2.840000       35.580002
  C1        29.330000       -1.080000       37.180000
  C2        30.090000       -1.310000       36.060001
  N1        28.920000        0.230000       37.200001
  C3a       29.500000        0.920000       36.209999
  N2        30.160000       -0.020000       35.450001
  C4        30.709999        0.380000       34.259998
  C5a       30.480000        1.740000       33.959999
  C6        31.040001        2.260000       32.799999
  H1        30.740000        3.000000       32.259998
  C7        31.910000        1.490000       32.020000
  H2        31.980000        1.960000       31.030001
  C8        32.130001        0.170000       32.270000
  H3        32.650002       -0.570000       31.700001
  C9        31.469999       -0.390000       33.380001
  H4        32.020000       -1.230000       33.810001
  C10       30.650000       -2.540000       35.840000
  H5        31.370001       -2.720000       35.070000
  C11       30.540001       -3.540000       36.820000
  H6        31.190001       -4.400000       36.720001
  C12       29.760000       -3.280000       37.959999
  H7        29.709999       -3.990000       38.779999
  C13       29.170000       -2.050000       38.130001
  H8        28.840000       -1.870000       39.150002
  C6        27.730000        0.560000       38.009998
  C1        26.469999        0.460000       37.470001
  H1        26.320000       -0.160000       36.650002
  C2        25.290001        0.810000       38.200001
  H2        24.290001        1.050000       37.770000
  C3        25.410000        1.310000       39.509998
  H3        24.600000        1.910000       40.009998
  C4        26.690001        1.390000       40.040001
  H4        26.830000        2.170000       40.730000
  C5        27.820000        1.040000       39.349998
  H5        28.740000        0.960000       39.869999
  C1        33.650002        3.910000       37.099998
  C2        33.270000        4.910000       36.270000
  N1        32.660000        2.870000       36.900002
  C3b       31.670000        3.260000       36.040001
  N2        32.090000        4.520000       35.590000
  C4        31.309999        5.090000       34.549999
  C5b       29.990000        4.650000       34.570000
  C6        29.150000        5.180000       33.590000
  H1        28.080000        5.100000       33.700001
  C7        29.620001        5.880000       32.490002
  H2        29.020000        5.930000       31.559999
  C8        30.969999        6.330000       32.570000
  H3        31.120001        7.230000       32.009998
  C9        31.740000        5.970000       33.639999
  H4        32.799999        6.330000       33.730000
  C10       34.090000        6.100000       36.279999
  H5        33.869999        6.940000       35.599998
  C11       35.230000        6.140000       37.049999
  H6        35.849998        7.010000       36.939999
  C12       35.619999        5.060000       37.930000
  H7        36.590000        4.910000       38.400002
  C13       34.790001        3.930000       37.910000
  H8        34.959999        3.280000       38.730000
  C6        33.070000        1.510000       37.160000
  C1        32.330002        0.710000       38.070000
  H1        31.559999        1.010000       38.759998
  C2        32.529999       -0.710000       38.139999
  H2        31.830000       -1.280000       38.820000
  C3        33.529999       -1.280000       37.310001
  H3        33.490002       -2.370000       37.259998
  C4        34.349998       -0.490000       36.490002
  H4        35.009998       -0.990000       35.799999
  C5        34.139999        0.920000       36.439999
  H5        34.919998        1.420000       35.849998
  C1        27.440001        4.600000       38.820000
  C2        26.389999        4.340000       37.840000
  N1        28.700001        4.330000       38.290001
  C3c       28.540001        3.830000       37.049999
  N2        27.110001        3.810000       36.770000
  C4        26.700001        3.470000       35.509998
  C5c       27.660000        2.650000       34.919998
  C6        27.330000        2.160000       33.660000
  H1        27.900000        1.410000       33.130001
  C7        26.209999        2.510000       32.950001
  H2        26.030001        2.150000       32.000000
  C8        25.250000        3.390000       33.570000
  H3        24.219999        3.580000       33.290001
  C9        25.620001        3.910000       34.820000
  H4        25.100000        4.820000       35.000000
  C10       25.020000        4.630000       38.209999
  H5        24.180000        4.410000       37.619999
  C11       24.830000        5.260000       39.450001
  H6        23.920000        5.330000       40.060001
  C12       25.820000        5.550000       40.330002
  H7        25.559999        6.170000       41.189999
  C13       27.120001        5.220000       40.029999
  H8        27.790001        5.180000       40.840000
  C6        29.809999        5.170000       38.759998
  C1        30.940001        4.580000       39.360001
  H1        30.990000        3.510000       39.369999
  C2        31.889999        5.280000       40.090000
  H2        32.730000        4.740000       40.599998
  C3        31.840000        6.680000       39.959999
  H3        32.509998        7.150000       40.750000
  C4        30.840000        7.290000       39.209999
  H4        31.070000        8.320000       39.009998
  C5        29.799999        6.580000       38.660000
  H5        28.900000        7.170000       38.509998
