206
 generated by VMD
 Ir      111.845703      -23.723522     -107.822556
 C       112.145554      -20.212563     -110.441933
 C       111.040649      -20.878880     -110.859558
 N       112.809860      -21.034859     -109.449852
 C       112.172302      -22.240944     -109.238007
 N       111.086502      -22.164932     -110.228233
 C       110.451302      -23.486202     -110.377121
 C       110.511246      -24.336929     -109.306717
 C       109.806259      -25.506954     -109.371002
 H       109.761238      -25.970219     -108.397835
 C       109.059982      -25.868664     -110.498413
 H       108.300125      -26.582935     -110.459366
 C       109.041862      -25.004917     -111.600143
 H       108.374237      -25.012981     -112.421371
 C       109.685760      -23.782612     -111.445663
 H       109.596085      -23.044762     -112.232391
 C       110.088135      -20.227505     -111.710510
 H       109.332993      -20.793209     -112.232269
 C       110.330902      -18.928223     -112.002090
 H       109.588516      -18.392345     -112.594963
 C       111.440323      -18.248142     -111.598259
 H       111.328568      -17.166084     -111.642601
 C       112.358749      -18.872360     -110.803879
 H       113.197906      -18.247707     -110.442322
 C       114.072113      -20.783913     -108.902176
 C       115.143600      -21.614922     -109.250259
 H       115.243439      -22.135498     -110.230225
 C       116.323875      -21.612461     -108.484344
 H       117.210762      -22.189903     -108.654282
 C       116.459412      -20.738827     -107.452019
 H       117.529724      -20.629997     -106.993011
 C       115.399796      -19.877300     -107.011589
 H       115.480202      -19.576782     -106.003708
 C       114.229744      -19.888504     -107.840904
 H       113.589798      -19.072971     -107.686050
 C       108.876915      -21.785999     -105.439476
 C       108.844170      -23.056263     -105.050171
 N       109.718491      -21.680489     -106.595940
 C       110.172394      -22.917744     -106.986046
 N       109.612442      -23.751720     -106.014847
 C       109.923981      -25.184433     -106.066536
 C       111.270844      -25.263397     -106.516563
 C       111.813034      -26.543751     -106.340675
 H       112.563820      -26.835144     -106.994820
 C       111.018539      -27.576237     -105.745895
 H       111.560692      -28.520283     -105.698456
 C       109.666565      -27.413570     -105.344528
 H       109.167953      -28.122398     -104.721436
 C       109.134262      -26.184380     -105.582741
 H       108.006935      -26.147514     -105.610458
 C       108.382080      -23.424244     -103.799385
 H       108.363083      -24.456791     -103.516388
 C       107.835579      -22.450153     -102.933601
 H       107.278542      -22.856117     -102.099869
 C       107.761993      -21.130222     -103.351654
 H       107.539413      -20.352028     -102.575333
 C       108.310822      -20.798519     -104.610245
 H       108.175705      -19.735085     -104.840347
 C       109.538361      -20.568943     -107.459885
 C       108.429253      -20.552994     -108.314659
 H       107.808937      -21.401600     -108.509033
 C       107.956085      -19.383186     -108.926346
 H       106.878647      -19.166649     -109.106461
 C       108.655327      -18.181149     -108.715958
 H       108.333252      -17.189522     -109.049934
 C       109.828720      -18.213478     -107.929001
 H       110.360390      -17.293068     -107.720993
 C       110.254105      -19.317986     -107.267792
 H       111.269997      -19.234440     -106.706802
 C       115.051468      -22.689091     -105.015518
 C       115.634888      -23.612770     -105.833405
 N       113.698959      -22.687222     -105.383919
 C       113.391487      -23.398090     -106.469612
 N       114.655487      -24.016296     -106.730804
 C       114.727158      -24.789318     -107.913940
 C       113.526199      -24.812050     -108.648849
 C       113.540573      -25.361118     -109.946274
 H       112.699554      -25.263496     -110.559258
 C       114.593765      -26.032726     -110.431305
 H       114.478577      -26.633644     -111.300804
 C       115.775024      -26.178898     -109.668381
 H       116.621399      -26.791496     -109.843163
 C       115.859589      -25.518593     -108.416077
 H       116.657745      -25.756470     -107.768578
 C       117.024307      -23.943153     -105.577751
 H       117.507751      -24.483631     -106.379486
 C       117.746788      -23.287178     -104.570518
 H       118.827423      -23.309162     -104.528732
 C       117.106201      -22.368141     -103.674454
 H       117.654617      -22.089233     -102.810478
 C       115.749237      -22.094681     -103.932785
 H       115.151031      -21.470875     -103.230484
 C       112.705467      -22.166428     -104.406250
 C       112.341248      -22.919846     -103.261559
 H       112.846558      -23.890671     -103.165894
 C       111.667664      -22.266804     -102.264709
 H       111.503899      -22.949753     -101.346634
 C       111.191742      -20.921158     -102.353729
 H       110.538437      -20.416950     -101.643814
 C       111.518921      -20.232285     -103.545959
 H       111.018402      -19.322487     -103.816986
 C       112.244766      -20.843288     -104.541763
 H       112.654083      -20.250553     -105.309952
 Ir      111.845718      -23.723526      -97.119598
 C       114.069016      -26.820732      -94.943558
 C       113.569595      -25.987263      -94.028671
 N       113.671783      -26.283260      -96.204987
 C       112.990303      -25.092533      -96.051834
 N       113.030624      -24.910282      -94.696526
 C       112.629089      -23.607361      -94.209229
 C       111.856689      -22.937954      -95.128250
 C       111.298477      -21.672432      -94.773071
 H       110.715088      -21.204842      -95.498077
 C       111.559250      -21.105331      -93.512604
 H       111.111481      -20.119404      -93.269806
 C       112.301010      -21.851551      -92.564270
 H       112.591812      -21.330441      -91.716934
 C       112.776306      -23.151863      -92.923286
 H       113.204544      -23.715794      -92.142204
 C       113.684280      -26.372372      -92.707672
 H       113.147636      -25.818878      -91.968384
 C       114.325623      -27.578300      -92.352539
 H       114.339035      -27.955994      -91.332855
 C       115.003731      -28.301655      -93.331070
 H       115.555344      -29.226707      -93.087555
 C       114.835098      -27.978859      -94.615891
 H       115.466553      -28.476555      -95.355476
 C       113.752831      -27.070423      -97.384651
 C       113.162369      -28.352047      -97.348801
 H       112.236694      -28.452602      -96.867538
 C       113.593643      -29.299362      -98.312607
 H       113.135277      -30.283207      -98.487404
 C       114.484467      -28.972301      -99.362350
 H       114.325912      -29.517792     -100.292236
 C       114.979179      -27.691418      -99.459290
 H       115.321182      -27.207134     -100.343262
 C       114.688568      -26.792656      -98.410889
 H       115.200882      -25.840076      -98.336632
 C       107.759247      -25.159740      -96.497192
 C       107.609543      -24.177292      -97.422020
 N       109.104630      -25.224667      -96.107040
 C       109.845703      -24.301006      -96.827934
 N       108.998535      -23.634750      -97.615028
 C       109.456444      -22.535843      -98.210205
 C       110.758873      -22.142986      -97.913826
 C       111.238281      -20.788647      -98.189011
 H       112.047607      -20.459167      -97.479202
 C       110.441833      -20.002411      -98.970291
 H       110.617477      -18.922970      -99.024681
 C       109.210617      -20.554508      -99.387779
 H       108.600418      -19.855869      -99.934464
 C       108.712517      -21.772865      -99.055511
 H       107.860168      -22.153667      -99.569580
 C       106.345848      -24.093433      -98.158104
 H       106.304810      -23.499573      -99.029106
 C       105.354095      -25.063450      -97.957130
 H       104.421600      -25.055664      -98.515686
 C       105.532059      -26.074173      -97.022263
 H       104.757339      -26.723518      -96.937790
 C       106.675385      -26.028553      -96.239876
 H       106.676514      -26.670963      -95.343376
 C       109.609161      -26.171204      -95.044731
 C       109.887650      -25.675537      -93.806244
 H       109.927444      -24.631039      -93.606415
 C       110.394089      -26.583035      -92.878357
 H       110.693687      -26.221325      -91.897179
 C       110.628067      -27.947304      -93.046654
 H       111.302643      -28.638687      -92.471649
 C       110.274483      -28.413952      -94.280762
 H       110.245255      -29.424789      -94.545059
 C       109.769966      -27.551483      -95.310959
 H       109.861588      -27.916553      -96.297943
 C       112.546127      -25.659458     -101.026848
 C       113.619904      -24.799702     -100.803421
 N       111.585098      -25.363735      -99.987625
 C       112.093582      -24.418137      -99.065948
 N       113.346390      -24.024063      -99.582245
 C       114.140877      -23.017490      -98.955658
 C       113.771088      -22.901817      -97.569016
 C       114.534683      -21.990841      -96.815918
 H       114.189079      -21.744629      -95.856674
 C       115.618500      -21.332802      -97.298111
 H       116.025009      -20.707348      -96.482788
 C       116.004425      -21.432472      -98.605499
 H       116.731812      -20.713402      -99.027451
 C       115.243698      -22.275375      -99.463753
 H       115.630379      -22.415745     -100.419922
 C       114.717499      -24.839458     -101.745506
 H       115.614578      -24.312489     -101.593002
 C       114.651703      -25.770763     -102.798050
 H       115.521362      -25.828335     -103.397446
 C       113.603348      -26.652287     -103.034866
 H       113.557434      -27.199268     -103.987389
 C       112.504700      -26.487537     -102.185928
 H       111.804916      -27.316242     -102.458961
 C       110.341682      -26.001717      -99.885719
 C       109.207779      -25.607960     -100.632584
 H       109.150253      -24.547886     -100.971169
 C       108.086334      -26.472355     -100.774719
 H       107.354248      -26.216450     -101.527634
 C       108.091660      -27.699993     -100.083870
 H       107.247284      -28.277531      -99.979538
 C       109.228645      -28.071983      -99.314270
 H       109.127724      -28.679234      -98.459595
 C       110.283569      -27.217083      -99.290390
 H       111.066864      -27.390034      -98.597473
