206
 generated by VMD
  IR        60.990002       11.110000       20.340000
  C1        56.900002        9.470000       19.600000
  C2        57.040001        9.400000       20.990000
  N1        58.060001       10.000000       19.090000
  C3a       59.060001       10.300000       20.120001
  N2        58.430000        9.800000       21.280001
  C4        59.330002        9.690000       22.370001
  C5a       60.660000       10.120000       22.170000
  C6        61.610001        9.960000       23.230000
  H1        62.650002       10.210000       22.930000
  C7        61.230000        9.420000       24.430000
  H2        61.970001        9.050000       25.070000
  C8        59.919998        9.080000       24.629999
  H3        59.580002        8.820000       25.620001
  C9        58.970001        9.210000       23.620001
  H4        58.020000        8.770000       23.740000
  C10       56.020000        8.770000       21.760000
  H5        56.119999        8.640000       22.840000
  C11       54.910000        8.190000       21.120001
  H6        54.169998        7.670000       21.719999
  C12       54.799999        8.190000       19.719999
  H7        54.060001        7.540000       19.330000
  C13       55.830002        8.810000       19.000000
  H8        55.840000        8.630000       17.980000
  C6        58.389999       10.240000       17.680000
  C1        58.160000       11.490000       17.110001
  H1        58.029999       12.340000       17.730000
  C2        58.299999       11.750000       15.740000
  H2        58.009998       12.710000       15.350000
  C3        58.849998       10.750000       14.950000
  H3        59.459999       11.060000       14.100000
  C4        58.990002        9.450000       15.390000
  H4        59.160000        8.660000       14.680000
  C5        58.700001        9.200000       16.760000
  H5        59.220001        8.370000       17.160000
  C1        59.889999       14.960000       22.139999
  C2        61.250000       14.790000       22.430000
  N1        59.480000       13.860000       21.389999
  C3b       60.540001       12.980000       21.230000
  N2        61.680000       13.620000       21.830000
  C4        62.889999       12.940000       21.730000
  C5b       62.900002       11.860000       20.889999
  C6        64.129997       11.370000       20.459999
  H1        64.019997       10.560000       19.740000
  C7        65.349998       11.890000       20.809999
  H2        66.099998       11.650000       20.080000
  C8        65.349998       12.910000       21.760000
  H3        66.150002       13.560000       21.950001
  C9        64.150002       13.410000       22.299999
  H4        64.250000       14.180000       23.030001
  C10       61.849998       15.790000       23.230000
  H5        62.939999       15.920000       23.170000
  C11       61.049999       16.740000       23.870001
  H6        61.509998       17.389999       24.530001
  C12       59.720001       16.870001       23.660000
  H7        59.290001       17.760000       24.030001
  C13       59.169998       15.960000       22.730000
  H8        58.110001       16.070000       22.320000
  C6        58.130001       13.230000       21.510000
  C1        57.700001       12.890000       22.750000
  H1        58.430000       13.170000       23.510000
  C2        56.369999       12.520000       22.940001
  H2        55.980000       12.780000       23.930000
  C3        55.500000       12.490000       21.799999
  H3        54.490002       12.260000       21.940001
  C4        55.990002       12.970000       20.620001
  H4        55.270000       13.170000       19.760000
  C5        57.290001       13.400000       20.440001
  H5        57.689999       13.780000       19.580000
  C1        61.880001       12.520000       16.309999
  C2        61.990002       11.220000       16.170000
  N1        61.459999       12.830000       17.670000
  C3c       61.470001       11.640000       18.400000
  N2        61.770000       10.640000       17.469999
  C4        61.750000        9.350000       18.010000
  C5c       61.720001        9.330000       19.420000
  C6        61.830002        8.110000       20.090000
  H1        62.209999        8.130000       21.129999
  C7        61.930000        6.920000       19.350000
  H2        61.630001        6.000000       19.870001
  C8        62.000000        6.960000       17.959999
  H3        61.830002        6.090000       17.480000
  C9        61.889999        8.220000       17.270000
  H4        61.630001        8.220000       16.209999
  C10       62.279999       10.590000       14.940000
  H5        62.669998        9.570000       14.930000
  C11       62.380001       11.370000       13.810000
  H6        62.619999       10.920000       12.830000
  C12       62.459999       12.740000       13.960000
  H7        62.799999       13.400000       13.180000
  C13       62.160000       13.320000       15.250000
  H8        62.189999       14.380000       15.410000
  C6        61.290001       14.190000       18.170000
  C1        60.000000       14.630000       18.340000
  H1        59.060001       14.370000       17.820000
  C2        59.849998       15.950000       18.799999
  H2        58.810001       16.379999       18.889999
  C3        60.950001       16.780001       19.139999
  H3        60.860001       17.730000       19.709999
  C4        62.259998       16.340000       18.950001
  H4        63.180000       16.990000       19.000000
  C5        62.410000       15.070000       18.350000
  H5        63.380001       14.580000       18.100000
  IR        61.320000        1.930000        8.010000
  C1        64.470001        3.370000        5.440000
  C2        64.980003        2.310000        6.100000
  N1        63.270000        3.740000        6.190000
  C3a       62.990002        2.790000        7.170000
  N2        64.120003        1.960000        7.230000
  C4        64.150002        0.960000        8.230000
  C5a       62.869999        0.760000        8.780000
  C6        62.770000       -0.290000        9.700000
  H1        61.860001       -0.380000       10.350000
  C7        63.759998       -1.260000        9.900000
  H2        63.709999       -1.810000       10.850000
  C8        64.980003       -1.060000        9.250000
  H3        65.870003       -1.650000        9.560000
  C9        65.180000        0.050000        8.460000
  H4        66.199997        0.160000        8.170000
  C10       66.129997        1.780000        5.620000
  H5        66.559998        0.870000        5.930000
  C11       66.680000        2.270000        4.500000
  H6        67.470001        1.700000        4.070000
  C12       66.139999        3.330000        3.820000
  H7        66.730003        3.910000        3.050000
  C13       64.980003        3.850000        4.300000
  H8        64.540001        4.710000        3.930000
  C6        62.759998        5.110000        6.190000
  C1        62.720001        5.860000        7.380000
  H1        62.959999        5.370000        8.340000
  C2        62.250000        7.210000        7.290000
  H2        62.200001        7.730000        8.240000
  C3        61.810001        7.760000        6.060000
  H3        61.570000        8.870000        5.990000
  C4        61.820000        6.960000        4.900000
  H4        61.580002        7.420000        3.940000
  C5        62.349998        5.650000        4.980000
  H5        62.599998        5.270000        3.970000
  C1        60.340000       -1.150000        5.130000
  C2        59.290001       -1.110000        6.000000
  N1        61.389999       -0.390000        5.690000
  C3b       60.970001        0.270000        6.810000
  N2        59.669998       -0.230000        7.040000
  C4        59.250000       -0.160000        8.350000
  C5b       59.840000        0.890000        9.070000
  C6        59.529999        1.090000       10.440000
  H1        60.040001        1.910000       10.970000
  C7        58.700001        0.260000       11.100000
  H2        58.540001        0.370000       12.120000
  C8        58.150002       -0.840000       10.390000
  H3        57.770000       -1.600000       10.950000
  C9        58.419998       -1.060000        9.020000
  H4        58.070000       -1.960000        8.540000
  C10       58.099998       -1.840000        5.600000
  H5        57.299999       -2.100000        6.340000
  C11       58.020000       -2.460000        4.360000
  H6        57.209999       -3.070000        4.050000
  C12       59.060001       -2.390000        3.430000
  H7        59.130001       -3.040000        2.510000
  C13       60.259998       -1.750000        3.890000
  H8        60.990002       -1.700000        3.080000
  C6        62.770000       -0.590000        5.230000
  C1        63.470001       -1.560000        5.940000
  H1        63.130001       -1.650000        6.940000
  C2        64.690002       -1.980000        5.470000
  H2        65.250000       -2.750000        5.980000
  C3        65.250000       -1.300000        4.370000
  H3        66.019997       -1.720000        3.910000
  C4        64.540001       -0.330000        3.650000
  H4        64.919998        0.260000        2.790000
  C5        63.310001        0.060000        4.130000
  H5        62.759998        0.740000        3.490000
  C1        58.509998        4.750000        6.250000
  C2        58.740002        5.190000        7.580000
  N1        59.200001        3.540000        6.170000
  C3c       59.810001        3.170000        7.390000
  N2        59.549999        4.250000        8.180000
  C4        60.259998        4.220000        9.370000
  C5c       61.480000        3.520000        9.320000
  C6        62.490002        3.710000       10.260000
  H1        63.509998        3.350000       10.090000
  C7        62.349998        4.600000       11.390000
  H2        63.090000        4.860000       12.070000
  C8        61.130001        5.290000       11.430000
  H3        60.900002        5.980000       12.250000
  C9        60.080002        5.110000       10.490000
  H4        59.080002        5.430000       10.700000
  C10       58.119999        6.310000        8.010000
  H5        58.630001        6.880000        8.700000
  C11       57.150002        6.940000        7.170000
  H6        56.630001        7.780000        7.550000
  C12       56.939999        6.500000        5.880000
  H7        56.290001        7.060000        5.150000
  C13       57.619999        5.410000        5.360000
  H8        57.450001        5.100000        4.390000
  C6        59.139999        2.650000        5.030000
  C1        60.220001        2.560000        4.150000
  H1        61.160000        2.830000        4.540000
  C2        60.119999        1.940000        2.900000
  H2        60.889999        1.950000        2.180000
  C3        58.889999        1.470000        2.460000
  H3        58.730000        1.080000        1.490000
  C4        57.790001        1.670000        3.330000
  H4        56.810001        1.270000        2.980000
  C5        57.880001        2.210000        4.570000
  H5        57.279999        1.890000        5.410000
