206
 generated by VMD
 Ir       85.455170       45.823292       25.701008
 C        83.280441       42.701721       27.798191
 C        84.526352       42.668453       28.357925
 N        83.327072       43.595631       26.718122
 C        84.579674       44.154190       26.563503
 N        85.326263       43.548763       27.579655
 C        86.681015       43.975761       27.679705
 C        86.956375       45.207485       27.056213
 C        88.200363       45.811440       27.295254
 H        88.416496       46.782909       26.868134
 C        89.163757       45.203690       28.097191
 H        90.111023       45.691643       28.257502
 C        88.908218       43.950520       28.678879
 H        89.657150       43.470222       29.292240
 C        87.670975       43.336555       28.467304
 H        87.524338       42.326302       28.801350
 C        84.739326       41.874100       29.497990
 H        85.688736       41.902683       30.014637
 C        83.699898       41.105690       30.033554
 H        83.855019       40.495804       30.912804
 C        82.439011       41.148972       29.452019
 H        81.617935       40.559299       29.846256
 C        82.228119       41.951546       28.332642
 H        81.272804       41.913849       27.825048
 C        82.212959       43.789238       25.820419
 C        82.143707       43.037464       24.642311
 H        83.003792       42.469059       24.322517
 C        81.013229       43.125786       23.826759
 H        80.956818       42.552933       22.914589
 C        79.963837       43.984116       24.171215
 H        79.131470       44.110508       23.489384
 C        80.039001       44.745003       25.340275
 H        79.237068       45.416901       25.603432
 C        81.165894       44.638447       26.168266
 H        81.205322       45.188957       27.091026
 C        85.354095       48.156898       29.244957
 C        86.150375       48.847919       28.373100
 N        84.607178       47.241402       28.475567
 C        85.011703       47.253929       27.139416
 N        85.889908       48.327625       27.093246
 C        86.413971       48.608803       25.807480
 C        86.598709       47.462536       25.016752
 C        87.266235       47.586060       23.798538
 H        87.510124       46.703972       23.235210
 C        87.685837       48.836189       23.332050
 H        88.197479       48.909660       22.381405
 C        87.445923       49.980129       24.095421
 H        87.771683       50.951241       23.739584
 C        86.815521       49.873051       25.332367
 H        86.663452       50.751564       25.941044
 C        87.169792       49.671726       28.885693
 H        87.724274       50.325394       28.227009
 C        87.431351       49.710129       30.255442
 H        88.289108       50.251526       30.621021
 C        86.615250       48.983536       31.133759
 H        86.821320       49.002106       32.193138
 C        85.559982       48.227654       30.621944
 H        84.937172       47.664253       31.304802
 C        83.286987       46.837090       28.885014
 C        82.175980       47.565845       28.451004
 H        82.314850       48.425426       27.805454
 C        80.895767       47.248222       28.918644
 H        80.049927       47.819859       28.588066
 C        80.723740       46.188629       29.816177
 H        79.740356       45.960915       30.203739
 C        81.831924       45.446648       30.246061
 H        81.697708       44.625854       30.933727
 C        83.109802       45.773384       29.775030
 H        83.965973       45.209972       30.120638
 C        82.371300       46.505276       22.748375
 C        83.055168       45.403687       22.295689
 N        83.086777       47.044338       23.825186
 C        84.190704       46.253029       24.125271
 N        84.186707       45.278896       23.130455
 C        85.369118       44.475975       23.050266
 C        86.191071       44.540474       24.193783
 C        87.408051       43.837463       24.181578
 H        88.058548       43.883919       25.040182
 C        87.810066       43.099628       23.071362
 H        88.769196       42.598961       23.072350
 C        86.990944       43.048355       21.931971
 H        87.299072       42.478893       21.073620
 C        85.780128       43.743141       21.917824
 H        85.239830       43.830750       20.990034
 C        82.503540       44.626713       21.263109
 H        83.004639       43.741222       20.897594
 C        81.261887       44.959557       20.709570
 H        80.835480       44.341480       19.929914
 C        80.569527       46.078484       21.185219
 H        79.606964       46.337677       20.773041
 C        81.124237       46.851341       22.204622
 H        80.591164       47.724503       22.558926
 C        83.091003       48.464802       24.043283
 C        83.896309       49.274868       23.219887
 H        84.552521       48.822830       22.497356
 C        83.854843       50.663338       23.353794
 H        84.489563       51.277855       22.741255
 C        83.021484       51.245850       24.312954
 H        82.969284       52.327423       24.395901
 C        82.229584       50.439896       25.138203
 H        81.612083       50.894257       25.899414
 C        82.257645       49.047318       25.002441
 H        81.589386       48.434586       25.583805
 Ir       85.455170       45.823292       36.827217
 C        86.433151       42.268272       39.098545
 C        87.435013       43.159431       39.426636
 N        85.692688       42.841309       38.055984
 C        86.161148       44.095188       37.713596
 N        87.267807       44.270866       38.547459
 C        87.966675       45.513123       38.399178
 C        87.313477       46.467091       37.607296
 C        87.906883       47.726151       37.429108
 H        87.443161       48.455971       36.789406
 C        89.129501       48.036243       38.043236
 H        89.546234       49.024864       37.908123
 C        89.775192       47.087280       38.824219
 H        90.703606       47.336075       39.327969
 C        89.205772       45.823215       39.001984
 H        89.764244       45.076950       39.532360
 C        88.276962       42.869160       40.510956
 H        89.051849       43.557304       40.826553
 C        88.081108       41.707325       41.267845
 H        88.693573       41.530350       42.141727
 C        87.055748       40.819347       40.940849
 H        86.842865       39.966560       41.566978
 C        86.232147       41.102325       39.847919
 H        85.433098       40.412392       39.603130
 C        84.784546       42.056114       37.246193
 C        85.253464       41.444115       36.074409
 H        86.274849       41.587997       35.759834
 C        84.383560       40.663067       35.302624
 H        84.739273       40.206215       34.389904
 C        83.055794       40.483086       35.701023
 H        82.386200       39.905586       35.079540
 C        82.595581       41.093262       36.867825
 H        81.559723       40.981731       37.161327
 C        83.454445       41.885246       37.641205
 H        83.091248       42.347107       38.543022
 C        84.251541       47.924366       40.443966
 C        84.202362       48.871181       39.454006
 N        84.494247       46.681576       39.825928
 C        84.627762       46.817978       38.448475
 N        84.398026       48.172852       38.237679
 C        84.325485       48.559494       36.878178
 C        85.018555       47.717979       35.997383
 C        85.092697       48.087822       34.639473
 H        85.722984       47.527290       33.967499
 C        84.415543       49.219810       34.165916
 H        84.494186       49.485439       33.114792
 C        83.678909       50.013424       35.036293
 H        83.119537       50.861923       34.663544
 C        83.640839       49.696491       36.393719
 H        83.014145       50.275253       37.053249
 C        83.996933       50.216393       39.790760
 H        84.070534       50.991074       39.050182
 C        83.831200       50.587440       41.138962
 H        83.602631       51.609314       41.389042
 C        83.900772       49.617390       42.140942
 H        83.824715       49.884773       43.178158
 C        84.112122       48.281296       41.795139
 H        84.182373       47.533600       42.568516
 C        84.386047       45.442703       40.551449
 C        85.436249       45.029243       41.373779
 H        86.383797       45.554916       41.340244
 C        85.289696       43.917633       42.202415
 H        86.121872       43.580544       42.813328
 C        84.097366       43.185730       42.197521
 H        83.990707       42.321144       42.836990
 C        83.042465       43.593254       41.368359
 H        82.108826       43.037018       41.369141
 C        83.183624       44.718094       40.549507
 H        82.358459       45.052002       39.948818
 C        81.926544       44.126560       34.922581
 C        82.969757       43.799103       34.092289
 N        82.432739       44.968235       35.924347
 C        83.805107       45.161621       35.767471
 N        84.105995       44.463829       34.598347
 C        85.424377       44.647388       34.097969
 C        86.349548       45.123535       35.038521
 C        87.703682       45.208248       34.660828
 H        88.440765       45.521385       35.380581
 C        88.116920       44.878845       33.372681
 H        89.152031       44.985367       33.095741
 C        87.187599       44.443272       32.426086
 H        87.494614       44.241665       31.407167
 C        85.844284       44.332108       32.784203
 H        85.111473       44.123352       32.017708
 C        82.726379       42.945633       32.996273
 H        83.538116       42.589039       32.394169
 C        81.435410       42.477524       32.741810
 H        81.243515       41.829414       31.897335
 C        80.384964       42.849659       33.579239
 H        79.367874       42.635185       33.317272
 C        80.639969       43.657555       34.692192
 H        79.833015       43.890633       35.371899
 C        81.566208       45.873386       36.623302
 C        81.315521       47.137283       36.064098
 H        81.896484       47.474403       35.214375
 C        80.301132       47.948780       36.583145
 H        80.115929       48.915962       36.154598
 C        79.518890       47.488152       37.652027
 H        78.742386       48.110001       38.058178
 C        79.767258       46.233368       38.207840
 H        79.141907       45.867477       39.010632
 C        80.786804       45.425983       37.696308
 H        80.958847       44.437355       38.105705
