206
 generated by VMD
  IR        45.189999       38.990002       59.520000
  C1        42.669998       40.029999       62.840000
  C2        43.310001       41.220001       62.500000
  N1        43.180000       39.029999       62.049999
  C3a       44.029999       39.549999       61.099998
  N2        44.049999       40.919998       61.410000
  C4        44.650002       41.750000       60.410000
  C5a       45.590000       41.029999       59.709999
  C6        46.549999       41.790001       58.990002
  H1        47.389999       41.160000       58.570000
  C7        46.490002       43.160000       58.880001
  H2        47.130001       43.799999       58.259998
  C8        45.509998       43.930000       59.490002
  H3        45.630001       44.980000       59.529999
  C9        44.599998       43.169998       60.259998
  H4        43.750000       43.619999       60.720001
  C10       43.099998       42.419998       63.259998
  H5        43.650002       43.279999       63.020000
  C11       42.180000       42.419998       64.330002
  H6        41.820000       43.380001       64.769997
  C12       41.500000       41.220001       64.639999
  H7        40.700001       41.180000       65.379997
  C13       41.790001       40.080002       63.910000
  H8        41.369999       39.209999       64.260002
  C6        42.860001       37.650002       62.150002
  C1        42.119999       37.099998       61.080002
  H1        41.709999       37.700001       60.400002
  C2        41.860001       35.709999       61.070000
  H2        41.189999       35.330002       60.369999
  C3        42.259998       34.939999       62.220001
  H3        42.020000       33.880001       62.189999
  C4        42.910000       35.509998       63.299999
  H4        43.389999       34.900002       64.059998
  C5        43.130001       36.869999       63.310001
  H5        43.419998       37.369999       64.239998
  C1        42.570000       40.130001       56.240002
  C2        43.790001       40.090000       55.700001
  N1        42.700001       39.889999       57.590000
  C3b       44.029999       39.619999       57.919998
  N2        44.669998       39.799999       56.750000
  C4        46.119999       39.549999       56.709999
  C5b       46.540001       38.810001       57.849998
  C6        47.730000       38.130001       57.759998
  H1        48.060001       37.509998       58.570000
  C7        48.500000       38.180000       56.619999
  H2        49.470001       37.759998       56.459999
  C8        48.189999       38.990002       55.590000
  H3        48.790001       39.099998       54.740002
  C9        46.980000       39.730000       55.650002
  H4        46.820000       40.419998       54.910000
  C10       43.889999       40.279999       54.230000
  H5        44.770000       40.669998       53.680000
  C11       42.740002       40.389999       53.419998
  H6        42.860001       40.689999       52.410000
  C12       41.490002       40.439999       54.040001
  H7        40.610001       40.500000       53.430000
  C13       41.419998       40.310001       55.470001
  H8        40.480000       40.509998       55.990002
  C6        41.619999       39.869999       58.580002
  C1        41.439999       41.009998       59.400002
  H1        42.169998       41.820000       59.570000
  C2        40.240002       41.180000       60.029999
  H2        39.980000       42.189999       60.360001
  C3        39.259998       40.189999       60.119999
  H3        38.320000       40.279999       60.660000
  C4        39.459999       39.040001       59.330002
  H4        38.889999       38.169998       59.570000
  C5        40.650002       38.930000       58.590000
  H5        40.700001       38.090000       57.910000
  C1        44.580002       34.689999       59.700001
  C2        45.400002       34.939999       60.770000
  N1        44.490002       35.900002       58.990002
  C3c       45.160000       36.930000       59.570000
  N2        45.750000       36.340000       60.630001
  C4        46.540001       37.220001       61.410000
  C5c       46.750000       38.509998       60.860001
  C6        47.720001       39.410000       61.320000
  H1        48.070000       40.180000       60.660000
  C7        48.410000       39.110001       62.459999
  H2        49.290001       39.639999       62.740002
  C8        48.200001       37.849998       63.049999
  H3        48.919998       37.529999       63.770000
  C9        47.270000       36.930000       62.570000
  H4        47.029999       36.009998       63.180000
  C10       45.830002       33.869999       61.639999
  H5        46.520000       34.070000       62.450001
  C11       45.439999       32.549999       61.310001
  H6        45.980000       31.709999       61.759998
  C12       44.560001       32.349998       60.259998
  H7        44.200001       31.330000       60.090000
  C13       44.049999       33.380001       59.410000
  H8        43.619999       33.150002       58.410000
  C6        44.439999       35.770000       57.590000
  C1        43.340000       36.349998       56.939999
  H1        42.369999       36.520000       57.389999
  C2        43.360001       36.320000       55.529999
  H2        42.610001       36.930000       54.930000
  C3        44.380001       35.660000       54.849998
  H3        44.259998       35.490002       53.730000
  C4        45.490002       35.130001       55.540001
  H4        46.279999       34.660000       54.970001
  C5        45.549999       35.180000       56.919998
  H5        46.450001       34.830002       57.349998
  IR        53.490002       30.600000       58.369999
  C1        55.509998       32.919998       55.330002
  C2        56.259998       31.790001       55.430000
  N1        54.599998       32.950001       56.459999
  C3a       54.709999       31.750000       57.160000
  N2        55.790001       31.049999       56.549999
  C4        55.950001       29.690001       56.900002
  C5a       55.049999       29.270000       57.860001
  C6        55.119999       27.889999       58.119999
  H1        54.689999       27.459999       59.029999
  C7        55.939999       26.969999       57.450001
  H2        55.540001       25.940001       57.419998
  C8        56.820000       27.440001       56.500000
  H3        57.400002       26.750000       55.959999
  C9        56.810001       28.760000       56.200001
  H4        57.200001       29.040001       55.250000
  C10       57.299999       31.620001       54.549999
  H5        58.070000       30.889999       54.720001
  C11       57.619999       32.599998       53.570000
  H6        58.560001       32.680000       53.090000
  C12       56.880001       33.790001       53.570000
  H7        56.980000       34.509998       52.810001
  C13       55.810001       33.869999       54.389999
  H8        55.189999       34.669998       54.250000
  C6        53.900002       34.099998       56.820000
  C1        52.520000       34.240002       56.430000
  H1        52.040001       33.570000       55.709999
  C2        51.840000       35.439999       56.730000
  H2        50.849998       35.700001       56.470001
  C3        52.529999       36.520000       57.360001
  H3        52.000000       37.439999       57.619999
  C4        53.900002       36.400002       57.639999
  H4        54.310001       37.209999       58.230000
  C5        54.580002       35.189999       57.419998
  H5        55.540001       35.090000       57.939999
  C1        50.540001       29.100000       55.610001
  C2        50.220001       28.520000       56.869999
  N1        51.730000       29.719999       55.799999
  C3b       52.240002       29.620001       57.060001
  N2        51.320000       28.750000       57.750000
  C4        51.750000       28.250000       58.959999
  C5b       52.610001       29.150000       59.650002
  C6        52.990002       28.860001       61.000000
  H1        53.450001       29.650000       61.650002
  C7        52.560001       27.690001       61.610001
  H2        52.669998       27.490000       62.639999
  C8        51.750000       26.830000       60.950001
  H3        51.330002       26.010000       61.450001
  C9        51.279999       27.110001       59.680000
  H4        50.669998       26.370001       59.250000
  C10       49.160000       27.580000       56.919998
  H5        49.049999       26.870001       57.689999
  C11       48.360001       27.389999       55.700001
  H6        47.669998       26.620001       55.759998
  C12       48.700001       28.010000       54.509998
  H7        48.279999       27.799999       53.610001
  C13       49.849998       28.879999       54.419998
  H8        50.070000       29.200001       53.480000
  C6        52.669998       30.100000       54.720001
  C1        53.709999       29.180000       54.509998
  H1        53.619999       28.200001       54.889999
  C2        54.630001       29.400000       53.500000
  H2        55.410000       28.680000       53.560001
  C3        54.490002       30.530001       52.680000
  H3        55.049999       30.799999       51.840000
  C4        53.459999       31.490000       52.950001
  H4        53.779999       32.500000       52.619999
  C5        52.529999       31.270000       53.990002
  H5        51.860001       32.020000       54.369999
  C1        50.880001       33.740002       59.619999
  C2        52.090000       34.099998       60.099998
  N1        50.919998       32.439999       59.200001
  C3c       52.230000       31.959999       59.290001
  N2        52.910000       33.020000       59.869999
  C4        54.270000       32.709999       60.240002
  C5c       54.630001       31.420000       59.900002
  C6        55.759998       30.879999       60.570000
  H1        55.959999       29.799999       60.400002
  C7        56.520000       31.570000       61.480000
  H2        57.509998       31.150000       61.740002
  C8        56.099998       32.889999       61.770000
  H3        56.540001       33.500000       62.529999
  C9        54.970001       33.419998       61.180000
  H4        54.590000       34.360001       61.480000
  C10       52.230000       35.360001       60.660000
  H5        53.139999       35.830002       60.650002
  C11       51.080002       36.189999       60.740002
  H6        51.139999       37.119999       61.230000
  C12       49.820000       35.820000       60.310001
  H7        48.959999       36.470001       60.349998
  C13       49.759998       34.570000       59.709999
  H8        48.750000       34.320000       59.310001
  C6        49.830002       31.500000       59.189999
  C1        49.709999       30.540001       60.240002
  H1        50.349998       30.490000       61.099998
  C2        48.549999       29.820000       60.340000
  H2        48.330002       29.290001       61.240002
  C3        47.470001       30.049999       59.459999
  H3        46.580002       29.500000       59.580002
  C4        47.580002       30.959999       58.450001
  H4        46.820000       31.040001       57.720001
  C5        48.790001       31.660000       58.279999
  H5        49.130001       32.000000       57.230000
