206
 generated by VMD
 Ir      -31.992239      -68.420013      -89.413376
 C       -31.067333      -72.028969      -87.227646
 C       -31.754873      -72.471085      -88.342422
 N       -30.861616      -70.660820      -87.352371
 C       -31.463078      -70.224808      -88.496582
 N       -31.971701      -71.335556      -89.089989
 C       -32.575394      -71.067886      -90.391220
 C       -33.014595      -69.740906      -90.653717
 C       -33.837944      -69.493286      -91.748199
 H       -34.349007      -68.507812      -91.779160
 C       -34.115219      -70.506821      -92.678391
 H       -34.695980      -70.276184      -93.498894
 C       -33.590145      -71.786613      -92.489365
 H       -33.365410      -72.512062      -93.253448
 C       -32.778561      -72.065224      -91.395889
 H       -32.026455      -72.848343      -91.573837
 C       -32.235428      -73.786392      -88.423309
 H       -32.896667      -74.134903      -89.247147
 C       -31.959234      -74.695633      -87.386154
 H       -32.405689      -75.707275      -87.379135
 C       -31.264820      -74.211372      -86.258057
 H       -31.255169      -74.899025      -85.454048
 C       -30.866140      -72.868721      -86.161385
 H       -30.409740      -72.588478      -85.211136
 C       -30.412214      -69.928421      -86.132111
 C       -29.032335      -69.689911      -85.856506
 H       -28.221870      -70.023155      -86.466675
 C       -28.739725      -69.051514      -84.678452
 H       -27.798122      -68.622421      -84.554474
 C       -29.781227      -68.669037      -83.774521
 H       -29.692310      -68.073212      -82.882286
 C       -31.113659      -68.891335      -84.110840
 H       -31.852772      -68.443024      -83.405975
 C       -31.471483      -69.482544      -85.284439
 H       -32.531197      -69.447159      -85.615578
 C       -28.875486      -67.884743      -92.489212
 C       -29.732704      -66.912262      -92.645912
 N       -29.397055      -68.614532      -91.428047
 C       -30.548302      -68.124527      -90.867767
 N       -30.736151      -66.948074      -91.624588
 C       -31.821548      -66.085556      -91.285660
 C       -32.722576      -66.741241      -90.458427
 C       -34.032814      -66.259979      -90.359070
 H       -34.638664      -66.671562      -89.570366
 C       -34.445591      -65.129318      -91.050232
 H       -35.417828      -64.755203      -90.906387
 C       -33.611885      -64.464920      -91.855286
 H       -33.887085      -63.493652      -92.323364
 C       -32.284775      -64.923889      -91.943756
 H       -31.548883      -64.290878      -92.523972
 C       -29.688614      -66.078781      -93.803825
 H       -30.553255      -65.554604      -94.280319
 C       -28.651051      -66.232964      -94.737206
 H       -28.626566      -65.545113      -95.649536
 C       -27.748291      -67.288696      -94.535835
 H       -27.020420      -67.619118      -95.262497
 C       -27.881330      -68.139404      -93.397675
 H       -27.177202      -68.942955      -93.275986
 C       -28.659176      -69.785919      -91.000992
 C       -27.515812      -69.667313      -90.224098
 H       -27.281578      -68.784462      -89.639114
 C       -26.867022      -70.841133      -89.773422
 H       -25.984241      -70.771370      -89.218140
 C       -27.232063      -72.142281      -90.153908
 H       -26.845015      -73.041634      -89.730759
 C       -28.336311      -72.254608      -90.985840
 H       -28.520992      -73.082771      -91.649277
 C       -29.060965      -71.084442      -91.430893
 H       -30.057047      -71.193909      -91.922256
 C       -30.430677      -65.715622      -86.386040
 C       -31.634556      -66.078827      -85.862343
 N       -30.377068      -66.246246      -87.678192
 C       -31.430464      -66.987312      -88.018890
 N       -32.232086      -66.826416      -86.868065
 C       -33.543816      -67.462143      -87.033356
 C       -33.624802      -68.483170      -88.041092
 C       -34.696438      -69.338043      -87.937263
 H       -34.945423      -70.077896      -88.681732
 C       -35.577866      -69.223953      -86.897522
 H       -36.236103      -70.028381      -86.821167
 C       -35.560287      -68.200302      -85.925453
 H       -36.227261      -68.138077      -85.102539
 C       -34.546734      -67.285675      -86.098259
 H       -34.735065      -66.346130      -85.699883
 C       -31.965260      -65.709251      -84.518417
 H       -32.931190      -65.966934      -84.166016
 C       -31.025276      -65.007263      -83.830429
 H       -31.405493      -64.583420      -82.887878
 C       -29.822170      -64.636551      -84.377426
 H       -28.952913      -64.377182      -83.739288
 C       -29.452915      -65.053329      -85.712067
 H       -28.482910      -64.975334      -86.143814
 C       -29.585247      -65.619751      -88.717148
 C       -30.001553      -64.382729      -89.262451
 H       -30.947565      -63.868824      -88.958694
 C       -29.246874      -63.709232      -90.220718
 H       -29.739229      -62.971947      -90.782578
 C       -27.989517      -64.266876      -90.531662
 H       -27.351124      -63.663445      -91.148209
 C       -27.521906      -65.461761      -89.995956
 H       -26.560936      -65.700134      -89.812622
 C       -28.368500      -66.200699      -89.128632
 H       -28.135231      -67.177856      -88.785477
 Ir      -31.992239      -68.420013      -76.739578
 C       -32.324837      -72.062828      -74.308624
 C       -31.359310      -71.340988      -73.636551
 N       -32.722923      -71.318283      -75.407578
 C       -32.005245      -70.129395      -75.499588
 N       -31.228081      -70.093010      -74.363770
 C       -30.288635      -68.986534      -74.309410
 C       -30.387558      -68.050148      -75.373734
 C       -29.426079      -66.962120      -75.407562
 H       -29.678186      -65.997124      -75.852676
 C       -28.404055      -66.873474      -74.473259
 H       -27.663643      -66.013344      -74.542999
 C       -28.515888      -67.703110      -73.337608
 H       -27.799919      -67.626244      -72.538559
 C       -29.466076      -68.733002      -73.238281
 H       -29.532713      -69.221123      -72.320404
 C       -30.939888      -71.871193      -72.430786
 H       -30.113634      -71.421814      -71.876022
 C       -31.470364      -73.002922      -71.910416
 H       -31.156742      -73.111000      -70.844330
 C       -32.502357      -73.642929      -72.536835
 H       -33.057198      -74.511536      -72.085526
 C       -32.926628      -73.196991      -73.773819
 H       -33.826702      -73.706314      -74.100861
 C       -33.549789      -71.792816      -76.377998
 C       -33.081032      -72.348938      -77.563362
 H       -32.110687      -72.075256      -77.863564
 C       -33.854767      -73.048111      -78.496216
 H       -33.340561      -73.352013      -79.331696
 C       -35.202217      -73.157532      -78.250854
 H       -35.821381      -73.863968      -78.774979
 C       -35.734291      -72.518158      -77.100990
 H       -36.807396      -72.512321      -76.956375
 C       -34.928234      -71.837631      -76.170914
 H       -35.324516      -71.602386      -75.194077
 C       -34.204895      -65.572601      -74.245079
 C       -34.157936      -64.979576      -75.484680
 N       -33.574867      -66.808456      -74.354309
 C       -32.991894      -67.012314      -75.601822
 N       -33.421757      -65.906364      -76.326111
 C       -32.681847      -65.696167      -77.552948
 C       -31.604570      -66.629578      -77.798553
 C       -30.690153      -66.356766      -78.817978
 H       -29.949661      -67.058861      -79.171143
 C       -30.842066      -65.288086      -79.657822
 H       -30.419842      -65.339798      -80.628006
 C       -31.914536      -64.446434      -79.424728
 H       -31.931324      -63.563286      -80.002617
 C       -32.836334      -64.575424      -78.375984
 H       -33.467422      -63.764141      -78.094299
 C       -34.850151      -63.761578      -75.692329
 H       -35.100662      -63.467735      -76.657890
 C       -35.644753      -63.175087      -74.615143
 H       -35.792381      -62.135315      -74.705032
 C       -35.640282      -63.804161      -73.363083
 H       -35.782154      -63.111118      -72.569260
 C       -34.940506      -65.004745      -73.184410
 H       -35.110741      -65.572075      -72.292862
 C       -33.509094      -67.686699      -73.201553
 C       -34.268917      -68.883911      -73.256691
 H       -34.772079      -69.268478      -74.123093
 C       -34.250107      -69.742111      -72.173164
 H       -34.627434      -70.743637      -72.293884
 C       -33.445663      -69.476219      -71.071716
 H       -33.389812      -70.321075      -70.439896
 C       -32.718861      -68.235649      -70.971512
 H       -32.206432      -68.022255      -70.108963
 C       -32.778542      -67.371178      -72.068832
 H       -32.172695      -66.539803      -71.963181
 C       -34.622433      -69.146408      -80.202591
 C       -33.449913      -69.788322      -80.503510
 N       -34.456146      -68.607452      -78.854965
 C       -33.135204      -68.794739      -78.388237
 N       -32.542183      -69.526276      -79.398132
 C       -31.133934      -69.684410      -79.263855
 C       -30.693750      -69.496712      -77.952400
 C       -29.322521      -69.686035      -77.715378
 H       -28.866859      -69.557106      -76.766563
 C       -28.370859      -69.936661      -78.749847
 H       -27.341955      -69.954224      -78.609322
 C       -28.876255      -70.077164      -80.056847
 H       -28.179066      -70.196510      -80.864792
 C       -30.221773      -70.041588      -80.331276
 H       -30.585114      -69.814598      -81.297440
 C       -33.311317      -70.535080      -81.696335
 H       -32.350677      -71.113792      -81.862663
 C       -34.345692      -70.422577      -82.720016
 H       -34.348957      -71.037041      -83.642525
 C       -35.508247      -69.705093      -82.377975
 H       -36.358047      -69.722801      -82.934776
 C       -35.673042      -69.112289      -81.105057
 H       -36.540180      -68.515137      -80.910156
 C       -35.442909      -67.749367      -78.237579
 C       -35.954945      -68.200409      -77.027046
 H       -35.584213      -69.131973      -76.613708
 C       -36.940899      -67.508629      -76.364456
 H       -37.210560      -67.774734      -75.338463
 C       -37.538338      -66.324684      -76.933716
 H       -38.428253      -65.987213      -76.521210
 C       -37.051800      -65.925507      -78.237305
 H       -37.334591      -65.020897      -78.850983
 C       -36.037426      -66.629845      -78.844795
 H       -35.813698      -66.444168      -79.938034
