206
 generated by VMD
  IR         0.280000        4.120000       31.230000
  C1         4.090000        6.140000       32.180000
  C2         4.320000        4.830000       32.610001
  N1         2.790000        6.170000       31.590000
  C3a        2.170000        4.940000       31.660000
  N2         3.130000        4.100000       32.290001
  C4         2.780000        2.770000       32.270000
  C5a        1.420000        2.440000       31.889999
  C6         0.990000        1.140000       31.950001
  H1        -0.070000        0.820000       31.830000
  C7         1.880000        0.050000       32.290001
  H2         1.560000       -0.970000       32.130001
  C8         3.210000        0.360000       32.529999
  H3         3.990000       -0.430000       32.490002
  C9         3.670000        1.690000       32.590000
  H4         4.670000        1.660000       32.680000
  C10        5.630000        4.480000       33.119999
  H5         5.700000        3.440000       33.380001
  C11        6.640000        5.450000       33.230000
  H6         7.540000        5.100000       33.740002
  C12        6.400000        6.720000       32.799999
  H7         7.210000        7.470000       32.889999
  C13        5.160000        7.080000       32.160000
  H8         5.040000        7.810000       31.459999
  C6         2.480000        7.190000       30.700001
  C1         3.040000        7.140000       29.459999
  H1         3.840000        6.410000       29.240000
  C2         2.820000        8.060000       28.450001
  H2         3.080000        7.750000       27.430000
  C3         1.970000        9.110000       28.750000
  H3         1.680000        9.770000       27.940001
  C4         1.380000        9.160000       30.049999
  H4         0.590000        9.890000       30.270000
  C5         1.670000        8.250000       31.080000
  H5         1.010000        8.150000       31.959999
  C1         0.500000        2.870000       27.170000
  C2        -0.770000        2.440000       27.660000
  N1         1.260000        3.150000       28.280001
  C3b        0.520000        3.150000       29.440001
  N2        -0.730000        2.650000       29.030001
  C4        -1.630000        2.300000       30.040001
  C5b       -1.520000        3.030000       31.209999
  C6        -2.360000        2.780000       32.270000
  H1        -2.370000        3.460000       33.119999
  C7        -3.250000        1.780000       32.259998
  H2        -3.900000        1.400000       33.020000
  C8        -3.370000        1.010000       31.100000
  H3        -3.980000        0.070000       31.120001
  C9        -2.530000        1.340000       30.049999
  H4        -2.520000        0.540000       29.360001
  C10       -1.760000        1.990000       26.730000
  H5        -2.790000        1.550000       27.120001
  C11       -1.440000        1.980000       25.330000
  H6        -2.160000        1.480000       24.670000
  C12       -0.150000        2.390000       24.830000
  H7         0.200000        2.210000       23.850000
  C13        0.770000        2.930000       25.760000
  H8         1.740000        3.230000       25.440001
  C6         2.690000        2.840000       28.420000
  C1         3.080000        1.480000       28.750000
  H1         2.330000        0.730000       28.959999
  C2         4.380000        1.190000       29.059999
  H2         4.510000        0.300000       29.670000
  C3         5.340000        2.220000       29.120001
  H3         6.410000        1.820000       29.170000
  C4         5.030000        3.570000       28.830000
  H4         5.780000        4.390000       28.760000
  C5         3.670000        3.860000       28.430000
  H5         3.360000        4.830000       28.219999
  C1        -2.050000        7.720000       30.260000
  C2        -2.190000        7.580000       31.700001
  N1        -1.300000        6.610000       29.780001
  C3c       -0.850000        5.870000       30.820000
  N2        -1.360000        6.460000       32.000000
  C4        -0.720000        6.010000       33.250000
  C5c       -0.110000        4.730000       33.230000
  C6         0.210000        4.040000       34.389999
  H1         0.880000        3.210000       34.270000
  C7        -0.110000        4.500000       35.650002
  H2         0.040000        3.830000       36.520000
  C8        -0.780000        5.750000       35.750000
  H3        -1.140000        6.150000       36.700001
  C9        -1.000000        6.530000       34.590000
  H4        -1.320000        7.510000       34.630001
  C10       -3.020000        8.390000       32.439999
  H5        -3.190000        8.180000       33.520000
  C11       -3.670000        9.470000       31.790001
  H6        -4.480000        9.900000       32.250000
  C12       -3.350000        9.730000       30.480000
  H7        -4.080000       10.330000       30.000000
  C13       -2.640000        8.830000       29.690001
  H8        -2.680000        8.880000       28.590000
  C6        -1.440000        6.120000       28.480000
  C1        -0.340000        6.240000       27.639999
  H1         0.620000        6.510000       27.940001
  C2        -0.600000        6.020000       26.240000
  H2         0.150000        5.970000       25.490000
  C3        -1.860000        5.670000       25.799999
  H3        -1.960000        5.230000       24.799999
  C4        -2.930000        5.660000       26.690001
  H4        -3.920000        5.250000       26.360001
  C5        -2.770000        5.920000       28.020000
  H5        -3.550000        5.820000       28.840000
  IR        14.240000        9.940000       31.770000
  C1        13.670000       12.950000       28.690001
  C2        12.520000       12.220000       28.629999
  N1        14.450000       12.500000       29.809999
  C3a       13.830000       11.410000       30.410000
  N2        12.690000       11.230000       29.620001
  C4        11.920000       10.070000       30.049999
  C5a       12.220000        9.570000       31.309999
  C6        11.290000        8.850000       32.080002
  H1        11.460000        8.670000       33.130001
  C7        10.020000        8.550000       31.480000
  H2         9.370000        7.820000       31.950001
  C8         9.700000        9.000000       30.180000
  H3         8.700000        8.980000       29.790001
  C9        10.640000        9.750000       29.510000
  H4        10.520000        9.880000       28.510000
  C10       11.520000       12.530000       27.650000
  H5        10.500000       12.240000       27.840000
  C11       11.750000       13.470000       26.680000
  H6        11.050000       13.700000       25.920000
  C12       12.940000       14.170000       26.780001
  H7        13.170000       14.990000       26.090000
  C13       13.890000       13.920000       27.760000
  H8        14.960000       14.240000       27.639999
  C6        15.860000       12.900000       30.010000
  C1        16.110001       13.860000       30.940001
  H1        15.350000       14.460000       31.490000
  C2        17.299999       14.470000       31.049999
  H2        17.459999       14.940000       32.000000
  C3        18.320000       14.240000       30.129999
  H3        19.330000       14.740000       30.150000
  C4        18.080000       13.250000       29.180000
  H4        18.760000       13.000000       28.410000
  C5        16.870001       12.620000       29.090000
  H5        16.629999       12.000000       28.309999
  C1        12.830000       11.570000       35.500000
  C2        13.310000       10.360000       35.910000
  N1        12.950000       11.680000       34.139999
  C3b       13.450000       10.550000       33.610001
  N2        13.670000        9.730000       34.669998
  C4        13.890000        8.400000       34.290001
  C5b       14.350000        8.220000       32.980000
  C6        14.700000        6.900000       32.630001
  H1        15.150000        6.730000       31.660000
  C7        14.620000        5.810000       33.439999
  H2        15.170000        4.870000       33.250000
  C8        14.070000        6.020000       34.790001
  H3        13.870000        5.190000       35.430000
  C9        13.770000        7.320000       35.209999
  H4        13.760000        7.490000       36.279999
  C10       13.200000        9.910000       37.270000
  H5        13.850000        9.110000       37.689999
  C11       12.630000       10.820000       38.180000
  H6        12.650000       10.460000       39.220001
  C12       12.030000       12.020000       37.730000
  H7        11.600000       12.690000       38.500000
  C13       12.150000       12.450000       36.430000
  H8        11.890000       13.440000       36.169998
  C6        12.310000       12.680000       33.459999
  C1        11.050000       12.350000       32.910000
  H1        10.380000       11.830000       33.580002
  C2        10.510000       13.140000       31.930000
  H2         9.530000       12.970000       31.600000
  C3        11.180000       14.350000       31.580000
  H3        10.730000       15.180000       31.110001
  C4        12.420000       14.700000       32.160000
  H4        12.790000       15.680000       31.990000
  C5        13.000000       13.830000       33.049999
  H5        14.090000       13.920000       33.250000
  C1        18.480000       10.810000       32.410000
  C2        18.450001       10.230000       31.219999
  N1        17.190001       10.900000       32.880001
  C3c       16.280001       10.280000       32.000000
  N2        17.080000        9.790000       30.980000
  C4        16.410000        9.180000       29.910000
  C5c       15.040000        8.910000       30.129999
  C6        14.360000        8.240000       29.100000
  H1        13.460000        7.780000       29.280001
  C7        14.980000        8.020000       27.850000
  H2        14.350000        7.770000       27.010000
  C8        16.309999        8.320000       27.580000
  H3        16.780001        8.100000       26.650000
  C9        16.990000        8.860000       28.680000
  H4        18.030001        9.110000       28.500000
  C10       19.660000       10.170000       30.510000
  H5        19.730000        9.730000       29.500000
  C11       20.860001       10.670000       30.990000
  H6        21.730000       10.700000       30.389999
  C12       20.900000       11.330000       32.180000
  H7        21.879999       11.530000       32.700001
  C13       19.690001       11.430000       32.910000
  H8        19.760000       12.010000       33.860001
  C6        16.990000       11.010000       34.330002
  C1        17.270000        9.990000       35.230000
  H1        17.540001        9.040000       34.860001
  C2        16.950001       10.120000       36.560001
  H2        17.240000        9.480000       37.389999
  C3        16.270000       11.190000       37.070000
  H3        16.080000       11.200000       38.160000
  C4        16.090000       12.270000       36.200001
  H4        15.500000       13.130000       36.500000
  C5        16.440001       12.170000       34.849998
  H5        16.240000       12.970000       34.119999
