206
 generated by VMD
  IR        19.180000       43.840000       37.619999
  C1        21.600000       45.180000       34.279999
  C2        22.400000       44.250000       34.900002
  N1        20.410000       45.250000       34.970001
  C3a       20.459999       44.470001       36.119999
  N2        21.670000       43.849998       36.090000
  C4        21.980000       43.049999       37.220001
  C5a       20.840000       42.639999       37.930000
  C6        20.950001       41.480000       38.709999
  H1        20.040001       40.990002       38.959999
  C7        22.180000       40.869999       38.889999
  H2        22.290001       40.040001       39.570000
  C8        23.320000       41.330002       38.290001
  H3        24.230000       40.939999       38.689999
  C9        23.200001       42.389999       37.430000
  H4        24.120001       42.930000       37.209999
  C10       23.580000       43.869999       34.320000
  H5        24.040001       42.959999       34.709999
  C11       24.040001       44.419998       33.119999
  H6        25.080000       44.310001       32.849998
  C12       23.219999       45.330002       32.450001
  H7        23.590000       45.790001       31.629999
  C13       22.000000       45.700001       33.060001
  H8        21.340000       46.380001       32.500000
  C6        19.709999       46.509998       34.790001
  C1        20.200001       47.549999       35.570000
  H1        21.139999       47.509998       36.169998
  C2        19.709999       48.860001       35.320000
  H2        20.209999       49.689999       35.650002
  C3        18.590000       49.060001       34.439999
  H3        18.430000       50.180000       34.099998
  C4        18.030001       47.980000       33.740002
  H4        17.389999       48.119999       32.869999
  C5        18.639999       46.700001       33.889999
  H5        18.250000       45.830002       33.430000
  C1        17.469999       40.200001       36.000000
  C2        16.969999       40.200001       37.240002
  N1        18.170000       41.360001       35.680000
  C3b       18.160000       42.160000       36.750000
  N2        17.379999       41.470001       37.700001
  C4        17.230000       42.029999       39.009998
  C5b       18.250000       42.980000       39.320000
  C6        18.180000       43.580002       40.549999
  H1        19.040001       43.950001       41.040001
  C7        17.059999       43.380001       41.490002
  H2        17.120001       43.660000       42.549999
  C8        16.110001       42.410000       41.090000
  H3        15.190000       42.369999       41.639999
  C9        16.240000       41.759998       39.869999
  H4        15.590000       40.939999       39.529999
  C10       16.260000       39.060001       37.680000
  H5        16.070000       38.990002       38.770000
  C11       15.970000       37.980000       36.840000
  H6        15.220000       37.230000       37.099998
  C12       16.420000       37.980000       35.549999
  H7        16.500000       37.119999       34.990002
  C13       17.200001       39.060001       35.150002
  H8        17.820000       38.959999       34.259998
  C6        18.850000       41.610001       34.439999
  C1        18.459999       42.799999       33.720001
  H1        17.670000       43.459999       34.130001
  C2        19.200001       43.180000       32.580002
  H2        18.930000       44.029999       32.029999
  C3        20.340000       42.490002       32.169998
  H3        21.010000       42.869999       31.480000
  C4        20.709999       41.299999       32.860001
  H4        21.309999       40.500000       32.410000
  C5        19.959999       40.889999       33.970001
  H5        20.180000       40.040001       34.570000
  C1        15.680000       46.279999       38.480000
  C2        16.730000       47.020000       38.930000
  N1        16.200001       45.270000       37.599998
  C3c       17.620001       45.209999       37.730000
  N2        17.930000       46.360001       38.459999
  C4        19.290001       46.599998       38.650002
  C5c       20.070000       45.430000       38.750000
  C6        21.360001       45.580002       39.279999
  H1        21.959999       44.700001       39.360001
  C7        21.879999       46.869999       39.610001
  H2        22.799999       46.889999       40.160000
  C8        21.180000       48.020000       39.439999
  H3        21.600000       49.029999       39.689999
  C9        19.860001       47.889999       38.939999
  H4        19.360001       48.770000       38.650002
  C10       16.420000       48.080002       39.759998
  H5        17.270000       48.650002       40.209999
  C11       15.130000       48.480000       40.060001
  H6        14.820000       49.490002       40.430000
  C12       14.060000       47.669998       39.669998
  H7        13.100000       47.720001       40.220001
  C13       14.310000       46.590000       38.900002
  H8        13.510000       46.040001       38.419998
  C6        15.350000       44.660000       36.619999
  C1        15.440000       45.099998       35.320000
  H1        16.170000       45.790001       35.040001
  C2        14.590000       44.570000       34.349998
  H2        14.630000       44.889999       33.349998
  C3        13.750000       43.459999       34.770000
  H3        13.350000       42.790001       33.990002
  C4        13.720000       42.990002       36.070000
  H4        12.930000       42.320000       36.340000
  C5        14.510000       43.580002       37.090000
  H5        14.430000       43.169998       38.000000
  IR        11.760000       34.590000       46.060001
  C1        15.670000       33.869999       44.430000
  C2        15.560000       32.950001       45.410000
  N1        14.440000       34.490002       44.240002
  C3a       13.520000       34.060001       45.070000
  N2        14.210000       33.049999       45.820000
  C4        13.490000       32.369999       46.930000
  C5a       12.210000       32.900002       47.169998
  C6        11.450000       32.380001       48.259998
  H1        10.490000       32.820000       48.500000
  C7        11.990000       31.430000       49.080002
  H2        11.490000       31.070000       49.939999
  C8        13.310000       30.959999       48.900002
  H3        13.710000       30.240000       49.590000
  C9        14.050000       31.410000       47.759998
  H4        15.000000       30.889999       47.520000
  C10       16.700001       32.310001       45.869999
  H5        16.820000       31.690001       46.770000
  C11       17.959999       32.599998       45.279999
  H6        18.850000       32.169998       45.650002
  C12       18.049999       33.520000       44.169998
  H7        18.969999       33.610001       43.619999
  C13       16.870001       34.180000       43.750000
  H8        16.860001       34.869999       42.860001
  C6        14.090000       35.070000       42.990002
  C1        14.020000       34.169998       41.919998
  H1        14.230000       33.119999       42.040001
  C2        14.110000       34.689999       40.639999
  H2        13.850000       34.110001       39.740002
  C3        14.240000       36.080002       40.419998
  H3        14.030000       36.540001       39.470001
  C4        14.360000       36.950001       41.500000
  H4        14.170000       37.990002       41.299999
  C5        14.270000       36.430000       42.759998
  H5        14.770000       36.910000       43.619999
  C1         8.840000       32.650002       43.549999
  C2         8.100000       33.439999       44.509998
  N1        10.140000       32.549999       44.060001
  C3b       10.300000       33.389999       45.180000
  N2         9.050000       33.759998       45.509998
  C4         8.940000       34.380001       46.830002
  C5b       10.120000       35.020000       47.290001
  C6         9.960000       35.889999       48.340000
  H1        10.880000       36.380001       48.810001
  C7         8.760000       36.279999       48.930000
  H2         8.760000       36.980000       49.799999
  C8         7.640000       35.560001       48.549999
  H3         6.690000       35.580002       49.110001
  C9         7.750000       34.630001       47.529999
  H4         6.990000       33.910000       47.480000
  C10        6.680000       33.650002       44.220001
  H5         6.210000       34.310001       44.959999
  C11        6.050000       33.080002       43.090000
  H6         4.950000       32.990002       43.040001
  C12        6.880000       32.250000       42.240002
  H7         6.570000       31.600000       41.490002
  C13        8.230000       32.049999       42.509998
  H8         8.860000       31.459999       41.790001
  C6        11.160000       31.700001       43.419998
  C1        11.720000       32.000000       42.139999
  H1        11.620000       32.950001       41.660000
  C2        12.520000       31.049999       41.500000
  H2        12.990000       31.290001       40.549999
  C3        12.660000       29.760000       42.119999
  H3        12.960000       28.920000       41.560001
  C4        12.170000       29.540001       43.330002
  H4        12.580000       28.540001       43.730000
  C5        11.360000       30.440001       44.070000
  H5        10.640000       30.110001       44.840000
  C1        11.500000       38.200001       43.700001
  C2        12.180000       38.549999       44.840000
  N1        11.080000       36.889999       43.869999
  C3c       11.400000       36.410000       45.130001
  N2        12.020000       37.459999       45.759998
  C4        12.530000       37.209999       47.020000
  C5c       12.880000       35.900002       47.259998
  C6        13.660000       35.570000       48.360001
  H1        14.010000       34.570000       48.540001
  C7        13.970000       36.459999       49.360001
  H2        14.560000       36.119999       50.259998
  C8        13.570000       37.799999       49.169998
  H3        13.980000       38.480000       49.860001
  C9        12.840000       38.160000       48.020000
  H4        12.880000       39.150002       47.750000
  C10       12.770000       39.820000       44.900002
  H5        13.080000       40.169998       45.840000
  C11       12.790000       40.650002       43.779999
  H6        13.250000       41.610001       43.759998
  C12       12.160000       40.230000       42.570000
  H7        12.310000       40.779999       41.639999
  C13       11.530000       39.009998       42.580002
  H8        10.910000       38.750000       41.720001
  C6        10.080000       36.340000       42.990002
  C1        10.530000       35.580002       41.930000
  H1        11.550000       35.459999       41.639999
  C2         9.550000       35.139999       41.009998
  H2        10.050000       34.500000       40.290001
  C3         8.240000       35.509998       41.110001
  H3         7.490000       35.480000       40.320000
  C4         7.850000       36.270000       42.200001
  H4         6.790000       36.330002       42.349998
  C5         8.730000       36.689999       43.160000
  H5         8.350000       37.490002       43.830002
