206
 generated by VMD
  IR        37.799999       15.180000        4.290000
  C1        33.540001       15.370000        3.780000
  C2        33.740002       14.080000        4.210000
  N1        34.740002       16.080000        3.910000
  C3a       35.779999       15.270000        4.360000
  N2        35.160000       14.030000        4.590000
  C4        35.990002       12.940000        4.770000
  C5a       37.360001       13.120000        4.480000
  C6        38.209999       12.060000        4.740000
  H1        39.220001       12.150000        4.460000
  C7        37.700001       10.790000        5.240000
  H2        38.389999       10.060000        5.580000
  C8        36.349998       10.690000        5.430000
  H3        35.830002        9.790000        5.510000
  C9        35.520000       11.730000        5.230000
  H4        34.500000       11.750000        5.570000
  C10       32.689999       13.140000        4.150000
  H5        32.770000       12.140000        4.600000
  C11       31.450001       13.490000        3.510000
  H6        30.590000       12.800000        3.520000
  C12       31.280001       14.810000        3.090000
  H7        30.270000       15.200000        2.930000
  C13       32.310001       15.750000        3.250000
  H8        32.130001       16.780001        3.030000
  C6        34.790001       17.500000        3.670000
  C1        34.860001       17.969999        2.340000
  H1        34.470001       17.299999        1.590000
  C2        35.099998       19.320000        2.060000
  H2        35.139999       19.680000        1.000000
  C3        35.349998       20.160000        3.130000
  H3        35.759998       21.110001        2.840000
  C4        35.259998       19.680000        4.460000
  H4        35.150002       20.379999        5.320000
  C5        35.009998       18.340000        4.740000
  H5        34.759998       18.120001        5.820000
  C1        38.720001       15.120000        8.480000
  C2        39.830002       14.580000        7.900000
  N1        37.810001       15.420000        7.460000
  C3b       38.380001       15.190000        6.270000
  N2        39.619999       14.730000        6.530000
  C4        40.450001       14.490000        5.440000
  C5b       39.860001       14.690000        4.180000
  C6        40.619999       14.650000        2.970000
  H1        40.230000       15.110000        2.080000
  C7        42.040001       14.430000        3.070000
  H2        42.680000       14.620000        2.200000
  C8        42.599998       14.260000        4.330000
  H3        43.610001       13.880000        4.320000
  C9        41.820000       14.250000        5.460000
  H4        42.380001       14.270000        6.400000
  C10       40.669998       13.790000        8.600000
  H5        41.540001       13.510000        8.040000
  C11       40.389999       13.490000        9.940000
  H6        41.230000       13.010000       10.420000
  C12       39.340000       14.090000       10.600000
  H7        39.389999       13.950000       11.700000
  C13       38.500000       14.920000        9.870000
  H8        37.660000       15.390000       10.360000
  C6        36.400002       15.270000        7.680000
  C1        35.860001       13.990000        7.750000
  H1        36.529999       13.170000        7.940000
  C2        34.450001       13.800000        7.960000
  H2        33.919998       12.870000        7.900000
  C3        33.709999       14.900000        8.340000
  H3        32.619999       14.730000        8.610000
  C4        34.250000       16.160000        8.420000
  H4        33.570000       17.010000        8.490000
  C5        35.619999       16.360001        8.030000
  H5        36.099998       17.330000        7.940000
  C1        38.759998       19.340000        3.420000
  C2        38.360001       18.740000        2.230000
  N1        38.709999       18.320000        4.340000
  C3c       38.380001       17.090000        3.780000
  N2        38.139999       17.410000        2.460000
  C4        37.520000       16.440001        1.680000
  C5c       37.520000       15.160000        2.240000
  C6        37.009998       14.100000        1.460000
  H1        37.580002       13.210000        1.570000
  C7        36.400002       14.330000        0.260000
  H2        35.770000       13.560000       -0.220000
  C8        36.389999       15.590000       -0.330000
  H3        35.889999       15.880000       -1.290000
  C9        36.919998       16.639999        0.430000
  H4        36.750000       17.590000       -0.020000
  C10       38.290001       19.580000        1.120000
  H5        38.459999       19.150000        0.180000
  C11       38.310001       20.980000        1.300000
  H6        37.730000       21.559999        0.630000
  C12       38.610001       21.520000        2.570000
  H7        38.570000       22.530001        2.650000
  C13       38.919998       20.650000        3.610000
  H8        39.130001       21.049999        4.600000
  C6        39.290001       18.450001        5.650000
  C1        40.590000       17.940001        5.860000
  H1        41.110001       17.530001        5.030000
  C2        41.180000       17.790001        7.090000
  H2        42.020000       17.250000        7.170000
  C3        40.430000       18.150000        8.210000
  H3        40.889999       17.879999        9.110000
  C4        39.090000       18.639999        8.090000
  H4        38.490002       18.490000        8.990000
  C5        38.509998       18.740000        6.810000
  H5        37.490002       18.980000        6.740000
  IR        27.120001       12.750000        9.580000
  C1        24.719999       11.810000        6.170000
  C2        24.440001       10.860000        7.040000
  N1        25.770000       12.560000        6.680000
  C3a       26.209999       12.090000        7.880000
  N2        25.350000       11.030000        8.120000
  C4        25.570000       10.240000        9.320000
  C5a       26.360001       10.900000       10.280000
  C6        26.549999       10.320000       11.570000
  H1        27.160000       10.810000       12.300000
  C7        26.100000        8.990000       11.840000
  H2        26.280001        8.580000       12.850000
  C8        25.410000        8.340000       10.830000
  H3        25.049999        7.380000       11.100000
  C9        25.190001        8.880000        9.550000
  H4        24.879999        8.270000        8.710000
  C10       23.330000       10.040000        6.860000
  H5        23.170000        9.230000        7.530000
  C11       22.440001       10.210000        5.790000
  H6        21.950001        9.300000        5.480000
  C12       22.809999       11.150000        4.830000
  H7        22.430000       11.060000        3.860000
  C13       23.870001       12.010000        5.060000
  H8        24.049999       12.720000        4.350000
  C6        26.379999       13.500000        5.900000
  C1        27.059999       13.130000        4.710000
  H1        27.020000       12.070000        4.330000
  C2        27.780001       14.070000        3.980000
  H2        27.990000       13.820000        2.960000
  C3        27.889999       15.340000        4.510000
  H3        28.709999       15.990000        4.120000
  C4        27.110001       15.730000        5.640000
  H4        27.240000       16.760000        6.000000
  C5        26.360001       14.820000        6.340000
  H5        25.760000       15.070000        7.180000
  C1        24.270000       14.810000       12.100000
  C2        25.440001       14.950000       12.810000
  N1        24.420000       13.970000       10.950000
  C3b       25.730000       13.570000       10.890000
  N2        26.330000       14.160000       12.000000
  C4        27.650000       13.650000       12.260000
  C5b       28.350000       12.990000       11.250000
  C6        29.629999       12.580000       11.380000
  H1        30.360001       12.340000       10.620000
  C7        30.320000       12.760000       12.590000
  H2        31.400000       12.560000       12.690000
  C8        29.639999       13.350000       13.680000
  H3        29.980000       13.420000       14.670000
  C9        28.309999       13.810000       13.480000
  H4        27.650000       13.940000       14.370000
  C10       25.480000       15.730000       13.950000
  H5        26.469999       16.040001       14.260000
  C11       24.330000       16.360001       14.460000
  H6        24.400000       17.209999       15.130000
  C12       23.150000       16.250000       13.730000
  H7        22.250000       16.680000       14.230000
  C13       23.110001       15.450000       12.590000
  H8        22.280001       15.290000       11.980000
  C6        23.379999       13.490000       10.060000
  C1        22.610001       12.420000       10.440000
  H1        22.990000       11.890000       11.280000
  C2        21.600000       11.900000        9.630000
  H2        21.020000       11.110000       10.030000
  C3        21.360001       12.510000        8.440000
  H3        20.559999       12.120000        7.790000
  C4        22.129999       13.620000        8.040000
  H4        21.959999       14.130000        7.100000
  C5        23.110001       14.140000        8.860000
  H5        23.700001       14.970000        8.480000
  C1        29.510000       16.360001        8.510000
  C2        30.030001       15.370000        7.710000
  N1        28.450001       15.700000        9.270000
  C3c       28.260000       14.380000        8.990000
  N2        29.299999       14.160000        8.060000
  C4        29.480000       12.740000        7.680000
  C5c       28.799999       11.900000        8.630000
  C6        28.969999       10.560000        8.540000
  H1        28.840000       10.000000        9.410000
  C7        29.760000       10.020000        7.560000
  H2        29.760000        9.010000        7.460000
  C8        30.440001       10.840000        6.680000
  H3        31.170000       10.380000        5.980000
  C9        30.250000       12.200000        6.700000
  H4        30.980000       12.730000        6.160000
  C10       31.010000       15.690000        6.790000
  H5        31.400000       14.950000        6.050000
  C11       31.620001       16.950001        6.750000
  H6        32.099998       17.250000        5.790000
  C12       31.240000       17.910000        7.700000
  H7        31.629999       18.840000        7.720000
  C13       30.150000       17.629999        8.530000
  H8        29.790001       18.400000        9.260000
  C6        27.700001       16.510000       10.200000
  C1        26.340000       16.780001        9.950000
  H1        25.799999       16.309999        9.120000
  C2        25.629999       17.650000       10.700000
  H2        24.590000       17.520000       10.840000
  C3        26.250000       18.360001       11.760000
  H3        25.900000       19.309999       12.130000
  C4        27.650000       18.059999       12.050000
  H4        28.170000       18.580000       12.870000
  C5        28.360001       17.150000       11.250000
  H5        29.320000       16.760000       11.550000
