206
 generated by VMD
 Ir       76.125702      113.944199       25.701385
 C        76.628479      117.909714       24.261795
 C        77.084259      117.991364       25.558250
 N        75.869339      116.740158       24.176720
 C        75.990479      115.967270       25.314203
 N        76.761047      116.742302       26.148560
 C        77.351776      116.025177       27.356556
 C        77.302689      114.649651       27.238155
 C        77.826538      113.807281       28.230417
 H        77.729675      112.707100       28.225161
 C        78.595695      114.366470       29.216469
 H        79.172012      113.826782       29.947697
 C        78.672699      115.792854       29.305969
 H        78.918785      116.179688       30.328024
 C        78.072723      116.643906       28.393909
 H        78.272507      117.722992       28.426794
 C        77.830307      119.111275       25.965450
 H        77.879578      119.470840       27.019390
 C        78.164154      120.138367       25.050169
 H        78.858490      120.909744       25.351255
 C        77.746780      119.994682       23.737019
 H        78.003113      120.814606       23.053631
 C        76.978592      118.938034       23.319424
 H        76.562935      119.031227       22.376266
 C        74.818581      116.545654       23.200670
 C        73.561417      116.042145       23.640713
 H        73.409340      115.786530       24.659943
 C        72.634369      115.573502       22.685797
 H        71.830856      114.881454       22.917147
 C        72.990875      115.622009       21.336851
 H        72.196465      115.464645       20.704765
 C        74.208603      116.069702       20.881638
 H        74.478928      116.071053       19.785177
 C        75.135147      116.600357       21.820637
 H        76.111275      116.986046       21.483263
 C        79.983673      112.885994       23.975794
 C        79.544296      111.669189       24.538414
 N        79.033340      113.900665       24.189821
 C        77.934937      113.353714       24.845062
 N        78.285736      112.015320       25.053482
 C        77.331772      111.219025       25.769289
 C        76.332672      111.963257       26.432632
 C        75.482857      111.210358       27.238832
 H        74.760315      111.744949       27.855639
 C        75.515213      109.834778       27.475773
 H        74.813179      109.363449       28.055086
 C        76.434128      109.031021       26.765228
 H        76.683075      108.011391       27.100601
 C        77.275940      109.729355       25.903725
 H        77.728043      109.151382       25.233238
 C        80.402252      110.519295       24.554352
 H        80.060104      109.559280       24.769970
 C        81.658226      110.661888       23.882921
 H        82.364304      109.923782       24.044327
 C        82.006775      111.788177       23.184067
 H        82.758041      111.618256       22.416645
 C        81.168228      112.934341       23.190697
 H        81.417702      113.800156       22.560671
 C        79.327728      115.278694       23.964672
 C        79.126862      115.750198       22.673187
 H        78.448143      115.183517       22.006924
 C        79.802094      116.933487       22.154715
 H        79.848419      117.287117       21.043230
 C        80.512726      117.673782       23.088074
 H        81.039108      118.519699       22.641943
 C        80.769791      117.197311       24.383560
 H        81.396942      117.801208       25.020559
 C        80.104065      116.025192       24.882406
 H        80.228760      115.587204       25.886013
 C        73.289124      112.150070       22.833530
 C        72.537437      112.437767       23.953125
 N        74.613937      112.495941       23.146799
 C        74.754562      112.983223       24.475592
 N        73.443878      112.944855       24.945415
 C        73.296188      113.386261       26.368425
 C        74.329216      114.219620       26.787197
 C        74.139061      114.958740       27.976833
 H        74.912453      115.627159       28.339148
 C        72.947815      114.884346       28.723495
 H        72.980789      115.304703       29.681835
 C        71.976944      113.945557       28.300312
 H        71.313477      113.574677       29.062449
 C        72.099274      113.242416       27.108496
 H        71.483200      112.376732       26.990389
 C        71.127480      112.323807       23.924225
 H        70.623894      112.071945       24.887535
 C        70.510155      112.015175       22.715982
 H        69.402901      112.197617       22.701605
 C        71.232933      111.800644       21.593454
 H        70.794418      111.911209       20.593063
 C        72.636627      111.862518       21.645737
 H        73.187988      111.696365       20.691959
 C        75.714127      112.130035       22.232956
 C        76.416687      113.085114       21.546932
 H        76.404846      114.103394       21.977835
 C        77.339241      112.803581       20.533947
 H        77.732758      113.607361       19.902699
 C        77.610367      111.475189       20.174431
 H        78.524216      111.284149       19.596001
 C        76.934494      110.444443       20.891474
 H        77.091949      109.376503       20.752508
 C        75.983536      110.737137       21.917442
 H        75.698891      109.892410       22.567917
 Ir       76.125702      113.944199       35.898102
 C        75.817139      111.294434       39.342110
 C        74.805038      112.227249       39.622353
 N        76.539078      111.750938       38.264618
 C        76.035759      112.924423       37.694897
 N        75.034744      113.291565       38.616684
 C        74.548584      114.612610       38.388912
 C        74.995964      115.235367       37.176258
 C        74.787643      116.671722       37.087448
 H        75.317589      117.233627       36.338772
 C        74.302765      117.454315       38.072506
 H        74.440567      118.566895       38.018009
 C        73.877838      116.840240       39.280582
 H        73.473465      117.519905       40.006561
 C        73.889633      115.448555       39.386303
 H        73.103508      115.011963       39.990524
 C        73.907410      111.965500       40.710308
 H        72.998642      112.517548       40.665970
 C        74.021469      110.796982       41.456215
 H        73.293930      110.600998       42.235878
 C        75.084106      109.870369       41.173397
 H        75.153999      109.034286       41.852646
 C        75.969406      110.135834       40.163124
 H        76.906075      109.554016       40.178551
 C        77.945740      111.484131       38.167023
 C        78.427002      110.340561       37.484413
 H        77.866760      110.012024       36.649200
 C        79.726959      109.967041       37.753464
 H        80.031029      109.204285       37.033577
 C        80.593658      110.650284       38.622902
 H        81.496445      110.129181       39.089622
 C        80.105721      111.767807       39.267071
 H        80.805717      112.447403       39.574730
 C        78.786255      112.181015       39.021351
 H        78.432198      113.044273       39.468475
 C        72.158409      112.964951       34.230606
 C        72.584412      114.129669       33.591114
 N        73.211639      112.669525       35.163521
 C        74.291382      113.537659       35.069252
 N        73.887009      114.432114       34.062557
 C        74.939995      115.320160       33.569183
 C        76.116760      115.349701       34.369705
 C        77.135361      116.107506       33.897701
 H        78.069962      116.081299       34.432060
 C        77.094963      116.742722       32.654732
 H        77.845810      117.470749       32.408165
 C        75.914574      116.798744       31.911337
 H        76.001770      117.219337       30.908689
 C        74.824699      116.090576       32.346497
 H        73.938423      116.039871       31.837637
 C        71.712067      114.684311       32.638443
 H        72.011505      115.592270       32.158504
 C        70.477509      114.149887       32.322754
 H        69.894806      114.574242       31.538097
 C        70.030075      112.933067       32.998665
 H        68.978836      112.797958       33.202732
 C        70.935173      112.408195       33.928074
 H        70.734390      111.482864       34.400028
 C        72.912102      111.746597       36.226021
 C        73.567947      110.455338       36.206367
 H        74.462708      110.420586       35.590401
 C        73.386078      109.537369       37.221634
 H        73.962097      108.581017       37.139843
 C        72.483551      109.878448       38.227222
 H        72.204422      109.193695       39.098782
 C        71.803421      111.113899       38.218658
 H        71.065399      111.192024       38.986137
 C        72.006119      112.020699       37.196930
 H        71.535774      112.995636       37.416885
 C        79.026260      111.871582       33.366310
 C        79.762245      112.569717       34.191132
 N        77.664917      112.067673       33.639244
 C        77.504684      112.913467       34.740993
 N        78.810997      113.175003       35.109428
 C        79.007614      114.076584       36.165974
 C        77.934158      114.820854       36.574223
 C        78.098228      115.639336       37.684933
 H        77.309219      116.388565       37.902473
 C        79.235977      115.729668       38.409420
 H        79.328796      116.524628       39.191998
 C        80.247658      114.903534       38.067383
 H        81.089249      114.660255       38.738968
 C        80.198837      114.140869       36.906624
 H        81.038208      113.469772       36.778297
 C        81.210968      112.558426       34.019764
 H        81.901718      112.987427       34.746006
 C        81.724335      111.728714       32.975819
 H        82.808197      111.526443       32.794338
 C        80.896759      111.171997       32.013851
 H        81.247749      110.420395       31.348499
 C        79.511948      111.241570       32.259506
 H        78.819489      111.051971       31.454613
 C        76.610718      111.886810       32.628529
 C        75.607010      110.903305       32.811169
 H        75.855804      109.974182       33.361031
 C        74.328369      110.950653       32.137566
 H        73.534378      110.288345       32.471989
 C        74.149979      112.006317       31.255547
 H        73.143967      112.253288       30.898844
 C        75.130531      112.935257       31.030651
 H        75.010895      113.694443       30.354916
 C        76.356293      112.896599       31.658119
 H        77.127785      113.685394       31.496880
