206
 generated by VMD
 Ir       31.314724      -37.815956     -100.909134
 C        32.469864      -38.932556      -96.832497
 C        31.547367      -39.876320      -97.198425
 N        32.613499      -38.040588      -97.919304
 C        31.786987      -38.393517      -98.972122
 N        31.111519      -39.520702      -98.502335
 C        30.044113      -39.969360      -99.319138
 C        30.063707      -39.497879     -100.635307
 C        29.104042      -40.001030     -101.529053
 H        29.172623      -39.749466     -102.581917
 C        28.103851      -40.885937     -101.109818
 H        27.334839      -41.200241     -101.798904
 C        28.065712      -41.306793      -99.783989
 H        27.283052      -41.974686      -99.452980
 C        29.035915      -40.853493      -98.888260
 H        28.925901      -41.085892      -97.839417
 C        31.255629      -40.925674      -96.306274
 H        30.622408      -41.738960      -96.593513
 C        31.875845      -40.981419      -95.050163
 H        31.646053      -41.795467      -94.371765
 C        32.797775      -39.997772      -94.687271
 H        33.246140      -40.006187      -93.698792
 C        33.099628      -38.968353      -95.579727
 H        33.766418      -38.183434      -95.276093
 C        33.192051      -36.746521      -97.761909
 C        32.489418      -35.769753      -97.055420
 H        31.487741      -35.987442      -96.698830
 C        33.015305      -34.487206      -96.907715
 H        32.475086      -33.731419      -96.367020
 C        34.250008      -34.182976      -97.487946
 H        34.564606      -33.149876      -97.546478
 C        34.962467      -35.159752      -98.196259
 H        35.919640      -34.918343      -98.628067
 C        34.440231      -36.440750      -98.324356
 H        35.002075      -37.205730      -98.858154
 C        34.213394      -40.096672     -103.206635
 C        33.435600      -39.478546     -104.161606
 N        33.620575      -39.829700     -101.964584
 C        32.498085      -39.043045     -102.093369
 N        32.375458      -38.848495     -103.463226
 C        31.220310      -38.124176     -103.876869
 C        30.527905      -37.453178     -102.842056
 C        29.371471      -36.731087     -103.153259
 H        28.833767      -36.208290     -102.380371
 C        28.883564      -36.687637     -104.463631
 H        28.006615      -36.095833     -104.694107
 C        29.558132      -37.357861     -105.484985
 H        29.167072      -37.360191     -106.493477
 C        30.722427      -38.070759     -105.186165
 H        31.215477      -38.605850     -105.980377
 C        33.834610      -39.546211     -105.515968
 H        33.316177      -38.990032     -106.279640
 C        34.987663      -40.249634     -105.878967
 H        35.251930      -40.365410     -106.918793
 C        35.770927      -40.865437     -104.894592
 H        36.684772      -41.385521     -105.176544
 C        35.387794      -40.789345     -103.564247
 H        36.006912      -41.254250     -102.806107
 C        33.955517      -40.555851     -100.765663
 C        33.196930      -41.663193     -100.414612
 H        32.476524      -42.068001     -101.115791
 C        33.350533      -42.256638      -99.151627
 H        32.747959      -43.097889      -98.891434
 C        34.272266      -41.722801      -98.243042
 H        34.356102      -42.146950      -97.245712
 C        35.040684      -40.615456      -98.595932
 H        35.695068      -40.149284      -97.866913
 C        34.897057      -40.031982      -99.859978
 H        35.477722      -39.161598     -100.128601
 C        33.656693      -34.147388     -101.114388
 C        32.551353      -33.796501     -100.385544
 N        33.466812      -35.450073     -101.588272
 C        32.260677      -35.983704     -101.127869
 N        31.690332      -34.934822     -100.421082
 C        30.372913      -35.164711      -99.902756
 C        29.931282      -36.500877      -99.980278
 C        28.724102      -36.841888      -99.361465
 H        28.297892      -37.832985      -99.520126
 C        27.984676      -35.914192      -98.634048
 H        27.070621      -36.209999      -98.134552
 C        28.426449      -34.587990      -98.555771
 H        27.886087      -33.868210      -97.961182
 C        29.596273      -34.210201      -99.211349
 H        29.809341      -33.162579      -99.323563
 C        32.510609      -32.527504      -99.784485
 H        31.695591      -32.238754      -99.135345
 C        33.560036      -31.621685      -99.939072
 H        33.496330      -30.627396      -99.516068
 C        34.695290      -32.002483     -100.671112
 H        35.531830      -31.335949     -100.767189
 C        34.737724      -33.260738     -101.263138
 H        35.612408      -33.560905     -101.810242
 C        34.187019      -35.909473     -102.746994
 C        34.021885      -35.242367     -103.962646
 H        33.227753      -34.520081     -104.076019
 C        34.879257      -35.503044     -105.040161
 H        34.805214      -34.910080     -105.930222
 C        35.890404      -36.451546     -104.908485
 H        36.538185      -36.676796     -105.745773
 C        36.054001      -37.139366     -103.701118
 H        36.792389      -37.914604     -103.614014
 C        35.217827      -36.857975     -102.618973
 H        35.352806      -37.375725     -101.674774
 Ir       31.314726      -37.815956      -89.482620
 C        29.666904      -40.924286      -92.052345
 C        30.647823      -41.556355      -91.317703
 N        29.760052      -39.547363      -91.770370
 C        30.758221      -39.291138      -90.833679
 N        31.303673      -40.547928      -90.580795
 C        32.260155      -40.605316      -89.540146
 C        32.126541      -39.563885      -88.618164
 C        32.755753      -39.690189      -87.368347
 H        32.563927      -38.951828      -86.595222
 C        33.561279      -40.790466      -87.084396
 H        34.007416      -40.900127      -86.107910
 C        33.757675      -41.794346      -88.051643
 H        34.408974      -42.630852      -87.831261
 C        33.111046      -41.697174      -89.285713
 H        33.372810      -42.384911      -90.065643
 C        30.756313      -42.954571      -91.390656
 H        31.488239      -43.480164      -90.791550
 C        29.885422      -43.700005      -92.189957
 H        30.022518      -44.777634      -92.273140
 C        28.886520      -43.057190      -92.911888
 H        28.162882      -43.631393      -93.466446
 C        28.778034      -41.658974      -92.838943
 H        27.969273      -41.178581      -93.358971
 C        29.234993      -38.561020      -92.679024
 C        30.118149      -37.805244      -93.453964
 H        31.187061      -37.976089      -93.394485
 C        29.626659      -36.847267      -94.346222
 H        30.312176      -36.205608      -94.871338
 C        28.246681      -36.657356      -94.492172
 H        27.878357      -35.945427      -95.214447
 C        27.363529      -37.413132      -93.717224
 H        26.299116      -37.254581      -93.807182
 C        27.856842      -38.370338      -92.815170
 H        27.173550      -38.956726      -92.223427
 C        28.075014      -38.150169      -86.557968
 C        28.841867      -37.111256      -86.099182
 N        28.691864      -38.641808      -87.725533
 C        29.836288      -37.926292      -88.025589
 N        29.924564      -36.984459      -87.004379
 C        31.087315      -36.148335      -87.041924
 C        32.068550      -36.574532      -87.945763
 C        33.343662      -35.999077      -87.871384
 H        34.150124      -36.423531      -88.457191
 C        33.624359      -34.972939      -86.964050
 H        34.619598      -34.544033      -86.917847
 C        32.625431      -34.509956      -86.100632
 H        32.851707      -33.749329      -85.376450
 C        31.355927      -35.093056      -86.144844
 H        30.549335      -34.612656      -85.614449
 C        28.440006      -36.445484      -84.924164
 H        29.040337      -35.661240      -84.485687
 C        27.275938      -36.840889      -84.237656
 H        27.001535      -36.352451      -83.306999
 C        26.515553      -37.901291      -84.716362
 H        25.627052      -38.224686      -84.188835
 C        26.919092      -38.556324      -85.882339
 H        26.322548      -39.394966      -86.245804
 C        28.340073      -39.914677      -88.304276
 C        29.009207      -41.066254      -87.878677
 H        29.812937      -40.990456      -87.167007
 C        28.622562      -42.312988      -88.371384
 H        29.157703      -43.194695      -88.064606
 C        27.576622      -42.408146      -89.291519
 H        27.282467      -43.384045      -89.669785
 C        26.905663      -41.257347      -89.726913
 H        26.119770      -41.333920      -90.452042
 C        27.292305      -40.010612      -89.234207
 H        26.792559      -39.110508      -89.569427
 C        30.252453      -34.037159      -91.419968
 C        31.446236      -34.395596      -92.001419
 N        29.912956      -35.055832      -90.511139
 C        30.863453      -36.053505      -90.486725
 N        31.806940      -35.640678      -91.429443
 C        32.867737      -36.558014      -91.686951
 C        33.044052      -37.522087      -90.684570
 C        34.211235      -38.288902      -90.698303
 H        34.451157      -38.922523      -89.846085
 C        35.173309      -38.141491      -91.705116
 H        36.072495      -38.728844      -91.683167
 C        34.973965      -37.198902      -92.721916
 H        35.757050      -37.011414      -93.433342
 C        33.814651      -36.422890      -92.720581
 H        33.602821      -35.819958      -93.585800
 C        32.033783      -33.536446      -92.943787
 H        33.030041      -33.712227      -93.329498
 C        31.394829      -32.350311      -93.316513
 H        31.862556      -31.675844      -94.028152
 C        30.169867      -32.002617      -92.738602
 H        29.694258      -31.076382      -92.998764
 C        29.605488      -32.850250      -91.781059
 H        28.675348      -32.576996      -91.313332
 C        28.761284      -34.996296      -89.648636
 C        28.708273      -34.056011      -88.621429
 H        29.543352      -33.389282      -88.451996
 C        27.582310      -33.988056      -87.784782
 H        27.547356      -33.265759      -86.988564
 C        26.507671      -34.871128      -87.984383
 H        25.655190      -34.842377      -87.317932
 C        26.560682      -35.811413      -89.011581
 H        25.723637      -36.468948      -89.191589
 C        27.686646      -35.879368      -89.848236
 H        27.749125      -36.638447      -90.605865
