206
 generated by VMD
 Ir       25.513899      101.805290       33.638462
 C        25.739208      104.733871       37.013367
 C        26.618570      103.726128       37.283333
 N        25.063812      104.327965       35.781624
 C        25.575748      103.151901       35.299553
 N        26.536860      102.770950       36.198685
 C        27.323046      101.722748       35.871010
 C        26.998894      100.870132       34.814709
 C        27.798599       99.782227       34.418175
 H        27.399506       99.064880       33.699043
 C        28.912132       99.425125       35.144684
 H        29.472864       98.553162       34.918030
 C        29.266880      100.177048       36.276657
 H        30.259007      100.070389       36.843674
 C        28.505537      101.344681       36.599907
 H        28.802847      102.027863       37.362320
 C        27.464977      103.809357       38.450024
 H        28.023056      103.017387       38.920284
 C        27.287693      104.935242       39.298279
 H        27.854240      105.025284       40.230385
 C        26.383204      105.994431       39.032928
 H        26.233036      106.741257       39.791355
 C        25.526672      105.918198       37.884911
 H        24.957970      106.734604       37.517555
 C        23.719532      104.688812       35.555153
 C        22.752758      104.225098       36.457603
 H        22.930271      103.283813       36.975548
 C        21.432026      104.746185       36.371384
 H        20.613928      104.363808       36.959862
 C        21.105314      105.712257       35.436630
 H        20.067799      105.931961       35.247185
 C        22.126335      106.193619       34.546284
 H        21.790020      106.775673       33.701775
 C        23.421329      105.711113       34.625534
 H        24.218140      106.185913       34.039139
 C        28.611012      103.189812       30.884995
 C        27.829844      102.303299       30.166607
 N        28.123928      103.222710       32.177654
 C        26.961359      102.445847       32.298561
 N        26.833813      101.855942       31.052431
 C        26.121645      100.579033       31.031563
 C        25.461697      100.260628       32.222694
 C        24.901180       98.962769       32.329353
 H        24.323395       98.657738       33.190533
 C        25.132820       97.977600       31.313339
 H        24.708458       96.978485       31.365999
 C        25.885307       98.319519       30.168938
 H        25.821308       97.646210       29.288330
 C        26.302271       99.604340       29.989326
 H        26.736156       99.852982       29.103371
 C        27.952522      102.121246       28.791105
 H        27.233355      101.480408       28.271469
 C        28.921665      102.867950       28.126806
 H        29.101686      102.889328       27.049015
 C        29.798767      103.745262       28.841736
 H        30.509483      104.393158       28.240313
 C        29.642673      103.883957       30.215343
 H        30.293114      104.466019       30.864292
 C        28.963064      103.646584       33.277233
 C        30.153728      102.955383       33.533291
 H        30.421722      102.027039       33.056583
 C        31.003151      103.311455       34.578133
 H        31.894445      102.708847       34.708378
 C        30.652100      104.384445       35.373402
 H        31.209274      104.408897       36.335670
 C        29.421717      105.055634       35.167561
 H        29.044106      105.695541       35.944420
 C        28.580452      104.739426       34.069389
 H        27.602766      105.122849       34.092110
 C        22.007435      103.742073       31.784254
 C        21.442272      102.851822       32.673046
 N        23.459942      103.539734       31.699507
 C        23.880760      102.525879       32.596054
 N        22.558483      102.113441       33.158081
 C        22.644016      101.019501       33.988503
 C        23.903492      100.910797       34.690502
 C        24.015728      100.071747       35.814903
 H        24.785105      100.162292       36.589027
 C        22.931637       99.326317       36.207573
 H        22.986250       98.760101       37.118347
 C        21.721645       99.380074       35.520821
 H        20.829273       98.842072       35.966599
 C        21.545195      100.288055       34.426857
 H        20.600864      100.215729       33.840248
 C        20.071907      103.022385       33.039120
 H        19.809868      102.689583       34.087204
 C        19.260006      103.941696       32.388981
 H        18.192570      104.022903       32.518944
 C        19.861790      104.878799       31.523933
 H        19.223553      105.587540       31.046707
 C        21.237507      104.769058       31.202271
 H        21.707237      105.630524       30.808010
 C        24.299696      104.295822       30.833038
 C        25.403725      105.060242       31.290165
 H        25.403980      105.362236       32.344727
 C        26.275051      105.656097       30.366879
 H        26.896706      106.445572       30.735209
 C        26.037766      105.519104       28.977516
 H        26.634184      106.137619       28.319769
 C        24.991331      104.690353       28.554253
 H        24.671249      104.502518       27.519234
 C        24.167833      104.105164       29.445934
 H        23.544964      103.289948       29.054440
 Ir       25.513899      101.805298       43.298866
 C        27.657375      101.753159       47.120338
 C        26.359209      102.095879       47.498634
 N        27.765972      101.647186       45.730171
 C        26.461079      101.772072       45.142075
 N        25.594067      102.091278       46.266266
 C        24.255169      102.397186       45.988297
 C        23.937160      102.518738       44.592339
 C        22.622694      102.754639       44.166382
 H        22.394135      103.304153       43.274651
 C        21.554638      102.544678       45.111778
 H        20.501812      102.344330       44.776634
 C        21.859795      102.384537       46.456299
 H        21.081972      102.431580       47.221916
 C        23.135204      102.355728       46.896072
 H        23.341534      102.147797       47.910370
 C        26.008625      102.237732       48.904861
 H        25.065243      102.413734       49.216545
 C        27.035942      102.071014       49.856136
 H        26.843504      101.919739       50.906181
 C        28.303926      101.713058       49.461823
 H        29.165031      101.918594       50.103424
 C        28.625498      101.532440       48.134697
 H        29.502195      101.184280       47.819130
 C        28.986326      101.500130       45.043716
 C        29.272808      100.287689       44.303093
 H        28.490589       99.599495       44.184685
 C        30.565052      100.060913       43.856800
 H        30.808758       99.209908       43.252312
 C        31.599537      100.858055       44.263985
 H        32.641453      100.663475       43.959114
 C        31.384750      101.954727       45.017166
 H        32.199116      102.518555       45.461918
 C        30.061913      102.282196       45.387794
 H        29.894825      102.936417       46.241295
 C        23.880699       97.809647       42.831802
 C        23.409977       98.524002       41.752487
 N        24.419493       98.779816       43.746284
 C        24.419342      100.035095       43.207031
 N        23.632854       99.908676       42.024723
 C        23.397108      101.109940       41.281563
 C        24.314459      102.107185       41.550400
 C        24.013252      103.327026       40.850494
 H        24.527218      104.222900       41.158134
 C        22.934395      103.497055       39.993202
 H        22.859064      104.496948       39.551567
 C        22.045990      102.464722       39.753181
 H        21.069345      102.484833       39.151962
 C        22.345497      101.261238       40.478180
 H        21.560957      100.624153       40.708885
 C        22.806646       97.837158       40.664902
 H        22.527361       98.391281       39.770729
 C        22.794645       96.442017       40.660843
 H        22.138554       95.945389       40.003647
 C        23.352901       95.733704       41.694313
 H        23.442894       94.666519       41.622864
 C        23.838520       96.399261       42.811729
 H        24.322788       95.762589       43.510544
 C        24.463921       98.524368       45.167191
 C        25.707405       98.752808       45.771889
 H        26.672081       98.882538       45.266346
 C        25.695312       98.672836       47.182190
 H        26.535175       99.020042       47.753929
 C        24.540903       98.220703       47.908974
 H        24.526676       98.176163       49.021049
 C        23.384050       97.991310       47.223068
 H        22.574409       97.502533       47.722054
 C        23.332399       98.098122       45.794945
 H        22.435116       97.919403       45.177254
 C        28.936707      100.892639       40.713737
 C        29.148289      102.215042       41.185211
 N        27.685150      100.516739       41.145142
 C        27.103579      101.534286       41.996834
 N        28.032124      102.563477       41.970627
 C        27.702036      103.665680       42.835938
 C        26.363377      103.730957       43.205032
 C        25.837025      104.939728       43.720604
 H        24.828472      105.148956       43.524010
 C        26.737087      106.009552       43.952927
 H        26.374544      107.004761       44.144520
 C        28.092239      105.895042       43.680801
 H        28.669678      106.561432       44.162239
 C        28.609144      104.779968       43.087578
 H        29.628811      104.669220       43.156975
 C        30.336924      102.924438       40.723473
 H        30.608154      103.928757       41.035675
 C        31.082956      102.366211       39.655243
 H        31.813047      103.090004       39.244774
 C        30.792927      101.109222       39.175678
 H        31.428499      100.775208       38.408165
 C        29.726070      100.382370       39.736740
 H        29.556538       99.406494       39.249474
 C        26.952232       99.291794       40.670544
 C        27.333990       98.107391       41.197376
 H        28.098648       98.174606       41.902695
 C        26.899651       96.909958       40.633369
 H        27.179768       96.004105       41.011620
 C        26.004791       96.943604       39.546638
 H        25.683449       96.049515       38.967903
 C        25.535213       98.127846       39.041870
 H        25.019543       98.112762       38.136086
 C        26.097237       99.260025       39.533501
 H        25.946297      100.188614       38.890121
