206
 generated by VMD
 Ir      115.736374       74.785141       13.664196
 C       111.768402       73.743484       15.344043
 C       111.874649       73.088898       14.126160
 N       113.000580       74.487213       15.443547
 C       113.931000       74.236343       14.431028
 N       113.205414       73.274567       13.639627
 C       114.130821       72.365646       12.883137
 C       115.353821       73.008682       12.512349
 C       116.279984       72.240211       11.794242
 H       117.106728       72.827484       11.619613
 C       116.041237       70.957779       11.348619
 H       116.779465       70.418640       10.738174
 C       114.849205       70.319656       11.768571
 H       114.533875       69.247360       11.498677
 C       113.893311       71.033188       12.500723
 H       112.877655       70.670319       12.733267
 C       110.693092       72.671555       13.545190
 H       110.660683       72.514015       12.397527
 C       109.515366       72.648087       14.185589
 H       108.586243       72.422226       13.727522
 C       109.430511       73.189140       15.474568
 H       108.469528       73.183586       15.946149
 C       110.552444       73.829346       16.074900
 H       110.603867       73.923676       17.172150
 C       113.424423       75.042282       16.660908
 C       113.368546       74.398506       17.897449
 H       113.197784       73.405716       17.860106
 C       113.512192       75.125130       19.107357
 H       113.160782       74.760529       20.062803
 C       113.721268       76.497345       19.058250
 H       114.007874       77.055862       19.906078
 C       113.776718       77.142937       17.799423
 H       113.775208       78.230606       17.722219
 C       113.654541       76.405670       16.664520
 H       113.317513       76.948288       15.795395
 C       118.619843       71.892334       15.350842
 C       119.343567       72.650810       14.510048
 N       117.350777       72.490707       15.411014
 C       117.223526       73.577019       14.528334
 N       118.513847       73.706192       14.020025
 C       118.716400       74.761673       13.123900
 C       117.464828       75.268723       12.543484
 C       117.596283       76.288452       11.591972
 H       116.716675       76.697250       11.108470
 C       118.870926       76.821327       11.305427
 H       119.005470       77.523041       10.511894
 C       120.014236       76.401337       11.975848
 H       121.051636       76.815231       11.832314
 C       119.951996       75.335487       12.886339
 H       120.862671       74.998459       13.424463
 C       120.679260       72.250473       14.276257
 H       121.393333       72.956734       13.965444
 C       121.116997       71.001785       14.668390
 H       122.111069       70.594986       14.355471
 C       120.221252       70.166626       15.407547
 H       120.410110       69.089867       15.347352
 C       118.968269       70.622910       15.778930
 H       118.279022       69.977234       16.336548
 C       116.246384       72.035965       16.221209
 C       115.304474       71.265396       15.620179
 H       115.303619       70.989143       14.551966
 C       114.399750       70.574051       16.411648
 H       113.881165       69.744362       15.977043
 C       114.396507       70.713409       17.782913
 H       113.608337       70.233826       18.396420
 C       115.359261       71.516357       18.426571
 H       115.500504       71.674164       19.513788
 C       116.312927       72.158211       17.580742
 H       117.340950       72.312302       17.981651
 C       116.373199       78.191872       16.057190
 C       115.712852       78.699280       15.020965
 N       116.638306       76.857040       15.803897
 C       116.294739       76.538589       14.599805
 N       115.624260       77.686752       14.069369
 C       114.861115       77.532852       12.891390
 C       114.594055       76.198570       12.531844
 C       113.724243       75.918678       11.525175
 H       113.378311       74.853378       11.225036
 C       113.109680       76.935760       10.785479
 H       112.345444       76.704269       10.063438
 C       113.395218       78.294426       11.065874
 H       112.757339       79.045807       10.668455
 C       114.267273       78.609795       12.187593
 H       114.516922       79.683464       12.167170
 C       115.174240       79.945786       15.097360
 H       114.836510       80.486855       14.192217
 C       115.327545       80.682785       16.289978
 H       115.168716       81.723511       16.351131
 C       115.949341       80.200745       17.400837
 H       116.434402       80.747620       18.167545
 C       116.507111       78.863556       17.280758
 H       116.913628       78.394806       18.123142
 C       117.456558       76.098022       16.731224
 C       118.843628       76.064362       16.566765
 H       119.257751       76.659836       15.750120
 C       119.673203       75.591431       17.562111
 H       120.740051       75.612717       17.390436
 C       119.106140       75.128044       18.742580
 H       119.731987       74.760628       19.548569
 C       117.740494       75.223099       18.978958
 H       117.318260       74.942741       19.893297
 C       116.910904       75.696037       17.983608
 H       115.939430       75.478630       17.917505
 Ir      115.736374       74.785141       26.472574
 C       112.762650       74.677094       23.236687
 C       112.832497       73.388474       23.740452
 N       113.796310       75.404358       23.926634
 C       114.395477       74.583389       24.902550
 N       113.842583       73.366455       24.760118
 C       114.633255       72.293694       25.298851
 C       115.621109       72.680382       26.204229
 C       116.334343       71.668747       26.875126
 H       116.891502       71.892700       27.748693
 C       116.058647       70.315277       26.585985
 H       116.507927       69.428085       27.056778
 C       115.110184       69.935593       25.648998
 H       114.590599       69.036850       25.675510
 C       114.377625       70.926483       25.012688
 H       113.899773       70.606659       24.102818
 C       111.923340       72.426880       23.280260
 H       111.774467       71.532410       23.851892
 C       110.865326       72.700516       22.367342
 H       110.287216       71.891289       21.958008
 C       110.904556       74.028793       21.815319
 H       110.258255       74.223106       20.986622
 C       111.823738       75.012680       22.277134
 H       111.745110       76.018028       21.835684
 C       114.286926       76.722000       23.441223
 C       115.357811       76.724823       22.451170
 H       115.923233       75.846100       22.211304
 C       115.705872       77.959045       21.836073
 H       116.542419       77.974243       21.138826
 C       115.112228       79.180351       22.167294
 H       115.589775       80.119026       22.037151
 C       114.099960       79.196716       23.085964
 H       113.665558       80.124924       23.376682
 C       113.712280       77.974411       23.720760
 H       112.844193       77.983597       24.339832
 C       112.880493       74.330841       29.785330
 C       114.072266       74.823593       30.376745
 N       113.113678       74.191483       28.409575
 C       114.427605       74.547890       28.085413
 N       115.042465       74.883179       29.352901
 C       116.462341       75.030640       29.332737
 C       117.058449       74.623032       28.103016
 C       118.457397       74.460297       28.035490
 H       118.819183       74.065056       27.098581
 C       119.278503       74.829056       29.108711
 H       120.313858       74.955322       28.860949
 C       118.712524       75.267502       30.344845
 H       119.386795       75.732239       31.069736
 C       117.283600       75.277596       30.413956
 H       116.912315       75.598976       31.376436
 C       114.018715       75.148239       31.732712
 H       114.828285       75.699844       32.215221
 C       112.885094       75.008873       32.582695
 H       113.026230       75.099831       33.664455
 C       111.751831       74.526764       31.914709
 H       110.821114       74.407959       32.398891
 C       111.726364       74.148712       30.609781
 H       110.847382       73.684433       30.158195
 C       111.994751       74.271545       27.450624
 C       111.191757       75.375046       27.305084
 H       111.536133       76.348099       27.525917
 C       109.928238       75.311462       26.624453
 H       109.401352       76.206665       26.277000
 C       109.430542       74.056236       26.235476
 H       108.509903       73.971375       25.698997
 C       110.234337       72.904526       26.421938
 H       109.862442       71.831398       26.328106
 C       111.585037       73.020226       26.957026
 H       112.188057       72.127670       27.105740
 C       116.523026       79.047699       26.293663
 C       117.272758       78.562035       25.247549
 N       116.017059       78.006775       27.017384
 C       116.395493       76.785019       26.421055
 N       117.265808       77.122421       25.403893
 C       117.801849       76.125900       24.683756
 C       117.317993       74.862198       25.002897
 C       117.775085       73.740234       24.336889
 H       117.437790       72.710594       24.479303
 C       118.664093       73.872147       23.253216
 H       118.919510       73.107307       22.503620
 C       119.197311       75.120552       22.900444
 H       119.963043       75.219986       22.162092
 C       118.821114       76.261169       23.611277
 H       119.398209       77.143349       23.456629
 C       117.795807       79.529915       24.373919
 H       118.156792       79.241196       23.396355
 C       117.629379       80.928513       24.558689
 H       118.004242       81.642136       23.779388
 C       117.022202       81.380966       25.733944
 H       117.169037       82.442612       26.082550
 C       116.417900       80.440826       26.544106
 H       115.732758       80.778580       27.312098
 C       115.392624       78.304214       28.332907
 C       116.205421       78.199234       29.493263
 H       117.274323       78.238899       29.426266
 C       115.589920       78.330582       30.754656
 H       116.138298       78.271271       31.690536
 C       114.261246       78.671608       30.835367
 H       113.790314       78.538429       31.816530
 C       113.439682       78.726562       29.738417
 H       112.401505       78.979996       29.842205
 C       113.985550       78.490509       28.496759
 H       113.348862       78.497986       27.648129
