206
 generated by VMD
  IR        42.970001       40.480000       27.510000
  C1        44.320000       36.470001       26.469999
  C2        43.299999       36.680000       25.610001
  N1        44.520000       37.660000       27.240000
  C3a       43.580002       38.630001       26.870001
  N2        42.750000       38.009998       25.920000
  C4        41.680000       38.750000       25.430000
  C5a       41.509998       39.980000       26.110001
  C6        40.389999       40.750000       25.870001
  H1        40.240002       41.619999       26.430000
  C7        39.500000       40.369999       24.840000
  H2        38.720001       41.099998       24.590000
  C8        39.639999       39.180000       24.129999
  H3        38.889999       38.880001       23.440001
  C9        40.740002       38.380001       24.450001
  H4        41.040001       37.639999       23.680000
  C10       43.009998       35.650002       24.700001
  H5        42.169998       35.799999       24.010000
  C11       43.650002       34.419998       24.740000
  H6        43.480000       33.830002       23.840000
  C12       44.580002       34.220001       25.709999
  H7        45.020000       33.259998       25.809999
  C13       44.990002       35.230000       26.600000
  H8        45.790001       34.959999       27.260000
  C6        45.529999       37.700001       28.330000
  C1        46.660000       38.310001       28.100000
  H1        46.759998       38.970001       27.240000
  C2        47.759998       38.160000       28.990000
  H2        48.650002       38.720001       28.820000
  C3        47.680000       37.340000       30.110001
  H3        48.590000       37.060001       30.610001
  C4        46.470001       36.680000       30.309999
  H4        46.119999       36.230000       31.219999
  C5        45.360001       36.889999       29.469999
  H5        44.490002       36.230000       29.660000
  C1        45.139999       42.840000       24.620001
  C2        44.290001       43.799999       25.280001
  N1        44.740002       41.610001       25.070000
  C3b       43.830002       41.669998       26.080000
  N2        43.570000       43.099998       26.200001
  C4        42.680000       43.439999       27.320000
  C5b       42.119999       42.310001       27.980000
  C6        41.099998       42.580002       28.900000
  H1        40.910000       41.860001       29.700001
  C7        40.630001       43.860001       29.209999
  H2        39.779999       43.919998       29.790001
  C8        41.250000       44.970001       28.520000
  H3        41.130001       45.970001       28.910000
  C9        42.240002       44.680000       27.559999
  H4        42.480000       45.410000       26.840000
  C10       44.389999       45.160000       24.920000
  H5        43.549999       45.770000       25.110001
  C11       45.349998       45.529999       24.010000
  H6        45.299999       46.529999       23.620001
  C12       46.209999       44.650002       23.379999
  H7        47.060001       44.939999       22.719999
  C13       46.130001       43.279999       23.740000
  H8        46.900002       42.650002       23.360001
  C6        45.209999       40.410000       24.420000
  C1        46.540001       39.959999       24.600000
  H1        47.290001       40.540001       25.180000
  C2        47.080002       38.810001       23.969999
  H2        48.040001       38.400002       24.330000
  C3        46.299999       38.020000       23.120001
  H3        46.650002       37.099998       22.709999
  C4        44.970001       38.369999       22.950001
  H4        44.299999       37.700001       22.330000
  C5        44.480000       39.590000       23.540001
  H5        43.490002       39.959999       23.330000
  C1        46.189999       40.970001       30.440001
  C2        45.259998       40.160000       31.150000
  N1        45.599998       41.400002       29.230000
  C3c       44.340000       40.830002       29.049999
  N2        44.080002       40.130001       30.240000
  C4        42.840000       39.529999       30.320000
  C5c       42.090000       39.500000       29.160000
  C6        40.799999       38.990002       29.200001
  H1        40.150002       39.119999       28.340000
  C7        40.200001       38.520000       30.379999
  H2        39.310001       37.950001       30.190001
  C8        40.930000       38.549999       31.520000
  H3        40.480000       38.060001       32.349998
  C9        42.230000       39.060001       31.590000
  H4        42.740002       39.119999       32.540001
  C10       45.529999       39.689999       32.459999
  H5        45.009998       38.840000       32.869999
  C11       46.700001       40.040001       33.099998
  H6        46.959999       39.509998       34.060001
  C12       47.610001       40.820000       32.389999
  H7        48.380001       41.209999       32.970001
  C13       47.380001       41.290001       31.059999
  H8        48.130001       41.779999       30.480000
  C6        45.990002       42.560001       28.610001
  C1        45.500000       43.669998       29.139999
  H1        44.790001       43.619999       29.940001
  C2        45.910000       44.950001       28.700001
  H2        45.470001       45.869999       29.030001
  C3        46.820000       45.070000       27.629999
  H3        46.919998       46.000000       27.090000
  C4        47.410000       43.930000       27.059999
  H4        48.160000       44.049999       26.320000
  C5        47.000000       42.650002       27.590000
  H5        47.430000       41.730000       27.160000
  IR        34.549999       36.869999       28.840000
  C1        37.180000       37.820000       32.180000
  C2        36.990002       36.480000       32.259998
  N1        36.549999       38.279999       30.930000
  C3a       35.950001       37.220001       30.370001
  N2        36.189999       36.150002       31.190001
  C4        35.320000       34.970001       30.940001
  C5a       34.270000       35.209999       30.110001
  C6        33.209999       34.279999       30.010000
  H1        32.299999       34.580002       29.570000
  C7        33.360001       33.060001       30.580000
  H2        32.549999       32.389999       30.540001
  C8        34.450001       32.730000       31.379999
  H3        34.430000       31.840000       32.049999
  C9        35.430000       33.700001       31.600000
  H4        36.360001       33.389999       31.950001
  C10       37.650002       35.740002       33.230000
  H5        37.650002       34.630001       33.259998
  C11       38.509998       36.330002       34.200001
  H6        38.849998       35.680000       35.070000
  C12       38.580002       37.689999       34.220001
  H7        39.150002       38.310001       34.930000
  C13       37.910000       38.439999       33.150002
  H8        37.910000       39.529999       33.080002
  C6        37.029999       39.450001       30.190001
  C1        37.360001       39.369999       28.790001
  H1        37.290001       38.430000       28.280001
  C2        37.509998       40.540001       28.110001
  H2        37.880001       40.490002       27.100000
  C3        37.349998       41.770000       28.719999
  H3        37.380001       42.680000       28.150000
  C4        37.029999       41.880001       30.040001
  H4        37.009998       42.849998       30.549999
  C5        36.910000       40.709999       30.809999
  H5        36.939999       40.840000       31.900000
  C1        36.740002       34.509998       25.889999
  C2        35.450001       34.419998       25.549999
  N1        36.759998       35.230000       27.150000
  C3b       35.470001       35.509998       27.620001
  N2        34.700001       35.009998       26.610001
  C4        33.299999       35.310001       26.719999
  C5b       32.970001       36.310001       27.600000
  C6        31.629999       36.740002       27.570000
  H1        31.320000       37.560001       28.190001
  C7        30.670000       36.130001       26.790001
  H2        29.709999       36.599998       26.950001
  C8        30.969999       34.970001       26.059999
  H3        30.330000       34.220001       25.740000
  C9        32.349998       34.619999       25.959999
  H4        32.570000       33.639999       25.690001
  C10       35.119999       33.840000       24.320000
  H5        34.119999       33.980000       23.969999
  C11       36.080002       33.310001       23.490000
  H6        35.730000       32.810001       22.600000
  C12       37.419998       33.360001       23.860001
  H7        38.189999       33.070000       23.129999
  C13       37.720001       33.919998       25.129999
  H8        38.759998       33.849998       25.520000
  C6        37.950001       35.570000       27.900000
  C1        38.959999       36.189999       27.209999
  H1        38.779999       36.590000       26.209999
  C2        40.290001       36.049999       27.639999
  H2        40.959999       36.830002       27.320000
  C3        40.619999       35.279999       28.730000
  H3        41.540001       35.340000       29.270000
  C4        39.570000       34.700001       29.430000
  H4        39.889999       34.250000       30.320000
  C5        38.259998       34.779999       29.000000
  H5        37.560001       34.110001       29.430000
  C1        34.369999       40.459999       26.420000
  C2        33.779999       40.810001       27.580000
  N1        34.799999       39.070000       26.520000
  C3c       34.480000       38.590000       27.709999
  N2        33.930000       39.709999       28.420000
  C4        33.490002       39.400002       29.780001
  C5c       33.270000       38.080002       30.000000
  C6        32.470001       37.639999       31.049999
  H1        32.110001       36.619999       31.020000
  C7        31.980000       38.570000       32.040001
  H2        31.469999       38.299999       32.919998
  C8        32.299999       39.900002       31.910000
  H3        32.230000       40.459999       32.810001
  C9        32.990002       40.320000       30.760000
  H4        33.119999       41.360001       30.690001
  C10       33.240002       42.060001       27.680000
  H5        32.799999       42.330002       28.660000
  C11       33.330002       43.090000       26.670000
  H6        33.060001       44.070000       26.940001
  C12       33.970001       42.709999       25.469999
  H7        33.950001       43.360001       24.549999
  C13       34.490002       41.419998       25.370001
  H8        34.840000       41.049999       24.370001
  C6        35.139999       38.320000       25.379999
  C1        34.130001       37.860001       24.500000
  H1        33.099998       37.849998       24.900000
  C2        34.520000       37.160000       23.350000
  H2        33.770000       36.820000       22.620001
  C3        35.880001       36.980000       23.100000
  H3        36.180000       36.880001       22.049999
  C4        36.849998       37.389999       24.020000
  H4        37.919998       37.160000       23.870001
  C5        36.439999       38.099998       25.110001
  H5        37.209999       38.419998       25.709999
