206
 generated by VMD
  IR        51.459999       32.430000       16.490000
  C1        47.669998       34.070000       15.240000
  C2        47.340000       32.799999       15.740000
  N1        49.080002       34.080002       15.120000
  C3a       49.680000       32.990002       15.550000
  N2        48.630001       32.169998       15.960000
  C4        48.970001       30.870001       16.549999
  C5a       50.230000       30.840000       17.139999
  C6        50.560001       29.670000       17.790001
  H1        51.560001       29.540001       18.219999
  C7        49.689999       28.570000       17.889999
  H2        49.810001       27.700001       18.610001
  C8        48.459999       28.620001       17.270000
  H3        47.849998       27.750000       17.100000
  C9        48.110001       29.809999       16.600000
  H4        47.189999       29.780001       16.030001
  C10       46.070000       32.560001       16.010000
  H5        45.880001       31.660000       16.480000
  C11       45.040001       33.419998       15.700000
  H6        44.020000       33.189999       15.940000
  C12       45.380001       34.669998       15.160000
  H7        44.610001       35.389999       14.950000
  C13       46.700001       35.040001       14.960000
  H8        46.910000       36.110001       14.750000
  C6        49.720001       35.139999       14.390000
  C1        50.500000       36.080002       15.110000
  H1        50.790001       35.830002       16.190001
  C2        50.900002       37.240002       14.450000
  H2        51.570000       37.900002       14.900000
  C3        50.570000       37.410000       13.100000
  H3        50.619999       38.389999       12.720000
  C4        49.830002       36.450001       12.360000
  H4        49.730000       36.540001       11.290000
  C5        49.430000       35.299999       13.000000
  H5        48.680000       34.639999       12.710000
  C1        50.849998       34.730000       20.110001
  C2        52.099998       34.150002       20.270000
  N1        50.270000       34.150002       19.000000
  C3b       51.070000       33.200001       18.350000
  N2        52.209999       33.150002       19.240000
  C4        53.180000       32.180000       18.920000
  C5b       53.110001       31.700001       17.590000
  C6        54.070000       30.730000       17.230000
  H1        54.090000       30.530001       16.150000
  C7        55.049999       30.200001       18.160000
  H2        55.560001       29.309999       17.920000
  C8        55.029999       30.629999       19.450001
  H3        55.700001       30.240000       20.190001
  C9        54.119999       31.590000       19.820000
  H4        54.230000       32.040001       20.799999
  C10       53.029999       34.599998       21.180000
  H5        53.980000       34.060001       21.309999
  C11       52.709999       35.650002       22.030001
  H6        53.470001       36.049999       22.730000
  C12       51.419998       36.250000       22.040001
  H7        51.060001       36.990002       22.790001
  C13       50.470001       35.740002       21.080000
  H8        49.470001       36.180000       21.110001
  C6        48.849998       34.230000       18.900000
  C1        48.250000       35.389999       18.490000
  H1        48.779999       36.209999       17.990000
  C2        46.930000       35.650002       18.760000
  H2        46.439999       36.520000       18.290001
  C3        46.090000       34.740002       19.350000
  H3        45.009998       34.959999       19.629999
  C4        46.639999       33.500000       19.670000
  H4        46.070000       32.730000       20.219999
  C5        48.009998       33.209999       19.370001
  H5        48.349998       32.259998       19.200001
  C1        54.020000       35.360001       14.490000
  C2        53.720001       34.349998       13.610000
  N1        53.500000       34.900002       15.750000
  C3c       52.889999       33.700001       15.650000
  N2        53.090000       33.320000       14.350000
  C4        52.950001       31.990000       14.100000
  C5c       51.880001       31.400000       14.710000
  C6        51.480000       30.090000       14.420000
  H1        50.590000       29.660000       14.770000
  C7        52.189999       29.370001       13.470000
  H2        51.980000       28.379999       13.230000
  C8        53.279999       29.959999       12.820000
  H3        53.930000       29.330000       12.290000
  C9        53.619999       31.240000       13.100000
  H4        54.470001       31.590000       12.600000
  C10       54.049999       34.310001       12.220000
  H5        53.410000       33.770000       11.510000
  C11       54.619999       35.490002       11.700000
  H6        55.279999       35.470001       10.850000
  C12       54.759998       36.619999       12.540000
  H7        55.290001       37.570000       12.170000
  C13       54.529999       36.590000       13.890000
  H8        55.070000       37.250000       14.550000
  C6        54.169998       35.169998       16.930000
  C1        53.709999       36.160000       17.760000
  H1        52.830002       36.630001       17.450001
  C2        54.369999       36.500000       18.920000
  H2        54.139999       37.330002       19.570000
  C3        55.470001       35.740002       19.320000
  H3        55.770000       35.700001       20.360001
  C4        55.980000       34.770000       18.510000
  H4        57.040001       34.459999       18.629999
  C5        55.340000       34.450001       17.280001
  H5        55.730000       33.639999       16.700001
  IR        51.020000       30.559999        5.290000
  C1        48.580002       31.510000        8.760000
  C2        49.849998       31.440001        9.260000
  N1        48.630001       31.110001        7.390000
  C3a       49.959999       30.940001        7.020000
  N2        50.720001       31.030001        8.210000
  C4        52.180000       31.139999        8.010000
  C5a       52.619999       30.820000        6.670000
  C6        53.980000       30.959999        6.410000
  H1        54.209999       30.920000        5.370000
  C7        54.869999       31.270000        7.470000
  H2        55.910000       31.200001        7.370000
  C8        54.430000       31.420000        8.770000
  H3        55.130001       31.520000        9.590000
  C9        53.049999       31.400000        9.060000
  H4        52.810001       31.559999       10.070000
  C10       50.049999       31.670000       10.540000
  H5        50.970001       31.490000       11.040000
  C11       49.020000       32.099998       11.370000
  H6        49.220001       32.340000       12.420000
  C12       47.740002       32.169998       10.930000
  H7        47.049999       32.669998       11.560000
  C13       47.439999       31.820000        9.570000
  H8        46.389999       31.670000        9.290000
  C6        47.450001       30.730000        6.630000
  C1        46.950001       31.620001        5.710000
  H1        47.500000       32.610001        5.690000
  C2        45.770000       31.320000        5.020000
  H2        45.450001       32.000000        4.270000
  C3        45.099998       30.059999        5.240000
  H3        44.500000       29.620001        4.420000
  C4        45.660000       29.160000        6.200000
  H4        45.310001       28.160000        6.230000
  C5        46.840000       29.459999        6.840000
  H5        47.330002       28.680000        7.370000
  C1        51.639999       34.500000        3.870000
  C2        52.400002       33.750000        2.970000
  N1        51.230000       33.700001        4.960000
  C3b       51.540001       32.400002        4.630000
  N2        52.290001       32.410000        3.430000
  C4        52.810001       31.180000        2.980000
  C5b       52.369999       30.070000        3.730000
  C6        52.889999       28.780001        3.480000
  H1        52.270000       27.900000        3.690000
  C7        53.900002       28.620001        2.500000
  H2        54.369999       27.680000        2.460000
  C8        54.369999       29.709999        1.840000
  H3        55.340000       29.629999        1.510000
  C9        53.799999       30.959999        2.040000
  H4        54.279999       31.840000        1.600000
  C10       53.000000       34.330002        1.880000
  H5        53.349998       33.650002        1.090000
  C11       52.849998       35.660000        1.600000
  H6        53.520000       36.080002        0.890000
  C12       52.040001       36.480000        2.390000
  H7        51.730000       37.389999        1.960000
  C13       51.470001       35.880001        3.550000
  H8        51.000000       36.549999        4.260000
  C6        51.259998       34.189999        6.350000
  C1        52.500000       34.240002        6.980000
  H1        53.380001       33.799999        6.520000
  C2        52.520000       34.630001        8.280000
  H2        53.400002       34.650002        8.890000
  C3        51.330002       34.919998        9.010000
  H3        51.389999       34.750000       10.060000
  C4        50.090000       35.070000        8.320000
  H4        49.310001       35.540001        8.830000
  C5        50.099998       34.639999        6.990000
  H5        49.419998       34.930000        6.250000
  C1        47.660000       29.510000        2.750000
  C2        47.910000       28.350000        3.350000
  N1        48.709999       30.340000        2.960000
  C3c       49.639999       29.860001        3.890000
  N2        49.080002       28.620001        4.220000
  C4        49.840000       27.860001        5.120000
  C5c       50.820000       28.580000        5.850000
  C6        51.730000       27.840000        6.640000
  H1        52.520000       28.309999        7.110000
  C7        51.599998       26.500000        6.860000
  H2        52.200001       25.900000        7.500000
  C8        50.580002       25.799999        6.170000
  H3        50.639999       24.719999        6.330000
  C9        49.709999       26.480000        5.340000
  H4        49.200001       25.959999        4.650000
  C10       46.950001       27.309999        3.270000
  H5        47.049999       26.340000        3.840000
  C11       45.779999       27.480000        2.470000
  H6        45.080002       26.660000        2.330000
  C12       45.529999       28.690001        1.880000
  H7        44.740002       28.719999        1.170000
  C13       46.459999       29.730000        2.040000
  H8        46.259998       30.690001        1.580000
  C6        48.880001       31.450001        2.120000
  C1        49.950001       31.500000        1.220000
  H1        50.540001       30.590000        1.020000
  C2        50.290001       32.740002        0.620000
  H2        51.310001       32.830002        0.250000
  C3        49.639999       33.910000        0.880000
  H3        49.910000       34.900002        0.530000
  C4        48.650002       33.860001        1.870000
  H4        48.160000       34.720001        2.260000
  C5        48.250000       32.669998        2.400000
  H5        47.459999       32.730000        3.110000
