206
 generated by VMD
 Ir      106.416389       97.470413        5.889044
 C       103.087555      100.047043        4.737148
 C       102.870255       98.831459        4.076216
 N       104.249100       99.881783        5.384678
 C       104.834259       98.653221        5.211376
 N       104.022873       98.080872        4.277634
 C       104.681107       97.008118        3.527018
 C       105.622070       96.311646        4.348494
 C       106.191132       95.191811        3.710732
 H       107.059326       94.649643        4.167797
 C       105.901108       94.705704        2.434418
 H       106.099411       93.700607        2.085033
 C       105.051003       95.445084        1.614893
 H       105.007240       95.284599        0.569700
 C       104.420830       96.597336        2.129299
 H       104.010040       97.354546        1.474638
 C       101.712410       98.655396        3.280401
 H       101.257950       97.704880        3.271917
 C       100.869141       99.708481        2.982557
 H       100.139969       99.589989        2.229513
 C       101.071136      100.939240        3.612911
 H       100.821182      101.824738        3.153879
 C       102.157059      101.110100        4.540258
 H       102.318588      102.026764        5.044870
 C       104.668228      100.971268        6.238409
 C       104.136650      100.971169        7.521502
 H       103.329987      100.333244        7.811760
 C       104.448257      102.119781        8.288366
 H       104.037987      102.075089        9.259697
 C       105.140282      103.218246        7.767342
 H       105.549217      103.932388        8.433435
 C       105.602844      103.204224        6.472569
 H       105.803444      104.074493        5.920952
 C       105.417397      102.040955        5.739885
 H       105.833572      101.898232        4.669357
 C       104.294746       94.663132        8.423384
 C       105.627174       94.323433        8.640482
 N       104.202316       95.776718        7.553905
 C       105.452972       96.076950        7.086329
 N       106.364021       95.144379        7.779497
 C       107.808792       95.333176        7.489674
 C       108.029678       96.174484        6.374012
 C       109.353821       96.159592        5.827744
 H       109.580719       96.832993        5.050856
 C       110.378471       95.386116        6.444853
 H       111.366692       95.463409        6.034069
 C       110.205887       94.676727        7.637741
 H       110.879379       94.050278        8.045860
 C       108.890839       94.679565        8.127687
 H       108.778709       94.295685        9.134598
 C       105.968239       93.281029        9.538467
 H       107.023567       93.157990        9.589811
 C       105.011597       92.619690       10.255177
 H       105.296204       91.737877       10.813122
 C       103.695404       92.979813       10.062963
 H       102.930832       92.562363       10.719444
 C       103.361359       93.981369        9.121586
 H       102.403107       94.526314        9.158972
 C       102.997139       96.214706        6.988310
 C       102.517578       95.530273        5.881844
 H       103.143898       94.940674        5.265894
 C       101.142349       95.812347        5.490824
 H       100.692162       95.255753        4.766582
 C       100.432388       96.811272        6.122814
 H        99.424026       97.155121        5.843575
 C       100.980965       97.561630        7.178383
 H       100.394890       98.163284        7.858627
 C       102.347488       97.272751        7.560574
 H       102.915466       97.751366        8.308125
 C       107.788971      100.474052        8.552181
 C       108.299591      100.825394        7.336105
 N       107.208633       99.203156        8.382408
 C       107.356049       98.767281        7.157183
 N       108.053963       99.730133        6.474375
 C       108.322342       99.547035        5.127581
 C       107.528252       98.566513        4.525501
 C       107.917175       98.169342        3.247578
 H       107.217735       97.690277        2.686621
 C       109.064896       98.567413        2.602139
 H       109.454895       98.123756        1.630867
 C       109.984634       99.427025        3.241539
 H       110.956711       99.469765        2.805355
 C       109.565254      100.017319        4.457216
 H       110.223495      100.795197        4.771757
 C       108.972954      102.068420        7.118486
 H       109.376968      102.408859        6.185820
 C       109.199478      102.805756        8.286360
 H       109.732788      103.734749        8.120430
 C       108.776794      102.367020        9.585077
 H       109.248856      102.797005       10.487335
 C       107.996674      101.246971        9.711166
 H       107.568909      101.011749       10.665411
 C       106.658958       98.349266        9.401447
 C       105.332710       98.492783        9.522095
 H       104.836060       99.312363        9.085241
 C       104.684647       97.773422       10.523066
 H       103.695351       97.414337       10.313936
 C       105.366821       97.097946       11.504181
 H       104.895844       96.632904       12.349712
 C       106.718140       96.865936       11.291109
 H       107.399429       96.347939       12.027071
 C       107.416702       97.439247       10.228365
 H       108.479843       97.237640       10.106026
 Ir      106.416397       97.470413       17.794592
 C       102.116104       98.016396       17.263067
 C       102.362717       97.008018       16.426802
 N       103.348244       98.516350       17.724556
 C       104.411377       97.795403       17.289021
 N       103.832474       96.825790       16.421089
 C       104.828598       95.944595       15.710720
 C       106.163635       96.068214       16.225023
 C       107.196022       95.304298       15.603722
 H       108.226440       95.430511       15.997196
 C       106.899506       94.427780       14.555540
 H       107.594879       93.696915       14.139029
 C       105.543152       94.329826       14.110428
 H       105.329163       93.659592       13.240950
 C       104.541550       95.086937       14.729282
 H       103.548798       95.080589       14.353525
 C       101.353729       96.358315       15.838127
 H       101.522308       95.819420       14.920696
 C       100.025864       96.629089       16.156776
 H        99.334076       96.585411       15.297873
 C        99.805374       97.554291       17.144691
 H        98.773407       97.676414       17.512815
 C       100.882103       98.342667       17.627628
 H       100.757957       99.299652       18.144896
 C       103.498016       99.949112       18.239302
 C       103.379684      101.101456       17.467422
 H       103.204071      101.013191       16.360594
 C       103.232727      102.338501       18.063103
 H       103.236504      103.249100       17.538509
 C       103.131592      102.429482       19.440672
 H       102.618752      103.295898       19.855900
 C       103.360275      101.362450       20.219225
 H       103.258720      101.386856       21.286041
 C       103.594894      100.132217       19.645142
 H       103.796219       99.308548       20.342308
 C       106.223007       93.596657       19.805368
 C       107.604851       93.832123       19.779482
 N       105.539879       94.666412       19.268829
 C       106.447685       95.710487       18.916851
 N       107.681236       95.156204       19.181658
 C       108.789696       95.943756       18.716391
 C       108.486252       97.155807       18.024328
 C       109.500542       98.031845       17.640303
 H       109.125229       99.031509       17.330111
 C       110.851791       97.656555       17.866289
 H       111.621460       98.304398       17.491575
 C       111.191948       96.389526       18.519236
 H       112.207214       96.122574       18.630430
 C       110.171417       95.566383       19.004566
 H       110.434021       94.546822       19.259958
 C       108.513596       92.915184       20.236328
 H       109.484665       93.159126       20.495569
 C       108.093277       91.704689       20.768442
 H       108.811783       91.237968       21.462151
 C       106.759171       91.457222       20.937782
 H       106.409950       90.721527       21.656742
 C       105.876999       92.413391       20.379175
 H       104.833595       92.043869       20.254091
 C       104.127197       94.833984       19.297554
 C       103.629341       95.878998       20.058727
 H       104.216515       96.649605       20.562210
 C       102.270416       96.113541       20.005457
 H       101.769592       96.801544       20.659691
 C       101.433289       95.360641       19.168352
 H       100.452896       95.692497       19.029377
 C       101.939682       94.350700       18.417034
 H       101.453659       94.040062       17.538460
 C       103.334908       94.080048       18.496330
 H       103.827026       93.385231       17.833269
 C       107.691574      100.628014       20.684244
 C       107.545410      101.244759       19.457880
 N       107.253265       99.331963       20.450487
 C       106.836075       99.030090       19.146139
 N       106.921417      100.318573       18.555605
 C       106.745392      100.354782       17.137964
 C       106.720245       99.126106       16.478935
 C       106.625717       99.120438       15.058578
 H       106.339951       98.223679       14.570454
 C       106.454346      100.321472       14.301437
 H       105.959625      100.246880       13.351397
 C       106.368332      101.554367       15.021500
 H       106.233292      102.424637       14.415621
 C       106.552719      101.581490       16.450018
 H       106.666931      102.437469       17.059404
 C       108.093307      102.528633       19.264503
 H       107.960129      103.229256       18.459085
 C       108.888290      103.057022       20.236965
 H       108.948929      104.116455       20.300514
 C       108.951050      102.425110       21.477953
 H       109.754013      102.707420       22.213182
 C       108.258789      101.231796       21.687199
 H       108.273972      100.878265       22.658476
 C       107.080627       98.395874       21.455744
 C       107.987190       97.327049       21.612709
 H       108.879997       97.324738       21.040186
 C       107.667496       96.223389       22.337088
 H       108.376083       95.394753       22.277460
 C       106.533463       96.180252       23.148464
 H       106.432220       95.437744       23.900089
 C       105.631775       97.281036       23.086651
 H       104.819977       97.413712       23.784636
 C       105.859238       98.341202       22.180893
 H       105.124573       99.099625       22.025827
