206
 generated by VMD
 Ir       -4.938137      112.856743       71.466179
 C        -8.630534      110.788391       72.664612
 C        -9.128594      111.844345       72.018478
 N        -7.192586      110.865997       72.704330
 C        -6.774934      111.904892       71.931763
 N        -7.907531      112.482208       71.488998
 C        -7.689133      113.828812       71.044640
 C        -6.427423      114.358498       71.259171
 C        -6.177439      115.686661       70.993866
 H        -5.370543      116.078033       71.549164
 C        -7.155964      116.515251       70.459335
 H        -6.958482      117.500023       70.132187
 C        -8.382869      115.963470       70.072754
 H        -9.066219      116.555595       69.583549
 C        -8.720628      114.655563       70.401978
 H        -9.640119      114.200256       70.158195
 C       -10.457788      111.959053       71.832504
 H       -10.788710      112.788345       71.331245
 C       -11.427569      111.057083       72.363617
 H       -12.474381      111.155235       72.160751
 C       -10.938493      109.953194       73.131500
 H       -11.585809      109.229416       73.621841
 C        -9.519620      109.785080       73.229126
 H        -9.183019      108.842758       73.622253
 C        -6.291391      110.187256       73.610840
 C        -5.470422      109.183037       73.110168
 H        -5.793122      108.687332       72.173340
 C        -4.463846      108.584167       73.965546
 H        -3.570976      108.025322       73.561729
 C        -4.389112      108.939125       75.352707
 H        -3.635631      108.526985       76.032928
 C        -5.312227      109.834595       75.821106
 H        -5.151460      110.043388       76.889305
 C        -6.259645      110.434082       74.965408
 H        -6.919076      111.138550       75.369843
 C        -4.827100      112.453529       67.128281
 C        -3.674494      113.097458       67.396164
 N        -5.510882      112.166458       68.292160
 C        -4.860347      112.745132       69.371262
 N        -3.749362      113.387886       68.814240
 C        -2.789244      113.897797       69.802048
 C        -3.281765      114.118156       71.061516
 C        -2.531872      114.957932       71.953392
 H        -3.085353      115.301788       72.806870
 C        -1.255399      115.412720       71.623703
 H        -0.661175      116.016594       72.340591
 C        -0.704189      115.094696       70.399109
 H         0.381685      115.269943       70.229523
 C        -1.474252      114.374710       69.449417
 H        -1.118150      114.255066       68.480713
 C        -2.700932      113.204575       66.327377
 H        -1.871487      113.843544       66.531677
 C        -2.902055      112.719971       65.073700
 H        -2.104115      112.274765       64.528549
 C        -4.227083      112.223457       64.780487
 H        -4.646252      112.184166       63.773087
 C        -5.181684      112.057991       65.803055
 H        -6.069820      111.516685       65.563873
 C        -6.843267      111.544609       68.271049
 C        -7.077259      110.405602       69.050613
 H        -6.326283      109.750229       69.418060
 C        -8.388877      110.041122       69.308121
 H        -8.532932      109.055725       69.824593
 C        -9.489838      110.815002       68.846512
 H       -10.462363      110.656342       69.379257
 C        -9.233278      111.837311       67.948746
 H       -10.043921      112.380264       67.581924
 C        -7.918497      112.221451       67.689362
 H        -7.678948      113.080940       67.081085
 C        -1.640296      110.110626       72.341843
 C        -1.694872      110.887604       73.456841
 N        -2.754345      110.507980       71.538849
 C        -3.555937      111.437866       72.039612
 N        -2.989754      111.622124       73.320267
 C        -3.692815      112.517593       74.158081
 C        -4.712376      113.218407       73.601440
 C        -5.305889      114.260719       74.350723
 H        -6.132026      114.763138       73.853455
 C        -4.852928      114.606522       75.640625
 H        -5.153069      115.536484       76.028931
 C        -3.810452      113.821548       76.206909
 H        -3.463678      114.158150       77.222504
 C        -3.202913      112.774933       75.542389
 H        -2.561043      112.133049       76.079575
 C        -0.636467      110.981674       74.304626
 H        -0.607615      111.818893       75.020737
 C         0.477719      110.237320       74.141449
 H         1.253690      110.334412       74.971230
 C         0.561486      109.301231       73.113815
 H         1.394219      108.669250       73.013535
 C        -0.497706      109.252625       72.208305
 H        -0.595067      108.497086       71.486435
 C        -2.680848      110.199738       70.144867
 C        -1.677890      110.717178       69.372841
 H        -1.080334      111.520721       69.843307
 C        -1.486037      110.423691       68.013115
 H        -0.699727      110.902390       67.428337
 C        -2.486171      109.707336       67.351776
 H        -2.776445      110.141678       66.407272
 C        -3.470755      109.068253       68.159416
 H        -4.249666      108.478462       67.703857
 C        -3.540806      109.339653       69.493149
 H        -4.304132      108.728271       70.006035
 Ir       -4.938137      112.856735       85.899384
 C        -0.661591      113.558205       86.599442
 C        -0.822496      112.239296       86.474136
 N        -1.971387      114.113960       86.483398
 C        -2.926914      113.126045       86.354187
 N        -2.175724      111.986023       86.442154
 C        -2.903868      110.745636       86.608170
 C        -4.210656      110.865883       86.199341
 C        -5.048709      109.709671       86.209679
 H        -6.028966      109.846542       85.885696
 C        -4.553183      108.472504       86.659447
 H        -5.231961      107.594582       86.656387
 C        -3.184332      108.367012       87.008034
 H        -2.910494      107.482430       87.473465
 C        -2.351855      109.525696       86.907898
 H        -1.319907      109.363052       87.049789
 C         0.326143      111.477127       86.395195
 H         0.235774      110.448196       86.123116
 C         1.603323      112.072556       86.472473
 H         2.521172      111.512466       86.309845
 C         1.705881      113.420921       86.807129
 H         2.686813      113.914940       86.921204
 C         0.605911      114.178192       86.810532
 H         0.688508      115.198517       87.191994
 C        -2.149544      115.504105       86.251968
 C        -1.429408      116.079277       85.182831
 H        -1.357484      115.534485       84.290283
 C        -1.242960      117.485428       85.199799
 H        -0.820909      118.081421       84.378052
 C        -1.846714      118.326233       86.164696
 H        -2.112664      119.321991       85.810974
 C        -2.636872      117.774399       87.147514
 H        -3.425159      118.257072       87.675278
 C        -2.689191      116.367035       87.236877
 H        -3.135851      115.880371       88.096565
 C        -4.888491      112.189987       81.574768
 C        -6.211578      112.288063       81.862381
 N        -4.150930      112.266785       82.764984
 C        -5.009391      112.466827       83.835037
 N        -6.254459      112.468536       83.354523
 C        -7.247998      112.397675       84.237335
 C        -6.903002      112.267380       85.579910
 C        -7.863047      111.805817       86.582443
 H        -7.372694      111.270157       87.442688
 C        -9.171185      111.745468       86.197693
 H        -9.899175      111.198586       86.805931
 C        -9.459167      112.080322       84.856071
 H       -10.495275      111.937683       84.600281
 C        -8.563489      112.413483       83.891884
 H        -8.907429      112.817719       82.967712
 C        -7.156102      112.487061       80.760529
 H        -8.138626      112.798950       80.984955
 C        -6.679728      112.651245       79.452484
 H        -7.348881      112.841660       78.617264
 C        -5.321238      112.569153       79.178696
 H        -5.070816      112.689667       78.203110
 C        -4.476946      112.228249       80.223854
 H        -3.457529      111.915131       79.942528
 C        -2.648150      112.131233       82.812637
 C        -2.111098      110.957352       83.249313
 H        -2.697346      110.201035       83.714920
 C        -0.720626      110.902878       83.317307
 H        -0.247569      110.010956       83.722260
 C         0.198509      111.891434       82.967682
 H         1.268859      112.024254       83.284561
 C        -0.380695      113.026001       82.474640
 H         0.144490      113.814865       82.033760
 C        -1.804477      113.186127       82.391571
 H        -2.149948      114.183090       82.341278
 C        -5.853004      117.176346       85.804153
 C        -5.954835      116.770782       87.133537
 N        -5.712506      115.960739       85.033722
 C        -5.614891      114.824844       85.871826
 N        -5.805604      115.306931       87.184319
 C        -5.844431      114.434532       88.313217
 C        -5.162085      113.206062       87.999886
 C        -5.063851      112.284546       89.058777
 H        -4.737077      111.314636       88.829208
 C        -5.472206      112.542999       90.326309
 H        -5.253274      111.651016       90.940842
 C        -6.109795      113.705124       90.659546
 H        -6.639666      113.791580       91.626999
 C        -6.321554      114.668396       89.633362
 H        -6.706486      115.584229       89.944122
 C        -6.166473      117.795929       88.132584
 H        -6.140210      117.595581       89.164505
 C        -6.211617      119.135727       87.705521
 H        -6.267348      119.850082       88.483658
 C        -6.094809      119.570778       86.390503
 H        -6.337036      120.613220       86.139038
 C        -6.029930      118.543762       85.443954
 H        -5.858091      119.063568       84.468628
 C        -5.613352      115.943054       83.636101
 C        -6.737636      116.001328       82.780998
 H        -7.710320      115.625816       83.174164
 C        -6.596422      116.335022       81.404877
 H        -7.496181      116.580048       80.858353
 C        -5.299570      116.524460       80.888458
 H        -5.109401      116.570023       79.878922
 C        -4.174917      116.436699       81.754974
 H        -3.240286      116.109444       81.396126
 C        -4.406896      116.182846       83.068771
 H        -3.586255      115.948257       83.697342
