206
 generated by VMD
  IR        26.590000       39.959999       25.010000
  C1        23.510000       40.110001       21.930000
  C2        22.870001       40.549999       23.100000
  N1        24.740000       39.660000       22.370001
  C3a       24.980000       39.900002       23.709999
  N2        23.799999       40.509998       24.150000
  C4        23.799999       40.779999       25.549999
  C5a       25.059999       40.740002       26.250000
  C6        25.150000       41.209999       27.590000
  H1        26.110001       41.169998       28.100000
  C7        23.990000       41.740002       28.209999
  H2        24.059999       41.950001       29.190001
  C8        22.770000       41.740002       27.490000
  H3        21.820000       42.049999       27.940001
  C9        22.709999       41.270000       26.200001
  H4        21.690001       41.099998       25.879999
  C10       21.570000       40.970001       23.040001
  H5        21.049999       41.160000       23.940001
  C11       20.860001       40.849998       21.840000
  H6        19.820000       40.619999       21.840000
  C12       21.540001       40.500000       20.670000
  H7        21.110001       40.930000       19.730000
  C13       22.879999       40.070000       20.700001
  H8        23.370001       39.959999       19.780001
  C6        25.410000       38.590000       21.660000
  C1        25.340000       37.360001       22.230000
  H1        24.910000       37.230000       23.219999
  C2        25.889999       36.250000       21.540001
  H2        26.059999       35.299999       22.049999
  C3        26.540001       36.400002       20.309999
  H3        27.180000       35.590000       19.950001
  C4        26.700001       37.700001       19.860001
  H4        27.430000       37.779999       19.080000
  C5        26.090000       38.820000       20.469999
  H5        26.139999       39.750000       19.910000
  C1        28.110001       43.950001       24.270000
  C2        28.950001       43.410000       25.190001
  N1        27.070000       43.020000       24.100000
  C3b       27.230000       41.910000       24.809999
  N2        28.379999       42.189999       25.590000
  C4        28.670000       41.290001       26.670000
  C5b       27.969999       40.090000       26.570000
  C6        28.160000       39.130001       27.690001
  H1        27.510000       38.270000       27.660000
  C7        29.000000       39.299999       28.760000
  H2        29.000000       38.639999       29.629999
  C8        29.600000       40.570000       28.799999
  H3        30.080000       40.820000       29.690001
  C9        29.480000       41.560001       27.770000
  H4        30.129999       42.389999       27.610001
  C10       30.209999       43.970001       25.360001
  H5        30.950001       43.570000       26.070000
  C11       30.620001       45.130001       24.650000
  H6        31.459999       45.660000       24.950001
  C12       29.690001       45.730000       23.750000
  H7        29.950001       46.590000       23.129999
  C13       28.430000       45.110001       23.590000
  H8        27.660000       45.509998       22.920000
  C6        25.969999       43.310001       23.240000
  C1        25.990000       43.189999       21.860001
  H1        26.959999       42.939999       21.309999
  C2        24.780001       43.470001       21.160000
  H2        24.860001       43.349998       20.090000
  C3        23.610001       43.830002       21.809999
  H3        22.650000       44.110001       21.320000
  C4        23.639999       43.840000       23.170000
  H4        22.660000       44.009998       23.530001
  C5        24.799999       43.610001       23.959999
  H5        24.750000       43.810001       24.980000
  C1        29.620001       38.000000       22.570000
  C2        28.889999       36.930000       23.139999
  N1        29.160000       39.169998       23.090000
  C3c       28.100000       38.959999       23.969999
  N2        28.000000       37.590000       23.980000
  C4        27.139999       37.080002       24.920000
  C5c       26.160000       37.930000       25.459999
  C6        25.129999       37.500000       26.360001
  H1        24.420000       38.209999       26.750000
  C7        25.139999       36.220001       26.650000
  H2        24.650000       35.860001       27.590000
  C8        26.040001       35.320000       26.150000
  H3        26.170000       34.490002       26.730000
  C9        27.049999       35.779999       25.290001
  H4        27.920000       35.139999       25.280001
  C10       29.180000       35.660000       22.680000
  H5        28.590000       34.779999       22.980000
  C11       30.160000       35.459999       21.660000
  H6        30.080000       34.590000       21.049999
  C12       30.879999       36.529999       21.100000
  H7        31.650000       36.330002       20.330000
  C13       30.620001       37.810001       21.590000
  H8        30.889999       38.590000       20.990000
  C6        29.850000       40.400002       22.719999
  C1        29.170000       41.320000       21.870001
  H1        28.209999       41.049999       21.490000
  C2        29.850000       42.520000       21.520000
  H2        29.360001       43.270000       21.010000
  C3        31.139999       42.790001       21.959999
  H3        31.809999       43.540001       21.520000
  C4        31.790001       41.779999       22.719999
  H4        32.820000       41.849998       23.040001
  C5        31.129999       40.630001       23.150000
  H5        31.590000       39.880001       23.780001
  IR        20.530001       49.099998       28.440001
  C1        20.190001       47.439999       24.490000
  C2        19.180000       46.840000       25.180000
  N1        20.930000       48.150002       25.400000
  C3a       20.430000       48.070000       26.680000
  N2        19.320000       47.259998       26.540001
  C4        18.490000       47.119999       27.709999
  C5a       18.850000       47.869999       28.790001
  C6        18.160000       47.549999       30.010000
  H1        18.260000       48.369999       30.780001
  C7        17.160000       46.560001       30.110001
  H2        16.559999       46.450001       31.040001
  C8        16.830000       45.840000       28.959999
  H3        16.340000       44.869999       29.120001
  C9        17.450001       46.150002       27.770000
  H4        17.010000       45.759998       26.870001
  C10       18.309999       46.029999       24.420000
  H5        17.450001       45.560001       24.860001
  C11       18.510000       45.889999       23.070000
  H6        18.010000       45.080002       22.480000
  C12       19.490000       46.580002       22.389999
  H7        19.600000       46.570000       21.340000
  C13       20.400000       47.360001       23.139999
  H8        21.190001       47.860001       22.690001
  C6        22.370001       48.330002       25.110001
  C1        23.350000       47.320000       25.320000
  H1        23.139999       46.250000       25.490000
  C2        24.709999       47.610001       25.170000
  H2        25.400000       46.799999       25.180000
  C3        25.139999       48.889999       24.750000
  H3        26.110001       49.060001       24.389999
  C4        24.150000       49.860001       24.500000
  H4        24.459999       50.869999       24.110001
  C5        22.799999       49.599998       24.680000
  H5        22.049999       50.320000       24.469999
  C1        17.610001       52.259998       27.670000
  C2        18.290001       52.730000       28.760000
  N1        18.080000       50.950001       27.360001
  C3b       19.090000       50.580002       28.230000
  N2        19.180000       51.660000       29.090000
  C4        20.049999       51.419998       30.180000
  C5b       20.450001       50.119999       30.350000
  C6        20.820000       49.680000       31.559999
  H1        21.129999       48.619999       31.590000
  C7        20.889999       50.549999       32.630001
  H2        21.330000       50.290001       33.560001
  C8        20.549999       51.869999       32.450001
  H3        20.469999       52.509998       33.310001
  C9        20.200001       52.380001       31.160000
  H4        20.180000       53.439999       30.889999
  C10       17.879999       53.930000       29.400000
  H5        18.240000       54.070000       30.410000
  C11       16.790001       54.660000       28.910000
  H6        16.590000       55.709999       29.290001
  C12       16.080000       54.080002       27.870001
  H7        15.220000       54.500000       27.410000
  C13       16.520000       52.919998       27.219999
  H8        15.720000       52.450001       26.549999
  C6        17.360001       50.119999       26.299999
  C1        17.540001       50.439999       24.930000
  H1        18.090000       51.290001       24.590000
  C2        16.750000       49.869999       23.920000
  H2        16.799999       50.130001       22.879999
  C3        15.790000       48.959999       24.260000
  H3        15.240000       48.549999       23.450001
  C4        15.620000       48.590000       25.639999
  H4        14.990000       47.740002       25.750000
  C5        16.340000       49.250000       26.680000
  H5        15.950000       49.200001       27.709999
  C1        24.200001       51.310001       27.629999
  C2        24.559999       50.060001       28.110001
  N1        22.809999       51.330002       27.690001
  C3c       22.280001       50.090000       28.260000
  N2        23.400000       49.330002       28.530001
  C4        23.240000       48.049999       29.020000
  C5c       21.910000       47.529999       29.080000
  C6        21.719999       46.169998       29.020000
  H1        20.790001       45.740002       28.879999
  C7        22.870001       45.259998       29.090000
  H2        22.690001       44.240002       29.309999
  C8        24.150000       45.810001       29.170000
  H3        24.990000       45.139999       29.360001
  C9        24.330000       47.130001       29.150000
  H4        25.270000       47.400002       29.620001
  C10       25.950001       49.709999       28.080000
  H5        26.250000       48.810001       28.469999
  C11       26.820000       50.570000       27.490000
  H6        27.820000       50.230000       27.059999
  C12       26.420000       51.840000       27.030001
  H7        27.080000       52.520000       26.440001
  C13       25.100000       52.220001       27.120001
  H8        24.879999       53.349998       27.049999
  C6        22.010000       52.509998       27.320000
  C1        22.030001       53.560001       28.250000
  H1        22.430000       53.439999       29.290001
  C2        21.230000       54.680000       28.010000
  H2        21.330000       55.459999       28.660000
  C3        20.420000       54.740002       26.809999
  H3        20.299999       55.750000       26.370001
  C4        20.350000       53.630001       25.980000
  H4        19.790001       53.650002       25.049999
  C5        21.160000       52.570000       26.209999
  H5        21.110001       51.730000       25.580000
