206
 generated by VMD
  IR        38.880001       49.189999        3.230000
  C1        43.090000       49.910000        2.130000
  C2        43.130001       49.139999        3.340000
  N1        41.750000       50.279999        1.900000
  C3a       40.880001       49.709999        2.930000
  N2        41.730000       48.939999        3.760000
  C4        41.160000       48.240002        4.890000
  C5a       39.770000       48.250000        4.900000
  C6        39.150002       47.720001        6.000000
  H1        38.070000       47.740002        6.150000
  C7        39.820000       47.139999        7.040000
  H2        39.419998       47.169998        8.060000
  C8        41.230000       47.130001        7.020000
  H3        41.700001       46.849998        7.940000
  C9        41.910000       47.660000        5.980000
  H4        42.910000       47.830002        6.100000
  C10       44.389999       48.660000        3.740000
  H5        44.570000       48.160000        4.720000
  C11       45.549999       48.880001        2.930000
  H6        46.480000       48.459999        3.100000
  C12       45.450001       49.740002        1.810000
  H7        46.400002       50.009998        1.410000
  C13       44.250000       50.290001        1.460000
  H8        44.259998       51.000000        0.640000
  C6        41.320000       51.259998        0.870000
  C1        41.599998       50.959999       -0.460000
  H1        42.410000       50.290001       -0.690000
  C2        40.980000       51.660000       -1.540000
  H2        41.240002       51.529999       -2.580000
  C3        40.240002       52.790001       -1.190000
  H3        39.520000       53.139999       -1.990000
  C4        40.060001       53.160000        0.140000
  H4        39.410000       54.000000        0.360000
  C5        40.520000       52.360001        1.180000
  H5        40.250000       52.639999        2.220000
  C1        39.009998       45.189999        1.550000
  C2        37.740002       45.310001        2.050000
  N1        39.639999       46.380001        1.750000
  C3b       38.840000       47.270000        2.480000
  N2        37.680000       46.580002        2.650000
  C4        36.669998       47.209999        3.480000
  C5b       36.939999       48.520000        3.870000
  C6        35.950001       49.310001        4.440000
  H1        36.099998       50.369999        4.500000
  C7        34.660000       48.840000        4.630000
  H2        33.889999       49.570000        4.800000
  C8        34.349998       47.470001        4.330000
  H3        33.380001       47.009998        4.480000
  C9        35.419998       46.650002        3.830000
  H4        35.310001       45.619999        4.030000
  C10       36.919998       44.169998        2.050000
  H5        35.919998       44.369999        2.370000
  C11       37.290001       42.970001        1.420000
  H6        36.709999       42.080002        1.370000
  C12       38.549999       42.939999        0.790000
  H7        38.779999       42.099998        0.150000
  C13       39.439999       44.000000        0.920000
  H8        40.439999       43.990002        0.420000
  C6        40.919998       46.619999        1.170000
  C1        42.060001       46.360001        1.900000
  H1        41.939999       46.150002        2.930000
  C2        43.330002       46.160000        1.300000
  H2        44.330002       46.119999        1.860000
  C3        43.439999       46.110001       -0.040000
  H3        44.430000       46.029999       -0.510000
  C4        42.340000       46.389999       -0.850000
  H4        42.270000       46.090000       -1.840000
  C5        41.130001       46.830002       -0.220000
  H5        40.470001       47.430000       -0.810000
  C1        36.720001       51.689999        0.280000
  C2        37.090000       52.520000        1.340000
  N1        37.160000       50.419998        0.650000
  C3c       37.779999       50.380001        1.840000
  N2        37.669998       51.730000        2.300000
  C4        38.110001       52.000000        3.670000
  C5c       38.830002       50.959999        4.320000
  C6        39.230000       51.240002        5.650000
  H1        40.110001       50.759998        6.060000
  C7        38.799999       52.369999        6.310000
  H2        39.180000       52.549999        7.300000
  C8        38.080002       53.330002        5.660000
  H3        37.740002       54.220001        6.290000
  C9        37.709999       53.209999        4.380000
  H4        37.080002       53.950001        3.980000
  C10       36.820000       53.919998        1.210000
  H5        37.080002       54.549999        2.050000
  C11       36.200001       54.330002        0.070000
  H6        36.369999       55.320000       -0.240000
  C12       35.779999       53.419998       -0.920000
  H7        35.330002       53.880001       -1.790000
  C13       36.040001       52.099998       -0.860000
  H8        35.790001       51.480000       -1.710000
  C6        37.209999       49.330002       -0.290000
  C1        38.009998       49.389999       -1.460000
  H1        38.349998       50.340000       -1.800000
  C2        38.150002       48.259998       -2.300000
  H2        38.910000       48.240002       -3.030000
  C3        37.450001       47.160000       -1.940000
  H3        37.540001       46.340000       -2.510000
  C4        36.650002       47.070000       -0.830000
  H4        36.330002       46.090000       -0.500000
  C5        36.430000       48.160000       -0.060000
  H5        36.130001       47.919998        0.930000
  IR        38.639999       53.810001       12.990000
  C1        35.250000       51.020000       12.770000
  C2        35.340000       51.470001       11.440000
  N1        36.230000       51.630001       13.530000
  C3a       36.950001       52.549999       12.820000
  N2        36.380001       52.459999       11.570000
  C4        36.779999       53.610001       10.710000
  C5a       38.020000       54.259998       11.050000
  C6        38.520000       55.250000       10.170000
  H1        39.400002       55.810001       10.340000
  C7        37.840000       55.720001        9.030000
  H2        38.360001       56.400002        8.430000
  C8        36.590000       55.180000        8.780000
  H3        36.000000       55.520000        7.970000
  C9        36.080002       54.139999        9.590000
  H4        35.080002       53.910000        9.470000
  C10       34.730000       50.849998       10.390000
  H5        34.860001       51.230000        9.360000
  C11       33.900002       49.759998       10.670000
  H6        33.439999       49.220001        9.830000
  C12       33.700001       49.320000       11.980000
  H7        33.110001       48.389999       12.150000
  C13       34.389999       49.950001       13.040000
  H8        34.320000       49.709999       14.100000
  C6        36.349998       51.320000       14.980000
  C1        37.389999       50.549999       15.420000
  H1        38.080002       50.139999       14.670000
  C2        37.759998       50.380001       16.770000
  H2        38.549999       49.660000       17.010000
  C3        36.980000       51.070000       17.740000
  H3        37.209999       51.000000       18.840000
  C4        35.919998       51.860001       17.320000
  H4        35.480000       52.509998       18.080000
  C5        35.580002       52.020000       15.960000
  H5        34.730000       52.680000       15.730000
  C1        41.779999       51.070000       11.820000
  C2        42.410000       52.290001       12.000000
  N1        40.380001       51.320000       11.940000
  C3b       40.119999       52.689999       12.210000
  N2        41.389999       53.270000       12.210000
  C4        41.369999       54.660000       12.400000
  C5b       40.189999       55.189999       12.860000
  C6        40.150002       56.540001       13.380000
  H1        39.279999       57.009998       13.810000
  C7        41.299999       57.270000       13.460000
  H2        41.270000       58.130001       14.040000
  C8        42.500000       56.759998       12.950000
  H3        43.500000       57.259998       13.010000
  C9        42.549999       55.490002       12.440000
  H4        43.380001       55.250000       11.740000
  C10       43.790001       52.259998       11.990000
  H5        44.360001       53.119999       12.290000
  C11       44.509998       51.080002       11.650000
  H6        45.669998       51.139999       11.720000
  C12       43.820000       49.830002       11.440000
  H7        44.419998       48.900002       11.380000
  C13       42.430000       49.900002       11.540000
  H8        41.910000       48.990002       11.360000
  C6        39.389999       50.430000       11.400000
  C1        38.869999       50.590000       10.080000
  H1        39.160000       51.430000        9.510000
  C2        37.970001       49.590000        9.610000
  H2        37.689999       49.509998        8.570000
  C3        37.520000       48.599998       10.500000
  H3        37.049999       47.700001       10.080000
  C4        37.990002       48.470001       11.790000
  H4        37.490002       48.049999       12.660000
  C5        38.910000       49.410000       12.250000
  H5        39.330002       49.200001       13.240000
  C1        39.639999       53.919998       17.280001
  C2        38.450001       54.610001       17.100000
  N1        39.950001       53.450001       15.970000
  C3c       39.009998       53.770000       15.080000
  N2        38.189999       54.540001       15.730000
  C4        37.029999       55.000000       14.990000
  C5c       37.220001       55.220001       13.650000
  C6        36.410000       56.139999       12.900000
  H1        36.470001       56.150002       11.800000
  C7        35.439999       56.790001       13.590000
  H2        35.150002       57.740002       13.090000
  C8        35.130001       56.419998       14.930000
  H3        34.130001       56.560001       15.340000
  C9        35.959999       55.529999       15.670000
  H4        35.680000       55.310001       16.700001
  C10       37.849998       55.110001       18.230000
  H5        37.060001       55.840000       18.150000
  C11       38.330002       54.740002       19.469999
  H6        37.810001       55.040001       20.360001
  C12       39.490002       53.980000       19.600000
  H7        39.820000       53.770000       20.540001
  C13       40.209999       53.610001       18.459999
  H8        41.209999       53.349998       18.510000
  C6        41.220001       52.810001       15.640000
  C1        41.290001       51.419998       15.520000
  H1        40.430000       50.900002       15.100000
  C2        42.529999       50.779999       15.420000
  H2        42.580002       49.799999       15.050000
  C3        43.720001       51.439999       15.480000
  H3        44.630001       50.919998       15.690000
  C4        43.669998       52.830002       15.600000
  H4        44.580002       53.340000       15.790000
  C5        42.439999       53.520000       15.660000
  H5        42.360001       54.549999       15.910000
