206
 generated by VMD
  IR         9.580000       55.799999       44.700001
  C1         7.560000       53.849998       41.330002
  C2         7.830000       52.840000       42.240002
  N1         8.210000       55.049999       41.820000
  C3a        8.690000       54.799999       43.090000
  N2         8.490000       53.480000       43.349998
  C4         9.030000       52.910000       44.570000
  C5a        9.820000       53.790001       45.330002
  C6        10.520000       53.299999       46.410000
  H1        11.300000       53.869999       46.990002
  C7        10.400000       52.000000       46.880001
  H2        11.070000       51.680000       47.570000
  C8         9.580000       51.119999       46.160000
  H3         9.520000       50.029999       46.419998
  C9         8.920000       51.560001       45.020000
  H4         8.010000       50.990002       44.720001
  C10        7.520000       51.560001       41.919998
  H5         7.700000       50.720001       42.560001
  C11        6.950000       51.230000       40.720001
  H6         6.540000       50.259998       40.540001
  C12        6.700000       52.240002       39.799999
  H7         6.260000       52.180000       38.810001
  C13        7.130000       53.560001       40.099998
  H8         7.070000       54.330002       39.450001
  C6         7.990000       56.320000       41.099998
  C1         8.860000       56.630001       40.040001
  H1         9.670000       56.040001       39.810001
  C2         8.860000       57.900002       39.470001
  H2         9.390000       58.060001       38.560001
  C3         7.990000       58.930000       39.919998
  H3         8.020000       59.919998       39.459999
  C4         7.080000       58.639999       40.990002
  H4         6.550000       59.419998       41.529999
  C5         7.110000       57.360001       41.560001
  H5         6.520000       57.180000       42.400002
  C1         6.170000       56.130001       47.490002
  C2         7.310000       56.509998       48.200001
  N1         6.660000       55.820000       46.220001
  C3b        8.060000       55.900002       46.070000
  N2         8.390000       56.360001       47.320000
  C4         9.830000       56.680000       47.480000
  C5b       10.630000       56.500000       46.380001
  C6        12.010000       56.759998       46.400002
  H1        12.560000       56.930000       45.410000
  C7        12.660000       57.040001       47.660000
  H2        13.600000       57.540001       47.730000
  C8        11.820000       57.220001       48.790001
  H3        12.390000       57.599998       49.709999
  C9        10.420000       57.150002       48.630001
  H4         9.800000       57.540001       49.360001
  C10        7.120000       56.799999       49.540001
  H5         7.900000       57.139999       50.240002
  C11        5.860000       56.720001       50.139999
  H6         5.810000       56.799999       51.160000
  C12        4.730000       56.330002       49.430000
  H7         3.760000       56.450001       49.889999
  C13        4.860000       56.000000       48.070000
  H8         3.980000       55.490002       47.619999
  C6         5.820000       55.459999       45.130001
  C1         5.740000       54.090000       44.650002
  H1         6.420000       53.369999       44.889999
  C2         4.750000       53.799999       43.770000
  H2         4.530000       52.830002       43.480000
  C3         3.860000       54.740002       43.299999
  H3         2.990000       54.430000       42.689999
  C4         3.970000       56.040001       43.709999
  H4         3.390000       56.700001       43.160000
  C5         4.950000       56.400002       44.630001
  H5         5.040000       57.400002       44.919998
  C1         9.680000       59.880001       43.279999
  C2        10.470000       59.209999       42.389999
  N1         9.190000       58.970001       44.270000
  C3c        9.750000       57.730000       44.080002
  N2        10.590000       57.919998       42.980000
  C4        11.580000       56.840000       42.750000
  C5c       11.330000       55.730000       43.520000
  C6        12.250000       54.669998       43.480000
  H1        12.140000       53.959999       44.259998
  C7        13.360000       54.700001       42.619999
  H2        14.090000       53.910000       42.619999
  C8        13.630000       55.830002       41.830002
  H3        14.300000       55.669998       40.970001
  C9        12.710000       56.849998       41.889999
  H4        12.760000       57.480000       41.049999
  C10       10.920000       59.820000       41.160000
  H5        11.400000       59.340000       40.410000
  C11       10.570000       61.119999       40.860001
  H6        10.910000       61.590000       39.910000
  C12        9.730000       61.799999       41.759998
  H7         9.460000       62.799999       41.480000
  C13        9.360000       61.230000       43.049999
  H8         9.040000       61.740002       43.910000
  C6         8.400000       59.349998       45.380001
  C1         7.020000       59.119999       45.389999
  H1         6.540000       58.730000       44.509998
  C2         6.260000       59.400002       46.540001
  H2         5.150000       59.209999       46.639999
  C3         6.950000       59.849998       47.680000
  H3         6.300000       60.290001       48.470001
  C4         8.380000       60.000000       47.669998
  H4         8.820000       60.509998       48.520000
  C5         9.120000       59.759998       46.520000
  H5        10.150000       59.830002       46.540001
  IR         9.370000       43.810001       47.680000
  C1        10.040000       47.860001       49.060001
  C2         8.720000       47.590000       49.430000
  N1        10.520000       46.720001       48.430000
  C3a        9.550000       45.759998       48.299999
  N2         8.450000       46.290001       48.939999
  C4         7.320000       45.430000       49.099998
  C5a        7.400000       44.299999       48.340000
  C6         6.330000       43.459999       48.259998
  H1         6.260000       42.750000       47.459999
  C7         5.110000       43.730000       48.910000
  H2         4.160000       43.189999       48.650002
  C8         5.060000       44.820000       49.799999
  H3         4.220000       44.950001       50.540001
  C9         6.210000       45.669998       49.910000
  H4         6.130000       46.400002       50.730000
  C10        8.000000       48.590000       50.110001
  H5         7.050000       48.389999       50.549999
  C11        8.600000       49.790001       50.439999
  H6         8.150000       50.439999       51.240002
  C12        9.850000       50.080002       50.060001
  H7        10.200000       51.080002       50.090000
  C13       10.630000       49.080002       49.369999
  H8        11.650000       49.310001       49.070000
  C6        11.610000       46.790001       47.500000
  C1        11.370000       47.340000       46.240002
  H1        10.330000       47.610001       45.910000
  C2        12.290000       47.639999       45.290001
  H2        12.010000       48.049999       44.310001
  C3        13.630000       47.500000       45.599998
  H3        14.300000       47.490002       44.810001
  C4        13.970000       46.900002       46.840000
  H4        14.920000       46.430000       46.980000
  C5        12.960000       46.549999       47.810001
  H5        13.410000       46.209999       48.700001
  C1        10.720000       41.880001       51.360001
  C2        10.540000       40.790001       50.490002
  N1        10.230000       43.020000       50.759998
  C3b        9.710000       42.790001       49.459999
  N2         9.890000       41.369999       49.369999
  C4         9.580000       40.860001       48.160000
  C5b        8.960000       41.810001       47.250000
  C6         8.440000       41.360001       46.070000
  H1         7.880000       42.130001       45.560001
  C7         8.490000       40.029999       45.619999
  H2         8.160000       39.669998       44.610001
  C8         9.060000       39.130001       46.509998
  H3         9.120000       38.080002       46.180000
  C9         9.570000       39.529999       47.779999
  H4         9.950000       38.810001       48.459999
  C10       11.050000       39.509998       50.840000
  H5        10.980000       38.639999       50.240002
  C11       11.810000       39.389999       52.049999
  H6        12.130000       38.389999       52.340000
  C12       12.040000       40.419998       52.930000
  H7        12.620000       40.270000       53.790001
  C13       11.480000       41.660000       52.570000
  H8        11.700000       42.470001       53.279999
  C6         9.590000       44.009998       51.570000
  C1         8.260000       43.869999       52.009998
  H1         7.620000       43.040001       51.720001
  C2         7.660000       44.900002       52.779999
  H2         6.650000       44.950001       53.049999
  C3         8.430000       46.000000       53.150002
  H3         8.080000       46.840000       53.770000
  C4         9.800000       46.080002       52.799999
  H4        10.310000       47.000000       52.919998
  C5        10.370000       45.150002       51.959999
  H5        11.320000       45.290001       51.470001
  C1        13.380000       43.439999       46.049999
  C2        12.670000       43.980000       45.020000
  N1        12.460000       43.060001       47.060001
  C3c       11.220000       43.540001       46.770000
  N2        11.320000       43.930000       45.490002
  C4        10.060000       44.330002       44.869999
  C5c        8.920000       44.360001       45.669998
  C6         7.700000       44.689999       45.139999
  H1         6.860000       44.599998       45.860001
  C7         7.530000       45.180000       43.840000
  H2         6.520000       45.270000       43.439999
  C8         8.660000       45.200001       43.040001
  H3         8.810000       45.580002       42.040001
  C9         9.910000       44.709999       43.509998
  H4        10.670000       44.770000       42.810001
  C10       13.420000       44.419998       43.860001
  H5        12.850000       44.700001       43.049999
  C11       14.800000       44.369999       43.810001
  H6        15.390000       44.750000       42.980000
  C12       15.490000       43.939999       44.910000
  H7        16.530001       44.099998       45.020000
  C13       14.810000       43.360001       45.980000
  H8        15.350000       42.779999       46.709999
  C6        12.980000       42.830002       48.369999
  C1        12.860000       43.759998       49.369999
  H1        12.230000       44.650002       49.209999
  C2        13.570000       43.590000       50.570000
  H2        13.440000       44.270000       51.320000
  C3        14.390000       42.439999       50.779999
  H3        15.030000       42.340000       51.650002
  C4        14.490000       41.439999       49.810001
  H4        15.100000       40.560001       49.849998
  C5        13.810000       41.689999       48.599998
  H5        14.120000       41.130001       47.740002
