206
 generated by VMD
 Ir      122.716980       -6.992098      -53.748123
 C       124.218292       -6.333580      -49.792442
 C       123.421181       -7.439208      -49.664757
 N       124.113319       -5.810802      -51.107964
 C       123.196289       -6.600767      -51.818947
 N       122.809616       -7.599144      -50.967220
 C       122.024551       -8.644987      -51.574230
 C       121.576935       -8.438239      -52.884468
 C       120.597336       -9.263833      -53.444073
 H       120.209152       -9.122328      -54.481514
 C       120.041519      -10.373678      -52.722191
 H       119.174164      -10.981462      -53.130615
 C       120.495338      -10.545241      -51.383274
 H       120.186356      -11.513891      -50.964767
 C       121.451859       -9.684015      -50.851898
 H       121.644196       -9.852914      -49.731422
 C       123.334061       -8.115987      -48.421944
 H       122.820267       -9.046233      -48.389542
 C       124.067307       -7.637697      -47.327190
 H       123.922684       -8.009043      -46.307091
 C       124.910233       -6.525053      -47.508270
 H       125.496155       -6.093761      -46.759613
 C       124.969177       -5.848495      -48.661049
 H       125.684982       -4.983385      -48.650383
 C       124.160675       -4.445299      -51.343014
 C       123.100143       -3.569868      -51.081848
 H       122.171005       -3.954494      -50.704918
 C       123.223831       -2.155920      -51.190712
 H       122.321716       -1.584816      -51.099525
 C       124.447418       -1.609943      -51.703888
 H       124.661331       -0.578598      -51.774353
 C       125.483780       -2.484594      -52.103683
 H       126.144165       -2.146082      -52.850273
 C       125.332848       -3.870926      -51.806686
 H       126.200455       -4.569639      -51.775703
 C       124.770790      -10.820344      -54.524307
 C       124.082352      -10.549125      -55.673172
 N       124.628601       -9.663387      -53.709610
 C       123.955544       -8.610023      -54.263062
 N       123.601547       -9.132292      -55.556908
 C       122.884659       -8.310878      -56.360115
 C       121.982758       -7.509044      -55.684067
 C       120.762047       -7.116453      -56.326118
 H       120.001938       -6.668937      -55.685432
 C       120.582642       -7.349648      -57.681236
 H       119.639603       -7.122407      -58.117958
 C       121.559982       -8.052826      -58.390076
 H       121.413345       -7.969109      -59.503128
 C       122.710556       -8.593512      -57.735901
 H       123.470154       -9.104611      -58.389130
 C       123.912567      -11.590396      -56.607430
 H       123.352371      -11.483969      -57.459991
 C       124.546875      -12.811463      -56.446365
 H       124.576653      -13.572009      -57.193085
 C       125.281570      -13.054624      -55.314064
 H       125.755829      -14.005890      -55.166878
 C       125.416901      -12.041635      -54.330681
 H       125.919983      -12.119666      -53.420387
 C       125.043335       -9.743195      -52.276070
 C       126.028549       -8.874954      -51.773472
 H       126.305725       -8.088925      -52.421181
 C       126.511505       -8.912003      -50.511734
 H       127.348801       -8.360121      -50.209473
 C       126.061234       -9.931205      -49.655533
 H       126.639297      -10.038074      -48.729622
 C       125.047409      -10.792321      -50.129303
 H       124.862045      -11.642488      -49.502998
 C       124.518524      -10.691243      -51.410809
 H       123.681206      -11.349580      -51.627808
 C       124.860519       -3.709757      -55.533859
 C       123.618759       -3.208027      -55.252579
 N       124.854599       -5.069025      -55.172531
 C       123.614410       -5.416574      -54.731804
 N       122.800735       -4.293499      -54.859268
 C       121.429680       -4.407101      -54.363396
 C       121.297256       -5.456916      -53.444458
 C       120.381737       -5.377750      -52.436806
 H       120.365471       -6.109321      -51.692871
 C       119.511444       -4.269150      -52.408760
 H       118.733017       -4.168715      -51.610275
 C       119.556381       -3.282141      -53.388546
 H       118.798676       -2.513273      -53.452721
 C       120.512482       -3.340371      -54.392334
 H       120.470886       -2.608356      -55.152153
 C       123.557930       -1.778828      -55.343620
 H       122.638687       -1.264512      -55.179077
 C       124.674133       -0.985094      -55.760963
 H       124.524658        0.083879      -55.816208
 C       125.875198       -1.493505      -56.070541
 H       126.640808       -0.698440      -56.281036
 C       125.988190       -2.894754      -55.979774
 H       126.841660       -3.307970      -56.518959
 C       125.814056       -5.991787      -55.772003
 C       126.532349       -6.771441      -54.821636
 H       126.686325       -6.408974      -53.874008
 C       127.232254       -8.004987      -55.126556
 H       127.615372       -8.668735      -54.311905
 C       127.202408       -8.366568      -56.450752
 H       127.921951       -9.168626      -56.815109
 C       126.518738       -7.558740      -57.425743
 H       126.682602       -7.760188      -58.468987
 C       125.807358       -6.374858      -57.067886
 H       125.319977       -5.795405      -57.857620
 Ir      122.716980       -6.992098      -39.544594
 C       120.776192       -9.221581      -36.302227
 C       122.101921       -9.626312      -36.257103
 N       120.559525       -8.324106      -37.439636
 C       121.825485       -8.202045      -38.093880
 N       122.686737       -8.981813      -37.324253
 C       124.015366       -9.058401      -37.922726
 C       124.241150       -8.425158      -39.117809
 C       125.441345       -8.642054      -39.781250
 H       125.681519       -8.003458      -40.613064
 C       126.421997       -9.428616      -39.245285
 H       127.376663       -9.453875      -39.714081
 C       126.178802      -10.047497      -38.074497
 H       126.841782      -10.775158      -37.601143
 C       124.996025       -9.901749      -37.338024
 H       124.680206      -10.553711      -36.571011
 C       122.578186      -10.496948      -35.170563
 H       123.561142      -10.660273      -34.852249
 C       121.612076      -10.989798      -34.259014
 H       121.958786      -11.808439      -33.542763
 C       120.314888      -10.556669      -34.369545
 H       119.689545      -10.845964      -33.610756
 C       119.833580       -9.729017      -35.325603
 H       118.825516       -9.383179      -35.308113
 C       119.269714       -7.931183      -38.056656
 C       118.627762       -6.712334      -37.711418
 H       119.053833       -6.039747      -36.927780
 C       117.361435       -6.440449      -38.178112
 H       116.822159       -5.647404      -37.639626
 C       116.690895       -7.287754      -39.070892
 H       115.777786       -6.933571      -39.474609
 C       117.321289       -8.485225      -39.436356
 H       116.843872       -9.136546      -40.158264
 C       118.633835       -8.807106      -38.925335
 H       119.156204       -9.799025      -39.244125
 C       124.683014       -4.137953      -37.044136
 C       125.171738       -3.845552      -38.299942
 N       124.004959       -5.363733      -37.101624
 C       123.854042       -5.696253      -38.424747
 N       124.674042       -4.778929      -39.169945
 C       124.869232       -5.127699      -40.520298
 C       123.808975       -5.959976      -41.050735
 C       123.952606       -6.202187      -42.436958
 H       123.068649       -6.611542      -42.917843
 C       124.976875       -5.752537      -43.259331
 H       124.954620       -6.172016      -44.298050
 C       125.916458       -4.863028      -42.703209
 H       126.878891       -4.641087      -43.117874
 C       125.836456       -4.521938      -41.382355
 H       126.133484       -3.542141      -41.114822
 C       125.767120       -2.603968      -38.494865
 H       125.964111       -2.211908      -39.478523
 C       126.006348       -1.669701      -37.451397
 H       126.201950       -0.630564      -37.656410
 C       125.540466       -2.018890      -36.179691
 H       125.603851       -1.245203      -35.343815
 C       124.881943       -3.238987      -35.955605
 H       124.656296       -3.588398      -34.979702
 C       123.236916       -5.851788      -35.967033
 C       121.865265       -5.439816      -35.983192
 H       121.437714       -4.684536      -36.646034
 C       121.121475       -5.779659      -34.819538
 H       120.084854       -5.405430      -34.785370
 C       121.650894       -6.466784      -33.732574
 H       121.100052       -6.876894      -32.946327
 C       122.970016       -6.878088      -33.789497
 H       123.512390       -7.133169      -32.876232
 C       123.789352       -6.539021      -34.888416
 H       124.819534       -6.461937      -34.634705
 C       119.331802       -4.456259      -40.376663
 C       119.082054       -5.603981      -41.110733
 N       120.662247       -4.480497      -40.035904
 C       121.246696       -5.748787      -40.311516
 N       120.249542       -6.403795      -41.041687
 C       120.503754       -7.718973      -41.425209
 C       121.687912       -8.188288      -40.966942
 C       122.110428       -9.405693      -41.318649
 H       123.103989       -9.696297      -41.017326
 C       121.250793      -10.238414      -42.038437
 H       121.388321      -11.285788      -42.052406
 C       119.974419       -9.811192      -42.439026
 H       119.262650      -10.320427      -42.970680
 C       119.661362       -8.487890      -42.206078
 H       118.942627       -8.055759      -42.925301
 C       117.736938       -5.819151      -41.656601
 H       117.486069       -6.813422      -41.916382
 C       116.768738       -4.809431      -41.513931
 H       115.742622       -4.921038      -41.959717
 C       117.093399       -3.733084      -40.739937
 H       116.424072       -2.923235      -40.608635
 C       118.317566       -3.531500      -40.144211
 H       118.482788       -2.594017      -39.712555
 C       121.518471       -3.283779      -40.061565
 C       122.330994       -3.086018      -41.177399
 H       122.256577       -3.668293      -42.106224
 C       123.065964       -1.860128      -41.226494
 H       123.706451       -1.747105      -42.120926
 C       123.096893       -0.995241      -40.181740
 H       123.691284       -0.129242      -40.194641
 C       122.295479       -1.256695      -39.070358
 H       122.237244       -0.510403      -38.258171
 C       121.486160       -2.411543      -38.987713
 H       120.989197       -2.716646      -38.042183
