206
 generated by VMD
  IR        19.650000       12.180000       15.330000
  C1        20.809999        9.930000       18.820000
  C2        21.000000       11.260000       19.139999
  N1        20.400000        9.870000       17.469999
  C3a       20.280001       11.140000       17.000000
  N2        20.650000       11.990000       18.020000
  C4        20.280001       13.420000       17.900000
  C5a       19.860001       13.820000       16.670000
  C6        19.680000       15.190000       16.370001
  H1        19.520000       15.530000       15.390000
  C7        19.809999       16.139999       17.389999
  H2        19.590000       17.170000       17.290001
  C8        20.230000       15.740000       18.670000
  H3        20.760000       16.520000       19.260000
  C9        20.420000       14.380000       18.930000
  H4        20.430000       14.030000       19.920000
  C10       21.830000       11.560000       20.290001
  H5        22.090000       12.590000       20.430000
  C11       22.250000       10.580000       21.120001
  H6        22.730000       10.910000       22.040001
  C12       21.940001        9.190000       20.809999
  H7        22.219999        8.330000       21.389999
  C13       21.230000        8.890000       19.629999
  H8        21.170000        7.840000       19.309999
  C6        20.420000        8.610000       16.620001
  C1        19.330000        7.730000       16.719999
  H1        18.549999        7.880000       17.469999
  C2        19.230000        6.520000       16.049999
  H2        18.490000        5.800000       16.260000
  C3        20.240000        6.180000       15.230000
  H3        20.059999        5.500000       14.440000
  C4        21.400000        6.990000       15.080000
  H4        22.160000        6.790000       14.360000
  C5        21.520000        8.170000       15.840000
  H5        22.480000        8.700000       15.820000
  C1        15.380000       12.540000       16.299999
  C2        15.550000       13.440000       15.260000
  N1        16.650000       11.890000       16.530001
  C3b       17.590000       12.360000       15.670000
  N2        16.959999       13.310000       14.890000
  C4        17.650000       13.830000       13.790000
  C5b       19.020000       13.430000       13.760000
  C6        19.790001       13.740000       12.690000
  H1        20.700001       13.150000       12.590000
  C7        19.299999       14.510000       11.610000
  H2        19.950001       14.750000       10.800000
  C8        17.980000       14.940000       11.610000
  H3        17.639999       15.590000       10.840000
  C9        17.150000       14.630000       12.690000
  H4        16.160000       15.040000       12.890000
  C10       14.410000       14.110000       14.750000
  H5        14.490000       14.830000       13.980000
  C11       13.160000       13.840000       15.260000
  H6        12.250000       14.380000       14.880000
  C12       13.050000       12.970000       16.370001
  H7        12.210000       12.700000       16.959999
  C13       14.160000       12.350000       16.879999
  H8        14.150000       11.780000       17.790001
  C6        16.969999       11.550000       17.850000
  C1        17.160000       10.200000       18.200001
  H1        16.750000        9.480000       17.540001
  C2        17.549999        9.840000       19.430000
  H2        17.820000        8.820000       19.650000
  C3        17.889999       10.800000       20.379999
  H3        18.340000       10.540000       21.309999
  C4        17.750000       12.160000       20.080000
  H4        17.910000       12.970000       20.760000
  C5        17.240000       12.450000       18.799999
  H5        16.930000       13.470000       18.770000
  C1        19.600000        8.780000       12.490000
  C2        20.900000        9.130000       12.630000
  N1        18.840000        9.730000       13.210000
  C3c       19.690001       10.620000       13.910000
  N2        20.959999       10.320000       13.400000
  C4        21.990000       11.140000       13.950000
  C5c       21.680000       12.180000       14.810000
  C6        22.700001       13.010000       15.330000
  H1        22.590000       13.990000       15.690000
  C7        24.080000       12.790000       15.060000
  H2        24.910000       13.320000       15.540000
  C8        24.360001       11.770000       14.150000
  H3        25.379999       11.470000       13.950000
  C9        23.350000       10.950000       13.650000
  H4        23.750000       10.200000       13.070000
  C10       21.930000        8.330000       12.040000
  H5        22.969999        8.610000       12.210000
  C11       21.549999        7.180000       11.390000
  H6        22.290001        6.690000       10.660000
  C12       20.190001        6.740000       11.450000
  H7        20.059999        5.640000       11.340000
  C13       19.180000        7.560000       11.910000
  H8        18.190001        7.240000       11.960000
  C6        17.379999        9.760000       13.350000
  C1        16.740000       10.500000       12.400000
  H1        17.230000       11.140000       11.730000
  C2        15.390000       10.680000       12.490000
  H2        14.900000       11.460000       11.900000
  C3        14.650000       10.100000       13.520000
  H3        13.770000       10.650000       13.780000
  C4        15.230000        9.280000       14.410000
  H4        14.650000        8.670000       15.020000
  C5        16.620001        9.190000       14.330000
  H5        17.080000        8.370000       14.860000
  IR        26.469999        4.070000        3.660000
  C1        30.510000        5.870000        3.560000
  C2        29.650000        6.910000        3.730000
  N1        29.700001        4.760000        3.290000
  C3a       28.350000        5.040000        3.460000
  N2        28.299999        6.410000        3.760000
  C4        26.990000        7.040000        3.750000
  C5a       25.990000        6.110000        4.010000
  C6        24.690001        6.700000        4.160000
  H1        23.820000        6.110000        4.440000
  C7        24.450001        8.110000        3.930000
  H2        23.440001        8.520000        3.660000
  C8        25.530001        8.980000        3.610000
  H3        25.340000       10.030000        3.430000
  C9        26.830000        8.420000        3.530000
  H4        27.410000        8.990000        2.790000
  C10       30.090000        8.200000        3.970000
  H5        29.450001        9.020000        3.600000
  C11       31.490000        8.440000        4.060000
  H6        31.920000        9.400000        4.140000
  C12       32.400002        7.370000        4.040000
  H7        33.380001        7.690000        4.350000
  C13       31.879999        6.080000        3.690000
  H8        32.580002        5.260000        3.410000
  C6        30.209999        3.560000        2.670000
  C1        29.840000        3.130000        1.380000
  H1        29.590000        3.900000        0.670000
  C2        30.340000        1.890000        0.910000
  H2        30.200001        1.430000       -0.120000
  C3        31.190001        1.140000        1.720000
  H3        31.510000        0.180000        1.300000
  C4        31.469999        1.490000        3.070000
  H4        32.169998        0.990000        3.570000
  C5        31.120001        2.780000        3.420000
  H5        31.780001        3.210000        4.160000
  C1        26.360001        4.370000        7.960000
  C2        25.260000        3.710000        7.690000
  N1        27.110001        4.490000        6.760000
  C3b       26.430000        3.960000        5.740000
  N2        25.290001        3.510000        6.270000
  C4        24.330000        2.920000        5.330000
  C5b       24.469999        3.450000        4.030000
  C6        23.400000        3.280000        3.110000
  H1        23.450001        3.850000        2.180000
  C7        22.340000        2.490000        3.480000
  H2        21.570000        2.210000        2.740000
  C8        22.190001        1.880000        4.740000
  H3        21.320000        1.580000        5.260000
  C9        23.219999        2.080000        5.650000
  H4        23.370001        1.380000        6.470000
  C10       24.360001        3.370000        8.750000
  H5        23.450001        2.870000        8.520000
  C11       24.639999        3.800000       10.070000
  H6        23.990000        3.610000       10.890000
  C12       25.750000        4.530000       10.350000
  H7        26.120001        4.760000       11.320000
  C13       26.559999        4.820000        9.270000
  H8        27.430000        5.310000        9.540000
  C6        28.540001        4.740000        6.810000
  C1        29.490000        3.790000        6.500000
  H1        29.120001        2.770000        6.350000
  C2        30.889999        4.030000        6.710000
  H2        31.620001        3.300000        6.480000
  C3        31.299999        5.230000        7.150000
  H3        32.270000        5.400000        7.550000
  C4        30.350000        6.220000        7.380000
  H4        30.740000        7.220000        7.800000
  C5        28.990000        5.950000        7.280000
  H5        28.200001        6.760000        7.440000
  C1        27.440001       -0.100000        2.780000
  C2        27.170000        0.420000        1.590000
  N1        27.350000        0.890000        3.700000
  C3c       26.930000        2.120000        3.160000
  N2        26.840000        1.850000        1.860000
  C4        26.260000        2.870000        1.070000
  C5c       26.379999        4.150000        1.600000
  C6        26.240000        5.230000        0.790000
  H1        25.980000        6.200000        1.180000
  C7        26.110001        5.070000       -0.580000
  H2        26.200001        5.920000       -1.310000
  C8        25.990000        3.740000       -1.140000
  H3        26.150000        3.620000       -2.230000
  C9        25.959999        2.650000       -0.260000
  H4        25.799999        1.680000       -0.670000
  C10       27.490000       -0.250000        0.390000
  H5        27.830000        0.350000       -0.470000
  C11       28.040001       -1.540000        0.460000
  H6        28.200001       -2.030000       -0.420000
  C12       28.180000       -2.100000        1.740000
  H7        28.299999       -3.170000        1.940000
  C13       27.940001       -1.390000        2.950000
  H8        28.020000       -1.920000        3.880000
  C6        27.469999        0.640000        5.090000
  C1        28.750000        0.410000        5.610000
  H1        29.660000        0.760000        5.060000
  C2        28.910000        0.080000        6.930000
  H2        29.680000       -0.550000        7.230000
  C3        27.850000       -0.030000        7.800000
  H3        28.059999       -0.350000        8.830000
  C4        26.610001        0.170000        7.280000
  H4        25.750000        0.210000        7.970000
  C5        26.379999        0.520000        5.950000
  H5        25.410000        0.460000        5.530000
