206
 generated by VMD
 Ir       96.370934      -77.735443      -59.465927
 C        94.498741      -74.817947      -62.075539
 C        94.090836      -76.056839      -62.621841
 N        95.264389      -75.051682      -60.976746
 C        95.429413      -76.435020      -60.751945
 N        94.743851      -77.058304      -61.853676
 C        94.601089      -78.503311      -61.731682
 C        95.522202      -79.040230      -60.875610
 C        95.722145      -80.399712      -60.870834
 H        96.562988      -80.881500      -60.451477
 C        94.928452      -81.230484      -61.610001
 H        94.944214      -82.289742      -61.419662
 C        93.844864      -80.687653      -62.356697
 H        93.523155      -81.204727      -63.179642
 C        93.696365      -79.296188      -62.425735
 H        92.807419      -78.818832      -62.930931
 C        93.274452      -76.055023      -63.688377
 H        92.972481      -76.958755      -64.051537
 C        92.787346      -74.867058      -64.271362
 H        92.258148      -74.908386      -65.208817
 C        93.227615      -73.626633      -63.830650
 H        92.846405      -72.684013      -64.228455
 C        94.123001      -73.654480      -62.718491
 H        94.598145      -72.701645      -62.495682
 C        95.948341      -74.023193      -60.250374
 C        97.322281      -73.742905      -60.411415
 H        97.943474      -74.456306      -60.905571
 C        97.972443      -72.854202      -59.515587
 H        99.072601      -72.756088      -59.510315
 C        97.219513      -72.198212      -58.497272
 H        97.793625      -71.594879      -57.779442
 C        95.827255      -72.397446      -58.411705
 H        95.259033      -72.007477      -57.601990
 C        95.196449      -73.298798      -59.278114
 H        94.124115      -73.498032      -59.185402
 C        93.020233      -78.561386      -56.784950
 C        94.096451      -79.159927      -56.155914
 N        93.556763      -77.944069      -57.966805
 C        94.841537      -78.182594      -58.166431
 N        95.158066      -78.977509      -57.112053
 C        96.382935      -79.697685      -57.316147
 C        97.195694      -79.269966      -58.326088
 C        98.430115      -79.953728      -58.510624
 H        99.253220      -79.524658      -59.088379
 C        98.810165      -80.983475      -57.612526
 H        99.761429      -81.447266      -57.659081
 C        97.976501      -81.380737      -56.562141
 H        98.260391      -82.107910      -55.837837
 C        96.783783      -80.708099      -56.454002
 H        96.036652      -81.042824      -55.695343
 C        93.917015      -79.621933      -54.839653
 H        94.617401      -80.258331      -54.401173
 C        92.691788      -79.521812      -54.171089
 H        92.589386      -79.632141      -53.168968
 C        91.557220      -79.005005      -54.875065
 H        90.665070      -78.629074      -54.340973
 C        91.715797      -78.470169      -56.153107
 H        90.906296      -77.920731      -56.631969
 C        92.637604      -77.220551      -58.910507
 C        92.627953      -75.833557      -58.926636
 H        93.041061      -75.178207      -58.165539
 C        91.808868      -75.159836      -59.872574
 H        91.961258      -74.039658      -59.977364
 C        91.039536      -75.922913      -60.805969
 H        90.313248      -75.430656      -61.428711
 C        91.148880      -77.266792      -60.775703
 H        90.543777      -77.775742      -61.449593
 C        91.837509      -77.946465      -59.811119
 H        91.855728      -79.068123      -59.730766
 C        98.670059      -75.335464      -56.714233
 C        99.545364      -75.423553      -57.837444
 N        97.489029      -75.900986      -57.128891
 C        97.535667      -76.508621      -58.321331
 N        98.876617      -76.188110      -58.796844
 C        99.106911      -76.606140      -60.150917
 C        98.127304      -77.529175      -60.627357
 C        98.482590      -78.282509      -61.755699
 H        97.859406      -79.076996      -62.068008
 C        99.697479      -78.141068      -62.408798
 H        99.868027      -78.656616      -63.327065
 C       100.618462      -77.136261      -61.994606
 H       101.542450      -76.872192      -62.611046
 C       100.233185      -76.382919      -60.866936
 H       100.777924      -75.485840      -60.625488
 C       100.714401      -74.643112      -57.781349
 H       101.564865      -74.979668      -58.240517
 C       101.009445      -73.869690      -56.660774
 H       102.020081      -73.524796      -56.677498
 C       100.125648      -73.721375      -55.604652
 H       100.407333      -73.098015      -54.781078
 C        98.946671      -74.459457      -55.663193
 H        98.249550      -74.362335      -54.904770
 C        96.458267      -76.156242      -56.210754
 C        96.746223      -77.096085      -55.220253
 H        97.567215      -77.828201      -55.255676
 C        95.871956      -77.208664      -54.143185
 H        96.174301      -77.769363      -53.349266
 C        94.669724      -76.395538      -54.056767
 H        93.805832      -76.695290      -53.444202
 C        94.452820      -75.493591      -55.093277
 H        93.522812      -74.884094      -55.103447
 C        95.307251      -75.374313      -56.178223
 H        95.066422      -74.725143      -57.039139
 Ir       96.370934      -77.735443      -47.822296
 C        97.799988      -81.193291      -50.003334
 C        98.187767      -80.109314      -50.795052
 N        97.145157      -80.667389      -48.898109
 C        97.016930      -79.304909      -48.979347
 N        97.682938      -78.962616      -50.136833
 C        97.848801      -77.567375      -50.397362
 C        97.070786      -76.781227      -49.598892
 C        96.996002      -75.440994      -49.833588
 H        96.186752      -74.866562      -49.428436
 C        97.670120      -74.825195      -50.906044
 H        97.417877      -73.788193      -51.256321
 C        98.577011      -75.601700      -51.652561
 H        99.332710      -75.136169      -52.347046
 C        98.680603      -77.002899      -51.364456
 H        99.512634      -77.491806      -51.893974
 C        98.894485      -80.370560      -51.983788
 H        99.347153      -79.586205      -52.545906
 C        99.232376      -81.663780      -52.333527
 H       100.049362      -81.845642      -53.084835
 C        98.836075      -82.715782      -51.607414
 H        98.875198      -83.693085      -52.015762
 C        98.118347      -82.494675      -50.374325
 H        97.804939      -83.348167      -49.777149
 C        96.198334      -81.448837      -48.155956
 C        94.950851      -81.696930      -48.730354
 H        94.642227      -81.201584      -49.690979
 C        93.990311      -82.535515      -48.268814
 H        93.021332      -82.652802      -48.773014
 C        94.275909      -83.328217      -47.172745
 H        93.474838      -83.769150      -46.685959
 C        95.500992      -83.109894      -46.491051
 H        95.618164      -83.396385      -45.467728
 C        96.482277      -82.173920      -46.985558
 H        97.359512      -82.222412      -46.403908
 C        99.998779      -77.204727      -45.445976
 C        99.115692      -76.274307      -44.869877
 N        99.424088      -77.723923      -46.586094
 C        98.129608      -77.205032      -46.847549
 N        98.015419      -76.270309      -45.765808
 C        96.803238      -75.683891      -45.681915
 C        95.917953      -75.974915      -46.798416
 C        94.740158      -75.292542      -46.910007
 H        94.251083      -75.489960      -47.852570
 C        94.269562      -74.337700      -45.993092
 H        93.259911      -73.849350      -46.019943
 C        95.136429      -74.050377      -44.947636
 H        94.789825      -73.310295      -44.207947
 C        96.403625      -74.688904      -44.808014
 H        97.066399      -74.408180      -44.028824
 C        99.438011      -75.664459      -43.626816
 H        98.826324      -74.971130      -43.110161
 C       100.633301      -76.083878      -42.954918
 H       100.902985      -75.554947      -42.041679
 C       101.524666      -77.003174      -43.453506
 H       102.372581      -77.279846      -42.903069
 C       101.192574      -77.549835      -44.707169
 H       101.910851      -78.298958      -45.069794
 C       100.259300      -78.031281      -47.705803
 C       100.719162      -77.037216      -48.590363
 H       100.427460      -75.992172      -48.516991
 C       101.514320      -77.401070      -49.708015
 H       101.801758      -76.762329      -50.485760
 C       101.887894      -78.733742      -49.863663
 H       102.526100      -79.123711      -50.671822
 C       101.516441      -79.709991      -48.907234
 H       101.641693      -80.734924      -49.141186
 C       100.653297      -79.400375      -47.880337
 H       100.149750      -80.140152      -47.279190
 C        94.669266      -80.144005      -44.632141
 C        93.659378      -80.070129      -45.543877
 N        95.688606      -79.245972      -45.038818
 C        95.426430      -78.772842      -46.287621
 N        94.150917      -79.129562      -46.502838
 C        93.557953      -78.583603      -47.720345
 C        94.377121      -77.843002      -48.569454
 C        93.872429      -77.271790      -49.708397
 H        94.604843      -76.642776      -50.256142
 C        92.582893      -77.522133      -50.191551
 H        92.201096      -76.913116      -51.011021
 C        91.764641      -78.293198      -49.383324
 H        90.768082      -78.675949      -49.548454
 C        92.206459      -78.765587      -48.116383
 H        91.494919      -79.318771      -47.607552
 C        92.493797      -80.898987      -45.306984
 H        91.697647      -80.725609      -45.935852
 C        92.420166      -81.785339      -44.249451
 H        91.586258      -82.462540      -44.083908
 C        93.502014      -81.927559      -43.424606
 H        93.597122      -82.742424      -42.756584
 C        94.574371      -81.041519      -43.517841
 H        95.286560      -80.971893      -42.712334
 C        96.986214      -79.423050      -44.469383
 C        98.001854      -80.033798      -45.158401
 H        97.865646      -80.273552      -46.225441
 C        99.187241      -80.382614      -44.490417
 H        99.949364      -80.800919      -45.025188
 C        99.366394      -80.076813      -43.107159
 H       100.224060      -80.430801      -42.545380
 C        98.380028      -79.400658      -42.385494
 H        98.396744      -79.154961      -41.342686
 C        97.185349      -79.131371      -43.084942
 H        96.312057      -78.922699      -42.499191
