206
 generated by VMD
 Ir       32.906670     -107.005051      104.609482
 C        28.793407     -108.175278      105.032120
 C        29.481506     -109.374741      104.848000
 N        29.633816     -107.098122      105.083572
 C        30.946711     -107.606064      104.985580
 N        30.801683     -108.941010      104.943390
 C        32.054234     -109.641762      104.927139
 C        33.031792     -109.069588      104.206718
 C        34.117706     -109.810623      103.779114
 H        34.857178     -109.179199      103.246582
 C        34.329086     -111.158463      104.194763
 H        35.270050     -111.696152      103.898819
 C        33.385437     -111.770081      105.039246
 H        33.563217     -112.722168      105.442398
 C        32.278969     -111.004890      105.382629
 H        31.778427     -111.216003      106.347763
 C        28.798698     -110.548553      104.817047
 H        29.232571     -111.454094      104.509720
 C        27.419804     -110.579254      104.951248
 H        26.938087     -111.568314      104.908752
 C        26.713833     -109.391464      105.061584
 H        25.690042     -109.406509      105.368881
 C        27.454771     -108.197128      105.186340
 H        26.920618     -107.261414      105.182487
 C        29.359539     -105.944542      105.894394
 C        29.126255     -104.792419      105.109802
 H        29.073431     -104.969696      104.055580
 C        28.579786     -103.677849      105.760971
 H        28.401787     -102.760811      105.208923
 C        28.600809     -103.619675      107.161606
 H        28.054361     -102.824806      107.539459
 C        28.872221     -104.830994      107.905670
 H        29.104473     -104.824860      108.939453
 C        29.236235     -105.992226      107.227478
 H        29.189125     -106.923721      107.759079
 C        34.735283     -108.928856      108.081680
 C        35.805481     -108.623627      107.292999
 N        33.646027     -108.206070      107.604935
 C        33.928413     -107.682556      106.340942
 N        35.265060     -107.880905      106.188171
 C        35.851894     -107.087685      105.196709
 C        34.964748     -106.658096      104.198349
 C        35.502106     -106.023895      103.057007
 H        34.856438     -105.686920      102.253357
 C        36.881824     -105.813629      103.021561
 H        37.236599     -105.227661      102.163849
 C        37.718525     -106.171135      104.069519
 H        38.773960     -106.069923      103.925247
 C        37.221703     -106.730064      105.181000
 H        37.904263     -107.220055      105.833252
 C        37.069260     -109.149208      107.616287
 H        37.716461     -109.255737      106.816360
 C        37.290203     -109.968750      108.683258
 H        38.254074     -110.386002      108.842468
 C        36.212963     -110.241768      109.526825
 H        36.282204     -110.944977      110.332924
 C        34.955330     -109.722633      109.198990
 H        34.203835     -109.882202      109.926727
 C        32.603065     -107.779785      108.559875
 C        32.608200     -106.452423      108.841797
 H        33.391285     -105.784317      108.624954
 C        31.654585     -105.855476      109.631531
 H        31.643780     -104.785004      109.639496
 C        30.786306     -106.601196      110.283844
 H        30.097933     -106.241028      111.064423
 C        30.739004     -107.970413      110.070251
 H        30.132183     -108.575287      110.678940
 C        31.652210     -108.599564      109.161240
 H        31.530071     -109.701843      109.040070
 C        32.644997     -102.642570      104.715370
 C        32.056686     -103.062531      103.521622
 N        33.109543     -103.828186      105.354370
 C        32.847191     -104.914017      104.578781
 N        32.262691     -104.463173      103.431915
 C        32.266174     -105.311996      102.261673
 C        32.197632     -106.647308      102.610313
 C        31.974176     -107.531898      101.557617
 H        31.724798     -108.535049      101.828354
 C        31.978251     -107.102135      100.225449
 H        31.408131     -107.658905       99.515175
 C        32.211082     -105.695587       99.954483
 H        32.417675     -105.437325       98.920258
 C        32.331108     -104.824661      100.996445
 H        32.137962     -103.757805      100.828232
 C        31.296085     -102.134521      102.802673
 H        30.818298     -102.417183      101.850449
 C        31.142975     -100.886398      103.313019
 H        30.493259     -100.155243      102.847748
 C        31.690315     -100.528831      104.561806
 H        31.527903      -99.442581      104.892670
 C        32.470242     -101.399269      105.291359
 H        33.008789     -100.875504      106.049736
 C        34.371788     -103.740570      106.039032
 C        35.535664     -103.529160      105.268265
 H        35.532349     -103.825607      104.252090
 C        36.643677     -103.048996      105.979645
 H        37.615456     -102.999748      105.487076
 C        36.661728     -102.784698      107.370041
 H        37.512821     -102.696602      108.047150
 C        35.471130     -102.965515      108.061127
 H        35.288368     -102.726990      109.127472
 C        34.295624     -103.381248      107.387070
 H        33.510918     -103.581886      108.039902
 Ir       32.906670     -107.005051      118.186913
 C        30.600672     -104.188461      115.774597
 C        31.233358     -104.949615      114.848709
 N        30.988905     -104.616302      117.041260
 C        31.828461     -105.730438      116.919434
 N        31.973211     -105.908203      115.582962
 C        32.899673     -106.924973      115.198334
 C        33.654278     -107.430611      116.257095
 C        34.774406     -108.205856      115.990616
 H        35.229919     -108.816147      116.748077
 C        35.149406     -108.434387      114.708054
 H        36.141945     -108.859344      114.498337
 C        34.354393     -107.919472      113.691490
 H        34.798645     -108.078331      112.668457
 C        33.171913     -107.186508      113.867279
 H        32.299484     -107.140137      113.168625
 C        30.854109     -104.757706      113.488480
 H        31.468241     -105.057465      112.675644
 C        29.953997     -103.820358      113.095932
 H        29.682903     -103.686798      112.053497
 C        29.350002     -103.045120      114.062790
 H        28.628157     -102.319565      113.750046
 C        29.684593     -103.188316      115.381393
 H        29.398024     -102.475578      116.052208
 C        30.821505     -103.821793      118.220505
 C        31.286114     -102.500992      118.275620
 H        32.211037     -102.265732      117.830017
 C        30.865181     -101.668610      119.343582
 H        31.422564     -100.766922      119.392441
 C        29.875719     -102.096619      120.283951
 H        29.389866     -101.310600      120.778641
 C        29.484615     -103.470169      120.249191
 H        28.824411     -103.858017      120.984177
 C        29.939133     -104.286057      119.181328
 H        29.875422     -105.362549      119.191010
 C        30.056044     -110.258553      118.300156
 C        31.217213     -110.752274      118.835701
 N        30.349054     -109.033623      117.773666
 C        31.718592     -108.700928      117.969322
 N        32.206238     -109.794357      118.640991
 C        33.604012     -109.744255      118.989761
 C        34.100220     -108.451645      119.083694
 C        35.371979     -108.291595      119.612274
 H        35.617279     -107.337875      119.891129
 C        36.148766     -109.371826      119.996330
 H        36.975945     -109.204430      120.616531
 C        35.664200     -110.657997      119.931076
 H        36.061417     -111.487732      120.458206
 C        34.399338     -110.832138      119.409836
 H        34.057465     -111.844986      119.326378
 C        31.237143     -112.044891      119.442139
 H        32.024269     -112.202354      120.116699
 C        30.169691     -112.932777      119.408936
 H        30.173887     -113.859459      119.915146
 C        28.996351     -112.444298      118.820236
 H        28.130484     -113.045975      118.874496
 C        28.927778     -111.089661      118.324188
 H        27.932333     -110.746902      118.051590
 C        29.542778     -108.332703      116.852356
 C        29.742628     -108.707733      115.562225
 H        30.653763     -108.856537      115.114365
 C        28.660271     -108.845329      114.707733
 H        28.968763     -109.352783      113.797165
 C        27.377399     -108.413025      115.218369
 H        26.523420     -108.695557      114.593079
 C        27.211246     -107.936935      116.520920
 H        26.239004     -107.602547      116.864761
 C        28.326031     -107.864983      117.314255
 H        28.419626     -107.309296      118.239059
 C        31.503160     -105.704636      122.128021
 C        32.366188     -104.761223      121.628662
 N        31.526150     -106.709244      121.117310
 C        32.389442     -106.411659      120.058746
 N        32.971207     -105.209610      120.375351
 C        34.104729     -104.742157      119.552414
 C        34.293961     -105.435623      118.369507
 C        35.459824     -105.179527      117.559998
 H        35.468918     -105.579857      116.509827
 C        36.459431     -104.222321      117.953751
 H        37.114372     -103.853806      117.172958
 C        36.326759     -103.638756      119.281319
 H        37.102325     -102.976616      119.591721
 C        35.153214     -103.811928      119.984680
 H        34.879761     -103.376137      120.956375
 C        32.410229     -103.478905      122.291840
 H        33.174915     -102.779793      122.138229
 C        31.487564     -103.127533      123.207825
 H        31.379969     -102.109741      123.423767
 C        30.630842     -104.054016      123.801926
 H        29.806801     -103.762680      124.496155
 C        30.666386     -105.365723      123.266418
 H        30.337645     -106.221466      123.881363
 C        31.186672     -108.050934      121.504135
 C        32.136673     -108.914993      122.058670
 H        33.205997     -108.654739      122.015961
 C        31.730753     -110.236145      122.370239
 H        32.506931     -110.914612      122.667770
 C        30.453001     -110.737137      122.119354
 H        30.286230     -111.810387      122.204987
 C        29.494600     -109.802208      121.695236
 H        28.599611     -110.178497      121.323761
 C        29.845150     -108.525734      121.349930
 H        29.197182     -107.960480      120.659775
