206
 generated by VMD
  IR        38.639999       53.810001       12.990000
  C1        35.250000       51.020000       12.770000
  C2        35.340000       51.470001       11.440000
  N1        36.230000       51.630001       13.530000
  C3a       36.950001       52.549999       12.820000
  N2        36.380001       52.459999       11.570000
  C4        36.779999       53.610001       10.710000
  C5a       38.020000       54.259998       11.050000
  C6        38.520000       55.250000       10.170000
  H1        39.400002       55.810001       10.340000
  C7        37.840000       55.720001        9.030000
  H2        38.360001       56.400002        8.430000
  C8        36.590000       55.180000        8.780000
  H3        36.000000       55.520000        7.970000
  C9        36.080002       54.139999        9.590000
  H4        35.080002       53.910000        9.470000
  C10       34.730000       50.849998       10.390000
  H5        34.860001       51.230000        9.360000
  C11       33.900002       49.759998       10.670000
  H6        33.439999       49.220001        9.830000
  C12       33.700001       49.320000       11.980000
  H7        33.110001       48.389999       12.150000
  C13       34.389999       49.950001       13.040000
  H8        34.320000       49.709999       14.100000
  C6        36.349998       51.320000       14.980000
  C1        37.389999       50.549999       15.420000
  H1        38.080002       50.139999       14.670000
  C2        37.759998       50.380001       16.770000
  H2        38.549999       49.660000       17.010000
  C3        36.980000       51.070000       17.740000
  H3        37.209999       51.000000       18.840000
  C4        35.919998       51.860001       17.320000
  H4        35.480000       52.509998       18.080000
  C5        35.580002       52.020000       15.960000
  H5        34.730000       52.680000       15.730000
  C1        41.779999       51.070000       11.820000
  C2        42.410000       52.290001       12.000000
  N1        40.380001       51.320000       11.940000
  C3b       40.119999       52.689999       12.210000
  N2        41.389999       53.270000       12.210000
  C4        41.369999       54.660000       12.400000
  C5b       40.189999       55.189999       12.860000
  C6        40.150002       56.540001       13.380000
  H1        39.279999       57.009998       13.810000
  C7        41.299999       57.270000       13.460000
  H2        41.270000       58.130001       14.040000
  C8        42.500000       56.759998       12.950000
  H3        43.500000       57.259998       13.010000
  C9        42.549999       55.490002       12.440000
  H4        43.380001       55.250000       11.740000
  C10       43.790001       52.259998       11.990000
  H5        44.360001       53.119999       12.290000
  C11       44.509998       51.080002       11.650000
  H6        45.669998       51.139999       11.720000
  C12       43.820000       49.830002       11.440000
  H7        44.419998       48.900002       11.380000
  C13       42.430000       49.900002       11.540000
  H8        41.910000       48.990002       11.360000
  C6        39.389999       50.430000       11.400000
  C1        38.869999       50.590000       10.080000
  H1        39.160000       51.430000        9.510000
  C2        37.970001       49.590000        9.610000
  H2        37.689999       49.509998        8.570000
  C3        37.520000       48.599998       10.500000
  H3        37.049999       47.700001       10.080000
  C4        37.990002       48.470001       11.790000
  H4        37.490002       48.049999       12.660000
  C5        38.910000       49.410000       12.250000
  H5        39.330002       49.200001       13.240000
  C1        39.639999       53.919998       17.280001
  C2        38.450001       54.610001       17.100000
  N1        39.950001       53.450001       15.970000
  C3c       39.009998       53.770000       15.080000
  N2        38.189999       54.540001       15.730000
  C4        37.029999       55.000000       14.990000
  C5c       37.220001       55.220001       13.650000
  C6        36.410000       56.139999       12.900000
  H1        36.470001       56.150002       11.800000
  C7        35.439999       56.790001       13.590000
  H2        35.150002       57.740002       13.090000
  C8        35.130001       56.419998       14.930000
  H3        34.130001       56.560001       15.340000
  C9        35.959999       55.529999       15.670000
  H4        35.680000       55.310001       16.700001
  C10       37.849998       55.110001       18.230000
  H5        37.060001       55.840000       18.150000
  C11       38.330002       54.740002       19.469999
  H6        37.810001       55.040001       20.360001
  C12       39.490002       53.980000       19.600000
  H7        39.820000       53.770000       20.540001
  C13       40.209999       53.610001       18.459999
  H8        41.209999       53.349998       18.510000
  C6        41.220001       52.810001       15.640000
  C1        41.290001       51.419998       15.520000
  H1        40.430000       50.900002       15.100000
  C2        42.529999       50.779999       15.420000
  H2        42.580002       49.799999       15.050000
  C3        43.720001       51.439999       15.480000
  H3        44.630001       50.919998       15.690000
  C4        43.669998       52.830002       15.600000
  H4        44.580002       53.340000       15.790000
  C5        42.439999       53.520000       15.660000
  H5        42.360001       54.549999       15.910000
  IR        49.060001       54.180000        9.170000
  C1        51.090000       55.279999        5.490000
  C2        51.599998       56.119999        6.420000
  N1        50.020000       54.660000        6.080000
  C3a       49.830002       54.930000        7.400000
  N2        50.849998       55.860001        7.650000
  C4        51.080002       56.290001        8.940000
  C5a       50.470001       55.570000        9.930000
  C6        50.669998       55.950001       11.290000
  H1        50.040001       55.470001       12.080000
  C7        51.459999       57.070000       11.670000
  H2        51.570000       57.189999       12.690000
  C8        52.099998       57.770000       10.650000
  H3        52.540001       58.759998       10.800000
  C9        51.889999       57.389999        9.300000
  H4        52.310001       58.049999        8.620000
  C10       52.849998       56.779999        6.100000
  H5        53.240002       57.560001        6.660000
  C11       53.439999       56.520000        4.860000
  H6        54.049999       57.279999        4.380000
  C12       52.919998       55.560001        3.990000
  H7        53.570000       55.110001        3.280000
  C13       51.689999       54.990002        4.310000
  H8        50.990002       54.660000        3.500000
  C6        49.119999       53.910000        5.210000
  C1        47.759998       54.110001        5.330000
  H1        47.389999       54.939999        5.930000
  C2        46.779999       53.270000        4.760000
  H2        45.709999       53.470001        4.990000
  C3        47.240002       52.139999        3.990000
  H3        46.639999       51.250000        3.760000
  C4        48.590000       52.020000        3.780000
  H4        49.070000       51.400002        3.020000
  C5        49.529999       52.810001        4.450000
  H5        50.610001       52.470001        4.620000
  C1        51.980000       51.090000       10.020000
  C2        51.230000       51.119999       11.130000
  N1        51.480000       52.049999        9.180000
  C3b       50.360001       52.639999        9.650000
  N2        50.150002       51.990002       10.850000
  C4        49.070000       52.549999       11.680000
  C5b       48.500000       53.700001       11.190000
  C6        47.500000       54.279999       11.970000
  H1        47.099998       55.290001       11.810000
  C7        47.099998       53.660000       13.180000
  H2        46.189999       54.110001       13.640000
  C8        47.680000       52.480000       13.590000
  H3        47.259998       51.820000       14.360000
  C9        48.669998       51.880001       12.830000
  H4        49.139999       51.119999       13.380000
  C10       51.470001       50.299999       12.220000
  H5        51.060001       50.439999       13.220000
  C11       52.490002       49.340000       12.070000
  H6        52.740002       48.740002       12.990000
  C12       53.330002       49.330002       10.920000
  H7        54.189999       48.740002       10.920000
  C13       53.049999       50.160000        9.870000
  H8        53.709999       50.189999        8.950000
  C6        52.400002       52.669998        8.260000
  C1        52.689999       52.020000        7.080000
  H1        52.230000       51.110001        6.810000
  C2        53.830002       52.349998        6.330000
  H2        54.169998       51.560001        5.620000
  C3        54.660000       53.380001        6.790000
  H3        55.500000       53.549999        6.210000
  C4        54.389999       54.009998        7.990000
  H4        55.160000       54.750000        8.280000
  C5        53.270000       53.730000        8.740000
  H5        53.080002       54.340000        9.610000
  C1        45.610001       51.779999        8.260000
  C2        45.180000       53.080002        8.140000
  N1        46.970001       51.919998        8.520000
  C3c       47.389999       53.169998        8.580000
  N2        46.299999       53.919998        8.360000
  C4        46.430000       55.320000        8.430000
  C5c       47.590000       55.700001        9.060000
  C6        47.669998       56.959999        9.650000
  H1        48.439999       57.320000       10.340000
  C7        46.610001       57.810001        9.480000
  H2        46.900002       58.840000        9.740000
  C8        45.419998       57.470001        8.790000
  H3        44.509998       57.880001        8.940000
  C9        45.389999       56.200001        8.220000
  H4        44.590000       56.009998        7.520000
  C10       43.790001       53.349998        7.950000
  H5        43.439999       54.340000        8.050000
  C11       42.830002       52.340000        7.910000
  H6        41.820000       52.509998        8.160000
  C12       43.310001       51.000000        8.110000
  H7        42.560001       50.310001        8.220000
  C13       44.680000       50.720001        8.200000
  H8        45.070000       49.750000        8.270000
  C6        47.880001       50.810001        8.440000
  C1        48.880001       50.759998        7.490000
  H1        49.080002       51.669998        6.930000
  C2        49.779999       49.689999        7.480000
  H2        50.480000       49.610001        6.640000
  C3        49.770000       48.680000        8.470000
  H3        50.320000       47.770000        8.320000
  C4        48.759998       48.779999        9.440000
  H4        48.889999       48.000000       10.210000
  C5        47.860001       49.849998        9.440000
  H5        47.029999       49.849998       10.170000
