206
 generated by VMD
 Ir       52.318607     -103.863960       72.975433
 C        50.912514     -101.196014       69.777061
 C        49.700127     -101.642540       70.334045
 N        51.970493     -101.770859       70.455544
 C        51.562592     -102.664726       71.406082
 N        50.191822     -102.595001       71.298218
 C        49.535870     -103.730087       72.007736
 C        50.289356     -104.335678       73.076012
 C        49.647049     -105.307312       73.880920
 H        50.116047     -105.835732       74.666870
 C        48.348587     -105.801147       73.650650
 H        47.972282     -106.462265       74.367676
 C        47.677509     -105.305847       72.545700
 H        46.718262     -105.666565       72.282028
 C        48.250042     -104.284592       71.753822
 H        47.790764     -104.090225       70.849068
 C        48.496929     -101.044571       70.102188
 H        47.579124     -101.419724       70.591171
 C        48.461185      -99.984711       69.190697
 H        47.507713      -99.461380       69.030014
 C        49.617100      -99.552094       68.537704
 H        49.562531      -98.643616       67.894592
 C        50.857311     -100.157211       68.841522
 H        51.825623      -99.919846       68.403191
 C        53.369465     -101.456795       70.059006
 C        54.130756     -100.650375       70.857895
 H        53.658745     -100.216141       71.749725
 C        55.523491     -100.467346       70.735008
 H        56.011650      -99.719772       71.369774
 C        56.174549     -101.184593       69.692383
 H        57.285629     -101.106476       69.527466
 C        55.425407     -102.011711       68.868507
 H        55.995686     -102.676910       68.215836
 C        54.033478     -102.183670       69.022652
 H        53.533344     -102.873428       68.326141
 C        52.266083     -101.014259       76.233124
 C        52.666580     -102.211136       76.803024
 N        51.900497     -101.313782       74.886444
 C        52.081356     -102.692139       74.595230
 N        52.525055     -103.226715       75.806297
 C        52.713551     -104.616547       75.768478
 C        52.746269     -105.188087       74.520615
 C        53.237259     -106.538658       74.349182
 H        53.347652     -107.039230       73.400528
 C        53.716652     -107.227386       75.425110
 H        54.261436     -108.087906       75.226089
 C        53.644108     -106.675125       76.709610
 H        54.050343     -107.139328       77.644005
 C        53.166920     -105.404152       76.889656
 H        52.792065     -105.134850       77.901321
 C        53.131260     -102.132179       78.100418
 H        53.619411     -102.971413       78.560745
 C        53.045135     -100.927376       78.853699
 H        53.510399     -100.946175       79.920128
 C        52.595478      -99.702652       78.236809
 H        52.734062      -98.751945       78.789490
 C        52.212357      -99.821930       76.900406
 H        51.853458      -98.930954       76.444046
 C        51.042236     -100.459473       74.113564
 C        49.625980     -100.637825       74.085037
 H        49.200726     -101.467010       74.581238
 C        48.863045      -99.670395       73.368866
 H        47.789284      -99.600372       73.461227
 C        49.531933      -98.696991       72.607437
 H        48.964996      -97.814232       72.280899
 C        50.903194      -98.550385       72.600372
 H        51.543072      -98.148392       71.817902
 C        51.662884      -99.457153       73.336746
 H        52.734291      -99.232376       73.383301
 C        56.691910     -103.938400       72.441666
 C        56.122204     -104.670197       71.409912
 N        55.562702     -103.457703       73.167557
 C        54.407761     -103.810852       72.602310
 N        54.745579     -104.609467       71.634895
 C        53.657558     -105.110344       70.816277
 C        52.467354     -105.323463       71.462875
 C        51.495884     -106.271622       70.991455
 H        50.483772     -106.279495       71.426498
 C        51.818226     -106.955643       69.865524
 H        51.260643     -107.915329       69.797050
 C        52.965347     -106.596878       69.101326
 H        53.008240     -106.772270       68.026566
 C        53.934666     -105.677979       69.595947
 H        54.802853     -105.468056       68.971542
 C        56.983063     -105.191177       70.474815
 H        56.645260     -105.948746       69.785347
 C        58.307884     -104.804382       70.486336
 H        58.968452     -105.122635       69.702209
 C        58.819473     -104.003693       71.504807
 H        59.812988     -103.782112       71.484100
 C        57.992065     -103.608368       72.560272
 H        58.379631     -103.313049       73.472786
 C        55.681648     -102.773041       74.451492
 C        55.576069     -101.381424       74.512146
 H        54.879692     -100.892273       73.832298
 C        55.900665     -100.697830       75.688797
 H        55.558475      -99.716675       75.830353
 C        56.374176     -101.315186       76.806824
 H        56.877861     -100.763214       77.571167
 C        56.486629     -102.706085       76.764931
 H        56.984112     -103.183472       77.570488
 C        56.128525     -103.439301       75.613083
 H        56.348335     -104.471481       75.486328
 Ir       52.318607     -103.863960       84.079742
 C        49.574543     -104.891235       87.287247
 C        50.633369     -105.712601       87.473877
 N        49.753105     -104.309593       86.059570
 C        50.930519     -104.586166       85.436180
 N        51.527279     -105.479385       86.338303
 C        52.822868     -105.900955       86.124687
 C        53.533943     -105.203049       85.187714
 C        54.884331     -105.575714       84.920197
 H        55.403664     -105.118378       84.041260
 C        55.526409     -106.666977       85.568108
 H        56.523434     -106.782990       85.324432
 C        54.797234     -107.343826       86.542877
 H        55.101437     -108.317581       86.937149
 C        53.452797     -106.971512       86.797577
 H        52.966751     -107.616196       87.447617
 C        50.770699     -106.327835       88.778923
 H        51.440125     -107.093506       88.978233
 C        49.806049     -106.047058       89.750473
 H        49.574333     -106.784935       90.513329
 C        48.798653     -105.106125       89.529816
 H        48.349960     -104.633331       90.369019
 C        48.669300     -104.580124       88.246544
 H        47.664055     -104.275177       87.857338
 C        48.617634     -103.592003       85.489326
 C        48.265194     -103.840134       84.178520
 H        48.711498     -104.682739       83.652573
 C        47.382809     -103.035446       83.427010
 H        47.233353     -103.273293       82.350494
 C        46.804157     -101.889832       84.085899
 H        46.371052     -101.021683       83.572342
 C        47.069630     -101.722000       85.420944
 H        46.513466     -101.085358       86.112160
 C        48.031548     -102.478149       86.098862
 H        48.558319     -102.100037       87.042496
 C        54.082886     -100.672287       86.424423
 C        54.867661     -100.728882       85.339798
 N        53.133976     -101.649429       86.276199
 C        53.197441     -102.278801       85.083191
 N        54.244072     -101.636665       84.451660
 C        54.658951     -102.234634       83.171341
 C        54.016933     -103.404144       82.843353
 C        54.412613     -104.019257       81.655975
 H        54.137192     -105.042816       81.369324
 C        55.403679     -103.413841       80.843719
 H        55.528244     -103.895851       79.846542
 C        55.973648     -102.214005       81.207611
 H        56.544201     -101.569321       80.526611
 C        55.593063     -101.579254       82.378059
 H        56.261803     -100.803055       82.604568
 C        55.963631      -99.900879       85.162704
 H        56.763351     -100.055344       84.438629
 C        56.161736      -98.905296       86.139465
 H        57.104210      -98.296799       86.037582
 C        55.370590      -98.865494       87.322983
 H        55.659050      -98.245346       88.110321
 C        54.298546      -99.704903       87.449097
 H        53.661968      -99.711464       88.385918
 C        52.593987     -102.236389       87.476646
 C        51.577770     -101.576508       88.133049
 H        51.154999     -100.683403       87.763962
 C        51.269501     -101.865845       89.471802
 H        50.710083     -101.064285       90.008774
 C        51.999348     -102.865738       90.126724
 H        51.745613     -103.005829       91.120148
 C        53.040974     -103.504929       89.481537
 H        53.587029     -104.217133       90.128983
 C        53.356731     -103.264847       88.163223
 H        54.115757     -103.881210       87.705978
 C        50.248764     -101.587906       81.075424
 C        50.004128     -102.902344       80.756531
 N        50.962162     -101.679550       82.266846
 C        51.178154     -102.913857       82.681969
 N        50.605999     -103.702065       81.759811
 C        50.733513     -105.096573       81.904373
 C        51.728500     -105.435165       82.788818
 C        52.325375     -106.691536       82.702904
 H        53.242378     -107.023987       83.200073
 C        51.811707     -107.578613       81.795029
 H        52.168114     -108.597679       82.012039
 C        50.750553     -107.281059       80.904404
 H        50.583549     -107.723091       80.012543
 C        50.189526     -106.012924       81.030022
 H        49.254898     -105.851425       80.513794
 C        49.351143     -103.221497       79.526550
 H        49.336800     -104.223297       79.196701
 C        48.971214     -102.246201       78.605820
 H        48.860798     -102.451935       77.577713
 C        49.307671     -100.890007       78.942780
 H        49.144688     -100.227058       78.178162
 C        49.859756     -100.561569       80.188065
 H        50.047722      -99.578339       80.497627
 C        51.186348     -100.537964       83.111298
 C        50.637512     -100.452499       84.374817
 H        50.191559     -101.354828       84.785461
 C        50.924477      -99.351242       85.187134
 H        50.375423      -99.246452       86.130310
 C        51.838284      -98.342224       84.803535
 H        51.875416      -97.413284       85.340912
 C        52.403069      -98.478012       83.525414
 H        53.161243      -97.693893       83.356529
 C        52.106716      -99.579269       82.716537
 H        52.506813      -99.608719       81.686554
