206
 generated by VMD
 Ir       30.785334       39.952324     -107.014565
 C        28.538742       43.361755     -108.408371
 C        29.236038       43.839546     -107.289085
 N        28.748299       41.953453     -108.514557
 C        29.638582       41.582344     -107.542664
 N        29.915562       42.737007     -106.782372
 C        30.530174       42.504192     -105.448151
 C        31.036293       41.199837     -105.293861
 C        31.581083       40.844532     -104.094620
 H        32.137779       39.952927     -103.926918
 C        31.568443       41.744801     -102.972946
 H        31.858583       41.387978     -102.041397
 C        30.977697       43.021492     -103.082809
 H        30.659599       43.485458     -102.182121
 C        30.449799       43.415096     -104.361099
 H        30.209463       44.470978     -104.447411
 C        29.191006       45.237057     -107.031525
 H        29.336437       45.663940     -106.029518
 C        28.485157       46.072433     -107.880768
 H        28.347708       47.087894     -107.499130
 C        27.807873       45.557259     -108.998718
 H        26.997139       46.153282     -109.363907
 C        27.832455       44.219170     -109.307755
 H        27.276276       43.809158     -110.197060
 C        27.857395       41.075531     -109.175789
 C        26.875744       40.457169     -108.409897
 H        26.775434       40.665062     -107.384315
 C        25.956379       39.597473     -109.032959
 H        25.385555       38.879879     -108.439903
 C        26.055965       39.376209     -110.419403
 H        25.297838       38.746147     -110.851212
 C        27.076694       39.992596     -111.152596
 H        27.222836       39.687897     -112.205170
 C        27.996496       40.830250     -110.479385
 H        28.806259       41.298470     -111.076431
 C        34.595940       41.229469     -108.592575
 C        34.692299       39.828011     -108.385635
 N        33.449066       41.656349     -107.988129
 C        32.729927       40.545307     -107.425079
 N        33.598495       39.503860     -107.587204
 C        33.340050       38.466820     -106.692520
 C        31.991890       38.403603     -106.231888
 C        31.612696       37.321732     -105.455566
 H        30.597803       37.191948     -105.112862
 C        32.541199       36.346237     -105.122559
 H        32.206146       35.496124     -104.583809
 C        33.875538       36.443954     -105.533997
 H        34.579041       35.721642     -105.075783
 C        34.314930       37.518074     -106.306274
 H        35.333778       37.622932     -106.508392
 C        35.707237       39.043087     -108.948837
 H        35.973946       37.997688     -108.740486
 C        36.524323       39.713425     -109.836044
 H        37.402214       39.089588     -110.127823
 C        36.433128       41.051666     -110.092743
 H        37.252174       41.536140     -110.598953
 C        35.467022       41.841301     -109.456093
 H        35.186340       42.708588     -109.946022
 C        33.297157       42.987907     -107.527267
 C        34.151939       43.514328     -106.507645
 H        34.639137       42.871803     -105.743256
 C        34.203308       44.838898     -106.143387
 H        35.114838       45.223526     -105.671188
 C        33.251671       45.711960     -106.748566
 H        33.327057       46.717541     -106.462868
 C        32.480644       45.203621     -107.842735
 H        31.607946       45.722145     -108.101845
 C        32.521881       43.881794     -108.170715
 H        31.822338       43.543816     -108.939354
 C        29.627121       37.760925     -110.540176
 C        28.759274       37.219002     -109.566177
 N        30.488064       38.659973     -109.961136
 C        30.197556       38.761795     -108.607567
 N        29.087885       37.974136     -108.411552
 C        28.514639       38.045715     -107.036896
 C        29.002052       39.064064     -106.282516
 C        28.375183       39.374233     -105.061798
 H        28.642452       40.319176     -104.632912
 C        27.370916       38.549038     -104.578064
 H        26.707743       39.005859     -103.870941
 C        26.869535       37.460789     -105.283279
 H        26.210884       36.658085     -104.856483
 C        27.516373       37.208061     -106.542725
 H        27.278864       36.286064     -106.999687
 C        27.866579       36.136070     -109.876747
 H        27.474018       35.455551     -109.121384
 C        27.801456       35.755085     -111.244202
 H        27.075314       35.050247     -111.553589
 C        28.567581       36.328766     -112.275139
 H        28.421776       36.164337     -113.337311
 C        29.506113       37.261250     -111.921402
 H        30.031990       37.600597     -112.768036
 C        31.830837       38.884129     -110.552414
 C        31.969448       40.006577     -111.304810
 H        31.128057       40.665817     -111.241104
 C        33.072498       40.172676     -112.172791
 H        33.079605       40.968693     -112.903961
 C        34.037376       39.194298     -112.238235
 H        34.823471       39.275597     -112.977180
 C        33.984898       38.096622     -111.409897
 H        34.890244       37.556976     -111.108498
 C        32.839020       37.913345     -110.604919
 H        32.678604       36.957611     -110.024368
 Ir       30.785334       39.952324      -97.202477
 C        33.575989       41.815765      -94.519287
 C        32.442501       42.510880      -94.465179
 N        33.342979       40.722351      -95.346779
 C        32.055565       40.731926      -95.774078
 N        31.490210       41.745102      -95.110497
 C        30.167305       41.659851      -94.968903
 C        29.476007       41.169594      -96.077751
 C        28.109776       41.291325      -96.229721
 H        27.526686       40.855476      -96.990540
 C        27.400387       41.880360      -95.174911
 H        26.380751       42.179741      -95.323631
 C        28.052217       42.246147      -94.038651
 H        27.472176       42.130043      -93.095413
 C        29.422672       42.133995      -93.906448
 H        29.881844       42.361187      -92.863297
 C        32.385258       43.696693      -93.887726
 H        31.480703       44.328278      -94.098862
 C        33.527214       44.337700      -93.510284
 H        33.414864       45.388565      -93.187096
 C        34.712914       43.713409      -93.711227
 H        35.537136       44.070381      -93.154694
 C        34.745300       42.406929      -94.150040
 H        35.617111       41.877922      -94.392113
 C        34.432976       40.075260      -96.095367
 C        35.058372       40.815807      -97.085655
 H        34.568092       41.762882      -97.369171
 C        36.346825       40.500778      -97.580353
 H        36.730240       40.987839      -98.446594
 C        36.995491       39.343681      -97.015579
 H        38.027931       39.122864      -97.327042
 C        36.340805       38.570610      -96.047310
 H        36.724743       37.572929      -95.811035
 C        35.051041       38.898109      -95.632874
 H        34.546341       38.189018      -94.895058
 C        28.490717       36.891357      -95.051514
 C        28.200953       36.608391      -96.373932
 N        29.413563       37.908180      -95.019562
 C        29.805801       38.378983      -96.246017
 N        29.032667       37.564125      -97.129852
 C        29.051378       37.992374      -98.441551
 C        29.270363       39.390495      -98.527054
 C        28.696388       40.127998      -99.597961
 H        28.718071       41.239048      -99.596504
 C        28.099363       39.472862     -100.670410
 H        27.785732       39.990623     -101.463234
 C        27.997684       38.093739     -100.687271
 H        27.659916       37.576134     -101.571915
 C        28.475903       37.363068      -99.562668
 H        28.298496       36.288643      -99.574593
 C        27.286184       35.657669      -96.695999
 H        27.034433       35.515427      -97.795357
 C        26.593641       35.010128      -95.690186
 H        25.810183       34.322620      -96.003426
 C        26.845633       35.282608      -94.320190
 H        26.014542       35.079731      -93.614342
 C        27.869940       36.179531      -94.000778
 H        28.225464       36.302475      -92.974632
 C        29.940895       38.371841      -93.771378
 C        29.056562       38.911331      -92.828568
 H        28.041592       38.982758      -93.137329
 C        29.470165       38.989140      -91.467766
 H        28.752066       39.147186      -90.664108
 C        30.772947       38.631859      -91.119614
 H        31.131870       38.659973      -90.103256
 C        31.655653       38.218803      -92.092606
 H        32.655975       38.184761      -91.865021
 C        31.264755       38.049969      -93.421814
 H        31.992643       37.857422      -94.214783
 C        33.240662       37.597557      -99.933960
 C        33.291962       38.907837     -100.411598
 N        32.444939       37.709709      -98.804794
 C        31.968208       38.965126      -98.526138
 N        32.579590       39.730598      -99.507339
 C        32.514107       41.187527      -99.301270
 C        31.501968       41.568214      -98.417152
 C        31.225117       42.911469      -98.225288
 H        30.286106       43.185776      -97.817345
 C        32.009506       43.859604      -98.934280
 H        31.868807       44.912449      -98.803421
 C        33.016277       43.478920      -99.738571
 H        33.600372       44.362167      -99.939850
 C        33.334461       42.102077      -99.917633
 H        34.290367       41.758781     -100.264313
 C        33.961395       39.022873     -101.599380
 H        33.786972       40.023140     -101.981941
 C        34.624722       38.012428     -102.306488
 H        34.982128       38.280197     -103.304764
 C        34.663345       36.704887     -101.752655
 H        35.489891       36.073452     -101.937637
 C        33.909760       36.552612     -100.570526
 H        33.890686       35.578491     -100.150864
 C        31.938139       36.478607      -98.047073
 C        32.139591       36.297153      -96.720573
 H        32.742401       36.929344      -96.148857
 C        31.692350       35.070759      -96.049057
 H        32.176964       34.842957      -95.094406
 C        30.944370       34.142838      -96.881088
 H        30.442509       33.322659      -96.373604
 C        30.851349       34.292526      -98.250412
 H        30.233034       33.580853      -98.793091
 C        31.324331       35.488224      -98.819977
 H        31.117947       35.863129      -99.826080
