206
 generated by VMD
 Ir        4.665762      -16.521309     -140.994995
 C         7.672529      -19.695763     -141.386383
 C         8.052952      -18.925514     -140.365051
 N         6.481041      -19.094524     -141.893112
 C         6.181242      -17.927490     -141.219437
 N         7.228880      -17.822369     -140.345871
 C         7.368061      -16.557217     -139.655731
 C         6.188919      -15.850909     -139.648438
 C         6.124315      -14.618463     -138.929962
 H         5.209433      -14.121163     -138.946808
 C         7.258511      -14.119632     -138.264252
 H         7.174257      -13.157775     -137.717224
 C         8.436998      -14.904870     -138.233215
 H         9.280138      -14.427747     -137.865021
 C         8.442797      -16.173370     -138.893860
 H         9.294104      -16.772957     -138.728729
 C         9.106766      -19.383369     -139.599335
 H         9.322470      -18.883236     -138.680511
 C         9.760351      -20.595417     -139.908310
 H        10.521641      -21.030525     -139.265106
 C         9.453819      -21.248764     -141.099854
 H         9.972992      -22.175735     -141.400635
 C         8.389521      -20.856190     -141.804520
 H         8.238026      -21.298832     -142.791687
 C         5.626839      -19.811241     -142.773148
 C         5.223888      -21.103653     -142.373413
 H         4.968904      -21.248905     -141.367188
 C         4.758236      -21.986019     -143.381821
 H         4.293966      -22.966660     -143.204651
 C         4.571159      -21.582790     -144.725281
 H         3.752931      -22.077053     -145.248352
 C         4.864969      -20.289417     -145.093628
 H         4.443771      -19.749020     -145.908142
 C         5.485590      -19.457722     -144.137329
 H         5.909279      -18.501518     -144.422913
 C         2.384422      -18.067081     -137.595688
 C         1.622503      -17.036304     -138.042755
 N         3.564913      -18.129013     -138.350082
 C         3.543352      -17.151897     -139.333344
 N         2.413482      -16.457680     -139.183136
 C         2.304104      -15.318131     -139.862061
 C         3.399885      -14.918551     -140.622406
 C         3.552273      -13.541940     -141.093048
 H         4.629602      -13.238515     -141.214233
 C         2.463978      -12.727344     -140.970795
 H         2.572395      -11.643458     -141.082321
 C         1.319710      -13.277616     -140.352036
 H         0.527736      -12.560393     -140.219116
 C         1.201883      -14.522107     -139.822632
 H         0.241157      -14.888766     -139.542709
 C         0.237472      -16.934151     -137.576874
 H        -0.424103      -16.292294     -138.090027
 C        -0.297762      -17.932487     -136.751190
 H        -1.332976      -17.910221     -136.420380
 C         0.489527      -18.991535     -136.320160
 H         0.020387      -19.659054     -135.717407
 C         1.833557      -18.969353     -136.658539
 H         2.486343      -19.661877     -136.101135
 C         4.665709      -19.125175     -138.076401
 C         5.792976      -18.696060     -137.442184
 H         6.000914      -17.664143     -137.285950
 C         6.795519      -19.645515     -137.256622
 H         7.739883      -19.334999     -136.814972
 C         6.782589      -20.993298     -137.613861
 H         7.638601      -21.703697     -137.775970
 C         5.609806      -21.395100     -138.187378
 H         5.361601      -22.389530     -138.392334
 C         4.530506      -20.484699     -138.444244
 H         3.840544      -20.790913     -139.183167
 C         2.142792      -18.217022     -144.198792
 C         3.046888      -17.351494     -144.811615
 N         2.294540      -17.999306     -142.777313
 C         3.350357      -17.098637     -142.501190
 N         3.804502      -16.652267     -143.760529
 C         4.830336      -15.668494     -143.890350
 C         5.628073      -15.639306     -142.692169
 C         6.725327      -14.758773     -142.720306
 H         7.222837      -14.574372     -141.815491
 C         7.101257      -14.054032     -143.816772
 H         8.000154      -13.468749     -143.550995
 C         6.374071      -14.071477     -144.973907
 H         6.561169      -13.315940     -145.760269
 C         5.202002      -14.877988     -145.013763
 H         4.737202      -14.956147     -145.941864
 C         3.066078      -17.316711     -146.258072
 H         3.789970      -16.782623     -146.802521
 C         2.205559      -18.187328     -146.951630
 H         2.330131      -18.194206     -148.002014
 C         1.307585      -19.073341     -146.367828
 H         0.546875      -19.565685     -146.990326
 C         1.221720      -18.978046     -144.975540
 H         0.528850      -19.802734     -144.674164
 C         1.528707      -18.665257     -141.811127
 C         0.230934      -18.250721     -141.433563
 H        -0.028416      -17.174271     -141.558868
 C        -0.643940      -19.126419     -140.731613
 H        -1.684574      -18.841610     -140.666397
 C        -0.160313      -20.391262     -140.343430
 H        -0.658451      -20.989544     -139.671631
 C         1.157190      -20.785316     -140.707153
 H         1.712194      -21.442265     -140.099060
 C         1.899168      -19.913574     -141.437805
 H         2.931284      -20.111187     -141.576691
 Ir        4.665764      -16.521309     -131.292297
 C         4.717833      -13.249980     -128.502014
 C         4.358584      -14.328689     -127.692734
 N         4.737137      -13.664962     -129.810242
 C         4.467716      -14.972732     -129.932922
 N         4.210100      -15.388791     -128.615631
 C         3.856877      -16.718346     -128.427200
 C         4.188723      -17.534687     -129.499969
 C         4.043056      -18.945572     -129.313721
 H         4.560991      -19.659233     -129.892700
 C         3.609220      -19.508972     -128.177643
 H         3.355745      -20.552979     -128.135178
 C         3.251350      -18.658966     -127.030762
 H         3.087295      -19.030365     -126.086914
 C         3.365276      -17.297794     -127.192093
 H         3.005328      -16.701378     -126.324844
 C         4.525870      -14.209912     -126.284302
 H         4.362793      -14.907001     -125.575447
 C         5.139170      -13.065618     -125.853195
 H         5.319634      -12.984591     -124.856216
 C         5.294078      -11.927026     -126.654823
 H         5.735465      -11.091763     -126.200386
 C         5.091662      -12.040410     -127.984932
 H         5.027521      -11.150359     -128.626404
 C         4.203792      -12.804053     -130.874542
 C         2.863134      -12.810929     -131.062927
 H         2.276158      -12.974402     -130.206863
 C         2.360069      -12.153769     -132.194092
 H         1.357868      -12.359479     -132.556580
 C         3.212801      -11.400489     -133.052017
 H         2.836076      -10.907414     -133.968445
 C         4.628032      -11.481767     -132.796051
 H         5.319884      -10.935584     -133.493561
 C         5.144794      -12.179418     -131.740204
 H         6.149151      -12.521108     -131.531830
 C         8.843784      -17.450531     -130.757782
 C         8.429638      -18.546684     -131.501160
 N         7.774238      -16.627060     -130.465591
 C         6.645905      -17.115582     -131.003021
 N         7.054844      -18.283577     -131.708099
 C         6.063387      -18.921356     -132.545334
 C         4.752518      -18.395786     -132.328094
 C         3.654224      -19.017868     -132.913055
 H         2.667608      -18.718315     -132.657410
 C         3.835331      -20.077358     -133.808197
 H         2.934181      -20.668991     -134.097504
 C         5.125839      -20.494289     -134.099487
 H         5.258152      -21.215519     -134.919800
 C         6.246183      -19.966236     -133.457321
 H         7.253485      -20.312496     -133.579208
 C         9.385883      -19.409817     -132.064789
 H         9.192842      -20.256821     -132.747894
 C        10.702221      -19.186016     -131.779724
 H        11.377050      -19.876671     -132.269531
 C        11.128599      -18.085907     -130.936661
 H        12.199916      -17.913860     -130.673645
 C        10.170989      -17.220379     -130.454224
 H        10.530411      -16.549683     -129.646088
 C         7.810163      -15.718955     -129.359314
 C         7.501241      -16.154537     -128.070084
 H         7.042295      -17.077209     -127.943008
 C         7.549249      -15.253739     -126.962982
 H         7.269608      -15.665624     -126.018394
 C         8.005325      -13.955321     -127.114655
 H         7.700022      -13.149894     -126.410889
 C         8.290568      -13.476853     -128.404694
 H         8.247662      -12.428197     -128.674835
 C         8.195446      -14.362088     -129.532715
 H         8.560940      -13.967206     -130.429977
 C         5.123955      -14.271052     -134.970428
 C         3.775671      -14.505376     -134.875931
 N         5.837896      -14.943784     -133.914673
 C         4.817640      -15.627955     -133.144287
 N         3.615753      -15.342107     -133.747559
 C         2.431610      -15.913817     -133.097992
 C         2.590826      -16.140610     -131.722992
 C         1.429904      -16.024536     -130.895889
 H         1.533699      -15.766116     -129.871460
 C         0.174770      -15.871284     -131.530518
 H        -0.678846      -15.803964     -130.910751
 C         0.030201      -15.836501     -132.880615
 H        -0.990273      -15.893563     -133.234711
 C         1.120569      -15.879991     -133.729034
 H         1.054203      -16.382034     -134.670120
 C         2.881685      -13.815511     -135.685547
 H         1.841821      -14.030786     -135.697876
 C         3.293770      -12.882583     -136.621918
 H         2.533685      -12.545457     -137.302521
 C         4.650990      -12.586328     -136.661774
 H         4.961624      -11.739982     -137.238159
 C         5.527334      -13.256663     -135.783569
 H         6.582579      -12.853690     -135.666199
 C         7.241547      -15.500964     -134.072815
 C         8.211933      -14.757554     -133.448883
 H         7.925524      -14.184970     -132.535522
 C         9.480886      -15.291251     -133.362671
 H        10.242487      -14.790162     -132.797821
 C         9.845018      -16.513260     -133.887558
 H        10.795740      -16.844296     -133.770355
 C         8.868986      -17.292244     -134.501343
 H         9.226053      -18.173603     -135.057953
 C         7.555653      -16.792690     -134.603836
 H         6.791201      -17.370663     -134.956604
