206
 generated by VMD
  IR        44.520000       30.490000       33.959999
  C1        40.509998       31.219999       32.590000
  C2        40.869999       30.080000       31.870001
  N1        41.610001       31.680000       33.270000
  C3a       42.680000       30.889999       33.099998
  N2        42.230000       29.900000       32.209999
  C4        43.150002       28.940001       31.809999
  C5a       44.259998       28.860001       32.639999
  C6        45.160000       27.770000       32.419998
  H1        45.820000       27.410000       33.160000
  C7        44.990002       26.840000       31.469999
  H2        45.770000       26.139999       31.230000
  C8        43.820000       26.910000       30.580000
  H3        43.540001       26.139999       29.959999
  C9        42.950001       27.959999       30.760000
  H4        42.130001       28.010000       30.010000
  C10       39.840000       29.280001       31.299999
  H5        39.930000       28.410000       30.799999
  C11       38.560001       29.650000       31.610001
  H6        37.810001       29.059999       31.260000
  C12       38.230000       30.900000       32.150002
  H7        37.209999       31.090000       32.299999
  C13       39.220001       31.670000       32.650002
  H8        39.040001       32.720001       32.919998
  C6        41.889999       33.119999       33.349998
  C1        42.509998       33.689999       32.290001
  H1        42.299999       33.270000       31.350000
  C2        42.959999       35.009998       32.430000
  H2        43.700001       35.419998       31.750000
  C3        42.669998       35.770000       33.599998
  H3        43.049999       36.799999       33.740002
  C4        42.040001       35.070000       34.689999
  H4        41.849998       35.639999       35.639999
  C5        41.660000       33.759998       34.599998
  H5        41.389999       33.040001       35.360001
  C1        43.270000       28.049999       37.290001
  C2        44.639999       27.830000       37.310001
  N1        42.919998       28.850000       36.220001
  C3b       44.009998       29.200001       35.520000
  N2        45.099998       28.620001       36.230000
  C4        46.430000       28.990000       35.799999
  C5b       46.419998       29.700001       34.560001
  C6        47.619999       29.969999       33.910000
  H1        47.619999       30.379999       32.930000
  C7        48.840000       29.660000       34.520000
  H2        49.759998       29.709999       33.889999
  C8        48.830002       29.080000       35.779999
  H3        49.790001       28.990000       36.310001
  C9        47.650002       28.700001       36.419998
  H4        47.590000       28.170000       37.349998
  C10       45.230000       27.200001       38.419998
  H5        46.310001       27.049999       38.599998
  C11       44.410000       26.740000       39.410000
  H6        44.939999       26.290001       40.240002
  C12       42.970001       26.900000       39.349998
  H7        42.290001       26.500000       40.139999
  C13       42.430000       27.580000       38.279999
  H8        41.330002       27.469999       38.180000
  C6        41.590000       28.850000       35.689999
  C1        41.189999       27.879999       34.770000
  H1        41.910000       27.290001       34.310001
  C2        39.860001       27.870001       34.250000
  H2        39.650002       27.110001       33.529999
  C3        38.900002       28.750000       34.720001
  H3        38.020000       29.030001       34.099998
  C4        39.279999       29.760000       35.619999
  H4        38.750000       30.700001       35.720001
  C5        40.630001       29.809999       36.110001
  H5        40.790001       30.500000       36.880001
  C1        45.130001       34.139999       36.220001
  C2        45.730000       34.380001       35.009998
  N1        44.660000       32.779999       36.299999
  C3c       45.020000       32.180000       35.029999
  N2        45.650002       33.160000       34.299999
  C4        46.070000       32.770000       32.950001
  C5c       45.299999       31.740000       32.389999
  C6        45.130001       31.740000       30.969999
  H1        44.270000       31.290001       30.540001
  C7        45.889999       32.660000       30.209999
  H2        45.770000       32.639999       29.160000
  C8        46.770000       33.529999       30.770000
  H3        47.410000       34.049999       30.070000
  C9        46.930000       33.619999       32.139999
  H4        47.889999       33.830002       32.560001
  C10       46.099998       35.669998       34.650002
  H5        46.639999       35.880001       33.759998
  C11       45.900002       36.759998       35.480000
  H6        46.380001       37.669998       35.169998
  C12       45.220001       36.529999       36.669998
  H7        44.889999       37.380001       37.230000
  C13       44.799999       35.220001       36.980000
  H8        44.060001       35.080002       37.830002
  C6        44.619999       31.980000       37.590000
  C1        43.360001       31.820000       38.110001
  H1        42.500000       31.799999       37.400002
  C2        43.200001       30.940001       39.160000
  H2        42.220001       30.709999       39.529999
  C3        44.230000       30.230000       39.740002
  H3        44.029999       29.590000       40.500000
  C4        45.509998       30.360001       39.209999
  H4        46.330002       29.920000       39.799999
  C5        45.720001       31.240000       38.130001
  H5        46.619999       31.290001       37.650002
  IR        34.180000       26.500000       27.600000
  C1        32.009998       22.700001       27.230000
  C2        32.169998       22.850000       28.590000
  N1        32.740002       23.750000       26.549999
  C3a       33.250000       24.610001       27.520000
  N2        32.980000       24.049999       28.770000
  C4        33.580002       24.719999       29.950001
  C5a       33.950001       26.040001       29.680000
  C6        34.169998       26.900000       30.790001
  H1        34.060001       27.950001       30.680000
  C7        34.049999       26.430000       32.110001
  H2        34.029999       27.040001       32.990002
  C8        33.840000       25.090000       32.290001
  H3        33.669998       24.650000       33.259998
  C9        33.650002       24.230000       31.270000
  H4        33.450001       23.120001       31.430000
  C10       31.510000       21.889999       29.480000
  H5        31.660000       21.910000       30.530001
  C11       30.730000       20.900000       28.950001
  H6        30.129999       20.209999       29.549999
  C12       30.600000       20.730000       27.549999
  H7        29.709999       20.290001       27.180000
  C13       31.320000       21.650000       26.730000
  H8        31.360001       21.590000       25.700001
  C6        33.080002       23.629999       25.120001
  C1        34.090000       22.740000       24.719999
  H1        34.459999       22.170000       25.549999
  C2        34.410000       22.600000       23.379999
  H2        35.169998       21.940001       23.040001
  C3        33.619999       23.260000       22.400000
  H3        33.830002       23.059999       21.360001
  C4        32.599998       24.120001       22.840000
  H4        32.040001       24.690001       22.139999
  C5        32.349998       24.299999       24.160000
  H5        31.450001       24.900000       24.520000
  C1        30.910000       29.340000       27.920000
  C2        32.070000       30.139999       28.049999
  N1        31.299999       28.059999       27.799999
  C3b       32.680000       27.900000       27.950001
  N2        33.180000       29.200001       28.040001
  C4        34.590000       29.330000       28.209999
  C5b       35.349998       28.190001       27.889999
  C6        36.709999       28.250000       28.010000
  H1        37.310001       27.379999       27.990000
  C7        37.380001       29.480000       28.190001
  H2        38.410000       29.490000       27.940001
  C8        36.680000       30.650000       28.450001
  H3        37.330002       31.500000       28.459999
  C9        35.270000       30.570000       28.440001
  H4        34.759998       31.530001       28.690001
  C10       31.910000       31.549999       28.190001
  H5        32.820000       32.119999       28.120001
  C11       30.650000       32.130001       28.240000
  H6        30.549999       33.240002       28.400000
  C12       29.500000       31.280001       28.180000
  H7        28.530001       31.700001       28.290001
  C13       29.629999       29.910000       27.969999
  H8        28.730000       29.270000       27.770000
  C6        30.360001       26.940001       27.820000
  C1        30.170000       26.389999       29.120001
  H1        30.230000       27.080000       29.930000
  C2        29.620001       25.070000       29.219999
  H2        30.020000       24.360001       29.980000
  C3        29.090000       24.450001       28.110001
  H3        28.850000       23.430000       28.139999
  C4        29.020000       25.070000       26.870001
  H4        28.410000       24.650000       26.070000
  C5        29.830000       26.230000       26.700001
  H5        30.200001       26.480000       25.639999
  C1        34.810001       27.080000       23.340000
  C2        35.720001       26.120001       23.600000
  N1        34.189999       27.530001       24.490000
  C3c       34.680000       26.830000       25.570000
  N2        35.680000       25.980000       25.010000
  C4        36.330002       25.170000       26.010000
  C5c       35.980000       25.360001       27.370001
  C6        36.689999       24.620001       28.350000
  H1        36.630001       25.160000       29.320000
  C7        37.709999       23.700001       28.010000
  H2        38.380001       23.330000       28.690001
  C8        37.930000       23.480000       26.629999
  H3        38.459999       22.549999       26.370001
  C9        37.279999       24.200001       25.650000
  H4        37.200001       23.870001       24.570000
  C10       36.500000       25.559999       22.549999
  H5        37.259998       24.840000       22.700001
  C11       36.340000       25.930000       21.170000
  H6        37.160000       25.830000       20.379999
  C12       35.419998       26.930000       20.879999
  H7        35.480000       27.530001       19.959999
  C13       34.689999       27.480000       21.950001
  H8        33.709999       27.799999       21.639999
  C6        33.130001       28.549999       24.459999
  C1        33.450001       29.840000       24.620001
  H1        34.330002       30.139999       25.100000
  C2        32.520000       30.850000       24.620001
  H2        32.950001       31.790001       24.709999
  C3        31.160000       30.559999       24.320000
  H3        30.379999       31.360001       24.240000
  C4        30.799999       29.230000       24.100000
  H4        29.740000       29.049999       24.010000
  C5        31.790001       28.240000       24.110001
  H5        31.620001       27.160000       23.809999
