206
 generated by VMD
 Ir       -0.173137        0.048653       -7.692303
 C        -1.755620       -1.383026      -11.506409
 C        -2.265033       -0.102123      -11.375687
 N        -1.013789       -1.647820      -10.343113
 C        -1.024960       -0.575321       -9.466915
 N        -1.810949        0.369461      -10.109192
 C        -2.081901        1.553570       -9.347702
 C        -1.715403        1.451305       -7.999180
 C        -2.192842        2.413616       -7.092194
 H        -2.020017        2.283283       -6.035908
 C        -2.962245        3.495731       -7.527676
 H        -3.278258        4.243721       -6.813854
 C        -3.269640        3.635426       -8.886456
 H        -3.827869        4.489574       -9.229546
 C        -2.833395        2.671402       -9.793346
 H        -2.917079        2.876606      -10.842674
 C        -2.987109        0.450993      -12.445301
 H        -3.392387        1.442944      -12.379097
 C        -3.180378       -0.275078      -13.625118
 H        -3.598359        0.214790      -14.489483
 C        -2.667946       -1.569237      -13.738094
 H        -2.815499       -2.131435      -14.651188
 C        -1.962834       -2.123211      -12.671871
 H        -1.576363       -3.130997      -12.757965
 C        -0.403999       -2.928883      -10.091053
 C        -1.055740       -3.847054       -9.252010
 H        -1.947558       -3.563484       -8.725174
 C        -0.530510       -5.143326       -9.103962
 H        -0.997875       -5.833923       -8.419239
 C         0.622233       -5.522278       -9.791477
 H         0.956320       -6.548233       -9.758297
 C         1.275815       -4.589134      -10.614014
 H         2.177330       -4.871845      -11.130589
 C         0.762993       -3.299496      -10.763489
 H         1.278251       -2.590492      -11.397541
 C         2.622385        3.084843       -9.116650
 C         2.703805        3.184032       -7.749454
 N         1.656744        2.124805       -9.410355
 C         1.101860        1.578407       -8.265041
 N         1.738463        2.260021       -7.227619
 C         1.313821        1.918339       -5.900845
 C         0.353683        0.904015       -5.824783
 C        -0.172765        0.554615       -4.576603
 H        -1.016475       -0.107430       -4.493832
 C         0.280243        1.163929       -3.398586
 H        -0.107528        0.850018       -2.440414
 C         1.246113        2.157509       -3.468578
 H         1.632803        2.596107       -2.564533
 C         1.751120        2.555885       -4.710335
 H         2.422411        3.397148       -4.742592
 C         3.686963        4.029034       -7.189739
 H         3.773186        4.171822       -6.123165
 C         4.573503        4.731644       -7.998749
 H         5.344638        5.356949       -7.561432
 C         4.479956        4.630737       -9.393330
 H         5.169776        5.169724      -10.031956
 C         3.495620        3.813965       -9.954288
 H         3.387719        3.783253      -11.029236
 C         1.283027        1.759521      -10.751961
 C         0.525708        2.650177      -11.524036
 H         0.194074        3.582928      -11.103333
 C         0.137174        2.293236      -12.823086
 H        -0.338613        3.017532      -13.457451
 C         0.486870        1.038155      -13.341137
 H         0.116374        0.732368      -14.300846
 C         1.250867        0.161613      -12.576561
 H         1.577949       -0.778625      -13.002079
 C         1.646667        0.518555      -11.284378
 H         2.208507       -0.174938      -10.675434
 C         2.589117       -3.290112       -6.982777
 C         1.463120       -3.609474       -6.252411
 N         2.363263       -2.035564       -7.556538
 C         1.114253       -1.520203       -7.218346
 N         0.563251       -2.527988       -6.418301
 C        -0.798791       -2.326611       -6.024998
 C        -1.479664       -1.346111       -6.759869
 C        -2.858240       -1.227322       -6.616974
 H        -3.396432       -0.518852       -7.230022
 C        -3.570995       -2.017593       -5.711464
 H        -4.645792       -1.909252       -5.611137
 C        -2.884600       -2.953167       -4.927074
 H        -3.412384       -3.529980       -4.175259
 C        -1.502132       -3.107677       -5.080410
 H        -0.961340       -3.698067       -4.362717
 C         1.437083       -4.810989       -5.522968
 H         0.551491       -5.144463       -5.018661
 C         2.559810       -5.655701       -5.499798
 H         2.544998       -6.550949       -4.904049
 C         3.690058       -5.323078       -6.254784
 H         4.559492       -5.973831       -6.252110
 C         3.697879       -4.151516       -7.003502
 H         4.553623       -3.923710       -7.626728
 C         3.393676       -1.345985       -8.315243
 C         3.952559       -0.166950       -7.811325
 H         3.645269        0.210197       -6.840794
 C         4.952364        0.501884       -8.529617
 H         5.328885        1.447109       -8.174961
 C         5.415988       -0.028202       -9.742367
 H         6.179421        0.496040      -10.303120
 C         4.867393       -1.220493      -10.235397
 H         5.207069       -1.616676      -11.186222
 C         3.866994       -1.875217       -9.517735
 H         3.480779       -2.821297       -9.882648
 Ir       -0.173137        0.048653        7.709557
 C         1.381957       -1.656483       11.421898
 C         2.488801       -1.164299       10.773174
 N         0.252321       -1.326881       10.648993
 C         0.620819       -0.617950        9.510303
 N         2.002771       -0.512985        9.618458
 C         2.646302        0.182289        8.552361
 C         1.906249        0.169674        7.361832
 C         2.543305        0.547539        6.172426
 H         2.049138        0.414349        5.227463
 C         3.861151        1.021004        6.183647
 H         4.337350        1.311829        5.260796
 C         4.564039        1.110825        7.393099
 H         5.559232        1.521591        7.412354
 C         3.948430        0.683983        8.576073
 H         4.440241        0.873642        9.518543
 C         3.762633       -1.413490       11.305573
 H         4.645795       -1.080864       10.784145
 C         3.907514       -2.149094       12.477877
 H         4.903275       -2.373955       12.861673
 C         2.778869       -2.641289       13.147215
 H         2.890594       -3.176300       14.080631
 C         1.509591       -2.384605       12.619627
 H         0.644574       -2.744598       13.145695
 C        -1.024154       -1.966072       10.856228
 C        -1.147626       -3.329399       10.580027
 H        -0.342415       -3.862152       10.107151
 C        -2.339901       -4.002365       10.905457
 H        -2.442385       -5.050850       10.680574
 C        -3.396880       -3.304512       11.505033
 H        -4.323970       -3.821960       11.732513
 C        -3.271283       -1.934555       11.768925
 H        -4.098907       -1.390259       12.203533
 C        -2.090832       -1.269081       11.445547
 H        -2.001366       -0.202415       11.612980
 C         0.109036        4.378151        8.270107
 C        -0.011222        4.220783        6.905495
 N         0.052259        3.090855        8.850571
 C        -0.105804        2.113503        7.882689
 N        -0.179242        2.822594        6.684067
 C        -0.567308        2.054798        5.545647
 C        -0.601308        0.666512        5.742598
 C        -0.957620       -0.160942        4.666885
 H        -0.881324       -1.230339        4.762157
 C        -1.324787        0.370804        3.419554
 H        -1.602369       -0.292564        2.616375
 C        -1.309876        1.751606        3.231522
 H        -1.545331        2.166832        2.269110
 C        -0.932349        2.593178        4.286009
 H        -0.967473        3.661713        4.132389
 C         0.060754        5.363258        6.079075
 H         0.125726        5.262196        5.012323
 C         0.215405        6.634010        6.635735
 H         0.258035        7.500168        5.996628
 C         0.331417        6.778122        8.024971
 H         0.527459        7.747288        8.450735
 C         0.273383        5.649761        8.837027
 H         0.390160        5.758545        9.906809
 C         0.509753        2.843369       10.193462
 C         1.883767        2.855522       10.453356
 H         2.564312        3.262318        9.717571
 C         2.374499        2.326351       11.642159
 H         3.438226        2.264027       11.792152
 C         1.494898        1.814972       12.604080
 H         1.892990        1.397404       13.520193
 C         0.122725        1.817795       12.360695
 H        -0.554518        1.389397       13.085415
 C        -0.365292        2.339485       11.160200
 H        -1.432113        2.357742       10.977825
 C        -4.373953       -0.692375        8.535206
 C        -3.886970       -1.914703        8.147840
 N        -3.352754        0.248798        8.349064
 C        -2.197482       -0.354065        7.882587
 N        -2.555011       -1.685966        7.737267
 C        -1.544546       -2.545727        7.204941
 C        -0.243897       -2.010029        7.197968
 C         0.835742       -2.829552        6.869839
 H         1.846361       -2.438675        6.905418
 C         0.635945       -4.170650        6.527454
 H         1.476254       -4.779518        6.222721
 C        -0.648041       -4.699718        6.508373
 H        -0.806562       -5.744148        6.267885
 C        -1.744055       -3.895172        6.833740
 H        -2.730150       -4.243927        6.605743
 C        -4.705786       -3.054977        8.286057
 H        -4.327516       -4.048019        8.060268
 C        -5.998234       -2.944695        8.796661
 H        -6.616843       -3.823166        8.899208
 C        -6.486401       -1.694138        9.182781
 H        -7.504490       -1.593674        9.532352
 C        -5.674260       -0.567970        9.052055
 H        -6.068294        0.398552        9.333954
 C        -3.620404        1.654175        8.182369
 C        -3.655011        2.183811        6.893806
 H        -3.663338        1.522388        6.040661
 C        -3.628277        3.572102        6.703728
 H        -3.649620        3.973442        5.705795
 C        -3.549972        4.431614        7.805595
 H        -3.419725        5.492893        7.652239
 C        -3.539598        3.901115        9.097633
 H        -3.448295        4.551849        9.951218
 C        -3.590563        2.511963        9.291199
 H        -3.651609        2.107193       10.289310
