206
 generated by VMD
 Ir       96.395851      103.724304      -36.880257
 C        97.285698      108.118874      -36.864056
 C        97.410782      107.640717      -38.183758
 N        97.055099      106.944992      -36.079437
 C        96.949532      105.747070      -36.851738
 N        97.230865      106.239952      -38.143761
 C        97.809647      105.284241      -38.938576
 C        97.667984      103.906784      -38.555511
 C        98.181671      102.862160      -39.371719
 H        98.199471      101.851135      -38.954079
 C        98.720345      103.178070      -40.608421
 H        98.897987      102.316422      -41.293480
 C        98.819000      104.560806      -41.060211
 H        99.063065      104.718887      -42.076698
 C        98.387558      105.563980      -40.233162
 H        98.722839      106.523613      -40.389656
 C        97.544502      108.666817      -39.176647
 H        97.576889      108.361328      -40.221405
 C        97.596657      110.015823      -38.851135
 H        97.669792      110.656731      -39.713455
 C        97.517250      110.455238      -37.528065
 H        97.642654      111.510040      -37.305878
 C        97.336655      109.481743      -36.541100
 H        97.109070      109.872589      -35.607750
 C        97.258072      106.880363      -34.647224
 C        98.508476      106.606514      -34.092979
 H        99.324066      106.320038      -34.734333
 C        98.623016      106.619270      -32.708633
 H        99.534607      106.233574      -32.290016
 C        97.538574      106.942047      -31.862822
 H        97.565254      106.840012      -30.785892
 C        96.282715      107.348839      -32.476212
 H        95.413170      107.524452      -31.784872
 C        96.191414      107.241898      -33.834312
 H        95.295143      107.552536      -34.314831
 C        92.864319      103.752998      -39.422230
 C        92.966507      102.428886      -38.941727
 N        93.980316      104.410332      -39.038376
 C        94.800041      103.623489      -38.248222
 N        94.164749      102.416130      -38.238785
 C        94.986122      101.314728      -37.824455
 C        96.118355      101.651482      -37.073765
 C        97.047531      100.630287      -36.783302
 H        97.873009      100.730728      -36.075623
 C        96.798302       99.250504      -37.105728
 H        97.479233       98.400131      -37.064445
 C        95.660065       99.019081      -37.869324
 H        95.370209       98.014191      -38.018265
 C        94.741440      100.023727      -38.137108
 H        93.763756       99.775139      -38.247299
 C        91.711433      101.642410      -38.865822
 H        91.534729      100.639236      -38.510681
 C        90.527641      102.166191      -39.347992
 H        89.641747      101.548599      -39.545383
 C        90.503235      103.501587      -39.803539
 H        89.549286      103.851105      -40.242081
 C        91.714767      104.265739      -39.901936
 H        91.731491      105.263031      -40.292759
 C        94.438416      105.615242      -39.760689
 C        94.149124      106.826035      -39.125954
 H        93.751770      106.903419      -38.130814
 C        94.259232      107.994278      -39.885094
 H        94.175346      108.955139      -39.448967
 C        94.678833      107.929771      -41.211811
 H        94.351074      108.701157      -41.845322
 C        95.058731      106.758095      -41.794014
 H        95.520500      106.636566      -42.745537
 C        94.978500      105.559441      -41.018070
 H        95.504097      104.746719      -41.287025
 C        94.245789      103.788315      -33.109062
 C        95.564392      103.488953      -32.763855
 N        94.244896      103.861649      -34.509888
 C        95.437653      103.662003      -35.051712
 N        96.230057      103.347679      -33.917206
 C        97.569550      102.996445      -34.214706
 C        98.047821      103.414642      -35.533817
 C        99.425095      103.438065      -35.773823
 H        99.830757      104.085220      -36.561424
 C       100.343674      102.843033      -34.889664
 H       101.293655      102.654411      -35.336952
 C        99.907631      102.352478      -33.669453
 H       100.672775      102.094940      -32.996613
 C        98.540207      102.393074      -33.360859
 H        98.220444      101.804413      -32.530842
 C        95.889938      103.404953      -31.376352
 H        96.973175      103.268211      -31.252628
 C        95.030159      103.689835      -30.332075
 H        95.398956      103.654640      -29.325819
 C        93.714615      104.094543      -30.694401
 H        93.090950      104.545105      -29.996107
 C        93.316391      104.073074      -32.072174
 H        92.221642      104.300446      -32.481468
 C        93.054749      104.135254      -35.171703
 C        92.716263      105.434845      -35.401489
 H        93.443405      106.210274      -35.213440
 C        91.603256      105.761177      -36.087143
 H        91.558609      106.730377      -36.562492
 C        90.676376      104.768677      -36.420067
 H        89.686722      105.118927      -36.603413
 C        90.913742      103.416603      -36.075745
 H        90.068832      102.755829      -35.900497
 C        92.143181      103.070770      -35.471710
 H        92.425392      102.070045      -35.434044
 Ir       96.395851      103.724297      -24.289925
 C        94.313576      102.417358      -20.823479
 C        95.631561      102.340096      -20.408463
 N        94.292610      102.621178      -22.172634
 C        95.520355      102.901772      -22.591820
 N        96.344902      102.812004      -21.506760
 C        97.777084      102.685440      -21.842093
 C        98.098328      103.281334      -23.024597
 C        99.437332      103.468231      -23.299419
 H        99.746773      103.926155      -24.246492
 C       100.433685      103.098114      -22.366631
 H       101.362427      103.631828      -22.409092
 C       100.136765      102.466293      -21.155544
 H       100.946533      102.108681      -20.576487
 C        98.775330      102.220886      -20.952660
 H        98.542000      101.721390      -20.031651
 C        95.876663      102.064651      -19.004234
 H        96.939941      102.169998      -18.615191
 C        94.800034      101.835564      -18.141636
 H        95.061913      101.705940      -17.128120
 C        93.517715      101.918221      -18.622211
 H        92.707550      101.894188      -17.945501
 C        93.288177      102.155037      -19.969292
 H        92.241333      102.002968      -20.228157
 C        93.139771      102.381180      -23.015053
 C        92.150040      103.381531      -22.842911
 H        92.437134      104.254578      -22.273125
 C        90.950073      103.166916      -23.525848
 H        90.172562      103.843010      -23.371670
 C        90.859482      102.143257      -24.455650
 H        89.888184      101.948883      -24.978909
 C        91.869858      101.220665      -24.607098
 H        91.451004      100.231598      -24.962219
 C        92.990219      101.271805      -23.834513
 H        93.396721      100.271576      -23.695606
 C        96.154327      107.901688      -23.125706
 C        96.543945      107.942764      -24.374634
 N        96.249527      106.552551      -22.660213
 C        96.697678      105.737381      -23.688448
 N        96.932541      106.605408      -24.724726
 C        97.567581      106.006332      -25.920231
 C        97.530098      104.602997      -25.882240
 C        98.183167      103.868515      -26.920443
 H        97.937485      102.847565      -26.903278
 C        98.843811      104.570862      -27.918621
 H        99.675255      104.032486      -28.407347
 C        98.947083      105.982536      -27.981129
 H        99.719162      106.456161      -28.550039
 C        98.275345      106.686348      -26.983072
 H        98.090149      107.753540      -27.096697
 C        96.454926      109.069191      -25.111349
 H        96.622604      109.057907      -26.149788
 C        95.957520      110.199043      -24.544683
 H        95.660904      111.067688      -25.134932
 C        95.567444      110.271896      -23.225618
 H        95.230637      111.182472      -22.787891
 C        95.734993      109.040123      -22.509743
 H        95.800415      109.051895      -21.420670
 C        96.426376      106.154968      -21.260483
 C        95.296997      105.795029      -20.534981
 H        94.299561      105.665031      -20.853615
 C        95.476303      105.508179      -19.201050
 H        94.653229      105.311714      -18.670639
 C        96.781830      105.548035      -18.575733
 H        96.933914      105.501678      -17.490044
 C        97.868561      105.874496      -19.345505
 H        98.824501      105.569000      -19.021233
 C        97.707924      106.188934      -20.734110
 H        98.539062      106.679245      -21.318319
 C        92.863327      103.833199      -26.905155
 C        93.452362      102.632339      -27.156282
 N        93.731148      104.577728      -26.011587
 C        94.836044      103.803764      -25.675314
 N        94.669937      102.605728      -26.459217
 C        95.455933      101.493164      -26.049807
 C        96.412216      101.736107      -25.060913
 C        97.232269      100.723740      -24.554548
 H        98.020836      100.865631      -23.878799
 C        97.153389       99.468300      -25.103510
 H        97.817741       98.749039      -24.813351
 C        96.235458       99.200340      -26.128502
 H        96.279617       98.208939      -26.555210
 C        95.385925      100.168320      -26.627106
 H        94.950264       99.923286      -27.634857
 C        92.727570      101.672333      -27.837210
 H        93.055511      100.596809      -27.796066
 C        91.492073      101.949005      -28.383114
 H        91.033958      101.233536      -29.036058
 C        90.937225      103.171814      -28.224445
 H        89.902031      103.272011      -28.529432
 C        91.577789      104.129242      -27.440088
 H        91.074509      105.099426      -27.383980
 C        93.478493      105.954208      -25.630049
 C        93.202805      106.213219      -24.254765
 H        93.632210      105.531113      -23.497574
 C        92.631294      107.425606      -23.871120
 H        92.211823      107.619370      -22.899782
 C        92.379715      108.320740      -24.886183
 H        91.966782      109.299751      -24.706961
 C        92.677406      108.017456      -26.237888
 H        92.435532      108.663628      -27.042412
 C        93.289200      106.863197      -26.677193
 H        93.779709      106.689056      -27.614355
