206
 generated by VMD
  IR        26.610001       53.150002       39.189999
  C1        25.090000       50.099998       36.540001
  C2        25.170000       49.480000       37.750000
  N1        25.420000       51.430000       36.720001
  C3a       25.760000       51.680000       38.060001
  N2        25.670000       50.439999       38.660000
  C4        25.639999       50.520000       40.119999
  C5a       26.309999       51.630001       40.619999
  C6        26.490000       51.720001       42.009998
  H1        27.209999       52.439999       42.330002
  C7        25.930000       50.759998       42.889999
  H2        26.030001       50.869999       43.930000
  C8        25.280001       49.669998       42.360001
  H3        24.790001       48.880001       43.000000
  C9        25.110001       49.529999       41.029999
  H4        24.379999       48.790001       40.669998
  C10       24.780001       48.110001       37.849998
  H5        24.870001       47.580002       38.799999
  C11       24.309999       47.430000       36.740002
  H6        23.850000       46.450001       36.849998
  C12       24.250000       48.060001       35.490002
  H7        24.160000       47.560001       34.549999
  C13       24.610001       49.430000       35.430000
  H8        24.450001       49.959999       34.540001
  C6        25.080000       52.340000       35.650002
  C1        26.090000       52.650002       34.720001
  H1        27.030001       52.000000       34.810001
  C2        25.770000       53.439999       33.630001
  H2        26.500000       53.730000       32.959999
  C3        24.480000       53.770000       33.369999
  H3        24.230000       54.340000       32.480000
  C4        23.400000       53.380001       34.220001
  H4        22.400000       53.529999       33.900002
  C5        23.780001       52.689999       35.439999
  H5        23.040001       52.230000       36.029999
  C1        23.330000       54.959999       41.349998
  C2        24.430000       55.759998       41.590000
  N1        23.709999       53.990002       40.380001
  C3b       25.000000       54.189999       40.000000
  N2        25.459999       55.320000       40.720001
  C4        26.870001       55.590000       40.810001
  C5b       27.660000       54.459999       40.520000
  C6        29.030001       54.549999       40.759998
  H1        29.610001       53.650002       40.660000
  C7        29.590000       55.790001       41.270000
  H2        30.639999       55.860001       41.439999
  C8        28.790001       56.889999       41.459999
  H3        29.320000       57.849998       41.529999
  C9        27.430000       56.790001       41.230000
  H4        27.030001       57.759998       41.020000
  C10       24.350000       56.639999       42.700001
  H5        25.150000       57.419998       42.869999
  C11       23.200001       56.759998       43.509998
  H6        23.510000       57.299999       44.400002
  C12       22.049999       56.119999       43.099998
  H7        21.090000       56.459999       43.439999
  C13       22.180000       55.180000       42.040001
  H8        21.430000       54.470001       41.919998
  C6        22.760000       53.189999       39.630001
  C1        22.080000       52.270000       40.400002
  H1        22.389999       52.130001       41.430000
  C2        20.889999       51.860001       39.970001
  H2        20.520000       51.009998       40.540001
  C3        20.299999       52.340000       38.820000
  H3        19.360001       51.939999       38.520000
  C4        20.959999       53.169998       37.990002
  H4        20.490000       53.349998       37.090000
  C5        22.230000       53.590000       38.349998
  H5        22.770000       54.430000       37.840000
  C1        27.879999       55.799999       35.869999
  C2        28.889999       54.830002       36.060001
  N1        26.940001       55.500000       36.900002
  C3c       27.320000       54.419998       37.700001
  N2        28.559999       54.040001       37.130001
  C4        29.209999       52.970001       37.730000
  C5c       28.459999       52.230000       38.680000
  C6        29.100000       51.099998       39.240002
  H1        28.620001       50.230000       39.619999
  C7        30.469999       50.849998       39.049999
  H2        31.059999       50.240002       39.689999
  C8        31.170000       51.599998       38.150002
  H3        32.220001       51.389999       38.049999
  C9        30.540001       52.619999       37.500000
  H4        31.180000       53.270000       36.980000
  C10       29.930000       54.810001       35.070000
  H5        30.709999       54.180000       35.049999
  C11       29.799999       55.630001       33.919998
  H6        30.629999       55.810001       33.279999
  C12       28.750000       56.480000       33.810001
  H7        28.860001       57.259998       33.009998
  C13       27.760000       56.610001       34.810001
  H8        26.980000       57.330002       34.799999
  C6        26.000000       56.509998       37.240002
  C1        26.480000       57.779999       37.680000
  H1        27.469999       57.919998       37.889999
  C2        25.520000       58.820000       37.880001
  H2        25.870001       59.900002       37.950001
  C3        24.190001       58.580002       37.709999
  H3        23.500000       59.310001       38.009998
  C4        23.700001       57.330002       37.230000
  H4        22.680000       57.200001       36.759998
  C5        24.639999       56.299999       37.080002
  H5        24.410000       55.349998       36.549999
  IR        17.030001       60.590000       31.350000
  C1        13.750000       59.950001       34.209999
  C2        13.360000       59.230000       33.099998
  N1        14.890000       60.619999       33.799999
  C3a       15.390000       60.259998       32.599998
  N2        14.430000       59.410000       32.119999
  C4        14.590000       58.970001       30.690001
  C5a       15.800000       59.400002       30.160000
  C6        16.100000       59.080002       28.809999
  H1        17.070000       59.310001       28.320000
  C7        15.190000       58.299999       28.100000
  H2        15.500000       58.070000       27.100000
  C8        14.040000       57.840000       28.680000
  H3        13.270000       57.330002       28.150000
  C9        13.660000       58.169998       29.969999
  H4        12.670000       57.830002       30.340000
  C10       12.150000       58.619999       33.029999
  H5        11.780000       58.209999       32.160000
  C11       11.380000       58.709999       34.200001
  H6        10.400000       58.160000       34.130001
  C12       11.800000       59.439999       35.330002
  H7        11.130000       59.439999       36.189999
  C13       13.070000       60.099998       35.299999
  H8        13.390000       60.509998       36.259998
  C6        15.260000       61.849998       34.450001
  C1        14.520000       63.029999       34.250000
  H1        14.060000       63.110001       33.310001
  C2        14.800000       64.199997       35.040001
  H2        14.240000       65.160004       35.009998
  C3        15.850000       64.169998       35.950001
  H3        16.120001       65.120003       36.430000
  C4        16.570000       63.000000       36.080002
  H4        17.500000       62.980000       36.560001
  C5        16.320000       61.840000       35.389999
  H5        16.770000       60.950001       35.689999
  C1        19.760000       57.230000       32.240002
  C2        20.139999       57.700001       31.070000
  N1        18.480000       57.830002       32.580002
  C3b       18.160000       58.810001       31.559999
  N2        19.219999       58.680000       30.700001
  C4        19.240000       59.610001       29.590000
  C5b       18.469999       60.750000       29.830000
  C6        18.410000       61.730000       28.799999
  H1        17.670000       62.529999       28.840000
  C7        19.090000       61.560001       27.570000
  H2        19.100000       62.459999       26.920000
  C8        19.799999       60.369999       27.309999
  H3        19.980000       60.150002       26.230000
  C9        19.840000       59.369999       28.330000
  H4        19.830000       58.349998       28.139999
  C10       21.370001       57.400002       30.600000
  H5        21.790001       57.849998       29.709999
  C11       22.309999       56.619999       31.299999
  H6        23.360001       56.889999       31.040001
  C12       21.920000       56.139999       32.520000
  H7        22.540001       55.630001       33.160000
  C13       20.629999       56.430000       33.009998
  H8        20.309999       55.900002       33.880001
  C6        17.610001       57.320000       33.650002
  C1        17.090000       56.049999       33.660000
  H1        17.389999       55.330002       32.860001
  C2        16.219999       55.619999       34.660000
  H2        15.690000       54.709999       34.520000
  C3        15.860000       56.619999       35.590000
  H3        15.040000       56.410000       36.209999
  C4        16.309999       57.939999       35.520000
  H4        15.730000       58.669998       36.130001
  C5        17.290001       58.220001       34.560001
  H5        17.799999       59.209999       34.480000
  C1        19.860001       63.330002       33.320000
  C2        18.950001       64.139999       32.680000
  N1        19.440001       62.040001       33.130001
  C3c       18.200001       61.970001       32.410000
  N2        17.920000       63.310001       32.200001
  C4        16.670000       63.590000       31.510000
  C5c       16.049999       62.450001       30.959999
  C6        14.890000       62.549999       30.240000
  H1        14.420000       61.730000       29.680000
  C7        14.200000       63.770000       30.129999
  H2        13.300000       63.799999       29.530001
  C8        14.740000       64.930000       30.700001
  H3        14.160000       65.949997       30.709999
  C9        15.960000       64.849998       31.350000
  H4        16.450001       65.739998       31.680000
  C10       19.280001       65.519997       32.570000
  H5        18.730000       66.260002       32.000000
  C11       20.520000       66.010002       33.060001
  H6        20.809999       67.110001       32.980000
  C12       21.450001       65.199997       33.709999
  H7        22.420000       65.660004       33.970001
  C13       21.129999       63.840000       33.889999
  H8        21.520000       63.240002       34.650002
  C6        20.280001       60.910000       33.410000
  C1        20.150000       60.330002       34.680000
  H1        19.540001       60.759998       35.439999
  C2        21.120001       59.480000       35.180000
  H2        21.160000       59.189999       36.230000
  C3        22.309999       59.209999       34.430000
  H3        23.080000       58.500000       34.639999
  C4        22.469999       59.849998       33.180000
  H4        23.440001       59.680000       32.630001
  C5        21.459999       60.639999       32.660000
  H5        21.590000       61.130001       31.690001
