206
 generated by VMD
  IR        56.290001       15.940000       30.950001
  C1        55.480000       19.450001       28.400000
  C2        55.380001       19.920000       29.680000
  N1        55.880001       18.040001       28.469999
  C3a       56.099998       17.709999       29.820000
  N2        55.799999       18.930000       30.490000
  C4        55.810001       18.740000       31.900000
  C5a       55.650002       17.379999       32.360001
  C6        55.470001       17.190001       33.750000
  H1        54.980000       16.280001       34.070000
  C7        55.540001       18.260000       34.619999
  H2        55.580002       18.000000       35.660000
  C8        55.790001       19.600000       34.200001
  H3        56.049999       20.410000       34.759998
  C9        55.869999       19.860001       32.840000
  H4        56.200001       20.820000       32.430000
  C10       54.910000       21.209999       29.900000
  H5        55.270000       21.770000       30.750000
  C11       54.230000       21.879999       28.870001
  H6        53.900002       22.860001       29.170000
  C12       54.320000       21.410000       27.549999
  H7        53.549999       21.730000       26.889999
  C13       54.980000       20.240000       27.320000
  H8        55.000000       19.879999       26.320000
  C6        55.560001       17.190001       27.379999
  C1        56.570000       16.809999       26.520000
  H1        57.500000       16.660000       27.040001
  C2        56.200001       16.090000       25.260000
  H2        56.910000       16.110001       24.469999
  C3        54.840000       15.760000       25.010000
  H3        54.529999       15.700000       23.930000
  C4        53.880001       16.180000       25.940001
  H4        52.849998       16.120001       25.650000
  C5        54.259998       16.879999       27.110001
  H5        53.529999       17.150000       27.850000
  C1        60.040001       16.580000       33.180000
  C2        59.430000       15.520000       33.799999
  N1        59.259998       16.860001       32.020000
  C3b       58.119999       16.090000       31.950001
  N2        58.340000       15.160000       33.049999
  C4        57.299999       14.160000       33.139999
  C5b       56.169998       14.440000       32.430000
  C6        55.080002       13.560000       32.630001
  H1        54.169998       13.620000       32.119999
  C7        55.180000       12.470000       33.480000
  H2        54.430000       11.740000       33.340000
  C8        56.320000       12.220000       34.209999
  H3        56.349998       11.300000       34.740002
  C9        57.360001       13.110000       34.049999
  H4        58.369999       12.800000       34.230000
  C10       60.080002       14.900000       34.889999
  H5        59.349998       14.270000       35.439999
  C11       61.330002       15.400000       35.349998
  H6        61.759998       15.040000       36.320000
  C12       62.009998       16.379999       34.619999
  H7        63.060001       16.590000       34.740002
  C13       61.330002       16.990000       33.599998
  H8        61.660000       17.930000       33.110001
  C6        59.450001       17.959999       31.110001
  C1        59.590000       17.730000       29.719999
  H1        60.049999       16.920000       29.290001
  C2        59.650002       18.860001       28.870001
  H2        59.779999       18.600000       27.799999
  C3        59.549999       20.150000       29.430000
  H3        59.619999       21.040001       28.860001
  C4        59.380001       20.360001       30.840000
  H4        59.389999       21.400000       31.219999
  C5        59.259998       19.250000       31.700001
  H5        58.990002       19.370001       32.779999
  C1        57.070000       12.640000       28.110001
  C2        55.759998       12.760000       28.120001
  N1        57.610001       13.680000       28.980000
  C3c       56.540001       14.400000       29.570000
  N2        55.459999       13.840000       28.980000
  C4        54.160000       14.420000       29.400000
  C5c       54.320000       15.550000       30.230000
  C6        53.110001       16.160000       30.730000
  H1        53.119999       17.059999       31.400000
  C7        51.849998       15.640000       30.500000
  H2        51.060001       16.030001       31.080000
  C8        51.759998       14.480000       29.770000
  H3        50.880001       13.920000       29.629999
  C9        52.860001       13.850000       29.230000
  H4        52.689999       12.840000       28.850000
  C10       54.910000       11.770000       27.440001
  H5        53.849998       11.950000       27.280001
  C11       55.560001       10.770000       26.740000
  H6        55.000000       10.050000       26.150000
  C12       56.950001       10.660000       26.830000
  H7        57.360001        9.840000       26.299999
  C13       57.759998       11.560000       27.530001
  H8        58.779999       11.420000       27.530001
  C6        59.049999       13.970000       29.059999
  C1        59.770000       14.520000       28.020000
  H1        59.270000       14.770000       27.110001
  C2        61.130001       14.840000       28.080000
  H2        61.560001       15.320000       27.240000
  C3        61.759998       14.540000       29.299999
  H3        62.779999       14.960000       29.340000
  C4        61.040001       13.970000       30.360001
  H4        61.470001       13.730000       31.360001
  C5        59.669998       13.700000       30.290001
  H5        59.119999       13.310000       31.059999
  IR        48.560001       15.360000       18.950001
  C1        50.720001       17.950001       21.889999
  C2        49.980000       17.049999       22.600000
  N1        50.380001       17.700001       20.490000
  C3a       49.520000       16.639999       20.370001
  N2        49.270000       16.219999       21.650000
  C4        48.580002       15.070000       21.809999
  C5a       47.889999       14.480000       20.750000
  C6        47.180000       13.270000       20.860001
  H1        46.529999       12.960000       20.040001
  C7        47.029999       12.650000       22.080000
  H2        46.419998       11.790000       22.200001
  C8        47.619999       13.220000       23.219999
  H3        47.700001       12.700000       24.240000
  C9        48.430000       14.390000       23.070000
  H4        49.009998       14.790000       23.870001
  C10       50.080002       17.020000       24.040001
  H5        49.410000       16.549999       24.740000
  C11       50.919998       17.990000       24.650000
  H6        50.990002       18.059999       25.740000
  C12       51.700001       18.930000       23.930000
  H7        52.209999       19.700001       24.480000
  C13       51.599998       18.980000       22.500000
  H8        52.270000       19.520000       21.879999
  C6        50.369999       18.760000       19.559999
  C1        49.480000       19.820000       19.780001
  H1        48.549999       19.620001       20.309999
  C2        49.599998       20.990000       18.980000
  H2        48.889999       21.799999       19.020000
  C3        50.590000       21.100000       18.020000
  H3        50.529999       21.889999       17.290001
  C4        51.509998       20.010000       17.840000
  H4        52.119999       20.040001       16.950001
  C5        51.419998       18.870001       18.620001
  H5        52.209999       18.110001       18.570000
  C1        51.290001       12.000000       18.360001
  C2        50.369999       11.930000       17.330000
  N1        50.930000       13.060000       19.170000
  C3b       49.840000       13.760000       18.629999
  N2        49.490002       13.010000       17.520000
  C4        48.090000       13.110000       17.110001
  C5b       47.369999       14.130000       17.740000
  C6        45.970001       14.170000       17.520000
  H1        45.349998       14.960000       17.920000
  C7        45.310001       13.120000       16.799999
  H2        44.240002       13.130000       16.610001
  C8        46.070000       12.060000       16.260000
  H3        45.590000       11.420000       15.490000
  C9        47.430000       12.090000       16.340000
  H4        47.959999       11.380000       15.840000
  C10       50.500000       11.060000       16.250000
  H5        49.790001       11.130000       15.420000
  C11       51.610001       10.220000       16.230000
  H6        51.889999        9.530000       15.430000
  C12       52.549999       10.210000       17.309999
  H7        53.480000        9.570000       17.200001
  C13       52.369999       11.090000       18.370001
  H8        52.980000       11.120000       19.270000
  C6        51.360001       13.120000       20.549999
  C1        51.009998       12.080000       21.420000
  H1        50.310001       11.300000       21.170000
  C2        51.389999       12.080000       22.760000
  H2        51.060001       11.240000       23.360001
  C3        52.139999       13.140000       23.230000
  H3        52.139999       13.210000       24.340000
  C4        52.450001       14.230000       22.379999
  H4        52.790001       15.150000       22.820000
  C5        52.119999       14.210000       21.000000
  H5        52.189999       15.120000       20.480000
  C1        49.709999       17.820000       15.470000
  C2        48.540001       18.410000       15.900000
  N1        49.959999       16.570000       16.200001
  C3c       48.959999       16.350000       17.180000
  N2        48.080002       17.530001       16.920000
  C4        46.919998       17.510000       17.660000
  C5c       47.049999       16.850000       18.940001
  C6        46.080002       17.049999       19.940001
  H1        46.240002       16.879999       21.010000
  C7        44.990002       17.840000       19.670000
  H2        44.299999       18.070000       20.459999
  C8        44.820000       18.450001       18.430000
  H3        43.970001       19.190001       18.309999
  C9        45.830002       18.340000       17.420000
  H4        45.599998       18.750000       16.410000
  C10       48.230000       19.730000       15.450000
  H5        47.639999       20.360001       16.180000
  C11       48.980000       20.350000       14.460000
  H6        48.720001       21.280001       13.980000
  C12       50.200001       19.760000       14.070000
  H7        50.770000       20.260000       13.320000
  C13       50.560001       18.480000       14.560000
  H8        51.580002       18.209999       14.490000
  C6        51.080002       15.730000       15.940000
  C1        52.029999       15.370000       16.930000
  H1        52.110001       16.020000       17.809999
  C2        53.020000       14.420000       16.639999
  H2        53.869999       14.400000       17.290001
  C3        53.090000       13.840000       15.350000
  H3        53.970001       13.250000       15.130000
  C4        52.090000       14.150000       14.420000
  H4        52.020000       13.800000       13.380000
  C5        51.130001       15.050000       14.710000
  H5        50.259998       15.050000       14.040000
