206
 generated by VMD
 Ir      126.878525       97.934097      -43.298752
 C       130.521194       98.677216      -41.148750
 C       130.920441       97.967285      -42.231293
 N       129.116379       98.694557      -41.150673
 C       128.592682       98.000938      -42.201782
 N       129.746323       97.517670      -42.846024
 C       129.470642       96.628922      -43.900501
 C       128.135101       96.684296      -44.389008
 C       127.812317       95.946930      -45.508030
 H       126.710815       95.888870      -45.765537
 C       128.819061       95.292130      -46.259953
 H       128.551239       95.110374      -47.256222
 C       130.132965       95.294151      -45.879799
 H       130.857758       94.710587      -46.345684
 C       130.440750       95.853027      -44.669579
 H       131.444489       96.142609      -44.479408
 C       132.272873       97.978859      -42.595867
 H       132.647369       97.502220      -43.517578
 C       133.207916       98.557693      -41.776321
 H       134.266724       98.309860      -41.786785
 C       132.814926       99.178970      -40.559242
 H       133.484894       99.861923      -39.996193
 C       131.442474       99.246948      -40.340515
 H       131.109497       99.999832      -39.656418
 C       128.430679       98.964828      -39.966927
 C       127.793877      100.204948      -39.765213
 H       128.052292      101.012695      -40.394077
 C       126.985748      100.429329      -38.643173
 H       126.553535      101.411797      -38.376984
 C       126.787125       99.436142      -37.654678
 H       126.259224       99.755096      -36.755402
 C       127.349823       98.159622      -37.878410
 H       127.014954       97.405106      -37.234692
 C       128.154678       97.993416      -38.990211
 H       128.495911       96.992752      -39.201714
 C       127.963364      100.817856      -46.393265
 C       126.716766      100.319946      -46.756966
 N       128.254822      100.200760      -45.118805
 C       127.178268       99.368179      -44.747673
 N       126.283112       99.468651      -45.702667
 C       125.127869       98.625015      -45.616123
 C       125.185623       97.642883      -44.559444
 C       124.144226       96.746788      -44.392349
 H       124.135178       96.116501      -43.519913
 C       123.002411       96.824127      -45.187576
 H       122.175903       96.193756      -44.947559
 C       122.963531       97.663002      -46.293465
 H       122.140045       97.792343      -46.969650
 C       123.985733       98.581451      -46.437492
 H       123.854492       99.246582      -47.308681
 C       126.252487      100.752441      -48.043938
 H       125.224213      100.605339      -48.318943
 C       127.019440      101.643066      -48.863373
 H       126.622818      101.840652      -49.848946
 C       128.249985      102.119003      -48.409340
 H       128.916656      102.571144      -49.142906
 C       128.725952      101.749039      -47.151577
 H       129.584610      102.338203      -46.795883
 C       129.439636      100.584274      -44.340015
 C       130.788742      100.140137      -44.616737
 H       130.943771       99.163849      -45.045830
 C       131.869598      100.932495      -44.182102
 H       132.892242      100.679131      -44.338718
 C       131.669403      102.169174      -43.518368
 H       132.532242      102.548981      -43.016907
 C       130.372147      102.622406      -43.276711
 H       130.181183      103.642448      -42.980648
 C       129.312622      101.825897      -43.680893
 H       128.287628      102.168892      -43.487396
 C       124.236259       99.944534      -40.460892
 C       124.181259       98.658325      -40.066120
 N       124.908005       99.955643      -41.694927
 C       125.445709       98.723061      -42.029762
 N       124.920914       97.892952      -41.076183
 C       125.442574       96.604340      -41.010143
 C       126.409119       96.296631      -42.027985
 C       126.994766       95.004059      -41.948212
 H       127.806961       94.724236      -42.588165
 C       126.638260       94.090233      -40.972908
 H       127.112991       93.104782      -41.023026
 C       125.707489       94.393585      -39.977440
 H       125.565239       93.694847      -39.188503
 C       125.110214       95.695259      -40.014992
 H       124.455994       95.950317      -39.193565
 C       123.514931       98.450134      -38.892342
 H       123.033218       97.472664      -38.757378
 C       122.899315       99.483231      -38.142731
 H       122.528030       99.222198      -37.179554
 C       122.984673      100.805061      -38.603149
 H       122.389069      101.644073      -38.199413
 C       123.754684      101.022942      -39.769428
 H       123.990112      102.038223      -40.041924
 C       124.630524      101.030792      -42.647373
 C       123.695114      100.773315      -43.583656
 H       123.297653       99.812683      -43.741814
 C       123.442390      101.763771      -44.515770
 H       122.764900      101.450851      -45.279102
 C       124.095779      103.002213      -44.574463
 H       123.835182      103.850967      -45.241318
 C       125.055115      103.215164      -43.631470
 H       125.806183      104.001854      -43.816986
 C       125.312813      102.260330      -42.734093
 H       125.753830      102.662094      -41.789696
 Ir      126.878532       97.934097      -32.805046
 C       128.444016      100.145737      -29.449329
 C       127.111992      100.107056      -29.158575
 N       128.713577       99.532593      -30.664230
 C       127.569595       99.052299      -31.202465
 N       126.549065       99.515350      -30.332460
 C       125.215469       99.097397      -30.689968
 C       125.155090       98.059021      -31.567654
 C       123.923691       97.432091      -31.828300
 H       123.714722       96.884850      -32.672729
 C       122.798569       97.871025      -31.147701
 H       121.889549       97.283234      -31.195398
 C       122.851227       98.945023      -30.289291
 H       121.952705       99.304008      -29.784912
 C       124.051720       99.540298      -30.054014
 H       124.087311      100.540314      -29.610744
 C       126.638168      100.490883      -27.917299
 H       125.564720      100.238876      -27.698891
 C       127.604172      100.824738      -26.955893
 H       127.197296      101.051064      -25.970179
 C       128.927094      100.943169      -27.370569
 H       129.629379      101.528175      -26.768028
 C       129.398071      100.550438      -28.601229
 H       130.463837      100.395813      -28.748310
 C       130.069977       99.502243      -31.336088
 C       130.551971      100.511620      -32.169540
 H       129.956116      101.352448      -32.244759
 C       131.810089      100.423096      -32.727989
 H       131.982559      101.179817      -33.582703
 C       132.658875       99.334106      -32.548615
 H       133.601608       99.257080      -33.068436
 C       132.207840       98.262390      -31.702677
 H       132.752319       97.345383      -31.592022
 C       130.946426       98.409088      -31.133986
 H       130.664536       97.578789      -30.511461
 C       127.612839       93.867805      -31.451614
 C       127.332245       93.648491      -32.755981
 N       127.354927       95.236504      -31.107010
 C       126.945801       95.934135      -32.232235
 N       126.778473       94.952759      -33.184814
 C       126.115250       95.469559      -34.350475
 C       125.810760       96.854111      -34.315834
 C       124.885513       97.316513      -35.295540
 H       124.652405       98.400497      -35.512833
 C       124.199623       96.466171      -36.182213
 H       123.430603       96.895485      -36.865433
 C       124.430420       95.063614      -36.147984
 H       123.804192       94.398468      -36.778633
 C       125.505508       94.619232      -35.329887
 H       125.937042       93.637543      -35.454308
 C       127.546112       92.340759      -33.343781
 H       127.245056       92.391129      -34.380272
 C       128.277008       91.406082      -32.614227
 H       128.618851       90.507141      -33.032257
 C       128.581100       91.647957      -31.303528
 H       128.869385       90.812065      -30.769217
 C       128.225235       92.896729      -30.689989
 H       128.754486       93.213806      -29.802542
 C       127.649094       95.746887      -29.752693
 C       126.652725       96.214691      -28.862848
 H       125.660461       95.929855      -29.017710
 C       127.079498       97.091156      -27.787819
 H       126.243622       97.655930      -27.348461
 C       128.399475       97.303520      -27.389744
 H       128.629395       97.811172      -26.450474
 C       129.386429       96.777542      -28.274380
 H       130.300186       97.360207      -28.352186
 C       129.009125       96.008331      -29.425230
 H       129.790741       95.817749      -30.064413
 C       130.300354       98.595673      -35.416862
 C       129.683426       99.812653      -35.379990
 N       129.463745       97.708237      -34.745209
 C       128.419891       98.326050      -34.166073
 N       128.577881       99.639755      -34.566845
 C       127.452629      100.483376      -34.300407
 C       126.343384       99.853394      -33.645584
 C       125.069901      100.492653      -33.759640
 H       124.181534       99.892960      -33.557472
 C       124.874542      101.672455      -34.489368
 H       123.896484      101.946030      -34.774910
 C       125.958504      102.365547      -35.022629
 H       125.923882      103.423805      -35.283966
 C       127.263557      101.748642      -34.947346
 H       128.164078      102.343788      -35.178352
 C       130.145157      100.835289      -36.217140
 H       129.436493      101.589081      -36.527306
 C       131.242172      100.650238      -37.050217
 H       131.644196      101.513565      -37.509407
 C       131.876526       99.411095      -37.072784
 H       132.730850       99.126923      -37.742840
 C       131.364014       98.396973      -36.251442
 H       131.739502       97.441414      -36.434822
 C       129.542175       96.174118      -34.861938
 C       129.278000       95.646896      -36.062244
 H       128.469360       95.960052      -36.674477
 C       129.862274       94.432510      -36.397667
 H       129.718460       94.153198      -37.395615
 C       130.588455       93.660065      -35.439079
 H       130.956131       92.668503      -35.654743
 C       130.824661       94.227654      -34.184109
 H       131.690796       93.949921      -33.705814
 C       130.297745       95.491302      -33.905117
 H       130.429871       95.882217      -32.929703
