206
 generated by VMD
 Ir      116.596329       31.984276      -70.722504
 C       114.236229       31.093903      -74.164963
 C       113.705750       32.257065      -73.692261
 N       115.376526       30.911510      -73.525528
 C       115.651108       31.857620      -72.591782
 N       114.610092       32.772785      -72.766357
 C       114.614281       33.913002      -71.887444
 C       115.311356       33.686111      -70.708038
 C       115.294708       34.697643      -69.744232
 H       115.774254       34.519466      -68.802322
 C       114.540688       35.883060      -69.928757
 H       114.582512       36.858944      -69.352135
 C       113.936188       36.099308      -71.199356
 H       113.498138       37.119808      -71.503326
 C       113.950241       35.079182      -72.129700
 H       113.582565       35.345325      -73.124023
 C       112.476265       32.744770      -74.290100
 H       112.261055       33.797100      -74.347427
 C       111.853073       31.917389      -75.280182
 H       111.016304       32.393276      -75.826668
 C       112.425171       30.767117      -75.770248
 H       111.893173       30.263401      -76.514732
 C       113.642937       30.377430      -75.219879
 H       113.952072       29.414433      -75.544785
 C       116.130333       29.739460      -73.797867
 C       115.749512       28.567844      -73.207718
 H       114.864250       28.604290      -72.555725
 C       116.346817       27.378319      -73.574402
 H       116.057114       26.413876      -73.210892
 C       117.358414       27.350643      -74.584946
 H       117.826431       26.435776      -74.879173
 C       117.783600       28.562683      -75.119431
 H       118.431862       28.650627      -76.062729
 C       117.188644       29.735031      -74.679276
 H       117.422455       30.630634      -75.268021
 C       119.869873       34.659931      -71.377426
 C       120.068352       34.130180      -70.051468
 N       118.604828       34.188267      -71.782028
 C       118.136421       33.319717      -70.923592
 N       118.872292       33.360245      -69.804016
 C       118.315125       33.050488      -68.599762
 C       117.175163       32.214249      -68.675812
 C       116.656975       31.756561      -67.470657
 H       115.630905       31.295250      -67.525276
 C       117.316086       31.941601      -66.278084
 H       117.046402       31.367134      -65.358597
 C       118.479218       32.692696      -66.198189
 H       118.964539       32.747581      -65.201965
 C       118.966011       33.253876      -67.367249
 H       119.991028       33.495602      -67.357140
 C       121.332214       34.419857      -69.508392
 H       121.809113       33.932076      -68.670097
 C       122.284348       35.188030      -70.145844
 H       123.245850       35.318367      -69.697029
 C       122.122406       35.628056      -71.468094
 H       122.646332       36.484993      -71.643761
 C       120.868271       35.346676      -72.068069
 H       120.621254       35.701664      -73.018265
 C       117.826714       34.743126      -72.883514
 C       117.350418       36.054104      -72.793068
 H       117.380905       36.550503      -71.868217
 C       116.695862       36.643326      -73.929939
 H       116.217827       37.604271      -73.959396
 C       116.505280       35.904686      -75.066902
 H       116.095421       36.436306      -75.936554
 C       116.969910       34.602886      -75.143936
 H       116.713890       34.059231      -76.068542
 C       117.686180       34.021374      -74.078011
 H       117.979691       33.003407      -74.095451
 C       118.764297       28.242413      -70.929268
 C       117.634422       27.914291      -70.270325
 N       118.774536       29.624065      -70.956268
 C       117.614738       30.197124      -70.552429
 N       116.950745       29.098053      -70.109085
 C       115.603149       29.382797      -69.626480
 C       115.077148       30.652950      -70.088364
 C       113.680099       30.830379      -70.097427
 H       113.196129       31.676014      -70.485725
 C       112.847008       29.864395      -69.459686
 H       111.770767       29.953754      -69.502335
 C       113.399368       28.689148      -68.875748
 H       112.722153       28.051311      -68.386734
 C       114.727325       28.421989      -68.954865
 H       115.104721       27.669903      -68.245956
 C       117.236984       26.555107      -70.118164
 H       116.126816       26.409454      -69.984688
 C       118.036705       25.593651      -70.763252
 H       117.850403       24.560959      -70.427185
 C       119.245514       25.934364      -71.436752
 H       119.836197       25.142120      -71.887238
 C       119.644844       27.272659      -71.438705
 H       120.494522       27.437733      -72.095512
 C       119.965485       30.335808      -71.213089
 C       120.886322       30.481491      -70.153778
 H       120.562843       30.185093      -69.202927
 C       122.022278       31.184929      -70.393082
 H       122.575249       31.595207      -69.581299
 C       122.333160       31.715458      -71.649422
 H       122.834663       32.699135      -71.692657
 C       121.463013       31.564896      -72.706055
 H       121.608231       31.996620      -73.695770
 C       120.257935       30.964951      -72.463470
 H       119.342743       31.295258      -72.874092
 Ir      116.596336       31.984280      -57.177231
 C       115.391098       27.801945      -57.376320
 C       114.210701       28.456615      -57.329712
 N       116.447098       28.767448      -57.417057
 C       115.911957       30.060654      -57.365631
 N       114.524460       29.890697      -57.218071
 C       113.753708       31.039215      -57.078621
 C       114.538094       32.210056      -56.944244
 C       113.935844       33.408176      -56.617588
 H       114.532921       34.249989      -56.450737
 C       112.525284       33.478989      -56.565418
 H       112.101700       34.485535      -56.459385
 C       111.712814       32.357452      -56.713219
 H       110.664520       32.435093      -56.559444
 C       112.354736       31.141861      -56.963577
 H       111.725830       30.346706      -57.413822
 C       113.044785       27.674572      -57.375923
 H       112.079544       28.193333      -57.317631
 C       113.077690       26.288029      -57.352814
 H       112.121819       25.841850      -57.625256
 C       114.291611       25.683544      -57.270355
 H       114.334488       24.628677      -57.167282
 C       115.506393       26.392750      -57.310783
 H       116.389526       25.785728      -57.320404
 C       117.870483       28.339481      -57.392567
 C       118.539612       28.362877      -58.512218
 H       118.147858       28.903381      -59.372208
 C       119.807358       27.724796      -58.613537
 H       120.366745       27.813908      -59.515617
 C       120.358757       27.032959      -57.540916
 H       121.182312       26.366566      -57.725822
 C       119.605286       27.001846      -56.370014
 H       119.952232       26.762653      -55.382332
 C       118.387497       27.697826      -56.249947
 H       117.824745       27.510689      -55.313526
 C       116.392075       33.085243      -61.345776
 C       116.683525       34.328259      -60.675209
 N       116.127869       32.175976      -60.356415
 C       116.377327       32.646896      -59.104294
 N       116.746964       34.036743      -59.346375
 C       117.175415       34.747261      -58.132420
 C       117.006470       34.000278      -56.932598
 C       117.187134       34.708263      -55.738522
 H       117.463074       34.155754      -54.836807
 C       117.532486       36.061203      -55.663197
 H       117.492508       36.504589      -54.733513
 C       117.707756       36.762890      -56.916000
 H       118.233231       37.706440      -56.925846
 C       117.473396       36.050900      -58.109299
 H       117.289993       36.589352      -58.995487
 C       116.879845       35.490700      -61.449409
 H       116.717102       36.418159      -60.972832
 C       116.864502       35.378876      -62.818298
 H       116.842300       36.290298      -63.386993
 C       116.625610       34.202347      -63.503582
 H       116.710655       34.069923      -64.606956
 C       116.437943       33.021843      -62.739323
 H       116.410492       32.108734      -63.286755
 C       115.550087       30.894115      -60.682583
 C       116.325912       29.883934      -61.300194
 H       117.375549       30.055065      -61.623112
 C       115.819107       28.614372      -61.677479
 H       116.527023       27.809536      -61.942772
 C       114.485008       28.270428      -61.438942
 H       114.102661       27.292404      -61.624107
 C       113.686607       29.191753      -60.780144
 H       112.626335       28.903950      -60.505947
 C       114.213486       30.500568      -60.486870
 H       113.589188       31.283630      -60.089169
 C       120.832222       30.941921      -57.582390
 C       120.581627       30.649048      -56.212524
 N       119.704765       31.594730      -58.129917
 C       118.662537       31.666531      -57.206062
 N       119.197929       31.163914      -56.008385
 C       118.354492       31.199883      -54.916901
 C       117.032913       31.517418      -55.165085
 C       116.157257       31.656300      -54.097504
 H       115.168518       32.070091      -54.271221
 C       116.556107       31.514061      -52.758106
 H       115.722092       31.416065      -52.088837
 C       117.850937       31.205704      -52.509640
 H       118.067169       30.976868      -51.493584
 C       118.815422       31.062237      -53.511734
 H       119.847649       30.881496      -53.250881
 C       121.585884       30.107552      -55.371006
 H       121.335983       29.590984      -54.459030
 C       122.856438       29.881588      -55.856453
 H       123.572716       29.291374      -55.217167
 C       123.086319       30.156986      -57.202526
 H       124.090401       30.150127      -57.473061
 C       122.090302       30.680122      -58.083984
 H       122.237625       30.771286      -59.137062
 C       119.813789       32.446384      -59.199913
 C       120.262260       33.657467      -58.907928
 H       120.436768       33.938873      -57.889618
 C       120.554901       34.606567      -59.914745
 H       120.824402       35.625889      -59.721756
 C       120.314384       34.295570      -61.268566
 H       120.245384       35.075966      -62.012020
 C       119.885010       33.011940      -61.643448
 H       119.800179       32.774372      -62.673431
 C       119.660278       32.062843      -60.577568
 H       119.309494       31.048107      -60.829483
