206
 generated by VMD
  IR        60.500000       29.400000       44.529999
  C1        60.660000       32.099998       41.080002
  C2        61.889999       32.270000       41.720001
  N1        59.939999       31.190001       41.869999
  C3a       60.570000       30.799999       43.009998
  N2        61.799999       31.480000       42.869999
  C4        62.689999       31.350000       43.950001
  C5a       62.279999       30.469999       44.959999
  C6        63.049999       30.320000       46.189999
  H1        62.700001       29.830000       47.110001
  C7        64.349998       30.879999       46.209999
  H2        64.970001       30.540001       46.990002
  C8        64.760002       31.680000       45.139999
  H3        65.669998       32.310001       45.320000
  C9        63.959999       32.000000       44.020000
  H4        64.250000       32.840000       43.410000
  C10       62.750000       33.220001       41.220001
  H5        63.520000       33.650002       41.830002
  C11       62.480000       33.959999       40.060001
  H6        63.119999       34.770000       39.939999
  C12       61.330002       33.689999       39.320000
  H7        61.139999       34.270000       38.419998
  C13       60.360001       32.810001       39.869999
  H8        59.369999       32.630001       39.360001
  C6        58.529999       30.940001       41.720001
  C1        57.630001       31.490000       42.669998
  H1        57.910000       32.200001       43.410000
  C2        56.240002       31.270000       42.680000
  H2        55.700001       31.750000       43.500000
  C3        55.630001       30.549999       41.639999
  H3        54.650002       30.799999       41.340000
  C4        56.470001       29.969999       40.680000
  H4        56.080002       29.350000       39.919998
  C5        57.869999       30.180000       40.680000
  H5        58.439999       29.690001       39.980000
  C1        63.169998       26.370001       42.889999
  C2        62.770000       25.799999       44.070000
  N1        62.630001       27.680000       42.840000
  C3b       61.770000       27.940001       43.880001
  N2        61.880001       26.740000       44.669998
  C4        61.180000       26.770000       45.869999
  C5b       60.660000       28.080000       46.189999
  C6        60.110001       28.260000       47.439999
  H1        59.869999       29.230000       47.820000
  C7        60.070000       27.230000       48.450001
  H2        59.869999       27.459999       49.470001
  C8        60.529999       25.959999       48.099998
  H3        60.660000       25.230000       48.770000
  C9        61.060001       25.709999       46.790001
  H4        60.740002       24.799999       46.330002
  C10       63.169998       24.459999       44.349998
  H5        63.060001       24.080000       45.349998
  C11       63.889999       23.709999       43.430000
  H6        63.930000       22.650000       43.389999
  C12       64.309998       24.320000       42.240002
  H7        64.889999       23.660000       41.520000
  C13       63.889999       25.629999       41.889999
  H8        63.980000       26.000000       40.860001
  C6        62.950001       28.600000       41.790001
  C1        64.260002       29.080000       41.610001
  H1        65.029999       28.950001       42.349998
  C2        64.629997       29.590000       40.380001
  H2        65.730003       29.750000       40.150002
  C3        63.700001       29.680000       39.320000
  H3        64.010002       30.100000       38.360001
  C4        62.400002       29.150000       39.520000
  H4        61.660000       29.490000       38.820000
  C5        62.020000       28.639999       40.779999
  H5        61.080002       28.240000       40.930000
  C1        56.560001       27.379999       44.590000
  C2        56.290001       28.670000       45.099998
  N1        57.910000       27.309999       44.220001
  C3c       58.590000       28.559999       44.529999
  N2        57.560001       29.389999       45.090000
  C4        58.009998       30.610001       45.660000
  C5c       59.410000       30.840000       45.660000
  C6        59.849998       31.950001       46.320000
  H1        60.910000       32.119999       46.459999
  C7        59.040001       32.799999       47.099998
  H2        59.599998       33.480000       47.639999
  C8        57.669998       32.599998       47.090000
  H3        57.139999       33.360001       47.630001
  C9        57.220001       31.459999       46.419998
  H4        56.200001       31.139999       46.549999
  C10       54.930000       29.010000       45.360001
  H5        54.619999       30.070000       45.419998
  C11       53.860001       28.020000       45.259998
  H6        52.830002       28.290001       45.330002
  C12       54.180000       26.730000       44.889999
  H7        53.459999       26.020000       45.130001
  C13       55.490002       26.450001       44.439999
  H8        55.869999       25.469999       44.330002
  C6        58.509998       26.180000       43.610001
  C1        59.230000       26.270000       42.450001
  H1        59.470001       27.280001       42.070000
  C2        60.009998       25.320000       41.810001
  H2        60.360001       25.500000       40.779999
  C3        60.209999       24.150000       42.560001
  H3        61.009998       23.469999       42.349998
  C4        59.500000       23.990000       43.779999
  H4        59.590000       23.040001       44.290001
  C5        58.639999       24.969999       44.259998
  H5        58.279999       24.840000       45.220001
  IR        50.630001       36.200001       38.880001
  C1        51.930000       33.070000       41.669998
  C2        50.619999       32.900002       41.480000
  N1        52.279999       34.220001       40.900002
  C3a       51.169998       34.779999       40.299999
  N2        50.160000       33.980000       40.759998
  C4        48.810001       34.450001       40.529999
  C5a       48.759998       35.369999       39.509998
  C6        47.490002       35.869999       39.090000
  H1        47.500000       36.560001       38.310001
  C7        46.310001       35.450001       39.730000
  H2        45.340000       35.860001       39.380001
  C8        46.389999       34.450001       40.730000
  H3        45.520000       34.290001       41.270000
  C9        47.669998       33.910000       41.070000
  H4        47.660000       33.080002       41.720001
  C10       50.060001       31.750000       42.000000
  H5        49.060001       31.500000       41.720001
  C11       50.840000       30.820000       42.720001
  H6        50.450001       29.860001       43.049999
  C12       52.150002       31.150000       43.060001
  H7        52.779999       30.469999       43.660000
  C13       52.720001       32.220001       42.500000
  H8        53.700001       32.529999       42.869999
  C6        53.639999       34.509998       40.610001
  C1        54.419998       33.470001       40.060001
  H1        53.980000       32.860001       39.330002
  C2        55.830002       33.580002       40.169998
  H2        56.560001       32.919998       39.680000
  C3        56.470001       34.730000       40.689999
  H3        57.439999       34.959999       40.250000
  C4        55.709999       35.790001       41.130001
  H4        56.009998       36.810001       41.180000
  C5        54.310001       35.619999       41.180000
  H5        53.680000       36.340000       41.689999
  C1        50.389999       33.860001       35.189999
  C2        50.250000       35.139999       34.759998
  N1        50.470001       33.849998       36.590000
  C3b       50.430000       35.150002       37.070000
  N2        50.279999       35.959999       36.020000
  C4        49.970001       37.230000       36.270000
  C5b       49.770000       37.590000       37.599998
  C6        49.070000       38.820000       37.970001
  H1        48.540001       38.740002       38.959999
  C7        48.840000       39.720001       36.970001
  H2        48.130001       40.540001       37.119999
  C8        49.250000       39.349998       35.669998
  H3        48.970001       40.070000       34.919998
  C9        49.810001       38.169998       35.299999
  H4        50.240002       38.070000       34.330002
  C10       50.400002       35.419998       33.330002
  H5        50.529999       36.419998       33.020000
  C11       50.759998       34.389999       32.450001
  H6        50.919998       34.570000       31.389999
  C12       50.919998       33.090000       32.910000
  H7        51.169998       32.410000       32.200001
  C13       50.619999       32.840000       34.240002
  H8        50.500000       31.780001       34.520000
  C6        50.570000       32.580002       37.400002
  C1        49.459999       32.130001       38.049999
  H1        48.580002       32.720001       38.150002
  C2        49.619999       30.980000       38.820000
  H2        48.779999       30.620001       39.410000
  C3        50.770000       30.209999       38.990002
  H3        51.040001       29.490000       39.810001
  C4        51.840000       30.660000       38.270000
  H4        52.740002       30.139999       38.160000
  C5        51.779999       31.850000       37.470001
  H5        52.709999       32.299999       37.250000
  C1        54.740002       37.720001       38.330002
  C2        54.200001       38.400002       39.419998
  N1        53.639999       36.990002       37.740002
  C3c       52.459999       37.119999       38.509998
  N2        52.779999       38.029999       39.540001
  C4        51.810001       38.470001       40.490002
  C5c       50.740002       37.509998       40.570000
  C6        49.750000       37.790001       41.529999
  H1        48.869999       37.220001       41.500000
  C7        49.820000       38.820000       42.410000
  H2        48.919998       38.779999       43.049999
  C8        50.830002       39.740002       42.369999
  H3        50.740002       40.689999       42.930000
  C9        51.840000       39.580002       41.380001
  H4        52.650002       40.230000       41.450001
  C10       55.080002       39.270000       40.169998
  H5        54.790001       39.730000       41.070000
  C11       56.430000       39.340000       39.779999
  H6        57.049999       39.910000       40.419998
  C12       57.000000       38.660000       38.709999
  H7        58.009998       38.930000       38.369999
  C13       56.090000       37.939999       37.930000
  H8        56.720001       37.400002       37.180000
  C6        53.770000       36.200001       36.590000
  C1        53.730000       36.730000       35.279999
  H1        53.169998       37.680000       35.119999
  C2        54.209999       35.980000       34.169998
  H2        54.360001       36.509998       33.240002
  C3        54.650002       34.660000       34.389999
  H3        54.820000       34.000000       33.619999
  C4        54.660000       34.130001       35.709999
  H4        54.520000       33.099998       35.880001
  C5        54.250000       34.939999       36.720001
  H5        54.090000       34.520000       37.680000
