206
 generated by VMD
  IR        51.939999       58.509998       35.980000
  C1        52.590000       58.099998       40.320000
  C2        51.750000       57.070000       39.919998
  N1        52.910000       58.740002       39.169998
  C3a       52.209999       58.259998       38.040001
  N2        51.580002       57.139999       38.549999
  C4        50.430000       56.669998       37.750000
  C5a       50.580002       56.900002       36.340000
  C6        49.689999       56.290001       35.459999
  H1        49.700001       56.509998       34.389999
  C7        48.610001       55.549999       35.980000
  H2        47.810001       55.369999       35.250000
  C8        48.389999       55.410000       37.349998
  H3        47.529999       54.860001       37.709999
  C9        49.320000       55.950001       38.230000
  H4        49.349998       55.759998       39.290001
  C10       51.380001       56.160000       40.880001
  H5        50.869999       55.270000       40.599998
  C11       51.790001       56.380001       42.250000
  H6        51.660000       55.720001       43.099998
  C12       52.500000       57.529999       42.650002
  H7        52.639999       57.799999       43.680000
  C13       52.970001       58.369999       41.650002
  H8        53.580002       59.230000       41.910000
  C6        53.830002       59.759998       39.029999
  C1        55.040001       59.529999       38.419998
  H1        55.230000       58.759998       37.720001
  C2        56.070000       60.490002       38.529999
  H2        56.860001       60.439999       37.869999
  C3        55.939999       61.630001       39.330002
  H3        56.779999       62.299999       39.439999
  C4        54.759998       61.810001       40.060001
  H4        54.750000       62.540001       40.799999
  C5        53.689999       60.900002       39.759998
  H5        52.779999       61.000000       40.279999
  C1        54.520000       55.349998       34.340000
  C2        53.790001       55.799999       33.279999
  N1        54.160000       56.119999       35.470001
  C3b       53.230000       57.060001       35.169998
  N2        53.029999       56.900002       33.720001
  C4        52.349998       57.910000       33.070000
  C5b       51.430000       58.549999       33.930000
  C6        50.439999       59.380001       33.360001
  H1        49.540001       59.490002       33.980000
  C7        50.389999       59.630001       31.990000
  H2        49.650002       60.290001       31.570000
  C8        51.320000       58.990002       31.170000
  H3        51.509998       59.470001       30.230000
  C9        52.290001       58.139999       31.740000
  H4        53.060001       57.970001       31.120001
  C10       53.799999       55.139999       32.040001
  H5        53.139999       55.450001       31.240000
  C11       54.630001       54.029999       31.910000
  H6        54.549999       53.310001       31.110001
  C12       55.380001       53.570000       32.990002
  H7        55.889999       52.619999       32.889999
  C13       55.389999       54.270000       34.180000
  H8        56.029999       54.099998       35.009998
  C6        54.439999       55.669998       36.799999
  C1        53.520000       54.830002       37.400002
  H1        52.680000       54.500000       36.779999
  C2        53.770000       54.450001       38.759998
  H2        53.139999       53.779999       39.320000
  C3        54.959999       54.849998       39.439999
  H3        55.209999       54.549999       40.439999
  C4        55.860001       55.650002       38.830002
  H4        56.810001       55.910000       39.240002
  C5        55.570000       56.020000       37.480000
  H5        56.349998       56.549999       36.939999
  C1        54.320000       62.169998       35.889999
  C2        53.270000       62.450001       36.779999
  N1        53.980000       60.910000       35.240002
  C3c       52.799999       60.410000       35.680000
  N2        52.270000       61.410000       36.549999
  C4        50.889999       61.250000       36.880001
  C5c       50.439999       59.939999       36.549999
  C6        49.060001       59.750000       36.630001
  H1        48.689999       58.770000       36.360001
  C7        48.110001       60.770000       36.980000
  H2        47.040001       60.500000       37.080002
  C8        48.660000       61.950001       37.439999
  H3        48.060001       62.630001       37.970001
  C9        50.009998       62.230000       37.340000
  H4        50.320000       63.230000       37.570000
  C10       53.400002       63.560001       37.660000
  H5        52.720001       63.759998       38.509998
  C11       54.520000       64.360001       37.619999
  H6        54.779999       65.059998       38.419998
  C12       55.509998       64.099998       36.660000
  H7        56.340000       64.760002       36.580002
  C13       55.400002       62.990002       35.840000
  H8        56.139999       62.750000       35.099998
  C6        54.779999       60.369999       34.189999
  C1        55.939999       59.660000       34.470001
  H1        55.959999       58.980000       35.320000
  C2        56.910000       59.480000       33.470001
  H2        57.880001       59.400002       33.830002
  C3        56.700001       59.959999       32.180000
  H3        57.560001       60.090000       31.540001
  C4        55.540001       60.660000       31.889999
  H4        55.389999       61.380001       31.110001
  C5        54.599998       60.860001       32.900002
  H5        53.660000       61.220001       32.540001
  IR        45.349998       57.040001       45.270000
  C1        44.349998       55.270000       49.160000
  C2        43.169998       55.580002       48.549999
  N1        45.380001       55.599998       48.220001
  C3a       44.830002       56.130001       47.070000
  N2        43.480000       56.020000       47.259998
  C4        42.650002       56.610001       46.259998
  C5a       43.270000       57.360001       45.259998
  C6        42.520000       58.040001       44.279999
  H1        42.930000       58.560001       43.470001
  C7        41.150002       58.029999       44.310001
  H2        40.580002       58.619999       43.529999
  C8        40.480000       57.279999       45.259998
  H3        39.340000       57.419998       45.349998
  C9        41.200001       56.549999       46.200001
  H4        40.750000       55.709999       46.759998
  C10       41.970001       55.119999       49.150002
  H5        41.119999       55.759998       49.040001
  C11       42.020000       54.220001       50.209999
  H6        41.150002       53.680000       50.330002
  C12       43.200001       53.770000       50.750000
  H7        43.250000       52.910000       51.349998
  C13       44.360001       54.349998       50.230000
  H8        45.270000       54.189999       50.830002
  C6        46.759998       55.730000       48.680000
  C1        47.360001       56.980000       48.810001
  H1        46.700001       57.849998       48.779999
  C2        48.689999       57.029999       49.119999
  H2        49.060001       57.990002       49.439999
  C3        49.500000       55.900002       49.169998
  H3        50.540001       55.959999       49.340000
  C4        48.900002       54.639999       49.090000
  H4        49.500000       53.770000       49.310001
  C5        47.509998       54.590000       48.860001
  H5        47.099998       53.580002       48.759998
  C1        45.419998       53.669998       42.490002
  C2        45.549999       54.770000       41.709999
  N1        45.060001       54.169998       43.759998
  C3b       45.139999       55.560001       43.820000
  N2        45.520000       55.919998       42.580002
  C4        45.799999       57.220001       42.330002
  C5b       45.430000       58.029999       43.419998
  C6        45.349998       59.410000       43.200001
  H1        45.090000       60.060001       44.049999
  C7        45.590000       59.950001       41.910000
  H2        45.639999       61.009998       41.730000
  C8        46.029999       59.230000       40.889999
  H3        46.000000       59.610001       39.849998
  C9        46.169998       57.799999       41.080002
  H4        46.709999       57.160000       40.340000
  C10       45.540001       54.669998       40.340000
  H5        45.360001       55.570000       39.669998
  C11       45.419998       53.439999       39.700001
  H6        45.529999       53.209999       38.610001
  C12       45.320000       52.340000       40.500000
  H7        45.410000       51.369999       40.060001
  C13       45.270000       52.480000       41.860001
  H8        44.779999       51.720001       42.450001
  C6        44.340000       53.330002       44.669998
  C1        44.880001       53.009998       45.919998
  H1        45.869999       53.389999       46.189999
  C2        44.049999       52.560001       46.910000
  H2        44.480000       52.330002       47.950001
  C3        42.689999       52.470001       46.730000
  H3        41.939999       52.459999       47.540001
  C4        42.150002       52.669998       45.459999
  H4        41.060001       52.619999       45.299999
  C5        42.959999       53.189999       44.419998
  H5        42.549999       53.669998       43.509998
  C1        49.650002       56.790001       45.770000
  C2        49.410000       58.090000       46.020000
  N1        48.450001       56.160000       45.330002
  C3c       47.410000       57.020000       45.369999
  N2        48.020000       58.270000       45.750000
  C4        47.070000       59.240002       46.279999
  C5c       45.790001       58.799999       46.380001
  C6        44.860001       59.590000       47.099998
  H1        43.869999       59.160000       47.119999
  C7        45.130001       60.810001       47.599998
  H2        44.410000       61.500000       47.919998
  C8        46.410000       61.279999       47.439999
  H3        46.740002       62.080002       48.080002
  C9        47.380001       60.540001       46.790001
  H4        48.299999       60.950001       46.439999
  C10       50.450001       58.970001       46.500000
  H5        50.020000       59.910000       46.889999
  C11       51.740002       58.509998       46.610001
  H6        52.570000       59.080002       46.970001
  C12       51.990002       57.209999       46.290001
  H7        53.020000       56.970001       45.970001
  C13       51.000000       56.299999       45.910000
  H8        51.200001       55.349998       45.490002
  C6        48.459999       54.910000       44.669998
  C1        48.500000       53.700001       45.369999
  H1        48.349998       53.590000       46.470001
  C2        48.650002       52.520000       44.689999
  H2        48.840000       51.639999       45.220001
  C3        48.910000       52.500000       43.340000
  H3        49.180000       51.570000       42.820000
  C4        48.939999       53.650002       42.570000
  H4        49.299999       53.639999       41.560001
  C5        48.720001       54.880001       43.290001
  H5        48.959999       55.810001       42.810001
