206
 generated by VMD
  IR        35.990002       17.959999       16.520000
  C1        40.189999       17.280001       17.389999
  C2        39.470001       16.549999       18.350000
  N1        39.189999       18.059999       16.680000
  C3a       37.930000       17.799999       17.190001
  N2        38.169998       16.850000       18.180000
  C4        36.959999       16.209999       18.740000
  C5a       35.860001       16.360001       17.879999
  C6        34.689999       15.620000       18.120001
  H1        33.880001       15.720000       17.389999
  C7        34.650002       14.690000       19.129999
  H2        33.799999       14.080000       19.219999
  C8        35.610001       14.570000       20.049999
  H3        35.610001       13.630000       20.559999
  C9        36.720001       15.380000       19.930000
  H4        37.400002       15.250000       20.719999
  C10       40.119999       15.670000       19.120001
  H5        39.549999       14.960000       19.719999
  C11       41.520000       15.440000       19.010000
  H6        42.009998       14.820000       19.719999
  C12       42.230000       16.139999       18.030001
  H7        43.279999       16.230000       18.020000
  C13       41.540001       17.090000       17.190001
  H8        41.869999       17.209999       16.180000
  C6        39.380001       19.190001       15.770000
  C1        39.150002       19.000000       14.430000
  H1        38.410000       18.299999       14.020000
  C2        39.439999       20.000000       13.470000
  H2        39.299999       19.830000       12.430000
  C3        40.099998       21.100000       13.890000
  H3        40.480000       21.860001       13.190000
  C4        40.400002       21.309999       15.180000
  H4        40.840000       22.290001       15.400000
  C5        40.020000       20.350000       16.150000
  H5        40.230000       20.610001       17.260000
  C1        36.000000       14.720000       13.600000
  C2        34.669998       15.110000       13.710000
  N1        36.709999       15.660000       14.310000
  C3b       35.919998       16.570000       14.980000
  N2        34.630001       16.270000       14.560000
  C4        33.580002       17.059999       15.070000
  C5b       33.910000       17.860001       16.150000
  C6        32.930000       18.540001       16.900000
  H1        33.160000       19.240000       17.750000
  C7        31.580000       18.510000       16.510000
  H2        30.920000       19.139999       17.059999
  C8        31.190001       17.780001       15.360000
  H3        30.160000       17.639999       15.150000
  C9        32.169998       17.020000       14.740000
  H4        31.910000       16.620001       13.720000
  C10       33.759998       14.460000       12.840000
  H5        32.709999       14.880000       12.910000
  C11       34.160000       13.430000       12.010000
  H6        33.340000       13.000000       11.450000
  C12       35.509998       13.090000       11.880000
  H7        35.820000       12.630000       10.940000
  C13       36.450001       13.690000       12.710000
  H8        37.509998       13.500000       12.660000
  C6        38.090000       15.320000       14.750000
  C1        38.220001       14.470000       15.830000
  H1        37.230000       14.300000       16.430000
  C2        39.520000       13.950000       16.120001
  H2        39.549999       13.350000       16.990000
  C3        40.650002       14.280000       15.350000
  H3        41.619999       13.740000       15.440000
  C4        40.520000       15.110000       14.230000
  H4        41.270000       15.440000       13.490000
  C5        39.220001       15.640000       14.020000
  H5        39.130001       16.139999       13.060000
  C1        36.419998       21.530001       14.070000
  C2        36.970001       21.850000       15.340000
  N1        35.939999       20.270000       14.210000
  C3c       36.070000       19.760000       15.440000
  N2        36.580002       20.809999       16.180000
  C4        36.139999       20.790001       17.549999
  C5c       35.730000       19.490000       18.000000
  C6        35.330002       19.350000       19.330000
  H1        35.290001       18.379999       19.799999
  C7        35.299999       20.480000       20.160000
  H2        34.860001       20.420000       21.190001
  C8        35.759998       21.740000       19.730000
  H3        35.860001       22.490000       20.480000
  C9        36.119999       21.889999       18.400000
  H4        36.630001       22.660000       17.940001
  C10       37.630001       23.040001       15.490000
  H5        37.860001       23.290001       16.469999
  C11       37.750000       23.959999       14.440000
  H6        38.209999       24.940001       14.530000
  C12       37.169998       23.709999       13.170000
  H7        37.380001       24.320000       12.320000
  C13       36.470001       22.490000       13.020000
  H8        35.840000       22.459999       12.150000
  C6        35.180000       19.600000       13.270000
  C1        35.799999       18.950001       12.220000
  H1        36.919998       18.980000       12.130000
  C2        35.060001       18.290001       11.220000
  H2        35.450001       17.590000       10.540000
  C3        33.650002       18.500000       11.240000
  H3        33.020000       18.180000       10.450000
  C4        33.040001       19.389999       12.180000
  H4        32.020000       19.809999       12.040000
  C5        33.810001       19.820000       13.230000
  H5        33.320000       20.250000       14.110000
  IR        44.419998        6.490000       22.330000
  C1        42.840000        8.070000       26.070000
  C2        43.540001        6.880000       26.420000
  N1        42.970001        8.200000       24.700001
  C3a       43.669998        7.090000       24.170000
  N2        44.029999        6.310000       25.270000
  C4        44.700001        5.040000       24.900000
  C5a       44.700001        4.780000       23.530001
  C6        45.230000        3.620000       23.000000
  H1        44.779999        3.250000       22.120001
  C7        45.810001        2.700000       23.820000
  H2        45.910000        1.700000       23.469999
  C8        45.880001        2.930000       25.209999
  H3        46.189999        2.190000       25.910000
  C9        45.340000        4.120000       25.740000
  H4        45.430000        4.400000       26.790001
  C10       43.570000        6.530000       27.750000
  H5        43.889999        5.560000       28.139999
  C11       42.970001        7.360000       28.700001
  H6        43.139999        7.130000       29.760000
  C12       42.320000        8.500000       28.290001
  H7        42.080002        9.190000       29.110001
  C13       42.250000        8.900000       26.959999
  H8        41.610001        9.660000       26.570000
  C6        42.459999        9.360000       24.049999
  C1        43.200001       10.460000       23.629999
  H1        44.189999       10.540000       24.139999
  C2        42.540001       11.530000       23.030001
  H2        43.189999       12.370000       22.780001
  C3        41.189999       11.510000       22.790001
  H3        40.610001       12.400000       22.590000
  C4        40.419998       10.360000       23.080000
  H4        39.299999       10.420000       22.950001
  C5        41.090000        9.310000       23.680000
  H5        40.500000        8.490000       23.990000
  C1        48.790001        6.920000       22.740000
  C2        48.650002        6.140000       21.629999
  N1        47.419998        7.210000       23.209999
  C3b       46.509998        6.600000       22.420000
  N2        47.240002        5.970000       21.379999
  C4        46.369999        5.770000       20.280001
  C5b       45.080002        5.410000       20.610001
  C6        44.240002        4.720000       19.660000
  H1        43.230000        4.510000       20.030001
  C7        44.720001        4.480000       18.309999
  H2        44.169998        4.000000       17.500000
  C8        46.009998        5.010000       17.980000
  H3        46.520000        4.660000       17.090000
  C9        46.790001        5.650000       18.940001
  H4        47.770000        5.940000       18.580000
  C10       49.820000        5.610000       20.969999
  H5        49.790001        4.780000       20.260000
  C11       51.090000        6.020000       21.389999
  H6        51.889999        5.740000       20.709999
  C12       51.279999        6.860000       22.500000
  H7        52.169998        7.040000       23.049999
  C13       50.150002        7.210000       23.250000
  H8        50.340000        7.770000       24.209999
  C6        47.080002        7.730000       24.459999
  C1        46.709999        9.040000       24.680000
  H1        46.320000        9.600000       23.879999
  C2        46.520000        9.520000       26.030001
  H2        46.529999       10.590000       26.180000
  C3        46.869999        8.710000       27.150000
  H3        47.009998        9.130000       28.090000
  C4        47.349998        7.410000       26.930000
  H4        47.389999        6.720000       27.760000
  C5        47.490002        6.930000       25.590000
  H5        48.099998        6.020000       25.530001
  C1        43.570000       10.010000       19.799999
  C2        42.349998        9.340000       20.020000
  N1        44.580002        9.090000       20.290001
  C3c       43.980000        7.980000       20.940001
  N2        42.619999        8.130000       20.639999
  C4        41.810001        6.940000       20.860001
  C5c       42.369999        6.080000       21.860001
  C6        41.529999        5.160000       22.450001
  H1        41.790001        4.500000       23.280001
  C7        40.270000        4.860000       21.980000
  H2        39.680000        4.080000       22.389999
  C8        39.740002        5.750000       21.049999
  H3        38.750000        5.730000       20.629999
  C9        40.540001        6.720000       20.440001
  H4        40.040001        7.420000       19.850000
  C10       41.169998        9.930000       19.540001
  H5        40.200001        9.520000       19.780001
  C11       41.169998       11.090000       18.820000
  H6        40.330002       11.340000       18.170000
  C12       42.360001       11.720000       18.610001
  H7        42.349998       12.440000       17.809999
  C13       43.599998       11.190000       19.000000
  H8        44.459999       11.790000       19.110001
  C6        45.930000        9.080000       19.719999
  C1        46.139999        9.030000       18.379999
  H1        45.259998        8.750000       17.790001
  C2        47.430000        9.140000       17.860001
  H2        47.599998        9.190000       16.719999
  C3        48.540001        9.320000       18.719999
  H3        49.500000        8.960000       18.500000
  C4        48.310001        9.540000       20.080000
  H4        49.090000        9.410000       20.750000
  C5        47.020000        9.390000       20.570000
  H5        46.820000        9.490000       21.639999
