206
 generated by VMD
 Ir       72.093231      -43.266922       61.971889
 C        74.749405      -44.212624       58.650627
 C        75.486252      -43.333076       59.494465
 N        73.517899      -44.379196       59.255882
 C        73.433594      -43.574844       60.417309
 N        74.682228      -42.964600       60.545780
 C        74.755585      -41.999619       61.669231
 C        73.528343      -41.755234       62.284573
 C        73.388451      -40.845856       63.314545
 H        72.462402      -40.344460       63.384060
 C        74.478355      -40.179123       63.786549
 H        74.325562      -39.273331       64.323853
 C        75.753632      -40.419201       63.233452
 H        76.610237      -39.829483       63.461849
 C        75.885872      -41.353367       62.185379
 H        76.848679      -41.647270       61.766296
 C        76.768745      -43.014347       59.112465
 H        77.374069      -42.211861       59.542583
 C        77.313721      -43.589661       57.962067
 H        78.382828      -43.431511       57.768703
 C        76.546562      -44.439278       57.200607
 H        77.122208      -45.005894       56.456512
 C        75.242775      -44.791351       57.532249
 H        74.548233      -45.287209       56.891140
 C        72.578285      -45.295403       58.702812
 C        72.316101      -46.581947       59.161148
 H        73.137611      -46.995102       59.794403
 C        71.379593      -47.362354       58.487045
 H        71.275604      -48.373787       58.883003
 C        70.666992      -46.882690       57.418106
 H        70.152115      -47.521225       56.714062
 C        70.805107      -45.538918       57.000153
 H        70.267380      -45.212967       56.062332
 C        71.742615      -44.780720       57.676628
 H        71.921173      -43.808563       57.302948
 C        74.013474      -45.162918       65.460129
 C        73.043587      -44.381981       66.016502
 N        73.906265      -44.967804       63.999870
 C        72.926620      -44.083794       63.711567
 N        72.319748      -43.740852       64.946686
 C        71.014709      -43.255867       64.684830
 C        70.894272      -42.477112       63.552742
 C        69.803520      -41.541805       63.412514
 H        69.802475      -40.999626       62.460068
 C        68.767754      -41.480087       64.429306
 H        67.884193      -40.841164       64.419571
 C        68.865593      -42.418625       65.507950
 H        68.279114      -42.263756       66.406143
 C        69.950241      -43.286453       65.608070
 H        69.938873      -43.893585       66.505493
 C        72.934494      -44.283234       67.453079
 H        72.379936      -43.492859       67.964615
 C        73.731735      -45.102158       68.260025
 H        73.435532      -45.112083       69.305466
 C        74.711960      -45.956558       67.728058
 H        75.520409      -46.429573       68.227730
 C        74.942520      -45.899773       66.347664
 H        75.821808      -46.490993       65.962166
 C        74.863953      -45.340500       63.055180
 C        74.756943      -46.445488       62.237289
 H        73.802887      -46.838715       62.035172
 C        75.866966      -46.831795       61.396080
 H        75.866508      -47.840927       61.009880
 C        77.134346      -46.189934       61.517540
 H        77.995529      -46.632500       61.140564
 C        77.280289      -45.131897       62.427509
 H        78.151138      -44.497002       62.355820
 C        76.161179      -44.728523       63.221539
 H        76.450226      -44.081432       64.059113
 C        68.983818      -46.285286       61.114670
 C        68.828911      -45.239052       60.183487
 N        69.927200      -45.765350       62.087452
 C        70.453812      -44.517204       61.663872
 N        69.659676      -44.193916       60.556198
 C        69.723999      -42.798889       60.143456
 C        70.964386      -42.181725       60.509171
 C        71.322609      -41.030235       59.841450
 H        72.270004      -40.498642       59.950779
 C        70.468346      -40.318119       59.028049
 H        70.733688      -39.383564       58.602844
 C        69.299423      -40.973724       58.651611
 H        68.552826      -40.616959       57.964436
 C        68.901489      -42.158554       59.276772
 H        68.081963      -42.645813       58.853615
 C        67.876389      -45.390785       59.163399
 H        67.796844      -44.674278       58.359108
 C        67.059006      -46.481094       59.079098
 H        66.119583      -46.429321       58.526470
 C        67.217468      -47.479492       59.992996
 H        66.381241      -48.152824       60.069538
 C        68.101082      -47.404640       61.081207
 H        68.437454      -48.262184       61.594215
 C        69.897751      -46.216812       63.481300
 C        68.747093      -46.241508       64.200729
 H        67.918762      -45.677910       63.756737
 C        68.725784      -46.785278       65.485428
 H        67.731384      -46.890305       66.060883
 C        69.900291      -47.333397       66.054810
 H        70.096970      -47.322746       67.084763
 C        71.039444      -47.461662       65.256828
 H        71.959366      -47.605747       65.711990
 C        71.038445      -46.880295       63.996384
 H        71.937439      -46.906010       63.375057
 Ir       72.093231      -43.266922       73.962143
 C        74.680359      -46.771713       74.662643
 C        75.233139      -46.120155       73.530693
 N        73.393188      -46.043053       74.905190
 C        73.261009      -45.005333       74.053444
 N        74.303741      -45.056763       73.130157
 C        74.472252      -43.937820       72.321915
 C        73.740028      -42.844223       72.670052
 C        73.940811      -41.702179       71.938126
 H        73.464600      -40.869102       72.352509
 C        74.754105      -41.634132       70.754684
 H        74.774239      -40.697937       70.237457
 C        75.321136      -42.827744       70.298340
 H        75.638557      -42.967323       69.277382
 C        75.195694      -43.997101       71.080055
 H        75.455124      -44.933617       70.589500
 C        76.534637      -46.620796       73.013931
 H        76.999619      -46.114395       72.162186
 C        77.056564      -47.722633       73.606262
 H        78.050186      -48.019901       73.311432
 C        76.484901      -48.305817       74.796265
 H        77.016251      -49.188141       75.205505
 C        75.315681      -47.840202       75.266388
 H        74.864571      -48.372227       76.125252
 C        72.386490      -46.537575       75.759659
 C        72.438614      -46.347404       77.141006
 H        73.418198      -46.180519       77.531853
 C        71.323967      -46.752281       77.868546
 H        71.354187      -46.687805       78.967010
 C        70.219887      -47.405403       77.234650
 H        69.308487      -47.444633       77.800949
 C        70.214020      -47.581024       75.885674
 H        69.354439      -47.947868       75.342125
 C        71.276520      -47.108673       75.137482
 H        71.157158      -47.005688       74.084991
 C        74.058723      -40.924576       77.069550
 C        73.149368      -40.100468       76.485321
 N        74.071121      -42.129501       76.277275
 C        73.105576      -42.060791       75.303413
 N        72.578079      -40.809189       75.442474
 C        71.427826      -40.438015       74.596680
 C        71.174141      -41.391869       73.611649
 C        70.471901      -41.151443       72.490189
 H        70.210815      -41.903564       71.795746
 C        69.920502      -39.912788       72.264603
 H        69.544235      -39.714970       71.323494
 C        70.051353      -38.958096       73.267273
 H        69.218811      -38.196140       73.249825
 C        70.786987      -39.180565       74.416336
 H        70.815598      -38.398560       75.151566
 C        73.051346      -38.823898       76.972427
 H        72.697151      -38.066380       76.288895
 C        73.679138      -38.493584       78.200256
 H        73.305779      -37.636566       78.626785
 C        74.601364      -39.321106       78.789246
 H        75.230667      -38.905537       79.507141
 C        74.783165      -40.568638       78.243515
 H        75.401939      -41.376610       78.679749
 C        75.175415      -43.122047       76.423859
 C        76.099350      -43.310211       75.450699
 H        76.180923      -42.636398       74.642288
 C        77.064941      -44.348915       75.603081
 H        77.893631      -44.507103       74.866837
 C        77.172096      -45.221657       76.703735
 H        78.038445      -45.936569       76.852493
 C        76.192017      -45.062531       77.723846
 H        76.152206      -45.893604       78.348602
 C        75.259811      -44.005875       77.599075
 H        74.579262      -43.904030       78.377525
 C        68.621376      -44.223465       76.381516
 C        68.302200      -44.833092       75.190262
 N        69.862503      -43.669655       76.363838
 C        70.448601      -43.814423       75.053940
 N        69.481033      -44.625603       74.357735
 C        69.873093      -44.999363       73.051140
 C        70.949738      -44.306526       72.464767
 C        71.230370      -44.455635       71.074402
 H        72.017822      -43.759384       70.600121
 C        70.395645      -45.304413       70.307205
 H        70.609238      -45.679813       69.271805
 C        69.351738      -46.042519       70.919632
 H        68.594933      -46.636581       70.439392
 C        69.072220      -45.898548       72.261292
 H        68.393402      -46.601627       72.710045
 C        67.036926      -45.570625       75.099487
 H        66.638428      -45.735077       74.105774
 C        66.264709      -45.761711       76.251686
 H        65.607727      -46.558075       76.238571
 C        66.646805      -45.127296       77.437660
 H        66.118858      -45.307335       78.294540
 C        67.804993      -44.339394       77.454956
 H        67.969666      -43.852047       78.409195
 C        70.111740      -42.538994       77.235664
 C        69.501320      -41.294399       76.921867
 H        69.139610      -41.107708       75.912453
 C        69.730713      -40.238930       77.772430
 H        69.521919      -39.293335       77.355713
 C        70.585968      -40.410145       78.844917
 H        70.704124      -39.581146       79.560806
 C        71.222557      -41.564159       79.194916
 H        71.941353      -41.655174       80.021744
 C        70.978630      -42.657227       78.335678
 H        71.442329      -43.584908       78.559250
