206
 generated by VMD
 Ir        7.328762      -34.621758     -108.105453
 C         7.894935      -34.573841     -112.504318
 C         9.142550      -34.480118     -111.996902
 N         6.963738      -34.586803     -111.425934
 C         7.704086      -34.489235     -110.193832
 N         8.987675      -34.370098     -110.612411
 C        10.006776      -34.278160     -109.561325
 C         9.439273      -34.501282     -108.257195
 C        10.352074      -34.660107     -107.177490
 H         9.972589      -34.950016     -106.210983
 C        11.715100      -34.418045     -107.408501
 H        12.397166      -34.553215     -106.531281
 C        12.279099      -34.071411     -108.656677
 H        13.265200      -33.645973     -108.887146
 C        11.382432      -34.073521     -109.751839
 H        11.621941      -33.604588     -110.696960
 C        10.260837      -34.550068     -112.844803
 H        11.174798      -34.768894     -112.433228
 C        10.145884      -34.652611     -114.187622
 H        10.994511      -34.564720     -114.825363
 C         8.832521      -34.740105     -114.737930
 H         8.762690      -35.023487     -115.768082
 C         7.696778      -34.693871     -113.945999
 H         6.715778      -34.559265     -114.404602
 C         5.682269      -34.146500     -111.538040
 C         5.486814      -32.784817     -111.660965
 H         6.402464      -32.197792     -111.680664
 C         4.357076      -32.256657     -112.361420
 H         4.230172      -31.211214     -112.432472
 C         3.464060      -33.127602     -112.907379
 H         2.533525      -32.755939     -113.271347
 C         3.668801      -34.507370     -112.754684
 H         2.819020      -35.138695     -112.826080
 C         4.747461      -35.016197     -112.050064
 H         4.781601      -36.079063     -111.739029
 C         7.978306      -38.960022     -107.466881
 C         7.713318      -38.448311     -106.200378
 N         7.890410      -37.860447     -108.319824
 C         7.633036      -36.635864     -107.700745
 N         7.533316      -37.019268     -106.374519
 C         7.385853      -36.026054     -105.470154
 C         7.313117      -34.716831     -106.005730
 C         7.315530      -33.601978     -105.124596
 H         6.848960      -32.738152     -105.613075
 C         7.526630      -33.727734     -103.775772
 H         7.947857      -32.929779     -103.130379
 C         7.634767      -35.047562     -103.261032
 H         7.905504      -35.170876     -102.224838
 C         7.606051      -36.159916     -104.092148
 H         7.929766      -37.137909     -103.625092
 C         7.575681      -39.388798     -105.130127
 H         7.211835      -39.046188     -104.147049
 C         7.667148      -40.772381     -105.340683
 H         7.745656      -41.401001     -104.484253
 C         7.818544      -41.239819     -106.669128
 H         7.678276      -42.323364     -106.816635
 C         7.988091      -40.346733     -107.704239
 H         8.357244      -40.686211     -108.636696
 C         8.404143      -37.921158     -109.662018
 C         9.741650      -37.622345     -109.941284
 H        10.418124      -37.458103     -109.081970
 C        10.268048      -37.786587     -111.175674
 H        11.312940      -37.921932     -111.419144
 C         9.412328      -38.192886     -112.173096
 H         9.936483      -38.237335     -113.246735
 C         8.094662      -38.531628     -111.897408
 H         7.588845      -39.305237     -112.444557
 C         7.536090      -38.338070     -110.665405
 H         6.498460      -38.591961     -110.398636
 C         2.926673      -34.590233     -108.382614
 C         3.291852      -33.249077     -108.353653
 N         4.137161      -35.319939     -108.061447
 C         5.233472      -34.438477     -108.072845
 N         4.753107      -33.156631     -108.101685
 C         5.725367      -32.086761     -107.939850
 C         7.002368      -32.542107     -108.245178
 C         7.978858      -31.569630     -108.540054
 H         8.944376      -31.960087     -108.668556
 C         7.691235      -30.161140     -108.521858
 H         8.285830      -29.537437     -109.168045
 C         6.407834      -29.715120     -108.035492
 H         6.278421      -28.728252     -107.745079
 C         5.394687      -30.673269     -107.824585
 H         4.466409      -30.393164     -107.375092
 C         2.340409      -32.268612     -108.751068
 H         2.576975      -31.196953     -108.832230
 C         1.104881      -32.690437     -109.219727
 H         0.331190      -31.963207     -109.550987
 C         0.736731      -34.032219     -109.258217
 H        -0.352962      -34.244995     -109.292778
 C         1.666884      -34.959030     -108.794708
 H         1.385884      -35.983887     -108.587311
 C         4.155278      -36.580482     -107.365097
 C         3.972595      -36.642632     -106.002617
 H         3.739911      -35.717491     -105.539490
 C         3.938191      -37.870132     -105.407509
 H         3.768258      -37.847496     -104.306458
 C         3.962294      -39.063553     -106.102829
 H         3.957336      -39.982285     -105.547668
 C         3.881213      -39.030746     -107.538574
 H         3.490705      -39.844284     -108.119049
 C         4.117428      -37.778900     -108.124741
 H         4.167593      -37.682400     -109.206757
 Ir        7.328761      -34.621758      -97.389587
 C         3.585030      -34.259159      -95.185951
 C         3.513832      -33.350494      -96.220490
 N         4.876280      -34.775581      -95.176849
 C         5.621230      -34.182503      -96.214264
 N         4.773587      -33.264450      -96.849854
 C         5.377257      -32.422489      -97.870041
 C         6.409354      -33.085636      -98.557663
 C         6.848867      -32.558727      -99.768364
 H         7.505265      -33.136429     -100.417908
 C         6.320327      -31.379280     -100.321213
 H         6.496427      -30.901617     -101.268120
 C         5.390337      -30.688665      -99.541298
 H         5.003856      -29.864132     -100.041672
 C         4.917572      -31.192486      -98.269272
 H         4.020199      -30.777657      -97.922226
 C         2.296508      -32.638245      -96.496384
 H         2.153026      -31.949120      -97.326042
 C         1.124561      -32.890171      -95.652603
 H         0.202686      -32.280174      -95.720062
 C         1.249435      -33.797588      -94.613899
 H         0.481042      -34.028927      -93.886810
 C         2.478904      -34.489246      -94.332642
 H         2.544263      -35.116615      -93.451195
 C         5.398441      -35.455265      -93.972626
 C         5.818752      -34.673462      -92.927048
 H         6.435784      -33.814518      -93.165359
 C         5.867885      -35.167896      -91.660942
 H         6.230647      -34.658718      -90.799934
 C         5.561931      -36.486534      -91.332024
 H         5.995548      -36.960442      -90.512512
 C         5.072642      -37.280823      -92.397247
 H         4.691192      -38.262627      -92.108879
 C         5.055754      -36.787636      -93.694313
 H         4.834783      -37.509499      -94.470123
 C         5.919933      -37.386978     -100.463104
 C         7.280556      -37.496078     -100.533875
 N         5.561774      -36.325779      -99.528992
 C         6.704461      -35.789162      -98.954964
 N         7.774111      -36.450432      -99.622925
 C         9.069454      -35.875832      -99.466331
 C         9.009426      -34.707977      -98.684662
 C        10.121784      -33.855202      -98.678192
 H        10.021746      -32.908226      -98.226387
 C        11.249590      -34.179642      -99.428391
 H        11.956333      -33.331932      -99.714928
 C        11.268085      -35.328159     -100.208878
 H        12.108851      -35.490406     -100.838234
 C        10.143920      -36.155369     -100.286804
 H        10.152331      -36.859150     -101.166824
 C         7.823126      -38.688812     -101.044571
 H         8.872536      -38.714966     -101.139175
 C         7.023164      -39.750603     -101.460075
 H         7.382031      -40.691322     -101.888046
 C         5.639445      -39.554214     -101.597748
 H         5.093101      -40.009735     -102.342072
 C         5.058725      -38.427589     -101.007851
 H         4.049290      -38.208733     -101.221725
 C         4.179543      -36.114941      -99.090820
 C         3.765550      -36.698605      -97.831879
 H         4.525698      -37.244282      -97.308899
 C         2.501437      -36.422874      -97.350845
 H         2.158470      -36.783276      -96.401596
 C         1.616820      -35.696983      -98.172211
 H         0.590319      -35.748138      -97.869751
 C         2.025358      -35.172577      -99.415062
 H         1.238021      -34.640633      -99.991638
 C         3.364753      -35.294220      -99.856224
 H         3.828200      -34.772224     -100.654251
 C         9.123367      -37.468719      -94.456184
 C         9.306171      -36.171776      -93.937134
 N         8.580062      -37.254387      -95.728226
 C         8.392572      -35.935158      -96.060745
 N         8.861214      -35.249401      -94.960968
 C         9.120579      -33.896446      -95.204147
 C         8.262162      -33.295322      -96.109451
 C         8.428028      -31.919903      -96.282974
 H         7.621773      -31.397909      -96.685066
 C         9.370563      -31.176826      -95.712563
 H         9.240053      -30.130135      -95.761581
 C        10.299857      -31.771095      -94.882294
 H        11.203416      -31.176533      -94.604843
 C        10.159728      -33.119045      -94.592651
 H        10.689742      -33.642857      -93.799927
 C         9.605444      -36.162781      -92.540688
 H         9.951380      -35.198318      -92.103149
 C         9.632579      -37.299179      -91.781830
 H         9.824814      -37.180458      -90.695068
 C         9.456053      -38.548721      -92.347931
 H         9.151952      -39.391994      -91.777924
 C         9.271561      -38.633804      -93.712204
 H         9.428841      -39.514671      -94.249176
 C         8.089440      -38.233299      -96.696945
 C         6.738876      -38.502861      -96.761887
 H         6.074571      -38.109154      -96.003334
 C         6.312064      -39.576538      -97.492386
 H         5.229465      -39.914055      -97.437012
 C         7.122890      -40.404377      -98.184158
 H         6.748056      -41.386925      -98.580017
 C         8.486382      -40.220261      -98.044174
 H         9.186376      -40.993134      -98.285172
 C         8.975449      -39.189602      -97.214798
 H         9.905407      -39.370979      -96.684723
