206
 generated by VMD
 Ir      -56.767879       63.480320       99.478340
 C       -57.439575       59.355137       98.406937
 C       -56.139328       59.616470       97.945572
 N       -57.993675       60.617470       98.726471
 C       -57.170872       61.635239       98.584549
 N       -55.996071       61.052090       98.112541
 C       -54.839443       61.928513       97.893936
 C       -54.852669       63.073650       98.684555
 C       -53.741951       63.883995       98.584808
 H       -53.705200       64.839478       99.121002
 C       -52.639042       63.585529       97.765411
 H       -51.616833       64.075455       97.834457
 C       -52.668995       62.458553       96.972412
 H       -51.985374       62.292652       96.158142
 C       -53.799728       61.621464       97.063026
 H       -53.845695       60.808125       96.349884
 C       -55.377354       58.580929       97.644814
 H       -54.394943       58.805527       97.418030
 C       -55.822311       57.277878       97.619263
 H       -55.169876       56.462543       97.373383
 C       -57.138412       57.034313       98.041473
 H       -57.509285       56.026325       98.084076
 C       -57.959721       58.057671       98.485870
 H       -58.894585       57.776375       99.015015
 C       -59.404404       60.726871       98.979385
 C       -59.832916       61.014755      100.299957
 H       -59.053833       61.385086      101.054199
 C       -61.186131       60.864624      100.595703
 H       -61.563957       61.176659      101.515961
 C       -62.073856       60.493492       99.578598
 H       -63.005337       60.107983       99.880310
 C       -61.658112       60.250328       98.242630
 H       -62.385010       60.120960       97.456573
 C       -60.324760       60.396069       97.937607
 H       -59.815815       60.012157       97.115540
 C       -55.764942       61.922123      103.394028
 C       -55.681595       63.299843      103.533440
 N       -55.902588       61.655800      102.046799
 C       -55.946991       62.791756      101.226662
 N       -55.710743       63.837875      102.198273
 C       -55.582523       65.135345      101.665039
 C       -56.101501       65.283279      100.356232
 C       -55.996082       66.571762       99.789833
 H       -56.572155       66.677567       98.860458
 C       -55.353985       67.684952      100.464142
 H       -55.074947       68.534035       99.906464
 C       -54.797192       67.478127      101.687508
 H       -54.271339       68.251343      102.211166
 C       -54.905903       66.238960      102.269943
 H       -54.608448       66.140137      103.307617
 C       -55.702557       63.937698      104.753357
 H       -55.566246       65.028336      104.807449
 C       -55.755161       63.189041      105.921326
 H       -55.822754       63.696133      106.904129
 C       -55.727768       61.766602      105.910904
 H       -55.621513       61.118172      106.809761
 C       -55.691998       61.137135      104.612175
 H       -55.639145       60.045498      104.606201
 C       -55.550087       60.344959      101.610641
 C       -56.407444       59.296444      101.808777
 H       -57.468098       59.412434      102.063446
 C       -55.968960       57.996380      101.787094
 H       -56.704819       57.174057      101.801193
 C       -54.685200       57.641418      101.458824
 H       -54.292786       56.574539      101.490082
 C       -53.815590       58.680149      101.131233
 H       -52.742981       58.506264      100.932297
 C       -54.269886       60.038307      101.126953
 H       -53.847778       60.761009      100.538284
 C       -60.918743       64.493301      100.417862
 C       -60.706760       64.667389       99.072769
 N       -59.609859       64.228172      100.952774
 C       -58.656036       64.207214       99.997849
 N       -59.313229       64.553787       98.847900
 C       -58.525261       65.012161       97.837952
 C       -57.369621       64.310028       97.646622
 C       -56.534920       64.526039       96.543533
 H       -55.717815       63.915340       96.300873
 C       -56.901817       65.480118       95.605392
 H       -56.315315       65.726280       94.782455
 C       -58.090233       66.200226       95.772171
 H       -58.224049       67.060883       95.187645
 C       -58.891106       65.943489       96.832870
 H       -59.738472       66.553391       96.903534
 C       -61.697258       64.981415       98.091499
 H       -61.580868       64.643631       97.053398
 C       -63.029163       64.975235       98.553757
 H       -63.790276       65.576950       98.087769
 C       -63.295692       64.604691       99.893082
 H       -64.359863       64.663589      100.322464
 C       -62.316967       64.411240      100.831680
 H       -62.514385       64.606491      101.873642
 C       -59.245548       64.711502      102.196907
 C       -59.223843       63.863430      103.274353
 H       -59.453400       62.866425      103.062973
 C       -58.916893       64.307030      104.541565
 H       -58.980415       63.735859      105.454811
 C       -58.504444       65.629059      104.714020
 H       -57.897663       65.916138      105.564087
 C       -58.543320       66.513260      103.677795
 H       -58.606575       67.601707      103.890854
 C       -58.916256       66.078842      102.375076
 H       -58.873821       66.784973      101.572464
 Ir      -56.767879       63.480316      111.747589
 C       -58.173584       60.573147      114.690384
 C       -58.599079       60.090614      113.512245
 N       -57.409119       61.657997      114.479935
 C       -57.359230       62.007568      113.129410
 N       -58.108929       61.043304      112.561127
 C       -58.183327       61.008560      111.119713
 C       -57.883354       62.201225      110.451508
 C       -58.188599       62.226578      109.077179
 H       -58.137291       63.203018      108.623505
 C       -58.638443       61.142723      108.289841
 H       -58.952137       61.272892      107.239761
 C       -58.988937       59.955055      108.988419
 H       -59.232159       59.197021      108.326584
 C       -58.754143       59.849651      110.357483
 H       -59.142639       58.983208      110.877533
 C       -59.564003       59.055481      113.578674
 H       -60.273430       58.934692      112.751129
 C       -59.846878       58.416027      114.800018
 H       -60.656471       57.742241      114.890930
 C       -59.235214       58.812317      115.976036
 H       -59.352043       58.263901      116.895660
 C       -58.429905       59.960453      115.928452
 H       -58.063828       60.316608      116.840881
 C       -57.299496       62.722885      115.455116
 C       -58.292557       63.678566      115.598648
 H       -59.205811       63.565964      115.171463
 C       -58.173973       64.782982      116.460449
 H       -59.031380       65.335785      116.698273
 C       -56.956493       64.913345      117.219498
 H       -56.851479       65.876816      117.670395
 C       -55.913113       64.032326      116.900482
 H       -54.931328       64.153908      117.413834
 C       -56.095551       62.928513      116.067352
 H       -55.270836       62.335381      115.778503
 C       -53.183998       61.765404      110.187820
 C       -53.157814       62.996990      109.742615
 N       -54.341919       61.621063      110.935814
 C       -55.084793       62.694931      110.929550
 N       -54.418373       63.526638      110.143318
 C       -55.155724       64.673767      109.670044
 C       -56.489960       64.752434      110.107895
 C       -57.325817       65.572556      109.429047
 H       -58.364567       65.742653      109.783676
 C       -56.880920       66.274094      108.305649
 H       -57.664036       66.700729      107.700165
 C       -55.543533       66.303040      107.917900
 H       -55.290443       66.541412      106.907150
 C       -54.660446       65.527237      108.582428
 H       -53.753304       65.321609      108.116806
 C       -51.983967       63.562771      109.192184
 H       -51.873238       64.665588      109.004211
 C       -50.810623       62.829887      109.117645
 H       -49.828270       63.156502      108.745636
 C       -50.815273       61.527031      109.636734
 H       -49.996246       60.984009      109.498062
 C       -51.932816       61.023735      110.231026
 H       -51.818085       60.307426      111.003708
 C       -54.557869       60.473526      111.769257
 C       -54.051865       60.446579      113.102463
 H       -53.249741       61.118370      113.427414
 C       -54.498177       59.466537      114.015762
 H       -53.906052       59.266701      114.944504
 C       -55.427338       58.468536      113.589096
 H       -55.798660       57.741844      114.318848
 C       -55.887417       58.419220      112.269104
 H       -56.457085       57.531021      111.915306
 C       -55.477684       59.498081      111.387344
 H       -55.799744       59.498878      110.384109
 C       -55.243645       66.482521      114.500381
 C       -56.599976       66.772797      114.389404
 N       -54.964386       65.437798      113.599129
 C       -56.091965       65.043503      112.934219
 N       -57.088879       65.853653      113.424454
 C       -58.422478       65.720490      112.818405
 C       -58.607872       64.426018      112.265167
 C       -59.895924       63.901760      112.134911
 H       -60.084980       63.032127      111.571625
 C       -60.927505       64.702522      112.509766
 H       -61.938747       64.258118      112.589745
 C       -60.761047       65.987808      113.000107
 H       -61.642151       66.580147      113.086670
 C       -59.545353       66.543610      113.087128
 H       -59.356697       67.575958      113.175308
 C       -57.118851       67.907562      115.114380
 H       -58.136543       68.227386      115.094269
 C       -56.227497       68.639442      115.877426
 H       -56.673271       69.499290      116.328018
 C       -54.898804       68.304840      116.025452
 H       -54.232697       68.600708      116.916779
 C       -54.396523       67.255333      115.328003
 H       -53.315262       67.069466      115.385742
 C       -53.605476       65.036926      113.153198
 C       -52.913406       63.953472      113.757980
 H       -53.507206       63.416237      114.507973
 C       -51.586018       63.647415      113.431686
 H       -51.208855       62.684349      113.608177
 C       -50.900352       64.536423      112.523209
 H       -49.916359       64.246140      112.202599
 C       -51.525543       65.565575      111.887131
 H       -51.099648       65.852257      110.925407
 C       -52.893360       65.831696      112.221893
 H       -53.306568       66.726486      111.799149
