206
 generated by VMD
 Ir       57.969254       53.434383       30.423092
 C        60.890358       56.221649       32.424492
 C        61.407501       55.889507       31.182381
 N        59.669468       55.420265       32.468124
 C        59.383934       54.685135       31.319357
 N        60.443085       55.065472       30.485058
 C        60.065628       55.011257       29.076094
 C        58.945644       54.246376       28.758778
 C        58.543877       54.173248       27.422272
 H        57.799183       53.461128       27.113537
 C        59.185387       54.957890       26.483019
 H        58.831951       54.865002       25.473587
 C        60.244404       55.792648       26.799503
 H        60.565872       56.440430       26.038689
 C        60.734673       55.852402       28.100105
 H        61.429573       56.542473       28.402946
 C        62.664948       56.550423       30.846630
 H        63.127045       56.366821       29.887016
 C        63.262459       57.439758       31.701477
 H        64.109688       57.994171       31.327269
 C        62.646446       57.749855       32.928127
 H        63.251472       58.201630       33.744423
 C        61.428749       57.210976       33.269043
 H        60.794662       57.636127       34.065647
 C        59.005600       55.143776       33.731228
 C        59.477360       54.018318       34.447174
 H        60.494709       53.756409       34.297840
 C        58.778999       53.611359       35.573578
 H        58.930019       52.670586       36.001053
 C        57.657539       54.343838       35.995724
 H        57.060226       54.022774       36.812752
 C        57.218452       55.506882       35.321247
 H        56.478691       56.168522       35.719097
 C        57.871651       55.874088       34.165180
 H        57.639938       56.811489       33.838089
 C        54.831581       56.467899       29.532990
 C        54.263535       55.211124       29.311087
 N        56.206390       56.230686       29.901936
 C        56.420300       54.839222       30.058996
 N        55.223454       54.241074       29.665573
 C        55.239338       52.890450       29.374956
 C        56.567139       52.382294       29.305515
 C        56.723572       51.056484       28.973309
 H        57.730980       50.805660       28.561337
 C        55.654945       50.184502       28.758421
 H        55.711414       49.129036       28.886887
 C        54.322075       50.624950       28.801590
 H        53.508972       49.888378       28.687065
 C        54.055553       51.984009       29.175922
 H        53.037926       52.309288       29.378962
 C        52.913010       55.145226       28.869797
 H        52.503704       54.215050       28.460720
 C        52.200275       56.331406       28.553909
 H        51.320755       56.276588       27.943708
 C        52.763847       57.592518       28.746464
 H        52.216347       58.387035       28.262341
 C        54.088524       57.645405       29.268141
 H        54.628891       58.573650       29.527491
 C        57.155296       57.243507       29.685621
 C        57.929615       57.736961       30.731052
 H        57.779152       57.496380       31.764530
 C        59.055698       58.586418       30.494284
 H        59.641029       59.124817       31.254824
 C        59.368591       58.829052       29.150139
 H        60.274338       59.373592       28.946159
 C        58.536110       58.457031       28.141735
 H        58.757866       58.849171       27.160690
 C        57.400513       57.643597       28.375053
 H        56.688324       57.449272       27.585861
 C        56.725571       51.592831       34.190865
 C        57.740170       50.769035       33.689713
 N        56.446442       52.556374       33.166092
 C        57.312218       52.391327       32.069366
 N        58.119904       51.266953       32.420826
 C        59.094559       50.864090       31.497274
 C        59.466354       51.915218       30.635067
 C        60.463799       51.636562       29.699144
 H        60.770844       52.401447       29.012358
 C        61.119797       50.414845       29.626554
 H        61.861832       50.275093       28.903397
 C        60.739571       49.371185       30.532040
 H        61.110550       48.362221       30.510443
 C        59.680672       49.597675       31.469610
 H        59.095680       48.706295       31.805199
 C        58.115711       49.686462       34.481174
 H        59.076172       49.218666       34.310078
 C        57.513039       49.462746       35.691643
 H        58.002705       48.702438       36.315712
 C        56.490334       50.267265       36.129845
 H        55.950130       50.214256       37.124313
 C        56.094170       51.391159       35.391933
 H        55.717316       52.215557       35.966431
 C        55.139244       53.146454       33.077530
 C        54.129463       52.237846       32.926643
 H        54.325012       51.186958       32.864227
 C        52.851212       52.666969       32.584984
 H        52.073425       51.870762       32.446053
 C        52.559402       54.007236       32.514004
 H        51.593994       54.255650       32.292229
 C        53.580429       54.959938       32.659470
 H        53.347610       55.988659       32.390343
 C        54.895317       54.565266       32.969971
 H        55.767029       55.164139       32.731499
 Ir       57.969257       53.434383       44.799583
 C        59.244682       51.229240       48.344681
 C        60.334049       51.869316       47.878105
 N        58.074715       51.815346       47.604237
 C        58.508881       52.741302       46.683365
 N        59.958542       52.726967       46.825096
 C        60.712933       53.268372       45.672546
 C        60.037209       53.143440       44.434856
 C        60.743126       53.149464       43.217377
 H        60.215591       52.985500       42.264847
 C        62.216927       53.390049       43.287476
 H        62.706047       53.811104       42.450588
 C        62.827934       53.611240       44.491322
 H        63.933960       53.746288       44.618866
 C        62.110222       53.525703       45.664764
 H        62.648865       53.907001       46.508018
 C        61.527130       51.603310       48.447662
 H        62.410683       52.095688       48.252983
 C        61.695946       50.610855       49.358887
 H        62.644867       50.426170       49.769783
 C        60.586857       49.897533       49.926682
 H        60.629940       48.932903       50.489738
 C        59.320175       50.344006       49.473377
 H        58.472115       49.979694       50.008698
 C        56.818756       52.043640       48.350594
 C        55.554314       51.799442       47.781250
 H        55.610886       51.405014       46.811337
 C        54.362480       52.082069       48.512238
 H        53.358208       51.832329       48.123943
 C        54.503891       52.682152       49.720921
 H        53.651455       53.225483       50.121853
 C        55.701603       52.783226       50.371277
 H        55.795574       53.065857       51.352852
 C        56.870300       52.526379       49.654442
 H        57.860699       52.543846       50.061630
 C        58.131310       57.717445       45.274986
 C        57.591682       57.498425       44.070816
 N        58.571007       56.464287       45.789532
 C        58.353920       55.446648       44.864605
 N        57.752953       56.117683       43.818348
 C        57.664772       55.377857       42.597946
 C        57.691608       54.013741       42.773907
 C        57.771778       53.231384       41.630623
 H        57.666687       52.143635       41.751659
 C        57.824287       53.841103       40.315636
 H        57.809731       53.221268       39.449326
 C        57.826065       55.233170       40.149670
 H        57.838493       55.687111       39.144890
 C        57.806030       55.973598       41.298046
 H        58.070961       57.013519       41.193306
 C        56.945824       58.552807       43.411766
 H        56.580059       58.444382       42.361023
 C        56.980507       59.800430       43.965698
 H        56.551846       60.689640       43.446804
 C        57.501053       60.054867       45.215496
 H        57.512070       61.007450       45.681717
 C        58.062492       58.960732       45.837227
 H        58.220604       59.174450       46.907890
 C        59.354240       56.404408       46.946060
 C        58.668159       56.199001       48.114006
 H        57.628975       56.319237       48.061718
 C        59.362297       56.080456       49.309509
 H        58.794754       55.894806       50.182907
 C        60.709534       56.255867       49.453987
 H        61.082581       56.249359       50.415073
 C        61.379677       56.521507       48.263290
 H        62.412872       56.733543       48.294037
 C        60.735008       56.526691       47.023060
 H        61.285210       56.443081       46.081841
 C        53.711563       53.435829       45.369793
 C        53.900932       52.267963       44.711750
 N        54.904819       54.107468       45.467941
 C        55.900734       53.428360       44.905830
 N        55.265469       52.312778       44.401535
 C        56.130829       51.249603       43.986553
 C        57.480453       51.430073       44.380165
 C        58.387375       50.359184       44.117870
 H        59.377243       50.440628       44.527786
 C        57.930309       49.138313       43.587914
 H        58.657188       48.365234       43.308453
 C        56.558624       48.955070       43.255177
 H        56.255650       47.957550       42.980110
 C        55.748528       50.055111       43.438889
 H        54.806797       50.112099       42.834244
 C        52.843403       51.330200       44.649014
 H        52.884968       50.412315       43.965233
 C        51.632011       51.586689       45.218967
 H        50.934170       50.774094       45.297150
 C        51.441605       52.819733       45.777760
 H        50.471619       53.040436       46.206841
 C        52.439301       53.835442       45.833866
 H        52.221886       54.725372       46.478962
 C        54.937592       55.411591       45.979401
 C        54.530373       56.415253       45.089104
 H        54.346863       56.211170       44.044174
 C        54.175827       57.687088       45.549137
 H        53.581348       58.348969       44.940113
 C        54.450916       57.967670       46.908329
 H        53.941025       58.774963       47.381298
 C        55.006538       57.008705       47.769005
 H        54.904713       57.290127       48.814293
 C        55.228256       55.682533       47.310944
 H        55.270882       54.857414       48.085514
