206
 generated by VMD
  IR        39.500000       60.340000       19.629999
  C1        43.160000       62.060001       17.870001
  C2        42.470001       61.419998       16.840000
  N1        42.310001       61.880001       19.070000
  C3a       41.180000       61.169998       18.760000
  N2        41.270000       60.930000       17.340000
  C4        40.070000       60.580002       16.680000
  C5a       39.070000       60.110001       17.600000
  C6        37.919998       59.529999       17.010000
  H1        37.119999       59.099998       17.700001
  C7        37.709999       59.450001       15.640000
  H2        36.770000       59.180000       15.170000
  C8        38.730000       59.900002       14.780000
  H3        38.580002       59.860001       13.700000
  C9        39.889999       60.540001       15.240000
  H4        40.360001       61.180000       14.610000
  C10       43.080002       61.259998       15.630000
  H5        42.570000       60.599998       14.900000
  C11       44.330002       61.820000       15.450000
  H6        44.810001       61.580002       14.490000
  C12       44.939999       62.610001       16.410000
  H7        45.869999       63.169998       16.059999
  C13       44.349998       62.680000       17.670000
  H8        44.990002       63.150002       18.450001
  C6        42.700001       62.169998       20.410000
  C1        42.259998       63.419998       21.040001
  H1        42.290001       64.239998       20.400000
  C2        42.700001       63.599998       22.370001
  H2        42.330002       64.529999       22.820000
  C3        43.459999       62.669998       23.070000
  H3        43.840000       62.900002       24.059999
  C4        43.840000       61.470001       22.469999
  H4        44.320000       60.680000       23.010000
  C5        43.470001       61.250000       21.150000
  H5        44.139999       60.509998       20.620001
  C1        37.250000       64.139999       19.670000
  C2        36.380001       63.150002       20.139999
  N1        38.470001       63.470001       19.350000
  C3b       38.349998       62.080002       19.570000
  N2        37.080002       61.959999       20.049999
  C4        36.650002       60.549999       20.190001
  C5b       37.630001       59.529999       20.160000
  C6        37.310001       58.279999       20.730000
  H1        38.099998       57.549999       20.690001
  C7        36.080002       58.049999       21.299999
  H2        35.799999       57.029999       21.400000
  C8        35.020000       59.009998       21.250000
  H3        34.020000       58.639999       21.230000
  C9        35.349998       60.250000       20.660000
  H4        34.509998       60.779999       20.299999
  C10       35.070000       63.490002       20.559999
  H5        34.450001       62.790001       21.030001
  C11       34.590000       64.820000       20.350000
  H6        33.529999       65.070000       20.510000
  C12       35.430000       65.820000       19.959999
  H7        35.240002       66.830002       20.240000
  C13       36.759998       65.510002       19.620001
  H8        37.279999       66.360001       19.350000
  C6        39.400002       64.120003       18.490000
  C1        39.270000       63.820000       17.129999
  H1        38.540001       63.060001       16.760000
  C2        40.029999       64.559998       16.200001
  H2        40.000000       64.459999       15.140000
  C3        40.849998       65.629997       16.610001
  H3        41.180000       66.279999       15.920000
  C4        40.980000       65.860001       17.969999
  H4        41.700001       66.500000       18.510000
  C5        40.270000       65.110001       18.900000
  H5        40.450001       65.220001       19.969999
  C1        40.709999       60.209999       23.879999
  C2        41.480000       59.250000       23.219999
  N1        39.830002       60.759998       22.860001
  C3c       40.040001       60.139999       21.639999
  N2        41.040001       59.240002       21.840000
  C4        41.369999       58.410000       20.780001
  C5c       40.430000       58.450001       19.730000
  C6        40.549999       57.529999       18.700001
  H1        39.770000       57.490002       17.900000
  C7        41.630001       56.610001       18.620001
  H2        41.990002       56.360001       17.600000
  C8        42.619999       56.660000       19.650000
  H3        43.360001       55.849998       19.799999
  C9        42.439999       57.540001       20.690001
  H4        43.169998       57.759998       21.420000
  C10       42.500000       58.639999       23.930000
  H5        42.959999       57.740002       23.520000
  C11       42.790001       59.060001       25.250000
  H6        43.709999       58.750000       25.770000
  C12       41.990002       60.009998       25.940001
  H7        42.320000       60.230000       26.950001
  C13       40.950001       60.570000       25.209999
  H8        40.189999       61.099998       25.790001
  C6        38.730000       61.709999       23.150000
  C1        38.849998       63.009998       22.809999
  H1        39.619999       63.419998       22.209999
  C2        37.889999       63.970001       23.170000
  H2        37.939999       64.980003       22.809999
  C3        36.759998       63.570000       23.910000
  H3        35.919998       64.150002       24.100000
  C4        36.680000       62.270000       24.400000
  H4        35.759998       61.930000       24.840000
  C5        37.590000       61.340000       23.910000
  H5        37.610001       60.360001       24.299999
  IR        42.799999       46.060001       18.540001
  C1        39.380001       45.660000       15.750000
  C2        40.540001       45.709999       14.990000
  N1        39.820000       45.869999       17.059999
  C3a       41.250000       45.930000       17.190001
  N2        41.680000       45.919998       15.910000
  C4        42.790001       46.720001       15.690000
  C5a       43.610001       46.950001       16.799999
  C6        44.840000       47.650002       16.760000
  H1        45.270000       47.970001       17.700001
  C7        45.240002       48.119999       15.550000
  H2        46.240002       48.639999       15.520000
  C8        44.500000       47.900002       14.420000
  H3        44.930000       48.230000       13.480000
  C9        43.299999       47.200001       14.390000
  H4        42.959999       46.750000       13.480000
  C10       40.389999       45.639999       13.550000
  H5        41.099998       45.590000       12.810000
  C11       39.150002       45.430000       13.050000
  H6        39.110001       45.360001       11.960000
  C12       37.959999       45.419998       13.790000
  H7        36.990002       45.380001       13.390000
  C13       38.040001       45.500000       15.150000
  H8        37.099998       45.709999       15.730000
  C6        38.959999       45.689999       18.219999
  C1        38.730000       44.430000       18.760000
  H1        39.110001       43.480000       18.350000
  C2        37.930000       44.279999       19.920000
  H2        37.689999       43.330002       20.209999
  C3        37.349998       45.410000       20.520000
  H3        37.040001       45.380001       21.549999
  C4        37.590000       46.680000       19.990000
  H4        37.200001       47.529999       20.500000
  C5        38.380001       46.810001       18.850000
  H5        38.529999       47.799999       18.370001
  C1        44.959999       42.419998       17.750000
  C2        45.790001       43.099998       18.520000
  N1        43.880001       43.130001       17.530001
  C3b       43.959999       44.360001       18.180000
  N2        45.180000       44.320000       18.770000
  C4        45.549999       45.480000       19.570000
  C5b       44.459999       46.380001       19.809999
  C6        44.709999       47.509998       20.600000
  H1        43.919998       48.259998       20.620001
  C7        45.950001       47.720001       21.150000
  H2        46.130001       48.680000       21.639999
  C8        46.959999       46.770000       21.030001
  H3        47.990002       47.060001       21.150000
  C9        46.740002       45.660000       20.240000
  H4        47.630001       45.110001       19.959999
  C10       46.880001       42.560001       19.070000
  H5        47.459999       43.060001       19.799999
  C11       47.189999       41.200001       18.930000
  H6        48.200001       40.820000       19.100000
  C12       46.310001       40.400002       18.139999
  H7        46.419998       39.360001       18.059999
  C13       45.209999       41.029999       17.559999
  H8        44.599998       40.419998       16.910000
  C6        43.160000       42.799999       16.360001
  C1        43.680000       43.119999       15.100000
  H1        44.669998       43.380001       14.980000
  C2        42.950001       43.009998       13.930000
  H2        43.220001       43.650002       13.100000
  C3        41.619999       42.560001       14.050000
  H3        40.990002       42.669998       13.190000
  C4        41.090000       42.250000       15.320000
  H4        40.020000       42.369999       15.490000
  C5        41.849998       42.310001       16.440001
  H5        41.459999       41.740002       17.309999
  C1        40.840000       44.689999       22.240000
  C2        40.650002       46.009998       22.250000
  N1        41.549999       44.360001       21.049999
  C3c       41.860001       45.470001       20.309999
  N2        41.270000       46.500000       21.049999
  C4        41.119999       47.709999       20.370001
  C5c       41.880001       47.869999       19.170000
  C6        41.759998       49.029999       18.400000
  H1        42.490002       49.310001       17.680000
  C7        40.849998       50.009998       18.709999
  H2        40.570000       50.630001       17.900000
  C8        40.070000       49.869999       19.870001
  H3        39.230000       50.560001       19.860001
  C9        40.279999       48.779999       20.730000
  H4        39.889999       48.790001       21.760000
  C10       40.040001       46.630001       23.360001
  H5        40.029999       47.759998       23.410000
  C11       39.619999       45.860001       24.440001
  H6        39.160000       46.209999       25.299999
  C12       39.950001       44.490002       24.469999
  H7        39.540001       43.939999       25.309999
  C13       40.540001       43.930000       23.360001
  H8        40.630001       42.820000       23.360001
  C6        41.880001       42.930000       20.730000
  C1        43.189999       42.500000       21.100000
  H1        44.049999       43.200001       21.180000
  C2        43.520000       41.180000       21.020000
  H2        44.540001       40.959999       21.209999
  C3        42.540001       40.230000       20.709999
  H3        42.770000       39.200001       20.940001
  C4        41.230000       40.650002       20.360001
  H4        40.520000       39.919998       19.980000
  C5        40.880001       41.980000       20.370001
  H5        39.880001       42.310001       20.230000
