206
 generated by VMD
 Ir      -32.068398      -32.992912       60.331718
 C       -30.846413      -30.252995       63.507118
 C       -29.704052      -30.959480       63.219398
 N       -31.862434      -30.717499       62.648670
 C       -31.391701      -31.728407       61.823696
 N       -30.052114      -31.885941       62.193817
 C       -29.355459      -32.960026       61.550686
 C       -30.166203      -33.794949       60.773190
 C       -29.584705      -34.921524       60.175705
 H       -30.219757      -35.614349       59.641193
 C       -28.226980      -35.205986       60.303215
 H       -27.821892      -36.099400       59.857433
 C       -27.418005      -34.347351       61.035606
 H       -26.377934      -34.588181       61.187431
 C       -27.968594      -33.220772       61.658482
 H       -27.312977      -32.512100       62.120708
 C       -28.512085      -30.622581       63.895206
 H       -27.600201      -31.175606       63.730480
 C       -28.497030      -29.592129       64.837776
 H       -27.568232      -29.329201       65.329819
 C       -29.672161      -28.898300       65.133881
 H       -29.673565      -28.127647       65.891701
 C       -30.849131      -29.233330       64.471321
 H       -31.776627      -28.756926       64.765312
 C       -33.122444      -30.038799       62.465233
 C       -33.258881      -29.100618       61.434120
 H       -32.411392      -28.819868       60.827946
 C       -34.490601      -28.481907       61.216255
 H       -34.608963      -27.818802       60.367916
 C       -35.581821      -28.758591       62.040321
 H       -36.543236      -28.295855       61.855770
 C       -35.447662      -29.687441       63.074219
 H       -36.291115      -29.921539       63.706985
 C       -34.214539      -30.343475       63.274612
 H       -34.167336      -31.161610       63.973278
 C       -30.096485      -31.246780       56.844757
 C       -30.791914      -32.315857       56.336472
 N       -30.256741      -31.250526       58.236984
 C       -31.109947      -32.283577       58.629593
 N       -31.395580      -32.955765       57.449261
 C       -32.070908      -34.219063       57.609612
 C       -32.498005      -34.509354       58.917057
 C       -33.134781      -35.733189       59.156506
 H       -33.427246      -35.995956       60.158314
 C       -33.359550      -36.653133       58.138382
 H       -33.847183      -37.586830       58.353828
 C       -32.922440      -36.372177       56.834499
 H       -33.084816      -37.086166       56.039738
 C       -32.282898      -35.163399       56.575935
 H       -31.905312      -34.999676       55.580788
 C       -30.762596      -32.537613       54.946087
 H       -31.367687      -33.298668       54.485374
 C       -30.026520      -31.697485       54.097454
 H       -30.024530      -31.874931       53.039619
 C       -29.326128      -30.613344       54.631203
 H       -28.753609      -29.962957       53.997391
 C       -29.373180      -30.382257       56.011673
 H       -28.848135      -29.526434       56.412285
 C       -29.219809      -30.676868       59.069984
 C       -27.905308      -31.114117       58.919304
 H       -27.684233      -31.945026       58.256424
 C       -26.867313      -30.491560       59.624989
 H       -25.850464      -30.824137       59.490036
 C       -27.146101      -29.422428       60.484135
 H       -26.348078      -28.953545       61.040829
 C       -28.466524      -28.988775       60.642025
 H       -28.691275      -28.190914       61.340885
 C       -29.494511      -29.620661       59.939911
 H       -30.513161      -29.284489       60.061306
 C       -36.167389      -31.533600       59.980606
 C       -36.201168      -32.433102       61.029873
 N       -34.875248      -31.595846       59.416077
 C       -34.070400      -32.483261       60.106232
 N       -34.915527      -33.020531       61.071842
 C       -34.368324      -34.040237       61.886559
 C       -32.971947      -34.045349       61.935516
 C       -32.329544      -34.802338       62.917904
 H       -31.260387      -34.780350       63.002823
 C       -33.067989      -35.593674       63.816673
 H       -32.551384      -36.181149       64.558357
 C       -34.456558      -35.628021       63.726707
 H       -35.008980      -36.336533       64.320297
 C       -35.109932      -34.850235       62.773422
 H       -36.161617      -35.014328       62.604225
 C       -37.365681      -32.523849       61.817123
 H       -37.399323      -33.163338       62.677197
 C       -38.474564      -31.717228       61.544266
 H       -39.361755      -31.787645       62.167267
 C       -38.423492      -30.801201       60.489712
 H       -39.237450      -30.107231       60.333614
 C       -37.276268      -30.726982       59.707748
 H       -37.254524      -30.035099       58.877914
 C       -34.611069      -31.141201       58.070637
 C       -35.449848      -31.571774       57.027969
 H       -36.236336      -32.285912       57.232246
 C       -35.275238      -31.061922       55.747440
 H       -35.937405      -31.381985       54.946629
 C       -34.253975      -30.142300       55.477936
 H       -34.134766      -29.742489       54.485374
 C       -33.410629      -29.730389       56.515045
 H       -32.557011      -29.102365       56.295219
 C       -33.596466      -30.215843       57.812393
 H       -32.933823      -29.901516       58.596867
 Ir      -32.068398      -32.992912       71.594650
 C       -30.256889      -33.200146       67.625580
 C       -30.827133      -34.441864       67.799805
 N       -30.449518      -32.488708       68.820923
 C       -31.158905      -33.216866       69.747337
 N       -31.405888      -34.435703       69.102798
 C       -32.276390      -35.333954       69.784248
 C       -32.977043      -34.753357       70.857559
 C       -34.076782      -35.428345       71.392685
 H       -34.635040      -34.979626       72.198174
 C       -34.455482      -36.688988       70.924225
 H       -35.297173      -37.197952       71.365822
 C       -33.733490      -37.286110       69.887947
 H       -33.998741      -38.278976       69.549194
 C       -32.648720      -36.616859       69.323776
 H       -31.994606      -37.146736       68.653664
 C       -30.725163      -35.383179       66.762054
 H       -31.171644      -36.364891       66.848648
 C       -30.047981      -35.067719       65.575546
 H       -29.952831      -35.809593       64.798134
 C       -29.498234      -33.801598       65.410507
 H       -28.985191      -33.550980       64.486786
 C       -29.599730      -32.866020       66.431931
 H       -29.170021      -31.886446       66.302734
 C       -29.851667      -31.194809       69.069916
 C       -30.670158      -30.092251       69.294250
 H       -31.712376      -30.228558       69.507339
 C       -30.106222      -28.816231       69.395493
 H       -30.746149      -27.960819       69.560013
 C       -28.719734      -28.651827       69.298965
 H       -28.271751      -27.675278       69.446823
 C       -27.889910      -29.761578       69.108093
 H       -26.817966      -29.654825       69.126617
 C       -28.455648      -31.034000       68.993286
 H       -27.818520      -31.894466       68.879433
 C       -35.367851      -30.414635       70.475204
 C       -35.431583      -30.484375       71.844460
 N       -34.403118      -31.340107       70.057121
 C       -33.818672      -31.995508       71.125793
 N       -34.497475      -31.492880       72.219772
 C       -34.238567      -32.181267       73.448380
 C       -33.154694      -33.079903       73.405121
 C       -32.888771      -33.875206       74.530685
 H       -32.075283      -34.578400       74.501472
 C       -33.665749      -33.764946       75.681137
 H       -33.493668      -34.441658       76.511345
 C       -34.716881      -32.849785       75.731804
 H       -35.261509      -32.676819       76.646713
 C       -35.016029      -32.065277       74.615173
 H       -35.865448      -31.417385       74.656624
 C       -36.272911      -29.599926       72.537659
 H       -36.278957      -29.568958       73.616173
 C       -37.040016      -28.660803       71.848816
 H       -37.689930      -27.983665       72.387802
 C       -36.969887      -28.593201       70.456009
 H       -37.543716      -27.852943       69.909988
 C       -36.128555      -29.477650       69.762817
 H       -36.055237      -29.399464       68.696930
 C       -34.285904      -31.779659       68.685776
 C       -34.640205      -33.098530       68.360886
 H       -35.184189      -33.700127       69.070236
 C       -34.289253      -33.616730       67.114616
 H       -34.521866      -34.653435       66.877899
 C       -33.603096      -32.828995       66.184967
 H       -33.294006      -33.254772       65.241684
 C       -33.277897      -31.513720       66.498016
 H       -32.669342      -30.927191       65.820343
 C       -33.641144      -30.976856       67.743500
 H       -33.441269      -29.932686       67.957047
 C       -29.700642      -29.634352       72.871445
 C       -28.803930      -30.644688       72.646423
 N       -30.991714      -30.184916       72.867592
 C       -30.929182      -31.533302       72.523697
 N       -29.582155      -31.815525       72.490952
 C       -29.273972      -33.223320       72.541168
 C       -30.394951      -34.044373       72.361801
 C       -30.287716      -35.420792       72.609337
 H       -31.152725      -36.053665       72.512230
 C       -29.069027      -35.972565       73.016335
 H       -28.997360      -37.031631       73.212646
 C       -27.947563      -35.157242       73.179367
 H       -27.024654      -35.567696       73.552551
 C       -28.044788      -33.790154       72.935394
 H       -27.178493      -33.175270       73.093948
 C       -27.447933      -30.346733       72.508247
 H       -26.742100      -31.139236       72.373779
 C       -27.002262      -29.021923       72.564407
 H       -25.952007      -28.812428       72.436050
 C       -27.911266      -27.992926       72.788635
 H       -27.576950      -26.966125       72.854301
 C       -29.263660      -28.298073       72.953934
 H       -29.965500      -27.503025       73.162308
 C       -31.944715      -29.699863       73.838478
 C       -31.883957      -30.172287       75.150734
 H       -31.155029      -30.929539       75.413467
 C       -32.747330      -29.665655       76.122803
 H       -32.729401      -30.077610       77.124886
 C       -33.676033      -28.667938       75.788162
 H       -34.356575      -28.296787       76.537704
 C       -33.723137      -28.191919       74.475044
 H       -34.452068      -27.434666       74.212311
 C       -32.867489      -28.698551       73.496628
 H       -32.934044      -28.356966       72.474976
