206
 generated by VMD
 Ir       44.665558      -59.361511       30.166935
 C        47.885471      -57.450222       27.740957
 C        47.158081      -58.186951       26.842831
 N        47.347591      -57.794655       29.047346
 C        46.222153      -58.630920       28.938047
 N        46.096596      -58.773949       27.613403
 C        44.781052      -59.185059       27.190405
 C        44.090500      -59.868362       28.204969
 C        43.013161      -60.670620       27.811363
 H        42.604424      -61.248482       28.680105
 C        42.617126      -60.795376       26.472338
 H        42.038128      -61.605942       26.124420
 C        43.190392      -59.966736       25.504910
 H        42.889427      -60.108883       24.511221
 C        44.270157      -59.142891       25.880402
 H        44.745079      -58.637276       25.044819
 C        47.521175      -58.237804       25.560888
 H        47.061306      -58.856590       24.850163
 C        48.615288      -57.453117       25.074486
 H        48.758141      -57.383522       24.006054
 C        49.314812      -56.644974       25.954636
 H        49.670532      -55.677532       25.708805
 C        49.040928      -56.780960       27.323938
 H        49.677773      -56.273453       28.069235
 C        48.097240      -57.663284       30.231731
 C        47.937870      -56.508003       31.046417
 H        47.075554      -55.905922       30.931030
 C        48.816689      -56.273674       32.094734
 H        48.435722      -55.575977       32.831264
 C        49.976025      -57.086689       32.252380
 H        50.414978      -57.115616       33.270409
 C        50.102692      -58.213737       31.455936
 H        50.868980      -58.866459       31.685844
 C        49.191170      -58.486248       30.501282
 H        49.374023      -59.326759       29.888256
 C        41.514145      -56.633591       28.911507
 C        40.884460      -57.662403       29.621744
 N        42.915779      -56.827908       29.143349
 C        43.212627      -57.923996       29.941454
 N        41.947697      -58.366554       30.271746
 C        41.913067      -59.437706       31.209850
 C        43.027565      -60.185139       31.174652
 C        42.997101      -61.381714       31.930683
 H        43.865013      -61.997940       31.853279
 C        41.920647      -61.751125       32.737762
 H        41.915382      -62.755074       33.229862
 C        40.810883      -60.950546       32.737560
 H        40.051392      -61.059196       33.588657
 C        40.806099      -59.791348       31.943308
 H        39.930599      -59.156002       32.152912
 C        39.455620      -57.763718       29.442444
 H        38.826157      -58.438786       30.000172
 C        38.797211      -56.841187       28.632051
 H        37.737869      -56.842827       28.632008
 C        39.486252      -55.802406       27.930586
 H        39.213390      -55.379829       27.028545
 C        40.847916      -55.659573       28.084141
 H        41.423660      -54.805088       27.777260
 C        43.872684      -55.833923       28.777655
 C        44.505363      -55.080582       29.705006
 H        44.374840      -55.249004       30.756670
 C        45.445080      -54.138931       29.241508
 H        46.005608      -53.605671       30.029381
 C        45.687035      -53.924046       27.884678
 H        46.349010      -53.161743       27.611965
 C        45.084312      -54.763748       27.035074
 H        45.295887      -54.634354       25.980848
 C        44.098335      -55.643120       27.467245
 H        43.443977      -55.932228       26.626572
 C        46.478981      -58.199181       33.959175
 C        47.212608      -59.319542       33.527916
 N        45.383110      -58.053967       33.025055
 C        45.371887      -59.007473       32.052635
 N        46.586296      -59.729118       32.326550
 C        46.851833      -60.799706       31.472422
 C        45.876656      -61.054775       30.541092
 C        45.903778      -62.274811       29.885517
 H        45.020809      -62.649410       29.320944
 C        47.051434      -63.102783       29.979603
 H        47.165657      -63.813778       29.125299
 C        48.037731      -62.836918       30.903202
 H        48.667027      -63.661526       31.252224
 C        47.907642      -61.695763       31.649754
 H        48.723228      -61.458992       32.416473
 C        48.241287      -59.784485       34.436344
 H        48.642570      -60.812614       34.302475
 C        48.572128      -59.129082       35.659328
 H        49.415215      -59.457047       36.220352
 C        47.816799      -58.013714       36.026527
 H        48.229095      -57.399902       36.791214
 C        46.728989      -57.591103       35.258499
 H        45.964088      -56.999729       35.772789
 C        44.417095      -57.124630       33.307976
 C        43.145893      -57.601231       33.685188
 H        42.949184      -58.650085       33.722721
 C        42.205540      -56.664410       34.002541
 H        41.180542      -56.951756       33.821129
 C        42.497520      -55.266762       34.007019
 H        41.537403      -54.717842       33.793102
 C        43.793839      -54.853268       33.668358
 H        44.049789      -53.838474       33.565025
 C        44.739910      -55.826633       33.308212
 H        45.671040      -55.378254       32.984394
 Ir       44.665558      -59.361511       41.485382
 C        44.066238      -62.140560       44.684990
 C        42.964981      -62.175537       43.866638
 N        44.881721      -61.135803       44.169685
 C        44.254238      -60.484863       43.128029
 N        43.005787      -61.072815       43.033245
 C        41.971409      -60.288940       42.393795
 C        42.560104      -59.368935       41.537334
 C        41.696648      -58.443054       40.902283
 H        42.157959      -57.569489       40.470345
 C        40.305611      -58.520237       41.043900
 H        39.722809      -57.669865       40.875362
 C        39.773083      -59.502525       41.933014
 H        38.731838      -59.369583       42.250401
 C        40.633022      -60.296349       42.669796
 H        40.182426      -60.903297       43.398888
 C        42.160797      -63.272545       43.920143
 H        41.282013      -63.423759       43.324257
 C        42.417450      -64.385231       44.792473
 H        41.482353      -64.890091       45.070522
 C        43.529732      -64.275505       45.679314
 H        43.640465      -65.089241       46.435734
 C        44.353519      -63.158566       45.630104
 H        45.152580      -63.100338       46.369507
 C        46.134182      -60.769508       44.762714
 C        47.173668      -61.664768       44.684834
 H        47.097618      -62.648930       44.197239
 C        48.433929      -61.271103       45.068604
 H        49.380478      -61.827534       45.006733
 C        48.663174      -59.973038       45.542282
 H        49.588310      -59.640804       46.017822
 C        47.624130      -59.063644       45.692276
 H        47.843330      -58.038002       45.939270
 C        46.361008      -59.559456       45.329922
 H        45.528904      -58.968117       45.592255
 C        44.511681      -62.129089       38.033409
 C        44.687538      -60.886814       37.472755
 N        44.334499      -61.925415       39.434025
 C        44.446564      -60.599960       39.803219
 N        44.623554      -59.953224       38.554939
 C        44.495285      -58.504066       38.608788
 C        44.754654      -57.966576       39.913559
 C        44.807335      -56.572227       40.047749
 H        44.811180      -56.155186       41.075397
 C        44.479397      -55.813343       38.953968
 H        44.159290      -54.780220       39.159851
 C        44.113655      -56.361610       37.765678
 H        43.960297      -55.694042       36.950798
 C        44.085747      -57.722752       37.597095
 H        43.647896      -57.980324       36.646286
 C        44.935215      -60.774902       36.148548
 H        44.767685      -59.863960       35.666039
 C        45.035225      -61.940151       35.325089
 H        45.162228      -61.814075       34.299770
 C        44.740211      -63.162498       35.871479
 H        44.762611      -64.140854       35.326668
 C        44.523376      -63.199661       37.266830
 H        44.096855      -64.103973       37.589478
 C        43.993481      -63.009865       40.249058
 C        44.989666      -63.520493       41.098686
 H        45.748497      -62.893471       41.384380
 C        44.837284      -64.742813       41.785637
 H        45.451767      -64.915436       42.622719
 C        43.724171      -65.491058       41.584133
 H        43.747299      -66.537399       41.863873
 C        42.662796      -65.010315       40.844769
 H        41.683838      -65.593277       40.847179
 C        42.741394      -63.750614       40.181461
 H        41.956226      -63.391117       39.489094
 C        49.029362      -59.148140       41.671680
 C        48.626713      -58.106621       42.494911
 N        47.892445      -59.820015       41.270927
 C        46.707611      -59.261024       41.756729
 N        47.165836      -58.131508       42.479725
 C        46.155128      -57.304276       43.021442
 C        44.832455      -57.814987       42.953590
 C        43.856453      -57.274239       43.688507
 H        42.891464      -57.544983       43.435516
 C        44.104778      -56.238541       44.547668
 H        43.172241      -55.780880       44.957458
 C        45.381645      -55.651413       44.656303
 H        45.630295      -55.193703       45.588493
 C        46.374165      -56.188026       43.873325
 H        47.354439      -55.724655       43.861053
 C        49.596470      -57.271950       43.089455
 H        49.282246      -56.642334       43.930435
 C        50.921303      -57.537754       42.839333
 H        51.708454      -56.914032       43.290516
 C        51.328903      -58.479633       41.903641
 H        52.368073      -58.676498       41.752720
 C        50.349670      -59.354172       41.304485
 H        50.666115      -60.141544       40.673286
 C        47.993256      -61.146320       40.818764
 C        48.362022      -62.230782       41.607212
 H        48.870575      -62.092800       42.557438
 C        48.437386      -63.518078       41.043556
 H        48.447884      -64.340134       41.644142
 C        48.159626      -63.703453       39.725380
 H        48.412865      -64.646095       39.265053
 C        47.816414      -62.655537       38.896786
 H        47.869179      -62.747044       37.823036
 C        47.760761      -61.358280       39.463913
 H        47.653786      -60.534561       38.830322
