206
 generated by VMD
 Ir      -13.990965     -113.462807       71.929832
 C       -11.211700     -114.516937       68.667435
 C       -10.477282     -114.665421       69.811066
 N       -12.580162     -114.158096       69.056732
 C       -12.660666     -114.183548       70.461250
 N       -11.333986     -114.533958       70.841293
 C       -11.180523     -114.447586       72.253136
 C       -12.145840     -113.628830       72.949265
 C       -11.904322     -113.377930       74.320152
 H       -12.360897     -112.498482       74.754555
 C       -10.839251     -113.973709       74.966187
 H       -10.843058     -113.878311       76.034691
 C        -9.925615     -114.860397       74.323112
 H        -9.242483     -115.490669       74.739517
 C       -10.052584     -115.059715       72.956451
 H        -9.496214     -115.825623       72.406509
 C        -9.110411     -114.903625       69.719841
 H        -8.621359     -115.495453       70.478966
 C        -8.446676     -114.649887       68.508530
 H        -7.391433     -114.854279       68.571716
 C        -9.185261     -114.492752       67.324814
 H        -8.689306     -113.986023       66.532242
 C       -10.545736     -114.479095       67.404282
 H       -11.085119     -114.316353       66.502853
 C       -13.387562     -113.455872       68.125076
 C       -14.394526     -114.140396       67.475822
 H       -14.856668     -114.870697       68.116829
 C       -15.106318     -113.459900       66.347481
 H       -15.613884     -114.084717       65.654236
 C       -14.778561     -112.117172       66.014816
 H       -14.922178     -111.818718       64.939453
 C       -13.746399     -111.495941       66.730087
 H       -13.360706     -110.574005       66.342911
 C       -13.076687     -112.175095       67.775795
 H       -12.326048     -111.678009       68.361328
 C       -14.774263     -117.030167       74.400742
 C       -15.231115     -115.971786       75.143173
 N       -14.420160     -116.494781       73.127800
 C       -14.530077     -115.122498       73.081436
 N       -15.173195     -114.847855       74.359825
 C       -15.489693     -113.447128       74.525635
 C       -14.863380     -112.608658       73.651497
 C       -15.029436     -111.224655       73.895325
 H       -14.650698     -110.466660       73.283928
 C       -15.805548     -110.766083       74.947922
 H       -16.087553     -109.751526       74.869621
 C       -16.406906     -111.628220       75.836800
 H       -17.077818     -111.194046       76.536499
 C       -16.199017     -112.973923       75.624329
 H       -16.911928     -113.693474       75.974472
 C       -15.824503     -116.224548       76.399757
 H       -15.875980     -115.277313       76.976303
 C       -15.907812     -117.557045       76.891296
 H       -16.201801     -117.749344       77.955246
 C       -15.577402     -118.636032       76.065269
 H       -15.884722     -119.650299       76.259743
 C       -14.962019     -118.352295       74.875443
 H       -14.440594     -119.108200       74.251480
 C       -13.790466     -117.209473       72.047577
 C       -14.366781     -117.215668       70.754349
 H       -15.371332     -117.208878       70.545959
 C       -13.634884     -117.832809       69.712006
 H       -14.159323     -117.815338       68.735245
 C       -12.371454     -118.391403       69.993805
 H       -11.783607     -118.897156       69.272316
 C       -11.792873     -118.349228       71.307037
 H       -10.834599     -118.878052       71.474838
 C       -12.476410     -117.690140       72.348419
 H       -11.999594     -117.516365       73.346497
 C       -17.796410     -112.487732       69.897156
 C       -17.054672     -111.413368       69.735367
 N       -16.985640     -113.475494       70.602180
 C       -15.723650     -112.909058       70.915115
 N       -15.803154     -111.693756       70.327888
 C       -14.585617     -110.858124       70.476616
 C       -13.522820     -111.561852       71.082123
 C       -12.305748     -110.819168       71.313080
 H       -11.400038     -111.277954       71.790771
 C       -12.182463     -109.468002       71.048378
 H       -11.337523     -108.978973       71.447784
 C       -13.282074     -108.809891       70.554062
 H       -13.357342     -107.767776       70.427811
 C       -14.471464     -109.447327       70.275620
 H       -15.326477     -108.794952       70.083862
 C       -17.629297     -110.182175       69.170593
 H       -16.997164     -109.354309       68.859718
 C       -18.947704     -110.244881       68.757835
 H       -19.415529     -109.399841       68.260689
 C       -19.697390     -111.393509       69.024124
 H       -20.708612     -111.338425       68.714615
 C       -19.174673     -112.545059       69.621460
 H       -19.789730     -113.358292       69.764130
 C       -17.424530     -114.867493       70.786110
 C       -17.546381     -115.766052       69.746765
 H       -17.297514     -115.458115       68.754875
 C       -17.925507     -117.103775       69.896301
 H       -17.919920     -117.716202       69.032700
 C       -18.209839     -117.499268       71.214645
 H       -18.343473     -118.592590       71.286713
 C       -18.100338     -116.590706       72.277390
 H       -18.286329     -116.843018       73.347092
 C       -17.676422     -115.269333       72.107201
 H       -17.563442     -114.598007       72.871437
 Ir      -13.990963     -113.462807       83.786499
 C       -12.720640     -109.250099       83.758728
 C       -11.807623     -109.852448       84.583755
 N       -13.682558     -110.234802       83.304337
 C       -13.385021     -111.494522       83.871780
 N       -12.240477     -111.197487       84.622574
 C       -11.767525     -112.317680       85.334106
 C       -12.664932     -113.428619       85.429352
 C       -12.378017     -114.495735       86.276428
 H       -13.173880     -115.166611       86.553436
 C       -11.138479     -114.613533       86.912796
 H       -10.825207     -115.425491       87.527916
 C       -10.214617     -113.587250       86.636902
 H        -9.231689     -113.824554       86.932442
 C       -10.571117     -112.424133       85.959946
 H        -9.964781     -111.498924       86.106735
 C       -10.634495     -109.164032       84.917297
 H       -10.012585     -109.499725       85.645615
 C       -10.289579     -107.938278       84.293228
 H        -9.307810     -107.473663       84.476105
 C       -11.229471     -107.375565       83.402573
 H       -11.099812     -106.356903       83.095322
 C       -12.442261     -108.006660       83.160355
 H       -13.131281     -107.478363       82.468140
 C       -14.979195     -109.802803       82.794128
 C       -15.298521     -109.892090       81.441299
 H       -14.618813     -110.286606       80.729294
 C       -16.605377     -109.606323       81.005325
 H       -16.757801     -109.455460       79.911476
 C       -17.553101     -109.340576       81.964279
 H       -18.541962     -109.173874       81.721451
 C       -17.259672     -109.169327       83.302597
 H       -17.954956     -108.850418       83.987411
 C       -15.943678     -109.442764       83.695389
 H       -15.755718     -109.390442       84.729660
 C       -10.550480     -115.547852       82.023468
 C       -11.472427     -116.546814       82.339981
 N       -11.195417     -114.378830       82.183342
 C       -12.450872     -114.547394       82.823586
 N       -12.589176     -115.940880       82.876205
 C       -13.791208     -116.494255       83.452728
 C       -14.641405     -115.482681       83.998962
 C       -15.743690     -115.891159       84.788467
 H       -16.448725     -115.309418       85.321564
 C       -16.049150     -117.237915       84.920914
 H       -16.868210     -117.558609       85.480469
 C       -15.202162     -118.191193       84.365150
 H       -15.209354     -119.263916       84.520798
 C       -14.039968     -117.780396       83.674683
 H       -13.283300     -118.614983       83.550491
 C       -11.019485     -117.877289       82.327309
 H       -11.638456     -118.649551       82.501678
 C        -9.697824     -118.223442       82.010468
 H        -9.336782     -119.245697       82.193619
 C        -8.843115     -117.224106       81.760872
 H        -7.848436     -117.479485       81.437759
 C        -9.191849     -115.828384       81.749374
 H        -8.438602     -115.045532       81.615715
 C       -10.681929     -113.126137       81.961578
 C       -11.372492     -112.192413       81.095207
 H       -11.904552     -112.736618       80.294724
 C       -10.977900     -110.827370       81.044739
 H       -11.483210     -110.148590       80.350975
 C        -9.874449     -110.335434       81.784531
 H        -9.568645     -109.368118       81.754662
 C        -9.158129     -111.299156       82.531998
 H        -8.420904     -110.818039       83.202766
 C        -9.569338     -112.621872       82.658188
 H        -9.308170     -113.270889       83.500969
 C       -17.113230     -113.155472       80.733040
 C       -17.739628     -112.874863       81.863831
 N       -15.841795     -113.560150       81.166962
 C       -15.611000     -113.484154       82.478745
 N       -16.821526     -113.052757       82.954582
 C       -16.781858     -112.712799       84.403084
 C       -15.537682     -112.710335       85.007584
 C       -15.362228     -111.996689       86.188477
 H       -14.368208     -111.906509       86.563568
 C       -16.451757     -111.378433       86.759438
 H       -16.438078     -110.899933       87.741753
 C       -17.752131     -111.412842       86.198776
 H       -18.651951     -111.165161       86.694931
 C       -17.906895     -112.117844       85.084946
 H       -18.918022     -112.438538       84.816475
 C       -19.090960     -112.496765       81.766670
 H       -19.788891     -112.754532       82.534233
 C       -19.659046     -112.216446       80.492065
 H       -20.670681     -111.894485       80.367439
 C       -18.797377     -112.398895       79.358032
 H       -18.983248     -111.907852       78.425926
 C       -17.564287     -113.007141       79.482620
 H       -17.130104     -113.545822       78.642792
 C       -14.843822     -113.936531       80.196358
 C       -14.449839     -115.291649       80.094696
 H       -14.361647     -115.844284       81.018669
 C       -13.723295     -115.802177       78.961212
 H       -13.521887     -116.827713       78.873428
 C       -13.351154     -114.847336       77.971527
 H       -13.137049     -115.280975       76.987701
 C       -13.681574     -113.527229       78.078964
 H       -13.207781     -112.788269       77.466049
 C       -14.431770     -113.042679       79.176880
 H       -14.785885     -112.036400       79.166626
