206
 generated by VMD
  IR        27.309999       22.309999       39.270000
  C1        24.900000       25.870001       39.220001
  C2        24.740000       25.430000       40.470001
  N1        25.650000       24.950001       38.459999
  C3a       25.990000       23.910000       39.290001
  N2        25.400000       24.160000       40.520000
  C4        25.320000       23.030001       41.369999
  C5a       26.190001       22.000000       41.029999
  C6        26.049999       20.780001       41.720001
  H1        26.770000       19.930000       41.560001
  C7        25.170000       20.629999       42.770000
  H2        25.230000       19.780001       43.349998
  C8        24.260000       21.690001       43.090000
  H3        23.799999       21.660000       44.029999
  C9        24.370001       22.860001       42.389999
  H4        23.790001       23.690001       42.750000
  C10       24.110001       26.219999       41.470001
  H5        23.680000       25.760000       42.340000
  C11       23.840000       27.540001       41.230000
  H6        23.430000       28.129999       42.020000
  C12       24.110001       28.059999       39.930000
  H7        23.900000       29.080000       39.759998
  C13       24.580000       27.190001       38.910000
  H8        24.959999       27.570000       37.930000
  C6        25.580000       24.850000       37.060001
  C1        26.490000       25.469999       36.230000
  H1        27.129999       26.270000       36.619999
  C2        26.459999       25.230000       34.869999
  H2        27.320000       25.570000       34.340000
  C3        25.510000       24.410000       34.310001
  H3        25.500000       24.160000       33.200001
  C4        24.559999       23.820000       35.119999
  H4        23.879999       23.030001       34.810001
  C5        24.549999       24.070000       36.450001
  H5        23.639999       23.840000       36.970001
  C1        30.459999       23.900000       41.889999
  C2        30.799999       22.570000       41.720001
  N1        29.260000       24.030001       41.259998
  C3b       28.809999       22.860001       40.599998
  N2        29.740000       21.969999       40.939999
  C4        29.340000       20.620001       40.720001
  C5b       28.450001       20.510000       39.630001
  C6        28.180000       19.320000       39.020000
  H1        27.450001       19.250000       38.189999
  C7        28.840000       18.170000       39.459999
  H2        28.559999       17.139999       39.130001
  C8        29.700001       18.260000       40.560001
  H3        30.120001       17.389999       40.959999
  C9        29.940001       19.440001       41.209999
  H4        30.389999       19.280001       42.180000
  C10       32.009998       22.129999       42.279999
  H5        32.270000       21.110001       42.349998
  C11       32.770000       23.100000       42.990002
  H6        33.730000       22.870001       43.400002
  C12       32.430000       24.440001       43.150002
  H7        33.090000       25.129999       43.570000
  C13       31.230000       24.870001       42.570000
  H8        30.980000       25.980000       42.560001
  C6        28.490000       25.330000       41.340000
  C1        28.299999       26.100000       40.189999
  H1        28.690001       25.709999       39.250000
  C2        27.840000       27.440001       40.320000
  H2        27.700001       27.910000       39.299999
  C3        27.520000       28.030001       41.500000
  H3        26.930000       28.879999       41.650002
  C4        27.730000       27.200001       42.650002
  H4        27.440001       27.639999       43.540001
  C5        28.230000       25.900000       42.570000
  H5        28.530001       25.320000       43.430000
  C1        29.070000       23.139999       35.380001
  C2        28.080000       22.230000       35.150002
  N1        29.230000       23.200001       36.750000
  C3c       28.209999       22.480000       37.430000
  N2        27.549999       21.850000       36.360001
  C4        26.430000       21.120001       36.709999
  C5c       25.860001       21.430000       37.939999
  C6        24.540001       21.040001       38.200001
  H1        24.110001       21.450001       39.099998
  C7        23.809999       20.280001       37.240002
  H2        22.690001       20.150000       37.330002
  C8        24.459999       19.830000       36.090000
  H3        24.059999       19.000000       35.639999
  C9        25.750000       20.270000       35.860001
  H4        26.299999       19.770000       35.070000
  C10       27.639999       21.959999       33.840000
  H5        26.780001       21.299999       33.599998
  C11       28.160000       22.690001       32.730000
  H6        27.889999       22.330000       31.750000
  C12       29.070000       23.750000       32.970001
  H7        29.730000       24.170000       32.200001
  C13       29.510000       23.879999       34.320000
  H8        30.170000       24.700001       34.459999
  C6        30.500000       23.299999       37.380001
  C1        31.070000       22.080000       37.820000
  H1        30.480000       21.240000       37.560001
  C2        32.310001       22.090000       38.490002
  H2        32.730000       21.170000       38.779999
  C3        32.939999       23.299999       38.779999
  H3        33.820000       23.230000       39.439999
  C4        32.419998       24.469999       38.310001
  H4        33.060001       25.330000       38.419998
  C5        31.200001       24.500000       37.590000
  H5        30.889999       25.410000       37.029999
  IR        31.299999       12.980000       37.770000
  C1        29.190001        9.450000       36.220001
  C2        28.490000        9.820000       37.380001
  N1        30.270000       10.340000       36.139999
  C3a       30.280001       11.240000       37.250000
  N2        29.160000       10.940000       38.000000
  C4        28.910000       11.750000       39.119999
  C5a       29.700001       12.950000       39.130001
  C6        29.360001       13.860000       40.110001
  H1        29.629999       14.900000       40.020000
  C7        28.549999       13.550000       41.230000
  H2        28.580000       14.070000       42.180000
  C8        27.879999       12.320000       41.230000
  H3        27.350000       12.050000       42.130001
  C9        28.020000       11.430000       40.180000
  H4        27.520000       10.450000       40.259998
  C10       27.219999        9.150000       37.610001
  H5        26.590000        9.390000       38.490002
  C11       26.799999        8.120000       36.700001
  H6        25.799999        7.860000       36.740002
  C12       27.620001        7.750000       35.619999
  H7        27.500000        6.820000       35.060001
  C13       28.799999        8.470000       35.369999
  H8        29.420000        8.140000       34.590000
  C6        31.330000       10.230000       35.049999
  C1        31.010000       10.880000       33.849998
  H1        29.950001       11.050000       33.570000
  C2        31.930000       10.870000       32.810001
  H2        31.549999       11.000000       31.780001
  C3        33.189999       10.310000       32.950001
  H3        33.790001       10.090000       32.029999
  C4        33.490002        9.680000       34.139999
  H4        34.480000        9.240000       34.330002
  C5        32.590000        9.640000       35.180000
  H5        32.830002        9.060000       36.099998
  C1        29.320000       15.880000       35.320000
  C2        30.260000       16.600000       35.980000
  N1        29.379999       14.590000       35.750000
  C3b       30.280001       14.460000       36.790001
  N2        30.799999       15.710000       36.910000
  C4        31.639999       15.910000       38.020000
  C5b       32.130001       14.760000       38.639999
  C6        33.000000       14.880000       39.689999
  H1        33.380001       13.950000       40.240002
  C7        33.480000       16.139999       40.110001
  H2        34.330002       16.209999       40.799999
  C8        32.970001       17.299999       39.490002
  H3        33.369999       18.290001       39.770000
  C9        32.000000       17.200001       38.480000
  H4        31.379999       18.030001       38.230000
  C10       30.440001       17.969999       35.680000
  H5        31.370001       18.440001       35.820000
  C11       29.639999       18.540001       34.660000
  H6        29.670000       19.660000       34.720001
  C12       28.670000       17.770000       34.009998
  H7        27.900000       18.250000       33.340000
  C13       28.549999       16.440001       34.310001
  H8        27.730000       15.930000       33.849998
  C6        28.299999       13.610000       35.380001
  C1        27.209999       13.430000       36.299999
  H1        27.160000       13.900000       37.259998
  C2        26.139999       12.600000       35.980000
  H2        25.230000       12.640000       36.520000
  C3        26.219999       11.960000       34.750000
  H3        25.379999       11.330000       34.369999
  C4        27.290001       12.070000       33.880001
  H4        27.350000       11.460000       32.950001
  C5        28.370001       12.930000       34.139999
  H5        29.160000       13.150000       33.430000
  C1        35.020000       12.640000       35.330002
  C2        35.169998       11.800000       36.360001
  N1        33.770000       13.310000       35.560001
  C3c       33.110001       12.850000       36.709999
  N2        33.990002       11.910000       37.189999
  C4        33.540001       11.200000       38.360001
  C5c       32.500000       11.770000       39.040001
  C6        32.160000       11.420000       40.320000
  H1        31.520000       12.010000       40.919998
  C7        32.840000       10.440000       41.009998
  H2        32.360001        9.930000       41.830002
  C8        33.930000        9.880000       40.340000
  H3        34.509998        9.130000       40.869999
  C9        34.299999       10.190000       39.020000
  H4        34.720001        9.430000       38.419998
  C10       36.340000       10.910000       36.450001
  H5        36.669998       10.320000       37.279999
  C11       37.299999       11.010000       35.470001
  H6        38.270000       10.500000       35.630001
  C12       37.150002       11.910000       34.439999
  H7        37.959999       11.910000       33.700001
  C13       36.049999       12.790000       34.380001
  H8        35.990002       13.530000       33.599998
  C6        33.349998       14.330000       34.680000
  C1        33.830002       15.660000       34.919998
  H1        34.730000       15.810000       35.509998
  C2        33.349998       16.770000       34.209999
  H2        33.509998       17.809999       34.540001
  C3        32.480000       16.530001       33.160000
  H3        32.299999       17.410000       32.520000
  C4        32.049999       15.220000       32.880001
  H4        31.160000       15.090000       32.299999
  C5        32.470001       14.110000       33.700001
  H5        32.259998       13.120000       33.389999
