206
 generated by VMD
  IR        23.850000        7.940000       26.889999
  C1        27.570000        8.360000       29.150000
  C2        26.830000        9.490000       29.440001
  N1        26.860001        7.690000       28.139999
  C3a       25.620001        8.280000       27.910000
  N2        25.600000        9.410000       28.750000
  C4        24.570000       10.430000       28.450001
  C5a       23.610001        9.980000       27.559999
  C6        22.530001       10.790000       27.180000
  H1        21.639999       10.310000       26.840000
  C7        22.440001       12.080000       27.760000
  H2        21.629999       12.690000       27.420000
  C8        23.370001       12.600000       28.620001
  H3        23.190001       13.600000       28.930000
  C9        24.459999       11.800000       28.950001
  H4        25.110001       12.090000       29.809999
  C10       27.379999       10.380000       30.280001
  H5        26.850000       11.280000       30.490000
  C11       28.610001       10.220000       30.840000
  H6        28.900000       10.960000       31.520000
  C12       29.370001        9.110000       30.510000
  H7        30.440001        9.150000       30.820000
  C13       28.820000        8.150000       29.680000
  H8        29.420000        7.190000       29.469999
  C6        27.639999        7.090000       27.100000
  C1        28.049999        7.910000       26.059999
  H1        28.010000        9.030000       26.100000
  C2        28.670000        7.270000       24.969999
  H2        29.040001        7.870000       24.190001
  C3        28.740000        5.880000       24.780001
  H3        29.330000        5.440000       24.059999
  C4        28.260000        5.080000       25.879999
  H4        28.170000        4.070000       25.709999
  C5        27.680000        5.710000       27.000000
  H5        27.320000        5.140000       27.760000
  C1        21.139999        7.030000       30.240000
  C2        20.420000        6.730000       29.059999
  N1        22.420000        7.400000       29.840000
  C3b       22.540001        7.440000       28.420000
  N2        21.299999        7.090000       28.010000
  C4        21.040001        7.310000       26.570000
  C5b       22.030001        7.910000       25.830000
  C6        21.740000        8.460000       24.570000
  H1        22.530001        9.060000       24.110001
  C7        20.440001        8.300000       24.059999
  H2        20.250000        8.750000       23.080000
  C8        19.459999        7.510000       24.670000
  H3        18.490000        7.390000       24.370001
  C9        19.809999        7.070000       25.959999
  H4        19.080000        6.480000       26.450001
  C10       19.100000        6.280000       29.129999
  H5        18.559999        5.980000       28.219999
  C11       18.459999        6.130000       30.350000
  H6        17.510000        5.640000       30.250000
  C12       19.139999        6.550000       31.520000
  H7        18.590000        6.630000       32.439999
  C13       20.490000        6.980000       31.459999
  H8        20.980000        7.510000       32.240002
  C6        23.580000        7.540000       30.780001
  C1        24.740000        6.700000       30.740000
  H1        24.850000        5.760000       30.170000
  C2        25.660000        6.810000       31.790001
  H2        26.450001        6.070000       31.930000
  C3        25.600000        7.820000       32.799999
  H3        26.420000        8.040000       33.470001
  C4        24.490000        8.630000       32.750000
  H4        24.360001        9.520000       33.360001
  C5        23.469999        8.480000       31.790001
  H5        22.520000        9.080000       31.860001
  C1        24.760000        4.130000       25.030001
  C2        25.350000        5.070000       24.209999
  N1        24.139999        4.810000       26.090000
  C3c       24.260000        6.160000       25.889999
  N2        24.980000        6.340000       24.680000
  C4        24.980000        7.640000       24.190001
  C5c       24.850000        8.670000       25.170000
  C6        25.400000        9.930000       24.830000
  H1        25.430000       10.610000       25.650000
  C7        25.940001       10.180000       23.600000
  H2        26.639999       11.000000       23.520000
  C8        25.809999        9.230000       22.610001
  H3        26.309999        9.400000       21.700001
  C9        25.350000        7.930000       22.900000
  H4        25.110001        7.240000       22.150000
  C10       26.080000        4.710000       23.070000
  H5        26.450001        5.550000       22.440001
  C11       26.200001        3.300000       22.770000
  H6        26.459999        3.020000       21.770000
  C12       25.530001        2.370000       23.559999
  H7        25.260000        1.340000       23.250000
  C13       24.820000        2.770000       24.700001
  H8        24.150000        2.060000       25.219999
  C6        23.410000        4.190000       27.100000
  C1        24.160000        3.750000       28.209999
  H1        25.209999        3.870000       28.160000
  C2        23.510000        3.160000       29.350000
  H2        24.200001        2.980000       30.219999
  C3        22.139999        2.960000       29.299999
  H3        21.690001        2.680000       30.240000
  C4        21.370001        3.270000       28.110001
  H4        20.420000        2.790000       27.910000
  C5        22.020000        3.960000       27.040001
  H5        21.500000        4.390000       26.230000
  IR        15.410000        2.340000       22.270000
  C1        15.370000        4.680000       18.480000
  C2        14.080000        4.090000       18.540001
  N1        16.080000        4.150000       19.570000
  C3a       15.330000        3.370000       20.430000
  N2        14.080000        3.310000       19.719999
  C4        13.300000        2.260000       20.200001
  C5a       13.540000        1.760000       21.510000
  C6        12.770000        0.670000       21.980000
  H1        12.840000        0.360000       22.990000
  C7        11.760000        0.130000       21.150000
  H2        11.100000       -0.610000       21.540001
  C8        11.640000        0.530000       19.790001
  H3        10.970000        0.010000       19.100000
  C9        12.400000        1.610000       19.330000
  H4        12.030000        1.990000       18.379999
  C10       13.090000        4.540000       17.670000
  H5        12.070000        4.200000       17.719999
  C11       13.470000        5.550000       16.780001
  H6        12.650000        6.130000       16.320000
  C12       14.750000        6.080000       16.540001
  H7        14.990000        6.460000       15.510000
  C13       15.720000        5.580000       17.430000
  H8        16.610001        6.190000       17.480000
  C6        17.290001        4.720000       19.860001
  C1        18.400000        4.490000       19.059999
  H1        18.299999        3.880000       18.190001
  C2        19.629999        4.980000       19.440001
  H2        20.450001        4.750000       18.830000
  C3        19.670000        5.690000       20.690001
  H3        20.590000        6.000000       21.049999
  C4        18.580000        5.840000       21.500000
  H4        18.650000        6.550000       22.250000
  C5        17.340000        5.400000       21.120001
  H5        16.540001        5.260000       21.809999
  C1        13.160000        5.070000       24.889999
  C2        13.470000        3.980000       25.719999
  N1        13.690000        4.810000       23.629999
  C3b       14.300000        3.530000       23.580000
  N2        14.100000        3.060000       24.850000
  C4        14.710000        1.790000       25.080000
  C5b       15.210000        1.100000       23.930000
  C6        15.740000       -0.220000       24.000000
  H1        16.059999       -0.690000       23.150000
  C7        15.780000       -0.930000       25.160000
  H2        15.840000       -2.020000       25.129999
  C8        15.300000       -0.280000       26.299999
  H3        15.300000       -0.840000       27.280001
  C9        14.820000        1.070000       26.290001
  H4        14.430000        1.440000       27.200001
  C10       13.060000        3.960000       27.020000
  H5        13.120000        3.070000       27.620001
  C11       12.320000        5.080000       27.570000
  H6        12.070000        5.030000       28.650000
  C12       12.040000        6.220000       26.860001
  H7        11.590000        7.060000       27.430000
  C13       12.480000        6.220000       25.510000
  H8        12.290000        7.130000       24.900000
  C6        13.910000        5.950000       22.730000
  C1        14.710000        6.990000       23.090000
  H1        15.020000        6.990000       24.139999
  C2        15.100000        8.060000       22.180000
  H2        15.580000        8.970000       22.500000
  C3        14.590000        8.060000       20.889999
  H3        15.130000        8.650000       20.129999
  C4        13.670000        7.030000       20.559999
  H4        13.390000        7.160000       19.559999
  C5        13.390000        5.930000       21.410000
  H5        12.670000        5.210000       21.120001
  C1        19.530001        3.220000       23.309999
  C2        19.600000        2.220000       22.340000
  N1        18.190001        3.290000       23.670000
  C3c       17.379999        2.510000       22.889999
  N2        18.270000        1.790000       22.090000
  C4        17.740000        0.740000       21.290001
  C5c       16.350000        0.840000       21.090000
  C6        15.720000       -0.280000       20.490000
  H1        14.710000       -0.290000       20.090000
  C7        16.450001       -1.410000       20.000000
  H2        15.970000       -2.370000       19.770000
  C8        17.860001       -1.410000       20.139999
  H3        18.379999       -2.390000       19.969999
  C9        18.469999       -0.370000       20.820000
  H4        19.420000       -0.640000       21.230000
  C10       20.830000        2.040000       21.639999
  H5        20.850000        1.420000       20.780001
  C11       21.950001        2.820000       21.959999
  H6        22.790001        2.920000       21.240000
  C12       21.830000        3.790000       23.010000
  H7        22.700001        4.370000       23.459999
  C13       20.620001        3.890000       23.670000
  H8        20.389999        4.840000       24.190001
  C6        17.760000        3.710000       24.959999
  C1        16.930000        4.710000       25.180000
  H1        16.860001        5.430000       24.440001
  C2        16.450001        4.950000       26.459999
  H2        15.810000        5.760000       26.629999
  C3        16.790001        4.100000       27.549999
  H3        16.379999        4.300000       28.540001
  C4        17.690001        3.120000       27.370001
  H4        17.820000        2.370000       28.150000
  C5        18.139999        2.920000       26.090000
  H5        18.639999        1.980000       25.879999
