206
 generated by VMD
  IR        27.809999       53.830002        7.810000
  C1        31.680000       51.919998        7.630000
  C2        31.959999       53.270000        7.530000
  N1        30.320000       51.770000        7.870000
  C3a       29.730000       53.000000        7.860000
  N2        30.740000       53.889999        7.680000
  C4        30.299999       55.279999        7.740000
  C5a       28.930000       55.549999        7.470000
  C6        28.520000       56.860001        7.240000
  H1        27.510000       57.000000        6.800000
  C7        29.410000       57.930000        7.420000
  H2        29.059999       58.889999        7.280000
  C8        30.730000       57.680000        7.800000
  H3        31.379999       58.340000        8.350000
  C9        31.170000       56.380001        8.020000
  H4        31.969999       56.290001        8.770000
  C10       33.230000       53.720001        7.140000
  H5        33.450001       54.790001        6.930000
  C11       34.259998       52.790001        6.910000
  H6        35.240002       53.110001        6.510000
  C12       33.939999       51.419998        7.010000
  H7        34.709999       50.790001        6.650000
  C13       32.639999       50.990002        7.320000
  H8        32.490002       49.910000        7.290000
  C6        29.750000       50.400002        7.710000
  C1        29.620001       49.500000        8.810000
  H1        29.930000       49.709999        9.810000
  C2        29.129999       48.250000        8.530000
  H2        28.770000       47.660000        9.310000
  C3        28.790001       47.880001        7.190000
  H3        28.299999       46.980000        6.860000
  C4        28.900000       48.810001        6.160000
  H4        28.490000       48.470001        5.180000
  C5        29.340000       50.080002        6.380000
  H5        29.209999       50.849998        5.590000
  C1        27.120001       55.060001       11.990000
  C2        26.090000       55.470001       11.300000
  N1        27.930000       54.450001       11.040000
  C3b       27.440001       54.419998        9.760000
  N2        26.180000       55.029999        9.940000
  C4        25.299999       55.119999        8.820000
  C5b       25.990000       54.880001        7.640000
  C6        25.450001       55.330002        6.430000
  H1        25.910000       54.959999        5.530000
  C7        24.230000       55.990002        6.380000
  H2        23.820000       56.259998        5.450000
  C8        23.530001       56.240002        7.490000
  H3        22.500000       56.660000        7.460000
  C9        24.049999       55.770000        8.710000
  H4        23.400000       55.869999        9.630000
  C10       25.139999       56.369999       11.870000
  H5        24.520000       57.119999       11.320000
  C11       25.250000       56.740002       13.220000
  H6        24.469999       57.450001       13.660000
  C12       26.370001       56.279999       13.930000
  H7        26.660000       56.630001       14.910000
  C13       27.330000       55.439999       13.290000
  H8        28.180000       55.110001       13.860000
  C6        29.180000       53.880001       11.500000
  C1        29.209999       52.660000       12.160000
  H1        28.410000       51.930000       12.100000
  C2        30.459999       52.110001       12.530000
  H2        30.500000       51.209999       13.060000
  C3        31.690001       52.770000       12.380000
  H3        32.650002       52.330002       12.530000
  C4        31.650000       54.020000       11.780000
  H4        32.389999       54.790001       11.920000
  C5        30.400000       54.599998       11.340000
  H5        30.400000       55.500000       10.680000
  C1        25.540001       50.119999        7.810000
  C2        25.889999       50.250000        6.500000
  N1        25.930000       51.299999        8.450000
  C3c       26.570000       52.169998        7.670000
  N2        26.490000       51.500000        6.430000
  C4        27.030001       52.320000        5.340000
  C5c       27.930000       53.369999        5.730000
  C6        28.730000       53.869999        4.730000
  H1        29.370001       54.730000        4.850000
  C7        28.680000       53.340000        3.470000
  H2        29.450001       53.669998        2.850000
  C8        27.770000       52.349998        3.040000
  H3        27.760000       51.919998        2.070000
  C9        26.900000       51.930000        4.020000
  H4        26.000000       51.549999        3.670000
  C10       25.650000       49.169998        5.590000
  H5        25.889999       49.330002        4.570000
  C11       25.080000       48.049999        6.110000
  H6        24.740000       47.340000        5.340000
  C12       24.719999       47.939999        7.430000
  H7        24.580000       46.950001        7.910000
  C13       25.010000       49.000000        8.370000
  H8        24.940001       48.930000        9.430000
  C6        25.240000       51.779999        9.630000
  C1        23.930000       52.299999        9.510000
  H1        23.400000       52.400002        8.530000
  C2        23.200001       52.720001       10.620000
  H2        22.379999       53.349998       10.440000
  C3        23.790001       52.490002       11.880000
  H3        23.160000       52.669998       12.730000
  C4        25.059999       51.950001       12.050000
  H4        25.370001       51.380001       12.820000
  C5        25.840000       51.660000       10.900000
  H5        26.860001       51.369999       10.950000
  IR        32.919998       44.060001       17.240000
  C1        32.000000       39.820000       16.320000
  C2        32.490002       39.830002       17.610001
  N1        32.020000       41.139999       15.910000
  C3a       32.650002       42.009998       16.889999
  N2        32.880001       41.189999       17.889999
  C4        33.480000       41.750000       18.980000
  C5a       33.509998       43.169998       19.040001
  C6        34.099998       43.810001       20.170000
  H1        34.110001       44.910000       20.120001
  C7        34.759998       43.080002       21.170000
  H2        35.180000       43.580002       22.049999
  C8        34.799999       41.700001       21.110001
  H3        35.259998       41.200001       21.879999
  C9        34.169998       41.049999       20.080000
  H4        34.250000       39.970001       20.129999
  C10       32.389999       38.680000       18.360001
  H5        32.580002       38.610001       19.490000
  C11       31.840000       37.490002       17.809999
  H6        31.650000       36.700001       18.400000
  C12       31.459999       37.459999       16.440001
  H7        31.200001       36.560001       15.940000
  C13       31.459999       38.700001       15.650000
  H8        31.320000       38.580002       14.580000
  C6        31.830000       41.500000       14.480000
  C1        32.939999       41.330002       13.650000
  H1        33.790001       40.740002       13.920000
  C2        32.840000       41.779999       12.310000
  H2        33.750000       41.980000       11.770000
  C3        31.610001       42.270000       11.820000
  H3        31.469999       42.410000       10.720000
  C4        30.559999       42.490002       12.700000
  H4        29.610001       42.810001       12.290000
  C5        30.680000       42.110001       14.030000
  H5        29.820000       42.189999       14.750000
  C1        29.129999       45.340000       19.110001
  C2        29.980000       46.419998       19.340000
  N1        29.900000       44.389999       18.440001
  C3b       31.230000       44.799999       18.290001
  N2        31.240000       46.040001       18.780001
  C4        32.549999       46.660000       18.660000
  C5b       33.509998       45.939999       17.930000
  C6        34.750000       46.560001       17.809999
  H1        35.480000       45.880001       17.350000
  C7        34.990002       47.910000       18.129999
  H2        35.830002       48.419998       17.860001
  C8        34.020000       48.680000       18.730000
  H3        34.209999       49.720001       19.110001
  C9        32.790001       48.029999       18.980000
  H4        32.049999       48.619999       19.500000
  C10       29.500000       47.570000       20.129999
  H5        30.200001       48.380001       20.420000
  C11       28.209999       47.549999       20.639999
  H6        27.940001       48.330002       21.260000
  C12       27.360001       46.439999       20.389999
  H7        26.350000       46.459999       20.830000
  C13       27.770000       45.310001       19.580000
  H8        27.059999       44.509998       19.410000
  C6        29.270000       43.130001       17.860001
  C1        28.370001       43.320000       16.830000
  H1        28.370001       44.220001       16.270000
  C2        27.490000       42.270000       16.469999
  H2        26.809999       42.349998       15.660000
  C3        27.469999       41.040001       17.200001
  H3        27.080000       40.090000       16.770000
  C4        28.420000       40.889999       18.240000
  H4        28.450001       39.930000       18.750000
  C5        29.290001       41.930000       18.570000
  H5        30.110001       41.770000       19.280001
  C1        32.189999       45.590000       13.270000
  C2        33.380001       44.939999       13.150000
  N1        31.930000       45.730000       14.630000
  C3c       32.790001       44.959999       15.410000
  N2        33.740002       44.480000       14.480000
  C4        34.750000       43.560001       14.940000
  C5c       34.779999       43.540001       16.379999
  C6        35.910000       42.930000       16.969999
  H1        36.119999       43.150002       17.930000
  C7        36.900002       42.400002       16.150000
  H2        37.759998       41.939999       16.610001
  C8        36.799999       42.380001       14.740000
  H3        37.700001       42.189999       14.220000
  C9        35.730000       42.959999       14.090000
  H4        35.509998       42.799999       13.060000
  C10       34.040001       44.840000       11.870000
  H5        34.750000       44.049999       11.620000
  C11       33.410000       45.400002       10.750000
  H6        33.799999       45.419998        9.710000
  C12       32.189999       46.020000       10.870000
  H7        31.820000       46.580002       10.050000
  C13       31.610001       46.180000       12.150000
  H8        30.549999       46.490002       12.280000
  C6        31.040001       46.869999       15.200000
  C1        31.650000       48.099998       15.450000
  H1        32.560001       48.299999       14.980000
  C2        30.950001       49.130001       16.129999
  H2        31.059999       50.189999       15.930000
  C3        29.650000       48.869999       16.629999
  H3        29.190001       49.619999       17.219999
  C4        29.090000       47.630001       16.309999
  H4        28.160000       47.430000       16.670000
  C5        29.709999       46.660000       15.530000
  H5        29.200001       45.700001       15.370000
