206
 generated by VMD
 Ir     -111.073441      -23.326408       91.957932
 C      -107.339523      -25.574371       92.232529
 C      -106.939072      -24.302998       91.888229
 N      -108.734619      -25.545313       92.372742
 C      -109.248474      -24.288147       92.134460
 N      -108.123871      -23.515921       91.826973
 C      -108.385376      -22.162241       91.426521
 C      -109.739166      -21.871454       91.187393
 C      -110.077477      -20.640102       90.601379
 H      -111.104729      -20.435083       90.365524
 C      -109.089844      -19.706501       90.284088
 H      -109.378891      -18.757452       89.850311
 C      -107.749954      -19.976543       90.558952
 H      -106.986137      -19.260925       90.300720
 C      -107.398453      -21.193264       91.130402
 H      -106.379120      -21.329096       91.462967
 C      -105.557648      -24.049747       91.710388
 H      -105.200150      -23.095352       91.379433
 C      -104.625900      -25.080244       91.881683
 H      -103.574287      -24.868959       91.795822
 C      -105.051392      -26.366253       92.202347
 H      -104.332603      -27.158512       92.303665
 C      -106.408554      -26.617937       92.383118
 H      -106.741211      -27.613808       92.633064
 C      -109.505714      -26.711752       92.727478
 C      -109.782616      -26.977961       94.070068
 H      -109.368820      -26.343138       94.842064
 C      -110.581772      -28.069809       94.412582
 H      -110.804443      -28.276609       95.445129
 C      -111.107697      -28.904680       93.413635
 H      -111.763290      -29.716331       93.680130
 C      -110.821976      -28.642305       92.068298
 H      -111.257874      -29.247154       91.292694
 C      -110.019157      -27.541224       91.724655
 H      -109.794296      -27.347492       90.680954
 C      -111.254456      -20.981062       95.647751
 C      -112.487747      -20.813848       95.057045
 N      -110.491241      -21.781370       94.771896
 C      -111.193832      -22.118711       93.639351
 N      -112.433685      -21.497175       93.815094
 C      -113.353241      -21.644026       92.739471
 C      -112.763260      -22.131350       91.561401
 C      -113.495102      -22.106398       90.375122
 H      -112.996712      -22.322376       89.434929
 C      -114.824898      -21.711052       90.358902
 H      -115.396255      -21.833702       89.457840
 C      -115.436844      -21.279139       91.543793
 H      -116.451889      -20.921116       91.534515
 C      -114.700668      -21.241007       92.728745
 H      -115.199165      -20.984251       93.648018
 C      -113.487274      -20.124533       95.765472
 H      -114.407234      -19.830832       95.276382
 C      -113.257156      -19.656271       97.055267
 H      -114.092621      -19.316721       97.649902
 C      -111.986420      -19.807283       97.634354
 H      -111.776321      -19.351233       98.584808
 C      -110.988388      -20.474297       96.926392
 H      -110.009933      -20.579451       97.376358
 C      -109.127731      -22.148304       95.039421
 C      -108.101128      -21.265419       94.699554
 H      -108.323776      -20.264791       94.370804
 C      -106.767487      -21.688471       94.766930
 H      -105.967682      -21.023563       94.476578
 C      -106.467072      -23.003651       95.165764
 H      -105.447670      -23.343201       95.163216
 C      -107.504684      -23.869629       95.519516
 H      -107.290298      -24.909466       95.767059
 C      -108.828728      -23.437344       95.470108
 H      -109.622604      -24.102247       95.779556
 C      -113.867912      -26.526283       93.025024
 C      -113.685425      -26.669409       91.659409
 N      -113.128510      -25.404787       93.434082
 C      -112.447617      -24.821272       92.363892
 N      -112.824615      -25.608238       91.266327
 C      -112.307999      -25.188696       90.006332
 C      -111.211884      -24.314341       90.084671
 C      -110.492676      -24.017668       88.918808
 H      -109.585938      -23.438152       88.982681
 C      -110.886551      -24.533836       87.679886
 H      -110.320923      -24.293602       86.792099
 C      -112.009232      -25.355907       87.588852
 H      -112.334869      -25.734402       86.632401
 C      -112.721786      -25.687956       88.752640
 H      -113.674309      -26.189053       88.650650
 C      -114.310898      -27.737602       90.995056
 H      -114.118660      -27.931601       89.951019
 C      -115.128456      -28.627293       91.688843
 H      -115.636230      -29.421551       91.165939
 C      -115.313133      -28.471102       93.065613
 H      -115.949715      -29.157448       93.619400
 C      -114.670723      -27.419811       93.735168
 H      -114.794380      -27.324974       94.810257
 C      -113.392784      -24.744799       94.688980
 C      -114.583527      -24.025501       94.849464
 H      -115.284286      -23.956804       94.030487
 C      -114.861130      -23.387819       96.056152
 H      -115.768761      -22.818939       96.170578
 C      -113.953857      -23.465590       97.114639
 H      -114.140228      -22.932306       98.031189
 C      -112.767471      -24.203354       96.965973
 H      -112.079887      -24.286688       97.799515
 C      -112.489861      -24.841038       95.759293
 H      -111.598373      -25.424555       95.649887
 Ir     -111.073441      -23.326408      104.439880
 C      -114.325241      -20.781296      103.031197
 C      -113.661049      -21.152391      101.892899
 N      -113.615128      -21.307777      104.119522
 C      -112.506256      -22.026302      103.701736
 N      -112.537361      -21.891983      102.318695
 C      -111.457031      -22.504282      101.616577
 C      -110.734848      -23.457541      102.355591
 C      -109.799789      -24.246180      101.688141
 H      -109.260727      -25.023426      102.211792
 C      -109.541946      -24.083830      100.320053
 H      -108.805084      -24.705853       99.839821
 C      -110.229568      -23.110535       99.591232
 H      -110.019363      -22.953745       98.552094
 C      -111.179382      -22.318058      100.242340
 H      -111.595734      -21.469900       99.722458
 C      -114.205948      -20.831038      100.638062
 H      -113.750992      -21.166315       99.732300
 C      -115.412003      -20.134752      100.562462
 H      -115.841293      -19.954905       99.585846
 C      -116.084251      -19.746750      101.724205
 H      -117.041481      -19.254028      101.676025
 C      -115.529831      -20.062704      102.965607
 H      -116.033600      -19.752096      103.865585
 C      -113.979340      -21.037947      105.489243
 C      -113.334671      -19.995895      106.179031
 H      -112.561752      -19.431713      105.687607
 C      -113.714523      -19.694525      107.490784
 H      -113.207443      -18.909502      108.024368
 C      -114.735390      -20.425970      108.111603
 H      -115.078598      -20.146744      109.097824
 C      -115.376404      -21.458790      107.420670
 H      -116.136047      -22.049105      107.918442
 C      -114.996552      -21.760157      106.108917
 H      -115.541183      -22.520605      105.566055
 C      -113.239243      -27.098999      104.463486
 C      -111.949165      -27.431423      104.774765
 N      -113.249847      -25.738886      104.131699
 C      -111.987801      -25.172815      104.263199
 N      -111.190765      -26.256617      104.622940
 C      -109.791054      -25.980362      104.690735
 C      -109.460648      -24.630024      104.849869
 C      -108.113106      -24.273081      104.965286
 H      -107.839455      -23.259760      105.194412
 C      -107.105751      -25.238762      104.851295
 H      -106.077682      -24.926750      104.804169
 C      -107.441391      -26.579861      104.662369
 H      -106.654160      -27.318111      104.543457
 C      -108.775574      -26.959112      104.584686
 H      -109.019104      -27.974703      104.346191
 C      -111.661156      -28.748167      105.208862
 H      -110.660080      -29.019402      105.526154
 C      -112.684631      -29.693270      105.317390
 H      -112.455269      -30.680830      105.685944
 C      -113.994614      -29.343941      104.991348
 H      -114.782402      -30.071064      105.079010
 C      -114.277473      -28.040270      104.555649
 H      -115.288597      -27.776005      104.325256
 C      -114.334061      -25.128370      103.400436
 C      -114.168991      -24.864588      102.029755
 H      -113.261276      -25.156399      101.527855
 C      -115.185989      -24.223999      101.319489
 H      -115.034248      -23.967279      100.288033
 C      -116.379410      -23.855656      101.962494
 H      -117.140259      -23.317131      101.423981
 C      -116.545952      -24.141741      103.323166
 H      -117.462494      -23.846096      103.827789
 C      -115.520569      -24.773865      104.041290
 H      -115.657150      -25.002110      105.088982
 C      -111.177765      -22.760450      108.786530
 C      -110.460556      -21.684801      108.312408
 N      -111.573975      -23.521276      107.663513
 C      -111.117599      -22.959524      106.485062
 N      -110.454689      -21.807348      106.896942
 C      -110.000481      -20.957190      105.855293
 C      -109.855301      -21.589636      104.616455
 C      -109.206772      -20.901562      103.587730
 H      -108.943939      -21.420914      102.678833
 C      -108.793251      -19.572668      103.752457
 H      -108.311577      -19.052559      102.932655
 C      -109.018654      -18.922615      104.963875
 H      -108.777740      -17.868519      105.067047
 C      -109.612717      -19.607559      106.017563
 H      -109.886642      -19.075138      106.908951
 C      -109.867249      -20.799053      109.238068
 H      -109.253029      -19.979733      108.900650
 C      -110.019867      -21.012821      110.615341
 H      -109.542358      -20.336359      111.315186
 C      -110.759155      -22.103102      111.075378
 H      -110.861198      -22.266695      112.143761
 C      -111.345833      -22.979614      110.158142
 H      -111.942329      -23.802771      110.521469
 C      -112.171326      -24.818949      107.775787
 C      -111.362747      -25.918087      108.048164
 H      -110.288818      -25.818336      108.007736
 C      -111.940132      -27.184223      108.217072
 H      -111.313606      -28.034328      108.430817
 C      -113.316589      -27.345819      108.100159
 H      -113.756348      -28.331757      108.173950
 C      -114.131531      -26.234379      107.819290
 H      -115.194847      -26.370213      107.688873
 C      -113.563660      -24.973646      107.663818
 H      -114.186523      -24.114307      107.448929
