206
 generated by VMD
 Ir     -119.645233      -71.041885      -62.650314
 C      -116.414444      -68.332123      -61.395004
 C      -115.758194      -69.464157      -61.772820
 N      -117.771896      -68.604675      -61.369827
 C      -118.089996      -69.850052      -61.887951
 N      -116.806992      -70.423828      -62.085144
 C      -116.777565      -71.733353      -62.664165
 C      -117.936905      -72.012634      -63.342197
 C      -117.997902      -73.080215      -64.230713
 H      -118.945816      -73.608032      -64.405823
 C      -116.850601      -73.838493      -64.439758
 H      -116.926086      -74.819809      -64.961609
 C      -115.679893      -73.532227      -63.738453
 H      -114.729233      -73.988617      -63.973946
 C      -115.647476      -72.564339      -62.784801
 H      -115.036713      -72.658020      -61.857445
 C      -114.427444      -69.425491      -61.917480
 H      -113.884781      -70.260796      -62.188778
 C      -113.724518      -68.261536      -61.677525
 H      -112.650635      -68.387894      -61.307800
 C      -114.380157      -67.044823      -61.350975
 H      -113.939018      -66.105927      -60.988514
 C      -115.752563      -67.125488      -61.205986
 H      -116.297470      -66.275177      -60.822128
 C      -118.815216      -67.888168      -60.621841
 C      -119.609535      -66.991074      -61.222923
 H      -119.593895      -66.886360      -62.288471
 C      -120.507874      -66.213722      -60.491695
 H      -120.786560      -65.262924      -60.990120
 C      -120.726006      -66.534424      -59.145531
 H      -121.483780      -66.002838      -58.627472
 C      -120.002243      -67.561234      -58.509899
 H      -120.178146      -67.802521      -57.482651
 C      -119.011765      -68.232841      -59.301361
 H      -118.445389      -69.086716      -58.939819
 C      -120.366196      -68.981415      -66.513687
 C      -121.452057      -69.755127      -66.310509
 N      -119.397675      -69.266624      -65.418587
 C      -119.920349      -70.160355      -64.556458
 N      -121.124756      -70.544601      -65.193848
 C      -121.847076      -71.631920      -64.482262
 C      -121.068626      -72.246376      -63.535393
 C      -121.525131      -73.472916      -63.058430
 H      -120.918068      -74.045609      -62.368435
 C      -122.670242      -74.087914      -63.465748
 H      -122.666840      -75.132721      -63.320988
 C      -123.518250      -73.399307      -64.357262
 H      -124.521210      -73.736023      -64.422150
 C      -123.058868      -72.219254      -64.936348
 H      -123.880768      -71.573990      -65.317825
 C      -122.547394      -69.701591      -67.148041
 H      -123.506630      -69.889755      -66.719246
 C      -122.435646      -68.955215      -68.334564
 H      -123.413528      -68.681870      -68.784157
 C      -121.213959      -68.286346      -68.680061
 H      -120.985123      -67.835129      -69.632973
 C      -120.230835      -68.239517      -67.715134
 H      -119.409904      -67.541000      -67.899368
 C      -118.029205      -68.838913      -65.513100
 C      -117.676407      -67.667694      -64.904434
 H      -118.472366      -67.023758      -64.601135
 C      -116.342056      -67.365112      -64.626686
 H      -116.199402      -66.549355      -63.975700
 C      -115.346695      -68.223999      -65.005722
 H      -114.321426      -68.036377      -64.740143
 C      -115.657394      -69.382454      -65.645447
 H      -114.883728      -70.186020      -65.748444
 C      -116.965637      -69.691757      -65.906677
 H      -117.238663      -70.668716      -66.259811
 C      -122.920563      -69.072372      -60.461655
 C      -122.316010      -69.842880      -59.515221
 N      -122.243912      -69.169456      -61.667404
 C      -121.228394      -70.139908      -61.578941
 N      -121.322998      -70.509216      -60.223820
 C      -120.214432      -71.345337      -59.773834
 C      -119.616943      -72.100555      -60.813431
 C      -118.866920      -73.183609      -60.387436
 H      -118.313293      -73.678696      -61.118786
 C      -118.628250      -73.481415      -59.076050
 H      -118.183929      -74.384140      -58.825928
 C      -119.065399      -72.614395      -58.111233
 H      -118.870438      -72.781158      -57.149582
 C      -119.847969      -71.531349      -58.401062
 H      -119.926994      -70.700027      -57.689957
 C      -122.674469      -69.712494      -58.151180
 H      -122.154419      -70.296509      -57.461414
 C      -123.669945      -68.836349      -57.710487
 H      -123.761337      -68.668304      -56.632195
 C      -124.327545      -68.142349      -58.731285
 H      -125.111298      -67.421234      -58.579292
 C      -124.007782      -68.346237      -60.094296
 H      -124.584244      -68.050117      -60.920921
 C      -122.929199      -68.789574      -62.838760
 C      -124.009216      -69.597122      -63.179108
 H      -124.174118      -70.522079      -62.653027
 C      -124.909271      -69.293091      -64.144753
 H      -125.686508      -70.009651      -64.381905
 C      -124.678391      -68.147003      -64.860703
 H      -125.109894      -68.069656      -65.848030
 C      -123.601982      -67.283997      -64.582901
 H      -123.495300      -66.265396      -65.081772
 C      -122.691353      -67.643478      -63.583885
 H      -121.737144      -67.255127      -63.705429
 Ir     -119.645233      -71.041885      -52.276199
 C      -121.985428      -72.773987      -49.051826
 C      -122.676605      -73.082916      -50.173187
 N      -121.027534      -71.870010      -49.429527
 C      -120.935272      -71.624374      -50.764648
 N      -121.980896      -72.410187      -51.271564
 C      -122.138763      -72.538055      -52.635612
 C      -121.093292      -72.104782      -53.403652
 C      -121.180962      -72.214600      -54.822895
 H      -120.405121      -71.708099      -55.449734
 C      -122.326370      -72.733719      -55.487316
 H      -122.227005      -72.814041      -56.512291
 C      -123.366394      -73.200691      -54.687134
 H      -124.365799      -73.407806      -55.080185
 C      -123.274223      -73.081131      -53.277092
 H      -124.149368      -73.342651      -52.787086
 C      -123.648865      -74.153351      -50.076523
 H      -124.343033      -74.358765      -50.818176
 C      -123.819138      -74.786591      -48.842293
 H      -124.783981      -75.210907      -48.579353
 C      -122.998093      -74.494797      -47.751587
 H      -122.878143      -75.229065      -46.992931
 C      -122.115494      -73.423691      -47.869682
 H      -121.838486      -72.815369      -46.970673
 C      -120.322784      -71.160828      -48.366615
 C      -120.188232      -69.790581      -48.457840
 H      -120.754959      -69.244102      -49.210163
 C      -119.311020      -69.023590      -47.662155
 H      -119.214081      -67.935974      -47.875465
 C      -118.519043      -69.724976      -46.681213
 H      -117.598175      -69.339523      -46.224674
 C      -118.748161      -71.067551      -46.520054
 H      -118.441650      -71.674210      -45.665405
 C      -119.546028      -71.806763      -47.399590
 H      -119.419464      -72.935471      -47.544132
 C      -117.154648      -74.579727      -52.554951
 C      -116.761719      -73.842056      -53.602306
 N      -118.150970      -73.877426      -51.929394
 C      -118.357040      -72.653748      -52.461876
 N      -117.416245      -72.594650      -53.470840
 C      -117.518921      -71.416672      -54.348743
 C      -118.598747      -70.603607      -54.102997
 C      -118.749420      -69.499115      -54.940968
 H      -119.656876      -68.883087      -54.993320
 C      -117.793350      -69.248123      -55.956566
 H      -117.914780      -68.260460      -56.458534
 C      -116.705856      -70.077652      -56.118225
 H      -115.809784      -69.816124      -56.695770
 C      -116.529388      -71.176880      -55.294655
 H      -115.783524      -71.805145      -55.681900
 C      -115.783371      -74.259598      -54.489197
 H      -115.594345      -73.828659      -55.472183
 C      -115.130417      -75.468689      -54.178936
 H      -114.402290      -75.846710      -54.950836
 C      -115.571190      -76.289597      -53.101891
 H      -115.199249      -77.259872      -53.013004
 C      -116.541016      -75.830826      -52.254089
 H      -116.927048      -76.467346      -51.400429
 C      -119.152901      -74.635223      -51.222923
 C      -118.874191      -75.063416      -49.943092
 H      -117.974152      -74.818893      -49.450409
 C      -119.609634      -76.100563      -49.347725
 H      -119.099869      -76.608841      -48.495914
 C      -120.659851      -76.678810      -50.071655
 H      -121.138771      -77.459404      -49.589771
 C      -120.919312      -76.274582      -51.367447
 H      -121.721077      -76.859299      -51.857212
 C      -120.235611      -75.245728      -51.975182
 H      -120.570251      -74.923950      -52.949646
 C      -116.830292      -68.216995      -50.667881
 C      -117.996796      -67.506783      -50.823269
 N      -117.198792      -69.511093      -51.023262
 C      -118.461212      -69.640488      -51.386642
 N      -118.985863      -68.410217      -51.285820
 C      -120.324982      -68.223389      -51.677807
 C      -120.791428      -69.268814      -52.437012
 C      -121.866081      -69.064606      -53.300442
 H      -122.214676      -69.734436      -54.093174
 C      -122.480438      -67.841179      -53.272469
 H      -123.459518      -67.893143      -53.773766
 C      -122.059326      -66.757545      -52.462402
 H      -122.214890      -65.778839      -52.653805
 C      -120.981430      -67.012726      -51.618767
 H      -120.789764      -66.275597      -50.853256
 C      -117.994125      -66.091621      -50.627281
 H      -118.833084      -65.528793      -50.930580
 C      -116.836937      -65.382187      -50.309616
 H      -116.719986      -64.359772      -50.538704
 C      -115.624802      -66.150101      -50.225578
 H      -114.781815      -65.573669      -50.137226
 C      -115.636887      -67.548004      -50.320999
 H      -114.786087      -68.145325      -50.189651
 C      -116.363419      -70.646568      -50.741379
 C      -116.754654      -71.632370      -49.858124
 H      -117.790970      -71.623489      -49.530006
 C      -115.938744      -72.749130      -49.652863
 H      -116.210625      -73.449265      -48.854179
 C      -114.749069      -72.965576      -50.386440
 H      -114.041138      -73.705399      -50.063038
 C      -114.398407      -71.958832      -51.299950
 H      -113.508392      -72.260208      -51.878944
 C      -115.216637      -70.842072      -51.495487
 H      -114.866180      -70.033150      -52.162292
