206
 generated by VMD
 Ir       19.371140      -48.153545      -52.444954
 C        21.828634      -44.737595      -53.927589
 C        20.561548      -44.484421      -54.384644
 N        21.767876      -46.065964      -53.339073
 C        20.452354      -46.562935      -53.321213
 N        19.758511      -45.562595      -53.876923
 C        18.349642      -45.586239      -53.571754
 C        17.901218      -46.878185      -53.250992
 C        16.525486      -47.116348      -53.350151
 H        16.291794      -48.198456      -53.176544
 C        15.615871      -46.123875      -53.741295
 H        14.656426      -46.349350      -54.118027
 C        16.052036      -44.803314      -53.871979
 H        15.349697      -44.095020      -54.193298
 C        17.431889      -44.537979      -53.766121
 H        17.700682      -43.515938      -54.016277
 C        20.318819      -43.414368      -55.142178
 H        19.393795      -43.221054      -55.596565
 C        21.348131      -42.457710      -55.415520
 H        21.065914      -41.521507      -55.874527
 C        22.616716      -42.659576      -54.898758
 H        23.226955      -41.881805      -54.517212
 C        22.884819      -43.895336      -54.290878
 H        23.917770      -44.159260      -54.004608
 C        22.903454      -46.888107      -53.210472
 C        23.605042      -46.938549      -51.973930
 H        23.126501      -46.605145      -51.091187
 C        24.835157      -47.577126      -51.901588
 H        25.127279      -47.840851      -50.891876
 C        25.477982      -48.029411      -53.089912
 H        26.226656      -48.837280      -52.960526
 C        24.769657      -47.982006      -54.280132
 H        25.194565      -48.448570      -55.097366
 C        23.534023      -47.445488      -54.323265
 H        23.069384      -47.384644      -55.269894
 C        17.518623      -45.954834      -49.176483
 C        16.846729      -47.180153      -49.257362
 N        18.656286      -46.099091      -50.037300
 C        18.736927      -47.331928      -50.669846
 N        17.656681      -47.989174      -50.116585
 C        17.537104      -49.360344      -50.482903
 C        18.095200      -49.622093      -51.675388
 C        17.851383      -50.911961      -52.205582
 H        18.251089      -51.093445      -53.178360
 C        17.145802      -51.901459      -51.520271
 H        16.900660      -52.864044      -52.033531
 C        16.600531      -51.580540      -50.306934
 H        16.281754      -52.427021      -49.603477
 C        16.784338      -50.283710      -49.797966
 H        16.439777      -50.201595      -48.754585
 C        15.579229      -47.245937      -48.569523
 H        15.000750      -48.149506      -48.460289
 C        15.126576      -46.138950      -47.854698
 H        14.272102      -46.256733      -47.239716
 C        15.854171      -44.908802      -47.797783
 H        15.457485      -43.960403      -47.698349
 C        17.075331      -44.806190      -48.427338
 H        17.789192      -44.016277      -48.278198
 C        19.714628      -45.141335      -50.034317
 C        20.924334      -45.419884      -49.498764
 H        21.166672      -46.395592      -49.123714
 C        21.906845      -44.412266      -49.561832
 H        22.906574      -44.705498      -49.195961
 C        21.652414      -43.146648      -50.090206
 H        22.409241      -42.426453      -50.043015
 C        20.460308      -42.976776      -50.673500
 H        20.265245      -42.011616      -51.124405
 C        19.455143      -43.929161      -50.551811
 H        18.465149      -43.467533      -50.710930
 C        22.857658      -50.440086      -51.165684
 C        22.787594      -50.623421      -52.558842
 N        21.663872      -49.709595      -50.797089
 C        20.849665      -49.436073      -51.854042
 N        21.623272      -49.927670      -52.963303
 C        21.028399      -49.786064      -54.217209
 C        19.758411      -49.266171      -54.201656
 C        18.985693      -49.397507      -55.343872
 H        17.884699      -49.236336      -55.320763
 C        19.587137      -49.806896      -56.561310
 H        19.027092      -49.482765      -57.472183
 C        20.867702      -50.313206      -56.578751
 H        21.154915      -50.988373      -57.390823
 C        21.559452      -50.311996      -55.396393
 H        22.626949      -50.723766      -55.397614
 C        23.777489      -51.517128      -53.125404
 H        23.598858      -51.931549      -54.141449
 C        24.819557      -52.127235      -52.366089
 H        25.580551      -52.678841      -52.865807
 C        24.844309      -51.896179      -50.989349
 H        25.750423      -52.142040      -50.489342
 C        23.844501      -51.148323      -50.362541
 H        23.691864      -51.329842      -49.293407
 C        21.403946      -49.535221      -49.463318
 C        20.322582      -50.250740      -48.911880
 H        19.721592      -50.884106      -49.526581
 C        20.100384      -50.097809      -47.574028
 H        19.076363      -50.220276      -47.253899
 C        20.947102      -49.295502      -46.750587
 H        20.327112      -48.920990      -45.887882
 C        22.036613      -48.643974      -47.346054
 H        22.644150      -47.968613      -46.816162
 C        22.230352      -48.781181      -48.730194
 H        23.046709      -48.162895      -49.082596
 Ir       19.371140      -48.153545      -41.963135
 C        18.460825      -51.484337      -44.703804
 C        19.765240      -51.459946      -44.529713
 N        18.000965      -50.358040      -43.943420
 C        18.990168      -49.719643      -43.289185
 N        20.059343      -50.370068      -43.726799
 C        21.349606      -49.881104      -43.308426
 C        21.327877      -48.942799      -42.293678
 C        22.549433      -48.487076      -41.757942
 H        22.582294      -47.948799      -40.826233
 C        23.786251      -48.814152      -42.266563
 H        24.606403      -48.494823      -41.677261
 C        23.787380      -49.675426      -43.372101
 H        24.740278      -50.073116      -43.807911
 C        22.572943      -50.206039      -43.877163
 H        22.599237      -50.651016      -44.865398
 C        20.519148      -52.567081      -45.040958
 H        21.539343      -52.542542      -45.080925
 C        19.875313      -53.705574      -45.610794
 H        20.481293      -54.411434      -46.076248
 C        18.506121      -53.697071      -45.699318
 H        18.039585      -54.612282      -45.999878
 C        17.794704      -52.566353      -45.309883
 H        16.784229      -52.468826      -45.502312
 C        16.708504      -49.876411      -44.117157
 C        15.765588      -50.138050      -43.073250
 H        16.046017      -50.607338      -42.178024
 C        14.389450      -49.943497      -43.344902
 H        13.752079      -50.192448      -42.510464
 C        13.996202      -49.463165      -44.633636
 H        12.930038      -49.512386      -44.763897
 C        14.957654      -49.150223      -45.628311
 H        14.663104      -49.035034      -46.661060
 C        16.285204      -49.282578      -45.340218
 H        17.041088      -48.965153      -46.077362
 C        18.590078      -50.202377      -38.307587
 C        18.752441      -48.870171      -37.928963
 N        18.943050      -50.252697      -39.604576
 C        19.358238      -49.044601      -40.132141
 N        19.298317      -48.204426      -39.084038
 C        19.816299      -46.916756      -39.310764
 C        19.954592      -46.553661      -40.689613
 C        20.600262      -45.384323      -41.052330
 H        20.487877      -45.149910      -42.113377
 C        21.105770      -44.559669      -40.020142
 H        21.720659      -43.688652      -40.318363
 C        20.947437      -44.820705      -38.654789
 H        21.148880      -44.066521      -37.926212
 C        20.340897      -46.007557      -38.304802
 H        20.269053      -46.232868      -37.257008
 C        18.493353      -48.583187      -36.574741
 H        18.704512      -47.635979      -36.097660
 C        18.079573      -49.599106      -35.663036
 H        17.684736      -49.396172      -34.720531
 C        17.932932      -50.879662      -36.111557
 H        17.582041      -51.688972      -35.479424
 C        18.161877      -51.171471      -37.457527
 H        17.947546      -52.198746      -37.787029
 C        19.389820      -51.533951      -40.176231
 C        18.498552      -52.381641      -40.728462
 H        17.483429      -52.448322      -40.222023
 C        19.006992      -53.428223      -41.543488
 H        18.326935      -54.242962      -41.523087
 C        20.361296      -53.564011      -41.765564
 H        20.695692      -54.234352      -42.596363
 C        21.317062      -52.694874      -41.280266
 H        22.305552      -53.199596      -41.333618
 C        20.821728      -51.643471      -40.463024
 H        21.426622      -50.785629      -40.223816
 C        15.262363      -46.658051      -42.039726
 C        15.831471      -46.298138      -43.252480
 N        16.347586      -47.172169      -41.248413
 C        17.536547      -47.221680      -41.987617
 N        17.204329      -46.603710      -43.215275
 C        18.318848      -46.386555      -44.094643
 C        19.567507      -46.919289      -43.686661
 C        20.776482      -46.519604      -44.259663
 H        21.732498      -46.808357      -43.735779
 C        20.670710      -45.636356      -45.329048
 H        21.566931      -45.167305      -45.513367
 C        19.439556      -45.125969      -45.746742
 H        19.285404      -44.440567      -46.551147
 C        18.238068      -45.465588      -45.123383
 H        17.388205      -44.851494      -45.360062
 C        15.016411      -45.790638      -44.272636
 H        15.316963      -45.734764      -45.311218
 C        13.655268      -45.634296      -44.099861
 H        13.146332      -45.176453      -44.927612
 C        13.120706      -46.016552      -42.907295
 H        12.076924      -46.020336      -42.638390
 C        13.887090      -46.517433      -41.794472
 H        13.545794      -46.236923      -40.841248
 C        16.346516      -47.170612      -39.760933
 C        16.779255      -46.050529      -39.076206
 H        17.544685      -45.525749      -39.645088
 C        16.477953      -45.904221      -37.752457
 H        16.807625      -44.951290      -37.311729
 C        15.729774      -46.822762      -37.060059
 H        15.597073      -46.878086      -35.977592
 C        15.261179      -47.939804      -37.764915
 H        14.578886      -48.620090      -37.213562
 C        15.589445      -48.153145      -39.102089
 H        15.510374      -49.112144      -39.612541
