206
 generated by VMD
 Ir       19.521137      -43.281219       67.982346
 C        17.030933      -45.178047       64.958511
 C        17.121681      -43.866188       64.570580
 N        17.612267      -45.283806       66.237640
 C        18.121086      -44.055550       66.654640
 N        17.759880      -43.180923       65.637215
 C        18.043526      -41.811829       65.856583
 C        18.975704      -41.566277       66.884125
 C        19.464252      -40.256851       67.049133
 H        20.142982      -40.040367       67.855957
 C        19.069696      -39.223030       66.200356
 H        19.492512      -38.243362       66.308487
 C        18.136738      -39.478622       65.182732
 H        17.913086      -38.715309       64.456490
 C        17.606731      -40.758141       65.034653
 H        16.755114      -40.895424       64.385117
 C        16.692142      -43.500298       63.274540
 H        16.851219      -42.498528       62.910591
 C        16.200199      -44.456352       62.388680
 H        15.989536      -44.191677       61.370216
 C        16.097918      -45.788307       62.795677
 H        15.771209      -46.555206       62.104282
 C        16.507515      -46.144196       64.090187
 H        16.351583      -47.155777       64.414215
 C        17.220600      -46.338142       67.134727
 C        16.224024      -46.082870       68.070557
 H        16.010674      -45.064289       68.359459
 C        15.477876      -47.125763       68.628799
 H        14.698758      -46.909416       69.350861
 C        15.737494      -48.443970       68.261887
 H        15.115839      -49.245975       68.640480
 C        16.762415      -48.719337       67.348259
 H        16.929842      -49.727684       67.005630
 C        17.516958      -47.666534       66.810783
 H        18.322845      -47.893074       66.130905
 C        23.151138      -43.578674       65.578590
 C        23.586655      -43.114201       66.798752
 N        21.742920      -43.649422       65.627808
 C        21.264206      -43.255367       66.865898
 N        22.411678      -42.918274       67.579811
 C        22.195831      -42.484596       68.919037
 C        20.848389      -42.206474       69.215431
 C        20.544535      -41.512096       70.398483
 H        19.527092      -41.203316       70.580589
 C        21.545918      -41.175987       71.311539
 H        21.283279      -40.670341       72.226112
 C        22.870300      -41.514297       71.053162
 H        23.646601      -41.277344       71.767456
 C        23.194870      -42.178627       69.861855
 H        24.186129      -42.587776       69.757469
 C        24.964455      -42.984673       67.008217
 H        25.341469      -42.638931       67.952370
 C        25.885235      -43.319702       66.015884
 H        26.936405      -43.150032       66.169716
 C        25.420609      -43.804131       64.783310
 H        26.123917      -44.070244       64.004890
 C        24.053555      -43.923615       64.564705
 H        23.698051      -44.269257       63.602184
 C        20.965160      -43.694084       64.422783
 C        20.771259      -42.510773       63.700855
 H        21.079231      -41.562607       64.120781
 C        20.136995      -42.555202       62.456978
 H        19.990444      -41.642639       61.898006
 C        19.696625      -43.772945       61.935074
 H        19.148449      -43.798779       60.999001
 C        19.879768      -44.956303       62.666187
 H        19.455847      -45.884842       62.317467
 C        20.514034      -44.911873       63.910065
 H        20.629105      -45.814529       64.486664
 C        20.743114      -46.224575       70.933685
 C        19.647434      -45.597481       71.472244
 N        20.848190      -45.768303       69.599945
 C        19.859035      -44.847237       69.295624
 N        19.096058      -44.802902       70.449478
 C        17.901054      -44.042816       70.338844
 C        17.909452      -43.068150       69.340973
 C        16.778172      -42.247829       69.185478
 H        16.802153      -41.424606       68.499084
 C        15.624075      -42.471855       69.956177
 H        14.753634      -41.851440       69.800232
 C        15.599685      -43.496288       70.902405
 H        14.693721      -43.699188       71.452003
 C        16.736990      -44.266838       71.108749
 H        16.744999      -45.000534       71.898399
 C        19.368851      -45.763985       72.843826
 H        18.540258      -45.246426       73.302597
 C        20.199055      -46.547394       73.637833
 H        20.024536      -46.622444       74.707077
 C        21.306284      -47.194389       73.080032
 H        21.950394      -47.807007       73.689636
 C        21.564148      -47.037933       71.716789
 H        22.381996      -47.595543       71.267021
 C        21.892319      -46.193718       68.697151
 C        23.230742      -45.924747       69.024544
 H        23.468132      -45.439011       69.958359
 C        24.245708      -46.240112       68.109947
 H        25.261429      -45.960770       68.331711
 C        23.930656      -46.834534       66.888634
 H        24.709768      -47.040882       66.166618
 C        22.592236      -47.103500       66.561249
 H        22.346428      -47.549145       65.606895
 C        21.578049      -46.778091       67.465919
 H        20.546272      -46.937202       67.193298
 Ir       19.521135      -43.281223       80.842209
 C        19.222569      -42.241577       76.610504
 C        20.222179      -43.181427       76.654747
 N        18.818153      -41.977852       77.924049
 C        19.529266      -42.741821       78.829132
 N        20.404579      -43.477783       78.031952
 C        21.274158      -44.380630       78.708122
 C        20.869951      -44.676903       80.019051
 C        21.422173      -45.799652       80.649124
 H        21.073782      -46.074371       81.633530
 C        22.393806      -46.576412       80.029877
 H        22.795073      -47.448650       80.538895
 C        22.845493      -46.240284       78.752968
 H        23.625832      -46.827751       78.270004
 C        22.295635      -45.137394       78.092896
 H        22.786455      -44.763092       77.210464
 C        20.838112      -43.585617       75.457520
 H        21.540962      -44.405327       75.448860
 C        20.452854      -43.030052       74.236076
 H        20.946278      -43.325603       73.320610
 C        19.442478      -42.070251       74.201111
 H        19.165649      -41.615952       73.258575
 C        18.817369      -41.686012       75.387489
 H        18.017216      -40.956161       75.357971
 C        18.149834      -40.749641       78.258347
 C        18.918915      -39.620731       78.554947
 H        19.981720      -39.720963       78.688370
 C        18.302250      -38.381821       78.742897
 H        18.890881      -37.481785       78.783463
 C        16.901825      -38.282104       78.693222
 H        16.411724      -37.343376       78.929855
 C        16.131172      -39.411110       78.416557
 H        15.061073      -39.351906       78.503059
 C        16.751762      -40.639786       78.178810
 H        16.160456      -41.498791       77.917542
 C        16.580168      -46.512451       80.866180
 C        16.978836      -46.398392       82.172073
 N        17.300611      -45.558716       80.124924
 C        18.170141      -44.842140       80.929062
 N        17.959362      -45.378174       82.203949
 C        18.759466      -44.812767       83.252686
 C        19.819225      -44.030197       82.788147
 C        20.872822      -43.723946       83.675072
 H        21.734615      -43.181892       83.304146
 C        20.838299      -44.140167       85.004532
 H        21.679924      -43.942886       85.653564
 C        19.737858      -44.862782       85.476189
 H        19.686188      -45.147644       86.514015
 C        18.692669      -45.189125       84.609886
 H        17.766266      -45.511463       85.036942
 C        16.391394      -47.233112       83.135010
 H        16.620283      -47.117889       84.176758
 C        15.427580      -48.191746       82.763672
 H        15.007672      -48.845390       83.509949
 C        15.051207      -48.305660       81.429451
 H        14.342590      -49.064526       81.129318
 C        15.617920      -47.450989       80.474998
 H        15.276991      -47.506355       79.454803
 C        16.997791      -45.242401       78.748352
 C        17.819727      -45.747387       77.737411
 H        18.693054      -46.328224       77.984055
 C        17.513779      -45.471260       76.400528
 H        18.137383      -45.867371       75.615219
 C        16.396656      -44.710098       76.065323
 H        16.166859      -44.495373       75.035080
 C        15.563969      -44.215157       77.085403
 H        14.690640      -43.634323       76.838760
 C        15.869913      -44.481285       78.422333
 H        15.216416      -44.125175       79.205093
 C        17.273792      -40.443329       83.266495
 C        18.501041      -39.842072       83.095169
 N        17.258074      -41.579525       82.447403
 C        18.463493      -41.766010       81.789169
 N        19.215546      -40.657524       82.174614
 C        20.524246      -40.574387       81.606018
 C        21.015713      -41.791847       81.097351
 C        22.361744      -41.849457       80.691536
 H        22.785992      -42.797951       80.399513
 C        23.180367      -40.719376       80.741272
 H        24.208723      -40.797508       80.420677
 C        22.672886      -39.501682       81.198532
 H        23.310591      -38.631691       81.252853
 C        21.345219      -39.434166       81.625900
 H        20.940908      -38.475670       81.919540
 C        18.795338      -38.675312       83.815979
 H        19.779217      -38.234894       83.805283
 C        17.834837      -38.109673       84.675850
 H        18.098011      -37.252396       85.282417
 C        16.588444      -38.730881       84.835556
 H        15.863030      -38.324303       85.512581
 C        16.313299      -39.897686       84.126282
 H        15.349914      -40.368668       84.258827
 C        16.021839      -42.228348       82.096191
 C        15.541486      -43.302032       82.845764
 H        16.128353      -43.675682       83.672668
 C        14.288961      -43.851231       82.573982
 H        13.967744      -44.743748       83.086166
 C        13.496061      -43.306793       81.561111
 H        12.486414      -43.666367       81.389603
 C        13.968022      -42.243011       80.790771
 H        13.391119      -41.859367       79.964699
 C        15.230517      -41.703812       81.063293
 H        15.550947      -40.801346       80.561127
