206
 generated by VMD
  IR        28.389999       26.139999       16.280001
  C1        28.150000       27.660000       12.260000
  C2        28.480000       28.760000       13.060000
  N1        27.910000       26.549999       13.050000
  C3a       28.270000       26.910000       14.380000
  N2        28.510000       28.299999       14.310000
  C4        28.770000       28.969999       15.550000
  C5a       28.459999       28.219999       16.709999
  C6        28.299999       28.809999       18.020000
  H1        27.879999       28.290001       18.959999
  C7        28.680000       30.150000       18.170000
  H2        28.660000       30.559999       19.180000
  C8        29.000000       30.889999       17.040001
  H3        29.120001       31.940001       16.969999
  C9        29.010000       30.360001       15.750000
  H4        29.270000       30.920000       14.870000
  C10       28.670000       30.049999       12.390000
  H5        29.280001       30.700001       12.850000
  C11       28.490000       30.190001       11.060000
  H6        28.459999       31.139999       10.720000
  C12       28.250000       29.059999       10.230000
  H7        28.000000       29.000000        9.220000
  C13       28.049999       27.830000       10.900000
  H8        27.930000       26.959999       10.280000
  C6        26.840000       25.650000       12.720000
  C1        25.520000       26.120001       12.850000
  H1        25.309999       27.120001       12.990000
  C2        24.469999       25.200001       12.960000
  H2        23.610001       25.580000       13.460000
  C3        24.719999       23.820000       12.840000
  H3        23.920000       23.129999       12.480000
  C4        26.020000       23.389999       12.730000
  H4        26.150000       22.330000       12.520000
  C5        27.070000       24.290001       12.610000
  H5        28.049999       23.870001       12.570000
  C1        32.610001       25.650000       16.620001
  C2        32.080002       25.250000       17.860001
  N1        31.580000       26.230000       15.880000
  C3b       30.430000       26.180000       16.559999
  N2        30.770000       25.700001       17.790001
  C4        29.760000       25.760000       18.790001
  C5b       28.510000       25.590000       18.299999
  C6        27.530001       25.670000       19.290001
  H1        26.580000       25.730000       18.900000
  C7        27.770000       25.879999       20.610001
  H2        26.910000       25.990000       21.290001
  C8        29.090000       25.950001       21.100000
  H3        29.360001       26.280001       22.090000
  C9        30.059999       25.930000       20.139999
  H4        31.030001       26.090000       20.410000
  C10       32.849998       24.629999       18.850000
  H5        32.599998       24.770000       19.920000
  C11       34.230000       24.430000       18.580000
  H6        34.919998       24.100000       19.370001
  C12       34.799999       24.809999       17.389999
  H7        35.840000       24.940001       17.200001
  C13       33.980000       25.340000       16.379999
  H8        34.290001       25.280001       15.340000
  C6        31.820000       27.260000       14.890000
  C1        32.029999       26.790001       13.560000
  H1        32.070000       25.760000       13.320000
  C2        32.310001       27.750000       12.600000
  H2        32.450001       27.450001       11.600000
  C3        32.509998       29.090000       12.970000
  H3        32.720001       29.809999       12.170000
  C4        32.380001       29.500000       14.290000
  H4        32.889999       30.420000       14.620000
  C5        32.040001       28.570000       15.280000
  H5        32.080002       28.770000       16.360001
  C1        27.610001       21.830000       15.530000
  C2        26.350000       22.389999       15.750000
  N1        28.540001       22.930000       15.600000
  C3c       27.920000       24.150000       15.890000
  N2        26.580000       23.770000       15.950000
  C4        25.740000       24.850000       16.420000
  C5c       26.250000       26.160000       16.219999
  C6        25.379999       27.219999       16.170000
  H1        25.680000       28.170000       15.740000
  C7        24.080000       26.990000       16.459999
  H2        23.520000       27.910000       16.629999
  C8        23.530001       25.750000       16.760000
  H3        22.459999       25.719999       16.920000
  C9        24.379999       24.610001       16.780001
  H4        24.180000       23.670000       17.230000
  C10       25.270000       21.510000       15.800000
  H5        24.340000       21.760000       16.330000
  C11       25.450001       20.139999       15.450000
  H6        24.620001       19.400000       15.470000
  C12       26.760000       19.530001       15.300000
  H7        26.910000       18.500000       15.040000
  C13       27.850000       20.450001       15.370000
  H8        28.860001       20.120001       15.140000
  C6        29.879999       22.799999       15.490000
  C1        30.530001       23.030001       14.290000
  H1        30.059999       23.709999       13.640000
  C2        31.920000       22.830000       14.190000
  H2        32.270000       22.540001       13.210000
  C3        32.689999       22.299999       15.230000
  H3        33.750000       22.350000       15.260000
  C4        31.980000       21.900000       16.389999
  H4        32.430000       21.500000       17.209999
  C5        30.580000       22.120001       16.540001
  H5        29.980000       21.549999       17.230000
  IR        24.530001       18.900000       21.490000
  C1        25.600000       18.750000       25.719999
  C2        24.230000       18.420000       25.690001
  N1        26.020000       19.010000       24.450001
  C3a       24.969999       18.879999       23.549999
  N2        23.879999       18.500000       24.320000
  C4        22.709999       18.080000       23.580000
  C5a       22.620001       18.650000       22.309999
  C6        21.440001       18.559999       21.559999
  H1        21.379999       19.010000       20.610001
  C7        20.340000       17.889999       22.129999
  H2        19.469999       17.680000       21.520000
  C8        20.459999       17.200001       23.340000
  H3        19.480000       16.940001       23.709999
  C9        21.650000       17.250000       24.090000
  H4        21.830000       16.360001       24.730000
  C10       23.590000       18.080000       26.930000
  H5        22.520000       17.840000       26.870001
  C11       24.309999       18.070000       28.110001
  H6        23.860001       17.840000       29.070000
  C12       25.610001       18.469999       28.139999
  H7        26.100000       18.770000       29.100000
  C13       26.270000       18.860001       26.980000
  H8        27.110001       19.530001       27.090000
  C6        27.270000       19.690001       24.190001
  C1        28.400000       19.100000       23.610001
  H1        28.420000       18.080000       23.430000
  C2        29.520000       19.870001       23.200001
  H2        30.270000       19.430000       22.590000
  C3        29.580000       21.230000       23.389999
  H3        30.500000       21.850000       23.170000
  C4        28.510000       21.820000       24.110001
  H4        28.530001       22.950001       24.120001
  C5        27.389999       21.070000       24.570000
  H5        26.590000       21.600000       25.049999
  C1        24.940001       14.560000       20.950001
  C2        24.420000       15.000000       19.780001
  N1        25.000000       15.660000       21.809999
  C3b       24.570000       16.840000       21.190001
  N2        24.129999       16.450001       19.950001
  C4        23.610001       17.459999       19.059999
  C5b       23.690001       18.790001       19.490000
  C6        23.379999       19.820000       18.600000
  H1        23.350000       20.760000       19.040001
  C7        22.840000       19.450001       17.340000
  H2        22.510000       20.280001       16.700001
  C8        22.809999       18.139999       16.910000
  H3        22.299999       17.940001       15.950000
  C9        23.150000       17.129999       17.770000
  H4        22.719999       16.100000       17.549999
  C10       24.379999       14.040000       18.690001
  H5        23.850000       14.330000       17.799999
  C11       24.809999       12.700000       18.820000
  H6        24.879999       12.080000       17.990000
  C12       25.270000       12.330000       20.070000
  H7        25.530001       11.320000       20.209999
  C13       25.320000       13.240000       21.120001
  H8        25.650000       12.870000       22.040001
  C6        25.010000       15.460000       23.250000
  C1        26.180000       15.770000       23.879999
  H1        26.830000       16.450001       23.340000
  C2        26.440001       15.360000       25.219999
  H2        27.350000       15.640000       25.719999
  C3        25.459999       14.670000       25.920000
  H3        25.719999       14.330000       26.889999
  C4        24.299999       14.280000       25.209999
  H4        23.780001       13.460000       25.770000
  C5        24.040001       14.680000       23.900000
  H5        23.090000       14.400000       23.450001
  C1        28.549999       19.750000       20.100000
  C2        28.010000       21.020000       20.270000
  N1        27.500000       18.799999       20.290001
  C3c       26.309999       19.469999       20.670000
  N2        26.580000       20.870001       20.540001
  C4        25.480000       21.740000       21.020000
  C5c       24.370001       21.010000       21.469999
  C6        23.219999       21.740000       21.830000
  H1        22.219999       21.250000       21.930000
  C7        23.190001       23.170000       21.709999
  H2        22.330000       23.850000       21.990000
  C8        24.389999       23.840000       21.330000
  H3        24.530001       24.879999       21.440001
  C9        25.500000       23.110001       20.940001
  H4        26.320000       23.660000       20.490000
  C10       28.820000       22.120001       20.230000
  H5        28.350000       23.100000       20.260000
  C11       30.190001       21.980000       20.070000
  H6        30.879999       22.709999       20.379999
  C12       30.780001       20.700001       19.850000
  H7        31.830000       20.760000       19.950001
  C13       29.959999       19.580000       19.889999
  H8        30.330000       18.549999       19.799999
  C6        27.450001       17.459999       19.719999
  C1        27.100000       17.309999       18.350000
  H1        26.740000       18.139999       17.799999
  C2        27.290001       16.070000       17.799999
  H2        26.830000       15.880000       16.820000
  C3        27.770000       14.940000       18.530001
  H3        28.260000       14.100000       17.980000
  C4        27.930000       15.060000       19.879999
  H4        27.709999       14.320000       20.600000
  C5        27.860001       16.320000       20.480000
  H5        28.250000       16.440001       21.459999
