206
 generated by VMD
 Ir        0.498005        0.713095       -6.898323
 C         1.804595       -1.803085      -10.238243
 C         2.451027       -0.609805      -10.432165
 N         1.031588       -1.672507       -9.071709
 C         1.179053       -0.414687       -8.508286
 N         2.082627        0.230598       -9.351887
 C         2.563216        1.498538       -8.892033
 C         1.879759        2.040008       -7.795132
 C         2.172897        3.354106       -7.392998
 H         1.630750        3.792898       -6.565144
 C         3.129858        4.113086       -8.055698
 H         3.322764        5.136693       -7.738815
 C         3.833991        3.568203       -9.128918
 H         4.592790        4.147033       -9.640366
 C         3.567727        2.260930       -9.536640
 H         4.228467        1.799088      -10.251780
 C         3.269425       -0.461864      -11.577085
 H         3.664178        0.508458      -11.857878
 C         3.450958       -1.524268      -12.467110
 H         4.060337       -1.391534      -13.347305
 C         2.800108       -2.737186      -12.246824
 H         2.913197       -3.551725      -12.948492
 C         1.964161       -2.868902      -11.130695
 H         1.449034       -3.806774      -10.959705
 C         0.019074       -2.643488       -8.720402
 C        -1.327699       -2.368144       -8.991302
 H        -1.598607       -1.392553       -9.353149
 C        -2.303432       -3.347745       -8.795795
 H        -3.340783       -3.104911       -8.978378
 C        -1.952576       -4.615506       -8.334728
 H        -2.708707       -5.357662       -8.153152
 C        -0.604021       -4.900250       -8.066734
 H        -0.313642       -5.908351       -7.794132
 C         0.375333       -3.924061       -8.249004
 H         1.412737       -4.151509       -8.047363
 C         3.441682       -0.446597       -3.892750
 C         2.562241        0.370697       -3.222595
 N         3.062139       -0.440251       -5.245232
 C         1.968813        0.369020       -5.470448
 N         1.691765        0.906178       -4.213821
 C         0.680264        1.919727       -4.189686
 C        -0.010737        2.098801       -5.397392
 C        -1.032768        3.060201       -5.451801
 H        -1.514222        3.280346       -6.388943
 C        -1.384033        3.814332       -4.322906
 H        -2.156587        4.564630       -4.401741
 C        -0.702904        3.613047       -3.118233
 H        -1.010513        4.142364       -2.232964
 C         0.338871        2.696069       -3.057762
 H         0.958704        2.678348       -2.174252
 C         2.628712        0.437931       -1.818432
 H         1.905321        0.997122       -1.249916
 C         3.596043       -0.307878       -1.119408
 H         3.629374       -0.262137       -0.044094
 C         4.501868       -1.102121       -1.813499
 H         5.295829       -1.602758       -1.290916
 C         4.430489       -1.172768       -3.209641
 H         5.148118       -1.773809       -3.749599
 C         3.751593       -1.198693       -6.256180
 C         4.594979       -0.537182       -7.154682
 H         4.764036        0.525640       -7.047783
 C         5.201896       -1.235811       -8.203190
 H         5.861215       -0.721104       -8.877708
 C         4.967209       -2.605351       -8.356106
 H         5.380224       -3.137241       -9.202869
 C         4.142661       -3.276261       -7.450073
 H         3.965075       -4.339083       -7.562191
 C         3.544271       -2.577631       -6.396339
 H         2.953668       -3.108563       -5.661697
 C        -2.729597       -1.820268       -5.400009
 C        -3.334210       -1.050751       -6.365818
 N        -1.396917       -1.371179       -5.278423
 C        -1.124796       -0.369484       -6.182335
 N        -2.327426       -0.159278       -6.841805
 C        -2.320964        0.835592       -7.886356
 C        -1.051251        1.353711       -8.198097
 C        -0.923613        2.184474       -9.325638
 H         0.030359        2.630091       -9.562199
 C        -2.016411        2.475746      -10.145304
 H        -1.897428        3.147733      -10.971485
 C        -3.269067        1.957626       -9.823116
 H        -4.118093        2.166034      -10.466404
 C        -3.420890        1.164460       -8.694382
 H        -4.418870        0.952997       -8.347660
 C        -4.689253       -1.290594       -6.661510
 H        -5.205118       -0.736311       -7.427578
 C        -5.406063       -2.283726       -5.988853
 H        -6.456999       -2.410832       -6.187546
 C        -4.769173       -3.059230       -5.018303
 H        -5.296844       -3.855987       -4.520462
 C        -3.420877       -2.828788       -4.730740
 H        -2.931504       -3.436894       -3.978859
 C        -0.662892       -1.597250       -4.064384
 C        -1.137261       -1.036143       -2.868504
 H        -1.954051       -0.331944       -2.894249
 C        -0.543530       -1.384349       -1.655148
 H        -0.934867       -0.989983       -0.728897
 C         0.541189       -2.262053       -1.626511
 H         1.023080       -2.513810       -0.690075
 C         1.030342       -2.797535       -2.827381
 H         1.918345       -3.418035       -2.822186
 C         0.421827       -2.474953       -4.035748
 H         0.778196       -2.907757       -4.962345
 Ir        0.498005        0.713096        6.811741
 C        -2.498122        2.375940        9.502216
 C        -1.497798        3.323992        9.458035
 N        -2.027052        1.243491        8.809578
 C        -0.756191        1.465909        8.285328
 N        -0.443722        2.754383        8.713345
 C         0.753306        3.301479        8.194775
 C         1.141599        2.717323        6.986267
 C         2.086083        3.387393        6.190750
 H         2.308751        3.014403        5.195263
 C         2.682666        4.565588        6.633526
 H         3.376152        5.095685        5.998955
 C         2.346471        5.101910        7.890995
 H         2.837418        6.002422        8.238194
 C         1.384492        4.463450        8.676785
 H         1.235341        4.792856        9.686260
 C        -1.721734        4.575945       10.053486
 H        -0.971090        5.353185        9.995762
 C        -2.937521        4.864462       10.679283
 H        -3.069023        5.822450       11.181248
 C        -3.948210        3.910425       10.702095
 H        -4.914534        4.153500       11.112015
 C        -3.724273        2.658470       10.106640
 H        -4.531129        1.948704       10.083820
 C        -2.583327       -0.063426        9.047760
 C        -1.844509       -0.999682        9.775272
 H        -0.873649       -0.739185       10.181313
 C        -2.370729       -2.271573       10.021820
 H        -1.761572       -3.017380       10.501503
 C        -3.652281       -2.608045        9.567814
 H        -4.064633       -3.577528        9.800762
 C        -4.391098       -1.671789        8.840309
 H        -5.369939       -1.933124        8.466446
 C        -3.859968       -0.396485        8.585743
 H        -4.434381        0.326213        8.030170
 C        -1.660780        1.960320        3.213810
 C        -0.584068        1.258396        2.738529
 N        -1.559813        1.980556        4.619087
 C        -0.439920        1.293543        5.049843
 N         0.163146        0.857146        3.873589
 C         1.407816        0.168273        4.043144
 C         1.942272        0.263528        5.334145
 C         3.269573       -0.134013        5.541103
 H         3.741773        0.075594        6.493355
 C         4.033405       -0.678894        4.504436
 H         5.061318       -0.975555        4.683281
 C         3.477911       -0.825398        3.228638
 H         4.077042       -1.206954        2.422626
 C         2.163555       -0.408220        3.000542
 H         1.686035       -0.691287        2.076126
 C        -0.446197        1.098841        1.345352
 H         0.415151        0.608023        0.915375
 C        -1.394800        1.649770        0.462555
 H        -1.253370        1.562120       -0.610905
 C        -2.476364        2.363668        0.964912
 H        -3.203960        2.805273        0.295670
 C        -2.607546        2.517235        2.347168
 H        -3.453752        3.088340        2.733269
 C        -2.340265        2.878196        5.433971
 C        -1.836827        4.150327        5.722473
 H        -0.854942        4.430998        5.382885
 C        -2.617087        5.056468        6.441296
 H        -2.216460        6.024454        6.687057
 C        -3.892253        4.690478        6.876839
 H        -4.492846        5.403416        7.436310
 C        -4.400605        3.414936        6.596352
 H        -5.370345        3.130848        6.954403
 C        -3.620345        2.508794        5.877529
 H        -3.993113        1.515182        5.662865
 C        -0.273616       -3.595252        6.750534
 C         0.572608       -3.414741        7.819656
 N        -0.524323       -2.324138        6.202522
 C         0.147677       -1.333820        6.885956
 N         0.816074       -2.021314        7.900795
 C         1.519624       -1.210306        8.839081
 C         1.787184        0.088048        8.383022
 C         2.697612        0.868999        9.098381
 H         3.048520        1.810225        8.678547
 C         3.305982        0.398595       10.268684
 H         4.018234        1.010353       10.790649
 C         3.007985       -0.887783       10.736149
 H         3.551411       -1.288258       11.572094
 C         2.102958       -1.681548       10.031120
 H         1.767377       -2.597988       10.483360
 C         1.007999       -4.535459        8.544796
 H         1.771834       -4.456728        9.308052
 C         0.556418       -5.815312        8.209911
 H         0.912987       -6.683197        8.757389
 C        -0.322082       -5.989835        7.136044
 H        -0.643488       -6.974946        6.856663
 C        -0.728821       -4.871691        6.402412
 H        -1.384882       -5.000892        5.558914
 C        -1.308477       -2.115130        5.012894
 C        -0.834623       -2.558353        3.779556
 H         0.134776       -3.033665        3.709282
 C        -1.601229       -2.365570        2.618717
 H        -1.229666       -2.702700        1.667309
 C        -2.848380       -1.723577        2.702137
 H        -3.423399       -1.543546        1.802895
 C        -3.322236       -1.280355        3.935471
 H        -4.294764       -0.817855        4.010857
 C        -2.555632       -1.473138        5.096310
 H        -2.897632       -1.084758        6.037746
