206
 generated by VMD
 Ir       84.655815      -13.739862       22.352648
 C        84.211792      -10.089462       24.591915
 C        83.768349       -9.813747       23.308741
 N        84.874115      -11.348412       24.482487
 C        84.703247      -11.893620       23.247150
 N        84.111725      -10.894895       22.494854
 C        84.118195      -11.193243       21.073746
 C        84.673065      -12.467386       20.726360
 C        85.168800      -12.641853       19.481529
 H        85.875946      -13.412090       19.231567
 C        85.038757      -11.643991       18.476362
 H        85.531998      -11.697443       17.547680
 C        84.374382      -10.435724       18.726952
 H        84.559227       -9.565710       18.092047
 C        83.911072      -10.234190       20.061316
 H        83.332909       -9.371595       20.197552
 C        83.104980       -8.574856       23.150967
 H        82.723907       -8.272486       22.274975
 C        82.859268       -7.668960       24.263927
 H        82.682465       -6.651587       23.981277
 C        83.316376       -8.066101       25.555416
 H        82.984131       -7.636768       26.429424
 C        84.046577       -9.237978       25.692177
 H        84.472496       -9.415192       26.662640
 C        85.809616      -11.785226       25.479792
 C        85.324120      -12.272171       26.694151
 H        84.202156      -12.491412       26.885303
 C        86.321083      -12.728319       27.596859
 H        86.156631      -13.209260       28.552397
 C        87.663483      -12.668313       27.280195
 H        88.327896      -13.170589       27.910728
 C        88.139923      -12.159028       26.070183
 H        89.166603      -11.888378       25.968357
 C        87.187485      -11.748558       25.172974
 H        87.522217      -11.265753       24.217751
 C        80.378288      -14.678463       21.847858
 C        80.978523      -15.513025       21.038403
 N        81.309402      -13.774294       22.363140
 C        82.624275      -14.069557       21.882389
 N        82.352875      -15.105755       21.074282
 C        83.475266      -15.709614       20.443804
 C        84.669029      -15.427324       21.067619
 C        85.806213      -16.225044       20.889137
 H        86.608078      -16.096117       21.576155
 C        85.709671      -17.293314       20.035217
 H        86.540741      -17.868513       19.892506
 C        84.590088      -17.577469       19.322556
 H        84.545631      -18.395428       18.671198
 C        83.432922      -16.773880       19.475227
 H        82.674904      -16.993160       18.791828
 C        80.315964      -16.554955       20.295507
 H        80.875687      -17.328648       19.755966
 C        78.904785      -16.693439       20.480986
 H        78.346916      -17.218723       19.762886
 C        78.313889      -15.878487       21.433716
 H        77.356567      -16.148548       21.815163
 C        79.000519      -14.825819       22.125563
 H        78.635193      -14.216779       22.996311
 C        81.023933      -12.826586       23.454407
 C        81.871620      -12.823503       24.561619
 H        82.700302      -13.471725       24.559128
 C        81.534164      -11.902000       25.656178
 H        81.962425      -12.025804       26.633099
 C        80.563820      -10.897093       25.531775
 H        80.228790      -10.367668       26.368713
 C        79.772049      -10.849629       24.373390
 H        78.885239      -10.247950       24.332825
 C        80.026550      -11.827547       23.372837
 H        79.370461      -11.830040       22.500980
 C        84.998123      -16.268894       25.940868
 C        86.258659      -15.862076       25.603725
 N        84.172043      -15.738863       24.922661
 C        84.921059      -15.017344       23.995415
 N        86.220749      -15.154476       24.441849
 C        87.188354      -14.612801       23.560179
 C        86.779770      -13.715895       22.608221
 C        87.708694      -12.944243       21.913406
 H        87.335342      -12.102161       21.293646
 C        89.039612      -13.066633       22.211153
 H        89.706665      -12.670729       21.498047
 C        89.512497      -13.980009       23.105711
 H        90.558128      -14.332101       23.114939
 C        88.550377      -14.712715       23.738228
 H        88.908447      -15.507254       24.403881
 C        87.336319      -16.025961       26.553036
 H        88.252609      -15.495987       26.498791
 C        87.072212      -16.624737       27.791389
 H        87.862289      -16.652178       28.475222
 C        85.736374      -16.920866       28.184887
 H        85.477333      -17.305719       29.231636
 C        84.713821      -16.743378       27.211510
 H        83.765533      -16.654024       27.559198
 C        82.850708      -16.136259       24.739498
 C        82.540253      -16.936060       23.647331
 H        83.345627      -17.464169       23.140030
 C        81.276093      -17.399469       23.416508
 H        81.047409      -18.035442       22.550114
 C        80.282043      -17.093290       24.371971
 H        79.369843      -17.671808       24.408134
 C        80.582581      -16.177795       25.378025
 H        79.756104      -15.898546       26.062023
 C        81.859116      -15.719252       25.613655
 H        82.099358      -15.125090       26.511959
 Ir       84.655815      -13.739861       33.189053
 C        86.248444      -17.600826       31.918789
 C        87.273132      -16.728045       31.870193
 N        85.145332      -16.899017       32.661224
 C        85.526505      -15.615549       32.979530
 N        86.865753      -15.495987       32.419258
 C        87.340759      -14.110876       32.203747
 C        86.301483      -13.176714       31.977139
 C        86.546677      -11.965755       31.303299
 H        85.719162      -11.276451       31.074036
 C        87.963547      -11.671629       30.927971
 H        88.264557      -10.664406       30.819359
 C        88.963821      -12.546650       31.252460
 H        90.036987      -12.411757       30.955933
 C        88.669395      -13.753603       31.849098
 H        89.539200      -14.252739       32.224476
 C        88.441391      -17.139732       31.337009
 H        89.322906      -16.606894       31.333588
 C        88.576630      -18.337578       30.711971
 H        89.500687      -18.616238       30.297375
 C        87.543961      -19.334654       30.738491
 H        87.463974      -20.232227       30.077156
 C        86.402748      -18.964050       31.493214
 H        85.701477      -19.741020       31.700638
 C        84.329475      -17.687551       33.609482
 C        82.939514      -17.501562       33.736080
 H        82.558304      -16.791508       33.065258
 C        82.192993      -18.242552       34.699581
 H        81.092194      -18.175125       34.772945
 C        82.891434      -19.045238       35.541531
 H        82.424118      -19.323996       36.483082
 C        84.203224      -19.374855       35.345932
 H        84.688416      -20.115845       35.863354
 C        84.941528      -18.639734       34.418457
 H        85.964081      -18.823446       34.158398
 C        86.277977      -12.346643       36.933975
 C        85.342201      -11.458021       36.582012
 N        86.448456      -13.252542       35.848259
 C        85.643692      -12.890478       34.771469
 N        84.978806      -11.781574       35.255573
 C        84.281052      -11.017559       34.268692
 C        83.939255      -11.739607       33.148727
 C        83.403778      -11.032869       32.081306
 H        83.011780      -11.613428       31.233849
 C        83.219360       -9.596350       32.159431
 H        82.737808       -9.085199       31.358353
 C        83.598633       -8.866568       33.294762
 H        83.429214       -7.778727       33.355595
 C        84.176620       -9.584906       34.303379
 H        84.702194       -9.011080       35.049770
 C        84.879402      -10.542114       37.536022
 H        84.182579       -9.713911       37.256519
 C        85.473427      -10.508959       38.765102
 H        85.198837       -9.749283       39.533993
 C        86.417641      -11.426792       39.169746
 H        86.871170      -11.442770       40.128368
 C        86.780609      -12.340696       38.204380
 H        87.330383      -13.178774       38.665218
 C        87.500916      -14.172829       35.846973
 C        87.195976      -15.419451       36.326496
 H        86.285706      -15.503210       36.837856
 C        88.162933      -16.414486       36.324051
 H        87.876183      -17.369574       36.677574
 C        89.470039      -16.235918       35.968689
 H        90.109177      -17.030907       36.118301
 C        89.772064      -14.946617       35.539864
 H        90.772888      -14.705902       35.307903
 C        88.800056      -13.950447       35.410881
 H        88.966309      -13.050360       34.812710
 C        81.024933      -14.987761       35.115860
 C        80.623001      -14.855813       33.829849
 N        82.332855      -14.587362       35.232609
 C        82.835182      -14.196638       34.064701
 N        81.759949      -14.323288       33.210178
 C        82.073509      -14.246889       31.814743
 C        83.463913      -14.287973       31.542530
 C        83.861099      -14.343740       30.172409
 H        84.903839      -14.503250       29.968088
 C        82.904694      -14.460516       29.146763
 H        83.227272      -14.407870       28.099258
 C        81.513123      -14.478713       29.445137
 H        80.845261      -14.702724       28.628880
 C        81.186577      -14.323856       30.775356
 H        80.167564      -13.924497       31.015842
 C        79.365631      -15.375364       33.441536
 H        78.900436      -15.141735       32.421337
 C        78.542061      -15.987057       34.339123
 H        77.690598      -16.517481       33.955647
 C        78.931526      -16.003447       35.649445
 H        78.268097      -16.462500       36.372517
 C        80.157303      -15.455826       36.126717
 H        80.443993      -15.697189       37.182632
 C        82.929085      -14.493061       36.497135
 C        82.590454      -13.350632       37.236042
 H        82.029144      -12.535892       36.802078
 C        82.813362      -13.291269       38.615063
 H        82.291122      -12.574993       39.228748
 C        83.580765      -14.338400       39.177563
 H        83.524940      -14.511612       40.227459
 C        84.056671      -15.409950       38.406597
 H        84.386475      -16.242296       39.023556
 C        83.698624      -15.516851       37.036171
 H        83.728958      -16.544863       36.561962
