206
 generated by VMD
 Ir       45.754936     -121.325417       73.184219
 C        43.206955     -121.294052       76.758820
 C        43.502598     -120.022293       76.482536
 N        43.896008     -122.066940       75.776085
 C        44.657902     -121.265396       74.949799
 N        44.449142     -120.022598       75.482307
 C        45.318077     -118.964989       75.010391
 C        45.889320     -119.279716       73.800461
 C        46.705254     -118.307465       73.146042
 H        47.111809     -118.587204       72.228943
 C        46.945198     -117.057274       73.744247
 H        47.585777     -116.325706       73.209488
 C        46.286331     -116.738770       74.957031
 H        46.613892     -115.875702       75.428116
 C        45.410294     -117.704536       75.544785
 H        44.845604     -117.369904       76.369789
 C        42.828117     -119.056229       77.202454
 H        42.911934     -118.038284       76.889961
 C        41.893661     -119.409119       78.199432
 H        41.274242     -118.673935       78.707794
 C        41.779121     -120.743607       78.582336
 H        41.092369     -121.056534       79.388397
 C        42.368355     -121.687515       77.843918
 H        42.368790     -122.710587       78.226952
 C        43.563347     -123.431740       75.565262
 C        42.201263     -123.741501       75.362122
 H        41.636337     -123.097557       74.758133
 C        41.793671     -125.081726       75.585678
 H        40.803673     -125.494484       75.344574
 C        42.708023     -126.121391       75.878189
 H        42.430763     -127.103897       75.497139
 C        44.051727     -125.837868       75.972382
 H        44.857239     -126.513786       75.807465
 C        44.443787     -124.483322       75.918686
 H        45.454422     -124.186081       76.174950
 C        42.808533     -120.187126       70.155632
 C        43.886917     -120.560226       69.420250
 N        43.133034     -120.256805       71.518112
 C        44.427723     -120.729729       71.666901
 N        44.931313     -120.909332       70.444099
 C        46.241829     -121.122131       70.350449
 C        46.982857     -121.079300       71.528389
 C        48.436676     -120.917633       71.520462
 H        48.823463     -120.398697       72.441605
 C        49.063503     -121.058929       70.316292
 H        50.099747     -120.727310       70.192871
 C        48.241867     -121.291023       69.191093
 H        48.792671     -121.315758       68.266266
 C        46.885475     -121.343506       69.172821
 H        46.381851     -121.699867       68.303818
 C        43.707390     -120.807999       67.987717
 H        44.465981     -121.319679       67.462624
 C        42.427490     -120.735306       67.420731
 H        42.251450     -120.953079       66.370399
 C        41.331554     -120.372772       68.191895
 H        40.448387     -120.336121       67.694229
 C        41.568554     -119.998764       69.505424
 H        40.745087     -119.472755       70.016891
 C        42.177395     -119.850830       72.613983
 C        42.366776     -118.653267       73.236145
 H        43.250076     -118.075073       73.102081
 C        41.484619     -118.349548       74.270813
 H        41.636139     -117.435654       74.841034
 C        40.409325     -119.105545       74.736130
 H        39.880501     -119.071609       75.727539
 C        40.216908     -120.266304       74.042297
 H        39.385620     -120.890350       74.152000
 C        41.088940     -120.677704       72.979271
 H        41.079407     -121.709679       72.754013
 C        45.406147     -125.702293       72.708488
 C        46.497841     -125.472160       73.543564
 N        45.020897     -124.404144       72.201149
 C        45.783195     -123.369606       72.793457
 N        46.737984     -124.020782       73.603233
 C        47.742920     -123.300987       74.316673
 C        47.316025     -121.940254       74.514351
 C        48.188999     -121.139320       75.273643
 H        48.008049     -120.106285       75.291260
 C        49.306084     -121.607574       75.884430
 H        49.777573     -120.763954       76.420341
 C        49.730549     -122.897430       75.728821
 H        50.754017     -123.187126       76.033409
 C        48.948818     -123.763809       74.913918
 H        49.237724     -124.763809       74.908691
 C        47.132324     -126.622818       74.149551
 H        47.884556     -126.536407       74.879189
 C        46.582039     -127.892159       73.893707
 H        47.019894     -128.686005       74.438675
 C        45.484184     -128.149887       73.081001
 H        45.253296     -129.184875       72.791031
 C        44.986519     -127.030449       72.407150
 H        44.073448     -127.398270       71.876114
 C        43.971146     -124.213974       71.292656
 C        44.116810     -124.384995       69.896896
 H        45.131210     -124.242325       69.458328
 C        42.980461     -124.532486       69.053116
 H        43.152905     -124.878281       68.043671
 C        41.698399     -124.419678       69.625824
 H        40.847702     -124.317284       69.057297
 C        41.566689     -124.221069       71.028183
 H        40.748863     -123.688416       71.424225
 C        42.703854     -124.161499       71.768188
 H        42.640717     -123.849632       72.779297
 Ir       45.754940     -121.325417       83.394737
 C        49.760521     -120.900589       81.602676
 C        49.066307     -121.783867       80.764236
 N        48.867180     -120.553581       82.692146
 C        47.594486     -121.162544       82.475311
 N        47.791092     -121.934975       81.335098
 C        46.612755     -122.736664       80.906479
 C        45.428085     -122.513474       81.660095
 C        44.182686     -123.101318       81.342712
 H        43.296494     -122.715866       81.726089
 C        44.237015     -123.926544       80.178642
 H        43.232178     -124.293304       79.806908
 C        45.401344     -124.186531       79.409790
 H        45.514618     -124.968460       78.561234
 C        46.598976     -123.625076       79.802155
 H        47.463902     -123.884460       79.300232
 C        49.634735     -122.080200       79.513641
 H        49.077038     -122.414391       78.742027
 C        50.850723     -121.568207       79.134758
 H        51.217480     -121.760040       78.176590
 C        51.546455     -120.725655       80.003860
 H        52.450203     -120.245781       79.646835
 C        51.001839     -120.378036       81.216980
 H        51.424683     -119.487228       81.703857
 C        49.190514     -119.411072       83.609650
 C        50.082455     -119.639694       84.664154
 H        50.514729     -120.634262       84.848183
 C        50.350830     -118.593094       85.492889
 H        50.966812     -118.735451       86.300606
 C        49.820747     -117.376831       85.376602
 H        49.966015     -116.591736       86.134888
 C        48.992054     -117.134941       84.284370
 H        48.785484     -116.108398       84.049988
 C        48.668552     -118.156662       83.377266
 H        47.759354     -118.222412       82.741631
 C        43.536057     -118.175964       81.402756
 C        42.657146     -118.694138       82.291580
 N        44.743473     -118.931358       81.523239
 C        44.633080     -119.863045       82.515991
 N        43.313385     -119.817200       82.933136
 C        42.830254     -120.827011       83.798340
 C        43.800674     -121.819313       84.137909
 C        43.383347     -123.066490       84.674751
 H        44.176598     -123.783279       84.782379
 C        42.060707     -123.354080       84.916641
 H        41.555607     -124.301758       84.886826
 C        41.149078     -122.345940       84.644096
 H        40.084663     -122.433411       84.806168
 C        41.544823     -121.055481       84.123413
 H        40.733719     -120.343971       83.999878
 C        41.477966     -117.976906       82.422386
 H        40.858299     -118.356636       83.168991
 C        41.186871     -116.897736       81.661903
 H        40.359898     -116.253479       82.050049
 C        42.103668     -116.332199       80.752525
 H        41.750572     -115.434448       80.184753
 C        43.291508     -117.034958       80.588318
 H        44.048264     -116.794121       79.784134
 C        45.745262     -118.899986       80.425308
 C        45.601288     -119.811012       79.418137
 H        44.661041     -120.362968       79.381119
 C        46.551941     -119.999069       78.406456
 H        46.446316     -120.795929       77.689270
 C        47.672527     -119.188026       78.312119
 H        48.464390     -119.485565       77.684891
 C        47.776588     -118.157562       79.267899
 H        48.682938     -117.617523       79.365814
 C        46.787933     -117.985336       80.289810
 H        46.884674     -117.184555       81.009377
 C        46.665825     -119.349396       87.053726
 C        47.518700     -120.374580       87.052124
 N        45.702797     -119.516190       86.090836
 C        46.044502     -120.577415       85.336166
 N        47.084648     -121.194214       85.988358
 C        47.270679     -122.535645       85.658707
 C        46.613853     -122.877678       84.447769
 C        46.801819     -124.163910       84.034760
 H        46.183067     -124.563850       83.227791
 C        47.569626     -125.123947       84.698074
 H        47.525242     -126.152000       84.378647
 C        48.202160     -124.707115       85.905205
 H        48.453232     -125.443657       86.666100
 C        48.033791     -123.430084       86.406143
 H        48.552929     -123.131485       87.302040
 C        48.625046     -120.453003       87.903969
 H        49.262749     -121.306564       87.867043
 C        48.816734     -119.426300       88.856888
 H        49.754639     -119.348633       89.412315
 C        47.879131     -118.357986       88.933060
 H        47.959763     -117.621597       89.698395
 C        46.825867     -118.284698       88.035873
 H        46.175377     -117.404892       88.065880
 C        44.616615     -118.600342       85.906677
 C        44.863789     -117.358742       85.374184
 H        45.831394     -117.023193       85.031052
 C        43.862244     -116.395538       85.343300
 H        44.099693     -115.340637       85.248352
 C        42.562332     -116.716003       85.765472
 H        41.883575     -115.884903       85.937698
 C        42.310379     -117.949753       86.351021
 H        41.249046     -118.163300       86.564041
 C        43.312115     -118.886719       86.423279
 H        43.064617     -119.843292       86.779816
