206
 generated by VMD
 Ir       53.020523       47.343742      102.836899
 C        57.112396       46.218521      103.515259
 C        56.349709       45.340984      104.284180
 N        56.222893       47.239323      103.053802
 C        54.919582       46.924850      103.393784
 N        55.071732       45.793213      104.200104
 C        53.935120       45.019238      104.463493
 C        52.738777       45.704002      104.122963
 C        51.536667       45.442070      104.796265
 H        50.604660       46.036507      104.638123
 C        51.508026       44.402420      105.743469
 H        50.625301       44.256378      106.343536
 C        52.618446       43.642239      105.999573
 H        52.630394       42.989403      106.897491
 C        53.799530       43.948021      105.320343
 H        54.434574       43.078163      105.304245
 C        57.002831       44.286686      105.032700
 H        56.507183       43.760902      105.870605
 C        58.369164       44.104675      104.946548
 H        58.969048       43.574848      105.681076
 C        59.054642       44.869102      104.019699
 H        60.172501       44.916790      103.983582
 C        58.482430       45.969872      103.361694
 H        59.211433       46.625435      102.791000
 C        56.701267       48.534988      102.708832
 C        56.418427       49.507244      103.650116
 H        55.829170       49.254204      104.475861
 C        56.559898       50.886166      103.226593
 H        56.568550       51.739304      103.939758
 C        56.923653       51.146332      101.903877
 H        56.967453       52.139297      101.536057
 C        57.303257       50.133713      101.096779
 H        58.108044       50.460457      100.355392
 C        57.224293       48.817986      101.428650
 H        57.624542       48.196526      100.675140
 C        52.748844       44.696991       99.438446
 C        51.538361       45.346542       99.461182
 N        53.511429       45.131844      100.557449
 C        52.786324       46.045296      101.249260
 N        51.523659       46.160019      100.706100
 C        50.523338       46.922577      101.291649
 C        50.940826       47.511662      102.515129
 C        50.005184       48.258408      103.226639
 H        50.322662       48.648453      104.209732
 C        48.736908       48.530998      102.690308
 H        48.120724       49.287544      103.218369
 C        48.375542       47.986671      101.430130
 H        47.353035       48.162781      101.130203
 C        49.243538       47.141670      100.737839
 H        49.017189       46.756023       99.801399
 C        50.624611       45.029140       98.431366
 H        49.770473       45.670914       98.414635
 C        50.755806       44.027031       97.469719
 H        49.978306       43.729736       96.746399
 C        51.955147       43.351158       97.460518
 H        52.268814       42.720047       96.639114
 C        52.931984       43.658958       98.397980
 H        53.916611       43.084778       98.350647
 C        54.802299       44.591812      100.924759
 C        55.926662       45.152756      100.377350
 H        56.102760       46.211395      100.430939
 C        57.156044       44.537453      100.237274
 H        58.022957       45.109665       99.876663
 C        57.318062       43.231380      100.764168
 H        58.308105       42.721260      100.631577
 C        56.213356       42.637093      101.366371
 H        56.404522       41.671356      101.810677
 C        54.944248       43.283970      101.476028
 H        54.064915       42.816078      101.977585
 C        53.555214       51.104553      100.755981
 C        53.300209       51.484695      102.009567
 N        53.437141       49.764381      100.742058
 C        53.091171       49.220963      101.964523
 N        52.941620       50.360840      102.728210
 C        52.707600       50.105068      104.129356
 C        52.924561       48.763126      104.432220
 C        53.188290       48.458405      105.763748
 H        53.721481       47.462154      105.950012
 C        53.059090       49.376305      106.770164
 H        53.283035       48.999802      107.678070
 C        52.694130       50.727844      106.489731
 H        52.726009       51.466053      107.316254
 C        52.521034       51.116776      105.189697
 H        52.177872       52.129749      104.992920
 C        53.508842       52.771271      102.385452
 H        53.414249       52.924385      103.381302
 C        54.021545       53.656685      101.448196
 H        54.231232       54.677540      101.744141
 C        54.335293       53.285332      100.186188
 H        55.091949       53.814602       99.629105
 C        54.045799       51.951374       99.814110
 H        54.036011       51.609673       98.771973
 C        53.190136       48.996414       99.547516
 C        54.189030       48.123322       99.026627
 H        55.184608       48.241890       99.375000
 C        53.987007       47.373798       97.808929
 H        54.794525       46.720711       97.536179
 C        52.730522       47.493828       97.148148
 H        52.586121       47.124901       96.112175
 C        51.744598       48.294983       97.731949
 H        50.896744       48.390560       97.094055
 C        51.941071       49.096287       98.846260
 H        51.220108       49.873039       99.186951
 Ir       53.020523       47.343742      113.093918
 C        49.650520       45.485062      110.893898
 C        50.597637       45.847874      109.948204
 N        50.217461       45.939110      112.140381
 C        51.518791       46.442059      112.054504
 N        51.762959       46.299652      110.641037
 C        53.226799       46.149311      110.342079
 C        54.054581       46.854382      111.271790
 C        55.439232       46.779411      111.069000
 H        55.895836       47.314289      111.820206
 C        56.030663       46.159866      109.988922
 H        57.120316       46.179520      109.845490
 C        55.200962       45.424084      109.108734
 H        55.558357       44.836872      108.187027
 C        53.811005       45.449951      109.270775
 H        53.084480       45.040405      108.548462
 C        50.155468       45.961334      108.644592
 H        50.745770       46.637962      107.911972
 C        48.962654       45.519108      108.221115
 H        48.570740       45.683342      107.249763
 C        48.047741       45.024746      109.159164
 H        47.092743       44.708862      108.792969
 C        48.337624       45.060310      110.553329
 H        47.813499       44.372314      111.237030
 C        49.718536       45.497383      113.375549
 C        49.369473       44.179844      113.673615
 H        49.691689       43.488159      113.014862
 C        48.585228       43.871384      114.814804
 H        48.022217       42.953789      114.916473
 C        48.167236       44.897141      115.652786
 H        47.737926       44.714268      116.598907
 C        48.525772       46.231350      115.343216
 H        48.085102       47.073021      115.878387
 C        49.295364       46.480148      114.251289
 H        49.214195       47.476601      113.846451
 C        55.684299       44.046326      114.342468
 C        56.304298       45.165485      114.753662
 N        54.425583       44.455719      113.873169
 C        54.272820       45.852825      113.885651
 N        55.442390       46.279190      114.510391
 C        55.561104       47.658768      114.712311
 C        54.660507       48.442898      113.855301
 C        54.766991       49.835659      113.961960
 H        54.147049       50.476822      113.346191
 C        55.642330       50.402161      114.912567
 H        55.815254       51.455547      114.938538
 C        56.379402       49.620605      115.795128
 H        57.057812       50.005547      116.607330
 C        56.365425       48.221733      115.686249
 H        56.951656       47.594559      116.390152
 C        57.609726       45.018330      115.276337
 H        57.993073       45.734764      115.943474
 C        58.303829       43.837185      115.109863
 H        59.389145       43.744434      115.364990
 C        57.634544       42.734745      114.491089
 H        58.278725       41.993103      114.007668
 C        56.302246       42.826584      114.126892
 H        55.793884       41.983757      113.643044
 C        53.396767       43.582932      113.360657
 C        53.301613       43.450928      112.013168
 H        53.930164       43.986362      111.281303
 C        52.537613       42.416840      111.493683
 H        52.712097       42.121666      110.479477
 C        51.821701       41.573505      112.315910
 H        51.138557       40.813927      111.887016
 C        51.898285       41.699345      113.717407
 H        51.419647       41.063076      114.487457
 C        52.747154       42.734341      114.212486
 H        53.273140       42.556118      115.178345
 C        50.876076       48.156715      116.626358
 C        50.643181       49.247078      115.902374
 N        51.783295       47.359955      115.949364
 C        52.233543       47.962982      114.899155
 N        51.471710       49.169640      114.786057
 C        51.517418       49.879608      113.566406
 C        52.068993       49.163578      112.487534
 C        52.006992       49.665665      111.225647
 H        52.352371       49.104774      110.271339
 C        51.444778       50.920670      110.964523
 H        51.306702       51.260399      109.952332
 C        50.934273       51.708637      112.024986
 H        50.307762       52.535606      111.794739
 C        50.927711       51.153000      113.370132
 H        50.657745       51.942028      114.091278
 C        49.650162       50.105320      116.258812
 H        49.586273       51.125465      115.832993
 C        48.876980       49.816158      117.402298
 H        48.271015       50.530624      117.886497
 C        49.033848       48.693314      118.155701
 H        48.799610       48.555199      119.179535
 C        50.101967       47.799156      117.739517
 H        50.216522       46.873730      118.213913
 C        52.298622       46.160072      116.582062
 C        53.449692       46.230289      117.370865
 H        53.893417       47.218811      117.508453
 C        53.816032       45.190796      118.200241
 H        54.702213       45.310120      118.807312
 C        53.024712       44.049507      118.233063
 H        53.279533       43.219662      118.883240
 C        51.828873       43.973984      117.530090
 H        51.194519       43.146713      117.608292
 C        51.462532       45.013481      116.700729
 H        50.848114       44.914467      115.920929
