206
 generated by VMD
 Ir      -38.022743      112.666908       81.810226
 C       -39.564495      116.575104       82.540634
 C       -38.750725      116.797607       81.466675
 N       -39.720554      115.254227       82.818123
 C       -38.916649      114.518951       81.934654
 N       -38.360531      115.532288       81.084915
 C       -37.560299      115.025177       80.071716
 C       -37.002129      113.734360       80.304802
 C       -35.950768      113.257996       79.453445
 H       -35.347916      112.316055       79.677567
 C       -35.654137      113.961800       78.303284
 H       -34.951828      113.496582       77.585472
 C       -36.215965      115.191254       78.017090
 H       -36.055107      115.667702       77.080658
 C       -37.207596      115.747253       78.896591
 H       -37.785633      116.627808       78.683304
 C       -38.602074      118.116203       80.962601
 H       -38.057770      118.323532       80.041489
 C       -39.203262      119.174980       81.580635
 H       -38.998680      120.112595       81.051651
 C       -39.987595      118.939453       82.707161
 H       -40.473446      119.765244       83.153412
 C       -40.185165      117.676727       83.178291
 H       -40.927094      117.492233       83.924683
 C       -40.855576      114.787323       83.520638
 C       -42.111439      114.970245       82.985252
 H       -42.274849      115.684273       82.171326
 C       -43.237991      114.499588       83.684006
 H       -44.183376      114.631073       83.207382
 C       -43.155708      113.874069       84.917191
 H       -43.863739      113.224655       85.407654
 C       -41.861282      113.666840       85.457298
 H       -41.867882      113.094894       86.357880
 C       -40.723484      114.150528       84.797333
 H       -39.901554      114.480469       85.438393
 C       -40.262440      110.324081       78.932495
 C       -38.976017      109.673950       78.994499
 N       -40.061260      111.551910       79.565384
 C       -38.860271      111.616486       80.234680
 N       -38.224895      110.411469       79.918869
 C       -37.090816      110.092102       80.661758
 C       -36.688919      111.018852       81.621246
 C       -35.510372      110.706741       82.377167
 H       -35.117424      111.367447       83.077911
 C       -34.803890      109.477417       82.139160
 H       -33.870983      109.290329       82.643234
 C       -35.245251      108.528641       81.219147
 H       -34.559082      107.754440       81.012085
 C       -36.402168      108.823975       80.475487
 H       -36.801529      107.959396       79.963684
 C       -38.719963      108.644043       78.103241
 H       -37.707272      108.282501       77.925911
 C       -39.826912      108.069962       77.304489
 H       -39.563801      107.333900       76.639969
 C       -41.116425      108.644226       77.364273
 H       -41.917202      108.126953       76.877991
 C       -41.307442      109.798080       78.171829
 H       -42.269459      110.255768       78.260910
 C       -40.757000      112.714752       79.098007
 C       -41.860554      113.122498       79.874084
 H       -42.048973      112.629517       80.844696
 C       -42.437866      114.389542       79.780884
 H       -43.485611      114.662460       80.127090
 C       -41.838100      115.306198       78.966446
 H       -42.122555      116.371277       78.830399
 C       -40.809086      114.913498       78.114090
 H       -40.453747      115.415192       77.244293
 C       -40.232403      113.655716       78.196617
 H       -39.235046      113.633530       77.752449
 C       -39.875130      110.680542       85.229584
 C       -38.817101      111.375076       85.798340
 N       -39.825584      110.898483       83.850113
 C       -38.698570      111.637192       83.468613
 N       -38.090786      111.906174       84.697662
 C       -36.937389      112.721573       84.643768
 C       -36.865578      113.366837       83.418579
 C       -35.918835      114.385406       83.281570
 H       -35.889069      114.977631       82.359726
 C       -35.023109      114.700851       84.261963
 H       -34.405815      115.569031       84.304504
 C       -34.948792      113.960114       85.433014
 H       -34.059830      114.039055       86.077072
 C       -35.907791      112.938034       85.652115
 H       -35.998646      112.567276       86.666840
 C       -38.726955      111.436874       87.159393
 H       -37.872498      111.892502       87.588928
 C       -39.687271      110.754028       87.992111
 H       -39.705742      110.858383       89.040283
 C       -40.781940      110.057739       87.395874
 H       -41.361168      109.545563       88.091705
 C       -40.948330      110.089157       86.035934
 H       -41.836967      109.652321       85.643509
 C       -40.590538      110.181503       82.953789
 C       -40.104450      109.019058       82.233757
 H       -39.361885      108.457840       82.789749
 C       -41.014442      108.265831       81.445816
 H       -40.602112      107.382721       80.944717
 C       -42.376621      108.663498       81.253334
 H       -42.927841      108.038910       80.612122
 C       -42.809380      109.766312       81.993408
 H       -43.860638      109.925476       82.100327
 C       -41.938576      110.553116       82.765961
 H       -42.454838      111.340363       83.368073
 Ir      -38.022743      112.666916       95.471886
 C       -37.832310      108.999374       93.164871
 C       -38.801430      109.641312       92.523682
 N       -37.454361      109.740807       94.255432
 C       -38.055130      110.930237       94.293106
 N       -38.938972      110.909836       93.230789
 C       -39.750774      112.081284       93.077827
 C       -39.767284      112.841385       94.245544
 C       -40.792274      113.776749       94.406448
 H       -40.821198      114.259811       95.371704
 C       -41.753250      114.029900       93.455124
 H       -42.488789      114.755768       93.519966
 C       -41.653763      113.312096       92.272346
 H       -42.175575      113.769768       91.519516
 C       -40.654152      112.389755       92.067993
 H       -40.588779      111.795242       91.163132
 C       -39.457211      109.122131       91.436417
 H       -40.442364      109.399200       91.229294
 C       -38.935516      107.969223       90.919464
 H       -39.489689      107.505920       90.137268
 C       -37.906513      107.291702       91.544937
 H       -37.477638      106.464188       91.025543
 C       -37.300888      107.824173       92.665482
 H       -36.492687      107.374146       93.257927
 C       -36.404121      109.271713       95.145126
 C       -35.137276      109.819046       95.029762
 H       -35.071251      110.901306       95.000351
 C       -33.966785      109.123398       95.274765
 H       -33.084320      109.339172       94.706619
 C       -34.096668      107.828827       95.770477
 H       -33.271507      107.210938       96.037918
 C       -35.359493      107.278000       96.004471
 H       -35.361031      106.306000       96.519653
 C       -36.534988      107.988434       95.706963
 H       -37.446178      107.392860       95.740562
 C       -35.969643      115.421028       92.904572
 C       -36.479851      116.222107       93.930908
 N       -36.497833      114.098007       93.117905
 C       -37.240772      114.085136       94.247894
 N       -37.220325      115.324783       94.808022
 C       -37.815754      115.532562       96.102203
 C       -38.363708      114.358871       96.652740
 C       -38.951855      114.523804       97.899887
 H       -39.321968      113.666901       98.480698
 C       -39.090584      115.753250       98.563751
 H       -39.809261      115.758118       99.332626
 C       -38.492172      116.908142       98.012627
 H       -38.711327      117.896141       98.471466
 C       -37.787216      116.768723       96.790085
 H       -37.066528      117.459503       96.578598
 C       -36.341522      117.610397       93.891205
 H       -36.507484      118.238770       94.775177
 C       -35.897804      118.205704       92.675537
 H       -36.201355      119.250488       92.569893
 C       -35.297779      117.463715       91.685822
 H       -34.689011      117.906990       90.965897
 C       -35.269112      116.026520       91.804420
 H       -34.800774      115.575150       90.971878
 C       -36.004879      112.954086       92.394821
 C       -34.698841      112.532928       92.776497
 H       -34.123398      113.044296       93.505440
 C       -34.005951      111.568283       92.084778
 H       -33.053322      111.228378       92.361130
 C       -34.681377      110.980492       90.995331
 H       -34.250908      110.130676       90.475220
 C       -35.964554      111.427444       90.559677
 H       -36.573586      110.986694       89.790962
 C       -36.619656      112.494003       91.234573
 H       -37.497379      112.881454       90.760658
 C       -35.124912      112.370636       98.746185
 C       -36.215397      111.689529       99.231827
 N       -35.360970      112.745972       97.417274
 C       -36.582848      112.278923       96.943382
 N       -37.114464      111.598495       98.099663
 C       -38.341900      110.970428       97.880020
 C       -39.187595      111.503311       96.855453
 C       -40.468178      110.983505       96.779892
 H       -41.293854      111.392700       96.162392
 C       -40.841728      109.826050       97.493591
 H       -41.873985      109.545135       97.657745
 C       -39.959167      109.184937       98.337540
 H       -39.979153      108.085892       98.434013
 C       -38.743958      109.811249       98.584518
 H       -38.026749      109.426895       99.305069
 C       -36.186836      111.185013      100.488945
 H       -37.063923      110.727493      100.912399
 C       -35.083706      111.296722      101.289398
 H       -35.008026      110.609024      102.065750
 C       -33.892960      111.947739      100.846672
 H       -33.200249      112.363907      101.589066
 C       -33.935070      112.528404       99.562759
 H       -33.078289      112.924812       99.181183
 C       -34.240726      113.311035       96.557129
 C       -34.154068      114.578064       96.124451
 H       -35.028252      115.180252       96.240097
 C       -33.008030      115.005890       95.406075
 H       -32.989079      116.013481       95.080177
 C       -32.024113      114.133636       95.143036
 H       -31.182518      114.462906       94.582138
 C       -32.070942      112.823769       95.601761
 H       -31.290161      112.106369       95.232162
 C       -33.197517      112.351364       96.355263
 H       -33.254826      111.418442       96.785812
