206
 generated by VMD
 Ir       30.824230      -37.383102      -59.542114
 C        27.172012      -39.235252      -60.886040
 C        26.881313      -38.656960      -59.746319
 N        28.543541      -39.048584      -61.143250
 C        29.056753      -38.314209      -60.090538
 N        28.016533      -38.077057      -59.240356
 C        28.346848      -37.695290      -57.907974
 C        29.564602      -36.984592      -57.878227
 C        29.932465      -36.359077      -56.678806
 H        30.896227      -35.883476      -56.595959
 C        29.135876      -36.395958      -55.550674
 H        29.643490      -36.191338      -54.625332
 C        27.954067      -37.133339      -55.560524
 H        27.397202      -37.296135      -54.692535
 C        27.552509      -37.772560      -56.787815
 H        26.862617      -38.601196      -56.773384
 C        25.540527      -38.581429      -59.303619
 H        25.353413      -38.104862      -58.346706
 C        24.541962      -39.161018      -60.035908
 H        23.606903      -39.309792      -59.521294
 C        24.809547      -39.834167      -61.240967
 H        24.052422      -40.565144      -61.577164
 C        26.147106      -39.815575      -61.672234
 H        26.372517      -40.336849      -62.617569
 C        29.248102      -39.821945      -62.055885
 C        29.795528      -39.229362      -63.184807
 H        29.651196      -38.174957      -63.299232
 C        30.615593      -39.975311      -64.028107
 H        31.137722      -39.490131      -64.883484
 C        30.891853      -41.318542      -63.755322
 H        31.577248      -41.867546      -64.342545
 C        30.247391      -41.840096      -62.687546
 H        30.324440      -42.899567      -62.629215
 C        29.436478      -41.178528      -61.803051
 H        28.974594      -41.691849      -61.013832
 C        30.001747      -33.463177      -61.081856
 C        31.219065      -33.329704      -60.498657
 N        29.441498      -34.730263      -60.753803
 C        30.302048      -35.415680      -60.011135
 N        31.360046      -34.522835      -59.820450
 C        32.405849      -34.894150      -58.961079
 C        32.525959      -36.316757      -58.944839
 C        33.635239      -36.925053      -58.347031
 H        33.837708      -38.004738      -58.401657
 C        34.579758      -36.105316      -57.717735
 H        35.313919      -36.554184      -57.042660
 C        34.495674      -34.714447      -57.751144
 H        35.232166      -34.181767      -57.231503
 C        33.346546      -34.114441      -58.318241
 H        33.330116      -33.068993      -58.112888
 C        32.115459      -32.306423      -60.876366
 H        32.960751      -32.184830      -60.300430
 C        31.747795      -31.380911      -61.855728
 H        32.546246      -30.765121      -62.291359
 C        30.435656      -31.423857      -62.397526
 H        30.116816      -30.726921      -63.108246
 C        29.618401      -32.509888      -62.005699
 H        28.699514      -32.621002      -62.504997
 C        28.006741      -34.897133      -60.677456
 C        27.319283      -35.132812      -61.922626
 H        27.825338      -35.073891      -62.868263
 C        25.909645      -35.094872      -61.898430
 H        25.367386      -35.481949      -62.774689
 C        25.218670      -34.866684      -60.665958
 H        24.091942      -34.903419      -60.760452
 C        25.846996      -34.694107      -59.468948
 H        25.353016      -34.748711      -58.529274
 C        27.254963      -34.834831      -59.487228
 H        27.731400      -34.807243      -58.451492
 C        33.558846      -38.684605      -62.749382
 C        33.415844      -39.771675      -61.948677
 N        32.677864      -37.741814      -62.205490
 C        31.980980      -38.137878      -61.136059
 N        32.451599      -39.420914      -60.962780
 C        32.094017      -40.035133      -59.733402
 C        31.524227      -39.206940      -58.709274
 C        31.458519      -39.632912      -57.372772
 H        31.033119      -38.979309      -56.602356
 C        32.034901      -40.823601      -56.985291
 H        31.924728      -41.178963      -56.006470
 C        32.534618      -41.668362      -57.945267
 H        32.992085      -42.559753      -57.615032
 C        32.475822      -41.358139      -59.282429
 H        32.793808      -42.064743      -60.040451
 C        34.252865      -40.965034      -62.226521
 H        34.063465      -41.961327      -61.923820
 C        35.083031      -40.964226      -63.363152
 H        35.759777      -41.750031      -63.367836
 C        35.175678      -39.809349      -64.132751
 H        35.766617      -39.820724      -64.974213
 C        34.400906      -38.696770      -63.854546
 H        34.623074      -37.780220      -64.383675
 C        32.827087      -36.348503      -62.586697
 C        34.061760      -35.842255      -62.469688
 H        34.916519      -36.325058      -61.927296
 C        34.341103      -34.619942      -63.164467
 H        35.215549      -34.046200      -62.838947
 C        33.413212      -33.907112      -63.889442
 H        33.772163      -33.190376      -64.571747
 C        32.124344      -34.412994      -63.998524
 H        31.295128      -33.743725      -64.337013
 C        31.799309      -35.658394      -63.362728
 H        30.705204      -35.785240      -63.204800
 Ir       30.824230      -37.383102      -46.737766
 C        27.030109      -35.625828      -45.849895
 C        27.601654      -35.784298      -44.672600
 N        27.828129      -36.248112      -46.799118
 C        28.919514      -36.848114      -46.248329
 N        28.789635      -36.531227      -44.905380
 C        29.776745      -37.071297      -43.985355
 C        30.955208      -37.498093      -44.625961
 C        32.076862      -37.920273      -43.851196
 H        32.971169      -38.258308      -44.331879
 C        31.957893      -38.089832      -42.436493
 H        32.850571      -38.429466      -41.881172
 C        30.745518      -37.748875      -41.859783
 H        30.727793      -37.839539      -40.803577
 C        29.620159      -37.316948      -42.584629
 H        28.625858      -37.301300      -42.154602
 C        27.097004      -35.138199      -43.547974
 H        27.524490      -35.344299      -42.596458
 C        26.004311      -34.262230      -43.615810
 H        25.425388      -34.214058      -42.706512
 C        25.354282      -34.189232      -44.846352
 H        24.354069      -33.885548      -44.873711
 C        25.910973      -34.772949      -45.971283
 H        25.422840      -34.628128      -46.855225
 C        27.379539      -36.391502      -48.080643
 C        26.223606      -37.164639      -48.366085
 H        25.593464      -37.587074      -47.532978
 C        25.836067      -37.407207      -49.679810
 H        24.817888      -37.704681      -49.827526
 C        26.670254      -36.957047      -50.683502
 H        26.550610      -37.415215      -51.694820
 C        27.761589      -36.085098      -50.390091
 H        28.375713      -35.756783      -51.240070
 C        28.124083      -35.802505      -49.098064
 H        28.923191      -35.153404      -48.836926
 C        33.419121      -33.922462      -46.653927
 C        34.274246      -34.916794      -47.069466
 N        32.124207      -34.421043      -46.300072
 C        32.122452      -35.775177      -46.514614
 N        33.405777      -36.060936      -46.974621
 C        33.686195      -37.471664      -47.010914
 C        32.634777      -38.388275      -47.004135
 C        32.809891      -39.719681      -47.145874
 H        32.105507      -40.481667      -47.448063
 C        34.099567      -40.263935      -47.260422
 H        34.273758      -41.324184      -47.509277
 C        35.213177      -39.395638      -47.193047
 H        36.223034      -39.671906      -47.126251
 C        34.977070      -37.997520      -47.092903
 H        35.787834      -37.346230      -46.689075
 C        35.567169      -34.615471      -47.453068
 H        36.057846      -35.373978      -48.049896
 C        36.077156      -33.306114      -47.382389
 H        36.938454      -33.001564      -47.966957
 C        35.208961      -32.289795      -46.994152
 H        35.689705      -31.292347      -46.856724
 C        33.911137      -32.599766      -46.593197
 H        33.187317      -31.920635      -46.274658
 C        31.027826      -33.690990      -45.692558
 C        31.040806      -33.459576      -44.340347
 H        31.763988      -34.031437      -43.810364
 C        30.015141      -32.773872      -43.688873
 H        30.138317      -32.592648      -42.653263
 C        28.991196      -32.293633      -44.441669
 H        28.176048      -31.741035      -43.946922
 C        28.968769      -32.507744      -45.834023
 H        28.169138      -32.133873      -46.461250
 C        30.000530      -33.166401      -46.470295
 H        29.907581      -33.339340      -47.539337
 C        30.960075      -37.976463      -51.155746
 C        30.008728      -38.873520      -50.730633
 N        31.405128      -37.306236      -49.935287
 C        30.789875      -37.705887      -48.786968
 N        29.963234      -38.738724      -49.281750
 C        29.270737      -39.515228      -48.227859
 C        29.899204      -39.265472      -46.957760
 C        29.504219      -39.998360      -45.890305
 H        30.188965      -40.123375      -45.113838
 C        28.521656      -40.944210      -46.016953
 H        28.177927      -41.381081      -45.167782
 C        27.955654      -41.202618      -47.250675
 H        27.255102      -42.059769      -47.345665
 C        28.285824      -40.443047      -48.346184
 H        27.981838      -40.871979      -49.256687
 C        29.316978      -39.618687      -51.666267
 H        28.469349      -40.290398      -51.387653
 C        29.658947      -39.623665      -53.024330
 H        28.865025      -39.926670      -53.745350
 C        30.763756      -38.865807      -53.440922
 H        31.056742      -38.815163      -54.404766
 C        31.365765      -38.004158      -52.518665
 H        32.214649      -37.346519      -52.838516
 C        32.410439      -36.279663      -50.073147
 C        32.076130      -34.936684      -49.809246
 H        31.098721      -34.653111      -49.402233
 C        32.927616      -33.920223      -50.064735
 H        32.908234      -33.038780      -49.480972
 C        34.194584      -34.172115      -50.650780
 H        34.742302      -33.445633      -51.228817
 C        34.564739      -35.564137      -50.894428
 H        35.542423      -35.808052      -51.339218
 C        33.655331      -36.597900      -50.617821
 H        33.961327      -37.632141      -50.597507
