206
 generated by VMD
 Ir        1.037231        0.213939       -6.875900
 C         0.541500       -1.792470       -3.031609
 C         1.397362       -0.750035       -2.756962
 N         0.287785       -1.772403       -4.407444
 C         0.945305       -0.727464       -5.034157
 N         1.641205       -0.112706       -4.004261
 C         2.442810        1.010890       -4.370682
 C         2.153831        1.526511       -5.656612
 C         2.646709        2.799296       -5.990967
 H         2.434555        3.213460       -6.963367
 C         3.406025        3.539353       -5.086281
 H         3.742401        4.534259       -5.350693
 C         3.733116        3.003182       -3.836750
 H         4.370693        3.551353       -3.149002
 C         3.261127        1.740672       -3.486328
 H         3.706806        1.246003       -2.641537
 C         1.788700       -0.526536       -1.429482
 H         2.414055        0.308398       -1.158165
 C         1.332790       -1.360888       -0.402885
 H         1.667450       -1.197145        0.613281
 C         0.466305       -2.422179       -0.689003
 H         0.157097       -3.100251        0.084305
 C         0.075153       -2.631957       -2.013042
 H        -0.617542       -3.449782       -2.232666
 C        -0.319954       -2.881371       -5.098991
 C         0.403557       -4.073199       -5.239990
 H         1.387424       -4.162787       -4.818588
 C        -0.164143       -5.146155       -5.931923
 H         0.400890       -6.067037       -6.040176
 C        -1.435841       -5.032424       -6.492500
 H        -1.847618       -5.849948       -7.077477
 C        -2.159355       -3.840596       -6.351509
 H        -3.125443       -3.740684       -6.815067
 C        -1.601181       -2.762504       -5.650471
 H        -2.138447       -1.831296       -5.584908
 C        -2.383923        2.892682       -6.618774
 C        -1.807274        3.193820       -7.822304
 N        -1.537899        1.981420       -5.965740
 C        -0.448112        1.652770       -6.748970
 N        -0.608833        2.449513       -7.883507
 C         0.483273        2.419394       -8.810867
 C         1.384670        1.361041       -8.621189
 C         2.395233        1.149161       -9.575268
 H         3.102528        0.344699       -9.457443
 C         2.505417        1.983615      -10.700191
 H         3.257057        1.786994      -11.439491
 C         1.614918        3.052239      -10.873264
 H         1.699314        3.696097      -11.730774
 C         0.624504        3.277839       -9.916817
 H         0.039978        4.185151       -9.986149
 C        -2.485809        4.060689       -8.714451
 H        -2.138859        4.205600       -9.718658
 C        -3.718094        4.612657       -8.349342
 H        -4.256035        5.239255       -9.046547
 C        -4.293282        4.304635       -7.118416
 H        -5.259890        4.707463       -6.841469
 C        -3.625919        3.436069       -6.247997
 H        -4.086285        3.169450       -5.304821
 C        -1.551792        1.820693       -4.537956
 C        -0.748940        2.663751       -3.755726
 H        -0.222458        3.492459       -4.210758
 C        -0.615337        2.419026       -2.378826
 H         0.027298        3.063317       -1.784000
 C        -1.284855        1.339820       -1.789284
 H        -1.128860        1.119390       -0.743301
 C        -2.087521        0.510480       -2.568069
 H        -2.545116       -0.364520       -2.135651
 C        -2.240639        0.760339       -3.935345
 H        -2.913136        0.152064       -4.526821
 C        -0.905277       -2.697467       -9.496834
 C         0.321079       -3.263709       -9.222752
 N        -0.941471       -1.456367       -8.861809
 C         0.226986       -1.192910       -8.171738
 N         1.015373       -2.324630       -8.410603
 C         2.337101       -2.285729       -7.850845
 C         2.679996       -1.072062       -7.242954
 C         4.004677       -0.890702       -6.815475
 H         4.264477       -0.004546       -6.263546
 C         4.976562       -1.887000       -6.993607
 H         5.994259       -1.707240       -6.688850
 C         4.615883       -3.110995       -7.559334
 H         5.349857       -3.889520       -7.691940
 C         3.302010       -3.318089       -7.971958
 H         3.014885       -4.307353       -8.285515
 C         0.594074       -4.552946       -9.736500
 H         1.572186       -5.005856       -9.610508
 C        -0.356998       -5.250255      -10.481495
 H        -0.145294       -6.244656      -10.830276
 C        -1.583721       -4.653141      -10.762394
 H        -2.326477       -5.172234      -11.356915
 C        -1.857632       -3.374180      -10.265778
 H        -2.811817       -2.907451      -10.506390
 C        -1.931080       -0.468190       -9.203117
 C        -1.762817        0.287398      -10.365562
 H        -0.852047        0.207248      -10.938076
 C        -2.776237        1.162446      -10.777832
 H        -2.654919        1.725749      -11.694057
 C        -3.947937        1.281901      -10.028191
 H        -4.726576        1.957925      -10.356995
 C        -4.116196        0.526309       -8.865749
 H        -5.037224        0.615039       -8.297829
 C        -3.112755       -0.348739       -8.452946
 H        -3.244522       -0.917178       -7.544754
 Ir        1.037228        0.213941        7.002647
 C        -2.355278       -0.489644        9.671734
 C        -1.631287        0.497621       10.289993
 N        -1.635571       -0.874555        8.521797
 C        -0.481667       -0.131894        8.376671
 N        -0.471760        0.680041        9.500050
 C         0.720680        1.444695        9.701523
 C         1.520119        1.570849        8.544334
 C         2.510677        2.560367        8.528366
 H         3.073460        2.727473        7.627724
 C         2.740005        3.380877        9.634880
 H         3.508942        4.138900        9.594479
 C         1.981148        3.215266       10.801891
 H         2.136467        3.854217       11.647717
 C         0.981518        2.236026       10.835526
 H         0.541492        1.996842       11.784504
 C        -2.170784        1.120908       11.439102
 H        -1.654922        1.943669       11.910332
 C        -3.415859        0.727799       11.939758
 H        -3.808575        1.193519       12.837013
 C        -4.140953       -0.283458       11.300926
 H        -5.101559       -0.594161       11.690285
 C        -3.610802       -0.887889       10.164356
 H        -4.178230       -1.659175        9.665009
 C        -1.828140       -2.163688        7.916122
 C        -1.140415       -3.275464        8.417709
 H        -0.522392       -3.169932        9.301907
 C        -1.254742       -4.513131        7.776989
 H        -0.703678       -5.352111        8.157299
 C        -2.046803       -4.639014        6.634140
 H        -2.085270       -5.576646        6.101265
 C        -2.744240       -3.535817        6.138222
 H        -3.352551       -3.632771        5.248360
 C        -2.639900       -2.298156        6.779476
 H        -3.180336       -1.440318        6.410629
 C        -0.320736        3.865212        5.013973
 C         0.954819        3.658067        4.521477
 N        -0.615681        2.780616        5.866886
 C         0.440014        1.893853        5.945427
 N         1.395725        2.438199        5.089394
 C         2.567432        1.652843        4.902489
 C         2.781563        0.689851        5.912094
 C         4.026443        0.053481        5.970444
 H         4.240063       -0.619504        6.782818
 C         5.028419        0.323493        5.043007
 H         5.995171       -0.144832        5.143829
 C         4.792389        1.229918        3.998459
 H         5.543690        1.414035        3.252636
 C         3.556946        1.883447        3.929314
 H         3.350479        2.489598        3.063259
 C         1.531006        4.632876        3.684368
 H         2.543892        4.538808        3.336525
 C         0.822472        5.789094        3.355675
 H         1.302063        6.563035        2.772575
 C        -0.473240        5.982524        3.845795
 H        -1.016891        6.881410        3.604248
 C        -1.039711        5.016294        4.677246
 H        -2.040241        5.172063        5.069138
 C        -1.707970        2.797017        6.790810
 C        -1.606174        3.584907        7.947037
 H        -0.736488        4.196979        8.105507
 C        -2.616386        3.532672        8.907738
 H        -2.496811        4.078946        9.834389
 C        -3.738472        2.714845        8.711044
 H        -4.509098        2.666203        9.470039
 C        -3.840080        1.940675        7.558254
 H        -4.689159        1.289145        7.410671
 C        -2.830326        1.987773        6.588989
 H        -2.928104        1.403737        5.695484
 C         0.166061       -2.842963        4.003227
 C         0.898743       -3.510966        4.971657
 N         0.097282       -1.498757        4.403076
 C         0.761826       -1.288875        5.595734
 N         1.270271       -2.530839        5.928169
 C         2.083942       -2.573049        7.100624
 C         1.978378       -1.447021        7.936752
 C         2.566673       -1.487586        9.201965
 H         2.471920       -0.639239        9.865540
 C         3.261089       -2.613029        9.641361
 H         3.694683       -2.634488       10.634907
 C         3.396523       -3.716760        8.801933
 H         3.905907       -4.598590        9.151806
 C         2.828289       -3.698493        7.537350
 H         3.042507       -4.515964        6.860558
 C         1.071472       -4.906852        4.830700
 H         1.524387       -5.490649        5.623505
 C         0.561726       -5.585006        3.723827
 H         0.647800       -6.653377        3.647888
 C        -0.141628       -4.877547        2.741840
 H        -0.450390       -5.382667        1.835632
 C        -0.353939       -3.512538        2.891758
 H        -0.953079       -2.981961        2.173691
 C        -0.448502       -0.470725        3.558937
 C         0.397839        0.253690        2.717487
 H         1.445511       -0.012120        2.645859
 C        -0.102695        1.329656        1.970585
 H         0.564606        1.894399        1.339497
 C        -1.449574        1.681205        2.065136
 H        -1.828388        2.540891        1.534813
 C        -2.306351        0.951655        2.898552
 H        -3.342667        1.232879        2.995346
 C        -1.806274       -0.129447        3.636887
 H        -2.473301       -0.702771        4.273102
