206
 generated by VMD
  IR        40.820000        6.610000       11.890000
  C1        44.470001        9.050000       11.470000
  C2        44.349998        8.930000       12.820000
  N1        43.320000        8.390000       10.790000
  C3a       42.500000        7.810000       11.740000
  N2        43.070000        8.230000       12.950000
  C4        42.270000        7.950000       14.120000
  C5a       41.169998        7.080000       13.930000
  C6        40.560001        6.620000       15.090000
  H1        40.000000        5.690000       14.930000
  C7        40.869999        7.060000       16.420000
  H2        40.400002        6.760000       17.309999
  C8        41.980000        7.940000       16.549999
  H3        42.299999        8.290000       17.510000
  C9        42.709999        8.330000       15.410000
  H4        43.680000        8.600000       15.680000
  C10       45.270000        9.590000       13.660000
  H5        45.340000        9.270000       14.650000
  C11       46.099998       10.550000       13.170000
  H6        46.560001       11.330000       13.790000
  C12       46.209999       10.700000       11.770000
  H7        46.740002       11.490000       11.280000
  C13       45.439999        9.850000       10.920000
  H8        45.759998        9.680000        9.830000
  C6        43.180000        8.350000        9.400000
  C1        44.160000        7.770000        8.560000
  H1        45.029999        7.440000        9.010000
  C2        44.130001        7.970000        7.140000
  H2        44.689999        7.350000        6.490000
  C3        43.209999        8.850000        6.610000
  H3        42.970001        9.050000        5.550000
  C4        42.310001        9.530000        7.440000
  H4        41.730000       10.390000        7.130000
  C5        42.259998        9.210000        8.820000
  H5        41.529999        9.820000        9.420000
  C1        42.540001        2.570000       12.300000
  C2        41.189999        2.410000       12.040000
  N1        42.680000        3.990000       12.350000
  C3b       41.520000        4.680000       12.140000
  N2        40.540001        3.660000       11.980000
  C4        39.160000        4.090000       12.070000
  C5b       39.110001        5.490000       12.410000
  C6        37.910000        5.960000       12.890000
  H1        37.830002        6.990000       13.180000
  C7        36.770000        5.190000       12.900000
  H2        36.000000        5.400000       13.580000
  C8        36.849998        3.920000       12.400000
  H3        35.980000        3.330000       12.400000
  C9        38.029999        3.320000       12.000000
  H4        38.020000        2.400000       11.490000
  C10       40.770000        1.120000       11.730000
  H5        39.799999        0.920000       11.230000
  C11       41.660000        0.060000       11.770000
  H6        41.380001       -0.980000       11.600000
  C12       43.029999        0.280000       12.030000
  H7        43.650002       -0.490000       11.630000
  C13       43.480000        1.570000       12.330000
  H8        44.549999        1.850000       12.230000
  C6        44.000000        4.560000       12.550000
  C1        44.740002        4.930000       11.430000
  H1        44.470001        4.660000       10.450000
  C2        45.900002        5.760000       11.600000
  H2        46.060001        6.490000       10.820000
  C3        46.450001        6.010000       12.860000
  H3        47.299999        6.720000       13.060000
  C4        45.730000        5.590000       14.000000
  H4        46.040001        5.610000       15.060000
  C5        44.459999        4.940000       13.830000
  H5        43.889999        4.520000       14.620000
  C1        39.000000        5.980000        7.980000
  C2        38.580002        7.260000        8.370000
  N1        39.950001        5.500000        8.940000
  C3c       40.090000        6.460000        9.980000
  N2        39.290001        7.550000        9.590000
  C4        39.279999        8.670000       10.500000
  C5c       39.669998        8.370000       11.770000
  C6        39.400002        9.310000       12.780000
  H1        39.689999        9.110000       13.770000
  C7        38.880001       10.580000       12.550000
  H2        38.709999       11.300000       13.380000
  C8        38.580002       10.920000       11.260000
  H3        38.250000       11.970000       10.980000
  C9        38.810001        9.990000       10.230000
  H4        38.750000       10.310000        9.170000
  C10       37.790001        7.980000        7.420000
  H5        37.919998        8.980000        7.560000
  C11       37.549999        7.460000        6.150000
  H6        37.099998        8.010000        5.430000
  C12       37.939999        6.140000        5.880000
  H7        37.570000        5.700000        4.930000
  C13       38.619999        5.400000        6.760000
  H8        39.040001        4.430000        6.360000
  C6        41.000000        4.640000        8.520000
  C1        42.090000        5.270000        7.960000
  H1        41.950001        6.400000        7.730000
  C2        43.310001        4.620000        7.810000
  H2        44.220001        5.120000        7.620000
  C3        43.349998        3.270000        8.230000
  H3        44.259998        2.720000        8.050000
  C4        42.230000        2.620000        8.770000
  H4        42.410000        1.690000        9.200000
  C5        41.020000        3.300000        8.910000
  H5        40.220001        2.700000        9.430000
  IR        54.799999        2.720000       17.660000
  C1        57.549999        5.450000       19.770000
  C2        56.549999        5.120000       20.719999
  N1        57.040001        4.860000       18.490000
  C3a       55.900002        4.170000       18.700001
  N2        55.500000        4.370000       20.020000
  C4        54.480000        3.550000       20.490000
  C5a       54.139999        2.510000       19.680000
  C6        53.189999        1.640000       20.150000
  H1        53.090000        0.790000       19.549999
  C7        52.439999        1.840000       21.360001
  H2        51.680000        1.120000       21.580000
  C8        52.660000        3.030000       22.059999
  H3        51.939999        3.440000       22.750000
  C9        53.689999        3.900000       21.639999
  H4        53.680000        4.900000       22.070000
  C10       56.750000        5.580000       22.120001
  H5        56.009998        5.310000       22.879999
  C11       57.830002        6.360000       22.370001
  H6        58.040001        6.600000       23.400000
  C12       58.849998        6.610000       21.379999
  H7        59.700001        7.240000       21.709999
  C13       58.669998        6.180000       20.120001
  H8        59.430000        6.470000       19.370001
  C6        57.580002        5.190000       17.230000
  C1        58.730000        4.570000       16.740000
  H1        59.369999        4.160000       17.490000
  C2        59.090000        4.870000       15.430000
  H2        60.029999        4.460000       15.030000
  C3        58.360001        5.830000       14.660000
  H3        58.529999        5.810000       13.600000
  C4        57.250000        6.420000       15.180000
  H4        56.590000        7.050000       14.600000
  C5        56.830002        6.070000       16.450001
  H5        55.840000        6.320000       16.750000
  C1        57.410000       -0.720000       18.260000
  C2        56.290001       -1.190000       17.650000
  N1        57.139999        0.660000       18.580000
  C3b       55.919998        1.030000       18.070000
  N2        55.419998       -0.120000       17.530001
  C4        54.139999       -0.050000       16.799999
  C5b       53.520000        1.190000       16.950001
  C6        52.209999        1.410000       16.740000
  H1        51.770000        2.370000       16.770000
  C7        51.389999        0.390000       16.320000
  H2        50.369999        0.550000       16.340000
  C8        51.980000       -0.840000       16.049999
  H3        51.400002       -1.440000       15.290000
  C9        53.320000       -1.090000       16.280001
  H4        53.700001       -2.060000       16.020000
  C10       56.240002       -2.530000       17.370001
  H5        55.259998       -2.980000       17.309999
  C11       57.419998       -3.310000       17.469999
  H6        57.360001       -4.200000       16.959999
  C12       58.549999       -2.840000       18.090000
  H7        59.259998       -3.540000       18.389999
  C13       58.570000       -1.520000       18.469999
  H8        59.450001       -0.980000       18.870001
  C6        58.009998        1.400000       19.540001
  C1        57.570000        1.760000       20.770000
  H1        56.669998        1.370000       21.160000
  C2        58.410000        2.560000       21.600000
  H2        58.130001        2.830000       22.650000
  C3        59.700001        3.020000       21.270000
  H3        60.389999        3.530000       22.010000
  C4        60.169998        2.680000       19.969999
  H4        60.980000        3.270000       19.690001
  C5        59.360001        1.850000       19.160000
  H5        59.750000        1.600000       18.230000
  C1        55.950001        3.320000       13.520000
  C2        55.009998        4.310000       13.690000
  N1        56.200001        2.640000       14.670000
  C3c       55.330002        3.110000       15.720000
  N2        54.650002        4.220000       15.100000
  C4        53.790001        4.930000       15.970000
  C5c       53.439999        4.320000       17.190001
  C6        52.389999        4.860000       17.990000
  H1        52.029999        4.250000       18.900000
  C7        51.709999        6.010000       17.520000
  H2        51.020000        6.660000       18.120001
  C8        52.110001        6.650000       16.320000
  H3        51.619999        7.460000       15.810000
  C9        53.119999        6.130000       15.540000
  H4        53.500000        6.740000       14.740000
  C10       54.720001        5.200000       12.560000
  H5        53.770000        5.720000       12.580000
  C11       55.500000        5.120000       11.400000
  H6        55.520000        5.960000       10.800000
  C12       56.450001        4.100000       11.290000
  H7        57.060001        4.070000       10.470000
  C13       56.619999        3.200000       12.350000
  H8        57.340000        2.420000       12.130000
  C6        56.660000        1.270000       14.560000
  C1        55.740002        0.280000       14.120000
  H1        54.669998        0.470000       14.180000
  C2        56.200001       -1.010000       14.000000
  H2        55.439999       -1.740000       13.970000
  C3        57.500000       -1.300000       14.370000
  H3        57.880001       -2.320000       14.200000
  C4        58.430000       -0.410000       14.820000
  H4        59.439999       -0.680000       15.160000
  C5        57.970001        0.920000       14.930000
  H5        58.650002        1.660000       15.270000
