206
 generated by VMD
  IR        27.309999       22.309999       39.270000
  C1        24.900000       25.870001       39.220001
  C2        24.740000       25.430000       40.470001
  N1        25.650000       24.950001       38.459999
  C3a       25.990000       23.910000       39.290001
  N2        25.400000       24.160000       40.520000
  C4        25.320000       23.030001       41.369999
  C5a       26.190001       22.000000       41.029999
  C6        26.049999       20.780001       41.720001
  H1        26.770000       19.930000       41.560001
  C7        25.170000       20.629999       42.770000
  H2        25.230000       19.780001       43.349998
  C8        24.260000       21.690001       43.090000
  H3        23.799999       21.660000       44.029999
  C9        24.370001       22.860001       42.389999
  H4        23.790001       23.690001       42.750000
  C10       24.110001       26.219999       41.470001
  H5        23.680000       25.760000       42.340000
  C11       23.840000       27.540001       41.230000
  H6        23.430000       28.129999       42.020000
  C12       24.110001       28.059999       39.930000
  H7        23.900000       29.080000       39.759998
  C13       24.580000       27.190001       38.910000
  H8        24.959999       27.570000       37.930000
  C6        25.580000       24.850000       37.060001
  C1        26.490000       25.469999       36.230000
  H1        27.129999       26.270000       36.619999
  C2        26.459999       25.230000       34.869999
  H2        27.320000       25.570000       34.340000
  C3        25.510000       24.410000       34.310001
  H3        25.500000       24.160000       33.200001
  C4        24.559999       23.820000       35.119999
  H4        23.879999       23.030001       34.810001
  C5        24.549999       24.070000       36.450001
  H5        23.639999       23.840000       36.970001
  C1        30.459999       23.900000       41.889999
  C2        30.799999       22.570000       41.720001
  N1        29.260000       24.030001       41.259998
  C3b       28.809999       22.860001       40.599998
  N2        29.740000       21.969999       40.939999
  C4        29.340000       20.620001       40.720001
  C5b       28.450001       20.510000       39.630001
  C6        28.180000       19.320000       39.020000
  H1        27.450001       19.250000       38.189999
  C7        28.840000       18.170000       39.459999
  H2        28.559999       17.139999       39.130001
  C8        29.700001       18.260000       40.560001
  H3        30.120001       17.389999       40.959999
  C9        29.940001       19.440001       41.209999
  H4        30.389999       19.280001       42.180000
  C10       32.009998       22.129999       42.279999
  H5        32.270000       21.110001       42.349998
  C11       32.770000       23.100000       42.990002
  H6        33.730000       22.870001       43.400002
  C12       32.430000       24.440001       43.150002
  H7        33.090000       25.129999       43.570000
  C13       31.230000       24.870001       42.570000
  H8        30.980000       25.980000       42.560001
  C6        28.490000       25.330000       41.340000
  C1        28.299999       26.100000       40.189999
  H1        28.690001       25.709999       39.250000
  C2        27.840000       27.440001       40.320000
  H2        27.700001       27.910000       39.299999
  C3        27.520000       28.030001       41.500000
  H3        26.930000       28.879999       41.650002
  C4        27.730000       27.200001       42.650002
  H4        27.440001       27.639999       43.540001
  C5        28.230000       25.900000       42.570000
  H5        28.530001       25.320000       43.430000
  C1        29.070000       23.139999       35.380001
  C2        28.080000       22.230000       35.150002
  N1        29.230000       23.200001       36.750000
  C3c       28.209999       22.480000       37.430000
  N2        27.549999       21.850000       36.360001
  C4        26.430000       21.120001       36.709999
  C5c       25.860001       21.430000       37.939999
  C6        24.540001       21.040001       38.200001
  H1        24.110001       21.450001       39.099998
  C7        23.809999       20.280001       37.240002
  H2        22.690001       20.150000       37.330002
  C8        24.459999       19.830000       36.090000
  H3        24.059999       19.000000       35.639999
  C9        25.750000       20.270000       35.860001
  H4        26.299999       19.770000       35.070000
  C10       27.639999       21.959999       33.840000
  H5        26.780001       21.299999       33.599998
  C11       28.160000       22.690001       32.730000
  H6        27.889999       22.330000       31.750000
  C12       29.070000       23.750000       32.970001
  H7        29.730000       24.170000       32.200001
  C13       29.510000       23.879999       34.320000
  H8        30.170000       24.700001       34.459999
  C6        30.500000       23.299999       37.380001
  C1        31.070000       22.080000       37.820000
  H1        30.480000       21.240000       37.560001
  C2        32.310001       22.090000       38.490002
  H2        32.730000       21.170000       38.779999
  C3        32.939999       23.299999       38.779999
  H3        33.820000       23.230000       39.439999
  C4        32.419998       24.469999       38.310001
  H4        33.060001       25.330000       38.419998
  C5        31.200001       24.500000       37.590000
  H5        30.889999       25.410000       37.029999
  IR        15.830000       25.030001       40.799999
  C1        19.270000       24.070000       43.230000
  C2        18.530001       22.910000       43.270000
  N1        18.600000       25.059999       42.500000
  C3a       17.340000       24.520000       42.139999
  N2        17.340000       23.240000       42.580002
  C4        16.209999       22.400000       42.330002
  C5a       15.270000       23.090000       41.509998
  C6        13.970000       22.610001       41.520000
  H1        13.290000       22.990000       40.799999
  C7        13.580000       21.549999       42.330002
  H2        12.520000       21.360001       42.490002
  C8        14.520000       20.870001       43.000000
  H3        14.280000       20.190001       43.750000
  C9        15.810000       21.270000       43.029999
  H4        16.480000       20.850000       43.709999
  C10       19.110001       21.780001       43.860001
  H5        18.500000       20.900000       44.189999
  C11       20.459999       21.690001       44.320000
  H6        20.549999       21.000000       45.130001
  C12       21.120001       22.870001       44.270000
  H7        22.070000       22.969999       44.700001
  C13       20.530001       24.020000       43.759998
  H8        21.190001       24.889999       43.770000
  C6        19.030001       26.430000       42.549999
  C1        18.959999       27.170000       43.709999
  H1        18.559999       26.719999       44.619999
  C2        19.360001       28.520000       43.680000
  H2        19.490000       29.080000       44.590000
  C3        19.840000       29.120001       42.529999
  H3        20.410000       30.040001       42.650002
  C4        19.830000       28.400000       41.330002
  H4        20.270000       28.799999       40.439999
  C5        19.400000       27.070000       41.349998
  H5        18.980000       26.740000       40.389999
  C1        16.660000       22.340000       37.490002
  C2        15.400000       22.840000       37.259998
  N1        17.200001       23.059999       38.560001
  C3b       16.290001       24.030001       39.040001
  N2        15.190000       23.870001       38.209999
  C4        14.040000       24.730000       38.459999
  C5b       14.070000       25.290001       39.740002
  C6        12.960000       26.049999       40.070000
  H1        12.890000       26.680000       40.980000
  C7        11.950000       26.430000       39.169998
  H2        11.200000       27.160000       39.290001
  C8        11.920000       25.840000       37.959999
  H3        11.310000       26.219999       37.189999
  C9        12.980000       25.010000       37.560001
  H4        13.100000       24.540001       36.549999
  C10       14.520000       22.100000       36.320000
  H5        13.460000       22.290001       36.240002
  C11       15.020000       20.920000       35.720001
  H6        14.370000       20.370001       35.009998
  C12       16.370001       20.570000       35.869999
  H7        16.750000       19.660000       35.480000
  C13       17.190001       21.290001       36.730000
  H8        18.219999       20.969999       36.869999
  C6        18.570000       22.850000       39.060001
  C1        19.490000       23.940001       38.950001
  H1        19.180000       24.930000       38.689999
  C2        20.790001       23.799999       39.459999
  H2        21.450001       24.660000       39.700001
  C3        21.260000       22.559999       39.830002
  H3        22.320000       22.360001       39.950001
  C4        20.410000       21.480000       39.939999
  H4        20.760000       20.520000       40.330002
  C5        19.070000       21.610001       39.599998
  H5        18.469999       20.730000       39.480000
  C1        16.320000       29.209999       39.790001
  C2        15.990000       29.200001       41.110001
  N1        16.320000       27.879999       39.380001
  C3c       16.080000       27.040001       40.400002
  N2        15.850000       27.879999       41.480000
  C4        15.620000       27.299999       42.709999
  C5c       15.010000       26.030001       42.560001
  C6        14.290000       25.549999       43.689999
  H1        13.700000       24.570000       43.669998
  C7        14.260000       26.209999       44.930000
  H2        13.940000       25.750000       45.860001
  C8        14.920000       27.440001       45.060001
  H3        14.590000       28.129999       45.779999
  C9        15.570000       27.930000       43.939999
  H4        16.020000       28.889999       44.130001
  C10       16.000000       30.370001       41.880001
  H5        15.380000       30.450001       42.730000
  C11       16.370001       31.549999       41.189999
  H6        16.780001       32.389999       41.750000
  C12       16.610001       31.590000       39.810001
  H7        16.559999       32.560001       39.330002
  C13       16.590000       30.400000       39.150002
  H8        16.660000       30.520000       38.070000
  C6        16.430000       27.480000       38.049999
  C1        15.280000       27.469999       37.340000
  H1        14.310000       27.709999       37.730000
  C2        15.330000       27.320000       35.950001
  H2        14.510000       27.240000       35.340000
  C3        16.510000       27.200001       35.250000
  H3        16.420000       27.090000       34.209999
  C4        17.670000       27.219999       36.020000
  H4        18.490000       26.770000       35.540001
  C5        17.670000       27.370001       37.410000
  H5        18.680000       27.480000       37.900002
