206
 generated by VMD
  IR        43.340000       42.630001       45.810001
  C1        45.610001       42.240002       49.590000
  C2        46.549999       42.080002       48.529999
  N1        44.310001       42.320000       48.919998
  C3a       44.360001       42.290001       47.599998
  N2        45.820000       42.189999       47.320000
  C4        46.259998       42.520000       45.980000
  C5a       45.270000       42.560001       45.020000
  C6        45.680000       42.770000       43.709999
  H1        45.040001       42.720001       42.880001
  C7        47.020000       42.970001       43.389999
  H2        47.459999       43.320000       42.459999
  C8        48.009998       42.980000       44.330002
  H3        49.009998       43.169998       44.070000
  C9        47.650002       42.700001       45.630001
  H4        48.230000       42.939999       46.450001
  C10       47.919998       41.919998       48.889999
  H5        48.619999       41.730000       48.099998
  C11       48.349998       41.860001       50.230000
  H6        49.349998       41.689999       50.400002
  C12       47.380001       41.990002       51.270000
  H7        47.660000       41.750000       52.250000
  C13       46.009998       42.189999       50.950001
  H8        45.259998       42.320000       51.689999
  C6        43.029999       42.250000       49.689999
  C1        42.160000       41.119999       49.680000
  H1        42.400002       40.209999       49.110001
  C2        40.959999       41.169998       50.349998
  H2        40.259998       40.349998       50.330002
  C3        40.580002       42.279999       51.150002
  H3        39.580002       42.490002       51.480000
  C4        41.490002       43.349998       51.240002
  H4        41.270000       44.209999       51.860001
  C5        42.689999       43.330002       50.500000
  H5        43.439999       44.139999       50.639999
  C1        43.709999       46.880001       45.130001
  C2        42.980000       46.490002       44.020000
  N1        44.020000       45.750000       45.860001
  C3b       43.470001       44.639999       45.380001
  N2        42.860001       45.049999       44.220001
  C4        42.200001       44.099998       43.529999
  C5b       42.549999       42.759998       43.840000
  C6        42.180000       41.669998       43.009998
  H1        42.779999       40.730000       43.119999
  C7        41.360001       41.900002       41.900002
  H2        41.000000       41.099998       41.320000
  C8        40.880001       43.220001       41.650002
  H3        40.360001       43.430000       40.669998
  C9        41.250000       44.290001       42.480000
  H4        40.919998       45.209999       42.160000
  C10       42.380001       47.490002       43.049999
  H5        42.029999       47.230000       42.040001
  C11       42.619999       48.840000       43.320000
  H6        42.509998       49.599998       42.470001
  C12       43.290001       49.200001       44.500000
  H7        43.119999       50.189999       44.930000
  C13       43.840000       48.240002       45.380001
  H8        44.230000       48.590000       46.320000
  C6        45.049999       45.880001       46.869999
  C1        46.380001       45.919998       46.490002
  H1        46.580002       45.730000       45.470001
  C2        47.459999       46.160000       47.310001
  H2        48.470001       46.110001       46.900002
  C3        47.160000       46.139999       48.660000
  H3        48.009998       46.099998       49.400002
  C4        45.820000       46.080002       49.139999
  H4        45.529999       46.029999       50.220001
  C5        44.740002       45.990002       48.240002
  H5        43.790001       45.599998       48.610001
  C1        39.330002       42.340000       47.400002
  C2        39.750000       41.040001       47.299999
  N1        40.270000       43.090000       46.669998
  C3c       41.299999       42.380001       46.189999
  N2        40.990002       41.110001       46.549999
  C4        41.950001       40.070000       46.250000
  C5c       43.200001       40.509998       45.750000
  C6        44.209999       39.610001       45.410000
  H1        45.139999       39.950001       44.880001
  C7        44.049999       38.259998       45.590000
  H2        44.810001       37.639999       45.119999
  C8        42.830002       37.770000       46.020000
  H3        42.689999       36.750000       46.189999
  C9        41.830002       38.619999       46.330002
  H4        40.889999       38.230000       46.570000
  C10       38.919998       40.000000       47.889999
  H5        39.270000       38.990002       47.799999
  C11       37.630001       40.330002       48.389999
  H6        37.240002       39.480000       48.950001
  C12       37.180000       41.630001       48.410000
  H7        36.209999       41.970001       48.720001
  C13       38.020000       42.650002       47.930000
  H8        37.639999       43.590000       47.660000
  C6        40.330002       44.529999       46.830002
  C1        41.200001       45.200001       47.730000
  H1        41.910000       44.560001       48.230000
  C2        41.360001       46.590000       47.660000
  H2        41.980000       47.060001       48.310001
  C3        40.639999       47.349998       46.680000
  H3        40.880001       48.410000       46.590000
  C4        39.759998       46.700001       45.790001
  H4        39.369999       47.180000       44.930000
  C5        39.599998       45.299999       45.910000
  H5        38.990002       44.740002       45.189999
  IR        40.520000       48.680000       53.310001
  C1        37.270000       48.130001       56.099998
  C2        37.230000       46.950001       55.290001
  N1        38.230000       49.020000       55.560001
  C3a       38.810001       48.450001       54.470001
  N2        38.130001       47.240002       54.209999
  C4        38.509998       46.540001       53.049999
  C5a       39.439999       47.259998       52.250000
  C6        39.650002       46.799999       50.939999
  H1        40.430000       47.189999       50.290001
  C7        38.950001       45.689999       50.439999
  H2        39.150002       45.400002       49.400002
  C8        38.130001       44.919998       51.310001
  H3        37.630001       44.180000       50.860001
  C9        37.880001       45.389999       52.590000
  H4        37.200001       44.740002       53.110001
  C10       36.419998       45.860001       55.619999
  H5        36.619999       44.840000       55.290001
  C11       35.529999       46.009998       56.700001
  H6        34.900002       45.139999       56.910000
  C12       35.439999       47.200001       57.450001
  H7        34.549999       47.299999       58.070000
  C13       36.400002       48.220001       57.160000
  H8        36.480000       49.040001       57.810001
  C6        38.410000       50.400002       55.889999
  C1        37.470001       51.320000       55.349998
  H1        36.939999       51.020000       54.520000
  C2        37.369999       52.669998       55.860001
  H2        36.770000       53.360001       55.290001
  C3        38.209999       53.080002       56.950001
  H3        38.520000       54.130001       56.939999
  C4        39.110001       52.070000       57.540001
  H4        39.849998       52.310001       58.259998
  C5        39.230000       50.799999       57.000000
  H5        40.070000       50.099998       57.299999
  C1        43.009998       45.310001       54.509998
  C2        43.840000       45.970001       53.740002
  N1        41.830002       45.950001       54.599998
  C3b       41.779999       47.119999       53.849998
  N2        43.080002       47.139999       53.340000
  C4        43.279999       48.139999       52.369999
  C5b       42.049999       48.599998       51.840000
  C6        42.110001       49.279999       50.570000
  H1        41.259998       49.639999       50.090000
  C7        43.330002       49.450001       49.910000
  H2        43.369999       49.900002       48.910000
  C8        44.480000       49.009998       50.540001
  H3        45.360001       49.029999       49.900002
  C9        44.459999       48.369999       51.700001
  H4        45.389999       48.230000       52.240002
  C10       45.150002       45.470001       53.680000
  H5        45.810001       45.830002       52.930000
  C11       45.529999       44.310001       54.349998
  H6        46.520000       43.970001       54.369999
  C12       44.730000       43.630001       55.209999
  H7        45.209999       42.869999       55.810001
  C13       43.439999       44.090000       55.290001
  H8        42.779999       43.560001       55.980000
  C6        40.759998       45.349998       55.279999
  C1        40.150002       44.259998       54.720001
  H1        40.200001       44.150002       53.680000
  C2        39.430000       43.349998       55.480000
  H2        39.040001       42.459999       55.020000
  C3        39.189999       43.500000       56.799999
  H3        38.770000       42.650002       57.380001
  C4        39.720001       44.700001       57.360001
  H4        39.400002       44.869999       58.320000
  C5        40.520000       45.590000       56.669998
  H5        41.110001       46.400002       57.130001
  C1        42.630001       52.000000       55.139999
  C2        41.650002       52.590000       54.459999
  N1        42.509998       50.680000       54.939999
  C3c       41.410000       50.369999       54.119999
  N2        40.889999       51.590000       53.799999
  C4        39.849998       51.580002       52.830002
  C5c       39.400002       50.240002       52.430000
  C6        38.330002       50.200001       51.439999
  H1        38.209999       49.310001       50.970001
  C7        37.840000       51.369999       50.810001
  H2        36.930000       51.369999       50.250000
  C8        38.369999       52.599998       51.230000
  H3        37.939999       53.490002       50.820000
  C9        39.389999       52.730000       52.160000
  H4        39.880001       53.650002       52.230000
  C10       41.540001       53.990002       54.529999
  H5        40.630001       54.459999       54.009998
  C11       42.439999       54.779999       55.270000
  H6        42.419998       55.869999       55.169998
  C12       43.529999       54.259998       55.959999
  H7        44.450001       54.779999       56.200001
  C13       43.599998       52.840000       55.900002
  H8        44.360001       52.430000       56.470001
  C6        43.430000       49.799999       55.610001
  C1        43.040001       48.919998       56.599998
  H1        41.990002       48.959999       56.830002
  C2        43.860001       48.189999       57.349998
  H2        43.529999       47.529999       58.119999
  C3        45.230000       48.389999       57.189999
  H3        45.910000       47.709999       57.599998
  C4        45.730000       49.259998       56.220001
  H4        46.770000       49.320000       55.959999
  C5        44.779999       49.959999       55.380001
  H5        45.169998       50.330002       54.459999
