206
 generated by VMD
  IR        43.340000       42.630001       45.810001
  C1        45.610001       42.240002       49.590000
  C2        46.549999       42.080002       48.529999
  N1        44.310001       42.320000       48.919998
  C3a       44.360001       42.290001       47.599998
  N2        45.820000       42.189999       47.320000
  C4        46.259998       42.520000       45.980000
  C5a       45.270000       42.560001       45.020000
  C6        45.680000       42.770000       43.709999
  H1        45.040001       42.720001       42.880001
  C7        47.020000       42.970001       43.389999
  H2        47.459999       43.320000       42.459999
  C8        48.009998       42.980000       44.330002
  H3        49.009998       43.169998       44.070000
  C9        47.650002       42.700001       45.630001
  H4        48.230000       42.939999       46.450001
  C10       47.919998       41.919998       48.889999
  H5        48.619999       41.730000       48.099998
  C11       48.349998       41.860001       50.230000
  H6        49.349998       41.689999       50.400002
  C12       47.380001       41.990002       51.270000
  H7        47.660000       41.750000       52.250000
  C13       46.009998       42.189999       50.950001
  H8        45.259998       42.320000       51.689999
  C6        43.029999       42.250000       49.689999
  C1        42.160000       41.119999       49.680000
  H1        42.400002       40.209999       49.110001
  C2        40.959999       41.169998       50.349998
  H2        40.259998       40.349998       50.330002
  C3        40.580002       42.279999       51.150002
  H3        39.580002       42.490002       51.480000
  C4        41.490002       43.349998       51.240002
  H4        41.270000       44.209999       51.860001
  C5        42.689999       43.330002       50.500000
  H5        43.439999       44.139999       50.639999
  C1        43.709999       46.880001       45.130001
  C2        42.980000       46.490002       44.020000
  N1        44.020000       45.750000       45.860001
  C3b       43.470001       44.639999       45.380001
  N2        42.860001       45.049999       44.220001
  C4        42.200001       44.099998       43.529999
  C5b       42.549999       42.759998       43.840000
  C6        42.180000       41.669998       43.009998
  H1        42.779999       40.730000       43.119999
  C7        41.360001       41.900002       41.900002
  H2        41.000000       41.099998       41.320000
  C8        40.880001       43.220001       41.650002
  H3        40.360001       43.430000       40.669998
  C9        41.250000       44.290001       42.480000
  H4        40.919998       45.209999       42.160000
  C10       42.380001       47.490002       43.049999
  H5        42.029999       47.230000       42.040001
  C11       42.619999       48.840000       43.320000
  H6        42.509998       49.599998       42.470001
  C12       43.290001       49.200001       44.500000
  H7        43.119999       50.189999       44.930000
  C13       43.840000       48.240002       45.380001
  H8        44.230000       48.590000       46.320000
  C6        45.049999       45.880001       46.869999
  C1        46.380001       45.919998       46.490002
  H1        46.580002       45.730000       45.470001
  C2        47.459999       46.160000       47.310001
  H2        48.470001       46.110001       46.900002
  C3        47.160000       46.139999       48.660000
  H3        48.009998       46.099998       49.400002
  C4        45.820000       46.080002       49.139999
  H4        45.529999       46.029999       50.220001
  C5        44.740002       45.990002       48.240002
  H5        43.790001       45.599998       48.610001
  C1        39.330002       42.340000       47.400002
  C2        39.750000       41.040001       47.299999
  N1        40.270000       43.090000       46.669998
  C3c       41.299999       42.380001       46.189999
  N2        40.990002       41.110001       46.549999
  C4        41.950001       40.070000       46.250000
  C5c       43.200001       40.509998       45.750000
  C6        44.209999       39.610001       45.410000
  H1        45.139999       39.950001       44.880001
  C7        44.049999       38.259998       45.590000
  H2        44.810001       37.639999       45.119999
  C8        42.830002       37.770000       46.020000
  H3        42.689999       36.750000       46.189999
  C9        41.830002       38.619999       46.330002
  H4        40.889999       38.230000       46.570000
  C10       38.919998       40.000000       47.889999
  H5        39.270000       38.990002       47.799999
  C11       37.630001       40.330002       48.389999
  H6        37.240002       39.480000       48.950001
  C12       37.180000       41.630001       48.410000
  H7        36.209999       41.970001       48.720001
  C13       38.020000       42.650002       47.930000
  H8        37.639999       43.590000       47.660000
  C6        40.330002       44.529999       46.830002
  C1        41.200001       45.200001       47.730000
  H1        41.910000       44.560001       48.230000
  C2        41.360001       46.590000       47.660000
  H2        41.980000       47.060001       48.310001
  C3        40.639999       47.349998       46.680000
  H3        40.880001       48.410000       46.590000
  C4        39.759998       46.700001       45.790001
  H4        39.369999       47.180000       44.930000
  C5        39.599998       45.299999       45.910000
  H5        38.990002       44.740002       45.189999
  IR        52.610001       48.860001       45.799999
  C1        51.799999       44.840000       47.009998
  C2        52.860001       44.720001       46.040001
  N1        51.810001       46.139999       47.540001
  C3a       52.660000       46.980000       46.730000
  N2        53.369999       46.020000       45.939999
  C4        54.470001       46.669998       45.320000
  C5a       54.200001       47.939999       44.770000
  C6        55.049999       48.450001       43.799999
  H1        54.970001       49.480000       43.419998
  C7        56.279999       47.830002       43.459999
  H2        56.950001       48.480000       42.900002
  C8        56.669998       46.700001       44.180000
  H3        57.560001       46.180000       43.950001
  C9        55.740002       46.040001       45.060001
  H4        56.029999       45.020000       45.320000
  C10       52.980000       43.500000       45.439999
  H5        53.840000       43.430000       44.740002
  C11       52.029999       42.470001       45.560001
  H6        52.139999       41.490002       45.000000
  C12       50.930000       42.560001       46.419998
  H7        50.340000       41.720001       46.770000
  C13       50.860001       43.750000       47.150002
  H8        50.040001       43.990002       47.880001
  C6        51.549999       46.330002       48.939999
  C1        52.169998       45.520000       49.840000
  H1        52.950001       44.880001       49.480000
  C2        51.930000       45.700001       51.180000
  H2        52.570000       45.259998       51.980000
  C3        50.970001       46.610001       51.619999
  H3        50.959999       46.720001       52.740002
  C4        50.330002       47.480000       50.669998
  H4        49.570000       48.189999       50.970001
  C5        50.590000       47.290001       49.340000
  H5        50.049999       47.889999       48.619999
  C1        55.619999       51.259998       47.910000
  C2        55.259998       52.040001       46.860001
  N1        54.930000       50.060001       47.830002
  C3b       54.099998       49.980000       46.720001
  N2        54.320000       51.310001       46.160000
  C4        53.560001       51.540001       44.950001
  C5b       52.630001       50.580002       44.599998
  C6        51.820000       50.750000       43.430000
  H1        51.000000       50.070000       43.209999
  C7        51.930000       51.860001       42.619999
  H2        51.290001       52.020000       41.779999
  C8        52.950001       52.799999       42.919998
  H3        53.439999       53.480000       42.200001
  C9        53.700001       52.660000       44.090000
  H4        54.180000       53.549999       44.509998
  C10       55.910000       53.209999       46.639999
  H5        55.599998       53.970001       45.919998
  C11       57.009998       53.669998       47.389999
  H6        57.470001       54.650002       47.230000
  C12       57.369999       52.840000       48.459999
  H7        58.279999       53.049999       48.930000
  C13       56.639999       51.660000       48.720001
  H8        56.740002       51.189999       49.680000
  C6        55.320000       49.020000       48.779999
  C1        56.180000       48.029999       48.279999
  H1        56.869999       48.150002       47.500000
  C2        56.310001       46.889999       49.009998
  H2        56.660000       46.040001       48.490002
  C3        55.619999       46.750000       50.230000
  H3        55.950001       45.930000       50.889999
  C4        54.869999       47.830002       50.770000
  H4        54.520000       47.740002       51.799999
  C5        54.689999       48.970001       50.029999
  H5        54.180000       49.849998       50.389999
  C1        49.080002       50.380001       47.830002
  C2        48.560001       49.580002       46.810001
  N1        50.450001       50.540001       47.580002
  C3c       50.860001       49.689999       46.520000
  N2        49.650002       49.130001       46.029999
  C4        49.770000       48.220001       44.950001
  C5c       51.130001       48.000000       44.529999
  C6        51.349998       47.060001       43.549999
  H1        52.380001       47.080002       43.169998
  C7        50.330002       46.290001       42.959999
  H2        50.470001       45.470001       42.270000
  C8        48.980000       46.599998       43.330002
  H3        48.209999       45.959999       42.869999
  C9        48.730000       47.549999       44.330002
  H4        47.750000       47.980000       44.410000
  C10       47.209999       49.490002       46.639999
  H5        46.639999       48.849998       45.970001
  C11       46.299999       50.200001       47.439999
  H6        45.240002       50.270000       47.259998
  C12       46.810001       50.970001       48.480000
  H7        46.189999       51.669998       49.029999
  C13       48.200001       51.070000       48.720001
  H8        48.419998       51.580002       49.599998
  C6        51.299999       51.570000       48.230000
  C1        51.529999       52.770000       47.570000
  H1        50.860001       53.080002       46.779999
  C2        52.400002       53.700001       48.099998
  H2        52.570000       54.590000       47.580002
  C3        53.040001       53.459999       49.299999
  H3        53.990002       53.900002       49.470001
  C4        52.639999       52.400002       50.080002
  H4        53.130001       52.320000       51.080002
  C5        51.790001       51.410000       49.529999
  H5        51.459999       50.590000       50.160000
