206
 generated by VMD
 Ir       13.675593       71.717384     -110.361786
 C        14.273651       71.430252     -105.978691
 C        13.514755       70.332123     -106.354462
 N        14.458182       72.158615     -107.210236
 C        13.979360       71.519608     -108.357498
 N        13.444919       70.311081     -107.781616
 C        13.444469       69.178406     -108.767441
 C        13.260106       69.620827     -110.115395
 C        13.237690       68.631927     -111.108154
 H        13.118546       69.101349     -112.016083
 C        13.282484       67.278038     -110.852844
 H        13.202895       66.540924     -111.664398
 C        13.517159       66.860626     -109.520477
 H        13.606432       65.770050     -109.167236
 C        13.563875       67.805054     -108.488586
 H        13.584564       67.562393     -107.412491
 C        12.802508       69.702637     -105.352341
 H        11.864380       69.085068     -105.637863
 C        12.989820       69.936172     -104.045403
 H        12.388404       69.533852     -103.270462
 C        13.861540       70.960419     -103.654999
 H        13.965070       71.142311     -102.605194
 C        14.483771       71.800392     -104.622612
 H        15.409362       72.339722     -104.362030
 C        15.424281       73.170166     -107.324852
 C        16.726572       73.093910     -106.830048
 H        17.031057       72.172913     -106.555710
 C        17.529636       74.256371     -106.702484
 H        18.385616       74.315941     -106.044418
 C        17.013351       75.487534     -107.085602
 H        17.615746       76.348557     -107.178650
 C        15.690988       75.556244     -107.586731
 H        15.195589       76.514969     -107.743042
 C        14.963627       74.415237     -107.711380
 H        13.893207       74.547882     -107.713577
 C        17.185902       69.802322     -112.242691
 C        16.392025       70.151817     -113.269142
 N        16.598850       70.361908     -111.096199
 C        15.369297       70.985840     -111.368820
 N        15.290076       70.904022     -112.756989
 C        14.165883       71.496964     -113.342400
 C        13.067840       71.709045     -112.388603
 C        11.887362       72.245995     -112.918365
 H        11.029808       72.411606     -112.276672
 C        11.835451       72.623283     -114.276962
 H        10.917444       72.935852     -114.723907
 C        12.942434       72.526779     -115.112587
 H        12.985332       72.852844     -116.189598
 C        14.127692       71.931450     -114.654709
 H        15.013968       71.854004     -115.318810
 C        16.772514       69.701447     -114.554207
 H        16.453247       70.222115     -115.409943
 C        17.741581       68.729622     -114.699341
 H        17.947800       68.237946     -115.682869
 C        18.423328       68.266937     -113.529999
 H        18.855453       67.262939     -113.592880
 C        18.165760       68.825729     -112.290039
 H        18.681934       68.462341     -111.393143
 C        17.125750       70.273346     -109.755524
 C        16.611462       69.315811     -108.942596
 H        15.798638       68.623184     -109.220039
 C        17.278839       69.005646     -107.767303
 H        17.065914       68.066376     -107.299698
 C        18.405666       69.698669     -107.380295
 H        18.873192       69.508835     -106.393906
 C        18.950588       70.703461     -108.204529
 H        19.871065       71.297195     -108.039917
 C        18.271366       70.946518     -109.435982
 H        18.883181       71.260666     -110.312508
 C        14.600392       75.813202     -110.688660
 C        13.296955       75.842194     -110.428833
 N        14.991827       74.495056     -110.848274
 C        13.969509       73.705124     -110.835297
 N        12.846774       74.526428     -110.497475
 C        11.648836       73.893776     -110.099503
 C        11.779289       72.527969     -109.785706
 C        10.744820       71.850433     -109.220810
 H        10.795523       70.753502     -108.848282
 C         9.510988       72.466415     -108.980949
 H         8.736507       71.951309     -108.438873
 C         9.308533       73.821892     -109.338448
 H         8.467142       74.336990     -108.943314
 C        10.428976       74.579254     -109.876221
 H        10.067888       75.550690     -110.252304
 C        12.700804       77.004654     -110.050690
 H        11.599705       77.121017     -110.062576
 C        13.487942       78.169495     -109.938644
 H        13.080367       79.141327     -109.899475
 C        14.833503       78.194122     -110.143234
 H        15.433588       79.012650     -110.446732
 C        15.433776       76.931183     -110.541046
 H        16.474133       76.855324     -110.621735
 C        16.350607       74.193222     -111.258415
 C        16.662819       74.105850     -112.617455
 H        15.855573       74.314354     -113.323059
 C        17.971203       74.092743     -113.053986
 H        18.153793       74.049850     -114.118370
 C        18.991636       74.153503     -112.113342
 H        20.030392       74.156685     -112.425217
 C        18.724075       74.326660     -110.761177
 H        19.488920       74.445419     -110.058464
 C        17.415688       74.339767     -110.324646
 H        17.135551       74.106644     -109.395905
 Ir       13.675594       71.717384      -97.810066
 C         9.401081       71.468369      -97.449585
 C         9.695591       70.541824      -98.384293
 N        10.578995       71.937408      -96.878685
 C        11.650999       71.400864      -97.410767
 N        11.108588       70.480263      -98.368362
 C        12.047071       69.719322      -99.236191
 C        13.391488       70.093040      -99.063652
 C        14.380008       69.486191      -99.894714
 H        15.411205       69.808678      -99.821007
 C        14.007504       68.607300     -100.872101
 H        14.698810       68.190292     -101.555771
 C        12.650082       68.297913     -101.111664
 H        12.397156       67.630707     -101.915009
 C        11.657500       68.832878     -100.229446
 H        10.626683       68.429771     -100.303040
 C         8.681869       70.042206      -99.186508
 H         8.768615       69.440918     -100.102875
 C         7.344240       70.480255      -98.989891
 H         6.564013       70.159363      -99.624062
 C         7.029551       71.404434      -97.925247
 H         6.003164       71.603409      -97.672363
 C         8.095454       71.919144      -97.148506
 H         7.915516       72.603027      -96.272034
 C        10.600163       72.471573      -95.561256
 C        10.242211       71.569641      -94.552200
 H         9.960176       70.552139      -94.767029
 C         9.830918       72.096664      -93.339767
 H         9.740384       71.489822      -92.424599
 C         9.799562       73.492256      -93.118973
 H         9.764810       73.923958      -92.133774
 C        10.109773       74.370354      -94.153580
 H        10.347661       75.380310      -93.868797
 C        10.515048       73.843338      -95.346939
 H        10.354936       74.379486      -96.299248
 C        15.464721       69.443298      -94.613556
 C        16.544029       70.139503      -95.279655
 N        14.375901       69.498901      -95.491898
 C        14.656862       70.351982      -96.577682
 N        15.981778       70.570412      -96.505661
 C        16.553579       71.172890      -97.709396
 C        15.647419       71.948929      -98.477669
 C        16.213722       72.793663      -99.400009
 H        15.539711       73.389786     -100.105530
 C        17.571800       73.037903      -99.590164
 H        17.913128       73.732925     -100.394745
 C        18.436131       72.189598      -98.918976
 H        19.506428       72.096268      -99.168488
 C        17.919384       71.279327      -98.012459
 H        18.542141       70.473907      -97.763519
 C        17.825171       70.178818      -94.571320
 H        18.567858       70.778122      -95.112946
 C        18.016901       69.537827      -93.325912
 H        19.033176       69.317406      -92.952812
 C        16.880928       68.812622      -92.793030
 H        16.874920       68.130325      -92.008484
 C        15.661187       68.774895      -93.461014
 H        14.780973       68.264160      -92.983765
 C        13.120942       68.776489      -95.216766
 C        12.239628       69.141068      -94.152649
 H        12.297821       70.072388      -93.630959
 C        11.181615       68.293152      -93.815384
 H        10.478000       68.587440      -93.041222
 C        11.089045       67.029022      -94.494720
 H        10.541035       66.230751      -94.080414
 C        11.892106       66.752213      -95.510132
 H        11.510633       65.808182      -96.049942
 C        12.983995       67.549286      -95.941574
 H        13.859937       67.135857      -96.472610
 C        13.621819       75.270691      -95.352341
 C        13.360754       75.699219      -96.630112
 N        13.921805       73.919983      -95.435944
 C        13.943415       73.481529      -96.750366
 N        13.665236       74.597916      -97.498749
 C        13.533075       74.410461      -98.861687
 C        13.125044       73.151497      -99.242096
 C        12.679996       72.916779     -100.535980
 H        12.289134       71.965607     -100.848061
 C        12.788502       73.837372     -101.550346
 H        12.462037       73.570091     -102.597092
 C        13.262327       75.120171     -101.201599
 H        13.159006       75.844177     -101.957733
 C        13.648397       75.390633      -99.873901
 H        13.641766       76.378342      -99.592865
 C        12.964464       77.030472      -96.818069
 H        12.993558       77.414909      -97.794571
 C        12.702817       77.856934      -95.726196
 H        12.370323       78.864914      -95.810135
 C        12.887520       77.364868      -94.399109
 H        12.528140       77.928818      -93.537308
 C        13.348432       76.078491      -94.264175
 H        13.647162       75.746475      -93.268112
 C        14.541376       73.254753      -94.317680
 C        13.709974       72.553787      -93.468506
 H        12.643277       72.556168      -93.500984
 C        14.311067       72.000153      -92.314117
 H        13.548265       71.424286      -91.799820
 C        15.623587       72.211441      -92.004845
 H        16.092607       72.092293      -91.028458
 C        16.407206       72.919556      -92.900558
 H        17.462830       72.852844      -92.724770
 C        15.910560       73.441414      -94.063927
 H        16.562874       74.190445      -94.560661
