206
 generated by VMD
  IR        38.880001       49.189999        3.230000
  C1        43.090000       49.910000        2.130000
  C2        43.130001       49.139999        3.340000
  N1        41.750000       50.279999        1.900000
  C3a       40.880001       49.709999        2.930000
  N2        41.730000       48.939999        3.760000
  C4        41.160000       48.240002        4.890000
  C5a       39.770000       48.250000        4.900000
  C6        39.150002       47.720001        6.000000
  H1        38.070000       47.740002        6.150000
  C7        39.820000       47.139999        7.040000
  H2        39.419998       47.169998        8.060000
  C8        41.230000       47.130001        7.020000
  H3        41.700001       46.849998        7.940000
  C9        41.910000       47.660000        5.980000
  H4        42.910000       47.830002        6.100000
  C10       44.389999       48.660000        3.740000
  H5        44.570000       48.160000        4.720000
  C11       45.549999       48.880001        2.930000
  H6        46.480000       48.459999        3.100000
  C12       45.450001       49.740002        1.810000
  H7        46.400002       50.009998        1.410000
  C13       44.250000       50.290001        1.460000
  H8        44.259998       51.000000        0.640000
  C6        41.320000       51.259998        0.870000
  C1        41.599998       50.959999       -0.460000
  H1        42.410000       50.290001       -0.690000
  C2        40.980000       51.660000       -1.540000
  H2        41.240002       51.529999       -2.580000
  C3        40.240002       52.790001       -1.190000
  H3        39.520000       53.139999       -1.990000
  C4        40.060001       53.160000        0.140000
  H4        39.410000       54.000000        0.360000
  C5        40.520000       52.360001        1.180000
  H5        40.250000       52.639999        2.220000
  C1        39.009998       45.189999        1.550000
  C2        37.740002       45.310001        2.050000
  N1        39.639999       46.380001        1.750000
  C3b       38.840000       47.270000        2.480000
  N2        37.680000       46.580002        2.650000
  C4        36.669998       47.209999        3.480000
  C5b       36.939999       48.520000        3.870000
  C6        35.950001       49.310001        4.440000
  H1        36.099998       50.369999        4.500000
  C7        34.660000       48.840000        4.630000
  H2        33.889999       49.570000        4.800000
  C8        34.349998       47.470001        4.330000
  H3        33.380001       47.009998        4.480000
  C9        35.419998       46.650002        3.830000
  H4        35.310001       45.619999        4.030000
  C10       36.919998       44.169998        2.050000
  H5        35.919998       44.369999        2.370000
  C11       37.290001       42.970001        1.420000
  H6        36.709999       42.080002        1.370000
  C12       38.549999       42.939999        0.790000
  H7        38.779999       42.099998        0.150000
  C13       39.439999       44.000000        0.920000
  H8        40.439999       43.990002        0.420000
  C6        40.919998       46.619999        1.170000
  C1        42.060001       46.360001        1.900000
  H1        41.939999       46.150002        2.930000
  C2        43.330002       46.160000        1.300000
  H2        44.330002       46.119999        1.860000
  C3        43.439999       46.110001       -0.040000
  H3        44.430000       46.029999       -0.510000
  C4        42.340000       46.389999       -0.850000
  H4        42.270000       46.090000       -1.840000
  C5        41.130001       46.830002       -0.220000
  H5        40.470001       47.430000       -0.810000
  C1        36.720001       51.689999        0.280000
  C2        37.090000       52.520000        1.340000
  N1        37.160000       50.419998        0.650000
  C3c       37.779999       50.380001        1.840000
  N2        37.669998       51.730000        2.300000
  C4        38.110001       52.000000        3.670000
  C5c       38.830002       50.959999        4.320000
  C6        39.230000       51.240002        5.650000
  H1        40.110001       50.759998        6.060000
  C7        38.799999       52.369999        6.310000
  H2        39.180000       52.549999        7.300000
  C8        38.080002       53.330002        5.660000
  H3        37.740002       54.220001        6.290000
  C9        37.709999       53.209999        4.380000
  H4        37.080002       53.950001        3.980000
  C10       36.820000       53.919998        1.210000
  H5        37.080002       54.549999        2.050000
  C11       36.200001       54.330002        0.070000
  H6        36.369999       55.320000       -0.240000
  C12       35.779999       53.419998       -0.920000
  H7        35.330002       53.880001       -1.790000
  C13       36.040001       52.099998       -0.860000
  H8        35.790001       51.480000       -1.710000
  C6        37.209999       49.330002       -0.290000
  C1        38.009998       49.389999       -1.460000
  H1        38.349998       50.340000       -1.800000
  C2        38.150002       48.259998       -2.300000
  H2        38.910000       48.240002       -3.030000
  C3        37.450001       47.160000       -1.940000
  H3        37.540001       46.340000       -2.510000
  C4        36.650002       47.070000       -0.830000
  H4        36.330002       46.090000       -0.500000
  C5        36.430000       48.160000       -0.060000
  H5        36.130001       47.919998        0.930000
  IR        51.509998       47.080002        2.710000
  C1        50.910000       42.680000        3.240000
  C2        50.040001       43.270000        4.040000
  N1        51.730000       43.759998        2.710000
  C3a       51.320000       45.020000        3.140000
  N2        50.250000       44.680000        3.970000
  C4        49.689999       45.799999        4.700000
  C5a       49.869999       47.029999        4.050000
  C6        48.900002       48.070000        4.250000
  H1        49.160000       49.090000        3.950000
  C7        47.799999       47.830002        5.090000
  H2        47.040001       48.590000        5.110000
  C8        47.700001       46.630001        5.810000
  H3        46.820000       46.330002        6.360000
  C9        48.709999       45.680000        5.630000
  H4        48.779999       44.880001        6.350000
  C10       49.049999       42.439999        4.620000
  H5        48.299999       42.959999        5.290000
  C11       48.849998       41.160000        4.260000
  H6        47.930000       40.660000        4.450000
  C12       49.759998       40.560001        3.420000
  H7        49.660000       39.480000        3.160000
  C13       50.810001       41.360001        2.910000
  H8        51.740002       40.950001        2.550000
  C6        52.700001       43.470001        1.680000
  C1        52.330002       43.040001        0.410000
  H1        51.290001       42.849998        0.220000
  C2        53.240002       42.919998       -0.630000
  H2        52.990002       42.340000       -1.530000
  C3        54.529999       43.270000       -0.400000
  H3        55.130001       43.189999       -1.290000
  C4        54.919998       43.619999        0.870000
  H4        56.029999       43.610001        1.000000
  C5        54.080002       43.709999        1.980000
  H5        54.419998       43.490002        3.040000
  C1        48.320000       47.919998       -0.150000
  C2        49.189999       48.889999       -0.310000
  N1        48.939999       47.000000        0.730000
  C3b       50.160000       47.439999        1.240000
  N2        50.209999       48.709999        0.670000
  C4        51.160000       49.660000        1.340000
  C5b       51.599998       49.200001        2.600000
  C6        52.150002       50.200001        3.450000
  H1        52.410000       49.990002        4.460000
  C7        52.349998       51.529999        3.010000
  H2        52.779999       52.290001        3.640000
  C8        51.930000       51.939999        1.760000
  H3        51.950001       53.000000        1.530000
  C9        51.439999       50.980000        0.850000
  H4        51.410000       51.060001       -0.250000
  C10       48.849998       49.950001       -1.200000
  H5        49.639999       50.529999       -1.650000
  C11       47.520000       49.990002       -1.740000
  H6        47.180000       50.869999       -2.390000
  C12       46.680000       48.900002       -1.620000
  H7        45.639999       48.900002       -1.990000
  C13       47.070000       47.860001       -0.780000
  H8        46.250000       47.320000       -0.350000
  C6        48.330002       45.689999        0.950000
  C1        48.419998       44.709999        0.000000
  H1        49.139999       44.889999       -0.820000
  C2        47.720001       43.549999        0.020000
  H2        47.930000       42.790001       -0.720000
  C3        46.840000       43.330002        1.060000
  H3        46.330002       42.369999        1.180000
  C4        46.700001       44.340000        2.030000
  H4        46.230000       44.150002        2.950000
  C5        47.380001       45.520000        2.010000
  H5        47.389999       46.180000        2.910000
  C1        55.330002       47.200001        0.480000
  C2        55.709999       47.139999        1.770000
  N1        53.910000       47.189999        0.400000
  C3c       53.349998       47.090000        1.760000
  N2        54.480000       47.169998        2.560000
  C4        54.150002       47.549999        3.910000
  C5c       52.880001       47.160000        4.320000
  C6        52.669998       47.330002        5.710000
  H1        51.779999       46.980000        6.060000
  C7        53.570000       47.939999        6.550000
  H2        53.509998       47.830002        7.660000
  C8        54.740002       48.439999        6.030000
  H3        55.180000       49.310001        6.550000
  C9        54.980000       48.220001        4.710000
  H4        55.770000       48.779999        4.310000
  C10       57.060001       46.980000        2.080000
  H5        57.310001       47.000000        3.120000
  C11       58.040001       47.290001        1.090000
  H6        59.110001       47.560001        1.310000
  C12       57.590000       47.450001       -0.300000
  H7        58.290001       47.509998       -1.160000
  C13       56.240002       47.320000       -0.560000
  H8        55.990002       47.540001       -1.590000
  C6        53.200001       47.320000       -0.830000
  C1        52.119999       46.520000       -1.120000
  H1        51.910000       45.849998       -0.340000
  C2        51.250000       46.799999       -2.230000
  H2        50.610001       46.020000       -2.650000
  C3        51.619999       47.950001       -2.970000
  H3        51.049999       48.209999       -3.890000
  C4        52.639999       48.779999       -2.610000
  H4        53.110001       49.470001       -3.370000
  C5        53.419998       48.480000       -1.560000
  H5        54.230000       49.160000       -1.380000
