206
 generated by VMD
 Ir        3.213613       31.660812      -14.494274
 C         2.877275       35.878036      -14.395798
 C         2.097210       35.453182      -13.379974
 N         3.158162       34.742111      -15.214139
 C         2.715911       33.650913      -14.593740
 N         1.992648       34.102596      -13.492165
 C         1.195205       33.123199      -12.827736
 C         1.743218       31.857586      -12.971968
 C         1.096191       30.770855      -12.300121
 H         1.565287       29.813820      -12.081652
 C        -0.120917       30.998936      -11.618925
 H        -0.782341       30.314697      -11.140451
 C        -0.593099       32.304798      -11.580664
 H        -1.551670       32.483685      -11.191767
 C         0.062734       33.360222      -12.115606
 H        -0.426162       34.290428      -12.078170
 C         1.734966       36.302887      -12.343548
 H         1.230213       35.855675      -11.450618
 C         2.148803       37.649002      -12.339197
 H         2.028745       38.167770      -11.336318
 C         2.934933       38.078323      -13.453728
 H         3.265742       39.115864      -13.440092
 C         3.273029       37.246510      -14.510076
 H         3.821022       37.452229      -15.406226
 C         3.072479       34.813667      -16.607136
 C         1.820192       35.104355      -17.056887
 H         1.000445       35.439766      -16.449751
 C         1.495772       34.961246      -18.413490
 H         0.535039       35.140133      -18.830132
 C         2.493406       34.652668      -19.327606
 H         2.174706       34.312786      -20.290575
 C         3.807488       34.406700      -18.917620
 H         4.504653       33.959488      -19.586994
 C         4.117338       34.460369      -17.508219
 H         5.108047       34.303844      -17.092773
 C         6.403584       31.817337      -11.719984
 C         6.454903       30.484642      -12.105453
 N         5.408290       32.434490      -12.333669
 C         4.666303       31.611618      -13.036546
 N         5.325305       30.408613      -12.907719
 C         4.497739       29.272690      -13.331174
 C         3.442901       29.608101      -14.266222
 C         2.898491       28.624229      -15.117232
 H         2.012516       28.789700      -15.666658
 C         3.314470       27.304951      -15.059258
 H         2.991849       26.687796      -15.869897
 C         4.382809       26.938236      -14.203820
 H         5.034249       26.043808      -14.431255
 C         4.898849       27.890800      -13.311395
 H         5.324426       27.541975      -12.428782
 C         7.423070       29.532074      -11.669712
 H         7.708069       28.588455      -12.134636
 C         8.366748       29.983761      -10.761552
 H         8.873383       29.254803      -10.188018
 C         8.311443       31.320930      -10.392335
 H         9.024526       31.638453       -9.661448
 C         7.363973       32.219830      -10.810999
 H         7.441301       33.266308      -10.462000
 C         5.090871       33.789547      -12.012162
 C         4.389142       34.031044      -10.789111
 H         3.897524       33.257366      -10.235368
 C         4.389333       35.332436      -10.283364
 H         3.584455       35.596291       -9.638033
 C         5.005848       36.369972      -10.967419
 H         4.944180       37.416451      -10.590487
 C         5.479960       36.146366      -12.209723
 H         5.896757       36.946877      -12.799265
 C         5.605502       34.862862      -12.741379
 H         5.861105       34.710808      -13.775035
 C         5.752567       31.388012      -18.077818
 C         4.484874       31.253845      -18.579170
 N         5.709068       31.464037      -16.661757
 C         4.354979       31.379066      -16.236170
 N         3.618394       31.209126      -17.388325
 C         2.228673       31.106266      -17.186592
 C         1.706264       31.566895      -15.984132
 C         0.300602       31.750254      -15.847404
 H        -0.121895       31.978333      -14.899577
 C        -0.536498       31.486397      -16.926918
 H        -1.598624       31.701059      -16.791981
 C        -0.035558       30.931854      -18.082268
 H        -0.773087       30.681412      -18.924070
 C         1.302716       30.739552      -18.235699
 H         1.819126       30.372837      -19.170868
 C         4.293858       31.235958      -20.020174
 H         3.256224       31.477455      -20.357658
 C         5.437686       31.329874      -20.865536
 H         5.341783       31.557951      -21.929905
 C         6.744934       31.289623      -20.292660
 H         7.560931       31.168877      -20.993639
 C         6.866420       31.303040      -18.921982
 H         7.854215       31.338818      -18.495977
 C         6.789361       31.419315      -15.757565
 C         7.356357       30.162647      -15.510184
 H         7.117664       29.303995      -16.057127
 C         8.454135       30.104507      -14.669351
 H         8.785371       29.165359      -14.227554
 C         9.020722       31.231487      -14.098211
 H         9.896111       31.195709      -13.479736
 C         8.429580       32.461323      -14.365513
 H         8.985989       33.369167      -14.049084
 C         7.307417       32.617847      -15.148681
 H         6.724480       33.534637      -15.461067
 Ir        3.213613       31.660812       -5.393675
 C        -0.725701       29.728849       -5.882269
 C         0.075599       29.187721       -6.867611
 N         0.099314       30.636692       -5.188678
 C         1.355204       30.735081       -5.734169
 N         1.334123       29.818291       -6.762739
 C         2.471822       29.854069       -7.677975
 C         3.526470       30.632221       -7.248673
 C         4.745419       30.717192       -7.967242
 H         5.614382       31.097324       -7.509634
 C         4.821874       30.167118       -9.226477
 H         5.819163       30.193951       -9.648252
 C         3.736415       29.523132       -9.758982
 H         3.742696       28.928337      -10.687194
 C         2.518536       29.335300       -9.013601
 H         1.661466       29.089333       -9.591036
 C        -0.590858       28.297766       -7.767453
 H        -0.077298       27.662722       -8.523479
 C        -1.922769       28.042854       -7.621737
 H        -2.408170       27.179729       -8.164789
 C        -2.699921       28.633175       -6.616474
 H        -3.693889       28.266460       -6.529018
 C        -2.083603       29.447105       -5.719104
 H        -2.529475       29.706490       -4.855381
 C        -0.222241       31.106266       -3.885335
 C         0.186987       30.475697       -2.743971
 H         1.000862       29.737793       -2.746652
 C        -0.325074       30.931854       -1.532974
 H         0.108474       30.417559       -0.617858
 C        -1.243448       31.982807       -1.473900
 H        -1.585293       32.201939       -0.511393
 C        -1.609436       32.684933       -2.618484
 H        -2.425390       33.413891       -2.500844
 C        -1.039266       32.206413       -3.794506
 H        -1.179417       32.743069       -4.713885
 C         5.564042       28.297768       -3.843513
 C         6.529513       29.174305       -4.226718
 N         4.285828       28.883617       -4.107232
 C         4.375028       30.149231       -4.629978
 N         5.773855       30.350475       -4.603815
 C         6.186193       31.651867       -5.054433
 C         5.163128       32.519463       -5.444715
 C         5.413866       33.776134       -6.015689
 H         4.583514       34.438007       -6.091420
 C         6.707531       34.133904       -6.283704
 H         7.041125       35.117775       -6.617792
 C         7.765328       33.275253       -5.942551
 H         8.715392       33.503334       -6.377357
 C         7.542724       31.996223       -5.335403
 H         8.381518       31.276209       -5.382346
 C         7.884801       28.749453       -4.288329
 H         8.612241       29.348721       -4.867907
 C         8.219722       27.474894       -3.921276
 H         9.211011       27.058987       -4.075761
 C         7.192991       26.602829       -3.484899
 H         7.442741       25.583179       -3.162183
 C         5.889985       27.054512       -3.367192
 H         5.132568       26.477608       -2.786417
 C         3.256464       27.948940       -4.321218
 C         3.102387       27.363091       -5.589145
 H         3.848855       27.372032       -6.360446
 C         2.039897       26.432886       -5.713785
 H         1.585352       26.200333       -6.736971
 C         1.132256       26.236111       -4.634681
 H         0.379041       25.525040       -4.867160
 C         1.309945       26.844322       -3.360237
 H         0.758439       26.392635       -2.635515
 C         2.382784       27.680611       -3.227059
 H         2.526148       28.109936       -2.227246
 C         2.239841       33.731411       -1.711544
 C         1.427725       34.388813       -2.666734
 N         3.143089       32.939842       -2.483142
 C         2.801185       32.877235       -3.776386
 N         1.853308       33.789551       -3.871292
 C         1.681146       34.254650       -5.257849
 C         2.336016       33.436249       -6.234356
 C         2.295179       33.771660       -7.590355
 H         2.833186       33.136616       -8.235466
 C         1.628080       34.876278       -8.088850
 H         1.303787       34.952305       -9.108289
 C         1.015913       35.694679       -7.128968
 H         0.462889       36.490719       -7.611135
 C         1.038194       35.453182       -5.736423
 H         0.305996       35.940647       -5.108915
 C         0.397310       35.193798       -2.155614
 H        -0.256591       35.712570       -2.824713
 C         0.187989       35.332436       -0.798572
 H        -0.275860       36.208973       -0.468231
 C         0.938545       34.572174        0.118797
 H         0.667300       34.536396        1.178442
 C         1.998701       33.825325       -0.315933
 H         2.509621       33.042702        0.364847
 C         4.408168       32.546295       -1.880236
 C         5.453882       33.449669       -1.925002
 H         5.332178       34.438011       -2.466175
 C         6.750179       33.042702       -1.542654
 H         7.478049       33.767189       -1.694073
 C         7.036571       31.727898       -1.137856
 H         7.965956       31.477455       -0.837821
 C         5.972237       30.775330       -1.225125
 H         6.196233       29.693073       -0.962548
 C         4.694795       31.218071       -1.553026
 H         3.878777       30.507000       -1.603969
