206
 generated by VMD
  IR        42.970001       40.480000       27.510000
  C1        44.320000       36.470001       26.469999
  C2        43.299999       36.680000       25.610001
  N1        44.520000       37.660000       27.240000
  C3a       43.580002       38.630001       26.870001
  N2        42.750000       38.009998       25.920000
  C4        41.680000       38.750000       25.430000
  C5a       41.509998       39.980000       26.110001
  C6        40.389999       40.750000       25.870001
  H1        40.240002       41.619999       26.430000
  C7        39.500000       40.369999       24.840000
  H2        38.720001       41.099998       24.590000
  C8        39.639999       39.180000       24.129999
  H3        38.889999       38.880001       23.440001
  C9        40.740002       38.380001       24.450001
  H4        41.040001       37.639999       23.680000
  C10       43.009998       35.650002       24.700001
  H5        42.169998       35.799999       24.010000
  C11       43.650002       34.419998       24.740000
  H6        43.480000       33.830002       23.840000
  C12       44.580002       34.220001       25.709999
  H7        45.020000       33.259998       25.809999
  C13       44.990002       35.230000       26.600000
  H8        45.790001       34.959999       27.260000
  C6        45.529999       37.700001       28.330000
  C1        46.660000       38.310001       28.100000
  H1        46.759998       38.970001       27.240000
  C2        47.759998       38.160000       28.990000
  H2        48.650002       38.720001       28.820000
  C3        47.680000       37.340000       30.110001
  H3        48.590000       37.060001       30.610001
  C4        46.470001       36.680000       30.309999
  H4        46.119999       36.230000       31.219999
  C5        45.360001       36.889999       29.469999
  H5        44.490002       36.230000       29.660000
  C1        45.139999       42.840000       24.620001
  C2        44.290001       43.799999       25.280001
  N1        44.740002       41.610001       25.070000
  C3b       43.830002       41.669998       26.080000
  N2        43.570000       43.099998       26.200001
  C4        42.680000       43.439999       27.320000
  C5b       42.119999       42.310001       27.980000
  C6        41.099998       42.580002       28.900000
  H1        40.910000       41.860001       29.700001
  C7        40.630001       43.860001       29.209999
  H2        39.779999       43.919998       29.790001
  C8        41.250000       44.970001       28.520000
  H3        41.130001       45.970001       28.910000
  C9        42.240002       44.680000       27.559999
  H4        42.480000       45.410000       26.840000
  C10       44.389999       45.160000       24.920000
  H5        43.549999       45.770000       25.110001
  C11       45.349998       45.529999       24.010000
  H6        45.299999       46.529999       23.620001
  C12       46.209999       44.650002       23.379999
  H7        47.060001       44.939999       22.719999
  C13       46.130001       43.279999       23.740000
  H8        46.900002       42.650002       23.360001
  C6        45.209999       40.410000       24.420000
  C1        46.540001       39.959999       24.600000
  H1        47.290001       40.540001       25.180000
  C2        47.080002       38.810001       23.969999
  H2        48.040001       38.400002       24.330000
  C3        46.299999       38.020000       23.120001
  H3        46.650002       37.099998       22.709999
  C4        44.970001       38.369999       22.950001
  H4        44.299999       37.700001       22.330000
  C5        44.480000       39.590000       23.540001
  H5        43.490002       39.959999       23.330000
  C1        46.189999       40.970001       30.440001
  C2        45.259998       40.160000       31.150000
  N1        45.599998       41.400002       29.230000
  C3c       44.340000       40.830002       29.049999
  N2        44.080002       40.130001       30.240000
  C4        42.840000       39.529999       30.320000
  C5c       42.090000       39.500000       29.160000
  C6        40.799999       38.990002       29.200001
  H1        40.150002       39.119999       28.340000
  C7        40.200001       38.520000       30.379999
  H2        39.310001       37.950001       30.190001
  C8        40.930000       38.549999       31.520000
  H3        40.480000       38.060001       32.349998
  C9        42.230000       39.060001       31.590000
  H4        42.740002       39.119999       32.540001
  C10       45.529999       39.689999       32.459999
  H5        45.009998       38.840000       32.869999
  C11       46.700001       40.040001       33.099998
  H6        46.959999       39.509998       34.060001
  C12       47.610001       40.820000       32.389999
  H7        48.380001       41.209999       32.970001
  C13       47.380001       41.290001       31.059999
  H8        48.130001       41.779999       30.480000
  C6        45.990002       42.560001       28.610001
  C1        45.500000       43.669998       29.139999
  H1        44.790001       43.619999       29.940001
  C2        45.910000       44.950001       28.700001
  H2        45.470001       45.869999       29.030001
  C3        46.820000       45.070000       27.629999
  H3        46.919998       46.000000       27.090000
  C4        47.410000       43.930000       27.059999
  H4        48.160000       44.049999       26.320000
  C5        47.000000       42.650002       27.590000
  H5        47.430000       41.730000       27.160000
  IR        36.209999       34.110001       15.340000
  C1        36.450001       29.770000       15.100000
  C2        36.959999       30.209999       13.860000
  N1        36.189999       30.850000       15.860000
  C3a       36.529999       32.060001       15.240000
  N2        37.020000       31.610001       14.000000
  C4        37.570000       32.580002       13.160000
  C5a       37.040001       33.849998       13.400000
  C6        37.320000       34.900002       12.510000
  H1        36.939999       35.889999       12.690000
  C7        38.150002       34.650002       11.360000
  H2        38.279999       35.490002       10.680000
  C8        38.610001       33.400002       11.120000
  H3        39.230000       33.299999       10.270000
  C9        38.330002       32.389999       12.010000
  H4        38.630001       31.389999       11.840000
  C10       37.020000       29.379999       12.760000
  H5        37.380001       29.610001       11.750000
  C11       36.770000       28.000000       12.950000
  H6        37.259998       27.340000       12.310000
  C12       36.360001       27.570000       14.210000
  H7        36.250000       26.510000       14.450000
  C13       36.139999       28.410000       15.320000
  H8        35.590000       28.010000       16.180000
  C6        35.790001       30.690001       17.250000
  C1        36.849998       30.670000       18.180000
  H1        37.869999       30.860001       17.900000
  C2        36.540001       30.430000       19.480000
  H2        37.220001       30.010000       20.209999
  C3        35.220001       30.350000       19.920000
  H3        35.139999       30.469999       21.010000
  C4        34.160000       30.350000       19.040001
  H4        33.200001       30.010000       19.420000
  C5        34.439999       30.559999       17.690001
  H5        33.689999       30.969999       17.040001
  C1        40.220001       35.320000       16.740000
  C2        39.520000       36.439999       16.660000
  N1        39.389999       34.299999       16.219999
  C3b       38.169998       34.779999       15.760000
  N2        38.209999       36.130001       16.059999
  C4        37.119999       36.939999       15.540000
  C5b       36.009998       36.169998       15.110000
  C6        34.820000       36.830002       14.880000
  H1        33.900002       36.330002       14.670000
  C7        34.799999       38.180000       14.890000
  H2        34.000000       38.730000       14.480000
  C8        35.950001       38.930000       15.120000
  H3        35.849998       40.009998       14.990000
  C9        37.110001       38.290001       15.480000
  H4        38.000000       38.900002       15.710000
  C10       40.240002       37.630001       17.040001
  H5        39.580002       38.509998       17.120001
  C11       41.549999       37.619999       17.559999
  H6        41.810001       38.419998       18.260000
  C12       42.270000       36.439999       17.590000
  H7        43.349998       36.520000       17.709999
  C13       41.599998       35.299999       17.180000
  H8        42.119999       34.369999       17.000000
  C6        39.980000       33.139999       15.710000
  C1        40.529999       33.220001       14.420000
  H1        40.200001       33.910000       13.720000
  C2        41.320000       32.209999       13.980000
  H2        41.660000       32.299999       12.930000
  C3        41.509998       31.090000       14.760000
  H3        42.070000       30.260000       14.420000
  C4        40.930000       31.020000       16.040001
  H4        41.220001       30.139999       16.559999
  C5        40.110001       32.040001       16.549999
  H5        39.650002       32.060001       17.559999
  C1        34.139999       34.349998       19.129999
  C2        33.250000       33.740002       18.280001
  N1        35.279999       34.619999       18.420000
  C3c       35.160000       34.250000       17.139999
  N2        33.900002       33.720001       17.049999
  C4        33.320000       33.560001       15.720000
  C5c       34.240002       33.740002       14.670000
  C6        33.740002       33.669998       13.350000
  H1        34.520000       33.669998       12.570000
  C7        32.360001       33.470001       13.060000
  H2        32.080002       33.299999       12.030000
  C8        31.430000       33.340000       14.120000
  H3        30.500000       32.919998       13.940000
  C9        31.920000       33.419998       15.410000
  H4        31.260000       33.049999       16.170000
  C10       32.200001       32.950001       18.830000
  H5        31.379999       32.490002       18.230000
  C11       32.130001       32.709999       20.200001
  H6        31.500000       31.969999       20.629999
  C12       33.020000       33.299999       21.040001
  H7        33.099998       32.990002       22.049999
  C13       33.930000       34.150002       20.549999
  H8        34.349998       34.830002       21.360001
  C6        36.189999       35.680000       18.820000
  C1        37.470001       35.439999       19.410000
  H1        37.869999       34.430000       19.590000
  C2        38.330002       36.470001       19.760000
  H2        39.310001       36.200001       20.230000
  C3        37.930000       37.770000       19.559999
  H3        38.639999       38.599998       19.750000
  C4        36.660000       38.009998       19.020000
  H4        36.360001       39.040001       18.950001
  C5        35.779999       36.990002       18.610001
  H5        34.779999       37.189999       18.340000
