206
 generated by VMD
 Ir       79.452606      -96.288513      -66.446144
 C        83.073975      -95.994690      -64.003128
 C        83.392746      -95.391586      -65.160339
 N        81.789597      -96.586998      -64.183258
 C        81.218452      -96.214973      -65.347336
 N        82.274292      -95.560455      -66.054451
 C        82.233444      -95.667480      -67.439224
 C        80.880142      -95.817993      -67.933311
 C        80.595154      -95.341217      -69.238937
 H        79.650070      -95.659744      -69.680672
 C        81.518738      -94.725937      -70.053146
 H        81.217255      -94.565460      -71.099213
 C        82.807953      -94.561737      -69.592300
 H        83.534058      -94.309761      -70.349777
 C        83.184555      -95.130417      -68.344666
 H        84.153290      -95.080368      -67.974739
 C        84.553589      -94.573486      -65.217590
 H        84.885696      -94.074860      -66.103683
 C        85.353661      -94.352684      -64.115540
 H        86.092812      -93.502121      -64.119606
 C        85.062965      -95.010651      -62.959824
 H        85.522110      -94.695892      -62.076244
 C        83.915260      -95.905304      -62.857113
 H        83.577301      -96.247101      -61.949383
 C        81.274506      -97.544960      -63.256767
 C        81.317177      -98.895561      -63.530743
 H        81.939499      -99.314331      -64.367126
 C        80.703308      -99.753754      -62.568317
 H        80.611374     -100.775070      -62.871429
 C        80.179199      -99.280701      -61.345524
 H        79.841797      -99.906731      -60.498680
 C        80.142387      -97.926086      -61.108284
 H        79.983765      -97.449814      -60.161552
 C        80.669327      -97.011093      -62.108349
 H        80.364532      -95.946671      -62.141621
 C        78.338943      -92.030258      -66.758293
 C        77.310654      -92.680016      -67.377426
 N        79.230835      -93.021851      -66.331940
 C        78.917206      -94.278770      -66.701660
 N        77.696426      -94.061844      -67.420296
 C        77.247787      -95.145462      -68.255447
 C        77.867874      -96.360916      -67.929657
 C        77.510017      -97.515289      -68.611015
 H        77.908844      -98.497635      -68.352310
 C        76.471832      -97.454491      -69.535278
 H        76.435776      -98.324051      -70.142288
 C        75.911331      -96.254501      -69.913132
 H        75.058060      -96.189972      -70.578766
 C        76.313095      -95.080368      -69.266144
 H        75.790123      -94.164902      -69.535660
 C        76.142471      -92.065964      -67.567917
 H        75.375923      -92.468086      -68.210732
 C        75.952393      -90.804520      -66.992401
 H        74.984238      -90.362778      -67.137070
 C        76.963074      -90.145088      -66.323318
 H        76.904716      -89.110245      -66.061798
 C        78.234436      -90.762726      -66.203827
 H        79.118271      -90.082687      -66.129868
 C        80.410309      -92.705391      -65.627029
 C        80.556412      -92.860909      -64.270432
 H        79.780136      -93.336044      -63.757656
 C        81.654121      -92.287567      -63.624043
 H        81.627182      -92.350632      -62.554508
 C        82.664673      -91.589935      -64.355469
 H        83.593994      -91.163475      -63.956196
 C        82.474350      -91.440353      -65.722504
 H        83.122086      -90.755600      -66.241119
 C        81.357101      -92.007896      -66.346886
 H        81.211411      -92.025681      -67.357559
 C        76.750542      -97.551376      -63.237480
 C        77.223068      -98.692734      -63.784683
 N        77.212051      -96.507477      -64.043381
 C        78.024582      -96.972519      -65.093964
 N        78.025963      -98.335983      -64.869614
 C        78.756706      -99.121071      -65.813049
 C        79.783409      -98.384338      -66.472290
 C        80.554337      -99.090935      -67.400726
 H        81.412460      -98.572685      -67.824936
 C        80.243683     -100.414742      -67.668365
 H        80.956566     -101.028221      -68.154922
 C        79.215828     -101.051430      -67.022888
 H        78.871948     -102.052032      -67.132629
 C        78.491241     -100.415314      -66.116516
 H        77.604721     -100.886574      -65.675392
 C        77.118881      -99.953430      -63.095047
 H        77.222420     -100.850204      -63.693596
 C        76.491257      -99.974792      -61.861103
 H        76.392700     -100.895966      -61.283230
 C        76.068726      -98.794189      -61.279842
 H        75.785355      -98.773247      -60.282974
 C        76.201721      -97.623589      -62.001926
 H        75.443878      -96.937424      -61.615349
 C        76.668098      -95.134094      -63.852489
 C        77.481552      -94.245567      -63.187206
 H        78.077881      -94.569763      -62.367756
 C        77.134857      -92.875343      -63.188347
 H        77.888412      -92.221718      -62.786934
 C        75.955917      -92.466476      -63.743237
 H        75.711807      -91.349136      -63.709312
 C        75.037903      -93.331940      -64.275726
 H        74.084755      -93.015244      -64.633080
 C        75.395050      -94.682259      -64.406845
 H        74.853081      -95.311401      -65.076653
 Ir       79.452606      -96.288513      -55.105385
 C        77.905884      -92.422943      -53.694839
 C        77.192963      -92.598267      -54.895054
 N        78.745712      -93.502411      -53.496021
 C        78.721680      -94.386742      -54.538265
 N        77.801559      -93.810104      -55.384640
 C        77.856277      -94.424950      -56.741497
 C        78.374725      -95.767242      -56.813290
 C        78.297424      -96.449265      -58.051582
 H        78.676346      -97.420959      -58.222290
 C        77.838486      -95.873001      -59.251663
 H        77.766037      -96.514694      -60.073727
 C        77.460281      -94.542160      -59.202259
 H        77.151848      -94.029053      -60.074833
 C        77.453949      -93.840668      -57.975204
 H        77.342796      -92.815063      -58.030758
 C        76.082260      -91.879883      -55.225586
 H        75.542923      -92.080917      -56.169460
 C        75.688141      -90.854752      -54.360035
 H        74.767319      -90.298996      -54.588131
 C        76.406738      -90.573441      -53.196350
 H        76.003784      -89.814720      -52.486511
 C        77.521164      -91.372246      -52.854942
 H        78.166428      -91.257156      -51.985176
 C        79.612602      -93.560196      -52.288475
 C        79.306458      -94.431641      -51.281025
 H        78.389954      -95.029327      -51.378433
 C        80.157669      -94.761780      -50.206436
 H        79.766647      -95.397629      -49.404617
 C        81.432648      -94.129951      -50.181381
 H        82.180038      -94.342072      -49.366394
 C        81.769341      -93.242744      -51.193115
 H        82.817566      -92.936760      -51.228981
 C        80.900284      -92.940109      -52.262672
 H        81.267395      -92.233795      -53.022507
 C        76.389587      -98.839333      -53.417992
 C        77.238037      -99.693375      -54.102409
 N        76.821945      -97.514114      -53.724178
 C        77.949699      -97.523972      -54.587585
 N        78.164459      -98.882156      -54.829437
 C        79.214600      -99.131355      -55.725929
 C        80.055351      -98.076134      -55.979969
 C        81.328766      -98.297974      -56.630894
 H        82.068192      -97.535294      -56.816006
 C        81.716469      -99.567444      -56.947033
 H        82.714264      -99.704323      -57.197189
 C        80.848785     -100.646149      -56.737968
 H        81.090958     -101.723969      -56.920338
 C        79.633682     -100.449600      -56.137650
 H        78.847336     -101.217514      -56.306328
 C        77.033813     -101.041527      -53.887474
 H        77.745178     -101.767090      -54.236778
 C        75.918419     -101.519730      -53.143417
 H        75.860901     -102.669434      -52.973206
 C        75.035690     -100.601013      -52.465591
 H        74.307945     -101.009827      -51.736374
 C        75.334557      -99.250793      -52.651554
 H        74.673920      -98.564621      -52.178658
 C        75.965500      -96.370682      -53.572952
 C        75.149467      -95.891441      -54.641983
 H        75.233223      -96.338417      -55.594765
 C        74.262146      -94.815041      -54.350563
 H        73.468323      -94.524849      -55.022896
 C        74.340508      -94.182076      -53.098396
 H        73.500504      -93.546890      -52.784966
 C        75.160072      -94.618065      -52.078529
 H        75.601212      -94.046272      -51.265049
 C        75.998260      -95.702484      -52.329678
 H        76.547791      -96.073944      -51.457542
 C        82.603714      -97.290909      -52.193008
 C        83.071426      -96.256813      -52.990826
 N        81.278175      -97.504166      -52.673180
 C        80.941841      -96.643791      -53.634819
 N        82.034790      -95.988190      -53.886711
 C        81.930069      -94.939041      -54.883282
 C        81.046997      -95.168007      -55.906933
 C        81.189514      -94.551224      -57.196999
 H        80.365799      -94.612022      -57.926029
 C        82.253464      -93.725235      -57.355988
 H        82.535690      -93.624443      -58.426872
 C        83.054230      -93.349533      -56.239643
 H        83.580414      -92.395493      -56.214737
 C        82.921204      -93.991745      -54.975334
 H        83.584030      -93.674484      -54.170532
 C        84.319153      -95.764839      -52.694115
 H        84.836319      -95.130936      -53.397026
 C        84.943695      -96.164223      -51.529926
 H        85.871399      -95.712051      -51.234276
 C        84.396851      -97.155342      -50.718296
 H        84.920563      -97.438499      -49.892372
 C        83.210922      -97.790192      -51.099663
 H        82.950531      -98.721031      -50.731106
 C        80.451416      -98.626419      -52.239113
 C        79.447189      -98.426270      -51.288906
 H        78.904816      -97.481941      -51.310654
 C        78.796265      -99.519089      -50.706463
 H        77.874763      -99.378624      -50.225937
 C        79.118271     -100.814270      -50.978737
 H        78.819702     -101.606522      -50.326214
 C        80.119934     -101.034027      -51.926048
 H        80.477386     -102.025482      -52.042450
 C        80.772232      -99.960693      -52.570290
 H        81.640427     -100.081398      -53.171509
