206
 generated by VMD
 Ir        0.597488       -0.264394       -7.003799
 C         1.976225        2.259132      -10.270344
 C         2.210087        0.977040      -10.711533
 N         1.535841        2.173710       -8.943630
 C         1.460733        0.862104       -8.507000
 N         1.912868        0.124927       -9.605473
 C         2.030895       -1.285117       -9.414833
 C         1.447269       -1.770079       -8.232170
 C         1.525799       -3.137477       -7.949757
 H         1.140263       -3.534788       -7.028778
 C         2.169521       -4.025367       -8.824898
 H         2.244701       -5.063555       -8.565067
 C         2.750187       -3.542222       -9.998184
 H         3.193920       -4.226816      -10.705172
 C         2.693695       -2.173006      -10.283943
 H         3.246571       -1.808831      -11.137115
 C         2.658104        0.766388      -12.029222
 H         2.719463       -0.212684      -12.455549
 C         2.893295        1.863693      -12.872728
 H         3.272003        1.704875      -13.871656
 C         2.652958        3.151985      -12.411057
 H         2.891201        4.017023      -13.031979
 C         2.179844        3.354621      -11.113518
 H         1.894932        4.342778      -10.809425
 C         1.414349        3.339397       -8.094860
 C         2.388943        3.589825       -7.130310
 H         3.215164        2.909494       -6.990307
 C         2.282139        4.717996       -6.294830
 H         3.060074        4.928659       -5.570793
 C         1.192308        5.576075       -6.430386
 H         1.125048        6.471451       -5.819504
 C         0.205774        5.313999       -7.390308
 H        -0.669941        5.935005       -7.440132
 C         0.321556        4.195662       -8.221039
 H        -0.406258        4.038867       -9.004112
 C        -3.388891       -0.922594       -8.626202
 C        -3.281055       -1.838516       -7.607105
 N        -2.122944       -0.326268       -8.782349
 C        -1.211231       -0.805662       -7.851135
 N        -1.937954       -1.753649       -7.144737
 C        -1.246969       -2.391023       -6.079281
 C        -0.109646       -1.705243       -5.629498
 C         0.547119       -2.174700       -4.488983
 H         1.380709       -1.611626       -4.073677
 C         0.129618       -3.330684       -3.831806
 H         0.712118       -3.725958       -3.020355
 C        -0.991697       -4.022664       -4.299065
 H        -1.321417       -4.914316       -3.786873
 C        -1.672916       -3.566675       -5.428581
 H        -2.426483       -4.202966       -5.864780
 C        -4.417673       -2.543654       -7.196526
 H        -4.384367       -3.246229       -6.372948
 C        -5.660261       -2.311388       -7.810959
 H        -6.520262       -2.889863       -7.512360
 C        -5.757242       -1.364149       -8.831223
 H        -6.715460       -1.144604       -9.283566
 C        -4.620073       -0.668843       -9.243530
 H        -4.714134        0.115710       -9.974438
 C        -1.748089        0.367013      -10.001297
 C        -1.248829       -0.360329      -11.082968
 H        -1.088406       -1.424809      -10.993261
 C        -0.915754        0.294367      -12.269279
 H        -0.572449       -0.268270      -13.123026
 C        -1.060459        1.688055      -12.375538
 H        -0.820364        2.189900      -13.300907
 C        -1.543610        2.413581      -11.278461
 H        -1.647371        3.487895      -11.348352
 C        -1.895754        1.758885      -10.098179
 H        -2.274235        2.323339       -9.265865
 C        -0.875719        2.210075       -3.737003
 C         0.448898        1.978775       -3.448410
 N        -1.097698        1.702703       -5.025375
 C         0.041256        1.130982       -5.576031
 N         0.998510        1.356289       -4.589828
 C         2.324608        0.982732       -4.936260
 C         2.411446        0.005272       -5.940819
 C         3.671406       -0.532142       -6.243927
 H         3.759132       -1.311758       -6.985886
 C         4.830208       -0.073175       -5.596672
 H         5.787621       -0.516212       -5.838482
 C         4.747017        0.942869       -4.636814
 H         5.640102        1.354808       -4.210659
 C         3.500740        1.466816       -4.310654
 H         3.443523        2.310139       -3.632030
 C         0.933931        2.318232       -2.162754
 H         1.948246        2.082226       -1.887840
 C         0.087679        2.886419       -1.210957
 H         0.467392        3.130003       -0.222477
 C        -1.250080        3.121355       -1.524330
 H        -1.922953        3.554338       -0.789230
 C        -1.732056        2.788099       -2.786488
 H        -2.766111        2.987333       -3.032104
 C        -2.376005        1.830439       -5.692692
 C        -3.359989        0.861185       -5.466362
 H        -3.126120       -0.012296       -4.879135
 C        -4.629028        1.011896       -6.030304
 H        -5.361715        0.226492       -5.902206
 C        -4.927128        2.139877       -6.812477
 H        -5.897202        2.235970       -7.260506
 C        -3.946106        3.107309       -7.029434
 H        -4.163969        3.974592       -7.634129
 C        -2.667536        2.956598       -6.462475
 H        -1.934299        3.732169       -6.592300
 Ir        0.597486       -0.264393        8.290325
 C         2.781548       -1.237210        4.632729
 C         3.437489       -1.942348        5.609978
 N         1.787163       -0.467001        5.256893
 C         1.752853       -0.720341        6.626099
 N         2.779507       -1.624275        6.828789
 C         2.923317       -2.116182        8.165401
 C         2.126282       -1.465691        9.127384
 C         2.247402       -1.837781       10.469391
 H         1.701902       -1.301011       11.232868
 C         3.100002       -2.875647       10.857727
 H         3.102566       -3.228171       11.878082
 C         3.863594       -3.549440        9.901993
 H         4.457146       -4.399400       10.180862
 C         3.773495       -3.165701        8.561386
 H         4.208378       -3.813525        7.816067
 C         4.528767       -2.752536        5.243332
 H         5.114136       -3.266560        5.979347
 C         4.920025       -2.861220        3.906132
 H         5.739536       -3.500177        3.636086
 C         4.234924       -2.146247        2.921574
 H         4.499451       -2.254080        1.885765
 C         3.165138       -1.324409        3.286602
 H         2.628124       -0.773617        2.530338
 C         1.407333        0.795439        4.666912
 C         2.374592        1.808084        4.593018
 H         3.288383        1.719685        5.152725
 C         2.143143        2.931681        3.799065
 H         2.929756        3.659901        3.666271
 C         0.935766        3.088167        3.106422
 H         0.748470        3.981314        2.537735
 C        -0.041479        2.089736        3.211906
 H        -0.988838        2.224415        2.725216
 C         0.197542        0.940273        3.981903
 H        -0.565584        0.175606        4.040405
 C        -1.931171       -3.820191        8.625568
 C        -2.411066       -2.957421        9.579628
 N        -0.816284       -3.213811        8.018333
 C        -0.611731       -1.940483        8.532429
 N        -1.600975       -1.800909        9.505264
 C        -1.548027       -0.599944       10.266701
 C        -0.327473        0.077614       10.154613
 C         0.017250        1.034982       11.121056
 H         0.991116        1.501009       11.092628
 C        -0.866884        1.341725       12.159523
 H        -0.556520        2.035729       12.936073
 C        -2.109888        0.718788       12.243103
 H        -2.800125        0.968245       13.033131
 C        -2.457029       -0.250231       11.284306
 H        -3.480499       -0.583721       11.237415
 C        -3.487661       -3.364887       10.397499
 H        -3.844528       -2.742181       11.194607
 C        -4.046865       -4.629672       10.242222
 H        -4.818558       -4.965841       10.924992
 C        -3.557531       -5.496823        9.258305
 H        -3.957579       -6.488833        9.163548
 C        -2.502970       -5.091175        8.443779
 H        -2.146233       -5.760482        7.680260
 C         0.210087       -4.038640        7.425694
 C         0.883081       -4.964175        8.216305
 H         0.703152       -4.999463        9.283115
 C         1.817577       -5.839241        7.648880
 H         2.325485       -6.570348        8.265007
 C         2.084465       -5.775302        6.273819
 H         2.781834       -6.471122        5.826153
 C         1.422876       -4.828282        5.480312
 H         1.651251       -4.751842        4.426128
 C         0.485964       -3.964868        6.055386
 H        -0.012960       -3.223927        5.444008
 C        -2.192307        2.576229        6.465790
 C        -1.010550        3.253139        6.575951
 N        -1.989391        1.304702        7.051407
 C        -0.709688        1.176546        7.548435
 N        -0.124210        2.404032        7.288837
 C         1.110516        2.649225        7.961323
 C         1.773991        1.497416        8.417107
 C         3.042507        1.631127        8.982681
 H         3.577717        0.758615        9.313400
 C         3.646328        2.889712        9.129532
 H         4.605995        2.980457        9.610477
 C         2.973961        4.036070        8.701878
 H         3.410374        5.010979        8.847477
 C         1.710276        3.925661        8.121014
 H         1.159340        4.817518        7.906399
 C        -0.903709        4.539204        6.005749
 H         0.045378        5.052583        5.989330
 C        -2.005951        5.137451        5.378632
 H        -1.915545        6.131496        4.959949
 C        -3.211512        4.441616        5.310608
 H        -4.072805        4.901871        4.850231
 C        -3.309462        3.161005        5.852680
 H        -4.272692        2.675308        5.880653
 C        -2.971491        0.246845        6.973198
 C        -2.715099       -0.883141        6.195324
 H        -1.794327       -0.967571        5.638142
 C        -3.649429       -1.936616        6.165054
 H        -3.423038       -2.833809        5.614792
 C        -4.834774       -1.846634        6.895641
 H        -5.541746       -2.665597        6.876045
 C        -5.098284       -0.704994        7.662857
 H        -6.028048       -0.630400        8.215290
 C        -4.169336        0.335012        7.710144
 H        -4.382584        1.228573        8.285187
