206
 generated by VMD
 Ir       -0.421616       -0.131407       -6.995068
 C        -2.388813        2.654178       -9.740158
 C        -3.343334        1.698956       -9.466412
 N        -1.240282        2.327055       -8.988319
 C        -1.457817        1.190388       -8.213932
 N        -2.763634        0.833220       -8.505447
 C        -3.299263       -0.224989       -7.723339
 C        -2.330721       -1.046877       -7.131535
 C        -2.766190       -2.187468       -6.449833
 H        -2.047071       -2.919802       -6.125553
 C        -4.132843       -2.465809       -6.293034
 H        -4.446585       -3.312464       -5.707161
 C        -5.083519       -1.610123       -6.841953
 H        -6.142616       -1.804188       -6.695488
 C        -4.666500       -0.489223       -7.565750
 H        -5.401497        0.228022       -7.885517
 C        -4.562716        1.722942      -10.173672
 H        -5.299461        0.940569      -10.040619
 C        -4.817133        2.721842      -11.118591
 H        -5.759974        2.754354      -11.644615
 C        -3.843710        3.697737      -11.367538
 H        -4.041716        4.467659      -12.104160
 C        -2.635817        3.667187      -10.678303
 H        -1.906176        4.451521      -10.851925
 C         0.051506        2.814682       -9.395508
 C         0.560356        2.423315      -10.642384
 H         0.047596        1.646696      -11.208900
 C         1.719946        3.009699      -11.139973
 H         2.102558        2.710591      -12.101456
 C         2.399817        3.966780      -10.379528
 H         3.329695        4.372770      -10.737160
 C         1.903496        4.351583       -9.132698
 H         2.442169        5.070791       -8.534058
 C         0.731373        3.771763       -8.635063
 H         0.370020        4.035110       -7.651917
 C        -1.646381        1.190340       -3.006790
 C        -1.059671       -0.037736       -2.789307
 N        -1.608316        1.425004       -4.392387
 C        -1.012047        0.389030       -5.071960
 N        -0.689114       -0.525223       -4.068382
 C        -0.084089       -1.744230       -4.509373
 C         0.393364       -1.707451       -5.831108
 C         1.302502       -2.681412       -6.244465
 H         1.721277       -2.637020       -7.237572
 C         1.711664       -3.704298       -5.389427
 H         2.429150       -4.435108       -5.730354
 C         1.183422       -3.776838       -4.099972
 H         1.412128       -4.624542       -3.471088
 C         0.281834       -2.803858       -3.663334
 H        -0.272118       -2.983747       -2.756649
 C        -0.927065       -0.509972       -1.464806
 H        -0.397840       -1.421106       -1.253963
 C        -1.416672        0.239309       -0.393791
 H        -1.300009       -0.124054        0.618313
 C        -2.027395        1.467385       -0.629253
 H        -2.377819        2.072576        0.205822
 C        -2.148512        1.946184       -1.935730
 H        -2.679226        2.869466       -2.111210
 C        -2.284637        2.530644       -5.024094
 C        -3.607468        2.370311       -5.426357
 H        -4.161407        1.493783       -5.120335
 C        -4.223881        3.332535       -6.238178
 H        -5.239059        3.195142       -6.567482
 C        -3.497522        4.462638       -6.641010
 H        -3.938141        5.150248       -7.353924
 C        -2.175728        4.636097       -6.220673
 H        -1.622829        5.525754       -6.508625
 C        -1.567322        3.673873       -5.414845
 H        -0.566162        3.829977       -5.050133
 C         3.459148        1.807057       -7.206089
 C         3.335573        1.152981       -8.409176
 N         2.372923        1.419537       -6.406063
 C         1.523293        0.564528       -7.089943
 N         2.150311        0.368034       -8.311108
 C         1.572323       -0.622541       -9.157566
 C         0.261173       -0.994361       -8.807941
 C        -0.431772       -1.884521       -9.634342
 H        -1.444460       -2.188810       -9.383011
 C         0.157589       -2.412367      -10.788525
 H        -0.402346       -3.095812      -11.408829
 C         1.469461       -2.069744      -11.122437
 H         1.948582       -2.505333      -11.979237
 C         2.178865       -1.178603      -10.301331
 H         3.232759       -1.039989      -10.474220
 C         4.277840        1.404325       -9.417370
 H         4.134195        0.999964      -10.410122
 C         5.339891        2.287112       -9.200726
 H         6.079130        2.438784       -9.971130
 C         5.454561        2.939224       -7.969059
 H         6.268112        3.622232       -7.787590
 C         4.516228        2.695425       -6.966118
 H         4.621429        3.163765       -6.005444
 C         2.406944        1.489668       -4.966576
 C         2.730173        0.349316       -4.230358
 H         3.009947       -0.560601       -4.737484
 C         2.685463        0.376142       -2.835876
 H         2.925743       -0.509962       -2.272503
 C         2.301052        1.542336       -2.172310
 H         2.253103        1.565170       -1.090515
 C         1.977821        2.682690       -2.908527
 H         1.709990        3.600150       -2.400661
 C         2.034477        2.663409       -4.302273
 H         1.826080        3.564600       -4.858173
 Ir       -0.421614       -0.131405        6.118977
 C         3.196318        1.090957        8.261120
 C         2.336449        2.145573        8.408466
 N         2.570982        0.162396        7.411160
 C         1.310278        0.592943        7.009354
 N         1.189468        1.835873        7.637867
 C        -0.062180        2.495461        7.457546
 C        -1.098835        1.678245        6.973400
 C        -2.415268        2.166949        7.013069
 H        -3.218346        1.566257        6.634075
 C        -2.701420        3.445639        7.512043
 H        -3.722500        3.766332        7.607731
 C        -1.659931        4.272365        7.956356
 H        -1.881960        5.247544        8.353001
 C        -0.348156        3.805312        7.906216
 H         0.453184        4.510954        8.053951
 C         2.725838        3.236561        9.219837
 H         2.051090        4.046741        9.440273
 C         3.991161        3.255203        9.832378
 H         4.287758        4.106660       10.420643
 C         4.852655        2.173349        9.666180
 H         5.844913        2.190031       10.109516
 C         4.448242        1.086964        8.888226
 H         5.089508        0.208577        8.849316
 C         3.253372       -0.999875        6.900211
 C         3.573179       -1.080866        5.538757
 H         3.230509       -0.313210        4.861866
 C         4.336924       -2.148983        5.052628
 H         4.572868       -2.194145        4.003395
 C         4.805326       -3.135128        5.928654
 H         5.406799       -3.946964        5.555805
 C         4.503864       -3.046593        7.295650
 H         4.870411       -3.799156        7.974010
 C         3.720177       -1.986020        7.775043
 H         3.491652       -1.926752        8.831051
 C        -2.256552       -2.148972        9.537365
 C        -3.228407       -2.199213        8.566235
 N        -1.162220       -1.443160        9.010136
 C        -1.398651       -1.047354        7.707508
 N        -2.689316       -1.497696        7.445812
 C        -3.226475       -1.157952        6.161083
 C        -2.304508       -0.580465        5.263424
 C        -2.686468       -0.401186        3.921574
 H        -2.019493        0.069089        3.230999
 C        -3.950056       -0.783321        3.473560
 H        -4.225222       -0.630905        2.439564
 C        -4.873196       -1.332592        4.372787
 H        -5.844460       -1.629776        4.018204
 C        -4.520361       -1.491201        5.703487
 H        -5.299719       -1.718997        6.410671
 C        -4.421251       -2.908340        8.824604
 H        -5.211115       -2.978577        8.094273
 C        -4.609917       -3.551159       10.044277
 H        -5.515697       -4.123196       10.219563
 C        -3.609522       -3.507483       11.027332
 H        -3.728653       -4.046028       11.953930
 C        -2.433132       -2.799335       10.774265
 H        -1.657833       -2.787495       11.524044
 C        -0.141357       -0.902454        9.865757
 C        -0.277374        0.403774       10.364422
 H        -1.064869        1.036372        9.997990
 C         0.624737        0.884803       11.311893
 H         0.516308        1.894086       11.690289
 C         1.672756        0.066163       11.777523
 H         2.355755        0.450396       12.517109
 C         1.812710       -1.232521       11.273617
 H         2.600201       -1.865116       11.640041
 C         0.912189       -1.713548       10.327335
 H         1.004169       -2.723812        9.954235
 C         0.951912       -3.603502        3.817379
 C         1.016951       -2.559032        2.929653
 N         0.508131       -3.087801        5.044086
 C         0.291441       -1.718338        4.983112
 N         0.663208       -1.395779        3.669056
 C         0.758356        0.006741        3.375126
 C         0.193943        0.857720        4.345840
 C         0.017668        2.214666        4.030682
 H        -0.445824        2.879230        4.733128
 C         0.380428        2.717688        2.778694
 H         0.181915        3.757387        2.543289
 C         0.951809        1.879835        1.832054
 H         1.225101        2.271040        0.866405
 C         1.164944        0.532397        2.131355
 H         1.747368       -0.057705        1.453598
 C         1.367964       -2.824408        1.593258
 H         1.289255       -2.055161        0.830784
 C         1.668911       -4.121128        1.174633
 H         1.926291       -4.308353        0.146820
 C         1.631960       -5.173147        2.091583
 H         1.852913       -6.181448        1.779804
 C         1.265522       -4.921877        3.415211
 H         1.249487       -5.734428        4.120689
 C         0.264116       -3.927151        6.187523
 C        -1.054262       -4.160835        6.596859
 H        -1.879307       -3.841930        5.980255
 C        -1.297056       -4.861065        7.788723
 H        -2.311188       -4.985872        8.125408
 C        -0.229467       -5.327612        8.565250
 H        -0.424212       -5.827759        9.509403
 C         1.087061       -5.127724        8.125019
 H         1.908527       -5.529316        8.696346
 C         1.325916       -4.435043        6.938412
 H         2.324398       -4.385372        6.539207
