206
 generated by VMD
 Ir       39.246040       55.426529      -24.882572
 C        40.275063       56.444984      -29.001328
 C        40.218395       55.036674      -28.989025
 N        40.025276       56.908463      -27.744473
 C        39.811676       55.853661      -26.866310
 N        39.914894       54.709717      -27.644855
 C        39.506981       53.479393      -27.002354
 C        39.640961       53.505089      -25.614086
 C        39.537605       52.330898      -24.856724
 H        39.658340       52.362015      -23.811234
 C        39.309090       51.119213      -25.537460
 H        39.081257       50.224800      -24.970707
 C        39.038765       51.098938      -26.909000
 H        39.102852       50.086750      -27.278145
 C        39.103149       52.274933      -27.679703
 H        38.451431       52.273491      -28.579350
 C        40.425892       54.341648      -30.228657
 H        40.386227       53.245270      -30.178818
 C        40.662796       55.045135      -31.394798
 H        40.845642       54.558254      -32.346909
 C        40.797585       56.398842      -31.380348
 H        41.294067       56.938900      -32.225067
 C        40.658577       57.123455      -30.201828
 H        41.156525       58.080383      -30.147591
 C        40.335133       58.269119      -27.363548
 C        39.386719       59.258457      -27.075245
 H        38.379089       59.074265      -27.230019
 C        39.755981       60.509720      -26.515430
 H        39.008728       61.156689      -26.126537
 C        41.066910       60.840229      -26.267372
 H        41.396481       61.865551      -25.921982
 C        42.049339       59.909679      -26.692013
 H        43.096306       60.155045      -26.344078
 C        41.714809       58.662415      -27.292778
 H        42.512833       57.984436      -27.526882
 C        34.970436       54.961159      -25.775848
 C        35.097576       54.539551      -24.495621
 N        36.257393       55.239719      -26.244190
 C        37.231674       55.054146      -25.255234
 N        36.551613       54.545097      -24.177422
 C        37.297852       54.237373      -22.981159
 C        38.654938       54.581486      -22.970974
 C        39.380020       54.483521      -21.781963
 H        40.399609       54.641933      -21.897917
 C        38.730919       53.880486      -20.672407
 H        39.355370       53.722969      -19.782101
 C        37.382919       53.589363      -20.679478
 H        36.982925       53.049686      -19.801722
 C        36.660988       53.720718      -21.835705
 H        35.716187       53.093597      -21.926682
 C        33.862106       54.308556      -23.766539
 H        33.942799       53.847183      -22.798178
 C        32.580765       54.462158      -24.342705
 H        31.723915       54.406876      -23.758801
 C        32.555771       54.838966      -25.672516
 H        31.615711       54.891930      -26.142391
 C        33.730042       55.069767      -26.380276
 H        33.622715       55.319191      -27.389469
 C        36.536598       55.209560      -27.670666
 C        36.806904       56.417908      -28.244015
 H        37.139465       57.190659      -27.559361
 C        36.811790       56.590752      -29.658726
 H        37.061317       57.538345      -30.101784
 C        36.584167       55.492649      -30.476570
 H        36.534081       55.679478      -31.519012
 C        36.211891       54.278114      -29.853573
 H        35.731461       53.604774      -30.610004
 C        36.207458       54.103279      -28.470421
 H        35.981686       53.116489      -28.072079
 C        38.823830       59.535301      -23.557915
 C        40.158264       59.259926      -23.280666
 N        38.203201       58.316666      -23.971260
 C        39.172329       57.284523      -24.041073
 N        40.376976       57.828789      -23.491165
 C        41.546886       56.924789      -23.597927
 C        41.225769       55.691319      -24.183533
 C        42.236473       54.710354      -24.217968
 H        42.003654       53.632614      -24.403389
 C        43.528877       54.966663      -23.648582
 H        44.412498       54.259865      -23.641972
 C        43.800037       56.276329      -23.154068
 H        44.773285       56.621292      -22.937080
 C        42.787178       57.218102      -23.088665
 H        42.996246       58.131454      -22.541424
 C        41.011894       60.273369      -22.946085
 H        42.018913       60.008640      -22.632973
 C        40.571327       61.587776      -22.927826
 H        41.218040       62.409710      -23.034050
 C        39.201981       61.910145      -23.164179
 H        39.091522       62.950962      -23.307701
 C        38.331696       60.882908      -23.504461
 H        37.277794       61.039661      -23.770210
 C        36.785828       57.999954      -23.854111
 C        36.269112       57.627037      -22.582951
 H        36.928391       57.440125      -21.775848
 C        34.905548       57.565468      -22.468512
 H        34.498894       57.076775      -21.571898
 C        34.003799       57.810020      -23.548901
 H        32.954327       58.122314      -23.326910
 C        34.522133       57.990768      -24.798363
 H        34.110989       57.627357      -25.700191
 C        35.897755       58.173920      -24.961525
 H        36.252754       58.580032      -25.875824
 Ir       39.246040       55.426529      -10.359375
 C        40.133415       52.983864      -13.776163
 C        41.313488       53.490551      -13.414363
 N        39.203308       53.505257      -12.900240
 C        39.718658       54.414150      -12.079002
 N        41.062153       54.363754      -12.284873
 C        41.777206       55.306610      -11.532663
 C        41.003853       56.287109      -10.962444
 C        41.669754       57.437344      -10.480746
 H        40.980541       58.184486      -10.135396
 C        43.031975       57.504913      -10.500515
 H        43.635681       58.362427      -10.251513
 C        43.839088       56.464012      -10.847773
 H        44.874985       56.401245      -10.651611
 C        43.226730       55.354965      -11.480258
 H        43.842323       54.454662      -11.766254
 C        42.484173       53.054680      -14.007076
 H        43.500076       53.513420      -13.891751
 C        42.529961       52.110321      -14.995550
 H        43.351105       51.563713      -15.316865
 C        41.331894       51.462456      -15.278952
 H        41.199135       50.588486      -15.916332
 C        40.140144       51.941322      -14.746301
 H        39.284332       51.523964      -15.166188
 C        37.888527       53.024162      -12.790237
 C        36.916039       53.350906      -13.810288
 H        36.981430       54.301735      -14.284687
 C        35.922092       52.397682      -14.214056
 H        35.460625       52.479191      -15.185964
 C        35.823418       51.199898      -13.518513
 H        35.088585       50.453773      -13.706715
 C        36.662170       50.931557      -12.459698
 H        36.458908       50.208092      -11.694267
 C        37.763123       51.781189      -12.082706
 H        38.453812       51.333332      -11.455111
 C        42.507721       53.989567       -8.111517
 C        42.163658       55.132366       -7.573990
 N        41.421139       53.586666       -8.874675
 C        40.407284       54.534241       -8.873029
 N        40.838402       55.411545       -7.974935
 C        39.956856       56.505051       -7.695445
 C        39.094704       56.828186       -8.783414
 C        38.310703       57.968880       -8.692490
 H        37.648994       58.051811       -9.521564
 C        38.449692       58.872818       -7.619607
 H        38.109291       59.903069       -7.715027
 C        39.336502       58.522285       -6.554903
 H        39.327530       59.143112       -5.627814
 C        40.058495       57.352005       -6.603640
 H        40.761154       57.090698       -5.813393
 C        43.035503       55.695465       -6.694101
 H        42.796646       56.577702       -6.236819
 C        44.394234       55.212135       -6.545945
 H        45.171738       55.868454       -6.142301
 C        44.697971       54.045555       -7.171268
 H        45.771389       53.808033       -7.258220
 C        43.762329       53.327484       -7.893314
 H        43.994884       52.394260       -8.331612
 C        41.219467       52.198994       -9.207983
 C        40.414474       51.571598       -8.320926
 H        40.255486       51.884102       -7.297226
 C        39.899330       50.306355       -8.666442
 H        39.652245       49.659279       -7.852599
 C        40.111416       49.754501       -9.915072
 H        40.042030       48.732132      -10.203080
 C        40.993805       50.397877      -10.786196
 H        41.421364       49.843365      -11.622801
 C        41.544319       51.629921      -10.428568
 H        42.260132       52.216125      -11.060770
 C        35.362640       53.683479       -9.955648
 C        35.197884       54.729141      -10.794245
 N        36.638935       53.773026       -9.391778
 C        37.310825       54.869125       -9.901610
 N        36.335373       55.409821      -10.764128
 C        36.799618       56.549965      -11.545890
 C        38.192612       56.676323      -11.692532
 C        38.606285       57.694695      -12.470474
 H        39.650436       57.843307      -12.652004
 C        37.670158       58.563309      -13.118692
 H        38.026154       59.426903      -13.599281
 C        36.311821       58.490128      -12.886194
 H        35.609711       59.226707      -13.126610
 C        35.870697       57.512943      -12.022520
 H        34.845085       57.368328      -11.834642
 C        34.036865       54.928127      -11.498333
 H        34.008736       55.350498      -12.438126
 C        33.002716       54.059856      -11.271096
 H        32.088573       54.112823      -11.816658
 C        33.106270       53.014000      -10.411175
 H        32.176338       52.456047      -10.116542
 C        34.327141       52.805405       -9.718305
 H        34.402878       51.988720       -9.015889
 C        36.843575       53.216431       -8.063875
 C        36.345100       53.935707       -6.997870
 H        36.465588       54.997078       -7.041174
 C        36.192261       53.346382       -5.739525
 H        35.649498       53.814133       -4.952935
 C        36.437267       52.025597       -5.592208
 H        36.160477       51.531490       -4.693405
 C        36.998825       51.296711       -6.678890
 H        37.453430       50.343227       -6.681776
 C        37.229519       51.915817       -7.868298
 H        37.417236       51.252567       -8.723613
