206
 generated by VMD
  IR        -0.225000       30.870001       52.730000
  C1        -1.285000       34.410000       50.660000
  C2        -2.415000       33.619999       50.720001
  N1        -0.155000       33.560001       50.860001
  C3a       -0.525000       32.310001       51.250000
  N2        -1.895000       32.320000       51.049999
  C4        -2.515000       31.049999       51.009998
  C5a       -2.165000       30.299999       52.110001
  C6        -2.925000       29.139999       52.369999
  H1        -2.475000       28.389999       53.029999
  C7        -3.915000       28.709999       51.500000
  H2        -4.485000       27.809999       51.680000
  C8        -4.335000       29.459999       50.400002
  H3        -5.135000       29.110001       49.759998
  C9        -3.615000       30.670000       50.090000
  H4        -3.695000       31.100000       49.130001
  C10       -3.615000       34.169998       50.500000
  H5        -4.475000       33.599998       50.810001
  C11       -3.715000       35.529999       50.310001
  H6        -4.625000       35.990002       50.419998
  C12       -2.595000       36.340000       50.290001
  H7        -2.675000       37.389999       50.080002
  C13       -1.365000       35.810001       50.459999
  H8        -0.475000       36.369999       50.590000
  C6         1.055000       33.840000       50.259998
  C1         1.565000       33.040001       49.209999
  H1         0.865000       32.279999       48.799999
  C2         2.805000       33.299999       48.610001
  H2         3.135000       32.790001       47.680000
  C3         3.535000       34.389999       49.110001
  H3         4.525000       34.669998       48.810001
  C4         3.015000       35.200001       50.139999
  H4         3.615000       36.060001       50.490002
  C5         1.785000       34.919998       50.680000
  H5         1.285000       35.639999       51.310001
  C1        -2.145000       33.000000       56.070000
  C2        -2.275000       31.660000       56.349998
  N1        -1.425000       33.080002       54.849998
  C3b       -1.085000       31.799999       54.369999
  N2        -1.635000       30.950001       55.340000
  C4        -1.125000       29.610001       55.220001
  C5b       -0.255000       29.330000       54.169998
  C6         0.395000       28.059999       54.060001
  H1         1.165000       27.820000       53.330002
  C7         0.135000       27.030001       54.990002
  H2         0.885000       26.270000       55.110001
  C8        -0.815000       27.250000       56.040001
  H3        -0.885000       26.490000       56.810001
  C9        -1.355000       28.540001       56.180000
  H4        -1.975000       28.540001       57.029999
  C10       -2.985000       31.309999       57.450001
  H5        -3.275000       30.299999       57.709999
  C11       -3.635000       32.290001       58.250000
  H6        -4.405000       32.169998       59.060001
  C12       -3.455000       33.669998       57.990002
  H7        -3.855000       34.389999       58.709999
  C13       -2.735000       34.040001       56.869999
  H8        -2.535000       35.139999       56.779999
  C6        -0.875000       34.340000       54.360001
  C1        -1.835000       35.310001       54.099998
  H1        -2.795000       34.970001       53.779999
  C2        -1.415000       36.590000       53.779999
  H2        -2.205000       37.250000       53.389999
  C3        -0.065000       36.900002       53.740002
  H3         0.305000       37.950001       53.580002
  C4         0.865000       35.970001       54.080002
  H4         1.905000       36.020000       53.689999
  C5         0.445000       34.650002       54.389999
  H5         1.065000       33.810001       54.599998
  C1         3.795000       32.119999       53.439999
  C2         3.725000       31.830000       52.139999
  N1         2.635000       31.559999       54.090000
  C3c        1.775000       31.129999       53.099998
  N2         2.505000       31.170000       51.919998
  C4         1.905000       30.320000       50.849998
  C5c        0.705000       29.680000       51.259998
  C6         0.205000       28.610001       50.540001
  H1        -0.355000       27.990000       51.220001
  C7         0.855000       28.200001       49.380001
  H2         0.495000       27.580000       48.669998
  C8         2.075000       28.750000       49.020000
  H3         2.705000       28.160000       48.349998
  C9         2.625000       29.809999       49.730000
  H4         3.635000       30.160000       49.570000
  C10        4.715000       32.410000       51.299999
  H5         4.785000       32.220001       50.240002
  C11        5.785000       33.139999       51.810001
  H6         6.735000       33.250000       51.220001
  C12        5.835000       33.419998       53.189999
  H7         6.665000       33.880001       53.680000
  C13        4.835000       32.889999       54.020000
  H8         4.865000       33.080002       55.080002
  C6         2.775000       30.910000       55.360001
  C1         3.455000       29.650000       55.480000
  H1         4.225000       29.270000       54.810001
  C2         3.315000       28.969999       56.689999
  H2         4.035000       28.170000       56.910000
  C3         2.535000       29.490000       57.730000
  H3         2.405000       28.920000       58.590000
  C4         1.875000       30.740000       57.580002
  H4         1.305000       31.160000       58.369999
  C5         2.055000       31.490000       56.410000
  H5         1.675000       32.520000       56.240002
  IR         7.360000       26.129999       48.500000
  C1         9.680000       25.580000       44.860001
  C2         8.970000       26.760000       44.730000
  N1         9.480000       25.180000       46.180000
  C3a        8.640000       26.090000       46.880001
  N2         8.350000       27.070000       45.980000
  C4         7.470000       28.139999       46.310001
  C5a        6.710000       27.860001       47.470001
  C6         5.640000       28.690001       47.759998
  H1         5.090000       28.530001       48.619999
  C7         5.410000       29.930000       47.080002
  H2         4.690000       30.690001       47.369999
  C8         6.250000       30.250000       45.990002
  H3         6.260000       31.240000       45.540001
  C9         7.260000       29.330000       45.570000
  H4         7.850000       29.620001       44.700001
  C10        8.920000       27.430000       43.509998
  H5         8.080000       28.100000       43.279999
  C11        9.740000       26.959999       42.500000
  H6         9.780000       27.480000       41.540001
  C12       10.460000       25.760000       42.580002
  H7        11.070000       25.370001       41.720001
  C13       10.450000       25.020000       43.799999
  H8        10.800000       23.980000       43.830002
  C6        10.110000       24.030001       46.840000
  C1        10.930000       24.129999       48.020000
  H1        10.860000       25.020000       48.560001
  C2        11.450000       22.959999       48.580002
  H2        12.310000       23.070000       49.230000
  C3        11.210000       21.670000       48.029999
  H3        11.220000       20.820000       48.720001
  C4        10.420000       21.660000       46.910000
  H4        10.030000       20.709999       46.610001
  C5         9.870000       22.780001       46.290001
  H5         9.060000       22.730000       45.540001
  C1         9.240000       29.010000       51.209999
  C2         7.930000       28.969999       51.599998
  N1         9.350000       28.110001       50.070000
  C3b        8.160000       27.500000       49.810001
  N2         7.200000       28.080000       50.700001
  C4         5.940000       27.480000       50.799999
  C5b        5.790000       26.389999       49.939999
  C6         4.660000       25.629999       50.080002
  H1         4.390000       24.820000       49.419998
  C7         3.720000       25.889999       51.090000
  H2         2.800000       25.320000       51.130001
  C8         3.790000       27.070000       51.849998
  H3         3.170000       27.250000       52.730000
  C9         4.960000       27.840000       51.720001
  H4         4.920000       28.820000       52.169998
  C10        7.540000       29.760000       52.669998
  H5         6.600000       29.520000       53.139999
  C11        8.450000       30.580000       53.340000
  H6         8.110000       30.940001       54.349998
  C12        9.720000       30.629999       52.919998
  H7        10.370000       31.129999       53.529999
  C13       10.150000       29.850000       51.810001
  H8        11.190000       29.820000       51.660000
  C6        10.590000       27.709999       49.500000
  C1        10.800000       28.030001       48.200001
  H1        10.150000       28.780001       47.770000
  C2        12.000000       27.790001       47.590000
  H2        12.140000       27.930000       46.520000
  C3        13.020000       27.200001       48.360001
  H3        13.960000       26.950001       47.970001
  C4        12.820000       26.910000       49.730000
  H4        13.600000       26.320000       50.250000
  C5        11.620000       27.180000       50.279999
  H5        11.520000       27.170000       51.360001
  C1         8.650000       22.280001       50.270000
  C2         7.810000       21.959999       49.220001
  N1         8.590000       23.680000       50.320000
  C3c        7.780000       24.270000       49.360001
  N2         7.320000       23.170000       48.590000
  C4         6.560000       23.490000       47.410000
  C5c        6.170000       24.860001       47.310001
  C6         5.400000       25.230000       46.240002
  H1         5.000000       26.270000       46.099998
  C7         4.930000       24.320000       45.250000
  H2         4.340000       24.709999       44.470001
  C8         5.260000       22.940001       45.410000
  H3         4.970000       22.280001       44.560001
  C9         6.070000       22.600000       46.459999
  H4         6.480000       21.600000       46.509998
  C10        7.540000       20.600000       49.009998
  H5         6.710000       20.330000       48.369999
  C11        8.140000       19.549999       49.709999
  H6         8.240000       18.580000       49.259998
  C12        8.990000       19.959999       50.730000
  H7         9.400000       19.270000       51.450001
  C13        9.250000       21.309999       51.080002
  H8         9.820000       21.629999       51.980000
  C6         9.090000       24.379999       51.549999
  C1        10.450000       24.410000       51.959999
  H1        11.220000       23.719999       51.540001
  C2        10.760000       25.129999       53.099998
  H2        11.760000       25.049999       53.570000
  C3         9.810000       25.860001       53.750000
  H3        10.030000       26.690001       54.490002
  C4         8.430000       25.850000       53.369999
  H4         7.780000       26.629999       53.840000
  C5         8.080000       25.070000       52.279999
  H5         7.000000       25.070000       51.919998
