206
 generated by VMD
  IR        31.930000        8.760000       50.189999
  C1        32.869999       11.690000       47.049999
  C2        32.200001       10.680000       46.419998
  N1        33.020000       11.290000       48.430000
  C3a       32.410000       10.060000       48.650002
  N2        31.840000        9.760000       47.430000
  C4        31.040001        8.610000       47.419998
  C5a       31.160000        7.800000       48.520000
  C6        30.719999        6.460000       48.540001
  H1        31.090000        5.750000       49.299999
  C7        30.040001        6.020000       47.430000
  H2        29.360001        5.150000       47.480000
  C8        29.870001        6.800000       46.279999
  H3        29.420000        6.280000       45.389999
  C9        30.379999        8.080000       46.299999
  H4        29.750000        8.700000       45.720001
  C10       31.770000       10.890000       45.049999
  H5        31.410000       10.120000       44.360001
  C11       31.879999       12.150000       44.540001
  H6        31.459999       12.410000       43.570000
  C12       32.509998       13.180000       45.220001
  H7        32.570000       14.170000       44.820000
  C13       33.090000       12.950000       46.450001
  H8        33.889999       13.630000       46.540001
  C6        33.919998       12.010000       49.369999
  C1        33.490002       12.990000       50.250000
  H1        32.470001       13.020000       50.549999
  C2        34.520000       13.710000       50.889999
  H2        34.189999       14.610000       51.290001
  C3        35.880001       13.530000       50.680000
  H3        36.570000       14.210000       51.139999
  C4        36.290001       12.550000       49.720001
  H4        37.270000       12.400000       49.330002
  C5        35.320000       11.740000       49.139999
  H5        35.660000       11.030000       48.490002
  C1        27.879999        9.920000       51.119999
  C2        28.120001        8.850000       51.959999
  N1        28.990000       10.130000       50.240002
  C3b       29.950001        9.210000       50.570000
  N2        29.330000        8.370000       51.520000
  C4        29.969999        7.140000       51.759998
  C5b       31.370001        7.250000       51.529999
  C6        32.189999        6.230000       52.049999
  H1        33.299999        6.420000       52.060001
  C7        31.680000        5.170000       52.830002
  H2        32.250000        4.350000       53.169998
  C8        30.309999        5.130000       53.070000
  H3        29.870001        4.510000       53.790001
  C9        29.469999        6.060000       52.540001
  H4        28.459999        5.980000       52.840000
  C10       27.150000        8.580000       52.980000
  H5        27.260000        7.740000       53.549999
  C11       26.000000        9.300000       53.040001
  H6        25.219999        9.150000       53.750000
  C12       25.760000       10.380000       52.200001
  H7        24.770000       10.810000       52.270000
  C13       26.700001       10.740000       51.189999
  H8        26.629999       11.660000       50.619999
  C6        29.090000       11.070000       49.070000
  C1        29.700001       12.320000       49.180000
  H1        30.309999       12.620000       50.020000
  C2        29.480000       13.210000       48.139999
  H2        30.219999       13.980000       48.180000
  C3        28.809999       12.860000       46.970001
  H3        28.490000       13.510000       46.160000
  C4        28.400000       11.560000       46.840000
  H4        27.910000       11.150000       45.990002
  C5        28.510000       10.690000       47.869999
  H5        27.840000        9.810000       47.830002
  C1        33.790001       10.680000       53.580002
  C2        34.840000       10.110000       52.919998
  N1        32.660000       10.400000       52.880001
  C3c       32.889999        9.710000       51.740002
  N2        34.259998        9.540000       51.700001
  C4        34.810001        8.820000       50.520000
  C5c       33.849998        7.980000       49.889999
  C6        34.189999        6.920000       49.040001
  H1        33.459999        6.420000       48.520000
  C7        35.549999        6.560000       48.880001
  H2        35.860001        5.750000       48.279999
  C8        36.500000        7.290000       49.549999
  H3        37.500000        7.080000       49.279999
  C9        36.169998        8.420000       50.310001
  H4        37.029999        9.020000       50.700001
  C10       36.169998       10.190000       53.450001
  H5        37.020000        9.710000       52.959999
  C11       36.400002       10.830000       54.650002
  H6        37.459999       10.870000       54.919998
  C12       35.360001       11.520000       55.240002
  H7        35.560001       12.070000       56.189999
  C13       34.099998       11.470000       54.700001
  H8        33.259998       11.890000       55.250000
  C6        31.350000       10.800000       53.270000
  C1        30.719999       11.980000       52.840000
  H1        31.209999       12.620000       52.090000
  C2        29.480000       12.400000       53.380001
  H2        28.990000       13.210000       52.880001
  C3        28.850000       11.600000       54.400002
  H3        27.950001       12.030000       54.889999
  C4        29.469999       10.430000       54.820000
  H4        29.190001       10.010000       55.779999
  C5        30.690001       10.040000       54.270000
  H5        31.020000        9.070000       54.490002
  IR        35.880001        7.680000       59.369999
  C1        38.490002        8.710000       62.799999
  C2        38.230000        9.900000       62.090000
  N1        37.919998        7.750000       61.970001
  C3a       37.240002        8.270000       60.810001
  N2        37.400002        9.610000       60.990002
  C4        36.540001       10.480000       60.160000
  C5a       35.459999        9.770000       59.509998
  C6        34.410000       10.490000       58.860001
  H1        33.820000        9.990000       58.160000
  C7        34.419998       11.890000       58.840000
  H2        33.619999       12.440000       58.380001
  C8        35.529999       12.540000       59.360001
  H3        35.610001       13.680000       59.230000
  C9        36.599998       11.880000       59.980000
  H4        37.570000       12.430000       59.959999
  C10       38.759998       11.070000       62.590000
  H5        38.480000       12.020000       62.209999
  C11       39.639999       11.090000       63.709999
  H6        40.009998       12.050000       64.089996
  C12       39.869999        9.920000       64.449997
  H7        40.340000       10.050000       65.349998
  C13       39.290001        8.770000       63.930000
  H8        39.680000        7.840000       64.349998
  C6        38.500000        6.430000       62.009998
  C1        38.230000        5.660000       63.169998
  H1        37.410000        5.930000       63.810001
  C2        38.889999        4.410000       63.310001
  H2        38.610001        3.720000       64.089996
  C3        39.599998        3.880000       62.230000
  H3        39.939999        2.810000       62.259998
  C4        39.849998        4.580000       61.020000
  H4        40.090000        4.100000       60.049999
  C5        39.290001        5.880000       60.970001
  H5        39.470001        6.470000       60.060001
  C1        32.189999        7.140000       61.580002
  C2        31.770000        7.140000       60.279999
  N1        33.549999        7.370000       61.660000
  C3b       34.080002        7.450000       60.389999
  N2        32.950001        7.370000       59.560001
  C4        33.119999        7.410000       58.180000
  C5b       34.470001        7.390000       57.790001
  C6        34.840000        7.120000       56.450001
  H1        35.880001        7.240000       56.169998
  C7        33.849998        6.900000       55.500000
  H2        34.060001        6.820000       54.430000
  C8        32.500000        7.060000       55.860001
  H3        31.709999        7.090000       55.110001
  C9        32.080002        7.280000       57.150002
  H4        31.070000        7.600000       57.330002
  C10       30.379999        6.830000       59.970001
  H5        29.870001        7.200000       59.060001
  C11       29.469999        6.430000       61.020000
  H6        28.559999        5.870000       60.810001
  C12       29.940001        6.600000       62.340000
  H7        29.250000        6.500000       63.130001
  C13       31.219999        6.970000       62.590000
  H8        31.590000        6.890000       63.650002
  C6        34.099998        8.160000       62.700001
  C1        34.310001        9.580000       62.580002
  H1        33.919998       10.110000       61.720001
  C2        35.150002       10.250000       63.540001
  H2        35.450001       11.270000       63.480000
  C3        35.750000        9.510000       64.570000
  H3        36.650002        9.810000       65.120003
  C4        35.470001        8.130000       64.690002
  H4        35.939999        7.540000       65.410004
  C5        34.680000        7.450000       63.750000
  H5        34.509998        6.370000       63.869999
  C1        37.389999        3.560000       58.950001
  C2        37.910000        4.270000       57.869999
  N1        36.590000        4.490000       59.709999
  C3c       36.580002        5.760000       59.090000
  N2        37.459999        5.650000       58.040001
  C4        38.110001        6.840000       57.610001
  C5c       37.410000        7.980000       57.900002
  C6        37.849998        9.170000       57.380001
  H1        37.209999       10.070000       57.410000
  C7        39.000000        9.290000       56.630001
  H2        39.330002       10.240000       56.410000
  C8        39.709999        8.180000       56.360001
  H3        40.590000        8.200000       55.700001
  C9        39.310001        6.960000       56.900002
  H4        39.930000        6.090000       56.900002
  C10       38.810001        3.650000       57.000000
  H5        39.220001        4.100000       56.080002
  C11       39.160000        2.350000       57.330002
  H6        39.919998        1.940000       56.669998
  C12       38.599998        1.630000       58.380001
  H7        39.110001        0.740000       58.779999
  C13       37.709999        2.270000       59.230000
  H8        37.139999        1.800000       60.000000
  C6        35.570000        3.890000       60.509998
  C1        34.240002        4.210000       60.220001
  H1        34.009998        4.730000       59.270000
  C2        33.279999        3.900000       61.209999
  H2        32.310001        3.920000       60.860001
  C3        33.590000        3.370000       62.439999
  H3        32.779999        3.200000       63.209999
  C4        34.900002        3.060000       62.770000
  H4        35.060001        2.390000       63.619999
  C5        35.930000        3.290000       61.759998
  H5        36.830002        2.760000       61.880001
