206
 generated by VMD
 Ir       80.108124       97.171982      -89.994385
 C        84.165604       95.931549      -90.864258
 C        84.210739       97.314163      -91.109039
 N        82.901138       95.442719      -90.489738
 C        81.991470       96.592072      -90.599792
 N        82.830841       97.674759      -90.975487
 C        82.102097       98.855347      -91.477951
 C        80.705399       98.757721      -91.245140
 C        79.916229       99.890076      -91.621826
 H        78.957932      100.038071      -91.139053
 C        80.427582      101.048996      -92.158478
 H        79.679092      101.570206      -92.726089
 C        81.749649      101.116913      -92.397995
 H        82.185654      102.067352      -92.663620
 C        82.635742      100.019730      -92.122650
 H        83.616745       99.937317      -92.522453
 C        85.427887       97.892914      -91.548920
 H        85.556763       98.931763      -91.337524
 C        86.575394       97.102814      -91.740982
 H        87.384155       97.501541      -92.354675
 C        86.529251       95.770218      -91.467964
 H        87.403183       95.088562      -91.660034
 C        85.328598       95.226639      -91.054367
 H        85.408768       94.158264      -90.763245
 C        82.757401       94.368439      -89.544456
 C        83.202103       94.513046      -88.261719
 H        83.888016       95.321213      -88.039673
 C        82.887375       93.628006      -87.250496
 H        83.290527       93.731354      -86.246803
 C        82.120041       92.505592      -87.559799
 H        81.779839       92.020081      -86.722458
 C        81.698730       92.276169      -88.861435
 H        80.987488       91.504593      -88.993378
 C        82.024490       93.225006      -89.875488
 H        81.724335       93.059647      -90.886070
 C        80.703415       99.286545      -86.366287
 C        79.417511       99.715408      -86.835564
 N        81.253296       98.486252      -87.316055
 C        80.438202       98.374664      -88.380096
 N        79.266754       99.103470      -88.037811
 C        78.037750       98.862503      -88.827217
 C        78.174377       97.842270      -89.809433
 C        77.088913       97.595490      -90.664871
 H        77.041893       96.693008      -91.228271
 C        75.853836       98.256912      -90.464050
 H        74.873672       97.917160      -90.708282
 C        75.709518       99.325012      -89.563370
 H        74.812729       99.974808      -89.542358
 C        76.807098       99.598648      -88.797562
 H        76.781296      100.500046      -88.224243
 C        78.659531      100.517227      -85.991554
 H        77.705811      100.898849      -86.266090
 C        79.068535      100.908340      -84.732407
 H        78.368973      101.332825      -84.074974
 C        80.306145      100.464615      -84.256256
 H        80.780548      100.963455      -83.352097
 C        81.144150       99.644272      -85.029167
 H        82.185257       99.418518      -84.822220
 C        82.699417       98.347107      -87.393295
 C        83.353760       99.211021      -88.333710
 H        82.817009       99.739838      -89.070160
 C        84.741623       99.219070      -88.429413
 H        85.249062       99.707809      -89.248772
 C        85.481934       98.283493      -87.694687
 H        86.527161       98.098450      -87.967041
 C        84.858681       97.448212      -86.764923
 H        85.618851       96.928787      -86.111519
 C        83.482269       97.462616      -86.612976
 H        82.985382       96.701691      -85.987518
 C        78.495300       93.631317      -87.941116
 C        78.350800       93.385529      -89.239273
 N        79.154434       94.896637      -87.835709
 C        79.388870       95.443527      -89.079552
 N        78.885757       94.498810      -89.970505
 C        78.961014       94.737274      -91.296989
 C        79.372208       96.031754      -91.677147
 C        79.464264       96.304314      -93.088226
 H        79.750443       97.276947      -93.543739
 C        79.133667       95.361389      -94.043472
 H        79.200150       95.624817      -95.159485
 C        78.787964       94.067978      -93.666420
 H        78.485458       93.411743      -94.444977
 C        78.686745       93.766785      -92.265152
 H        78.635025       92.765884      -92.027435
 C        77.713333       92.194199      -89.570633
 H        77.399879       91.816422      -90.580795
 C        77.245270       91.348366      -88.591827
 H        76.597450       90.468430      -88.904961
 C        77.404541       91.560432      -87.219215
 H        77.567444       90.688828      -86.692848
 C        78.016998       92.793800      -86.885330
 H        78.100006       93.154572      -85.814323
 C        79.222672       95.655411      -86.648613
 C        78.241882       96.571945      -86.277893
 H        77.458328       96.913391      -86.971024
 C        78.292023       97.091461      -85.007576
 H        77.530823       97.832520      -84.767975
 C        79.196350       96.700607      -84.038445
 H        79.021576       96.823288      -82.979858
 C        80.213699       95.784088      -84.443275
 H        81.090851       95.527466      -83.840401
 C        80.173691       95.236656      -85.702728
 H        80.763443       94.456848      -85.964828
 Ir       80.108124       97.171982      -79.294334
 C        77.029266       97.726929      -76.247070
 C        76.563400       96.666885      -76.907570
 N        78.127609       98.241974      -76.960861
 C        78.466293       97.485245      -78.034348
 N        77.467682       96.470123      -78.063835
 C        77.555267       95.537308      -79.245186
 C        78.774261       95.678947      -79.990906
 C        78.949371       94.868271      -81.151741
 H        79.886169       95.008133      -81.730835
 C        77.977753       93.932236      -81.518745
 H        78.106400       93.170410      -82.289635
 C        76.799194       93.820663      -80.715042
 H        76.010422       93.100624      -81.047302
 C        76.641304       94.624084      -79.579704
 H        75.736496       94.604584      -79.024963
 C        75.507874       95.992386      -76.441048
 H        74.910278       95.396729      -77.110794
 C        74.933701       96.295273      -75.209511
 H        73.833847       96.205978      -75.186256
 C        75.538750       97.281326      -74.473160
 H        75.191299       97.435944      -73.438377
 C        76.546524       98.087082      -75.064133
 H        76.838013       99.075104      -74.693130
 C        78.564919       99.701996      -76.829346
 C        77.834717      100.806068      -77.260078
 H        76.857628      100.651985      -77.794174
 C        78.162247      102.078629      -76.835800
 H        77.712204      102.955338      -77.200829
 C        79.183128      102.254730      -75.917656
 H        79.159637      103.149963      -75.297897
 C        79.982635      101.235123      -75.573875
 H        80.760925      101.325760      -74.842407
 C        79.725609       99.969803      -76.054520
 H        80.433853       99.188385      -75.749908
 C        81.739639       93.430618      -77.736458
 C        82.556442       93.650375      -78.854546
 N        80.852325       94.472244      -77.573387
 C        81.087067       95.483795      -78.553055
 N        82.075684       94.934578      -79.340454
 C        82.354919       95.681183      -80.536278
 C        81.571671       96.851562      -80.774689
 C        81.853531       97.692398      -81.850456
 H        81.336456       98.674866      -81.788956
 C        82.876114       97.318283      -82.762680
 H        83.024986       97.934341      -83.629173
 C        83.653336       96.090286      -82.574699
 H        84.374786       95.820587      -83.296623
 C        83.445328       95.308502      -81.434448
 H        83.850922       94.303940      -81.439529
 C        83.512756       92.754166      -79.251495
 H        84.302307       93.003891      -79.871140
 C        83.726028       91.582718      -78.539238
 H        84.733528       91.152237      -78.661469
 C        83.052155       91.359283      -77.370590
 H        83.436333       90.672447      -76.621750
 C        82.030205       92.288162      -77.058632
 H        81.307449       91.922012      -76.294128
 C        80.001785       94.655228      -76.447456
 C        80.252853       95.749725      -75.636078
 H        80.977448       96.543854      -75.826965
 C        79.367767       95.994003      -74.605804
 H        79.547729       96.725662      -73.841293
 C        78.225998       95.199615      -74.422272
 H        77.501251       95.532028      -73.747833
 C        77.986450       94.140640      -75.235962
 H        77.008530       93.781647      -75.375191
 C        78.915863       93.861557      -76.277359
 H        78.723877       93.122635      -77.040092
 C        83.035995      100.487701      -78.677757
 C        81.952866      101.029678      -79.340157
 N        82.637680       99.184174      -78.415726
 C        81.365692       98.807205      -78.870087
 N        80.897675      100.056236      -79.356987
 C        79.669876      100.007385      -80.086456
 C        79.186516       98.740990      -80.413910
 C        78.008301       98.649368      -81.207512
 H        77.485947       97.727295      -81.239616
 C        77.255157       99.803459      -81.589546
 H        76.205536       99.675774      -81.776306
 C        77.718330      101.078888      -81.137154
 H        77.120773      101.911758      -81.440407
 C        78.957161      101.191544      -80.410515
 H        79.471725      102.082031      -80.166885
 C        82.081924      102.293823      -79.949387
 H        81.335266      102.945145      -80.368439
 C        83.314133      102.872849      -80.006683
 H        83.356644      103.933517      -80.063736
 C        84.358322      102.317444      -79.268768
 H        85.418686      102.636261      -79.466278
 C        84.149429      101.146088      -78.539886
 H        84.939919      100.852509      -77.941933
 C        83.364441       98.313110      -77.622215
 C        84.089279       97.246964      -78.193947
 H        84.185089       97.200806      -79.249207
 C        84.511383       96.192917      -77.448433
 H        84.933823       95.355217      -78.007103
 C        84.458038       96.210724      -76.054504
 H        85.020302       95.516632      -75.481262
 C        83.809906       97.314529      -75.429893
 H        83.857224       97.497688      -74.367813
 C        83.190002       98.314987      -76.211487
 H        82.585182       99.069733      -75.760323
