206
 generated by VMD
 Ir       81.024139      113.669418       20.612297
 C        78.667526      117.332520       20.100571
 C        79.653549      117.407547       19.138378
 N        78.858665      116.120300       20.788612
 C        79.935059      115.404266       20.284073
 N        80.404839      116.212952       19.254639
 C        81.563118      115.728561       18.577389
 C        82.265289      114.767288       19.305252
 C        83.589081      114.472534       18.950417
 H        84.198074      113.913269       19.631405
 C        84.168961      115.057098       17.817314
 H        85.181709      114.811066       17.553482
 C        83.444061      115.972275       17.046360
 H        83.886597      116.418686       16.168304
 C        82.135422      116.297760       17.429928
 H        81.531952      116.901855       16.774632
 C        79.727859      118.562065       18.330315
 H        80.525536      118.698677       17.624298
 C        78.805618      119.599304       18.486477
 H        78.851326      120.463257       17.837326
 C        77.805664      119.505081       19.469589
 H        77.118835      120.324646       19.616184
 C        77.734070      118.363373       20.262524
 H        76.949509      118.286942       21.008595
 C        78.225021      115.825165       22.051098
 C        78.844757      116.220001       23.237030
 H        79.693893      116.892120       23.204811
 C        78.380569      115.734055       24.461163
 H        78.908096      115.991776       25.369076
 C        77.285690      114.860954       24.503891
 H        76.984665      114.424805       25.442532
 C        76.645370      114.487885       23.319447
 H        75.848389      113.764557       23.344166
 C        77.109550      114.973831       22.095314
 H        76.625931      114.685364       21.169300
 C        79.618973      111.207161       17.298130
 C        80.468704      110.382858       17.996544
 N        79.684784      112.473709       17.892200
 C        80.547775      112.499741       18.968578
 N        81.061386      111.201416       18.993980
 C        82.159073      111.001999       19.895443
 C        82.421616      112.082993       20.751369
 C        83.538895      112.020554       21.600361
 H        83.821335      112.891434       22.176361
 C        84.368057      110.901451       21.622623
 H        85.240845      110.893982       22.249352
 C        84.104156      109.814056       20.774258
 H        84.731750      108.945923       20.787445
 C        82.999222      109.875214       19.913181
 H        82.859604      109.055466       19.221058
 C        80.530960      109.022942       17.650627
 H        81.094955      108.321518       18.242920
 C        79.753792      108.515503       16.605537
 H        79.821922      107.468033       16.339886
 C        78.897179      109.366699       15.888955
 H        78.277161      108.972031       15.099761
 C        78.836060      110.718918       16.228573
 H        78.219658      111.379379       15.645083
 C        78.891548      113.582367       17.444496
 C        77.770905      113.973320       18.194908
 H        77.569199      113.515396       19.146233
 C        76.939423      114.996185       17.733852
 H        76.056427      115.266678       18.292923
 C        77.227676      115.649887       16.527416
 H        76.580322      116.430801       16.172466
 C        78.357033      115.266632       15.785075
 H        78.575256      115.761688       14.854917
 C        79.179810      114.236069       16.238060
 H        80.029099      113.927162       15.640414
 C        78.785995      111.633972       23.789314
 C        79.701935      112.417793       24.458557
 N        79.014435      111.811310       22.407112
 C        80.041519      112.711212       22.176548
 N        80.471710      113.053619       23.455883
 C        81.588730      113.949814       23.516006
 C        81.782967      114.656021       22.323849
 C        82.592636      115.801895       22.341541
 H        82.570755      116.472427       21.503387
 C        83.277542      116.186478       23.504082
 H        83.952126      117.032730       23.481991
 C        83.137955      115.427765       24.674877
 H        83.710953      115.675224       25.555855
 C        82.294220      114.312622       24.677059
 H        82.269707      113.674118       25.547173
 C        79.662766      112.459412       25.861713
 H        80.313782      113.124123       26.422192
 C        78.732117      111.700546       26.572704
 H        78.719658      111.720245       27.658043
 C        77.819565      110.893677       25.884563
 H        77.120689      110.273010       26.436859
 C        77.836792      110.867432       24.490463
 H        77.150352      110.227066       23.957420
 C        78.371170      110.986343       21.408390
 C        77.201218      111.433014       20.795620
 H        76.775681      112.380646       21.071144
 C        76.533142      110.615768       19.878284
 H        75.673126      110.986908       19.349957
 C        77.033676      109.345474       19.581287
 H        76.546432      108.719070       18.844715
 C        78.200905      108.886017       20.209179
 H        78.583755      107.902557       20.001450
 C        78.870338      109.709641       21.118950
 H        79.808914      109.378143       21.549519
 Ir       81.024139      113.669418       31.903160
 C        82.708122      117.473862       33.216595
 C        81.916107      117.808891       32.141113
 N        82.676849      116.071915       33.333912
 C        81.876221      115.500488       32.362686
 N        81.400101      116.584671       31.620808
 C        80.506668      116.267998       30.544292
 C        80.126122      114.917206       30.456917
 C        79.276901      114.525009       29.417019
 H        78.966629      113.493011       29.334339
 C        78.818504      115.433670       28.463760
 H        78.182205      115.094055       27.652096
 C        79.188972      116.770386       28.550629
 H        78.855827      117.475555       27.804741
 C        80.028809      117.190750       29.586224
 H        80.320892      118.223984       29.600582
 C        81.828232      119.169769       31.782516
 H        81.163017      119.502373       31.018661
 C        82.568481      120.135422       32.468193
 H        82.606850      121.144165       32.085640
 C        83.368523      119.765823       33.555538
 H        83.991287      120.495804       34.047157
 C        83.411133      118.429291       33.939808
 H        83.963509      118.151794       34.822521
 C        83.611938      115.387222       34.179016
 C        84.979523      115.457382       33.863113
 H        85.280670      115.732193       32.867329
 C        85.942528      115.167107       34.835354
 H        86.991043      115.242447       34.598621
 C        85.547348      114.778488       36.127796
 H        86.282822      114.608490       36.896408
 C        84.181572      114.664795       36.433640
 H        83.873291      114.324677       37.412560
 C        83.229767      114.961472       35.455605
 H        82.184647      114.784958       35.673485
 C        77.316940      113.965263       34.209751
 C        77.109604      112.879150       33.385876
 N        78.589188      114.472046       33.915512
 C        79.225243      113.740456       32.921932
 N        78.297264      112.746826       32.601868
 C        78.726479      111.786072       31.628410
 C        80.040741      111.949631       31.157158
 C        80.552864      111.027298       30.231133
 H        81.564331      111.141006       29.861519
 C        79.781860      109.961891       29.772827
 H        80.197311      109.279099       29.045242
 C        78.479935      109.797043       30.231987
 H        77.855530      108.992851       29.862396
 C        77.947891      110.705284       31.155746
 H        76.914749      110.596657       31.419975
 C        75.867645      112.209656       33.455368
 H        75.697418      111.285004       32.933411
 C        74.869377      112.658249       34.316246
 H        73.888367      112.196106       34.290810
 C        75.095497      113.766129       35.148693
 H        74.308304      114.121155       35.796516
 C        76.324661      114.408752       35.093819
 H        76.511566      115.252792       35.748917
 C        79.126938      115.632324       34.597179
 C        79.043472      116.899628       33.988331
 H        78.719894      116.976006       32.963459
 C        79.403702      118.050964       34.696598
 H        79.360435      119.008469       34.203106
 C        79.857483      117.949097       36.014210
 H        80.111992      118.840469       36.576069
 C        79.962006      116.688202       36.619034
 H        80.393982      116.606674       37.606178
 C        79.579590      115.538147       35.921089
 H        79.589706      114.589622       36.429420
 C        83.378204      111.415787       34.743752
 C        84.273415      111.818604       33.778069
 N        82.090851      111.714005       34.275139
 C        82.150024      112.354912       33.043091
 N        83.497925      112.346970       32.723682
 C        83.791870      112.703560       31.372704
 C        82.744705      113.348648       30.698685
 C        82.898605      113.642502       29.335537
 H        82.101051      114.146790       28.798874
 C        84.060295      113.291260       28.639328
 H        84.156578      113.522537       27.596283
 C        85.096252      112.639786       29.319145
 H        85.994858      112.350105       28.786304
 C        84.973251      112.352325       30.680038
 H        85.749207      111.794250       31.167309
 C        85.647415      111.735382       34.047512
 H        86.377792      112.048691       33.320198
 C        86.103119      111.272415       35.297993
 H        87.159691      111.268600       35.524586
 C        85.178375      110.869614       36.258366
 H        85.531372      110.539696       37.232708
 C        83.815132      110.931061       35.985653
 H        83.102844      110.597275       36.725342
 C        80.949661      110.960152       34.688049
 C        80.751694      109.679558       34.150852
 H        81.513977      109.234924       33.528511
 C        79.582169      108.971741       34.438953
 H        79.442543      107.985687       34.029205
 C        78.600777      109.544525       35.262478
 H        77.689011      109.003098       35.473305
 C        78.797386      110.818710       35.807236
 H        78.016235      111.300453       36.365025
 C        79.975388      111.520134       35.528469
 H        80.141823      112.493393       35.958664
