206
 generated by VMD
 Ir       -0.233926       -0.793310       -6.164360
 C         1.492475       -0.112920      -10.127899
 C         0.161059       -0.401565      -10.370827
 N         1.695902       -0.230624       -8.736004
 C         0.528328       -0.602527       -8.079529
 N        -0.402992       -0.720667       -9.112045
 C        -1.730284       -1.068764       -8.700569
 C        -1.987452       -0.814273       -7.348980
 C        -3.317484       -0.868993       -6.908844
 H        -3.561053       -0.579741       -5.897850
 C        -4.349038       -1.245059       -7.763519
 H        -5.375556       -1.282426       -7.398750
 C        -4.066116       -1.563048       -9.097660
 H        -4.873668       -1.862191       -9.762318
 C        -2.760687       -1.486044       -9.569389
 H        -2.530583       -1.871149      -10.542553
 C        -0.336827       -0.314950      -11.681931
 H        -1.374897       -0.489759      -11.886261
 C         0.509700        0.060310      -12.734913
 H         0.111686        0.152747      -13.736687
 C         1.851563        0.357500      -12.487762
 H         2.506004        0.636650      -13.297508
 C         2.339004        0.262339      -11.180878
 H         3.388906        0.457599      -10.999828
 C         3.006268       -0.199594       -8.132950
 C         3.970228       -1.137899       -8.523163
 H         3.725798       -1.914584       -9.235218
 C         5.255984       -1.089775       -7.964851
 H         6.008591       -1.795419       -8.279575
 C         5.577785       -0.103345       -7.016331
 H         6.548380       -0.107389       -6.543747
 C         4.609884        0.826414       -6.622738
 H         4.841089        1.565556       -5.873062
 C         3.324123        0.778290       -7.181049
 H         2.552965        1.425941       -6.797825
 C        -0.649326        3.368178       -4.940613
 C        -1.304480        2.648832       -3.972359
 N        -0.289817        2.461021       -5.958656
 C        -0.687418        1.165498       -5.644920
 N        -1.345862        1.307989       -4.423836
 C        -1.893059        0.115087       -3.876877
 C        -1.325751       -1.068929       -4.375244
 C        -1.615332       -2.267653       -3.719650
 H        -1.218989       -3.201911       -4.111271
 C        -2.469690       -2.311672       -2.607338
 H        -2.599149       -3.230182       -2.062386
 C        -3.066948       -1.141397       -2.149151
 H        -3.793296       -1.178446       -1.343704
 C        -2.796850        0.072903       -2.788078
 H        -3.401639        0.926884       -2.547150
 C        -1.732901        3.308128       -2.803261
 H        -2.193147        2.760607       -2.001709
 C        -1.506176        4.676386       -2.628731
 H        -1.899666        5.186972       -1.765846
 C        -0.823649        5.397255       -3.620399
 H        -0.593037        6.436113       -3.475517
 C        -0.399172        4.734603       -4.772968
 H         0.114463        5.294025       -5.541229
 C         0.026158        2.899208       -7.294754
 C        -0.827919        2.564613       -8.340698
 H        -1.695148        1.946252       -8.164799
 C        -0.565300        3.022045       -9.631161
 H        -1.239686        2.769879      -10.436028
 C         0.555339        3.822616       -9.879047
 H         0.761169        4.173239      -10.884087
 C         1.406867        4.170949       -8.830925
 H         2.243005        4.827169       -9.006554
 C         1.153298        3.699779       -7.535046
 H         1.827686        3.951944       -6.730175
 C         3.535673       -1.252412       -4.046005
 C         3.476344       -2.335641       -4.903210
 N         2.309553       -0.578804       -4.128983
 C         1.468472       -1.194244       -5.041290
 N         2.179219       -2.303172       -5.478111
 C         1.425152       -3.244342       -6.254311
 C         0.082012       -2.877537       -6.421421
 C        -0.818179       -3.813772       -6.941055
 H        -1.875637       -3.583146       -6.970898
 C        -0.387996       -5.074080       -7.348450
 H        -1.105034       -5.765493       -7.774723
 C         0.960470       -5.425627       -7.225380
 H         1.307163       -6.390402       -7.574535
 C         1.868323       -4.515031       -6.672817
 H         2.903496       -4.785037       -6.650234
 C         4.614893       -3.158851       -5.034832
 H         4.635933       -3.965795       -5.750233
 C         5.772403       -2.900348       -4.301037
 H         6.626491       -3.550723       -4.386749
 C         5.816190       -1.798190       -3.443703
 H         6.698892       -1.611104       -2.856476
 C         4.694576       -0.971624       -3.313404
 H         4.740133       -0.130810       -2.641804
 C         1.839124        0.279222       -3.068703
 C         1.124616       -0.278305       -1.997047
 H         0.876867       -1.326916       -2.008854
 C         0.685276        0.536671       -0.950199
 H         0.222736        0.081965       -0.094048
 C         0.930505        1.911012       -0.975723
 H         0.566253        2.541250       -0.190472
 C         1.632015        2.468539       -2.062569
 H         1.762792        3.543106       -2.121788
 C         2.084360        1.653562       -3.094219
 H         2.611873        2.082312       -3.940151
 Ir       -0.233925       -0.793308        6.994270
 C        -4.238839       -1.922163        5.616676
 C        -4.156631       -2.429096        6.888542
 N        -2.981104       -1.362482        5.304161
 C        -2.104107       -1.463528        6.369987
 N        -2.850214       -2.136148        7.350235
 C        -2.205462       -2.297279        8.614685
 C        -1.115084       -1.434986        8.813751
 C        -0.574711       -1.328058       10.101685
 H         0.193552       -0.598217       10.299919
 C        -1.058358       -2.102676       11.160110
 H        -0.573777       -2.049816       12.127312
 C        -2.107205       -3.004663       10.938675
 H        -2.442851       -3.645313       11.738930
 C        -2.671010       -3.104563        9.670784
 H        -3.366644       -3.901579        9.476227
 C        -5.274378       -3.060507        7.449768
 H        -5.257662       -3.423979        8.474998
 C        -6.470381       -3.176434        6.735741
 H        -7.298548       -3.716927        7.154564
 C        -6.556298       -2.624929        5.453880
 H        -7.498128       -2.607462        4.930389
 C        -5.438557       -1.993521        4.892662
 H        -5.527879       -1.542110        3.916367
 C        -2.614552       -0.977728        3.951134
 C        -2.831712       -1.877483        2.899948
 H        -3.204475       -2.866524        3.100334
 C        -2.621325       -1.467979        1.575211
 H        -2.775498       -2.169893        0.772804
 C        -2.217214       -0.162075        1.295372
 H        -2.119530        0.163223        0.277565
 C        -2.000054        0.737680        2.346558
 H        -1.705266        1.757868        2.133904
 C        -2.187008        0.326342        3.664413
 H        -1.928872        0.986725        4.483170
 C        -1.239138        3.155825        8.590889
 C         0.037729        2.906900        9.038376
 N        -1.600373        2.104691        7.728722
 C        -0.588761        1.139858        7.653030
 N         0.424005        1.675274        8.444832
 C         1.663089        0.965326        8.450920
 C         1.595933       -0.332779        7.929375
 C         2.760520       -1.114458        7.933388
 H         2.729417       -2.141153        7.578392
 C         3.975313       -0.616957        8.420815
 H         4.855421       -1.241375        8.431274
 C         4.039907        0.684505        8.918228
 H         4.957399        1.054436        9.357262
 C         2.892265        1.474730        8.926041
 H         2.996442        2.514536        9.192215
 C         0.645847        3.838636        9.886757
 H         1.585557        3.608379       10.372597
 C        -0.008517        5.020815       10.249046
 H         0.481863        5.746473       10.882324
 C        -1.298388        5.269739        9.786362
 H        -1.798739        6.193617       10.030083
 C        -1.920891        4.331295        8.963432
 H        -2.919507        4.522799        8.606934
 C        -2.665997        2.272018        6.758446
 C        -3.777426        1.422573        6.774757
 H        -3.794753        0.589846        7.460663
 C        -4.865054        1.660742        5.928566
 H        -5.713996        1.005724        5.944084
 C        -4.850293        2.762093        5.060631
 H        -5.694907        2.955374        4.414505
 C        -3.747914        3.625277        5.038895
 H        -3.750062        4.489149        4.409119
 C        -2.664235        3.378561        5.888466
 H        -1.846364        4.087009        5.912682
 C         1.875450        0.009777        3.255852
 C         1.876220       -1.358482        3.347305
 N         1.238151        0.518898        4.393063
 C         0.778537       -0.503635        5.207230
 N         1.170366       -1.672077        4.543144
 C         0.819507       -2.899797        5.172188
 C         0.412178       -2.757940        6.507469
 C         0.336133       -3.903860        7.309395
 H         0.069578       -3.813341        8.353210
 C         0.601060       -5.177591        6.793312
 H         0.562833       -6.037790        7.444466
 C         0.955011       -5.320970        5.451057
 H         1.068696       -6.302210        5.024857
 C         1.060985       -4.182075        4.636696
 H         1.158132       -4.316535        3.579865
 C         2.544860       -2.112428        2.367512
 H         2.664018       -3.182748        2.462982
 C         3.203689       -1.473991        1.317165
 H         3.842741       -2.043199        0.652168
 C         3.161382       -0.081609        1.208603
 H         3.609773        0.414313        0.351395
 C         2.499237        0.667143        2.182838
 H         2.460834        1.745697        2.084091
 C         1.532012        1.845055        4.865448
 C         2.746814        2.082478        5.523926
 H         3.459386        1.277367        5.651360
 C         3.040443        3.355515        6.009674
 H         3.957017        3.533739        6.554771
 C         2.123216        4.399681        5.833580
 H         2.319328        5.371109        6.271141
 C         0.918853        4.165617        5.166168
 H         0.210216        4.968891        5.009056
 C         0.618724        2.892576        4.672821
 H        -0.301785        2.710997        4.144245
