206
 generated by VMD
 Ir       89.375397     -134.347687       37.471153
 C        87.242477     -131.353943       39.781624
 C        86.713661     -131.244476       38.494194
 N        88.165726     -132.402649       39.766365
 C        88.300995     -132.864258       38.453236
 N        87.516663     -132.117188       37.706436
 C        87.851906     -132.052521       36.387447
 C        88.484291     -133.241821       35.934437
 C        88.782570     -133.284119       34.566540
 H        89.164871     -134.160278       34.198299
 C        88.473831     -132.240814       33.650742
 H        88.956467     -132.148254       32.715546
 C        87.794701     -131.117020       34.114738
 H        87.491585     -130.221588       33.505863
 C        87.557327     -130.964508       35.498138
 H        87.509361     -130.004013       35.907726
 C        85.635551     -130.392120       38.217621
 H        85.204697     -130.240463       37.270966
 C        85.034111     -129.655777       39.286240
 H        84.127281     -129.078644       39.216354
 C        85.565186     -129.823502       40.572601
 H        84.888397     -129.652130       41.400345
 C        86.671196     -130.564865       40.847069
 H        87.205605     -130.445847       41.855453
 C        88.831413     -132.807938       41.000309
 C        88.213593     -133.675629       41.888695
 H        87.163300     -133.861816       41.952797
 C        88.943893     -134.332794       42.859978
 H        88.360863     -135.122650       43.322880
 C        90.318130     -134.126282       43.030075
 H        90.883919     -134.820099       43.592476
 C        90.898056     -133.202850       42.203789
 H        91.867264     -132.760010       42.387985
 C        90.142120     -132.554474       41.189308
 H        90.726196     -132.267059       40.327888
 C        86.025421     -137.142853       36.673859
 C        87.128014     -137.647217       35.999111
 N        86.540009     -135.981293       37.326736
 C        87.894974     -135.744171       37.096844
 N        88.280052     -136.787567       36.307152
 C        89.701820     -136.901489       36.078926
 C        90.354462     -135.641052       36.124950
 C        91.648308     -135.425278       35.525856
 H        91.998131     -134.449310       35.371944
 C        92.280205     -136.509888       34.885124
 H        93.292305     -136.517548       34.640015
 C        91.643600     -137.753510       34.798367
 H        92.088104     -138.620651       34.257061
 C        90.326454     -137.958984       35.441620
 H        90.183800     -138.934738       35.741074
 C        86.947815     -138.683548       35.122200
 H        87.846321     -139.261963       34.775879
 C        85.690643     -139.275269       34.863735
 H        85.721382     -139.977646       34.008972
 C        84.586685     -138.815582       35.539127
 H        83.650848     -139.358124       35.339191
 C        84.772110     -137.804871       36.513077
 H        83.926994     -137.715088       37.221188
 C        85.601891     -135.063873       37.824421
 C        84.979721     -134.243774       36.901642
 H        85.221138     -134.463562       35.825905
 C        84.050430     -133.273621       37.350933
 H        83.722092     -132.477142       36.654446
 C        83.837494     -133.130646       38.744926
 H        82.942184     -132.544220       39.034454
 C        84.468712     -133.954788       39.718712
 H        84.229134     -133.771637       40.738297
 C        85.368095     -134.933716       39.217186
 H        85.822571     -135.661407       39.986862
 C        91.583069     -136.463806       40.631401
 C        92.419891     -135.465286       40.280998
 N        90.476624     -136.424286       39.782215
 C        90.545532     -135.342865       38.898392
 N        91.785431     -134.786285       39.165001
 C        92.190887     -133.756134       38.233040
 C        91.110306     -133.146118       37.592773
 C        91.249451     -131.878098       37.073860
 H        90.444244     -131.473511       36.425354
 C        92.440269     -131.245697       37.219887
 H        92.450554     -130.227753       36.772789
 C        93.539963     -131.788666       37.895363
 H        94.233574     -131.207672       38.386414
 C        93.384270     -133.129257       38.311516
 H        94.258354     -133.625275       38.662193
 C        93.615601     -135.204483       41.043861
 H        94.241180     -134.432190       40.693569
 C        93.946579     -136.053192       42.159241
 H        94.815254     -135.803162       42.722534
 C        93.121719     -137.100403       42.570343
 H        93.419456     -137.928040       43.214920
 C        91.921524     -137.235916       41.798531
 H        91.221497     -137.989105       42.073364
 C        89.573608     -137.552643       39.677361
 C        88.268188     -137.328491       40.038681
 H        87.966606     -136.413177       40.501526
 C        87.390846     -138.347382       39.822212
 H        86.401825     -138.256836       40.277557
 C        87.760460     -139.595413       39.393623
 H        87.127686     -140.460114       39.526184
 C        89.068123     -139.717361       38.987019
 H        89.290215     -140.653534       38.462151
 C        89.995880     -138.706284       39.080200
 H        91.022629     -138.911072       38.850300
 Ir       89.375397     -134.347687       51.424034
 C        90.059341     -132.624237       55.402344
 C        90.554871     -131.735199       54.494232
 N        89.476135     -133.686890       54.638092
 C        89.644287     -133.456467       53.287338
 N        90.220581     -132.217590       53.225639
 C        90.621246     -131.769745       51.931076
 C        90.523239     -132.672516       50.871674
 C        90.969452     -132.337921       49.577744
 H        90.860321     -132.946350       48.733665
 C        91.565620     -131.129181       49.329781
 H        91.947899     -130.909821       48.287117
 C        91.663872     -130.182495       50.333775
 H        92.305580     -129.247482       50.130669
 C        91.173813     -130.466858       51.604164
 H        90.939224     -129.670563       52.333931
 C        90.963104     -130.461136       54.965096
 H        91.791763     -130.019562       54.452698
 C        90.678284     -130.075592       56.271362
 H        90.675766     -129.053360       56.405228
 C        90.041626     -130.897827       57.168633
 H        89.592392     -130.531372       58.043846
 C        89.780167     -132.194000       56.717010
 H        89.516129     -132.917358       57.504890
 C        89.180046     -134.961639       55.286308
 C        89.970078     -136.085419       55.057480
 H        90.933662     -135.920593       54.569901
 C        89.567993     -137.278076       55.589836
 H        90.307838     -138.061356       55.594734
 C        88.341537     -137.450668       56.223488
 H        88.012856     -138.393250       56.566437
 C        87.564880     -136.322113       56.501297
 H        86.708237     -136.434235       57.148514
 C        88.026985     -135.076721       56.029083
 H        87.358505     -134.234451       56.233765
 C        85.480804     -132.801025       50.187035
 C        85.966324     -133.440186       49.095688
 N        86.575302     -132.723267       51.075020
 C        87.671196     -133.456879       50.624557
 N        87.264420     -133.962616       49.445419
 C        88.070244     -134.829041       48.789009
 C        89.338684     -134.890411       49.395954
 C        90.376251     -135.478668       48.663422
 H        91.367676     -135.560364       49.135658
 C        90.151657     -135.947266       47.343094
 H        90.895828     -136.497040       46.793137
 C        88.954399     -135.990341       46.779961
 H        88.825790     -136.145325       45.690773
 C        87.838387     -135.430969       47.516327
 H        86.780975     -135.600098       47.196819
 C        85.306808     -133.383698       47.892006
 H        85.814079     -133.654999       46.912025
 C        84.107971     -132.691269       47.749763
 H        83.412750     -132.678192       46.872490
 C        83.618027     -132.078461       48.865311
 H        82.620499     -131.694672       48.849243
 C        84.330963     -132.101349       50.032738
 H        84.190033     -131.308044       50.751511
 C        86.606537     -131.689697       52.066399
 C        86.652275     -132.011536       53.426853
 H        86.642181     -133.062866       53.730125
 C        87.075111     -131.067383       54.322014
 H        87.150299     -131.335510       55.436401
 C        87.513794     -129.829285       53.916130
 H        88.175049     -129.165405       54.499847
 C        87.364143     -129.450165       52.582569
 H        87.726616     -128.468430       52.234734
 C        86.984261     -130.410141       51.611870
 H        87.154602     -130.278900       50.525429
 C        87.533997     -138.007202       52.845207
 C        88.777512     -138.416656       52.535194
 N        87.363510     -136.652008       52.439133
 C        88.513016     -136.148468       51.941273
 N        89.405373     -137.281036       51.940594
 C        90.812469     -136.909058       51.863010
 C        91.057861     -135.574234       51.857849
 C        92.394295     -135.133942       52.023659
 H        92.488342     -134.058746       52.001419
 C        93.460739     -135.953400       52.073555
 H        94.456429     -135.649948       51.957802
 C        93.213593     -137.302551       52.013199
 H        93.980019     -137.974319       52.359367
 C        91.929497     -137.801849       51.900108
 H        91.709007     -138.806000       51.617119
 C        89.232834     -139.750534       52.851170
 H        90.331932     -139.821228       52.764046
 C        88.357330     -140.664673       53.385658
 H        88.605705     -141.666077       53.666553
 C        87.079643     -140.264008       53.634396
 H        86.307831     -141.054626       53.644573
 C        86.621552     -138.959747       53.430283
 H        85.600983     -138.682159       53.447212
 C        86.084129     -136.064301       52.312759
 C        85.403671     -135.522034       53.407578
 H        85.850174     -135.337708       54.413200
 C        84.110977     -135.090759       53.265373
 H        83.555565     -134.837769       54.113274
 C        83.407043     -135.309692       52.104752
 H        82.329498     -135.103165       52.037979
 C        83.979736     -135.884827       50.983353
 H        83.385605     -136.196426       50.146866
 C        85.359451     -136.278473       51.128754
 H        85.790337     -136.933167       50.394863
