206
 generated by VMD
  IR        17.590000       26.500000       51.509998
  C1        17.049999       24.200001       55.099998
  C2        15.920000       25.010000       55.000000
  N1        17.980000       24.670000       54.119999
  C3a       17.389999       25.639999       53.330002
  N2        16.160000       25.850000       53.959999
  C4        15.170000       26.540001       53.250000
  C5a       15.700000       27.200001       52.110001
  C6        15.110000       28.370001       51.610001
  H1        15.560000       28.980000       50.790001
  C7        13.910000       28.820000       52.189999
  H2        13.500000       29.770000       51.889999
  C8        13.310000       28.129999       53.209999
  H3        12.500000       28.620001       53.790001
  C9        13.940000       26.980000       53.689999
  H4        13.210000       26.350000       54.169998
  C10       14.860000       24.889999       55.980000
  H5        14.100000       25.680000       56.130001
  C11       14.930000       23.940001       56.980000
  H6        14.370000       23.980000       57.910000
  C12       15.970000       23.030001       56.919998
  H7        16.209999       22.330000       57.759998
  C13       17.070000       23.180000       56.060001
  H8        17.940001       22.480000       56.259998
  C6        19.379999       24.459999       54.270000
  C1        20.080000       25.590000       54.650002
  H1        19.570000       26.500000       54.720001
  C2        21.520000       25.549999       54.490002
  H2        22.200001       26.299999       54.950001
  C3        22.100000       24.410000       53.930000
  H3        23.139999       24.370001       53.730000
  C4        21.350000       23.309999       53.709999
  H4        21.950001       22.350000       53.860001
  C5        20.000000       23.260000       53.860001
  H5        19.620001       22.290001       53.689999
  C1        15.680000       23.440001       49.139999
  C2        16.100000       24.370001       48.220001
  N1        16.000000       23.920000       50.439999
  C3b       16.620001       25.120001       50.320000
  N2        16.629999       25.520000       49.000000
  C4        17.080000       26.770000       48.599998
  C5b       17.469999       27.580000       49.700001
  C6        17.889999       28.879999       49.430000
  H1        18.120001       29.520000       50.299999
  C7        18.049999       29.330000       48.110001
  H2        18.570000       30.299999       47.970001
  C8        17.719999       28.469999       47.029999
  H3        17.780001       28.920000       46.049999
  C9        17.190001       27.200001       47.259998
  H4        16.969999       26.540001       46.490002
  C10       15.850000       24.080000       46.860001
  H5        16.330000       24.760000       46.189999
  C11       15.100000       23.020000       46.349998
  H6        14.830000       22.879999       45.290001
  C12       14.650000       22.100000       47.270000
  H7        14.260000       21.129999       46.990002
  C13       14.920000       22.280001       48.619999
  H8        14.540000       21.490000       49.349998
  C6        15.620000       23.260000       51.669998
  C1        16.459999       22.309999       52.189999
  H1        17.500000       22.520000       52.360001
  C2        16.100000       21.290001       53.049999
  H2        16.870001       20.639999       53.490002
  C3        14.760000       21.240000       53.509998
  H3        14.460000       20.400000       54.189999
  C4        13.880000       22.209999       53.040001
  H4        12.890000       22.170000       53.470001
  C5        14.270000       23.240000       52.130001
  H5        13.570000       24.030001       51.770000
  C1        21.730000       25.610001       50.599998
  C2        21.799999       26.799999       51.200001
  N1        20.420000       25.320000       50.500000
  C3c       19.590000       26.299999       51.009998
  N2        20.510000       27.260000       51.380001
  C4        19.940001       28.379999       52.090000
  C5c       18.620001       28.120001       52.450001
  C6        18.100000       28.870001       53.500000
  H1        17.190001       28.420000       54.029999
  C7        18.760000       29.940001       54.040001
  H2        18.250000       30.379999       54.790001
  C8        20.059999       30.309999       53.580002
  H3        20.610001       31.100000       54.130001
  C9        20.670000       29.549999       52.619999
  H4        21.629999       29.879999       52.230000
  C10       23.000000       27.290001       51.599998
  H5        22.930000       28.129999       52.160000
  C11       24.129999       26.510000       51.400002
  H6        25.090000       26.870001       51.750000
  C12       24.080000       25.280001       50.840000
  H7        24.830000       24.540001       51.070000
  C13       22.820000       24.830000       50.380001
  H8        22.700001       23.969999       49.709999
  C6        19.879999       24.379999       49.549999
  C1        19.309999       23.150000       49.990002
  H1        19.520000       22.830000       50.980000
  C2        18.799999       22.170000       49.060001
  H2        18.360001       21.299999       49.509998
  C3        18.840000       22.480000       47.669998
  H3        18.670000       21.700001       46.900002
  C4        19.330000       23.730000       47.279999
  H4        19.410000       23.799999       46.220001
  C5        19.910000       24.650000       48.139999
  H5        20.469999       25.549999       47.799999
  IR        15.830000       25.030001       40.799999
  C1        19.270000       24.070000       43.230000
  C2        18.530001       22.910000       43.270000
  N1        18.600000       25.059999       42.500000
  C3a       17.340000       24.520000       42.139999
  N2        17.340000       23.240000       42.580002
  C4        16.209999       22.400000       42.330002
  C5a       15.270000       23.090000       41.509998
  C6        13.970000       22.610001       41.520000
  H1        13.290000       22.990000       40.799999
  C7        13.580000       21.549999       42.330002
  H2        12.520000       21.360001       42.490002
  C8        14.520000       20.870001       43.000000
  H3        14.280000       20.190001       43.750000
  C9        15.810000       21.270000       43.029999
  H4        16.480000       20.850000       43.709999
  C10       19.110001       21.780001       43.860001
  H5        18.500000       20.900000       44.189999
  C11       20.459999       21.690001       44.320000
  H6        20.549999       21.000000       45.130001
  C12       21.120001       22.870001       44.270000
  H7        22.070000       22.969999       44.700001
  C13       20.530001       24.020000       43.759998
  H8        21.190001       24.889999       43.770000
  C6        19.030001       26.430000       42.549999
  C1        18.959999       27.170000       43.709999
  H1        18.559999       26.719999       44.619999
  C2        19.360001       28.520000       43.680000
  H2        19.490000       29.080000       44.590000
  C3        19.840000       29.120001       42.529999
  H3        20.410000       30.040001       42.650002
  C4        19.830000       28.400000       41.330002
  H4        20.270000       28.799999       40.439999
  C5        19.400000       27.070000       41.349998
  H5        18.980000       26.740000       40.389999
  C1        16.660000       22.340000       37.490002
  C2        15.400000       22.840000       37.259998
  N1        17.200001       23.059999       38.560001
  C3b       16.290001       24.030001       39.040001
  N2        15.190000       23.870001       38.209999
  C4        14.040000       24.730000       38.459999
  C5b       14.070000       25.290001       39.740002
  C6        12.960000       26.049999       40.070000
  H1        12.890000       26.680000       40.980000
  C7        11.950000       26.430000       39.169998
  H2        11.200000       27.160000       39.290001
  C8        11.920000       25.840000       37.959999
  H3        11.310000       26.219999       37.189999
  C9        12.980000       25.010000       37.560001
  H4        13.100000       24.540001       36.549999
  C10       14.520000       22.100000       36.320000
  H5        13.460000       22.290001       36.240002
  C11       15.020000       20.920000       35.720001
  H6        14.370000       20.370001       35.009998
  C12       16.370001       20.570000       35.869999
  H7        16.750000       19.660000       35.480000
  C13       17.190001       21.290001       36.730000
  H8        18.219999       20.969999       36.869999
  C6        18.570000       22.850000       39.060001
  C1        19.490000       23.940001       38.950001
  H1        19.180000       24.930000       38.689999
  C2        20.790001       23.799999       39.459999
  H2        21.450001       24.660000       39.700001
  C3        21.260000       22.559999       39.830002
  H3        22.320000       22.360001       39.950001
  C4        20.410000       21.480000       39.939999
  H4        20.760000       20.520000       40.330002
  C5        19.070000       21.610001       39.599998
  H5        18.469999       20.730000       39.480000
  C1        16.320000       29.209999       39.790001
  C2        15.990000       29.200001       41.110001
  N1        16.320000       27.879999       39.380001
  C3c       16.080000       27.040001       40.400002
  N2        15.850000       27.879999       41.480000
  C4        15.620000       27.299999       42.709999
  C5c       15.010000       26.030001       42.560001
  C6        14.290000       25.549999       43.689999
  H1        13.700000       24.570000       43.669998
  C7        14.260000       26.209999       44.930000
  H2        13.940000       25.750000       45.860001
  C8        14.920000       27.440001       45.060001
  H3        14.590000       28.129999       45.779999
  C9        15.570000       27.930000       43.939999
  H4        16.020000       28.889999       44.130001
  C10       16.000000       30.370001       41.880001
  H5        15.380000       30.450001       42.730000
  C11       16.370001       31.549999       41.189999
  H6        16.780001       32.389999       41.750000
  C12       16.610001       31.590000       39.810001
  H7        16.559999       32.560001       39.330002
  C13       16.590000       30.400000       39.150002
  H8        16.660000       30.520000       38.070000
  C6        16.430000       27.480000       38.049999
  C1        15.280000       27.469999       37.340000
  H1        14.310000       27.709999       37.730000
  C2        15.330000       27.320000       35.950001
  H2        14.510000       27.240000       35.340000
  C3        16.510000       27.200001       35.250000
  H3        16.420000       27.090000       34.209999
  C4        17.670000       27.219999       36.020000
  H4        18.490000       26.770000       35.540001
  C5        17.670000       27.370001       37.410000
  H5        18.680000       27.480000       37.900002
