206
 generated by VMD
  IR         9.410000       44.599998       28.840000
  C1        10.400000       42.689999       25.070000
  C2        10.800000       41.779999       25.930000
  N1        10.050000       43.820000       25.700001
  C3a       10.060000       43.689999       27.120001
  N2        10.640000       42.380001       27.260000
  C4        10.920000       42.029999       28.580000
  C5a       10.310000       42.840000       29.559999
  C6        10.480000       42.400002       30.879999
  H1        10.390000       43.150002       31.670000
  C7        11.240000       41.320000       31.230000
  H2        11.290000       41.099998       32.279999
  C8        11.860000       40.549999       30.209999
  H3        12.550000       39.730000       30.549999
  C9        11.680000       40.900002       28.900000
  H4        11.990000       40.340000       28.000000
  C10       11.350000       40.529999       25.420000
  H5        11.760000       39.810001       26.030001
  C11       11.250000       40.230000       24.059999
  H6        11.360000       39.180000       23.860001
  C12       10.830000       41.220001       23.150000
  H7        10.730000       40.990002       22.070000
  C13       10.450000       42.480000       23.610001
  H8        10.600000       43.299999       22.930000
  C6         9.450000       44.880001       24.990000
  C1         8.080000       44.889999       24.920000
  H1         7.440000       44.299999       25.530001
  C2         7.450000       45.680000       23.959999
  H2         6.410000       45.529999       23.780001
  C3         8.190000       46.480000       23.100000
  H3         7.730000       47.090000       22.340000
  C4         9.580000       46.509998       23.209999
  H4        10.200000       46.900002       22.389999
  C5        10.240000       45.720001       24.209999
  H5        11.290000       45.590000       24.290001
  C1         5.650000       42.340000       29.250000
  C2         5.680000       43.200001       30.320000
  N1         6.800000       42.590000       28.469999
  C3b        7.580000       43.619999       29.020000
  N2         6.880000       43.880001       30.209999
  C4         7.390000       44.970001       31.010000
  C5b        8.780000       45.220001       30.750000
  C6         9.480000       46.169998       31.580000
  H1        10.590000       46.119999       31.670000
  C7         8.750000       46.910000       32.480000
  H2         9.250000       47.709999       33.000000
  C8         7.380000       46.689999       32.610001
  H3         6.870000       47.410000       33.250000
  C9         6.630000       45.700001       31.940001
  H4         5.520000       45.660000       31.969999
  C10        4.600000       43.119999       31.270000
  H5         4.670000       43.580002       32.220001
  C11        3.580000       42.189999       31.150000
  H6         3.010000       41.919998       31.990000
  C12        3.550000       41.320000       30.100000
  H7         2.870000       40.529999       29.959999
  C13        4.580000       41.400002       29.139999
  H8         4.490000       40.759998       28.260000
  C6         7.340000       41.529999       27.660000
  C1         7.990000       40.450001       28.260000
  H1         7.990000       40.450001       29.290001
  C2         8.480000       39.410000       27.459999
  H2         9.120000       38.689999       27.910000
  C3         8.370000       39.590000       26.059999
  H3         8.980000       38.970001       25.400000
  C4         7.630000       40.639999       25.480000
  H4         7.630000       40.669998       24.389999
  C5         7.090000       41.650002       26.290001
  H5         6.260000       42.189999       25.860001
  C1         8.290000       48.200001       26.700001
  C2         9.670000       48.220001       26.740000
  N1         7.840000       47.189999       27.570000
  C3c        8.900000       46.480000       28.129999
  N2        10.010000       47.180000       27.639999
  C4        11.240000       46.810001       28.200001
  C5c       11.280000       45.630001       28.900000
  C6        12.420000       45.330002       29.700001
  H1        12.460000       44.480000       30.250000
  C7        13.510000       46.259998       29.790001
  H2        14.310000       46.029999       30.500000
  C8        13.470000       47.439999       29.070000
  H3        14.300000       48.160000       29.090000
  C9        12.340000       47.750000       28.309999
  H4        12.110000       48.720001       27.969999
  C10       10.380000       49.119999       25.940001
  H5        11.410000       49.160000       25.809999
  C11        9.740000       49.970001       25.100000
  H6        10.370000       50.650002       24.559999
  C12        8.330000       50.000000       25.080000
  H7         7.760000       50.549999       24.360001
  C13        7.620000       49.070000       25.920000
  H8         6.530000       49.110001       26.030001
  C6         6.490000       47.200001       28.120001
  C1         5.510000       46.439999       27.510000
  H1         5.680000       46.169998       26.469999
  C2         4.250000       46.240002       28.129999
  H2         3.560000       45.439999       27.990000
  C3         4.070000       46.860001       29.360001
  H3         3.020000       46.900002       29.750000
  C4         5.030000       47.680000       29.969999
  H4         4.910000       48.060001       31.049999
  C5         6.280000       47.849998       29.340000
  H5         7.160000       48.160000       29.959999
  IR        14.180000       43.650002       17.480000
  C1        13.880000       42.639999       13.250000
  C2        12.910000       43.590000       13.490000
  N1        14.420000       42.279999       14.480000
  C3a       13.780000       43.009998       15.500000
  N2        12.810000       43.810001       14.880000
  C4        11.920000       44.549999       15.760000
  C5a       12.560000       44.939999       16.950001
  C6        11.970000       45.930000       17.730000
  H1        12.520000       46.389999       18.549999
  C7        10.750000       46.540001       17.389999
  H2        10.220000       47.360001       17.840000
  C8        10.090000       46.029999       16.270000
  H3         9.230000       46.570000       16.049999
  C9        10.660000       44.990002       15.440000
  H4        10.250000       44.900002       14.480000
  C10       12.160000       44.169998       12.410000
  H5        11.420000       44.959999       12.520000
  C11       12.440000       43.730000       11.040000
  H6        11.810000       44.029999       10.180000
  C12       13.410000       42.759998       10.850000
  H7        13.670000       42.310001        9.900000
  C13       14.140000       42.169998       11.940000
  H8        14.820000       41.349998       11.740000
  C6        15.180000       41.020000       14.620000
  C1        14.470000       39.849998       14.710000
  H1        13.610000       39.840000       15.370000
  C2        15.040000       38.660000       14.380000
  H2        14.590000       37.700001       14.470000
  C3        16.370001       38.520000       13.990000
  H3        16.900000       37.639999       14.160000
  C4        17.090000       39.730000       13.840000
  H4        18.080000       39.630001       13.390000
  C5        16.520000       40.939999       14.210000
  H5        17.190001       41.790001       14.230000
  C1        16.730000       47.169998       17.049999
  C2        16.860001       46.840000       18.370001
  N1        15.720000       46.320000       16.430000
  C3b       15.240000       45.400002       17.350000
  N2        15.880000       45.759998       18.570000
  C4        15.340000       45.189999       19.760000
  C5b       14.220000       44.389999       19.469999
  C6        13.390000       44.000000       20.530001
  H1        12.470000       43.540001       20.299999
  C7        13.690000       44.400002       21.830000
  H2        12.840000       44.410000       22.590000
  C8        14.790000       45.209999       22.080000
  H3        14.930000       45.570000       23.070000
  C9        15.590000       45.669998       21.030001
  H4        16.240000       46.549999       21.299999
  C10       18.030001       47.240002       19.040001
  H5        18.070000       47.020000       20.070000
  C11       19.049999       47.939999       18.400000
  H6        19.969999       48.299999       18.870001
  C12       18.820000       48.470001       17.120001
  H7        19.219999       49.369999       16.820000
  C13       17.719999       48.009998       16.389999
  H8        17.469999       48.500000       15.490000
  C6        15.510000       46.299999       14.980000
  C1        16.160000       45.259998       14.210000
  H1        16.750000       44.570000       14.780000
  C2        15.890000       45.160000       12.860000
  H2        16.299999       44.380001       12.250000
  C3        15.100000       46.160000       12.260000
  H3        15.150000       46.180000       11.190000
  C4        14.510000       47.189999       13.020000
  H4        13.930000       47.939999       12.440000
  C5        14.630000       47.220001       14.430000
  H5        14.070000       47.810001       15.110000
  C1        17.230000       40.500000       18.320000
  C2        15.970000       39.869999       18.340000
  N1        16.930000       41.860001       18.180000
  C3c       15.590000       42.150002       18.100000
  N2        14.980000       40.919998       18.219999
  C4        13.620000       40.990002       18.540001
  C5c       12.950000       42.070000       17.990000
  C6        11.570000       42.099998       18.200001
  H1        11.010000       42.689999       17.549999
  C7        10.880000       41.230000       18.930000
  H2         9.830000       41.250000       18.820000
  C8        11.540000       40.200001       19.570000
  H3        10.980000       39.630001       20.350000
  C9        12.900000       40.049999       19.350000
  H4        13.480000       39.169998       19.620001
  C10       16.049999       38.450001       18.209999
  H5        15.120000       37.869999       18.410000
  C11       17.230000       37.790001       18.010000
  H6        17.180000       36.689999       17.870001
  C12       18.440001       38.459999       18.010000
  H7        19.309999       38.060001       17.549999
  C13       18.440001       39.820000       18.240000
  H8        19.290001       40.340000       18.549999
  C6        17.840000       42.990002       18.000000
  C1        18.080000       43.470001       16.730000
  H1        17.719999       42.919998       15.870000
  C2        19.100000       44.360001       16.540001
  H2        19.420000       44.650002       15.490000
  C3        19.900000       44.830002       17.520000
  H3        20.850000       45.380001       17.280001
  C4        19.750000       44.279999       18.780001
  H4        20.520000       44.349998       19.520000
  C5        18.780001       43.279999       19.000000
  H5        19.010000       42.509998       19.730000
