206
 generated by VMD
  IR        60.500000       29.400000       44.529999
  C1        60.660000       32.099998       41.080002
  C2        61.889999       32.270000       41.720001
  N1        59.939999       31.190001       41.869999
  C3a       60.570000       30.799999       43.009998
  N2        61.799999       31.480000       42.869999
  C4        62.689999       31.350000       43.950001
  C5a       62.279999       30.469999       44.959999
  C6        63.049999       30.320000       46.189999
  H1        62.700001       29.830000       47.110001
  C7        64.349998       30.879999       46.209999
  H2        64.970001       30.540001       46.990002
  C8        64.760002       31.680000       45.139999
  H3        65.669998       32.310001       45.320000
  C9        63.959999       32.000000       44.020000
  H4        64.250000       32.840000       43.410000
  C10       62.750000       33.220001       41.220001
  H5        63.520000       33.650002       41.830002
  C11       62.480000       33.959999       40.060001
  H6        63.119999       34.770000       39.939999
  C12       61.330002       33.689999       39.320000
  H7        61.139999       34.270000       38.419998
  C13       60.360001       32.810001       39.869999
  H8        59.369999       32.630001       39.360001
  C6        58.529999       30.940001       41.720001
  C1        57.630001       31.490000       42.669998
  H1        57.910000       32.200001       43.410000
  C2        56.240002       31.270000       42.680000
  H2        55.700001       31.750000       43.500000
  C3        55.630001       30.549999       41.639999
  H3        54.650002       30.799999       41.340000
  C4        56.470001       29.969999       40.680000
  H4        56.080002       29.350000       39.919998
  C5        57.869999       30.180000       40.680000
  H5        58.439999       29.690001       39.980000
  C1        63.169998       26.370001       42.889999
  C2        62.770000       25.799999       44.070000
  N1        62.630001       27.680000       42.840000
  C3b       61.770000       27.940001       43.880001
  N2        61.880001       26.740000       44.669998
  C4        61.180000       26.770000       45.869999
  C5b       60.660000       28.080000       46.189999
  C6        60.110001       28.260000       47.439999
  H1        59.869999       29.230000       47.820000
  C7        60.070000       27.230000       48.450001
  H2        59.869999       27.459999       49.470001
  C8        60.529999       25.959999       48.099998
  H3        60.660000       25.230000       48.770000
  C9        61.060001       25.709999       46.790001
  H4        60.740002       24.799999       46.330002
  C10       63.169998       24.459999       44.349998
  H5        63.060001       24.080000       45.349998
  C11       63.889999       23.709999       43.430000
  H6        63.930000       22.650000       43.389999
  C12       64.309998       24.320000       42.240002
  H7        64.889999       23.660000       41.520000
  C13       63.889999       25.629999       41.889999
  H8        63.980000       26.000000       40.860001
  C6        62.950001       28.600000       41.790001
  C1        64.260002       29.080000       41.610001
  H1        65.029999       28.950001       42.349998
  C2        64.629997       29.590000       40.380001
  H2        65.730003       29.750000       40.150002
  C3        63.700001       29.680000       39.320000
  H3        64.010002       30.100000       38.360001
  C4        62.400002       29.150000       39.520000
  H4        61.660000       29.490000       38.820000
  C5        62.020000       28.639999       40.779999
  H5        61.080002       28.240000       40.930000
  C1        56.560001       27.379999       44.590000
  C2        56.290001       28.670000       45.099998
  N1        57.910000       27.309999       44.220001
  C3c       58.590000       28.559999       44.529999
  N2        57.560001       29.389999       45.090000
  C4        58.009998       30.610001       45.660000
  C5c       59.410000       30.840000       45.660000
  C6        59.849998       31.950001       46.320000
  H1        60.910000       32.119999       46.459999
  C7        59.040001       32.799999       47.099998
  H2        59.599998       33.480000       47.639999
  C8        57.669998       32.599998       47.090000
  H3        57.139999       33.360001       47.630001
  C9        57.220001       31.459999       46.419998
  H4        56.200001       31.139999       46.549999
  C10       54.930000       29.010000       45.360001
  H5        54.619999       30.070000       45.419998
  C11       53.860001       28.020000       45.259998
  H6        52.830002       28.290001       45.330002
  C12       54.180000       26.730000       44.889999
  H7        53.459999       26.020000       45.130001
  C13       55.490002       26.450001       44.439999
  H8        55.869999       25.469999       44.330002
  C6        58.509998       26.180000       43.610001
  C1        59.230000       26.270000       42.450001
  H1        59.470001       27.280001       42.070000
  C2        60.009998       25.320000       41.810001
  H2        60.360001       25.500000       40.779999
  C3        60.209999       24.150000       42.560001
  H3        61.009998       23.469999       42.349998
  C4        59.500000       23.990000       43.779999
  H4        59.590000       23.040001       44.290001
  C5        58.639999       24.969999       44.259998
  H5        58.279999       24.840000       45.220001
  IR        51.669998       33.759998       48.740002
  C1        49.580002       37.580002       48.049999
  C2        50.570000       37.509998       47.060001
  N1        49.709999       36.389999       48.869999
  C3a       50.730000       35.549999       48.330002
  N2        51.250000       36.299999       47.279999
  C4        52.389999       35.669998       46.560001
  C5a       52.709999       34.349998       46.980000
  C6        53.689999       33.549999       46.349998
  H1        53.709999       32.520000       46.490002
  C7        54.310001       34.200001       45.240002
  H2        54.990002       33.540001       44.619999
  C8        54.029999       35.520000       44.799999
  H3        54.619999       36.130001       44.009998
  C9        53.099998       36.270000       45.490002
  H4        52.959999       37.259998       45.230000
  C10       50.500000       38.430000       46.000000
  H5        50.939999       38.250000       45.110001
  C11       49.529999       39.400002       45.950001
  H6        49.470001       40.029999       45.119999
  C12       48.580002       39.480000       46.970001
  H7        47.759998       40.180000       46.860001
  C13       48.590000       38.570000       48.000000
  H8        47.660000       38.480000       48.580002
  C6        48.630001       36.009998       49.840000
  C1        48.610001       36.639999       51.090000
  H1        49.380001       37.369999       51.380001
  C2        47.630001       36.270000       51.959999
  H2        47.610001       36.680000       52.900002
  C3        46.700001       35.349998       51.709999
  H3        46.000000       34.990002       52.480000
  C4        46.680000       34.779999       50.439999
  H4        45.790001       34.250000       50.160000
  C5        47.650002       35.110001       49.480000
  H5        47.990002       34.480000       48.630001
  C1        49.410000       31.030001       46.240002
  C2        50.310001       30.240000       46.869999
  N1        49.660000       32.369999       46.669998
  C3b       50.660000       32.400002       47.599998
  N2        51.160000       31.110001       47.660000
  C4        52.360001       30.870001       48.369999
  C5b       52.939999       32.040001       48.950001
  C6        54.299999       32.029999       49.360001
  H1        54.669998       32.990002       49.669998
  C7        55.090000       30.910000       49.250000
  H2        56.150002       30.840000       49.090000
  C8        54.480000       29.770000       48.750000
  H3        54.980000       28.820000       48.630001
  C9        53.090000       29.740000       48.349998
  H4        52.730000       28.770000       48.020000
  C10       50.110001       28.879999       46.689999
  H5        50.770000       28.299999       47.250000
  C11       49.150002       28.379999       45.880001
  H6        48.910000       27.299999       46.040001
  C12       48.189999       29.190001       45.240002
  H7        47.439999       28.660000       44.599998
  C13       48.369999       30.559999       45.389999
  H8        47.779999       31.330000       44.810001
  C6        49.139999       33.509998       45.869999
  C1        49.930000       33.980000       44.860001
  H1        50.790001       33.369999       44.580002
  C2        49.639999       35.139999       44.130001
  H2        50.340000       35.529999       43.410000
  C3        48.459999       35.840000       44.330002
  H3        48.369999       36.810001       43.930000
  C4        47.570000       35.299999       45.279999
  H4        46.740002       35.869999       45.610001
  C5        47.889999       34.110001       46.009998
  H5        47.189999       33.709999       46.730000
  C1        49.880001       32.919998       52.509998
  C2        50.500000       34.080002       52.730000
  N1        50.299999       32.360001       51.330002
  C3c       51.070000       33.259998       50.689999
  N2        51.310001       34.270000       51.590000
  C4        52.439999       35.040001       51.320000
  C5c       52.880001       34.880001       49.980000
  C6        53.950001       35.650002       49.630001
  H1        54.470001       35.450001       48.689999
  C7        54.610001       36.549999       50.470001
  H2        55.540001       36.990002       50.150002
  C8        54.110001       36.660000       51.799999
  H3        54.770000       36.990002       52.599998
  C9        53.049999       35.889999       52.240002
  H4        52.669998       36.020000       53.240002
  C10       50.240002       34.889999       53.840000
  H5        50.779999       35.799999       53.970001
  C11       49.320000       34.430000       54.810001
  H6        48.950001       35.099998       55.590000
  C12       48.700001       33.160000       54.639999
  H7        48.070000       32.759998       55.400002
  C13       48.939999       32.410000       53.500000
  H8        48.380001       31.480000       53.360001
  C6        49.849998       31.080000       50.869999
  C1        48.560001       30.940001       50.419998
  H1        47.849998       31.750000       50.340000
  C2        48.049999       29.680000       50.130001
  H2        46.980000       29.500000       50.099998
  C3        48.880001       28.549999       50.200001
  H3        48.389999       27.580000       50.189999
  C4        50.169998       28.670000       50.700001
  H4        50.790001       27.760000       50.630001
  C5        50.660000       29.910000       51.029999
  H5        51.669998       29.980000       51.310001
