206
 generated by VMD
 Ir       49.264252       44.035088      -77.618378
 C        45.587837       42.037674      -76.462784
 C        46.484749       41.140282      -76.119354
 N        46.155075       43.040951      -77.146866
 C        47.577362       42.948441      -77.191071
 N        47.775257       41.653435      -76.594498
 C        49.097054       41.212784      -76.638962
 C        50.052067       42.203812      -76.946236
 C        51.387241       41.787632      -76.851334
 H        52.125004       42.345798      -77.433449
 C        51.766304       40.506638      -76.565216
 H        52.824295       40.325043      -76.532257
 C        50.767960       39.534172      -76.290771
 H        51.122639       38.476051      -76.154099
 C        49.449875       39.899124      -76.312302
 H        48.575142       39.298553      -76.005943
 C        46.033150       39.907192      -75.486389
 H        46.666840       39.126381      -75.268761
 C        44.707306       39.786880      -75.065353
 H        44.577293       39.017563      -74.326553
 C        43.756088       40.751682      -75.451294
 H        42.703903       40.677109      -75.109756
 C        44.146580       41.862610      -76.197578
 H        43.401024       42.284828      -76.848106
 C        45.409119       44.187752      -77.487587
 C        45.424225       45.231419      -76.597397
 H        46.114059       45.330421      -75.794815
 C        44.450806       46.224518      -76.691261
 H        44.347397       46.913822      -75.884621
 C        43.490692       46.187019      -77.693245
 H        42.718765       46.933815      -77.781128
 C        43.511253       45.154350      -78.630402
 H        42.628098       44.939812      -79.249207
 C        44.522621       44.138542      -78.559875
 H        44.546116       43.258720      -79.152466
 C        50.070522       45.404884      -73.509010
 C        51.071560       45.944077      -74.278809
 N        49.204224       44.697643      -74.370834
 C        49.628532       44.780140      -75.706863
 N        50.837978       45.479942      -75.561203
 C        51.523659       45.806038      -76.790718
 C        51.160004       44.917114      -77.858307
 C        51.873806       45.007904      -79.108765
 H        51.897724       44.134933      -79.801620
 C        52.761738       46.044037      -79.277603
 H        53.190292       46.188225      -80.255325
 C        52.992569       46.937424      -78.233200
 H        53.609406       47.793941      -78.505203
 C        52.444046       46.858349      -76.935364
 H        52.546089       47.672516      -76.186157
 C        52.090416       46.709400      -73.606857
 H        52.998432       46.956963      -74.089783
 C        52.101887       46.873924      -72.231178
 H        52.993153       47.129021      -71.737244
 C        51.121483       46.328197      -71.455750
 H        51.081703       46.326805      -70.404793
 C        50.095795       45.600727      -72.094231
 H        49.271725       45.250694      -71.469337
 C        48.440887       43.596260      -73.845886
 C        49.075676       42.398544      -73.512100
 H        50.100964       42.398544      -73.610504
 C        48.323967       41.348083      -72.970657
 H        48.784027       40.393150      -72.887329
 C        46.924213       41.548965      -72.901016
 H        46.273998       40.682083      -72.767487
 C        46.317123       42.795219      -73.155563
 H        45.229939       42.814819      -73.074036
 C        47.084080       43.863930      -73.642838
 H        46.668800       44.845085      -73.468857
 C        46.943596       47.235130      -79.398346
 C        46.895821       46.203499      -80.314774
 N        47.910744       46.915878      -78.427673
 C        48.453369       45.649529      -78.635559
 N        47.845699       45.266594      -79.838181
 C        48.353119       44.093697      -80.412842
 C        49.132759       43.292427      -79.616516
 C        49.879642       42.233398      -80.208321
 H        50.486103       41.647739      -79.646347
 C        49.833935       42.015877      -81.626663
 H        50.507385       41.259972      -82.041481
 C        49.034382       42.817146      -82.421066
 H        48.950413       42.659245      -83.505379
 C        48.325974       43.875137      -81.847130
 H        47.931732       44.683037      -82.396019
 C        45.990074       46.254044      -81.378334
 H        45.793484       45.500443      -82.065964
 C        45.132393       47.293919      -81.522369
 H        44.506359       47.261292      -82.392960
 C        45.198326       48.380936      -80.626007
 H        44.477421       49.171799      -80.600967
 C        46.146065       48.310780      -79.543671
 H        46.320702       49.162079      -78.875397
 C        48.541775       47.944405      -77.609726
 C        48.050697       48.189720      -76.341354
 H        47.024372       47.884613      -76.149101
 C        48.760979       49.012909      -75.430374
 H        48.722546       49.012550      -74.365379
 C        49.951752       49.554268      -75.898026
 H        50.402611       50.375286      -75.282516
 C        50.439732       49.363289      -77.198601
 H        51.494797       49.702423      -77.510086
 C        49.722298       48.528076      -78.079514
 H        50.262108       48.064438      -78.944695
 Ir       49.264252       44.035088      -64.533951
 C        50.277328       46.117561      -60.781960
 C        49.147461       46.784416      -61.249832
 N        50.625359       45.133739      -61.761272
 C        49.783379       45.158470      -62.893154
 N        48.903275       46.220512      -62.538078
 C        47.980301       46.563828      -63.571747
 C        48.217705       45.875778      -64.761719
 C        47.606369       46.334316      -65.897903
 H        48.210762       46.143837      -66.718216
 C        46.630260       47.383202      -65.810432
 H        45.970085       47.574162      -66.722733
 C        46.340588       48.040966      -64.641701
 H        45.631706       48.826332      -64.596031
 C        47.139114       47.666019      -63.543900
 H        47.159096       48.372536      -62.707634
 C        48.471031       47.725204      -60.342663
 H        47.444805       47.963852      -60.568069
 C        49.035835       47.992928      -59.063316
 H        48.524979       48.787399      -58.524490
 C        50.226250       47.305435      -58.592606
 H        50.427376       47.404846      -57.543716
 C        50.794628       46.351574      -59.474197
 H        51.621880       45.837067      -59.123856
 C        51.960236       44.702011      -61.878876
 C        52.451302       43.538086      -61.263138
 H        51.763832       43.001595      -60.680332
 C        53.711891       42.960449      -61.526669
 H        53.988922       42.026649      -60.942989
 C        54.488403       43.679165      -62.437748
 H        55.529171       43.412857      -62.688919
 C        54.081738       44.868591      -62.906769
 H        54.737396       45.488678      -63.506943
 C        52.830151       45.388779      -62.654114
 H        52.496819       46.375977      -62.987038
 C        45.225517       42.921455      -63.280632
 C        45.248737       42.647202      -64.608803
 N        46.528278       43.341652      -62.895355
 C        47.374779       43.378822      -64.019257
 N        46.545498       42.945370      -65.018814
 C        47.088799       42.899895      -66.371048
 C        48.484688       43.278000      -66.376236
 C        49.217461       43.049583      -67.533722
 H        50.257336       43.287685      -67.480148
 C        48.664795       42.500504      -68.686615
 H        49.259743       41.977745      -69.396027
 C        47.337761       42.143032      -68.696686
 H        46.965157       41.815567      -69.648178
 C        46.510010       42.367310      -67.586761
 H        45.442047       42.137093      -67.723694
 C        44.107628       42.184601      -65.298492
 H        44.071327       41.382149      -65.990776
 C        42.892769       42.230206      -64.558472
 H        41.923485       41.841640      -65.027939
 C        42.915279       42.530273      -63.172485
 H        42.028332       42.985531      -62.679367
 C        44.099358       42.803307      -62.558395
 H        44.218452       42.858334      -61.526848
 C        46.889664       43.677498      -61.537415
 C        47.740524       42.849060      -60.731674
 H        48.290581       42.075943      -61.176121
 C        47.831371       43.148094      -59.366417
 H        48.381264       42.401794      -58.765789
 C        47.154099       44.284492      -58.886726
 H        47.288666       44.421753      -57.798630
 C        46.325706       45.036915      -59.667641
 H        45.885178       45.902222      -59.233391
 C        46.177734       44.754059      -61.000114
 H        45.648895       45.529594      -61.590679
 C        51.542206       40.315529      -64.036362
 C        52.485722       41.304794      -64.463486
 N        50.205978       40.979050      -64.142296
 C        50.379910       42.313347      -64.528160
 N        51.731148       42.452629      -64.789207
 C        52.077782       43.589382      -65.469093
 C        51.094513       44.597305      -65.456261
 C        51.334274       45.842430      -66.098282
 H        50.876106       46.674034      -65.638481
 C        52.557079       46.015640      -66.755501
 H        52.895882       47.035191      -67.098335
 C        53.482071       44.965721      -66.852234
 H        54.440323       45.021637      -67.439796
 C        53.274567       43.764984      -66.188103
 H        53.703270       42.876961      -66.640907
 C        53.894341       40.997299      -64.440643
 H        54.667366       41.588539      -64.864761
 C        54.285118       39.747715      -63.823196
 H        55.294235       39.525970      -63.462067
 C        53.307404       38.797649      -63.438423
 H        53.730019       37.794907      -63.326599
 C        51.938396       39.104424      -63.571854
 H        51.274834       38.334194      -63.472675
 C        48.917747       40.379734      -64.166725
 C        48.254456       40.155369      -65.425575
 H        48.704163       40.634315      -66.287598
 C        46.989655       39.537491      -65.415276
 H        46.496681       39.273697      -66.260193
 C        46.431580       39.082382      -64.216972
 H        45.463196       38.682598      -64.258347
 C        47.020004       39.274395      -63.005531
 H        46.333973       39.364071      -62.198425
 C        48.269363       39.931160      -62.967365
 H        48.830017       40.123085      -62.045284
