206
 generated by VMD
  IR        31.930000        8.760000       50.189999
  C1        32.869999       11.690000       47.049999
  C2        32.200001       10.680000       46.419998
  N1        33.020000       11.290000       48.430000
  C3a       32.410000       10.060000       48.650002
  N2        31.840000        9.760000       47.430000
  C4        31.040001        8.610000       47.419998
  C5a       31.160000        7.800000       48.520000
  C6        30.719999        6.460000       48.540001
  H1        31.090000        5.750000       49.299999
  C7        30.040001        6.020000       47.430000
  H2        29.360001        5.150000       47.480000
  C8        29.870001        6.800000       46.279999
  H3        29.420000        6.280000       45.389999
  C9        30.379999        8.080000       46.299999
  H4        29.750000        8.700000       45.720001
  C10       31.770000       10.890000       45.049999
  H5        31.410000       10.120000       44.360001
  C11       31.879999       12.150000       44.540001
  H6        31.459999       12.410000       43.570000
  C12       32.509998       13.180000       45.220001
  H7        32.570000       14.170000       44.820000
  C13       33.090000       12.950000       46.450001
  H8        33.889999       13.630000       46.540001
  C6        33.919998       12.010000       49.369999
  C1        33.490002       12.990000       50.250000
  H1        32.470001       13.020000       50.549999
  C2        34.520000       13.710000       50.889999
  H2        34.189999       14.610000       51.290001
  C3        35.880001       13.530000       50.680000
  H3        36.570000       14.210000       51.139999
  C4        36.290001       12.550000       49.720001
  H4        37.270000       12.400000       49.330002
  C5        35.320000       11.740000       49.139999
  H5        35.660000       11.030000       48.490002
  C1        27.879999        9.920000       51.119999
  C2        28.120001        8.850000       51.959999
  N1        28.990000       10.130000       50.240002
  C3b       29.950001        9.210000       50.570000
  N2        29.330000        8.370000       51.520000
  C4        29.969999        7.140000       51.759998
  C5b       31.370001        7.250000       51.529999
  C6        32.189999        6.230000       52.049999
  H1        33.299999        6.420000       52.060001
  C7        31.680000        5.170000       52.830002
  H2        32.250000        4.350000       53.169998
  C8        30.309999        5.130000       53.070000
  H3        29.870001        4.510000       53.790001
  C9        29.469999        6.060000       52.540001
  H4        28.459999        5.980000       52.840000
  C10       27.150000        8.580000       52.980000
  H5        27.260000        7.740000       53.549999
  C11       26.000000        9.300000       53.040001
  H6        25.219999        9.150000       53.750000
  C12       25.760000       10.380000       52.200001
  H7        24.770000       10.810000       52.270000
  C13       26.700001       10.740000       51.189999
  H8        26.629999       11.660000       50.619999
  C6        29.090000       11.070000       49.070000
  C1        29.700001       12.320000       49.180000
  H1        30.309999       12.620000       50.020000
  C2        29.480000       13.210000       48.139999
  H2        30.219999       13.980000       48.180000
  C3        28.809999       12.860000       46.970001
  H3        28.490000       13.510000       46.160000
  C4        28.400000       11.560000       46.840000
  H4        27.910000       11.150000       45.990002
  C5        28.510000       10.690000       47.869999
  H5        27.840000        9.810000       47.830002
  C1        33.790001       10.680000       53.580002
  C2        34.840000       10.110000       52.919998
  N1        32.660000       10.400000       52.880001
  C3c       32.889999        9.710000       51.740002
  N2        34.259998        9.540000       51.700001
  C4        34.810001        8.820000       50.520000
  C5c       33.849998        7.980000       49.889999
  C6        34.189999        6.920000       49.040001
  H1        33.459999        6.420000       48.520000
  C7        35.549999        6.560000       48.880001
  H2        35.860001        5.750000       48.279999
  C8        36.500000        7.290000       49.549999
  H3        37.500000        7.080000       49.279999
  C9        36.169998        8.420000       50.310001
  H4        37.029999        9.020000       50.700001
  C10       36.169998       10.190000       53.450001
  H5        37.020000        9.710000       52.959999
  C11       36.400002       10.830000       54.650002
  H6        37.459999       10.870000       54.919998
  C12       35.360001       11.520000       55.240002
  H7        35.560001       12.070000       56.189999
  C13       34.099998       11.470000       54.700001
  H8        33.259998       11.890000       55.250000
  C6        31.350000       10.800000       53.270000
  C1        30.719999       11.980000       52.840000
  H1        31.209999       12.620000       52.090000
  C2        29.480000       12.400000       53.380001
  H2        28.990000       13.210000       52.880001
  C3        28.850000       11.600000       54.400002
  H3        27.950001       12.030000       54.889999
  C4        29.469999       10.430000       54.820000
  H4        29.190001       10.010000       55.779999
  C5        30.690001       10.040000       54.270000
  H5        31.020000        9.070000       54.490002
  IR        44.680000        1.500000       52.970001
  C1        41.790001       -1.640000       52.029999
  C2        42.049999       -1.090000       50.830002
  N1        42.360001       -0.830000       53.080002
  C3a       43.139999        0.210000       52.480000
  N2        42.810001        0.110000       51.130001
  C4        43.410000        1.130000       50.279999
  C5a       44.439999        1.870000       50.919998
  C6        45.169998        2.680000       50.049999
  H1        46.000000        3.240000       50.470001
  C7        44.939999        2.800000       48.669998
  H2        45.520000        3.540000       48.070000
  C8        43.900002        2.160000       48.119999
  H3        43.860001        2.130000       47.000000
  C9        43.110001        1.330000       48.889999
  H4        42.200001        0.960000       48.439999
  C10       41.590000       -1.710000       49.590000
  H5        41.900002       -1.210000       48.669998
  C11       40.910000       -2.970000       49.730000
  H6        40.759998       -3.580000       48.860001
  C12       40.849998       -3.580000       51.020000
  H7        40.299999       -4.460000       51.070000
  C13       41.130001       -2.880000       52.169998
  H8        40.880001       -3.190000       53.189999
  C6        42.290001       -1.140000       54.430000
  C1        43.259998       -2.000000       54.910000
  H1        43.930000       -2.510000       54.209999
  C2        43.220001       -2.390000       56.200001
  H2        43.990002       -3.070000       56.689999
  C3        42.139999       -2.010000       57.009998
  H3        42.369999       -2.190000       58.070000
  C4        41.080002       -1.210000       56.509998
  H4        40.209999       -0.890000       57.130001
  C5        41.180000       -0.740000       55.209999
  H5        40.430000       -0.020000       54.950001
  C1        48.009998       -0.650000       51.320000
  C2        48.590000        0.500000       51.840000
  N1        46.680000       -0.720000       51.669998
  C3b       46.389999        0.430000       52.430000
  N2        47.570000        1.170000       52.480000
  C4        47.509998        2.390000       53.240002
  C5b       46.220001        2.930000       53.230000
  C6        46.049999        4.260000       53.570000
  H1        45.119999        4.720000       53.330002
  C7        47.200001        5.020000       53.930000
  H2        47.119999        6.030000       54.270000
  C8        48.459999        4.430000       53.930000
  H3        49.250000        4.930000       54.419998
  C9        48.650002        3.070000       53.599998
  H4        49.529999        2.530000       53.630001
  C10       49.869999        0.840000       51.439999
  H5        50.230000        1.840000       51.580002
  C11       50.619999        0.000000       50.650002
  H6        51.590000        0.330000       50.310001
  C12       50.070000       -1.190000       50.119999
  H7        50.700001       -1.820000       49.520000
  C13       48.779999       -1.550000       50.529999
  H8        48.270000       -2.430000       50.150002
  C6        45.980000       -1.970000       51.650002
  C1        46.330002       -2.890000       52.599998
  H1        47.119999       -2.570000       53.299999
  C2        45.720001       -4.120000       52.639999
  H2        46.000000       -4.870000       53.330002
  C3        44.700001       -4.470000       51.730000
  H3        44.250000       -5.450000       51.759998
  C4        44.389999       -3.550000       50.709999
  H4        43.930000       -3.880000       49.810001
  C5        45.049999       -2.290000       50.680000
  H5        44.770000       -1.560000       49.919998
  C1        44.549999        0.820000       57.330002
  C2        43.439999        1.590000       56.959999
  N1        45.320000        0.650000       56.160000
  C3c       44.730000        1.460000       55.070000
  N2        43.650002        2.020000       55.660000
  C4        43.009998        3.060000       54.849998
  C5c       43.169998        2.880000       53.470001
  C6        42.360001        3.620000       52.590000
  H1        42.450001        3.230000       51.540001
  C7        41.540001        4.680000       53.070000
  H2        41.040001        5.350000       52.320000
  C8        41.490002        4.980000       54.410000
  H3        41.020000        5.860000       54.820000
  C9        42.169998        4.150000       55.360001
  H4        42.349998        4.510000       56.419998
  C10       42.509998        2.000000       57.910000
  H5        41.750000        2.670000       57.630001
  C11       42.759998        1.720000       59.279999
  H6        41.950001        1.880000       59.930000
  C12       43.849998        0.990000       59.610001
  H7        44.020000        0.810000       60.650002
  C13       44.759998        0.530000       58.680000
  H8        45.660000        0.150000       59.040001
  C6        46.590000        0.220000       56.080002
  C1        46.810001       -1.060000       55.650002
  H1        45.990002       -1.460000       55.049999
  C2        48.099998       -1.530000       55.419998
  H2        48.240002       -2.560000       55.150002
  C3        49.169998       -0.660000       55.459999
  H3        50.200001       -0.960000       55.200001
  C4        48.939999        0.680000       55.869999
  H4        49.730000        1.400000       55.849998
  C5        47.650002        1.140000       56.209999
  H5        47.560001        2.050000       56.689999
