206
 generated by VMD
 Ir       90.200836      -46.819427       72.163940
 C        87.233559      -49.830715       70.957489
 C        86.629921      -48.621502       70.759186
 N        88.528320      -49.557339       71.536942
 C        88.729858      -48.186634       71.655060
 N        87.595764      -47.643890       71.087120
 C        87.609421      -46.248688       70.961304
 C        88.596161      -45.604179       71.662338
 C        88.563553      -44.222004       71.941849
 H        89.185013      -43.788101       72.744415
 C        87.542435      -43.503170       71.368538
 H        87.621429      -42.410667       71.220222
 C        86.511902      -44.096870       70.630089
 H        85.662354      -43.422325       70.332993
 C        86.566948      -45.461540       70.446960
 H        86.156128      -45.688583       69.499664
 C        85.372772      -48.591221       70.034912
 H        84.682159      -47.743958       69.973442
 C        84.969971      -49.740585       69.421318
 H        84.108818      -49.758701       68.755737
 C        85.631042      -50.947388       69.585052
 H        85.319519      -51.837383       69.080513
 C        86.724525      -51.034512       70.421066
 H        86.746170      -52.021282       70.790268
 C        89.372612      -50.628353       72.130310
 C        90.397072      -51.267197       71.450562
 H        90.859604      -50.788555       70.620941
 C        90.925575      -52.402538       72.099083
 H        91.454880      -53.021347       71.454239
 C        90.482651      -52.919071       73.308670
 H        90.885620      -53.851410       73.652847
 C        89.382828      -52.270329       73.956467
 H        88.827301      -52.624901       74.793518
 C        88.895279      -51.086468       73.414093
 H        88.136238      -50.637718       73.928558
 C        91.876617      -45.823452       68.315201
 C        92.564545      -45.012383       69.196693
 N        90.851776      -46.555191       68.997009
 C        90.935959      -46.230736       70.325371
 N        91.892273      -45.193993       70.381248
 C        91.911240      -44.441811       71.570343
 C        91.468903      -45.230145       72.669380
 C        91.753204      -44.749516       73.962196
 H        91.600952      -45.463875       74.819412
 C        92.504433      -43.576023       74.187302
 H        92.670731      -43.145493       75.135925
 C        92.958183      -42.863365       73.081711
 H        93.679657      -42.106865       73.141495
 C        92.659012      -43.255882       71.813713
 H        93.109787      -42.686600       71.046112
 C        93.698761      -44.297779       68.689651
 H        94.163635      -43.622253       69.298065
 C        94.010086      -44.354420       67.368912
 H        94.820038      -43.838112       66.908035
 C        93.323082      -45.174179       66.482559
 H        93.591629      -45.057980       65.441269
 C        92.211823      -45.952148       66.922089
 H        91.747864      -46.716988       66.308929
 C        89.772644      -47.421528       68.407578
 C        89.897186      -48.809612       68.341171
 H        90.651459      -49.372150       68.872520
 C        88.992935      -49.474159       67.527039
 H        88.983459      -50.509453       67.791946
 C        87.919540      -48.838486       66.907333
 H        87.235344      -49.244991       66.167313
 C        87.738388      -47.505913       67.165085
 H        86.944756      -46.907166       66.787811
 C        88.652451      -46.804314       67.873718
 H        88.640480      -45.708073       67.722054
 C        93.407532      -49.408260       73.449677
 C        92.536697      -49.432491       74.500412
 N        92.876785      -48.605797       72.490685
 C        91.655945      -48.119999       72.810287
 N        91.379349      -48.650169       74.055206
 C        90.064682      -48.296642       74.655167
 C        89.523621      -47.091660       74.126602
 C        88.535828      -46.338760       74.774002
 H        88.096954      -45.543045       74.296997
 C        88.125458      -46.698872       76.080414
 H        87.411171      -46.148376       76.627190
 C        88.697296      -47.803314       76.661354
 H        88.250900      -48.115643       77.566994
 C        89.601486      -48.621994       75.971710
 H        89.900818      -49.568932       76.486893
 C        92.849640      -50.160118       75.695755
 H        92.186485      -50.163593       76.563629
 C        94.050415      -50.830086       75.804382
 H        94.147888      -51.389351       76.740227
 C        94.861908      -50.915081       74.690796
 H        95.813606      -51.491997       74.771027
 C        94.530579      -50.248161       73.538780
 H        95.245544      -50.197495       72.719788
 C        93.508743      -48.305187       71.250336
 C        93.296875      -49.018867       70.058708
 H        92.539673      -49.817486       70.026306
 C        94.066727      -48.770271       68.896332
 H        93.729347      -49.231701       67.991089
 C        95.097122      -47.763344       68.937256
 H        95.763763      -47.691673       68.050995
 C        95.301697      -47.053402       70.113617
 H        96.251526      -46.549873       70.257454
 C        94.528030      -47.318169       71.242477
 H        94.601440      -46.638535       72.036774
 Ir       90.200836      -46.819427       87.097076
 C        89.455551      -42.660755       85.981148
 C        88.285133      -43.267357       85.712349
 N        90.469597      -43.646690       86.269485
 C        89.849701      -44.936401       86.318146
 N        88.567474      -44.686218       85.833694
 C        87.729225      -45.869480       85.691841
 C        88.259575      -47.022202       86.330643
 C        87.361298      -48.087303       86.398163
 H        87.691269      -48.984642       86.912758
 C        86.053688      -48.077774       85.886543
 H        85.438515      -49.007828       85.910294
 C        85.622597      -47.007011       85.207336
 H        84.525879      -46.961143       84.979271
 C        86.430481      -45.894836       85.079697
 H        86.101479      -45.123024       84.398849
 C        87.084106      -42.500961       85.390182
 H        86.176102      -43.088852       85.240509
 C        87.215607      -41.069550       85.448227
 H        86.328888      -40.465240       85.454758
 C        88.436569      -40.509773       85.933701
 H        88.493607      -39.472908       85.901245
 C        89.585648      -41.256622       86.046547
 H        90.599701      -40.863525       86.173691
 C        91.778763      -43.342663       86.611755
 C        92.014229      -43.075298       87.947411
 H        91.171097      -42.963638       88.637093
 C        93.252228      -42.716599       88.343018
 H        93.546448      -42.506687       89.422256
 C        94.257782      -42.512413       87.386955
 H        95.245468      -42.469803       87.868172
 C        94.011703      -42.683105       85.999908
 H        94.791084      -42.530693       85.216942
 C        92.761551      -43.141014       85.614777
 H        92.693741      -43.395580       84.575974
 C        87.842911      -46.598824       90.678329
 C        88.365921      -47.885166       90.711258
 N        88.395508      -45.879890       89.641968
 C        89.295074      -46.735741       88.976753
 N        89.221466      -47.962681       89.633789
 C        90.090271      -48.993164       89.130920
 C        90.338882      -48.824112       87.765121
 C        90.822952      -49.895760       87.036667
 H        90.779976      -49.835320       85.974304
 C        91.060623      -51.125237       87.716080
 H        91.500671      -51.963337       87.220032
 C        90.802444      -51.236000       89.078705
 H        91.202133      -52.061401       89.601349
 C        90.322189      -50.148178       89.840683
 H        90.159561      -50.114357       90.860146
 C        87.797165      -48.813992       91.564362
 H        87.968597      -49.861122       91.411636
 C        86.822266      -48.455147       92.466034
 H        86.361694      -49.221889       93.070496
 C        86.280884      -47.148888       92.476311
 H        85.531433      -46.913155       93.208801
 C        86.859253      -46.197739       91.626251
 H        86.487335      -45.180664       91.547897
 C        88.373955      -44.447273       89.648285
 C        89.165977      -43.820980       90.571243
 H        89.755417      -44.489964       91.220490
 C        89.190659      -42.450275       90.655853
 H        89.754211      -41.937073       91.388000
 C        88.429337      -41.641411       89.785721
 H        88.441330      -40.567127       89.883545
 C        87.562065      -42.287495       88.883881
 H        86.721817      -41.773109       88.484024
 C        87.541885      -43.709011       88.829239
 H        86.907715      -44.204834       88.093796
 C        94.443008      -46.164185       88.128342
 C        94.329971      -46.284065       86.737396
 N        93.153229      -46.397461       88.650620
 C        92.252350      -46.809410       87.550156
 N        93.058334      -46.761646       86.465622
 C        92.461838      -47.348717       85.262787
 C        91.063492      -47.271469       85.229996
 C        90.398079      -47.513725       84.014832
 H        89.315948      -47.219353       84.085800
 C        91.099991      -48.029114       82.888733
 H        90.505707      -48.363930       81.996475
 C        92.452286      -48.265072       82.949646
 H        93.012222      -48.797226       82.196854
 C        93.199219      -47.880280       84.110611
 H        94.244728      -48.282181       84.286606
 C        95.451584      -46.180172       85.920883
 H        95.361145      -46.386341       84.894135
 C        96.731400      -46.060555       86.525497
 H        97.515808      -45.798798       85.877136
 C        96.812050      -45.965542       87.872482
 H        97.789795      -45.893242       88.298752
 C        95.708717      -46.016083       88.699951
 H        95.881821      -46.131203       89.720139
 C        92.829567      -46.652214       89.929108
 C        92.253586      -45.648758       90.659187
 H        91.759872      -44.895409       90.041840
 C        91.775620      -45.878639       91.946274
 H        91.392807      -45.052849       92.516296
 C        91.721954      -47.164124       92.444336
 H        91.272247      -47.413086       93.421204
 C        92.285431      -48.214771       91.672821
 H        92.204308      -49.231354       91.993561
 C        92.870560      -47.976196       90.411072
 H        93.440552      -48.722450       89.981171
