206
 generated by VMD
 Ir       67.183853      106.777649      -65.252815
 C        67.945251      102.782127      -63.574272
 C        69.086128      103.477486      -63.270988
 N        67.041138      103.639488      -64.315155
 C        67.631355      104.909409      -64.505798
 N        68.855858      104.748489      -63.845047
 C        69.662781      105.899765      -63.935867
 C        69.264557      106.873459      -64.906403
 C        70.101120      107.942337      -65.216621
 H        69.928329      108.488510      -66.128784
 C        71.255722      108.208786      -64.474197
 H        71.912895      109.036072      -64.613998
 C        71.505920      107.328285      -63.404144
 H        72.233429      107.688698      -62.732841
 C        70.787628      106.149399      -63.223969
 H        71.247757      105.311935      -62.647652
 C        69.976067      102.946289      -62.329063
 H        70.901215      103.340790      -62.193558
 C        69.648247      101.799950      -61.561378
 H        70.304657      101.468857      -60.741199
 C        68.435463      101.142227      -61.861168
 H        68.270905      100.161285      -61.461708
 C        67.608124      101.608322      -62.874107
 H        66.689354      101.012787      -63.059059
 C        65.981171      103.050117      -65.125900
 C        64.641953      103.137749      -64.753181
 H        64.336601      103.644272      -63.872955
 C        63.635971      102.689400      -65.628731
 H        62.613503      102.553940      -65.206001
 C        64.021011      102.265732      -66.877991
 H        63.333794      101.972748      -67.589676
 C        65.338173      102.093864      -67.254875
 H        65.609238      101.660934      -68.145493
 C        66.311432      102.532646      -66.348709
 H        67.307289      102.473709      -66.684250
 C        67.240570      109.370094      -61.707596
 C        67.027817      110.222519      -62.792122
 N        67.111855      108.119148      -62.183701
 C        67.051743      108.093384      -63.601524
 N        66.975159      109.452332      -63.934853
 C        66.870300      109.816902      -65.327553
 C        66.972351      108.681366      -66.190475
 C        67.107597      108.909401      -67.581482
 H        67.251945      108.219742      -68.370941
 C        67.021027      110.196594      -68.091606
 H        67.097221      110.383896      -69.114304
 C        66.911423      111.274284      -67.218910
 H        67.001297      112.330360      -67.446106
 C        66.891846      111.049026      -65.824249
 H        67.119347      111.983063      -65.223999
 C        67.184959      111.602287      -62.575241
 H        67.004852      112.276367      -63.298492
 C        67.539108      112.136421      -61.327736
 H        67.834457      113.192192      -61.243980
 C        67.777481      111.272278      -60.333786
 H        67.970360      111.671875      -59.352913
 C        67.652618      109.842979      -60.440197
 H        67.934097      109.175537      -59.619591
 C        67.218193      106.956467      -61.463326
 C        66.162781      105.964874      -61.509804
 H        65.183708      106.456116      -61.651573
 C        66.365021      104.669189      -60.960354
 H        65.540398      103.949913      -60.965782
 C        67.567596      104.310013      -60.303318
 H        67.728813      103.395248      -59.894257
 C        68.530670      105.338623      -60.180664
 H        69.494102      104.942116      -59.807205
 C        68.388046      106.587715      -60.775665
 H        69.224838      107.239265      -61.049461
 C        63.010700      106.142151      -66.413643
 C        63.702831      105.742393      -67.467659
 N        63.992924      106.703430      -65.583717
 C        65.252655      106.618118      -66.014542
 N        65.094742      106.009766      -67.232277
 C        66.390999      105.632538      -67.858948
 C        67.524811      105.781578      -67.080711
 C        68.668594      105.061531      -67.409172
 H        69.483841      105.096710      -66.722855
 C        68.660004      104.281776      -68.543724
 H        69.542435      103.778656      -68.946587
 C        67.535767      104.155266      -69.396133
 H        67.539764      103.770782      -70.380692
 C        66.460907      104.867439      -69.081375
 H        65.721222      105.054749      -69.865646
 C        62.974361      105.185730      -68.534416
 H        63.293518      105.320732      -69.545654
 C        61.596737      104.870834      -68.364418
 H        61.007664      104.417236      -69.132423
 C        61.020325      105.205788      -67.092659
 H        60.136078      104.723801      -66.731705
 C        61.706001      105.973206      -66.172371
 H        61.163776      106.592819      -65.460976
 C        63.617847      107.243896      -64.300392
 C        63.667667      108.642792      -64.094261
 H        64.494781      109.172607      -64.543808
 C        63.012909      109.284004      -62.983658
 H        62.993988      110.329742      -62.905800
 C        62.368740      108.421242      -62.050713
 H        61.597794      108.911255      -61.444626
 C        62.353561      107.065536      -62.209587
 H        62.079063      106.418472      -61.402031
 C        62.964737      106.447937      -63.326744
 H        62.822956      105.403427      -63.491051
 Ir       67.183853      106.777649      -53.773384
 C        68.190720      103.549072      -56.566780
 C        69.387276      104.199539      -56.322529
 N        67.189789      104.144615      -55.820831
 C        67.717293      105.293114      -55.192192
 N        69.044266      105.374573      -55.606819
 C        69.519218      106.690933      -55.550163
 C        69.058510      107.452332      -54.488552
 C        69.680984      108.662849      -54.176670
 H        69.169922      109.375183      -53.536911
 C        70.715790      109.028969      -55.056290
 H        71.327126      109.875069      -54.853832
 C        71.141075      108.260323      -56.167824
 H        72.092270      108.534027      -56.656204
 C        70.524933      107.107040      -56.422401
 H        70.863144      106.496078      -57.332809
 C        70.603775      103.595207      -56.687355
 H        71.555206      104.044792      -56.604538
 C        70.591461      102.378670      -57.371231
 H        71.542534      101.872612      -57.646111
 C        69.400558      101.741165      -57.667450
 H        69.328400      100.742935      -58.128258
 C        68.201050      102.328064      -57.280098
 H        67.339874      101.743790      -57.517563
 C        65.854416      103.683762      -55.755768
 C        65.396126      103.174011      -54.543282
 H        66.181732      102.866516      -53.780144
 C        64.011055      103.123558      -54.256180
 H        63.703175      102.813911      -53.277649
 C        63.030563      103.425644      -55.222763
 H        61.983047      103.470078      -54.992668
 C        63.523918      103.837128      -56.457870
 H        62.814705      103.849777      -57.280457
 C        64.900223      104.018417      -56.703674
 H        65.285500      104.228088      -57.702568
 C        70.039444      105.851624      -50.739727
 C        69.536469      107.048256      -50.286209
 N        69.233124      105.358376      -51.716377
 C        68.198814      106.176704      -52.082787
 N        68.358315      107.148087      -51.109192
 C        67.460449      108.299820      -51.258293
 C        66.999924      108.461044      -52.513298
 C        66.267731      109.591492      -52.772858
 H        65.734116      109.722168      -53.743210
 C        66.121475      110.638779      -51.811661
 H        65.384209      111.444458      -51.910286
 C        66.576469      110.350571      -50.504250
 H        66.252563      110.946426      -49.651875
 C        67.242264      109.184181      -50.222389
 H        67.641785      109.014778      -49.247414
 C        70.196518      107.816132      -49.239651
 H        69.959396      108.761749      -48.910278
 C        71.423561      107.398178      -48.819778
 H        71.917458      107.782036      -47.914009
 C        71.939896      106.147079      -49.298897
 H        72.811401      105.657379      -48.954826
 C        71.199799      105.413918      -50.191544
 H        71.441162      104.372955      -50.007309
 C        69.205788      103.879707      -51.916862
 C        68.288757      103.177711      -51.062023
 H        67.975983      103.489830      -50.100227
 C        67.880264      101.873383      -51.425987
 H        67.076462      101.405899      -50.967987
 C        68.461220      101.202400      -52.503937
 H        68.389305      100.189369      -52.714378
 C        69.373085      101.894211      -53.269505
 H        69.913757      101.335236      -53.950546
 C        69.804688      103.230637      -53.004715
 H        70.715813      103.678986      -53.451965
 C        62.921925      105.886032      -52.885067
 C        62.955769      106.331909      -54.159637
 N        64.294662      105.885262      -52.358772
 C        65.193489      106.379593      -53.382851
 N        64.339317      106.643570      -54.487610
 C        64.937668      107.132500      -55.684280
 C        66.137878      107.808731      -55.356224
 C        66.644012      108.645729      -56.333702
 H        67.641556      109.005363      -56.164383
 C        66.038246      108.840118      -57.586609
 H        66.303482      109.817215      -58.105019
 C        64.825287      108.118378      -57.886986
 H        64.448425      108.283310      -58.891411
 C        64.304962      107.216278      -56.958084
 H        63.606319      106.542664      -57.209766
 C        61.757557      106.525391      -54.801720
 H        61.832664      107.212418      -55.649864
 C        60.520493      106.360611      -54.186401
 H        59.666248      106.839203      -54.685322
 C        60.446064      105.897293      -52.872475
 H        59.523598      105.468071      -52.464027
 C        61.677605      105.613403      -52.258949
 H        61.562908      105.092545      -51.296684
 C        64.514580      105.634705      -51.000183
 C        64.175369      106.698959      -50.128868
 H        63.422729      107.414993      -50.494007
 C        64.496193      106.664093      -48.817131
 H        64.298332      107.449860      -48.103821
 C        65.142242      105.530098      -48.317642
 H        65.455124      105.577461      -47.282631
 C        65.453445      104.418625      -49.142197
 H        66.009354      103.562187      -48.737247
 C        65.184052      104.460281      -50.527473
 H        65.589035      103.756439      -51.209373
