206
 generated by VMD
 Ir        8.854586       81.638840      -20.373669
 C         9.230565       85.892303      -19.269506
 C        10.219075       85.739243      -20.191851
 N         8.554813       84.588318      -19.017536
 C         9.107415       83.622169      -19.837584
 N        10.168161       84.299355      -20.455351
 C        11.066783       83.451767      -21.204607
 C        10.629160       82.125153      -21.431681
 C        11.370677       81.396942      -22.353182
 H        10.804614       80.559677      -22.780579
 C        12.591013       81.835556      -22.967184
 H        13.192386       81.292572      -23.635399
 C        12.986530       83.174934      -22.696928
 H        13.866462       83.593063      -23.141211
 C        12.192409       83.993057      -21.869495
 H        12.356058       84.997650      -22.094679
 C        11.066601       86.826302      -20.487835
 H        11.617433       86.785965      -21.372343
 C        11.094654       87.928177      -19.690546
 H        11.944122       88.621277      -19.641296
 C        10.088075       88.081787      -18.711870
 H        10.077230       88.844223      -17.961088
 C         9.085926       87.073044      -18.585167
 H         8.078726       87.318359      -18.090422
 C         7.494246       84.442986      -18.118998
 C         6.289988       85.174507      -18.249525
 H         6.249970       85.885368      -18.998772
 C         5.328175       85.212685      -17.186153
 H         4.335011       85.534790      -17.360439
 C         5.650295       84.637459      -15.974930
 H         5.009404       84.477577      -15.088987
 C         6.890334       84.014633      -15.786039
 H         7.296608       83.753426      -14.817112
 C         7.765910       83.861115      -16.890167
 H         8.750919       83.375351      -16.647696
 C         6.357715       81.918335      -23.997978
 C         6.349326       80.591896      -23.602753
 N         7.225457       82.522324      -23.038441
 C         7.729244       81.657593      -22.108793
 N         7.198278       80.394295      -22.494225
 C         7.821770       79.235657      -21.889063
 C         8.940372       79.653809      -21.081610
 C         9.848841       78.678230      -20.743610
 H        10.711600       78.945114      -20.164112
 C         9.633667       77.347122      -21.016457
 H        10.446531       76.690689      -21.104496
 C         8.464602       77.000473      -21.634855
 H         8.293104       75.983841      -21.839897
 C         7.543100       77.913979      -22.113131
 H         6.597338       77.598778      -22.448961
 C         5.420514       79.767029      -24.230049
 H         5.122799       78.785698      -23.806664
 C         4.620013       80.254135      -25.249475
 H         3.920012       79.644394      -25.821421
 C         4.660442       81.619370      -25.606392
 H         3.755486       81.948212      -26.064888
 C         5.575187       82.472534      -24.980328
 H         5.439750       83.574768      -24.986387
 C         7.442311       83.956726      -23.090904
 C         6.649295       84.777634      -22.293322
 H         5.791769       84.433243      -21.791080
 C         7.034579       86.147552      -22.097651
 H         6.843876       86.541077      -21.109890
 C         8.035075       86.749374      -22.865383
 H         8.436862       87.787025      -22.696743
 C         8.808912       85.930710      -23.717072
 H         9.567998       86.229736      -24.461700
 C         8.556002       84.516876      -23.754477
 H         9.029382       83.839691      -24.419853
 C         5.862241       79.712914      -17.856907
 C         7.025482       79.742210      -17.074020
 N         6.105601       80.449371      -19.062269
 C         7.454391       80.900482      -19.070677
 N         7.985383       80.508240      -17.827944
 C         9.363254       80.871048      -17.598953
 C        10.072733       81.139160      -18.730213
 C        11.473834       81.196930      -18.629318
 H        12.050368       81.403976      -19.483099
 C        12.176768       81.128593      -17.430397
 H        13.285353       81.207550      -17.398672
 C        11.456961       80.958649      -16.280312
 H        11.947906       80.996384      -15.256910
 C        10.055099       80.866486      -16.350943
 H         9.448441       80.916245      -15.424074
 C         6.900899       79.236420      -15.742235
 H         7.585669       79.691391      -15.141739
 C         5.663253       78.837234      -15.242449
 H         5.539729       78.595612      -14.267891
 C         4.574253       78.766350      -16.123615
 H         3.658195       78.271149      -15.738113
 C         4.656495       79.161743      -17.396917
 H         3.673165       79.235489      -17.949116
 C         5.039155       81.153854      -19.682671
 C         4.758389       82.391281      -19.145496
 H         5.295582       82.634811      -18.144737
 C         3.989870       83.325897      -19.830536
 H         3.952637       84.350342      -19.578905
 C         3.486622       82.914932      -21.086861
 H         2.821703       83.590408      -21.601274
 C         3.746341       81.642563      -21.618023
 H         3.475052       81.503242      -22.612604
 C         4.523209       80.727356      -20.907415
 H         4.729608       79.773422      -21.471153
 Ir        8.854586       81.638840       -8.527769
 C         9.486725       77.684158       -6.977065
 C         8.993335       77.444046       -8.237188
 N         9.760183       79.051918       -6.852744
 C         9.393471       79.763580       -7.992589
 N         8.951774       78.766708       -8.879175
 C         8.253302       79.187248       -9.994827
 C         7.847643       80.539192      -10.027818
 C         7.224424       80.988571      -11.178188
 H         6.848741       81.971069      -11.190929
 C         6.948227       80.085464      -12.287746
 H         6.620174       80.493622      -13.209913
 C         7.321323       78.778976      -12.137821
 H         6.948978       77.989410      -12.707691
 C         7.974197       78.341812      -11.045512
 H         8.464598       77.386444      -10.989136
 C         8.602411       76.141312       -8.611055
 H         8.325430       75.884415       -9.643616
 C         8.587685       75.088135       -7.631114
 H         8.361216       74.047691       -7.917466
 C         9.100500       75.366516       -6.363349
 H         9.429127       74.543549       -5.721061
 C         9.572395       76.650375       -6.048542
 H        10.065279       76.822937       -5.116344
 C        10.424671       79.571022       -5.684204
 C         9.673949       79.793259       -4.508734
 H         8.776395       79.202744       -4.412844
 C        10.224882       80.468292       -3.413612
 H         9.621101       80.625671       -2.483297
 C        11.500615       80.983261       -3.556125
 H        11.765587       81.685699       -2.787309
 C        12.249551       80.738846       -4.733731
 H        13.356250       80.867752       -4.751021
 C        11.706802       80.057693       -5.819068
 H        12.455417       79.748795       -6.607392
 C        11.836097       82.486603      -11.493912
 C        10.827759       83.354019      -11.795451
 N        11.429265       81.728043      -10.390474
 C        10.255745       82.189194       -9.938715
 N         9.912427       83.205811      -10.754440
 C         8.754122       83.908867      -10.440357
 C         8.034451       83.418877       -9.336868
 C         6.920044       84.122375       -8.783260
 H         6.598866       83.907440       -7.780043
 C         6.560838       85.388535       -9.368593
 H         5.871992       86.055298       -8.836130
 C         7.305058       85.860199      -10.442728
 H         6.852085       86.686493      -10.968718
 C         8.332110       85.121216      -10.976086
 H         8.945840       85.656036      -11.707462
 C        10.707558       83.883713      -13.030232
 H         9.923062       84.611191      -13.095318
 C        11.613596       83.519913      -14.035593
 H        11.512223       84.152634      -14.904957
 C        12.706811       82.729019      -13.757270
 H        13.455206       82.729645      -14.577030
 C        12.828205       82.212631      -12.474302
 H        13.667580       81.576591      -12.234497
 C        11.807913       80.348343      -10.280674
 C        11.202224       79.413620      -11.113940
 H        10.708918       79.772995      -11.999884
 C        11.548996       78.020622      -11.026660
 H        11.053242       77.211655      -11.525863
 C        12.663882       77.688278      -10.285999
 H        13.000546       76.603745      -10.304326
 C        13.372531       78.616364       -9.563437
 H        14.085558       78.257523       -8.820049
 C        12.902267       79.974953       -9.517801
 H        13.317827       80.750053       -8.880676
 C        10.499758       83.926880       -5.204764
 C         9.309185       83.350204       -4.773391
 N        10.598913       83.540718       -6.520190
 C         9.495451       82.820679       -6.966630
 N         8.727738       82.700668       -5.827063
 C         7.674685       81.793533       -5.870327
 C         7.329711       81.368111       -7.155633
 C         6.198745       80.534805       -7.292051
 H         5.623038       80.776596       -8.151817
 C         5.547514       80.035919       -6.200257
 H         4.847734       79.185822       -6.288750
 C         5.859507       80.445267       -4.907623
 H         5.405222       80.070068       -3.954441
 C         6.964817       81.294113       -4.770707
 H         7.230734       81.449516       -3.751374
 C         8.980957       83.563370       -3.435696
 H         7.963475       83.580780       -3.187045
 C         9.961904       84.047531       -2.543438
 H         9.922606       83.693268       -1.546113
 C        11.198859       84.509949       -3.044050
 H        11.879905       84.807907       -2.354485
 C        11.404063       84.513168       -4.419724
 H        12.360717       84.844185       -4.819037
 C        11.558754       84.130951       -7.414465
 C        11.134033       85.187546       -8.249580
 H        10.138399       85.541718       -8.146263
 C        11.860949       85.694153       -9.297649
 H        11.416443       86.306931       -9.953793
 C        13.097818       85.106438       -9.564560
 H        13.526709       85.450546      -10.454581
 C        13.588000       84.005470       -8.791458
 H        14.315532       83.389725       -9.324427
 C        12.790346       83.491676       -7.750034
 H        13.099373       82.609436       -7.271454
