206
 generated by VMD
 Ir      -38.617500      -44.625664       36.541451
 C       -40.044975      -42.221207       39.868042
 C       -40.513603      -43.443722       40.141785
 N       -39.345535      -42.275406       38.633400
 C       -39.320648      -43.517220       38.169868
 N       -40.019001      -44.294827       39.117096
 C       -39.906239      -45.667320       39.023022
 C       -39.174122      -46.120190       37.878334
 C       -39.265526      -47.481987       37.629013
 H       -38.601379      -47.913872       36.957752
 C       -39.979980      -48.375732       38.446423
 H       -40.179276      -49.400444       38.143860
 C       -40.574623      -47.980827       39.606659
 H       -41.301903      -48.582642       40.005016
 C       -40.495209      -46.608337       39.931095
 H       -40.769924      -46.334942       40.954662
 C       -41.491631      -43.657944       41.205116
 H       -41.749031      -44.665947       41.497990
 C       -41.850243      -42.622063       42.012177
 H       -42.471039      -42.706905       42.907730
 C       -41.353035      -41.333031       41.701569
 H       -41.769485      -40.508686       42.231308
 C       -40.423462      -41.150459       40.665634
 H       -40.070137      -40.167271       40.396927
 C       -39.180122      -41.118340       37.857292
 C       -37.908051      -40.693642       37.564438
 H       -37.112648      -41.461727       37.682255
 C       -37.642605      -39.455299       37.004395
 H       -36.688160      -38.964058       36.989540
 C       -38.738255      -38.635021       36.642185
 H       -38.610298      -37.806255       36.066620
 C       -40.018532      -39.054794       36.980957
 H       -40.784691      -38.328411       37.060131
 C       -40.252609      -40.299770       37.566917
 H       -41.219513      -40.596153       37.839600
 C       -34.582153      -45.484100       38.123711
 C       -34.621830      -46.082378       36.880569
 N       -35.832176      -44.911259       38.293991
 C       -36.710457      -45.063118       37.138367
 N       -35.882751      -45.778629       36.304615
 C       -36.553928      -46.102890       35.093430
 C       -37.928314      -45.982624       35.093979
 C       -38.651894      -46.555408       34.017662
 H       -39.649014      -46.357307       33.924873
 C       -37.975132      -47.104736       32.919151
 H       -38.477291      -47.542130       32.087875
 C       -36.529953      -47.164265       32.898613
 H       -36.068169      -47.548882       32.044552
 C       -35.829376      -46.647942       33.942024
 H       -34.769180      -46.517746       33.864990
 C       -33.424217      -46.632561       36.428444
 H       -33.226379      -47.062298       35.508072
 C       -32.239159      -46.651833       37.250000
 H       -31.336185      -47.026405       36.848328
 C       -32.242184      -46.112587       38.502716
 H       -31.422245      -46.163719       39.160053
 C       -33.426987      -45.583153       38.957184
 H       -33.530216      -45.046265       39.967922
 C       -36.249420      -44.255424       39.514599
 C       -35.922333      -42.916531       39.723579
 H       -35.392498      -42.367764       38.995071
 C       -36.577576      -42.245075       40.804138
 H       -36.388306      -41.137169       40.958794
 C       -37.405346      -42.849220       41.690033
 H       -37.466209      -42.500763       42.678455
 C       -37.623703      -44.254425       41.494537
 H       -38.054989      -44.801479       42.297104
 C       -37.113487      -44.918594       40.417755
 H       -37.181534      -46.008324       40.487541
 C       -38.015846      -41.118340       33.955875
 C       -39.349998      -41.242321       34.092155
 N       -37.417358      -42.230316       34.667721
 C       -38.368347      -43.121494       35.135494
 N       -39.579964      -42.547180       34.765846
 C       -40.625427      -43.498478       34.661293
 C       -40.563660      -44.402306       35.755768
 C       -41.720924      -45.016289       36.135178
 H       -41.770695      -45.811047       36.840858
 C       -42.960648      -44.671898       35.632698
 H       -43.882721      -45.092766       35.881004
 C       -43.016670      -43.733212       34.559464
 H       -43.892590      -43.453213       34.144176
 C       -41.869102      -43.214622       34.070950
 H       -41.810997      -42.918648       33.084831
 C       -40.236076      -40.270416       33.542084
 H       -41.323215      -40.476120       33.524391
 C       -39.784882      -39.166195       32.827095
 H       -40.446121      -38.457375       32.388981
 C       -38.418209      -38.977409       32.702751
 H       -38.114166      -38.015820       32.383991
 C       -37.501579      -39.925140       33.214310
 H       -36.511692      -39.894615       33.065697
 C       -36.080772      -42.634407       34.451271
 C       -35.151573      -41.793446       35.069550
 H       -35.513000      -41.131218       35.826862
 C       -33.891182      -41.587769       34.565048
 H       -33.054146      -41.153820       35.156025
 C       -33.558689      -42.292793       33.415138
 H       -32.512310      -42.322586       33.063129
 C       -34.454216      -43.080505       32.742729
 H       -34.317150      -43.539326       31.768875
 C       -35.704918      -43.315262       33.278214
 H       -36.361626      -43.910061       32.667027
 Ir      -38.617500      -44.625664       47.135536
 C       -37.128441      -46.958473       43.679428
 C       -36.019081      -46.323921       44.173454
 N       -38.244743      -46.522285       44.428364
 C       -37.834854      -45.592728       45.427773
 N       -36.496277      -45.530136       45.235710
 C       -35.808331      -44.510345       46.068268
 C       -36.629799      -43.934494       47.040066
 C       -36.154381      -42.820160       47.737381
 H       -36.765961      -42.312767       48.534081
 C       -34.843700      -42.329155       47.607655
 H       -34.333488      -41.776260       48.393147
 C       -34.092529      -42.921684       46.616364
 H       -33.084404      -42.698448       46.452538
 C       -34.584698      -43.992817       45.880936
 H       -33.960960      -44.600937       45.321526
 C       -34.771038      -46.603973       43.575069
 H       -33.970634      -46.018604       43.871040
 C       -34.622169      -47.482868       42.487190
 H       -33.622940      -47.614044       42.135445
 C       -35.807083      -48.062668       41.952011
 H       -35.773323      -48.959717       41.376884
 C       -37.061363      -47.799294       42.607689
 H       -38.019928      -48.178040       42.274361
 C       -39.554466      -47.038544       44.114510
 C       -40.563393      -46.149193       43.719021
 H       -40.228287      -45.088997       43.634804
 C       -41.848801      -46.595722       43.463020
 H       -42.548782      -45.802410       43.174438
 C       -42.162235      -47.976524       43.620316
 H       -43.118977      -48.371307       43.519882
 C       -41.083176      -48.853268       43.957298
 H       -41.463753      -49.765228       44.365944
 C       -39.831108      -48.357754       44.189022
 H       -39.059845      -49.087761       44.392090
 C       -37.455612      -47.495895       50.203331
 C       -38.083431      -46.495937       50.883350
 N       -37.407547      -47.064125       48.808853
 C       -38.050838      -45.870636       48.681343
 N       -38.467766      -45.497128       49.875648
 C       -39.141266      -44.298923       49.955658
 C       -39.156406      -43.524502       48.783207
 C       -39.653831      -42.182365       48.833538
 H       -39.405510      -41.500984       48.001282
 C       -40.155998      -41.642021       50.007786
 H       -40.722763      -40.737492       49.933643
 C       -40.046257      -42.433777       51.192478
 H       -40.364166      -42.044888       52.108829
 C       -39.567390      -43.727787       51.157627
 H       -39.877151      -44.465637       51.910904
 C       -38.147247      -46.547421       52.317009
 H       -38.518372      -45.699768       52.848000
 C       -37.663731      -47.672009       53.033607
 H       -37.537529      -47.580002       54.100384
 C       -36.857208      -48.543007       52.347759
 H       -36.446121      -49.365166       52.851303
 C       -36.718658      -48.453236       50.929893
 H       -35.882050      -48.970676       50.479401
 C       -36.635849      -47.705635       47.826485
 C       -37.191574      -48.826805       47.209190
 H       -38.289062      -48.989304       47.161064
 C       -36.380451      -49.734375       46.558575
 H       -36.835968      -50.593109       46.053032
 C       -34.993736      -49.597126       46.508675
 H       -34.466908      -50.487129       46.160332
 C       -34.406815      -48.507404       47.060867
 H       -33.380939      -48.374847       47.064560
 C       -35.210869      -47.572456       47.744659
 H       -34.726112      -46.838409       48.395119
 C       -42.757523      -45.945137       46.604286
 C       -42.739594      -44.658020       45.951210
 N       -41.471306      -46.091042       47.159138
 C       -40.645454      -45.061470       46.808781
 N       -41.393745      -44.128288       46.143764
 C       -40.685646      -42.934448       45.800484
 C       -39.258213      -43.059639       45.807770
 C       -38.469337      -42.105354       45.162689
 H       -37.371704      -42.167011       45.145576
 C       -39.081932      -40.934769       44.749115
 H       -38.490799      -40.116493       44.451309
 C       -40.430523      -40.768936       44.884415
 H       -40.826309      -39.748703       44.771812
 C       -41.293804      -41.700760       45.409248
 H       -42.349735      -41.657082       45.209244
 C       -43.944984      -44.212254       45.433113
 H       -44.149284      -43.238670       44.926361
 C       -45.125099      -44.929764       45.532051
 H       -46.035500      -44.444008       45.249710
 C       -45.100502      -46.244907       46.045467
 H       -45.959698      -46.933571       45.967842
 C       -43.907761      -46.748852       46.587135
 H       -43.916626      -47.521149       47.310791
 C       -41.224937      -47.117432       48.164730
 C       -41.311401      -46.717846       49.447990
 H       -41.666111      -45.765190       49.665764
 C       -41.228611      -47.647339       50.498886
 H       -40.777367      -47.264050       51.385658
 C       -41.058861      -48.953114       50.214027
 H       -41.029297      -49.746159       50.970734
 C       -40.982746      -49.371738       48.861267
 H       -40.861271      -50.403526       48.577606
 C       -41.078186      -48.458927       47.859985
 H       -41.141975      -48.770161       46.858353
