206
 generated by VMD
  IR         3.840000       33.150002       -0.455000
  C1         7.850000       33.490002        1.185000
  C2         7.440000       34.759998        1.095000
  N1         6.820000       32.650002        0.685000
  C3a        5.760000       33.369999        0.345000
  N2         6.100000       34.709999        0.625000
  C4         5.080000       35.639999        0.625000
  C5a        3.810000       35.119999        0.215000
  C6         2.840000       36.080002       -0.035000
  H1         1.850000       35.779999       -0.125000
  C7         3.050000       37.459999        0.135000
  H2         2.340000       38.200001       -0.225000
  C8         4.210000       37.959999        0.645000
  H3         4.420000       38.950001        0.485000
  C9         5.230000       37.029999        0.945000
  H4         6.060000       37.400002        1.555000
  C10        8.370000       35.869999        1.285000
  H5         7.990000       36.880001        1.345000
  C11        9.650000       35.619999        1.675000
  H6        10.380000       36.380001        1.965000
  C12       10.070000       34.270000        1.755000
  H7        11.110000       34.090000        1.895000
  C13        9.160000       33.220001        1.555000
  H8         9.480000       32.189999        1.575000
  C6         7.120000       31.370001        0.195000
  C1         6.530000       30.280001        0.785000
  H1         5.620000       30.500000        1.385000
  C2         6.930000       28.980000        0.525000
  H2         6.700000       28.120001        1.125000
  C3         7.930000       28.770000       -0.455000
  H3         8.130000       27.840000       -0.815000
  C4         8.550000       29.879999       -1.015000
  H4         9.510000       29.760000       -1.445000
  C5         8.140000       31.180000       -0.715000
  H5         8.630000       32.009998       -1.125000
  C1         1.710000       32.410000        3.345000
  C2         0.740000       32.349998        2.365000
  N1         2.890000       32.689999        2.675000
  C3b        2.740000       32.759998        1.225000
  N2         1.390000       32.520000        1.115000
  C4         0.980000       32.590000       -0.245000
  C5b        1.850000       33.200001       -1.125000
  C6         1.370000       33.540001       -2.415000
  H1         2.030000       33.860001       -3.125000
  C7         0.090000       33.139999       -2.825000
  H2        -0.310000       33.369999       -3.785000
  C8        -0.790000       32.439999       -1.915000
  H3        -1.720000       32.130001       -2.275000
  C9        -0.350000       32.139999       -0.665000
  H4        -0.910000       31.469999       -0.045000
  C10       -0.530000       31.959999        2.785000
  H5        -1.370000       31.790001        2.205000
  C11       -0.830000       31.719999        4.175000
  H6        -1.790000       31.370001        4.445000
  C12        0.130000       31.850000        5.135000
  H7        -0.060000       31.750000        6.165000
  C13        1.380000       32.250000        4.725000
  H8         2.280000       32.330002        5.435000
  C6         4.150000       32.930000        3.345000
  C1         4.950000       31.850000        3.715000
  H1         4.660000       30.860001        3.495000
  C2         6.290000       32.139999        4.125000
  H2         6.990000       31.280001        4.365000
  C3         6.790000       33.389999        4.275000
  H3         7.530000       33.580002        4.995000
  C4         5.890000       34.470001        3.985000
  H4         6.160000       35.439999        4.325000
  C5         4.640000       34.250000        3.485000
  H5         3.990000       35.130001        3.495000
  C1         4.580000       29.120001       -2.055000
  C2         5.330000       29.950001       -2.805000
  N1         3.840000       29.950001       -1.125000
  C3c        4.020000       31.299999       -1.375000
  N2         4.920000       31.330000       -2.435000
  C4         4.840000       32.529999       -3.185000
  C5c        4.730000       33.639999       -2.305000
  C6         5.170000       34.849998       -2.755000
  H1         5.010000       35.770000       -2.245000
  C7         5.870000       35.009998       -3.935000
  H2         6.240000       35.900002       -4.335000
  C8         6.010000       33.880001       -4.795000
  H3         6.500000       33.939999       -5.675000
  C9         5.460000       32.700001       -4.435000
  H4         5.150000       32.029999       -5.155000
  C10        6.220000       29.440001       -3.795000
  H5         6.700000       30.139999       -4.505000
  C11        6.350000       28.080000       -4.055000
  H6         6.990000       27.700001       -4.815000
  C12        5.630000       27.190001       -3.275000
  H7         5.940000       26.180000       -3.325000
  C13        4.720000       27.650000       -2.295000
  H8         4.100000       27.059999       -1.775000
  C6         2.700000       29.480000       -0.435000
  C1         3.020000       28.639999        0.635000
  H1         4.030000       28.650000        0.985000
  C2         2.190000       27.629999        1.055000
  H2         2.280000       27.129999        2.045000
  C3         0.980000       27.500000        0.385000
  H3         0.190000       26.840000        0.785000
  C4         0.650000       28.260000       -0.705000
  H4        -0.200000       28.120001       -1.365000
  C5         1.470000       29.299999       -1.095000
  H5         1.160000       29.820000       -1.985000
  IR         8.920000       37.650002        7.680000
  C1         4.860000       37.169998        5.980000
  C2         4.880000       36.340000        7.070000
  N1         6.150000       37.730000        5.840000
  C3a        7.010000       37.250000        6.870000
  N2         6.190000       36.439999        7.580000
  C4         6.870000       35.680000        8.660000
  C5a        8.190000       36.080002        8.880000
  C6         8.990000       35.299999        9.720000
  H1        10.060000       35.570000        9.940000
  C7         8.500000       34.209999       10.460000
  H2         8.950000       33.869999       11.390000
  C8         7.200000       33.849998       10.180000
  H3         6.690000       33.099998       10.700000
  C9         6.420000       34.590000        9.300000
  H4         5.390000       34.490002        9.270000
  C10        3.690000       35.660000        7.410000
  H5         3.760000       34.939999        8.150000
  C11        2.500000       35.779999        6.670000
  H6         1.670000       35.220001        7.040000
  C12        2.540000       36.590000        5.500000
  H7         1.650000       37.000000        5.080000
  C13        3.750000       37.310001        5.200000
  H8         3.890000       37.939999        4.330000
  C6         6.410000       38.650002        4.760000
  C1         7.390000       38.330002        3.810000
  H1         7.860000       37.330002        3.960000
  C2         7.710000       39.209999        2.790000
  H2         8.500000       38.849998        2.120000
  C3         7.050000       40.470001        2.710000
  H3         7.290000       41.209999        2.020000
  C4         6.010000       40.720001        3.660000
  H4         5.820000       41.770000        3.730000
  C5         5.730000       39.810001        4.640000
  H5         4.900000       40.049999        5.290000
  C1         7.820000       40.509998       10.780000
  C2         9.170000       40.369999       10.900000
  N1         7.410000       39.570000        9.740000
  C3b        8.510000       38.950001        9.230000
  N2         9.570000       39.389999        9.880000
  C4        10.790000       38.869999        9.510000
  C5b       10.750000       37.799999        8.600000
  C6        11.950000       37.070000        8.320000
  H1        11.860000       36.080002        7.840000
  C7        13.160000       37.419998        8.900000
  H2        14.050000       37.000000        8.480000
  C8        13.140000       38.459999        9.880000
  H3        14.020000       38.720001       10.380000
  C9        11.990000       39.169998       10.160000
  H4        12.040000       40.200001       10.540000
  C10        9.860000       41.049999       11.960000
  H5        10.890000       40.830002       12.130000
  C11        9.180000       41.950001       12.820000
  H6         9.680000       42.270000       13.720000
  C12        7.810000       41.900002       12.810000
  H7         7.270000       42.520000       13.460000
  C13        7.110000       41.160000       11.810000
  H8         6.070000       40.930000       12.000000
  C6         6.070000       39.240002        9.480000
  C1         5.350000       40.099998        8.650000
  H1         5.850000       40.759998        7.910000
  C2         3.970000       40.090000        8.670000
  H2         3.420000       40.750000        7.990000
  C3         3.240000       39.259998        9.520000
  H3         2.180000       39.509998        9.590000
  C4         3.890000       38.380001       10.320000
  H4         3.390000       37.759998       10.980000
  C5         5.300000       38.380001       10.330000
  H5         5.820000       37.860001       11.140000
  C1        10.170000       40.520000        4.620000
  C2        10.700000       39.270000        4.130000
  N1         9.600000       40.209999        5.870000
  C3c        9.640000       38.869999        6.130000
  N2        10.370000       38.270000        5.140000
  C4        10.590000       36.869999        5.330000
  C5c        9.690000       36.240002        6.250000
  C6         9.560000       34.849998        6.260000
  H1         8.880000       34.330002        6.950000
  C7        10.490000       34.110001        5.550000
  H2        10.550000       33.070000        5.700000
  C8        11.440000       34.730000        4.790000
  H3        12.290000       34.119999        4.450000
  C9        11.570000       36.090000        4.640000
  H4        12.110000       36.509998        3.810000
  C10       11.440000       39.330002        2.960000
  H5        11.960000       38.490002        2.440000
  C11       11.690000       40.509998        2.280000
  H6        12.400000       40.490002        1.480000
  C12       11.050000       41.700001        2.690000
  H7        11.050000       42.619999        2.080000
  C13       10.290000       41.700001        3.870000
  H8        10.130000       42.590000        4.420000
  C6         9.260000       41.279999        6.800000
  C1        10.190000       41.570000        7.730000
  H1        11.130000       41.130001        7.670000
  C2        10.030000       42.669998        8.590000
  H2        10.450000       42.529999        9.560000
  C3         8.930000       43.439999        8.480000
  H3         8.750000       44.340000        9.080000
  C4         7.960000       43.139999        7.490000
  H4         7.070000       43.730000        7.350000
  C5         8.140000       42.080002        6.660000
  H5         7.490000       41.919998        5.850000
