206
 generated by VMD
 Ir       61.921936      -67.741562       41.354729
 C        58.203945      -65.930443       42.786854
 C        58.113213      -65.889626       41.399696
 N        59.485905      -66.463913       43.064331
 C        60.222115      -66.726006       41.926178
 N        59.319653      -66.387917       40.861542
 C        59.675713      -66.800797       39.562294
 C        60.805264      -67.615112       39.544827
 C        61.279816      -68.088394       38.275772
 H        62.017273      -68.892395       38.138489
 C        60.582230      -67.802048       37.065369
 H        61.314903      -67.741714       36.307907
 C        59.486664      -66.901260       37.099232
 H        59.166580      -66.416077       36.186249
 C        59.100487      -66.345963       38.301483
 H        58.564579      -65.393066       38.376255
 C        56.845249      -65.596191       40.742760
 H        56.943825      -65.246429       39.730858
 C        55.673180      -65.368896       41.498135
 H        54.702339      -65.195137       41.045395
 C        55.839466      -65.331009       42.905228
 H        55.168663      -64.723892       43.466774
 C        57.071243      -65.559967       43.535072
 H        57.141014      -65.499413       44.571396
 C        60.126900      -66.359894       44.297421
 C        60.922894      -65.244400       44.345875
 H        61.214951      -64.764557       43.381374
 C        61.361130      -64.779770       45.585823
 H        61.966843      -63.924187       45.801422
 C        60.946877      -65.458740       46.701035
 H        61.538036      -65.068985       47.591831
 C        60.162720      -66.623199       46.660530
 H        59.632538      -67.003845       47.559036
 C        59.716736      -67.136780       45.432552
 H        59.122215      -68.052399       45.321220
 C        60.393902      -71.866913       41.270988
 C        61.687248      -71.968361       40.808105
 N        60.164322      -70.554459       41.644566
 C        61.298683      -69.770050       41.401836
 N        62.207508      -70.670525       40.905769
 C        63.475529      -70.196106       40.617928
 C        63.525322      -68.785446       40.412880
 C        64.769569      -68.233459       40.009201
 H        64.802368      -67.187317       39.572144
 C        65.922478      -69.013046       39.906593
 H        66.844833      -68.562439       39.924118
 C        65.891479      -70.332809       40.203201
 H        66.643494      -70.875984       39.788677
 C        64.613525      -70.940231       40.542137
 H        64.620613      -71.995102       40.576664
 C        62.271828      -73.227417       40.423336
 H        63.123695      -73.308762       39.848698
 C        61.510529      -74.337723       40.543907
 H        61.871033      -75.319839       40.261097
 C        60.224068      -74.280411       41.139851
 H        59.807167      -75.246414       41.346817
 C        59.708832      -73.051102       41.464565
 H        58.679550      -73.011185       41.771610
 C        58.877602      -70.078018       41.891041
 C        58.166008      -69.449127       40.861115
 H        58.630775      -69.412292       39.892540
 C        56.994404      -68.842606       41.171078
 H        56.429001      -68.215149       40.455521
 C        56.533192      -68.896759       42.455387
 H        55.647617      -68.359535       42.617073
 C        57.112408      -69.673645       43.387459
 H        56.540432      -69.893562       44.281319
 C        58.376614      -70.265549       43.180511
 H        59.055088      -70.407669       43.999336
 C        64.526207      -67.372818       44.891724
 C        64.503319      -66.139374       44.332539
 N        63.684593      -68.268776       44.024109
 C        63.212299      -67.543633       42.966373
 N        63.678123      -66.251518       43.097275
 C        63.616619      -65.363617       41.952000
 C        62.672306      -65.763924       41.031654
 C        62.340500      -64.861786       40.011822
 H        61.680374      -65.170433       39.232670
 C        63.058441      -63.673908       39.779442
 H        62.834282      -63.068443       38.935955
 C        64.054138      -63.342522       40.651718
 H        64.754120      -62.500114       40.381580
 C        64.338776      -64.140640       41.690456
 H        65.182037      -64.028946       42.317383
 C        65.080750      -65.038559       45.106670
 H        65.324066      -64.130249       44.551365
 C        65.609322      -65.205002       46.388901
 H        66.155991      -64.411636       46.963448
 C        65.555870      -66.558731       46.874561
 H        65.809174      -66.572441       47.909813
 C        65.027847      -67.598015       46.191929
 H        65.116096      -68.569138       46.671654
 C        63.332249      -69.596664       44.346687
 C        62.077057      -69.863968       44.796513
 H        61.468719      -68.966125       44.866543
 C        61.731407      -71.144180       45.201439
 H        60.733543      -71.327057       45.611832
 C        62.661320      -72.186859       45.106544
 H        62.400352      -73.164459       45.575901
 C        64.007874      -71.946899       44.654190
 H        64.741135      -72.643341       44.745197
 C        64.347992      -70.621414       44.272076
 H        65.297073      -70.427856       43.723465
 Ir       61.921936      -67.741562       52.198067
 C        58.304676      -68.514763       49.893097
 C        59.342796      -69.075714       49.131691
 N        58.959412      -67.824036       50.894707
 C        60.329109      -68.010223       50.903301
 N        60.552788      -68.847427       49.804596
 C        61.935242      -69.111786       49.576920
 C        62.867336      -68.816406       50.636703
 C        64.216904      -69.258278       50.547249
 H        64.903824      -69.023895       51.357498
 C        64.617577      -70.013092       49.415604
 H        65.599930      -70.204468       49.327549
 C        63.672127      -70.261185       48.390236
 H        63.938610      -70.757889       47.450363
 C        62.377441      -69.813202       48.498413
 H        61.856243      -69.854172       47.550591
 C        59.045296      -69.751297       47.980568
 H        59.832329      -70.043068       47.338734
 C        57.725128      -69.778183       47.516945
 H        57.511009      -69.764473       46.473648
 C        56.698563      -69.297218       48.334648
 H        55.710693      -69.805672       48.196865
 C        56.974144      -68.603706       49.528168
 H        56.164886      -68.396362       50.161186
 C        58.352051      -66.640152       51.466911
 C        58.846348      -65.450081       51.040161
 H        59.726177      -65.410240       50.402809
 C        58.233322      -64.251434       51.485279
 H        58.727531      -63.286713       51.356556
 C        57.162514      -64.266121       52.385872
 H        56.902733      -63.342896       52.910728
 C        56.806351      -65.506424       52.888763
 H        56.189240      -65.436302       53.761665
 C        57.329605      -66.727066       52.404167
 H        56.828903      -67.627464       52.749962
 C        61.659374      -71.339104       54.599506
 C        62.703861      -70.639572       55.112633
 N        61.250107      -70.640022       53.450947
 C        61.931725      -69.520676       53.240551
 N        62.933617      -69.560974       54.242493
 C        64.011856      -68.620804       54.124229
 C        63.727047      -67.588226       53.233910
 C        64.822327      -66.609650       52.999741
 H        64.629837      -65.899796       52.211037
 C        66.042786      -66.605278       53.624146
 H        66.868034      -65.959068       53.317764
 C        66.251999      -67.726730       54.444553
 H        67.228531      -67.873901       54.775799
 C        65.259872      -68.720451       54.733742
 H        65.265030      -69.400925       55.554672
 C        63.141312      -70.931648       56.398487
 H        63.966122      -70.389526       56.885815
 C        62.573936      -71.984032       57.165543
 H        63.054829      -72.332138       58.016460
 C        61.533775      -72.760612       56.574028
 H        61.012775      -73.549774       57.119358
 C        61.103672      -72.409790       55.274204
 H        60.312134      -72.958015       54.750069
 C        60.202991      -71.147652       52.626587
 C        58.850201      -71.026093       52.899307
 H        58.492149      -70.584061       53.890423
 C        57.937759      -71.546295       51.935287
 H        56.900448      -71.412537       52.203232
 C        58.358894      -72.136703       50.754158
 H        57.701378      -72.606064       49.987698
 C        59.697441      -72.140388       50.511501
 H        59.864136      -72.506119       49.533058
 C        60.690247      -71.679306       51.419434
 H        61.687756      -71.885300       51.206253
 C        60.048065      -65.206360       55.204300
 C        60.418983      -64.307167       54.176407
 N        60.514732      -66.445450       54.891632
 C        61.159523      -66.455399       53.656219
 N        61.093624      -65.134361       53.285393
 C        61.824299      -64.809906       52.169979
 C        62.195114      -65.841423       51.290802
 C        62.856411      -65.629868       50.036316
 H        63.127712      -66.469406       49.418373
 C        63.090126      -64.374573       49.732628
 H        63.899761      -64.121735       49.001968
 C        62.740700      -63.310360       50.517075
 H        63.300514      -62.471268       50.359818
 C        62.115879      -63.555367       51.750309
 H        62.251175      -62.751820       52.459259
 C        59.973541      -63.004730       54.294048
 H        60.115299      -62.263096       53.492561
 C        59.159100      -62.609623       55.399204
 H        58.510239      -61.774071       55.271812
 C        58.796005      -63.510857       56.415497
 H        58.185120      -63.158455       57.268982
 C        59.277153      -64.816986       56.322594
 H        58.774441      -65.525772       56.857555
 C        60.338394      -67.509445       55.872822
 C        59.409512      -68.548500       55.574776
 H        58.837257      -68.479362       54.676640
 C        59.249569      -69.585144       56.536381
 H        58.684193      -70.419121       56.318348
 C        59.945549      -69.587181       57.738964
 H        59.677086      -70.185265       58.619431
 C        60.776691      -68.466110       58.008404
 H        61.295773      -68.325188       58.945900
 C        61.020981      -67.474350       57.059853
 H        61.698006      -66.646484       57.224991
