206
 generated by VMD
  IR        47.160000       10.140000       36.110001
  C1        50.509998       12.720000       37.320000
  C2        51.080002       11.850000       36.490002
  N1        49.099998       12.410000       37.439999
  C3a       48.770000       11.310000       36.610001
  N2        50.020000       10.960000       36.130001
  C4        49.980000        9.750000       35.320000
  C5a       48.830002        8.970000       35.549999
  C6        48.900002        7.610000       35.310001
  H1        48.080002        6.970000       35.360001
  C7        50.060001        7.030000       34.810001
  H2        50.090000        6.010000       34.430000
  C8        51.200001        7.830000       34.580002
  H3        52.160000        7.320000       34.480000
  C9        51.119999        9.190000       34.799999
  H4        51.919998        9.870000       34.560001
  C10       52.380001       12.060000       35.990002
  H5        53.020000       11.210000       35.820000
  C11       53.110001       13.250000       36.340000
  H6        54.180000       13.280000       36.189999
  C12       52.450001       14.130000       37.200001
  H7        52.849998       15.130000       37.340000
  C13       51.200001       13.900000       37.770000
  H8        50.669998       14.750000       38.139999
  C6        48.459999       12.780000       38.680000
  C1        48.509998       11.840000       39.650002
  H1        49.150002       10.910000       39.529999
  C2        47.869999       11.950000       40.880001
  H2        47.720001       11.070000       41.490002
  C3        47.180000       13.130000       41.180000
  H3        46.939999       13.340000       42.270000
  C4        47.180000       14.160000       40.209999
  H4        46.549999       15.050000       40.430000
  C5        47.750000       13.960000       38.939999
  H5        47.650002       14.650000       38.169998
  C1        46.689999       11.320000       31.980000
  C2        45.799999       10.230000       32.150002
  N1        47.389999       11.430000       33.189999
  C3b       47.020000       10.460000       34.080002
  N2        46.099998        9.650000       33.340000
  C4        45.560001        8.550000       34.130001
  C5b       45.799999        8.580000       35.509998
  C6        45.180000        7.600000       36.290001
  H1        45.459999        7.400000       37.310001
  C7        44.400002        6.580000       35.700001
  H2        43.860001        5.870000       36.270000
  C8        44.160000        6.580000       34.360001
  H3        43.689999        5.740000       33.889999
  C9        44.730000        7.560000       33.580002
  H4        44.410000        7.580000       32.509998
  C10       44.810001        9.980000       31.209999
  H5        43.910000        9.530000       31.559999
  C11       44.810001       10.740000       30.090000
  H6        44.070000       10.530000       29.330000
  C12       45.810001       11.690000       29.820000
  H7        45.900002       12.210000       28.850000
  C13       46.790001       12.040000       30.780001
  H8        47.680000       12.590000       30.700001
  C6        48.480000       12.330000       33.410000
  C1        48.299999       13.530000       34.150002
  H1        47.349998       13.590000       34.700001
  C2        49.320000       14.470000       34.209999
  H2        49.049999       15.360000       34.790001
  C3        50.580002       14.270000       33.669998
  H3        51.439999       15.000000       33.810001
  C4        50.770000       13.120000       32.950001
  H4        51.630001       13.030000       32.380001
  C5        49.730000       12.140000       32.869999
  H5        49.869999       11.220000       32.419998
  C1        44.169998       12.780000       37.880001
  C2        44.599998       11.940000       38.869999
  N1        44.759998       12.350000       36.650002
  C3c       45.540001       11.190000       36.900002
  N2        45.310001       10.940000       38.259998
  C4        45.880001        9.750000       38.730000
  C5c       47.040001        9.310000       38.049999
  C6        47.840000        8.340000       38.570000
  H1        48.820000        8.250000       38.169998
  C7        47.369999        7.630000       39.740002
  H2        47.919998        6.850000       40.209999
  C8        46.180000        8.030000       40.419998
  H3        45.980000        7.790000       41.430000
  C9        45.490002        9.100000       39.930000
  H4        44.619999        9.480000       40.470001
  C10       44.150002       12.240000       40.130001
  H5        44.410000       11.630000       40.939999
  C11       43.250000       13.300000       40.389999
  H6        43.200001       13.800000       41.369999
  C12       42.759998       14.040000       39.349998
  H7        41.970001       14.750000       39.540001
  C13       43.250000       13.860000       38.070000
  H8        42.869999       14.450000       37.240002
  C6        44.220001       12.620000       35.389999
  C1        43.650002       11.600000       34.630001
  H1        43.720001       10.580000       34.930000
  C2        43.070000       11.830000       33.340000
  H2        42.529999       11.070000       32.790001
  C3        43.200001       13.170000       32.810001
  H3        42.820000       13.500000       31.840000
  C4        43.840000       14.220000       33.540001
  H4        44.200001       15.030000       32.970001
  C5        44.259998       13.940000       34.849998
  H5        44.889999       14.670000       35.310001
  IR        40.790001       19.820000       35.110001
  C1        39.700001       16.160000       37.200001
  C2        40.200001       17.010000       38.200001
  N1        39.900002       16.820000       35.959999
  C3a       40.529999       18.049999       36.130001
  N2        40.700001       18.129999       37.549999
  C4        41.299999       19.379999       37.990002
  C5a       41.349998       20.379999       37.049999
  C6        41.750000       21.670000       37.490002
  H1        41.939999       22.520000       36.810001
  C7        41.880001       22.020000       38.830002
  H2        42.189999       22.990000       39.090000
  C8        41.709999       20.959999       39.779999
  H3        41.610001       21.129999       40.840000
  C9        41.529999       19.660000       39.340000
  H4        41.570000       18.730000       39.990002
  C10       39.860001       16.600000       39.490002
  H5        40.020000       17.230000       40.310001
  C11       39.099998       15.460000       39.770000
  H6        38.820000       15.240000       40.810001
  C12       38.610001       14.660000       38.740002
  H7        37.869999       13.850000       38.910000
  C13       38.939999       14.970000       37.470001
  H8        38.820000       14.290000       36.680000
  C6        39.580002       16.200001       34.700001
  C1        38.400002       16.600000       33.980000
  H1        37.619999       17.260000       34.349998
  C2        37.970001       15.830000       32.840000
  H2        37.029999       16.160000       32.439999
  C3        38.810001       14.840000       32.340000
  H3        38.380001       14.230000       31.540001
  C4        40.000000       14.460000       33.020000
  H4        40.669998       13.660000       32.700001
  C5        40.400002       15.120000       34.209999
  H5        41.150002       14.690000       34.770000
  C1        36.869999       21.600000       35.730000
  C2        37.610001       22.580000       35.099998
  N1        37.759998       20.530001       35.950001
  C3b       39.029999       20.809999       35.430000
  N2        38.939999       22.049999       34.959999
  C4        40.150002       22.650000       34.560001
  C5b       41.189999       21.770000       34.430000
  C6        42.419998       22.209999       33.930000
  H1        43.270000       21.540001       33.860001
  C7        42.639999       23.590000       33.799999
  H2        43.529999       23.780001       33.259998
  C8        41.580002       24.490000       33.889999
  H3        41.820000       25.440001       33.520000
  C9        40.340000       24.049999       34.310001
  H4        39.549999       24.780001       34.619999
  C10       36.910000       23.790001       34.700001
  H5        37.340000       24.420000       33.980000
  C11       35.549999       23.990000       35.040001
  H6        35.119999       24.900000       34.779999
  C12       34.810001       22.969999       35.680000
  H7        33.720001       23.110001       35.810001
  C13       35.459999       21.760000       36.070000
  H8        34.840000       21.090000       36.680000
  C6        37.419998       19.510000       36.889999
  C1        37.799999       19.600000       38.250000
  H1        38.430000       20.459999       38.669998
  C2        37.400002       18.639999       39.169998
  H2        37.590000       18.600000       40.209999
  C3        36.630001       17.540001       38.840000
  H3        36.450001       16.780001       39.580002
  C4        36.279999       17.400000       37.490002
  H4        35.490002       16.629999       37.450001
  C5        36.639999       18.350000       36.540001
  H5        36.189999       18.510000       35.580002
  C1        40.150002       18.330000       31.150000
  C2        41.430000       17.900000       31.459999
  N1        39.799999       19.129999       32.160000
  C3c       40.700001       19.240000       33.169998
  N2        41.810001       18.520000       32.689999
  C4        42.930000       18.400000       33.470001
  C5c       42.730000       18.940001       34.770000
  C6        43.730000       18.760000       35.680000
  H1        43.799999       19.190001       36.619999
  C7        44.840000       17.950001       35.360001
  H2        45.689999       17.900000       36.049999
  C8        44.959999       17.309999       34.119999
  H3        45.630001       16.490000       33.919998
  C9        43.970001       17.629999       33.189999
  H4        44.340000       17.850000       32.169998
  C10       42.080002       17.040001       30.530001
  H5        42.990002       16.570000       30.809999
  C11       41.480000       16.700001       29.340000
  H6        42.130001       16.129999       28.719999
  C12       40.180000       17.170000       28.980000
  H7        39.860001       17.030001       27.969999
  C13       39.459999       17.920000       29.950001
  H8        38.410000       18.129999       29.780001
  C6        38.720001       20.100000       31.920000
  C1        37.439999       19.580000       32.180000
  H1        37.360001       18.650000       32.720001
  C2        36.330002       20.389999       32.009998
  H2        35.380001       20.120001       32.349998
  C3        36.570000       21.719999       31.700001
  H3        35.939999       22.389999       32.240002
  C4        37.779999       22.230000       31.389999
  H4        37.820000       23.080000       30.750000
  C5        38.919998       21.420000       31.500000
  H5        39.939999       21.790001       31.180000
