206
 generated by VMD
  IR        39.320000       33.709999       45.799999
  C1        39.150002       30.530001       42.799999
  C2        38.849998       29.950001       43.980000
  N1        39.450001       31.860001       43.090000
  C3a       39.259998       32.130001       44.439999
  N2        38.849998       30.910000       44.959999
  C4        38.189999       30.980000       46.240002
  C5a       38.430000       32.169998       46.910000
  C6        37.860001       32.349998       48.130001
  H1        37.750000       33.290001       48.580002
  C7        37.070000       31.389999       48.730000
  H2        36.599998       31.530001       49.790001
  C8        36.790001       30.209999       48.099998
  H3        36.150002       29.469999       48.459999
  C9        37.360001       29.969999       46.880001
  H4        37.220001       28.980000       46.450001
  C10       38.740002       28.549999       44.060001
  H5        38.439999       28.230000       44.990002
  C11       38.869999       27.709999       42.950001
  H6        38.730000       26.610001       43.040001
  C12       39.270000       28.330000       41.779999
  H7        39.180000       27.799999       40.830002
  C13       39.330002       29.730000       41.689999
  H8        39.709999       29.950001       40.709999
  C6        39.990002       32.720001       42.099998
  C1        39.139999       33.369999       41.220001
  H1        38.200001       32.880001       40.860001
  C2        39.709999       34.220001       40.290001
  H2        39.119999       34.990002       39.810001
  C3        41.099998       34.250000       40.119999
  H3        41.459999       34.939999       39.369999
  C4        42.000000       33.490002       40.939999
  H4        43.020000       33.799999       41.009998
  C5        41.400002       32.770000       41.950001
  H5        42.020000       32.200001       42.650002
  C1        35.590000       35.900002       45.200001
  C2        36.110001       36.540001       46.279999
  N1        36.389999       34.759998       44.889999
  C3b       37.500000       34.669998       45.689999
  N2        37.259998       35.770000       46.599998
  C4        38.240002       35.869999       47.570000
  C5b       39.430000       35.150002       47.389999
  C6        40.450001       35.279999       48.389999
  H1        41.230000       34.570000       48.369999
  C7        40.340000       36.220001       49.430000
  H2        41.090000       36.200001       50.230000
  C8        39.160000       36.950001       49.549999
  H3        39.119999       37.610001       50.430000
  C9        38.070000       36.750000       48.700001
  H4        37.060001       36.930000       49.040001
  C10       35.549999       37.770000       46.680000
  H5        35.919998       38.250000       47.610001
  C11       34.419998       38.310001       46.040001
  H6        33.950001       39.169998       46.430000
  C12       33.980000       37.689999       44.860001
  H7        33.209999       38.310001       44.320000
  C13       34.540001       36.470001       44.470001
  H8        34.070000       35.900002       43.680000
  C6        35.930000       33.669998       44.150002
  C1        35.669998       32.459999       44.759998
  H1        35.549999       32.599998       45.849998
  C2        35.380001       31.320000       43.980000
  H2        35.060001       30.389999       44.349998
  C3        35.470001       31.400000       42.590000
  H3        35.250000       30.520000       41.959999
  C4        35.730000       32.660000       41.930000
  H4        35.840000       32.720001       40.849998
  C5        35.919998       33.750000       42.759998
  H5        35.779999       34.740002       42.340000
  C1        41.639999       36.470001       43.360001
  C2        42.540001       35.480000       43.730000
  N1        40.450001       36.099998       43.880001
  C3c       40.549999       35.009998       44.740002
  N2        41.860001       34.610001       44.610001
  C4        42.160000       33.340000       45.139999
  C5c       41.290001       32.959999       46.130001
  C6        41.660000       31.969999       47.060001
  H1        41.009998       31.639999       47.849998
  C7        42.919998       31.400000       46.990002
  H2        43.270000       30.719999       47.779999
  C8        43.770000       31.709999       45.970001
  H3        44.759998       31.299999       45.860001
  C9        43.410000       32.689999       45.070000
  H4        44.090000       33.020000       44.259998
  C10       43.930000       35.570000       43.320000
  H5        44.630001       34.860001       43.590000
  C11       44.290001       36.639999       42.520000
  H6        45.270000       36.950001       42.240002
  C12       43.349998       37.540001       42.060001
  H7        43.709999       38.430000       41.520000
  C13       42.040001       37.459999       42.419998
  H8        41.230000       38.160000       42.049999
  C6        39.200001       36.840000       43.619999
  C1        38.740002       37.770000       44.560001
  H1        39.020000       37.799999       45.610001
  C2        37.639999       38.549999       44.200001
  H2        37.779999       39.570000       44.520000
  C3        36.840000       38.290001       43.119999
  H3        35.860001       38.779999       43.020000
  C4        37.169998       37.310001       42.230000
  H4        36.349998       36.889999       41.680000
  C5        38.400002       36.660000       42.450001
  H5        38.799999       36.209999       41.549999
  IR        31.440001       31.580000       37.849998
  C1        30.670000       28.650000       34.639999
  C2        29.440001       29.000000       35.150002
  N1        31.670000       29.340000       35.470001
  C3a       31.049999       30.070000       36.509998
  N2        29.650000       29.799999       36.380001
  C4        28.799999       30.440001       37.270000
  C5a       29.389999       31.230000       38.259998
  C6        28.709999       31.600000       39.459999
  H1        29.190001       32.180000       40.209999
  C7        27.400000       31.120001       39.639999
  H2        26.760000       31.459999       40.470001
  C8        26.840000       30.280001       38.680000
  H3        26.080000       29.600000       38.910000
  C9        27.480000       29.969999       37.500000
  H4        26.809999       29.530001       36.810001
  C10       28.299999       28.549999       34.400002
  H5        27.340000       29.000000       34.639999
  C11       28.420000       27.670000       33.290001
  H6        27.639999       27.530001       32.599998
  C12       29.719999       27.309999       32.830002
  H7        29.850000       26.930000       31.830000
  C13       30.790001       27.840000       33.490002
  H8        31.740000       27.620001       33.060001
  C6        33.060001       29.010000       35.540001
  C1        33.380001       27.840000       36.290001
  H1        32.509998       27.410000       36.860001
  C2        34.650002       27.330000       36.099998
  H2        34.959999       26.580000       36.779999
  C3        35.580002       27.900000       35.250000
  H3        36.650002       27.660000       35.480000
  C4        35.240002       29.049999       34.459999
  H4        35.889999       29.530001       33.669998
  C5        33.980000       29.639999       34.680000
  H5        33.580002       30.410000       34.029999
  C1        29.969999       35.080002       35.619999
  C2        29.920000       35.450001       36.930000
  N1        30.360001       33.750000       35.619999
  C3b       30.719999       33.290001       36.889999
  N2        30.440001       34.369999       37.680000
  C4        30.790001       34.200001       39.080002
  C5b       31.610001       33.110001       39.310001
  C6        32.330002       33.040001       40.500000
  H1        32.919998       32.209999       40.810001
  C7        32.099998       33.959999       41.500000
  H2        32.610001       33.810001       42.439999
  C8        31.200001       35.009998       41.369999
  H3        30.830000       35.540001       42.189999
  C9        30.490000       35.040001       40.119999
  H4        29.490000       35.459999       40.049999
  C10       29.530001       36.720001       37.320000
  H5        29.860001       37.169998       38.270000
  C11       29.160000       37.689999       36.340000
  H6        29.030001       38.669998       36.740002
  C12       29.240000       37.360001       34.980000
  H7        29.400000       38.189999       34.330002
  C13       29.660000       36.049999       34.630001
  H8        29.870001       35.810001       33.560001
  C6        30.110001       32.860001       34.459999
  C1        31.150000       32.349998       33.650002
  H1        32.160000       32.410000       34.020000
  C2        30.860001       31.629999       32.509998
  H2        31.600000       31.129999       31.950001
  C3        29.530001       31.469999       32.150002
  H3        29.080000       30.760000       31.400000
  C4        28.480000       31.900000       33.009998
  H4        27.480000       31.500000       32.740002
  C5        28.820000       32.610001       34.130001
  H5        28.100000       33.130001       34.720001
  C1        35.709999       32.259998       37.220001
  C2        35.639999       31.129999       38.049999
  N1        34.369999       32.619999       37.020000
  C3c       33.480000       31.780001       37.650002
  N2        34.230000       30.840000       38.299999
  C4        33.580002       29.809999       38.980000
  C5c       32.150002       29.980000       39.029999
  C6        31.459999       29.200001       39.930000
  H1        30.420000       29.240000       39.860001
  C7        32.070000       28.299999       40.790001
  H2        31.530001       27.850000       41.669998
  C8        33.430000       28.100000       40.720001
  H3        33.919998       27.469999       41.430000
  C9        34.180000       28.870001       39.810001
  H4        35.279999       28.670000       39.779999
  C10       36.860001       30.750000       38.619999
  H5        36.779999       29.969999       39.389999
  C11       37.990002       31.620001       38.419998
  H6        38.930000       31.250000       38.889999
  C12       38.020000       32.709999       37.580002
  H7        38.880001       33.369999       37.730000
  C13       36.810001       33.049999       36.910000
  H8        36.750000       33.900002       36.200001
  C6        33.910000       33.919998       36.500000
  C1        33.799999       34.070000       35.119999
  H1        34.040001       33.250000       34.500000
  C2        33.430000       35.299999       34.590000
  H2        33.200001       35.250000       33.520000
  C3        33.330002       36.439999       35.439999
  H3        32.709999       37.310001       35.020000
  C4        33.500000       36.240002       36.830002
  H4        33.340000       37.169998       37.470001
  C5        33.720001       34.959999       37.380001
  H5        33.669998       34.759998       38.380001
