206
 generated by VMD
 Ir       41.076782       85.992767       28.815056
 C        36.877823       85.021255       29.469212
 C        37.445755       85.141739       30.719786
 N        37.909191       85.084839       28.538433
 C        39.134850       85.244171       29.213173
 N        38.846081       85.248604       30.584997
 C        39.985664       85.257294       31.487980
 C        41.076942       85.964508       30.952484
 C        42.101360       86.356689       31.808849
 H        42.862473       87.061043       31.475542
 C        42.101963       86.055725       33.181992
 H        42.768463       86.354385       33.970901
 C        41.063477       85.242996       33.641464
 H        41.100246       85.115952       34.672058
 C        39.986603       84.799461       32.781811
 H        39.121140       84.470078       33.271992
 C        36.634575       85.115334       31.905781
 H        37.007286       85.257744       32.918007
 C        35.184509       84.952301       31.765671
 H        34.519424       84.785278       32.635303
 C        34.661873       84.816338       30.490417
 H        33.620953       84.632889       30.254986
 C        35.485008       84.822334       29.310793
 H        35.031906       84.618706       28.347448
 C        37.700974       84.591461       27.160748
 C        37.740562       83.236404       26.952507
 H        38.543404       82.683823       27.427265
 C        37.124489       82.676811       25.876770
 H        37.147179       81.648956       25.602541
 C        36.469444       83.411102       24.890701
 H        36.394138       83.066025       23.911188
 C        36.376099       84.803444       25.130878
 H        35.734459       85.353279       24.439083
 C        37.034058       85.378510       26.208971
 H        37.058426       86.460632       26.223511
 C        40.723991       90.331749       29.170792
 C        41.925941       90.158783       28.543411
 N        40.183624       89.034218       29.559914
 C        41.022423       88.018311       29.126850
 N        42.138050       88.702309       28.565500
 C        43.304924       87.919182       28.325253
 C        43.113205       86.590652       28.745659
 C        44.238083       85.763062       28.865494
 H        44.119537       84.824295       29.329788
 C        45.502743       86.262611       28.563692
 H        46.403683       85.731834       29.018423
 C        45.661118       87.586212       28.174332
 H        46.649887       87.953445       28.044794
 C        44.562687       88.448944       28.117466
 H        44.837795       89.541611       28.103399
 C        42.413338       91.209518       27.745781
 H        43.368900       91.064636       27.325300
 C        41.707588       92.397324       27.569620
 H        42.042919       93.258713       26.984425
 C        40.595009       92.661674       28.384781
 H        40.369041       93.611427       28.711748
 C        40.026627       91.608871       29.108006
 H        39.279728       91.829605       29.819351
 C        38.816093       88.885704       30.064686
 C        37.781990       88.492851       29.130180
 H        38.112526       88.332779       28.123096
 C        36.510277       88.244423       29.606026
 H        35.718086       87.900681       28.971298
 C        36.237766       88.517632       30.960720
 H        35.194752       88.564781       31.200916
 C        37.249096       88.940758       31.846596
 H        36.916382       89.153580       32.885490
 C        38.596725       89.039993       31.425339
 H        39.455650       89.141693       32.038525
 C        40.810234       85.487892       24.387341
 C        40.972412       84.202194       24.940128
 N        40.945892       86.350075       25.481617
 C        41.171116       85.725502       26.683819
 N        41.211143       84.387375       26.356359
 C        41.793137       83.579918       27.339314
 C        41.558609       83.991043       28.640762
 C        42.031593       83.139969       29.641439
 H        41.602081       83.241669       30.584507
 C        42.734482       82.029701       29.443592
 H        42.832565       81.379959       30.270159
 C        43.065971       81.650925       28.158001
 H        43.839497       80.855125       28.034439
 C        42.568283       82.396484       27.101147
 H        42.580261       82.083069       26.059353
 C        40.607986       83.154213       24.040894
 H        40.889065       82.116264       24.332376
 C        40.084076       83.391144       22.800982
 H        39.785191       82.508392       22.198061
 C        39.957153       84.676117       22.305256
 H        39.281715       84.917816       21.521763
 C        40.393677       85.728363       23.082903
 H        40.612579       86.669197       22.688061
 C        40.774452       87.800888       25.537725
 C        39.573505       88.324318       25.967438
 H        38.723038       87.670700       26.113014
 C        39.333557       89.659134       25.796274
 H        38.300526       90.086235       25.994848
 C        40.203262       90.529610       25.242043
 H        39.874878       91.557007       24.927074
 C        41.366249       90.009033       24.704386
 H        41.946358       90.551025       23.986666
 C        41.608383       88.620789       24.763117
 H        42.150436       88.170746       23.937077
 Ir       41.076782       85.992767       39.861973
 C        41.128479       89.700119       37.765785
 C        41.880737       88.904602       36.914108
 N        40.783539       89.017227       38.877899
 C        41.309330       87.768311       38.835007
 N        42.000244       87.743362       37.663078
 C        42.876717       86.630905       37.619068
 C        42.497189       85.491539       38.354187
 C        43.301743       84.294701       38.190556
 H        42.775818       83.446762       38.595772
 C        44.497345       84.342697       37.498074
 H        45.207321       83.553848       37.610123
 C        44.901127       85.427177       36.777058
 H        45.719437       85.382324       36.102699
 C        44.079033       86.584656       36.831863
 H        44.504776       87.495209       36.438522
 C        42.216759       89.305412       35.605892
 H        43.041817       88.774307       35.119167
 C        41.705212       90.508804       35.099667
 H        42.048195       90.915115       34.141193
 C        40.798557       91.243828       35.953079
 H        40.009163       91.893517       35.450226
 C        40.549118       90.903511       37.276924
 H        39.866409       91.483849       37.795498
 C        40.038124       89.501640       40.038551
 C        38.665184       89.213242       40.199657
 H        38.188923       88.771729       39.428078
 C        37.992210       89.688507       41.320698
 H        36.901016       89.688568       41.453365
 C        38.717491       90.496529       42.218231
 H        38.286163       90.778366       43.113899
 C        40.031960       90.798332       41.990021
 H        40.520119       91.470673       42.646805
 C        40.747963       90.328667       40.916077
 H        41.612644       90.797989       40.624428
 C        37.878922       84.192780       37.491577
 C        38.222462       83.197495       38.430191
 N        38.695374       85.299347       37.777592
 C        39.614372       85.004044       38.826988
 N        39.346565       83.760681       39.192101
 C        40.225044       83.108688       40.163849
 C        41.138260       84.042801       40.626205
 C        41.996944       83.658134       41.722237
 H        42.715767       84.225685       42.191364
 C        41.926971       82.357689       42.255295
 H        42.337868       82.023087       43.174751
 C        41.057228       81.445442       41.640190
 H        41.163933       80.407494       41.976318
 C        40.233799       81.829376       40.601219
 H        39.889019       81.021927       39.980305
 C        37.745468       81.826294       38.260513
 H        38.071159       81.088638       38.927811
 C        36.896584       81.564362       37.162434
 H        36.350346       80.643478       36.964188
 C        36.536369       82.557510       36.279655
 H        36.181610       82.187805       35.337540
 C        36.982635       83.888618       36.409969
 H        36.606941       84.617867       35.668316
 C        38.457966       86.563965       37.172878
 C        37.192356       87.102196       37.551609
 H        37.087574       87.072258       38.593781
 C        36.533825       87.978561       36.713203
 H        35.533607       88.360649       36.878662
 C        37.221031       88.425011       35.567112
 H        36.688850       89.179543       34.980286
 C        38.505150       87.993698       35.260674
 H        38.842529       88.198792       34.280308
 C        39.113052       87.027290       36.062614
 H        40.120689       86.665611       35.885826
 C        38.845451       86.856293       43.564667
 C        40.133026       87.251495       43.795864
 N        38.769375       86.504311       42.219299
 C        40.047447       86.529762       41.566704
 N        40.853085       87.116104       42.576485
 C        42.190956       87.467911       42.197777
 C        42.636997       86.766815       41.077370
 C        43.988274       86.790024       40.751015
 H        44.325855       86.380852       39.811752
 C        44.912636       87.559418       41.418175
 H        45.775215       87.826904       40.876408
 C        44.528042       88.340012       42.536674
 H        45.081333       89.155266       42.964031
 C        43.173878       88.255577       42.892067
 H        42.868431       88.790001       43.795555
 C        40.497368       87.592209       45.097931
 H        41.567097       87.821411       45.284607
 C        39.613411       87.587669       46.160942
 H        39.994041       87.516190       47.163788
 C        38.331238       87.187531       45.950874
 H        37.667297       87.152771       46.865303
 C        37.906673       86.789124       44.655491
 H        36.995308       86.246742       44.643848
 C        37.693481       85.595535       41.766647
 C        36.630394       86.056793       41.001152
 H        36.787251       86.977951       40.565536
 C        35.538002       85.211266       40.766281
 H        34.569393       85.667976       40.813278
 C        35.550770       83.840515       41.138672
 H        34.684784       83.170868       40.901104
 C        36.635666       83.280754       41.908714
 H        36.554123       82.268875       42.195004
 C        37.686867       84.225464       42.224625
 H        38.580841       83.834686       42.732765
