206
 generated by VMD
 Ir       -7.206939       37.927082     -113.784523
 C        -8.707993       36.170540     -117.541367
 C        -7.463085       35.509735     -117.272781
 N        -8.842186       37.226425     -116.618057
 C        -7.709086       37.240173     -115.691452
 N        -6.912319       36.126556     -116.051056
 C        -5.698178       35.864799     -115.310013
 C        -5.568307       36.650146     -114.170425
 C        -4.389605       36.557297     -113.479530
 H        -4.147962       37.177639     -112.615768
 C        -3.379489       35.701843     -113.818298
 H        -2.332155       35.950329     -113.611786
 C        -3.521039       34.905319     -114.973328
 H        -2.630463       34.410408     -115.301422
 C        -4.645273       34.964622     -115.719986
 H        -4.622566       34.546547     -116.651642
 C        -7.146459       34.407364     -118.086731
 H        -6.158210       33.892170     -118.059647
 C        -8.065448       33.941303     -119.080887
 H        -7.952458       33.073158     -119.632034
 C        -9.220909       34.710274     -119.359451
 H        -9.716862       34.403057     -120.251114
 C        -9.497103       35.837139     -118.639114
 H       -10.354977       36.420246     -118.956360
 C        -9.886543       38.279373     -116.700630
 C       -11.215992       37.874100     -116.625656
 H       -11.475793       36.865761     -116.897041
 C       -12.277237       38.801102     -116.390656
 H       -13.326479       38.547966     -116.424034
 C       -11.931053       40.151722     -116.445297
 H       -12.684704       40.844429     -115.962524
 C       -10.614366       40.559135     -116.641647
 H       -10.388319       41.618988     -116.595673
 C        -9.573185       39.638660     -116.684937
 H        -8.531844       40.021763     -116.726700
 C        -8.655184       34.537823     -111.492180
 C        -8.054833       35.347290     -110.563934
 N        -8.580460       35.172318     -112.694199
 C        -7.837128       36.357483     -112.605652
 N        -7.527157       36.433853     -111.283279
 C        -6.650968       37.520836     -110.887474
 C        -6.363089       38.456078     -111.879211
 C        -5.756561       39.664543     -111.561676
 H        -5.771856       40.459583     -112.280960
 C        -5.428289       39.995998     -110.256500
 H        -5.235135       41.031731     -110.045197
 C        -5.619687       39.033371     -109.207840
 H        -5.359523       39.194218     -108.167908
 C        -6.161780       37.755302     -109.581985
 H        -5.893132       36.962776     -108.939545
 C        -7.917103       34.860474     -109.253960
 H        -7.523850       35.585335     -108.574013
 C        -8.505584       33.658653     -108.826035
 H        -8.453001       33.244957     -107.847717
 C        -9.239615       32.929398     -109.782471
 H        -9.846947       32.104340     -109.438187
 C        -9.249451       33.310757     -111.119278
 H        -9.832823       32.743435     -111.886047
 C        -9.282283       34.655754     -113.822464
 C        -8.639922       33.802879     -114.694298
 H        -7.592889       33.695839     -114.586288
 C        -9.335049       32.927074     -115.567612
 H        -8.862478       32.334877     -116.428528
 C       -10.674316       32.824127     -115.490402
 H       -11.222895       32.204353     -116.213135
 C       -11.400877       33.671219     -114.654312
 H       -12.361845       33.461613     -114.326279
 C       -10.695146       34.712479     -113.967049
 H       -11.259764       35.578926     -113.694702
 C       -10.099636       41.207458     -113.084839
 C        -9.126041       41.688805     -113.962234
 N        -9.695574       39.908466     -112.780273
 C        -8.563511       39.528702     -113.393723
 N        -8.175409       40.709541     -114.101669
 C        -6.866849       40.687435     -114.757858
 C        -6.222042       39.422619     -114.841324
 C        -4.950379       39.431168     -115.465912
 H        -4.590863       38.541229     -115.967560
 C        -4.322770       40.608490     -115.808578
 H        -3.381664       40.545303     -116.325523
 C        -4.962900       41.806976     -115.680634
 H        -4.358901       42.734985     -115.960953
 C        -6.196791       41.914314     -115.174973
 H        -6.583235       42.880074     -115.025070
 C        -9.313755       43.000549     -114.504349
 H        -8.537727       43.377563     -115.156845
 C       -10.417720       43.687099     -114.101852
 H       -10.798628       44.412918     -114.760025
 C       -11.312686       43.167370     -113.146065
 H       -12.165792       43.800339     -112.939774
 C       -11.198399       41.927547     -112.632858
 H       -11.985823       41.553234     -111.993134
 C       -10.571041       38.976746     -112.117218
 C       -11.807493       38.579269     -112.687912
 H       -12.230637       39.176888     -113.460892
 C       -12.588974       37.564068     -112.087280
 H       -13.379692       37.122620     -112.626526
 C       -12.105959       37.043331     -110.936142
 H       -12.632704       36.313118     -110.494858
 C       -10.927423       37.415932     -110.342484
 H       -10.514206       36.782265     -109.568268
 C       -10.206287       38.442692     -110.847595
 H        -9.181675       38.411404     -110.570297
 Ir       -7.206939       37.927078     -102.021255
 C        -8.853259       34.484035     -104.195023
 C        -8.189653       33.885223     -103.143341
 N        -8.689749       35.854881     -104.074387
 C        -7.890976       36.174400     -102.980377
 N        -7.653682       34.974091     -102.349228
 C        -6.722300       35.049702     -101.237198
 C        -6.284314       36.358047     -100.896881
 C        -5.298220       36.486111      -99.838303
 H        -5.252475       37.379692      -99.211945
 C        -4.750929       35.369087      -99.223450
 H        -3.971407       35.512421      -98.408157
 C        -5.399341       34.138824      -99.461166
 H        -5.074364       33.248558      -98.952423
 C        -6.396899       33.980671     -100.437531
 H        -6.882466       33.059444     -100.465302
 C        -8.358062       32.518398     -103.023643
 H        -7.797438       31.945656     -102.281982
 C        -9.159195       31.809181     -103.853210
 H        -9.326305       30.787825     -103.434280
 C        -9.894258       32.436134     -104.819458
 H       -10.664375       31.911022     -105.449669
 C        -9.725178       33.791405     -105.028397
 H       -10.452454       34.186760     -105.729309
 C        -9.081308       36.745590     -105.025131
 C        -8.218193       37.240257     -105.996964
 H        -7.189724       37.205894     -105.778618
 C        -8.598104       37.977516     -107.123825
 H        -7.815081       38.291084     -107.709778
 C        -9.930090       38.283920     -107.264267
 H       -10.339794       38.631100     -108.196320
 C       -10.828106       37.881023     -106.241852
 H       -11.859222       38.207466     -106.294113
 C       -10.419510       37.124298     -105.129059
 H       -11.160616       36.619457     -104.526978
 C        -9.977521       38.148403      -98.629944
 C        -9.366896       39.380051      -98.655975
 N        -9.476898       37.416443      -99.702240
 C        -8.451815       38.073608     -100.376801
 N        -8.438421       39.324848      -99.771225
 C        -7.241186       40.089542     -100.051712
 C        -6.250928       39.420208     -100.866257
 C        -4.975639       39.977806     -100.978165
 H        -4.224330       39.636234     -101.674484
 C        -4.666189       41.190102     -100.425827
 H        -3.887247       41.762402     -100.859329
 C        -5.655473       41.825706      -99.697662
 H        -5.349314       42.691147      -99.176620
 C        -6.936176       41.313206      -99.445984
 H        -7.548662       41.716278      -98.672546
 C        -9.794399       40.380219      -97.748947
 H        -9.594421       41.380531      -97.950912
 C       -10.905025       40.118095      -96.835999
 H       -10.904668       40.721661      -95.971863
 C       -11.477583       38.839211      -96.830444
 H       -11.869925       38.583229      -95.875900
 C       -11.029626       37.866798      -97.734192
 H       -11.605499       36.972775      -97.855804
 C        -9.976074       36.078018      -99.955078
 C       -10.752911       35.888458     -101.127380
 H       -10.885970       36.605423     -101.914764
 C       -11.264107       34.633133     -101.398926
 H       -11.649183       34.428116     -102.383652
 C       -10.966505       33.553101     -100.576752
 H       -11.256027       32.646393     -101.035172
 C       -10.234173       33.740150      -99.349548
 H       -10.107076       32.944733      -98.714523
 C        -9.753700       35.025940      -99.083313
 H        -9.171288       35.072289      -98.230057
 C        -8.223857       41.413769     -104.520645
 C        -7.097306       40.881676     -105.090881
 N        -8.580591       40.523438     -103.418716
 C        -7.594861       39.529282     -103.224319
 N        -6.708143       39.754604     -104.258560
 C        -5.503085       39.001278     -104.177719
 C        -5.629534       37.868237     -103.372040
 C        -4.503413       37.034508     -103.276901
 H        -4.471288       36.155617     -102.684448
 C        -3.236933       37.351158     -103.855148
 H        -2.364908       36.811646     -103.690216
 C        -3.166990       38.528732     -104.624451
 H        -2.212452       38.829552     -105.013634
 C        -4.268673       39.311768     -104.869690
 H        -4.176856       40.328289     -105.144043
 C        -6.547862       41.430557     -106.272636
 H        -5.662986       40.907135     -106.750580
 C        -7.050617       42.714722     -106.750809
 H        -6.729159       43.167557     -107.710083
 C        -8.178122       43.244492     -106.094009
 H        -8.719017       44.024445     -106.456772
 C        -8.798771       42.572998     -105.015686
 H        -9.609072       43.043972     -104.497894
 C        -9.649715       40.827190     -102.493568
 C       -10.656269       39.872993     -102.407837
 H       -10.578316       38.971306     -103.005325
 C       -11.758854       40.065132     -101.609650
 H       -12.452332       39.242020     -101.415298
 C       -11.954093       41.297462     -100.884445
 H       -12.899244       41.487534     -100.501602
 C       -10.936962       42.312218     -101.060852
 H       -10.854897       43.324390     -100.567215
 C        -9.832605       42.059151     -101.842163
 H        -9.160401       42.917755     -102.143234
