206
 generated by VMD
  IR        38.880001       49.189999        3.230000
  C1        43.090000       49.910000        2.130000
  C2        43.130001       49.139999        3.340000
  N1        41.750000       50.279999        1.900000
  C3a       40.880001       49.709999        2.930000
  N2        41.730000       48.939999        3.760000
  C4        41.160000       48.240002        4.890000
  C5a       39.770000       48.250000        4.900000
  C6        39.150002       47.720001        6.000000
  H1        38.070000       47.740002        6.150000
  C7        39.820000       47.139999        7.040000
  H2        39.419998       47.169998        8.060000
  C8        41.230000       47.130001        7.020000
  H3        41.700001       46.849998        7.940000
  C9        41.910000       47.660000        5.980000
  H4        42.910000       47.830002        6.100000
  C10       44.389999       48.660000        3.740000
  H5        44.570000       48.160000        4.720000
  C11       45.549999       48.880001        2.930000
  H6        46.480000       48.459999        3.100000
  C12       45.450001       49.740002        1.810000
  H7        46.400002       50.009998        1.410000
  C13       44.250000       50.290001        1.460000
  H8        44.259998       51.000000        0.640000
  C6        41.320000       51.259998        0.870000
  C1        41.599998       50.959999       -0.460000
  H1        42.410000       50.290001       -0.690000
  C2        40.980000       51.660000       -1.540000
  H2        41.240002       51.529999       -2.580000
  C3        40.240002       52.790001       -1.190000
  H3        39.520000       53.139999       -1.990000
  C4        40.060001       53.160000        0.140000
  H4        39.410000       54.000000        0.360000
  C5        40.520000       52.360001        1.180000
  H5        40.250000       52.639999        2.220000
  C1        39.009998       45.189999        1.550000
  C2        37.740002       45.310001        2.050000
  N1        39.639999       46.380001        1.750000
  C3b       38.840000       47.270000        2.480000
  N2        37.680000       46.580002        2.650000
  C4        36.669998       47.209999        3.480000
  C5b       36.939999       48.520000        3.870000
  C6        35.950001       49.310001        4.440000
  H1        36.099998       50.369999        4.500000
  C7        34.660000       48.840000        4.630000
  H2        33.889999       49.570000        4.800000
  C8        34.349998       47.470001        4.330000
  H3        33.380001       47.009998        4.480000
  C9        35.419998       46.650002        3.830000
  H4        35.310001       45.619999        4.030000
  C10       36.919998       44.169998        2.050000
  H5        35.919998       44.369999        2.370000
  C11       37.290001       42.970001        1.420000
  H6        36.709999       42.080002        1.370000
  C12       38.549999       42.939999        0.790000
  H7        38.779999       42.099998        0.150000
  C13       39.439999       44.000000        0.920000
  H8        40.439999       43.990002        0.420000
  C6        40.919998       46.619999        1.170000
  C1        42.060001       46.360001        1.900000
  H1        41.939999       46.150002        2.930000
  C2        43.330002       46.160000        1.300000
  H2        44.330002       46.119999        1.860000
  C3        43.439999       46.110001       -0.040000
  H3        44.430000       46.029999       -0.510000
  C4        42.340000       46.389999       -0.850000
  H4        42.270000       46.090000       -1.840000
  C5        41.130001       46.830002       -0.220000
  H5        40.470001       47.430000       -0.810000
  C1        36.720001       51.689999        0.280000
  C2        37.090000       52.520000        1.340000
  N1        37.160000       50.419998        0.650000
  C3c       37.779999       50.380001        1.840000
  N2        37.669998       51.730000        2.300000
  C4        38.110001       52.000000        3.670000
  C5c       38.830002       50.959999        4.320000
  C6        39.230000       51.240002        5.650000
  H1        40.110001       50.759998        6.060000
  C7        38.799999       52.369999        6.310000
  H2        39.180000       52.549999        7.300000
  C8        38.080002       53.330002        5.660000
  H3        37.740002       54.220001        6.290000
  C9        37.709999       53.209999        4.380000
  H4        37.080002       53.950001        3.980000
  C10       36.820000       53.919998        1.210000
  H5        37.080002       54.549999        2.050000
  C11       36.200001       54.330002        0.070000
  H6        36.369999       55.320000       -0.240000
  C12       35.779999       53.419998       -0.920000
  H7        35.330002       53.880001       -1.790000
  C13       36.040001       52.099998       -0.860000
  H8        35.790001       51.480000       -1.710000
  C6        37.209999       49.330002       -0.290000
  C1        38.009998       49.389999       -1.460000
  H1        38.349998       50.340000       -1.800000
  C2        38.150002       48.259998       -2.300000
  H2        38.910000       48.240002       -3.030000
  C3        37.450001       47.160000       -1.940000
  H3        37.540001       46.340000       -2.510000
  C4        36.650002       47.070000       -0.830000
  H4        36.330002       46.090000       -0.500000
  C5        36.430000       48.160000       -0.060000
  H5        36.130001       47.919998        0.930000
  IR        29.180000       42.650002        2.000000
  C1        33.040001       41.099998        0.590000
  C2        32.450001       39.980000        1.140000
  N1        32.160000       42.160000        0.740000
  C3a       31.010000       41.770000        1.420000
  N2        31.139999       40.410000        1.590000
  C4        30.100000       39.799999        2.400000
  C5a       29.049999       40.669998        2.800000
  C6        28.020000       40.130001        3.670000
  H1        27.000000       40.520000        3.650000
  C7        28.090000       38.830002        4.150000
  H2        27.270000       38.450001        4.840000
  C8        29.030001       37.980000        3.530000
  H3        29.080000       36.939999        3.800000
  C9        30.010000       38.450001        2.640000
  H4        30.590000       37.730000        2.160000
  C10       33.130001       38.790001        0.960000
  H5        32.790001       37.869999        1.440000
  C11       34.279999       38.709999        0.250000
  H6        34.520000       37.639999        0.040000
  C12       34.790001       39.810001       -0.380000
  H7        35.669998       39.770000       -1.080000
  C13       34.189999       41.040001       -0.190000
  H8        34.610001       41.799999       -0.840000
  C6        32.480000       43.450001        0.450000
  C1        32.930000       44.349998        1.410000
  H1        32.680000       44.139999        2.410000
  C2        33.480000       45.610001        1.150000
  H2        33.720001       46.150002        1.990000
  C3        33.540001       46.020000       -0.160000
  H3        34.150002       46.849998       -0.470000
  C4        33.000000       45.169998       -1.160000
  H4        32.950001       45.529999       -2.180000
  C5        32.470001       43.900002       -0.870000
  H5        32.320000       43.189999       -1.670000
  C1        26.500000       41.110001       -1.110000
  C2        25.780001       42.110001       -0.500000
  N1        27.750000       41.070000       -0.500000
  C3b       27.850000       41.930000        0.590000
  N2        26.650000       42.630001        0.540000
  C4        26.350000       43.349998        1.760000
  C5b       27.309999       43.189999        2.830000
  C6        26.980000       43.639999        4.110000
  H1        27.680000       43.700001        4.930000
  C7        25.820000       44.320000        4.360000
  H2        25.790001       44.990002        5.180000
  C8        24.950001       44.500000        3.300000
  H3        24.010000       44.910000        3.550000
  C9        25.139999       44.009998        2.000000
  H4        24.330000       43.950001        1.310000
  C10       24.510000       42.459999       -1.020000
  H5        24.100000       43.389999       -0.800000
  C11       24.000000       41.799999       -2.220000
  H6        22.950001       41.820000       -2.310000
  C12       24.760000       40.770000       -2.790000
  H7        24.150000       40.049999       -3.280000
  C13       26.010000       40.439999       -2.250000
  H8        26.660000       39.799999       -2.810000
  C6        28.750000       40.130001       -0.970000
  C1        29.889999       40.669998       -1.620000
  H1        30.150000       41.709999       -1.670000
  C2        30.860001       39.810001       -2.100000
  H2        31.820000       40.209999       -2.380000
  C3        30.760000       38.439999       -1.890000
  H3        31.670000       37.959999       -2.130000
  C4        29.580000       37.869999       -1.290000
  H4        29.490000       36.849998       -1.230000
  C5        28.600000       38.759998       -0.840000
  H5        27.820000       38.290001       -0.350000
  C1        29.379999       46.990002        1.250000
  C2        30.049999       46.799999        2.430000
  N1        29.000000       45.660000        0.780000
  C3c       29.309999       44.669998        1.740000
  N2        29.959999       45.380001        2.730000
  C4        30.209999       44.639999        3.920000
  C5c       30.190001       43.259998        3.710000
  C6        30.480000       42.450001        4.820000
  H1        30.480000       41.389999        4.790000
  C7        30.670000       42.959999        6.140000
  H2        30.760000       42.369999        6.990000
  C8        30.639999       44.360001        6.290000
  H3        30.709999       44.770000        7.280000
  C9        30.500000       45.209999        5.220000
  H4        30.150000       46.200001        5.340000
  C10       30.670000       47.880001        3.100000
  H5        31.280001       47.660000        4.030000
  C11       30.389999       49.240002        2.650000
  H6        30.900000       50.130001        3.070000
  C12       29.650000       49.380001        1.460000
  H7        29.559999       50.259998        0.960000
  C13       29.190001       48.259998        0.730000
  H8        28.570000       48.410000       -0.130000
  C6        28.160000       45.459999       -0.380000
  C1        28.709999       44.680000       -1.390000
  H1        29.700001       44.259998       -1.250000
  C2        28.040001       44.459999       -2.570000
  H2        28.400000       43.709999       -3.280000
  C3        26.770000       45.090000       -2.840000
  H3        26.430000       45.090000       -3.820000
  C4        26.260000       45.970001       -1.810000
  H4        25.280001       46.529999       -1.780000
  C5        26.950001       46.130001       -0.630000
  H5        26.660000       46.970001        0.070000
