206
 generated by VMD
  IR        38.490002       21.530001       44.869999
  C1        40.880001       17.930000       44.070000
  C2        41.790001       18.930000       44.180000
  N1        39.610001       18.469999       44.250000
  C3a       39.660000       19.820000       44.369999
  N2        41.060001       20.110001       44.410000
  C4        41.410000       21.459999       44.740002
  C5a       40.419998       22.420000       44.599998
  C6        40.779999       23.750000       44.540001
  H1        40.110001       24.500000       44.169998
  C7        42.060001       24.209999       44.810001
  H2        42.189999       25.240000       45.090000
  C8        43.070000       23.320000       45.020000
  H3        44.119999       23.600000       44.980000
  C9        42.759998       21.910000       45.080002
  H4        43.509998       21.219999       45.439999
  C10       43.110001       18.680000       44.060001
  H5        43.759998       19.480000       44.119999
  C11       43.619999       17.389999       43.869999
  H6        44.650002       17.190001       44.040001
  C12       42.779999       16.370001       43.709999
  H7        43.150002       15.360000       43.509998
  C13       41.380001       16.610001       43.779999
  H8        40.660000       15.800000       43.599998
  C6        38.419998       17.719999       44.070000
  C1        37.630001       17.480000       45.160000
  H1        38.160000       17.629999       46.130001
  C2        36.389999       16.809999       44.990002
  H2        35.650002       16.639999       45.750000
  C3        35.990002       16.360001       43.750000
  H3        34.950001       16.000000       43.580002
  C4        36.799999       16.600000       42.639999
  H4        36.549999       16.389999       41.590000
  C5        38.040001       17.240000       42.759998
  H5        38.660000       17.370001       41.950001
  C1        39.000000       21.610001       49.180000
  C2        38.250000       22.719999       48.930000
  N1        39.520000       21.160000       47.930000
  C3b       38.930000       21.840000       46.880001
  N2        38.220001       22.879999       47.520000
  C4        37.509998       23.760000       46.669998
  C5b       37.509998       23.379999       45.310001
  C6        36.910000       24.240000       44.380001
  H1        36.990002       23.950001       43.320000
  C7        36.349998       25.480000       44.770000
  H2        36.279999       26.270000       44.090000
  C8        36.279999       25.799999       46.099998
  H3        36.160000       26.809999       46.360001
  C9        36.810001       24.889999       47.040001
  H4        36.520000       25.030001       48.080002
  C10       37.599998       23.379999       50.009998
  H5        37.450001       24.389999       50.040001
  C11       37.570000       22.780001       51.259998
  H6        37.270000       23.440001       52.099998
  C12       38.299999       21.549999       51.509998
  H7        38.349998       21.070000       52.450001
  C13       39.029999       21.020000       50.419998
  H8        39.480000       20.049999       50.509998
  C6        40.680000       20.230000       47.840000
  C1        40.500000       18.910000       47.599998
  H1        39.500000       18.469999       47.360001
  C2        41.619999       18.010000       47.549999
  H2        41.610001       17.110001       46.959999
  C3        42.889999       18.620001       47.610001
  H3        43.700001       17.930000       47.509998
  C4        43.060001       19.950001       47.750000
  H4        44.029999       20.379999       47.450001
  C5        41.959999       20.780001       47.910000
  H5        42.060001       21.850000       48.060001
  C1        34.639999       19.629999       45.020000
  C2        34.950001       19.740000       43.669998
  N1        35.599998       20.330000       45.730000
  C3c       36.560001       20.860001       44.869999
  N2        36.150002       20.469999       43.610001
  C4        36.799999       21.020000       42.490002
  C5c       37.990002       21.680000       42.790001
  C6        38.689999       22.340000       41.779999
  H1        39.669998       22.709999       42.099998
  C7        38.169998       22.420000       40.459999
  H2        38.799999       22.900000       39.650002
  C8        36.939999       21.889999       40.200001
  H3        36.509998       21.830000       39.240002
  C9        36.259998       21.110001       41.180000
  H4        35.259998       20.770000       40.869999
  C10       34.169998       19.000000       42.740002
  H5        34.580002       18.719999       41.750000
  C11       32.980000       18.370001       43.180000
  H6        32.430000       17.709999       42.549999
  C12       32.619999       18.400000       44.549999
  H7        31.750000       17.969999       45.020000
  C13       33.520000       18.959999       45.459999
  H8        33.230000       19.040001       46.529999
  C6        35.330002       20.830000       47.009998
  C1        35.779999       20.170000       48.180000
  H1        36.169998       19.160000       48.099998
  C2        35.459999       20.680000       49.430000
  H2        35.959999       20.170000       50.279999
  C3        34.860001       21.910000       49.549999
  H3        34.740002       22.379999       50.540001
  C4        34.410000       22.549999       48.389999
  H4        33.730000       23.400000       48.450001
  C5        34.580002       22.059999       47.060001
  H5        34.130001       22.469999       46.200001
  IR        50.869999       22.870001       49.090000
  C1        54.060001       20.900000       46.990002
  C2        54.549999       22.180000       47.250000
  N1        52.820000       20.700001       47.529999
  C3a       52.490002       21.879999       48.230000
  N2        53.570000       22.670000       48.110001
  C4        53.450001       23.900000       48.840000
  C5a       52.230000       24.459999       48.840000
  C6        52.070000       25.799999       49.139999
  H1        51.000000       26.090000       49.150002
  C7        53.150002       26.610001       49.599998
  H2        52.959999       27.670000       49.919998
  C8        54.430000       26.040001       49.720001
  H3        55.220001       26.580000       50.150002
  C9        54.549999       24.709999       49.340000
  H4        55.340000       24.100000       49.820000
  C10       55.790001       22.530001       46.820000
  H5        56.139999       23.520000       46.830002
  C11       56.580002       21.639999       46.110001
  H6        57.570000       22.000000       45.790001
  C12       56.080002       20.389999       45.779999
  H7        56.740002       19.629999       45.419998
  C13       54.830002       20.020000       46.320000
  H8        54.389999       19.090000       46.000000
  C6        52.389999       19.420000       48.020000
  C1        51.330002       18.889999       47.250000
  H1        51.090000       19.450001       46.369999
  C2        51.009998       17.540001       47.450001
  H2        50.189999       17.090000       46.900002
  C3        51.490002       16.879999       48.590000
  H3        51.310001       15.860000       48.570000
  C4        52.560001       17.490000       49.349998
  H4        52.830002       17.160000       50.320000
  C5        53.000000       18.770000       49.020000
  H5        53.939999       19.100000       49.419998
  C1        52.720001       23.660000       52.970001
  C2        51.630001       24.480000       52.970001
  N1        52.549999       22.740000       51.939999
  C3b       51.520000       23.150000       51.090000
  N2        50.919998       24.170000       51.759998
  C4        49.630001       24.469999       51.310001
  C5b       49.380001       24.100000       49.980000
  C6        48.180000       24.540001       49.380001
  H1        47.950001       24.290001       48.349998
  C7        47.290001       25.270000       50.169998
  H2        46.330002       25.500000       49.689999
  C8        47.529999       25.540001       51.509998
  H3        46.849998       26.190001       52.020000
  C9        48.639999       25.090000       52.110001
  H4        48.910000       25.530001       53.040001
  C10       51.500000       25.450001       53.980000
  H5        50.939999       26.280001       53.720001
  C11       52.419998       25.629999       54.970001
  H6        52.299999       26.420000       55.669998
  C12       53.509998       24.760000       55.009998
  H7        54.320000       24.889999       55.700001
  C13       53.639999       23.799999       54.000000
  H8        54.430000       23.110001       54.139999
  C6        53.130001       21.389999       52.090000
  C1        52.220001       20.410000       52.320000
  H1        51.220001       20.559999       52.610001
  C2        52.560001       19.080000       52.389999
  H2        51.750000       18.379999       52.389999
  C3        53.830002       18.730000       52.400002
  H3        54.209999       17.719999       52.619999
  C4        54.820000       19.680000       52.200001
  H4        55.830002       19.420000       52.330002
  C5        54.480000       21.059999       52.009998
  H5        55.340000       21.750000       51.840000
  C1        47.709999       19.850000       49.020000
  C2        47.880001       20.299999       47.709999
  N1        48.619999       20.610001       49.810001
  C3c       49.290001       21.500000       49.029999
  N2        48.810001       21.370001       47.759998
  C4        49.009998       22.450001       46.820000
  C5c       50.200001       23.110001       47.060001
  C6        50.590000       24.020000       46.080002
  H1        51.590000       24.389999       46.150002
  C7        49.750000       24.350000       45.009998
  H2        50.200001       24.680000       44.099998
  C8        48.450001       23.709999       44.930000
  H3        47.750000       24.139999       44.220001
  C9        48.119999       22.750000       45.840000
  H4        47.340000       22.020000       45.590000
  C10       47.290001       19.559999       46.680000
  H5        47.389999       19.879999       45.630001
  C11       46.610001       18.430000       47.000000
  H6        46.209999       17.770000       46.240002
  C12       46.529999       17.969999       48.330002
  H7        45.910000       17.020000       48.500000
  C13       47.070000       18.680000       49.380001
  H8        46.680000       18.330000       50.310001
  C6        48.160000       21.020000       51.110001
  C1        47.099998       21.950001       51.180000
  H1        46.939999       22.600000       50.360001
  C2        46.430000       22.000000       52.410000
  H2        45.700001       22.790001       52.590000
  C3        46.750000       21.209999       53.540001
  H3        46.500000       21.370001       54.590000
  C4        47.770000       20.280001       53.389999
  H4        48.090000       19.530001       54.139999
  C5        48.439999       20.129999       52.150002
  H5        49.250000       19.480000       52.209999
