206
 generated by VMD
  IR        20.059999       33.799999       35.009998
  C1        24.190001       34.509998       33.790001
  C2        23.549999       35.740002       33.480000
  N1        23.219999       33.580002       34.119999
  C3a       21.870001       34.029999       34.049999
  N2        22.100000       35.430000       33.610001
  C4        20.930000       36.209999       33.439999
  C5a       19.750000       35.490002       33.730000
  C6        18.549999       35.990002       33.270000
  H1        17.639999       35.389999       33.330002
  C7        18.480000       37.180000       32.580002
  H2        17.600000       37.410000       32.029999
  C8        19.709999       37.900002       32.410000
  H3        19.660000       38.849998       31.790001
  C9        20.920000       37.400002       32.779999
  H4        21.799999       37.910000       32.430000
  C10       24.309999       36.889999       33.310001
  H5        23.900000       37.840000       32.970001
  C11       25.660000       36.799999       33.700001
  H6        26.150000       37.730000       34.009998
  C12       26.299999       35.639999       34.009998
  H7        27.320000       35.669998       34.360001
  C13       25.510000       34.470001       34.000000
  H8        25.980000       33.570000       34.310001
  C6        23.510000       32.139999       34.119999
  C1        23.450001       31.309999       33.000000
  H1        22.959999       31.719999       32.130001
  C2        23.840000       29.980000       33.090000
  H2        23.590000       29.410000       32.209999
  C3        24.270000       29.389999       34.270000
  H3        24.370001       28.280001       34.320000
  C4        24.250000       30.160000       35.470001
  H4        24.430000       29.670000       36.419998
  C5        23.889999       31.510000       35.360001
  H5        23.940001       32.330002       36.099998
  C1        20.400000       36.060001       38.669998
  C2        19.080000       35.630001       38.630001
  N1        21.010000       35.849998       37.389999
  C3b       20.049999       35.169998       36.590000
  N2        18.870001       35.119999       37.330002
  C4        17.709999       34.480000       36.799999
  C5b       18.030001       33.689999       35.660000
  C6        17.040001       32.779999       35.150002
  H1        17.280001       32.250000       34.250000
  C7        15.840000       32.700001       35.810001
  H2        15.110000       32.029999       35.430000
  C8        15.580000       33.480000       36.900002
  H3        14.730000       33.330002       37.520000
  C9        16.490000       34.430000       37.330002
  H4        16.100000       35.150002       37.990002
  C10       18.230000       35.810001       39.720001
  H5        17.120001       35.590000       39.650002
  C11       18.670000       36.540001       40.840000
  H6        18.190001       36.400002       41.779999
  C12       20.030001       37.070000       40.889999
  H7        20.330000       37.730000       41.680000
  C13       20.920000       36.759998       39.779999
  H8        21.990000       37.090000       39.779999
  C6        21.920000       36.799999       36.810001
  C1        21.420000       38.070000       36.450001
  H1        20.360001       38.200001       36.650002
  C2        22.320000       39.070000       35.980000
  H2        22.010000       40.099998       35.930000
  C3        23.719999       38.889999       35.930000
  H3        24.410000       39.680000       35.770000
  C4        24.180000       37.669998       36.400002
  H4        25.160000       37.389999       36.419998
  C5        23.309999       36.650002       36.830002
  H5        23.920000       35.880001       37.410000
  C1        21.250000       30.049999       37.110001
  C2        20.860001       29.680000       35.840000
  N1        21.080000       31.420000       37.150002
  C3c       20.559999       32.000000       35.970001
  N2        20.440001       30.889999       35.169998
  C4        19.740000       31.090000       33.880001
  C5c       19.719999       32.419998       33.459999
  C6        19.440001       32.720001       32.160000
  H1        19.459999       33.799999       31.830000
  C7        19.170000       31.740000       31.240000
  H2        19.230000       32.020000       30.200001
  C8        19.100000       30.420000       31.629999
  H3        18.670000       29.690001       30.930000
  C9        19.379999       30.080000       32.959999
  H4        19.450001       29.070000       33.169998
  C10       21.000000       28.280001       35.490002
  H5        20.410000       27.809999       34.730000
  C11       21.410000       27.350000       36.410000
  H6        21.350000       26.370001       36.070000
  C12       21.740000       27.770000       37.740002
  H7        21.889999       27.100000       38.610001
  C13       21.760000       29.139999       38.029999
  H8        21.900000       29.540001       39.009998
  C6        21.309999       32.090000       38.360001
  C1        20.420000       31.920000       39.450001
  H1        19.719999       31.110001       39.430000
  C2        20.510000       32.619999       40.669998
  H2        19.830000       32.599998       41.480000
  C3        21.600000       33.480000       40.830002
  H3        21.660000       34.009998       41.759998
  C4        22.459999       33.610001       39.740002
  H4        23.340000       34.180000       39.919998
  C5        22.379999       32.980000       38.450001
  H5        22.930000       33.209999       37.570000
  IR        21.030001       37.840000       49.740002
  C1        19.450001       40.369999       46.570000
  C2        19.750000       39.119999       45.959999
  N1        19.969999       40.279999       47.849998
  C3a       20.510000       39.029999       48.099998
  N2        20.450001       38.369999       46.919998
  C4        21.410000       37.290001       46.820000
  C5a       21.809999       36.759998       48.080002
  C6        22.430000       35.480000       48.150002
  H1        22.780001       35.020000       49.040001
  C7        22.660000       34.720001       47.020000
  H2        23.080000       33.720001       47.130001
  C8        22.200001       35.180000       45.759998
  H3        22.090000       34.509998       44.910000
  C9        21.580000       36.500000       45.669998
  H4        21.090000       36.759998       44.820000
  C10       19.190001       38.880001       44.680000
  H5        19.520000       37.980000       44.220001
  C11       18.469999       39.830002       44.009998
  H6        18.120001       39.500000       43.040001
  C12       18.180000       41.049999       44.630001
  H7        17.530001       41.840000       44.119999
  C13       18.639999       41.330002       45.950001
  H8        18.840000       42.340000       46.310001
  C6        20.110001       41.400002       48.689999
  C1        19.230000       41.630001       49.779999
  H1        18.340000       41.020000       49.840000
  C2        19.480000       42.709999       50.619999
  H2        18.790001       42.779999       51.430000
  C3        20.500000       43.639999       50.360001
  H3        20.620001       44.500000       51.020000
  C4        21.260000       43.450001       49.200001
  H4        21.840000       44.270000       48.730000
  C5        21.110001       42.320000       48.330002
  H5        21.549999       42.349998       47.369999
  C1        18.129999       34.459999       49.549999
  C2        18.930000       34.250000       50.610001
  N1        18.650000       35.650002       49.009998
  C3b       19.719999       36.230000       49.740002
  N2        19.860001       35.360001       50.700001
  C4        21.080000       35.430000       51.490002
  C5b       21.959999       36.450001       51.000000
  C6        23.250000       36.520000       51.540001
  H1        23.969999       37.200001       51.139999
  C7        23.590000       35.639999       52.520000
  H2        24.670000       35.590000       52.830002
  C8        22.690001       34.660000       52.950001
  H3        23.100000       33.939999       53.630001
  C9        21.440001       34.520000       52.480000
  H4        20.740000       33.970001       53.070000
  C10       18.830000       33.080002       51.349998
  H5        19.110001       33.000000       52.389999
  C11       17.920000       32.119999       50.910000
  H6        17.650000       31.219999       51.439999
  C12       17.040001       32.380001       49.820000
  H7        16.400000       31.490000       49.669998
  C13       17.120001       33.540001       49.139999
  H8        16.670000       33.700001       48.189999
  C6        17.780001       36.529999       48.270000
  C1        17.410000       37.779999       48.639999
  H1        17.650000       37.980000       49.639999
  C2        16.660000       38.650002       47.860001
  H2        16.799999       39.730000       48.080002
  C3        16.280001       38.220001       46.540001
  H3        15.570000       38.700001       45.900002
  C4        16.620001       36.939999       46.119999
  H4        16.129999       36.570000       45.259998
  C5        17.389999       36.099998       46.970001
  H5        17.459999       35.020000       46.770000
  C1        19.959999       39.799999       53.520000
  C2        21.150000       40.410000       53.099998
  N1        19.549999       38.889999       52.520000
  C3c       20.510000       38.950001       51.410000
  N2        21.410000       39.970001       51.799999
  C4        22.570000       40.110001       50.959999
  C5c       22.660000       39.169998       49.910000
  C6        23.770000       39.259998       49.060001
  H1        23.930000       38.419998       48.360001
  C7        24.750000       40.220001       49.230000
  H2        25.639999       40.020000       48.639999
  C8        24.559999       41.250000       50.180000
  H3        25.190001       42.160000       50.130001
  C9        23.490000       41.220001       51.040001
  H4        23.430000       41.919998       51.799999
  C10       21.780001       41.200001       54.029999
  H5        22.650000       41.770000       53.810001
  C11       21.250000       41.459999       55.349998
  H6        21.799999       42.099998       55.919998
  C12       20.000000       40.939999       55.669998
  H7        19.469999       41.180000       56.549999
  C13       19.370001       40.189999       54.669998
  H8        18.340000       39.900002       54.930000
  C6        18.170000       38.509998       52.439999
  C1        17.219999       39.549999       52.500000
  H1        17.520000       40.549999       52.590000
  C2        15.860000       39.279999       52.560001
  H2        15.060000       40.060001       52.470001
  C3        15.460000       37.910000       52.639999
  H3        14.430000       37.709999       52.509998
  C4        16.379999       36.840000       52.599998
  H4        16.049999       35.849998       52.480000
  C5        17.760000       37.169998       52.500000
  H5        18.500000       36.509998       52.810001
