206
 generated by VMD
 Ir      -18.437132      103.899414      100.792999
 C       -15.942472      104.010086       97.116455
 C       -17.142160      104.587509       96.757263
 N       -15.995792      103.645081       98.439682
 C       -17.249128      104.019196       99.054489
 N       -17.909353      104.655182       97.927277
 C       -18.898796      105.536804       98.380219
 C       -19.600548      105.109901       99.490128
 C       -20.804037      105.737671       99.760727
 H       -21.445690      105.413109      100.526520
 C       -21.344368      106.683929       98.823151
 H       -22.118210      107.342834       99.188812
 C       -20.604870      106.995071       97.683655
 H       -20.985226      107.605309       96.940002
 C       -19.357021      106.509796       97.486725
 H       -18.625511      107.032867       96.907257
 C       -17.418789      104.950653       95.439499
 H       -18.327606      105.510849       95.197754
 C       -16.498026      104.721001       94.446899
 H       -16.722795      104.876328       93.389938
 C       -15.229448      104.326019       94.818924
 H       -14.456560      104.323769       94.106720
 C       -14.965056      103.900589       96.145081
 H       -13.914864      103.667206       96.397125
 C       -15.141744      102.635941       99.046616
 C       -14.601569      102.888718      100.291649
 H       -14.793516      103.819107      100.803925
 C       -13.734945      101.931992      100.888748
 H       -13.473049      101.981445      102.006409
 C       -13.457887      100.728363      100.188591
 H       -12.954907       99.955154      100.759613
 C       -14.032956      100.545212       98.873306
 H       -13.672406       99.803940       98.211334
 C       -14.950353      101.457581       98.361389
 H       -15.383585      101.382767       97.448914
 C       -17.282093      107.639481      102.745224
 C       -18.164631      107.028366      103.618530
 N       -17.134253      106.855118      101.632248
 C       -17.969654      105.693604      101.778473
 N       -18.611912      105.824631      103.028976
 C       -19.823589      105.053299      103.115387
 C       -19.925999      103.910477      102.325195
 C       -20.895229      103.008301      102.604233
 H       -21.018772      102.201797      101.860397
 C       -21.833288      103.135712      103.670624
 H       -22.627895      102.343124      103.861923
 C       -21.764393      104.322495      104.428520
 H       -22.506409      104.373817      105.228134
 C       -20.781673      105.318115      104.135757
 H       -21.114422      106.298843      104.196991
 C       -18.503345      107.585129      104.932411
 H       -19.164242      107.034531      105.648834
 C       -17.922087      108.835480      105.300888
 H       -17.886402      109.156410      106.375793
 C       -17.151121      109.533463      104.290085
 H       -16.577229      110.441620      104.646164
 C       -16.788834      108.885818      103.050934
 H       -16.145994      109.424652      102.411545
 C       -16.660480      107.288284      100.355652
 C       -15.729206      106.543381       99.712646
 H       -15.320610      105.667252      100.204315
 C       -15.122261      106.947960       98.525200
 H       -14.495752      106.243996       98.086990
 C       -15.630613      108.053848       97.889442
 H       -15.167319      108.538147       97.095825
 C       -16.638153      108.833908       98.551086
 H       -16.932222      109.793182       98.140465
 C       -17.193207      108.485748       99.780075
 H       -17.739826      109.228882      100.315659
 C       -16.179174      100.887985      102.991417
 C       -16.565586      100.233292      101.835327
 N       -16.810261      102.174278      102.967049
 C       -17.581188      102.387093      101.873940
 N       -17.453308      101.154861      101.196770
 C       -18.490473      100.929413      100.275543
 C       -19.174017      102.085747       99.949081
 C       -20.230743      101.931007       99.023666
 H       -20.885431      102.810379       98.661728
 C       -20.639961      100.700150       98.490814
 H       -21.511225      100.689667       97.869698
 C       -19.994785       99.518852       98.980995
 H       -20.525309       98.608444       98.790482
 C       -18.947792       99.673584       99.904129
 H       -18.509407       98.848389      100.400162
 C       -15.887476       99.049744      101.439896
 H       -16.033937       98.663177      100.443237
 C       -14.868422       98.577301      102.219269
 H       -14.341854       97.783234      101.681595
 C       -14.562325       99.197525      103.455109
 H       -13.557398       98.991562      103.856491
 C       -15.134716      100.406738      103.837708
 H       -15.072916      100.788879      104.845001
 C       -16.845831      103.040321      104.170715
 C       -17.728327      102.828491      105.219147
 H       -18.334873      101.938156      105.221550
 C       -17.724567      103.600021      106.386459
 H       -18.547850      103.637833      107.050751
 C       -16.758667      104.637650      106.428436
 H       -16.780579      105.320663      107.223190
 C       -15.953182      104.876617      105.314163
 H       -15.199832      105.676460      105.342743
 C       -15.975036      104.079422      104.180237
 H       -15.507074      104.312805      103.235222
 Ir      -18.437130      103.899414      115.475372
 C       -20.512135      105.666176      118.851318
 C       -20.813885      106.422333      117.816055
 N       -19.430515      104.801407      118.443314
 C       -19.236519      104.939301      117.045731
 N       -20.005005      106.016495      116.687286
 C       -19.627731      106.575317      115.428009
 C       -18.901649      105.723862      114.564919
 C       -18.610870      106.196205      113.324097
 H       -17.755342      105.720535      112.829010
 C       -19.163570      107.370552      112.833771
 H       -19.005142      107.831436      111.850922
 C       -19.988174      108.120148      113.679001
 H       -20.563259      108.963974      113.371826
 C       -20.179726      107.743782      114.978485
 H       -20.676119      108.418365      115.650375
 C       -21.822296      107.402969      117.999298
 H       -21.932545      108.125343      117.242577
 C       -22.491119      107.440964      119.187836
 H       -23.446621      107.964432      119.189133
 C       -22.195431      106.674522      120.292786
 H       -22.519228      106.904968      121.280045
 C       -21.092716      105.769012      120.101578
 H       -20.699957      105.178162      120.923798
 C       -18.387344      104.660477      119.382751
 C       -17.581430      105.806427      119.756790
 H       -17.638439      106.756592      119.254974
 C       -16.738842      105.626221      120.850906
 H       -16.199924      106.500290      121.224747
 C       -16.651653      104.382141      121.574554
 H       -16.000525      104.249634      122.433777
 C       -17.396687      103.284576      121.159851
 H       -17.123119      102.242538      121.438812
 C       -18.283985      103.430695      120.081223
 H       -18.910334      102.702057      119.729843
 C       -22.180647      102.432053      113.699326
 C       -21.158964      102.074478      112.845856
 N       -21.536873      103.189377      114.765259
 C       -20.160740      103.304260      114.503021
 N       -19.967735      102.661705      113.328812
 C       -18.657858      102.751411      112.735703
 C       -17.675072      103.145020      113.669838
 C       -16.332108      103.195457      113.286163
 H       -15.569818      103.669754      113.890198
 C       -16.005833      102.990768      111.981537
 H       -15.180739      103.617462      111.616333
 C       -16.966978      102.669342      111.042725
 H       -16.795605      102.801262      109.960815
 C       -18.253731      102.532822      111.405670
 H       -18.980759      102.243225      110.651169
 C       -21.474247      101.240952      111.824524
 H       -20.748711      100.661957      111.314369
 C       -22.735535      100.602997      111.815826
 H       -22.887447       99.733818      111.149231
 C       -23.732441      101.061340      112.607407
 H       -24.698513      100.626404      112.522339
 C       -23.456566      101.961563      113.577759
 H       -24.283375      102.315598      114.081787
 C       -22.316551      103.769653      115.813248
 C       -22.162819      103.396225      117.173325
 H       -21.225891      102.936417      117.426590
 C       -23.103264      103.578964      118.206070
 H       -22.987518      103.026901      119.114655
 C       -24.113522      104.516907      117.915108
 H       -24.837624      104.735298      118.682098
 C       -24.220634      105.034294      116.619064
 H       -24.785789      105.947647      116.532486
 C       -23.409000      104.577133      115.566193
 H       -23.596767      104.994049      114.526657
 C       -17.033108      100.515640      117.811447
 C       -15.982292      101.444069      117.929352
 N       -18.016014      101.025497      116.921646
 C       -17.595463      102.271729      116.441925
 N       -16.345911      102.468384      116.982796
 C       -15.724668      103.719704      116.654709
 C       -16.604832      104.667618      116.115402
 C       -16.089396      105.964005      115.800537
 H       -16.752247      106.887238      115.692581
 C       -14.827808      106.327835      116.027084
 H       -14.590630      107.381516      116.066872
 C       -13.913043      105.409973      116.506409
 H       -12.947180      105.722099      116.811508
 C       -14.365251      104.092743      116.770599
 H       -13.645119      103.489555      117.335373
 C       -14.957999      101.255547      118.774033
 H       -14.305997      102.112091      119.015945
 C       -14.949681      100.153564      119.615097
 H       -14.092344      100.249741      120.339478
 C       -15.998164       99.254425      119.574890
 H       -16.020880       98.531662      120.373077
 C       -17.065746       99.473015      118.651962
 H       -17.738781       98.707642      118.543640
 C       -19.290653      100.389114      116.619324
 C       -19.578087      100.019890      115.259995
 H       -18.860235      100.107056      114.475845
 C       -20.839996       99.567429      114.947174
 H       -20.966187       99.104294      113.995499
 C       -21.835909       99.458908      115.953644
 H       -22.806168       99.261475      115.623466
 C       -21.558922       99.834000      117.269882
 H       -22.216551       99.640579      118.103851
 C       -20.254803      100.258270      117.577911
 H       -20.151257      100.678902      118.538559
