206
 generated by VMD
  IR        28.389999       26.139999       16.280001
  C1        28.150000       27.660000       12.260000
  C2        28.480000       28.760000       13.060000
  N1        27.910000       26.549999       13.050000
  C3a       28.270000       26.910000       14.380000
  N2        28.510000       28.299999       14.310000
  C4        28.770000       28.969999       15.550000
  C5a       28.459999       28.219999       16.709999
  C6        28.299999       28.809999       18.020000
  H1        27.879999       28.290001       18.959999
  C7        28.680000       30.150000       18.170000
  H2        28.660000       30.559999       19.180000
  C8        29.000000       30.889999       17.040001
  H3        29.120001       31.940001       16.969999
  C9        29.010000       30.360001       15.750000
  H4        29.270000       30.920000       14.870000
  C10       28.670000       30.049999       12.390000
  H5        29.280001       30.700001       12.850000
  C11       28.490000       30.190001       11.060000
  H6        28.459999       31.139999       10.720000
  C12       28.250000       29.059999       10.230000
  H7        28.000000       29.000000        9.220000
  C13       28.049999       27.830000       10.900000
  H8        27.930000       26.959999       10.280000
  C6        26.840000       25.650000       12.720000
  C1        25.520000       26.120001       12.850000
  H1        25.309999       27.120001       12.990000
  C2        24.469999       25.200001       12.960000
  H2        23.610001       25.580000       13.460000
  C3        24.719999       23.820000       12.840000
  H3        23.920000       23.129999       12.480000
  C4        26.020000       23.389999       12.730000
  H4        26.150000       22.330000       12.520000
  C5        27.070000       24.290001       12.610000
  H5        28.049999       23.870001       12.570000
  C1        32.610001       25.650000       16.620001
  C2        32.080002       25.250000       17.860001
  N1        31.580000       26.230000       15.880000
  C3b       30.430000       26.180000       16.559999
  N2        30.770000       25.700001       17.790001
  C4        29.760000       25.760000       18.790001
  C5b       28.510000       25.590000       18.299999
  C6        27.530001       25.670000       19.290001
  H1        26.580000       25.730000       18.900000
  C7        27.770000       25.879999       20.610001
  H2        26.910000       25.990000       21.290001
  C8        29.090000       25.950001       21.100000
  H3        29.360001       26.280001       22.090000
  C9        30.059999       25.930000       20.139999
  H4        31.030001       26.090000       20.410000
  C10       32.849998       24.629999       18.850000
  H5        32.599998       24.770000       19.920000
  C11       34.230000       24.430000       18.580000
  H6        34.919998       24.100000       19.370001
  C12       34.799999       24.809999       17.389999
  H7        35.840000       24.940001       17.200001
  C13       33.980000       25.340000       16.379999
  H8        34.290001       25.280001       15.340000
  C6        31.820000       27.260000       14.890000
  C1        32.029999       26.790001       13.560000
  H1        32.070000       25.760000       13.320000
  C2        32.310001       27.750000       12.600000
  H2        32.450001       27.450001       11.600000
  C3        32.509998       29.090000       12.970000
  H3        32.720001       29.809999       12.170000
  C4        32.380001       29.500000       14.290000
  H4        32.889999       30.420000       14.620000
  C5        32.040001       28.570000       15.280000
  H5        32.080002       28.770000       16.360001
  C1        27.610001       21.830000       15.530000
  C2        26.350000       22.389999       15.750000
  N1        28.540001       22.930000       15.600000
  C3c       27.920000       24.150000       15.890000
  N2        26.580000       23.770000       15.950000
  C4        25.740000       24.850000       16.420000
  C5c       26.250000       26.160000       16.219999
  C6        25.379999       27.219999       16.170000
  H1        25.680000       28.170000       15.740000
  C7        24.080000       26.990000       16.459999
  H2        23.520000       27.910000       16.629999
  C8        23.530001       25.750000       16.760000
  H3        22.459999       25.719999       16.920000
  C9        24.379999       24.610001       16.780001
  H4        24.180000       23.670000       17.230000
  C10       25.270000       21.510000       15.800000
  H5        24.340000       21.760000       16.330000
  C11       25.450001       20.139999       15.450000
  H6        24.620001       19.400000       15.470000
  C12       26.760000       19.530001       15.300000
  H7        26.910000       18.500000       15.040000
  C13       27.850000       20.450001       15.370000
  H8        28.860001       20.120001       15.140000
  C6        29.879999       22.799999       15.490000
  C1        30.530001       23.030001       14.290000
  H1        30.059999       23.709999       13.640000
  C2        31.920000       22.830000       14.190000
  H2        32.270000       22.540001       13.210000
  C3        32.689999       22.299999       15.230000
  H3        33.750000       22.350000       15.260000
  C4        31.980000       21.900000       16.389999
  H4        32.430000       21.500000       17.209999
  C5        30.580000       22.120001       16.540001
  H5        29.980000       21.549999       17.230000
  IR        25.889999       32.869999        3.030000
  C1        26.160000       34.400002       -1.100000
  C2        24.959999       33.810001       -1.040000
  N1        26.750000       34.040001        0.090000
  C3a       25.969999       33.459999        1.000000
  N2        24.770000       33.320000        0.280000
  C4        23.650000       32.820000        1.040000
  C5a       23.879999       32.669998        2.450000
  C6        22.740000       32.259998        3.180000
  H1        22.900000       31.930000        4.190000
  C7        21.500000       32.000000        2.530000
  H2        20.770000       31.480000        3.120000
  C8        21.280001       32.250000        1.220000
  H3        20.340000       32.180000        0.770000
  C9        22.360001       32.630001        0.440000
  H4        22.250000       32.810001       -0.620000
  C10       24.000000       34.110001       -2.100000
  H5        23.170000       33.439999       -2.340000
  C11       24.330000       35.020000       -3.140000
  H6        23.700001       35.049999       -3.940000
  C12       25.590000       35.570000       -3.100000
  H7        26.090000       35.860001       -4.010000
  C13       26.500000       35.330002       -2.060000
  H8        27.420000       35.820000       -2.090000
  C6        28.190001       34.020000        0.060000
  C1        28.900000       33.130001       -0.800000
  H1        28.510000       32.669998       -1.680000
  C2        30.230000       32.849998       -0.550000
  H2        30.799999       32.040001       -1.010000
  C3        30.889999       33.590000        0.470000
  H3        31.969999       33.590000        0.520000
  C4        30.150000       34.509998        1.300000
  H4        30.740000       35.099998        2.010000
  C5        28.790001       34.709999        1.070000
  H5        28.160000       35.209999        1.850000
  C1        24.840000       36.759998        4.920000
  C2        24.780001       35.860001        5.980000
  N1        25.150000       35.990002        3.740000
  C3b       25.370001       34.639999        4.040000
  N2        25.040001       34.580002        5.450000
  C4        24.840000       33.169998        5.880000
  C5b       25.450001       32.230000        5.040000
  C6        25.629999       30.990000        5.610000
  H1        26.000000       30.250000        4.920000
  C7        25.299999       30.670000        6.900000
  H2        25.680000       29.820000        7.510000
  C8        24.559999       31.610001        7.680000
  H3        24.350000       31.420000        8.700000
  C9        24.320000       32.880001        7.160000
  H4        23.709999       33.549999        7.760000
  C10       24.590000       36.330002        7.300000
  H5        24.690001       35.580002        8.090000
  C11       24.650000       37.720001        7.520000
  H6        24.830000       38.099998        8.520000
  C12       24.780001       38.630001        6.510000
  H7        25.280001       39.520000        6.730000
  C13       24.830000       38.119999        5.200000
  H8        24.860001       38.869999        4.380000
  C6        24.750000       36.480000        2.460000
  C1        23.620001       35.889999        1.810000
  H1        22.959999       35.180000        2.170000
  C2        23.190001       36.410000        0.600000
  H2        22.430000       35.810001        0.060000
  C3        23.750000       37.560001        0.050000
  H3        23.350000       37.970001       -0.880000
  C4        24.840000       38.130001        0.650000
  H4        24.940001       39.209999        0.420000
  C5        25.410000       37.610001        1.850000
  H5        26.360001       37.900002        2.260000
  C1        30.129999       32.720001        4.170000
  C2        30.049999       31.910000        3.030000
  N1        28.809999       33.160000        4.470000
  C3c       27.870001       32.630001        3.580000
  N2        28.629999       31.820000        2.710000
  C4        27.830000       30.950001        1.850000
  C5c       26.480000       31.000000        2.200000
  C6        25.610001       29.969999        1.710000
  H1        24.590000       29.959999        2.100000
  C7        26.080000       29.070000        0.710000
  H2        25.370001       28.459999        0.180000
  C8        27.410000       29.160000        0.320000
  H3        27.709999       28.719999       -0.620000
  C9        28.299999       29.990000        0.920000
  H4        29.360001       29.950001        0.820000
  C10       31.230000       31.320000        2.500000
  H5        31.160000       30.469999        1.830000
  C11       32.439999       31.600000        3.200000
  H6        33.259998       30.910000        3.040000
  C12       32.480000       32.470001        4.330000
  H7        33.439999       32.730000        4.750000
  C13       31.299999       33.000000        4.830000
  H8        31.389999       33.720001        5.710000
  C6        28.450001       33.740002        5.780000
  C1        28.320000       32.910000        6.870000
  H1        28.490000       31.830000        6.660000
  C2        28.030001       33.310001        8.170000
  H2        27.830000       32.639999        8.980000
  C3        27.889999       34.650002        8.470000
  H3        27.830000       35.049999        9.440000
  C4        28.139999       35.570000        7.380000
  H4        28.059999       36.660000        7.520000
  C5        28.360001       35.139999        6.060000
  H5        28.680000       35.869999        5.340000
