206
 generated by VMD
  IR        56.290001       15.940000       30.950001
  C1        55.480000       19.450001       28.400000
  C2        55.380001       19.920000       29.680000
  N1        55.880001       18.040001       28.469999
  C3a       56.099998       17.709999       29.820000
  N2        55.799999       18.930000       30.490000
  C4        55.810001       18.740000       31.900000
  C5a       55.650002       17.379999       32.360001
  C6        55.470001       17.190001       33.750000
  H1        54.980000       16.280001       34.070000
  C7        55.540001       18.260000       34.619999
  H2        55.580002       18.000000       35.660000
  C8        55.790001       19.600000       34.200001
  H3        56.049999       20.410000       34.759998
  C9        55.869999       19.860001       32.840000
  H4        56.200001       20.820000       32.430000
  C10       54.910000       21.209999       29.900000
  H5        55.270000       21.770000       30.750000
  C11       54.230000       21.879999       28.870001
  H6        53.900002       22.860001       29.170000
  C12       54.320000       21.410000       27.549999
  H7        53.549999       21.730000       26.889999
  C13       54.980000       20.240000       27.320000
  H8        55.000000       19.879999       26.320000
  C6        55.560001       17.190001       27.379999
  C1        56.570000       16.809999       26.520000
  H1        57.500000       16.660000       27.040001
  C2        56.200001       16.090000       25.260000
  H2        56.910000       16.110001       24.469999
  C3        54.840000       15.760000       25.010000
  H3        54.529999       15.700000       23.930000
  C4        53.880001       16.180000       25.940001
  H4        52.849998       16.120001       25.650000
  C5        54.259998       16.879999       27.110001
  H5        53.529999       17.150000       27.850000
  C1        60.040001       16.580000       33.180000
  C2        59.430000       15.520000       33.799999
  N1        59.259998       16.860001       32.020000
  C3b       58.119999       16.090000       31.950001
  N2        58.340000       15.160000       33.049999
  C4        57.299999       14.160000       33.139999
  C5b       56.169998       14.440000       32.430000
  C6        55.080002       13.560000       32.630001
  H1        54.169998       13.620000       32.119999
  C7        55.180000       12.470000       33.480000
  H2        54.430000       11.740000       33.340000
  C8        56.320000       12.220000       34.209999
  H3        56.349998       11.300000       34.740002
  C9        57.360001       13.110000       34.049999
  H4        58.369999       12.800000       34.230000
  C10       60.080002       14.900000       34.889999
  H5        59.349998       14.270000       35.439999
  C11       61.330002       15.400000       35.349998
  H6        61.759998       15.040000       36.320000
  C12       62.009998       16.379999       34.619999
  H7        63.060001       16.590000       34.740002
  C13       61.330002       16.990000       33.599998
  H8        61.660000       17.930000       33.110001
  C6        59.450001       17.959999       31.110001
  C1        59.590000       17.730000       29.719999
  H1        60.049999       16.920000       29.290001
  C2        59.650002       18.860001       28.870001
  H2        59.779999       18.600000       27.799999
  C3        59.549999       20.150000       29.430000
  H3        59.619999       21.040001       28.860001
  C4        59.380001       20.360001       30.840000
  H4        59.389999       21.400000       31.219999
  C5        59.259998       19.250000       31.700001
  H5        58.990002       19.370001       32.779999
  C1        57.070000       12.640000       28.110001
  C2        55.759998       12.760000       28.120001
  N1        57.610001       13.680000       28.980000
  C3c       56.540001       14.400000       29.570000
  N2        55.459999       13.840000       28.980000
  C4        54.160000       14.420000       29.400000
  C5c       54.320000       15.550000       30.230000
  C6        53.110001       16.160000       30.730000
  H1        53.119999       17.059999       31.400000
  C7        51.849998       15.640000       30.500000
  H2        51.060001       16.030001       31.080000
  C8        51.759998       14.480000       29.770000
  H3        50.880001       13.920000       29.629999
  C9        52.860001       13.850000       29.230000
  H4        52.689999       12.840000       28.850000
  C10       54.910000       11.770000       27.440001
  H5        53.849998       11.950000       27.280001
  C11       55.560001       10.770000       26.740000
  H6        55.000000       10.050000       26.150000
  C12       56.950001       10.660000       26.830000
  H7        57.360001        9.840000       26.299999
  C13       57.759998       11.560000       27.530001
  H8        58.779999       11.420000       27.530001
  C6        59.049999       13.970000       29.059999
  C1        59.770000       14.520000       28.020000
  H1        59.270000       14.770000       27.110001
  C2        61.130001       14.840000       28.080000
  H2        61.560001       15.320000       27.240000
  C3        61.759998       14.540000       29.299999
  H3        62.779999       14.960000       29.340000
  C4        61.040001       13.970000       30.360001
  H4        61.470001       13.730000       31.360001
  C5        59.669998       13.700000       30.290001
  H5        59.119999       13.310000       31.059999
  IR        57.630001       13.620000       42.500000
  C1        53.360001       12.590000       42.759998
  C2        53.529999       13.500000       43.770000
  N1        54.630001       12.360000       42.099998
  C3a       55.639999       13.130000       42.720001
  N2        54.910000       13.800000       43.709999
  C4        55.730000       14.620000       44.509998
  C5a       57.139999       14.400000       44.400002
  C6        58.020000       15.010000       45.290001
  H1        59.020000       14.620000       45.380001
  C7        57.590000       15.990000       46.189999
  H2        58.209999       16.540001       46.860001
  C8        56.220001       16.309999       46.130001
  H3        55.980000       17.200001       46.639999
  C9        55.310001       15.560000       45.389999
  H4        54.230000       15.580000       45.669998
  C10       52.400002       14.080000       44.360001
  H5        52.470001       14.630000       45.209999
  C11       51.099998       13.880000       43.830002
  H6        50.240002       14.440000       44.230000
  C12       50.970001       12.980000       42.750000
  H7        49.990002       12.640000       42.480000
  C13       52.080002       12.320000       42.240002
  H8        51.880001       11.610000       41.410000
  C6        54.830002       11.150000       41.310001
  C1        54.910000       11.190000       39.919998
  H1        54.840000       12.100000       39.380001
  C2        55.250000       10.030000       39.200001
  H2        55.070000       10.040000       38.099998
  C3        55.590000        8.910000       39.919998
  H3        55.900002        8.040000       39.459999
  C4        55.450001        8.810000       41.290001
  H4        55.590000        7.930000       41.799999
  C5        55.090000        9.980000       41.970001
  H5        55.070000        9.910000       43.020000
  C1        57.560001       17.910000       41.560001
  C2        58.910000       17.570000       41.660000
  N1        56.880001       16.750000       41.570000
  C3b       57.709999       15.650000       41.910000
  N2        58.990002       16.219999       41.930000
  C4        60.119999       15.370000       42.220001
  C5b       59.720001       14.040000       42.560001
  C6        60.700001       13.160000       43.080002
  H1        60.599998       12.170000       43.439999
  C7        62.029999       13.550000       43.139999
  H2        62.770000       12.910000       43.500000
  C8        62.380001       14.850000       42.790001
  H3        63.330002       15.350000       42.939999
  C9        61.380001       15.760000       42.380001
  H4        61.720001       16.840000       42.430000
  C10       59.840000       18.620001       41.750000
  H5        60.830002       18.450001       41.779999
  C11       59.459999       19.969999       41.740002
  H6        60.189999       20.750000       42.000000
  C12       58.150002       20.240000       41.689999
  H7        57.849998       21.270000       41.599998
  C13       57.110001       19.250000       41.599998
  H8        56.049999       19.520000       41.639999
  C6        55.520000       16.600000       41.470001
  C1        54.950001       15.720000       40.470001
  H1        55.590000       15.700000       39.570000
  C2        53.570000       15.380000       40.509998
  H2        53.150002       14.750000       39.720001
  C3        52.689999       15.920000       41.480000
  H3        51.700001       15.700000       41.520000
  C4        53.259998       16.860001       42.369999
  H4        52.560001       17.110001       43.189999
  C5        54.619999       17.150000       42.400002
  H5        55.150002       17.530001       43.279999
  C1        58.540001       11.430000       38.820000
  C2        58.730000       10.540000       39.779999
  N1        58.320000       12.620000       39.529999
  C3c       58.290001       12.520000       40.860001
  N2        58.560001       11.190000       41.049999
  C4        58.410000       10.770000       42.470001
  C5c       57.869999       11.700000       43.340000
  C6        57.299999       11.260000       44.529999
  H1        56.779999       11.980000       45.119999
  C7        57.360001        9.920000       44.840000
  H2        57.049999        9.500000       45.799999
  C8        57.959999        8.950000       44.000000
  H3        58.240002        7.970000       44.279999
  C9        58.520000        9.390000       42.880001
  H4        59.259998        8.750000       42.389999
  C10       59.049999        9.230000       39.380001
  H5        59.700001        8.620000       39.970001
  C11       58.939999        8.860000       38.009998
  H6        59.139999        7.870000       37.660000
  C12       58.549999        9.900000       37.099998
  H7        58.110001        9.680000       36.150002
  C13       58.490002       11.220000       37.500000
  H8        58.650002       12.020000       36.779999
  C6        58.049999       13.840000       38.810001
  C1        59.020000       14.870000       38.799999
  H1        59.560001       15.040000       39.720001
  C2        58.980000       15.960000       37.860001
  H2        59.759998       16.660000       37.820000
  C3        57.860001       15.990000       36.980000
  H3        58.020000       16.580000       36.070000
  C4        56.889999       15.030000       37.009998
  H4        55.950001       15.180000       36.520000
  C5        56.959999       13.940000       37.910000
  H5        56.259998       13.140000       37.820000
