206
 generated by VMD
 Ir       58.162262       66.657440       10.126091
 C        59.487015       69.956161        7.742115
 C        58.119869       69.875732        7.651836
 N        59.875061       68.859619        8.508360
 C        58.791420       68.054520        8.791273
 N        57.721981       68.645981        8.143379
 C        56.596375       67.788101        7.842806
 C        56.585503       66.721840        8.731323
 C        55.606567       65.720932        8.516947
 H        55.764893       64.775993        9.011444
 C        54.626560       65.853027        7.525414
 H        54.152771       64.999924        7.152674
 C        54.695396       66.984940        6.657637
 H        54.114464       66.932159        5.729019
 C        55.748856       67.873276        6.774176
 H        55.813164       68.606216        6.024738
 C        57.437199       70.983818        7.252962
 H        56.371231       71.050873        7.155954
 C        58.086361       72.223236        6.925339
 H        57.502060       72.789505        6.187412
 C        59.512592       72.241501        6.960436
 H        60.004105       73.169968        6.582302
 C        60.214840       71.114075        7.365818
 H        61.302795       71.165009        7.317234
 C        61.244843       68.571686        8.817043
 C        61.906258       69.416367        9.675604
 H        61.445347       70.304016       10.135759
 C        63.151028       69.065460       10.142422
 H        63.783180       69.581284       10.879795
 C        63.749386       67.862740        9.745783
 H        64.790855       67.595726        9.936680
 C        63.135639       67.016464        8.831322
 H        63.556301       66.043503        8.638000
 C        61.892834       67.471710        8.361439
 H        61.479313       66.953209        7.542257
 C        55.584232       68.796066       13.020806
 C        55.476585       67.472458       13.374338
 N        56.361496       68.839264       11.825569
 C        56.806168       67.594353       11.427866
 N        56.205162       66.739609       12.384941
 C        56.276451       65.324379       12.051096
 C        57.357307       65.012375       11.160591
 C        57.613056       63.660736       10.891016
 H        58.310566       63.425789       10.061392
 C        56.735157       62.733536       11.390404
 H        56.718086       61.758507       10.879303
 C        55.646317       63.078526       12.126480
 H        55.071308       62.285011       12.542287
 C        55.390652       64.390991       12.433010
 H        54.425304       64.491959       12.902065
 C        54.831345       67.129883       14.511753
 H        54.480251       66.153870       14.633520
 C        54.273823       68.134384       15.363840
 H        53.728390       67.831779       16.197048
 C        54.283146       69.438644       14.941320
 H        53.861515       70.308525       15.507031
 C        55.004318       69.719055       13.759511
 H        54.799980       70.674774       13.373948
 C        56.519917       70.054733       11.151678
 C        57.775894       70.680328       11.230118
 H        58.596573       70.094261       11.413485
 C        57.983925       72.005356       10.793999
 H        58.971638       72.304611       10.586712
 C        56.934898       72.733353       10.336748
 H        57.033630       73.811317       10.293833
 C        55.696671       72.157555       10.137869
 H        54.895691       72.754578        9.589962
 C        55.450813       70.801437       10.503256
 H        54.442394       70.346802       10.464727
 C        61.636299       66.379295       12.767435
 C        61.950844       65.503563       11.738483
 N        60.449055       66.998497       12.433311
 C        59.905521       66.558182       11.223772
 N        60.822277       65.558914       10.812050
 C        60.472492       64.859970        9.633732
 C        59.370697       65.381668        8.906557
 C        59.144035       64.997177        7.647234
 H        58.219845       65.242638        7.254646
 C        59.978516       64.118423        7.011671
 H        59.569878       63.759136        6.036516
 C        61.078434       63.529499        7.667599
 H        61.905930       63.232544        7.061487
 C        61.287441       63.901299        8.973042
 H        62.071995       63.420353        9.546593
 C        63.149147       64.761002       11.795727
 H        63.504242       64.292000       10.870340
 C        63.977375       64.949677       12.875933
 H        64.924988       64.394547       12.953793
 C        63.604126       65.707916       13.978010
 H        64.283737       65.852196       14.789621
 C        62.391930       66.489159       13.923920
 H        62.157696       67.149414       14.716198
 C        60.114063       68.225166       13.030611
 C        60.798012       69.419861       12.834097
 H        61.805885       69.434967       12.428436
 C        60.376060       70.589600       13.493017
 H        60.690754       71.501877       13.168484
 C        59.305389       70.552902       14.330523
 H        59.117424       71.396790       14.976379
 C        58.611946       69.386749       14.578955
 H        57.958603       69.291878       15.432323
 C        59.052109       68.207344       13.928682
 H        58.642769       67.289993       14.215578
 Ir       58.162262       66.657440       26.036404
 C        57.683525       66.988197       30.362892
 C        59.005383       67.064354       30.115934
 N        57.007034       67.125557       29.027193
 C        57.945534       67.221237       28.025213
 N        59.219559       67.122925       28.724497
 C        60.375355       66.738144       27.883858
 C        60.029118       65.956268       26.755636
 C        60.975002       65.121758       26.131536
 H        60.678665       64.468323       25.296255
 C        62.375538       65.173943       26.651804
 H        63.171101       64.923294       26.002840
 C        62.704300       66.017349       27.677515
 H        63.721157       66.067627       28.147917
 C        61.731655       66.764328       28.306314
 H        62.139286       67.517365       28.949259
 C        59.854393       67.066711       31.163683
 H        60.871552       67.221504       31.114395
 C        59.442341       66.840691       32.437622
 H        60.137260       66.837341       33.225327
 C        58.052414       66.772774       32.790878
 H        57.622734       66.367889       33.740013
 C        57.169071       66.991302       31.704025
 H        56.142654       67.142548       31.953209
 C        55.759781       67.916473       28.953669
 C        54.672424       67.527039       28.148317
 H        54.831566       66.613533       27.658735
 C        53.505630       68.342850       28.060411
 H        52.607079       68.029831       27.497984
 C        53.536366       69.539871       28.698526
 H        52.848351       70.312584       28.363625
 C        54.494308       69.876511       29.613255
 H        54.430702       70.692322       30.231794
 C        55.645370       69.092239       29.688639
 H        56.447598       69.238441       30.382942
 C        59.647869       70.255203       24.180061
 C        59.384636       69.404663       23.181814
 N        59.491692       69.548569       25.406750
 C        59.179459       68.212448       25.171143
 N        59.124050       68.157639       23.792727
 C        59.096947       66.838516       23.241665
 C        58.613216       65.885933       24.108320
 C        58.705029       64.561249       23.705338
 H        58.209427       63.804993       24.330917
 C        59.288269       64.213577       22.423679
 H        59.280373       63.197941       22.102226
 C        59.804958       65.190567       21.561180
 H        60.221443       64.918991       20.577011
 C        59.752129       66.478622       22.014545
 H        60.372295       67.188576       21.491138
 C        59.322334       69.892479       21.869812
 H        59.216064       69.201782       20.997320
 C        59.640038       71.199280       21.633286
 H        59.683472       71.619530       20.601200
 C        59.886635       72.107849       22.638958
 H        60.104393       73.134285       22.484343
 C        59.868195       71.576279       23.910172
 H        59.817062       72.386063       24.657587
 C        59.892780       70.123810       26.616217
 C        58.909401       70.770569       27.317410
 H        58.021217       70.956894       26.794413
 C        59.200016       71.335205       28.551039
 H        58.404335       71.800568       29.070387
 C        60.445061       71.398163       29.110136
 H        60.541203       71.943298       29.979895
 C        61.440163       70.785980       28.353552
 H        62.441345       70.844818       28.681545
 C        61.166988       70.099731       27.166866
 H        61.872253       69.385559       26.733086
 C        54.160378       67.525566       24.738565
 C        54.098915       66.189133       24.945803
 N        55.446236       67.963409       24.937243
 C        56.258354       66.968224       25.282312
 N        55.428688       65.867096       25.242792
 C        55.955044       64.680817       25.848677
 C        57.141808       64.901703       26.591516
 C        57.665115       63.798988       27.331964
 H        58.487949       63.996567       27.994089
 C        56.967583       62.578773       27.401342
 H        57.433281       61.718201       27.897976
 C        55.744694       62.396095       26.696379
 H        55.199249       61.488415       26.899128
 C        55.338696       63.461075       25.921083
 H        54.655205       63.244484       25.059906
 C        52.836731       65.550369       24.969772
 H        52.732746       64.409775       24.965260
 C        51.683498       66.248535       24.767969
 H        50.754826       65.750748       24.975769
 C        51.790966       67.574203       24.451796
 H        50.879578       68.128227       24.261740
 C        53.027084       68.276550       24.357279
 H        52.971786       69.392723       24.276739
 C        55.792030       69.287964       24.638304
 C        55.986534       69.564415       23.277588
 H        56.011505       68.781105       22.533947
 C        55.983040       70.878822       22.800915
 H        55.821278       71.086899       21.755482
 C        55.988697       71.905052       23.774889
 H        55.683075       72.885818       23.491867
 C        55.951344       71.627022       25.149807
 H        55.693909       72.505005       25.737253
 C        55.815430       70.287712       25.603113
 H        55.380016       70.122116       26.635386
