206
 generated by VMD
  IR        43.340000       42.630001       45.810001
  C1        45.610001       42.240002       49.590000
  C2        46.549999       42.080002       48.529999
  N1        44.310001       42.320000       48.919998
  C3a       44.360001       42.290001       47.599998
  N2        45.820000       42.189999       47.320000
  C4        46.259998       42.520000       45.980000
  C5a       45.270000       42.560001       45.020000
  C6        45.680000       42.770000       43.709999
  H1        45.040001       42.720001       42.880001
  C7        47.020000       42.970001       43.389999
  H2        47.459999       43.320000       42.459999
  C8        48.009998       42.980000       44.330002
  H3        49.009998       43.169998       44.070000
  C9        47.650002       42.700001       45.630001
  H4        48.230000       42.939999       46.450001
  C10       47.919998       41.919998       48.889999
  H5        48.619999       41.730000       48.099998
  C11       48.349998       41.860001       50.230000
  H6        49.349998       41.689999       50.400002
  C12       47.380001       41.990002       51.270000
  H7        47.660000       41.750000       52.250000
  C13       46.009998       42.189999       50.950001
  H8        45.259998       42.320000       51.689999
  C6        43.029999       42.250000       49.689999
  C1        42.160000       41.119999       49.680000
  H1        42.400002       40.209999       49.110001
  C2        40.959999       41.169998       50.349998
  H2        40.259998       40.349998       50.330002
  C3        40.580002       42.279999       51.150002
  H3        39.580002       42.490002       51.480000
  C4        41.490002       43.349998       51.240002
  H4        41.270000       44.209999       51.860001
  C5        42.689999       43.330002       50.500000
  H5        43.439999       44.139999       50.639999
  C1        43.709999       46.880001       45.130001
  C2        42.980000       46.490002       44.020000
  N1        44.020000       45.750000       45.860001
  C3b       43.470001       44.639999       45.380001
  N2        42.860001       45.049999       44.220001
  C4        42.200001       44.099998       43.529999
  C5b       42.549999       42.759998       43.840000
  C6        42.180000       41.669998       43.009998
  H1        42.779999       40.730000       43.119999
  C7        41.360001       41.900002       41.900002
  H2        41.000000       41.099998       41.320000
  C8        40.880001       43.220001       41.650002
  H3        40.360001       43.430000       40.669998
  C9        41.250000       44.290001       42.480000
  H4        40.919998       45.209999       42.160000
  C10       42.380001       47.490002       43.049999
  H5        42.029999       47.230000       42.040001
  C11       42.619999       48.840000       43.320000
  H6        42.509998       49.599998       42.470001
  C12       43.290001       49.200001       44.500000
  H7        43.119999       50.189999       44.930000
  C13       43.840000       48.240002       45.380001
  H8        44.230000       48.590000       46.320000
  C6        45.049999       45.880001       46.869999
  C1        46.380001       45.919998       46.490002
  H1        46.580002       45.730000       45.470001
  C2        47.459999       46.160000       47.310001
  H2        48.470001       46.110001       46.900002
  C3        47.160000       46.139999       48.660000
  H3        48.009998       46.099998       49.400002
  C4        45.820000       46.080002       49.139999
  H4        45.529999       46.029999       50.220001
  C5        44.740002       45.990002       48.240002
  H5        43.790001       45.599998       48.610001
  C1        39.330002       42.340000       47.400002
  C2        39.750000       41.040001       47.299999
  N1        40.270000       43.090000       46.669998
  C3c       41.299999       42.380001       46.189999
  N2        40.990002       41.110001       46.549999
  C4        41.950001       40.070000       46.250000
  C5c       43.200001       40.509998       45.750000
  C6        44.209999       39.610001       45.410000
  H1        45.139999       39.950001       44.880001
  C7        44.049999       38.259998       45.590000
  H2        44.810001       37.639999       45.119999
  C8        42.830002       37.770000       46.020000
  H3        42.689999       36.750000       46.189999
  C9        41.830002       38.619999       46.330002
  H4        40.889999       38.230000       46.570000
  C10       38.919998       40.000000       47.889999
  H5        39.270000       38.990002       47.799999
  C11       37.630001       40.330002       48.389999
  H6        37.240002       39.480000       48.950001
  C12       37.180000       41.630001       48.410000
  H7        36.209999       41.970001       48.720001
  C13       38.020000       42.650002       47.930000
  H8        37.639999       43.590000       47.660000
  C6        40.330002       44.529999       46.830002
  C1        41.200001       45.200001       47.730000
  H1        41.910000       44.560001       48.230000
  C2        41.360001       46.590000       47.660000
  H2        41.980000       47.060001       48.310001
  C3        40.639999       47.349998       46.680000
  H3        40.880001       48.410000       46.590000
  C4        39.759998       46.700001       45.790001
  H4        39.369999       47.180000       44.930000
  C5        39.599998       45.299999       45.910000
  H5        38.990002       44.740002       45.189999
  IR        51.669998       33.759998       48.740002
  C1        49.580002       37.580002       48.049999
  C2        50.570000       37.509998       47.060001
  N1        49.709999       36.389999       48.869999
  C3a       50.730000       35.549999       48.330002
  N2        51.250000       36.299999       47.279999
  C4        52.389999       35.669998       46.560001
  C5a       52.709999       34.349998       46.980000
  C6        53.689999       33.549999       46.349998
  H1        53.709999       32.520000       46.490002
  C7        54.310001       34.200001       45.240002
  H2        54.990002       33.540001       44.619999
  C8        54.029999       35.520000       44.799999
  H3        54.619999       36.130001       44.009998
  C9        53.099998       36.270000       45.490002
  H4        52.959999       37.259998       45.230000
  C10       50.500000       38.430000       46.000000
  H5        50.939999       38.250000       45.110001
  C11       49.529999       39.400002       45.950001
  H6        49.470001       40.029999       45.119999
  C12       48.580002       39.480000       46.970001
  H7        47.759998       40.180000       46.860001
  C13       48.590000       38.570000       48.000000
  H8        47.660000       38.480000       48.580002
  C6        48.630001       36.009998       49.840000
  C1        48.610001       36.639999       51.090000
  H1        49.380001       37.369999       51.380001
  C2        47.630001       36.270000       51.959999
  H2        47.610001       36.680000       52.900002
  C3        46.700001       35.349998       51.709999
  H3        46.000000       34.990002       52.480000
  C4        46.680000       34.779999       50.439999
  H4        45.790001       34.250000       50.160000
  C5        47.650002       35.110001       49.480000
  H5        47.990002       34.480000       48.630001
  C1        49.410000       31.030001       46.240002
  C2        50.310001       30.240000       46.869999
  N1        49.660000       32.369999       46.669998
  C3b       50.660000       32.400002       47.599998
  N2        51.160000       31.110001       47.660000
  C4        52.360001       30.870001       48.369999
  C5b       52.939999       32.040001       48.950001
  C6        54.299999       32.029999       49.360001
  H1        54.669998       32.990002       49.669998
  C7        55.090000       30.910000       49.250000
  H2        56.150002       30.840000       49.090000
  C8        54.480000       29.770000       48.750000
  H3        54.980000       28.820000       48.630001
  C9        53.090000       29.740000       48.349998
  H4        52.730000       28.770000       48.020000
  C10       50.110001       28.879999       46.689999
  H5        50.770000       28.299999       47.250000
  C11       49.150002       28.379999       45.880001
  H6        48.910000       27.299999       46.040001
  C12       48.189999       29.190001       45.240002
  H7        47.439999       28.660000       44.599998
  C13       48.369999       30.559999       45.389999
  H8        47.779999       31.330000       44.810001
  C6        49.139999       33.509998       45.869999
  C1        49.930000       33.980000       44.860001
  H1        50.790001       33.369999       44.580002
  C2        49.639999       35.139999       44.130001
  H2        50.340000       35.529999       43.410000
  C3        48.459999       35.840000       44.330002
  H3        48.369999       36.810001       43.930000
  C4        47.570000       35.299999       45.279999
  H4        46.740002       35.869999       45.610001
  C5        47.889999       34.110001       46.009998
  H5        47.189999       33.709999       46.730000
  C1        49.880001       32.919998       52.509998
  C2        50.500000       34.080002       52.730000
  N1        50.299999       32.360001       51.330002
  C3c       51.070000       33.259998       50.689999
  N2        51.310001       34.270000       51.590000
  C4        52.439999       35.040001       51.320000
  C5c       52.880001       34.880001       49.980000
  C6        53.950001       35.650002       49.630001
  H1        54.470001       35.450001       48.689999
  C7        54.610001       36.549999       50.470001
  H2        55.540001       36.990002       50.150002
  C8        54.110001       36.660000       51.799999
  H3        54.770000       36.990002       52.599998
  C9        53.049999       35.889999       52.240002
  H4        52.669998       36.020000       53.240002
  C10       50.240002       34.889999       53.840000
  H5        50.779999       35.799999       53.970001
  C11       49.320000       34.430000       54.810001
  H6        48.950001       35.099998       55.590000
  C12       48.700001       33.160000       54.639999
  H7        48.070000       32.759998       55.400002
  C13       48.939999       32.410000       53.500000
  H8        48.380001       31.480000       53.360001
  C6        49.849998       31.080000       50.869999
  C1        48.560001       30.940001       50.419998
  H1        47.849998       31.750000       50.340000
  C2        48.049999       29.680000       50.130001
  H2        46.980000       29.500000       50.099998
  C3        48.880001       28.549999       50.200001
  H3        48.389999       27.580000       50.189999
  C4        50.169998       28.670000       50.700001
  H4        50.790001       27.760000       50.630001
  C5        50.660000       29.910000       51.029999
  H5        51.669998       29.980000       51.310001
