206
 generated by VMD
  IR         9.410000       44.599998       28.840000
  C1        10.400000       42.689999       25.070000
  C2        10.800000       41.779999       25.930000
  N1        10.050000       43.820000       25.700001
  C3a       10.060000       43.689999       27.120001
  N2        10.640000       42.380001       27.260000
  C4        10.920000       42.029999       28.580000
  C5a       10.310000       42.840000       29.559999
  C6        10.480000       42.400002       30.879999
  H1        10.390000       43.150002       31.670000
  C7        11.240000       41.320000       31.230000
  H2        11.290000       41.099998       32.279999
  C8        11.860000       40.549999       30.209999
  H3        12.550000       39.730000       30.549999
  C9        11.680000       40.900002       28.900000
  H4        11.990000       40.340000       28.000000
  C10       11.350000       40.529999       25.420000
  H5        11.760000       39.810001       26.030001
  C11       11.250000       40.230000       24.059999
  H6        11.360000       39.180000       23.860001
  C12       10.830000       41.220001       23.150000
  H7        10.730000       40.990002       22.070000
  C13       10.450000       42.480000       23.610001
  H8        10.600000       43.299999       22.930000
  C6         9.450000       44.880001       24.990000
  C1         8.080000       44.889999       24.920000
  H1         7.440000       44.299999       25.530001
  C2         7.450000       45.680000       23.959999
  H2         6.410000       45.529999       23.780001
  C3         8.190000       46.480000       23.100000
  H3         7.730000       47.090000       22.340000
  C4         9.580000       46.509998       23.209999
  H4        10.200000       46.900002       22.389999
  C5        10.240000       45.720001       24.209999
  H5        11.290000       45.590000       24.290001
  C1         5.650000       42.340000       29.250000
  C2         5.680000       43.200001       30.320000
  N1         6.800000       42.590000       28.469999
  C3b        7.580000       43.619999       29.020000
  N2         6.880000       43.880001       30.209999
  C4         7.390000       44.970001       31.010000
  C5b        8.780000       45.220001       30.750000
  C6         9.480000       46.169998       31.580000
  H1        10.590000       46.119999       31.670000
  C7         8.750000       46.910000       32.480000
  H2         9.250000       47.709999       33.000000
  C8         7.380000       46.689999       32.610001
  H3         6.870000       47.410000       33.250000
  C9         6.630000       45.700001       31.940001
  H4         5.520000       45.660000       31.969999
  C10        4.600000       43.119999       31.270000
  H5         4.670000       43.580002       32.220001
  C11        3.580000       42.189999       31.150000
  H6         3.010000       41.919998       31.990000
  C12        3.550000       41.320000       30.100000
  H7         2.870000       40.529999       29.959999
  C13        4.580000       41.400002       29.139999
  H8         4.490000       40.759998       28.260000
  C6         7.340000       41.529999       27.660000
  C1         7.990000       40.450001       28.260000
  H1         7.990000       40.450001       29.290001
  C2         8.480000       39.410000       27.459999
  H2         9.120000       38.689999       27.910000
  C3         8.370000       39.590000       26.059999
  H3         8.980000       38.970001       25.400000
  C4         7.630000       40.639999       25.480000
  H4         7.630000       40.669998       24.389999
  C5         7.090000       41.650002       26.290001
  H5         6.260000       42.189999       25.860001
  C1         8.290000       48.200001       26.700001
  C2         9.670000       48.220001       26.740000
  N1         7.840000       47.189999       27.570000
  C3c        8.900000       46.480000       28.129999
  N2        10.010000       47.180000       27.639999
  C4        11.240000       46.810001       28.200001
  C5c       11.280000       45.630001       28.900000
  C6        12.420000       45.330002       29.700001
  H1        12.460000       44.480000       30.250000
  C7        13.510000       46.259998       29.790001
  H2        14.310000       46.029999       30.500000
  C8        13.470000       47.439999       29.070000
  H3        14.300000       48.160000       29.090000
  C9        12.340000       47.750000       28.309999
  H4        12.110000       48.720001       27.969999
  C10       10.380000       49.119999       25.940001
  H5        11.410000       49.160000       25.809999
  C11        9.740000       49.970001       25.100000
  H6        10.370000       50.650002       24.559999
  C12        8.330000       50.000000       25.080000
  H7         7.760000       50.549999       24.360001
  C13        7.620000       49.070000       25.920000
  H8         6.530000       49.110001       26.030001
  C6         6.490000       47.200001       28.120001
  C1         5.510000       46.439999       27.510000
  H1         5.680000       46.169998       26.469999
  C2         4.250000       46.240002       28.129999
  H2         3.560000       45.439999       27.990000
  C3         4.070000       46.860001       29.360001
  H3         3.020000       46.900002       29.750000
  C4         5.030000       47.680000       29.969999
  H4         4.910000       48.060001       31.049999
  C5         6.280000       47.849998       29.340000
  H5         7.160000       48.160000       29.959999
  IR         1.420000       48.540001       23.580000
  C1        -2.530000       46.860001       24.520000
  C2        -2.140000       47.439999       25.660000
  N1        -1.430000       46.950001       23.650000
  C3a       -0.330000       47.610001       24.250000
  N2        -0.780000       47.900002       25.490000
  C4         0.290000       48.480000       26.299999
  C5a        1.440000       48.970001       25.650000
  C6         2.380000       49.700001       26.370001
  H1         3.290000       49.880001       25.809999
  C7         2.290000       49.970001       27.709999
  H2         3.150000       50.290001       28.280001
  C8         1.180000       49.470001       28.379999
  H3         1.190000       49.330002       29.490000
  C9         0.190000       48.750000       27.709999
  H4        -0.810000       48.730000       28.150000
  C10       -2.980000       47.480000       26.780001
  H5        -2.620000       47.470001       27.770000
  C11       -4.310000       47.020000       26.620001
  H6        -5.130000       47.320000       27.230000
  C12       -4.720000       46.369999       25.440001
  H7        -5.590000       45.730000       25.469999
  C13       -3.810000       46.259998       24.389999
  H8        -4.150000       46.000000       23.309999
  C6        -1.410000       46.299999       22.360001
  C1        -1.290000       44.889999       22.230000
  H1        -0.530000       44.410000       22.850000
  C2        -1.650000       44.259998       21.070000
  H2        -1.380000       43.230000       21.209999
  C3        -2.120000       45.029999       19.980000
  H3        -2.600000       44.520000       19.160000
  C4        -2.250000       46.410000       20.100000
  H4        -2.780000       46.990002       19.389999
  C5        -1.850000       47.049999       21.250000
  H5        -1.980000       48.130001       21.430000
  C1        -0.130000       52.480000       22.629999
  C2         1.220000       52.630001       22.730000
  N1        -0.400000       51.119999       23.020000
  C3b        0.790000       50.480000       23.320000
  N2         1.800000       51.369999       23.150000
  C4         3.140000       50.900002       23.070000
  C5b        3.250000       49.490002       23.340000
  C6         4.490000       48.910000       23.280001
  H1         4.670000       47.919998       23.700001
  C7         5.600000       49.630001       22.930000
  H2         6.600000       49.250000       22.959999
  C8         5.510000       50.959999       22.590000
  H3         6.310000       51.459999       22.070000
  C9         4.310000       51.630001       22.660000
  H4         4.190000       52.689999       22.410000
  C10        1.780000       53.889999       22.350000
  H5         2.800000       53.970001       22.299999
  C11        0.980000       54.970001       21.950001
  H6         1.490000       55.759998       21.530001
  C12       -0.430000       54.810001       21.930000
  H7        -1.190000       55.639999       21.900000
  C13       -0.970000       53.529999       22.219999
  H8        -2.000000       53.380001       22.120001
  C6        -1.660000       50.910000       23.639999
  C1        -1.770000       50.970001       25.030001
  H1        -0.920000       51.209999       25.590000
  C2        -2.960000       50.650002       25.719999
  H2        -3.020000       50.720001       26.760000
  C3        -4.090000       50.380001       24.959999
  H3        -5.050000       50.049999       25.410000
  C4        -4.040000       50.540001       23.580000
  H4        -4.980000       50.439999       22.950001
  C5        -2.840000       50.740002       22.959999
  H5        -2.770000       50.540001       21.900000
  C1         1.760000       47.250000       19.400000
  C2         2.370000       46.259998       20.150000
  N1         1.390000       48.240002       20.360001
  C3c        1.630000       47.889999       21.670000
  N2         2.420000       46.720001       21.570000
  C4         2.790000       46.029999       22.790001
  C5c        2.400000       46.680000       23.950001
  C6         2.580000       46.020000       25.160000
  H1         2.180000       46.430000       26.049999
  C7         3.190000       44.790001       25.230000
  H2         3.520000       44.480000       26.240000
  C8         3.620000       44.160000       24.090000
  H3         4.170000       43.250000       24.030001
  C9         3.440000       44.840000       22.870001
  H4         3.700000       44.240002       21.959999
  C10        2.750000       45.049999       19.520000
  H5         3.280000       44.270000       20.040001
  C11        2.510000       44.939999       18.160000
  H6         2.720000       44.040001       17.629999
  C12        1.830000       45.910000       17.360001
  H7         1.590000       45.820000       16.379999
  C13        1.490000       47.099998       18.040001
  H8         0.910000       47.790001       17.440001
  C6         0.990000       49.520000       19.870001
  C1         1.870000       50.580002       19.940001
  H1         2.950000       50.410000       20.110001
  C2         1.430000       51.810001       19.379999
  H2         2.090000       52.660000       19.389999
  C3         0.150000       51.919998       18.730000
  H3        -0.190000       52.860001       18.280001
  C4        -0.750000       50.860001       18.730000
  H4        -1.860000       50.970001       18.530001
  C5        -0.340000       49.660000       19.400000
  H5        -1.090000       48.919998       19.530001
