206
 generated by VMD
  IR        47.180000        7.960000       61.360001
  C1        43.650002        6.990000       63.759998
  C2        44.689999        6.780000       64.610001
  N1        44.139999        7.480000       62.580002
  C3a       45.540001        7.590000       62.630001
  N2        45.880001        7.080000       63.919998
  C4        47.189999        7.210000       64.239998
  C5a       48.130001        7.330000       63.180000
  C6        49.450001        7.440000       63.459999
  H1        50.209999        7.410000       62.680000
  C7        49.930000        7.610000       64.769997
  H2        50.970001        7.830000       65.010002
  C8        49.029999        7.520000       65.830002
  H3        49.389999        7.400000       66.820000
  C9        47.689999        7.320000       65.580002
  H4        47.060001        7.680000       66.430000
  C10       44.419998        6.280000       65.900002
  H5        45.189999        6.040000       66.660004
  C11       43.099998        6.020000       66.309998
  H6        42.880001        5.700000       67.300003
  C12       42.000000        6.310000       65.430000
  H7        41.049999        6.090000       65.870003
  C13       42.270000        6.760000       64.190002
  H8        41.419998        7.100000       63.619999
  C6        43.330002        7.910000       61.459999
  C1        43.200001        7.090000       60.290001
  H1        43.619999        6.100000       60.290001
  C2        42.279999        7.460000       59.270000
  H2        42.180000        6.900000       58.380001
  C3        41.389999        8.510000       59.470001
  H3        40.560001        8.680000       58.779999
  C4        41.509998        9.300000       60.630001
  H4        40.869999       10.180000       60.730000
  C5        42.540001        9.040000       61.590000
  H5        42.790001        9.840000       62.270000
  C1        48.090000       12.030000       62.680000
  C2        48.910000       11.840000       61.599998
  N1        47.330002       10.850000       62.910000
  C3b       47.650002        9.930000       61.869999
  N2        48.580002       10.570000       61.049999
  C4        49.180000        9.720000       60.020000
  C5b       49.000000        8.400000       60.330002
  C6        49.740002        7.450000       59.590000
  H1        49.580002        6.430000       59.880001
  C7        50.689999        7.780000       58.619999
  H2        51.020000        7.030000       57.910000
  C8        50.939999        9.170000       58.310001
  H3        51.740002        9.320000       57.610001
  C9        50.110001       10.140000       59.000000
  H4        49.959999       11.180000       58.810001
  C10       49.860001       12.770000       61.270000
  H5        50.669998       12.330000       60.669998
  C11       49.980000       13.910000       61.970001
  H6        50.689999       14.640000       61.669998
  C12       49.209999       14.210000       63.090000
  H7        49.480000       15.050000       63.779999
  C13       48.200001       13.290000       63.430000
  H8        47.439999       13.570000       64.110001
  C6        46.619999       10.580000       64.180000
  C1        47.470001       10.560000       65.269997
  H1        48.540001       10.540000       65.040001
  C2        46.970001       10.620000       66.559998
  H2        47.549999       11.030000       67.320000
  C3        45.580002       10.590000       66.769997
  H3        45.169998       10.760000       67.769997
  C4        44.720001       10.530000       65.660004
  H4        43.650002       10.710000       65.790001
  C5        45.259998       10.530000       64.309998
  H5        44.709999       10.500000       63.360001
  C1        45.290001        8.800000       57.439999
  C2        45.610001        7.490000       57.360001
  N1        45.770000        9.260000       58.619999
  C3c       46.340000        8.270000       59.470001
  N2        46.290001        7.140000       58.630001
  C4        46.700001        5.930000       59.220001
  C5c       46.910000        6.020000       60.570000
  C6        47.099998        4.840000       61.349998
  H1        47.320000        4.860000       62.400002
  C7        47.139999        3.620000       60.660000
  H2        47.240002        2.700000       61.180000
  C8        47.029999        3.590000       59.279999
  H3        47.130001        2.650000       58.779999
  C9        46.840000        4.740000       58.549999
  H4        46.830002        4.670000       57.480000
  C10       45.200001        6.770000       56.169998
  H5        45.529999        5.790000       56.060001
  C11       44.360001        7.320000       55.279999
  H6        44.049999        6.740000       54.410000
  C12       43.919998        8.640000       55.430000
  H7        43.490002        9.190000       54.580002
  C13       44.419998        9.370000       56.500000
  H8        44.000000       10.370000       56.639999
  C6        45.810001       10.670000       58.980000
  C1        44.779999       11.160000       59.849998
  H1        44.430000       10.410000       60.509998
  C2        44.740002       12.550000       60.119999
  H2        43.959999       13.010000       60.720001
  C3        45.759998       13.370000       59.540001
  H3        45.680000       14.450000       59.770000
  C4        46.840000       12.840000       58.790001
  H4        47.709999       13.420000       58.549999
  C5        46.779999       11.500000       58.430000
  H5        47.389999       11.140000       57.660000
  IR        56.060001       16.709999       60.020000
  C1        54.180000       14.570000       56.709999
  C2        54.080002       15.870000       56.340000
  N1        54.790001       14.510000       57.959999
  C3a       55.160000       15.800000       58.360001
  N2        54.709999       16.610001       57.369999
  C4        54.860001       18.010000       57.610001
  C5a       55.259998       18.320000       58.910000
  C6        55.169998       19.629999       59.360001
  H1        55.689999       19.959999       60.240002
  C7        54.660000       20.590000       58.549999
  H2        54.389999       21.570000       58.970001
  C8        54.290001       20.230000       57.259998
  H3        53.790001       21.070000       56.700001
  C9        54.410000       18.950001       56.700001
  H4        54.560001       18.700001       55.619999
  C10       53.610001       16.129999       55.020000
  H5        53.209999       17.070000       54.730000
  C11       53.209999       15.150000       54.169998
  H6        52.849998       15.370000       53.169998
  C12       53.299999       13.840000       54.590000
  H7        53.000000       13.070000       53.910000
  C13       53.740002       13.540000       55.849998
  H8        53.599998       12.600000       56.220001
  C6        54.720001       13.360000       58.810001
  C1        53.490002       12.770000       59.130001
  H1        52.660000       13.390000       59.320000
  C2        53.480000       11.490000       59.740002
  H2        52.520000       11.230000       60.110001
  C3        54.680000       10.730000       59.910000
  H3        54.520000        9.700000       60.020000
  C4        55.919998       11.390000       59.650002
  H4        56.840000       10.900000       59.849998
  C5        55.900002       12.680000       59.060001
  H5        56.759998       13.330000       59.029999
  C1        60.070000       17.000000       58.419998
  C2        60.049999       17.790001       59.540001
  N1        58.779999       16.629999       58.169998
  C3b       57.889999       17.170000       59.139999
  N2        58.730000       17.870001       59.970001
  C4        58.099998       18.540001       61.080002
  C5b       56.889999       17.969999       61.450001
  C6        56.310001       18.410000       62.630001
  H1        55.560001       17.820000       63.000000
  C7        56.880001       19.410000       63.400002
  H2        56.560001       19.530001       64.389999
  C8        58.090000       19.969999       63.060001
  H3        58.720001       20.510000       63.720001
  C9        58.680000       19.540001       61.889999
  H4        59.599998       20.020000       61.619999
  C10       61.259998       18.360001       60.040001
  H5        61.230000       18.639999       61.049999
  C11       62.480000       18.290001       59.380001
  H6        63.380001       18.660000       59.790001
  C12       62.490002       17.520000       58.209999
  H7        63.419998       17.350000       57.740002
  C13       61.299999       16.830000       57.770000
  H8        61.450001       16.120001       56.959999
  C6        58.310001       16.100000       56.950001
  C1        58.000000       17.049999       56.029999
  H1        57.470001       17.910000       56.209999
  C2        58.340000       16.860001       54.700001
  H2        58.220001       17.790001       54.150002
  C3        58.869999       15.560000       54.349998
  H3        59.290001       15.500000       53.340000
  C4        59.090000       14.560000       55.299999
  H4        59.470001       13.590000       55.000000
  C5        58.759998       14.840000       56.599998
  H5        58.639999       14.120000       57.400002
  C1        57.299999       13.220000       62.360001
  C2        55.939999       13.370000       62.470001
  N1        57.669998       14.340000       61.560001
  C3c       56.590000       15.160000       61.220001
  N2        55.490002       14.600000       61.820000
  C4        54.230000       15.370000       61.830002
  C5c       54.209999       16.469999       60.990002
  C6        53.099998       17.389999       61.029999
  H1        53.000000       18.129999       60.189999
  C7        52.000000       17.209999       61.939999
  H2        51.080002       17.730000       61.700001
  C8        52.130001       16.150000       62.930000
  H3        51.340000       16.059999       63.639999
  C9        53.139999       15.220000       62.799999
  H4        53.320000       14.330000       63.419998
  C10       55.189999       12.270000       63.029999
  H5        54.200001       12.360000       63.360001
  C11       55.750000       11.060000       63.220001
  H6        55.110001       10.240000       63.330002
  C12       57.130001       10.860000       63.189999
  H7        57.599998        9.850000       63.259998
  C13       57.910000       11.970000       62.779999
  H8        58.970001       12.040000       63.080002
  C6        59.020000       14.820000       61.669998
  C1        59.400002       15.710000       62.680000
  H1        58.630001       16.219999       63.279999
  C2        60.740002       16.170000       62.689999
  H2        60.970001       16.950001       63.389999
  C3        61.689999       15.820000       61.730000
  H3        62.630001       16.370001       61.700001
  C4        61.310001       14.820000       60.820000
  H4        61.919998       14.680000       59.990002
  C5        60.020000       14.370000       60.750000
  H5        59.660000       13.920000       59.810001
