206
 generated by VMD
  IR        48.560001       15.360000       18.950001
  C1        50.720001       17.950001       21.889999
  C2        49.980000       17.049999       22.600000
  N1        50.380001       17.700001       20.490000
  C3a       49.520000       16.639999       20.370001
  N2        49.270000       16.219999       21.650000
  C4        48.580002       15.070000       21.809999
  C5a       47.889999       14.480000       20.750000
  C6        47.180000       13.270000       20.860001
  H1        46.529999       12.960000       20.040001
  C7        47.029999       12.650000       22.080000
  H2        46.419998       11.790000       22.200001
  C8        47.619999       13.220000       23.219999
  H3        47.700001       12.700000       24.240000
  C9        48.430000       14.390000       23.070000
  H4        49.009998       14.790000       23.870001
  C10       50.080002       17.020000       24.040001
  H5        49.410000       16.549999       24.740000
  C11       50.919998       17.990000       24.650000
  H6        50.990002       18.059999       25.740000
  C12       51.700001       18.930000       23.930000
  H7        52.209999       19.700001       24.480000
  C13       51.599998       18.980000       22.500000
  H8        52.270000       19.520000       21.879999
  C6        50.369999       18.760000       19.559999
  C1        49.480000       19.820000       19.780001
  H1        48.549999       19.620001       20.309999
  C2        49.599998       20.990000       18.980000
  H2        48.889999       21.799999       19.020000
  C3        50.590000       21.100000       18.020000
  H3        50.529999       21.889999       17.290001
  C4        51.509998       20.010000       17.840000
  H4        52.119999       20.040001       16.950001
  C5        51.419998       18.870001       18.620001
  H5        52.209999       18.110001       18.570000
  C1        51.290001       12.000000       18.360001
  C2        50.369999       11.930000       17.330000
  N1        50.930000       13.060000       19.170000
  C3b       49.840000       13.760000       18.629999
  N2        49.490002       13.010000       17.520000
  C4        48.090000       13.110000       17.110001
  C5b       47.369999       14.130000       17.740000
  C6        45.970001       14.170000       17.520000
  H1        45.349998       14.960000       17.920000
  C7        45.310001       13.120000       16.799999
  H2        44.240002       13.130000       16.610001
  C8        46.070000       12.060000       16.260000
  H3        45.590000       11.420000       15.490000
  C9        47.430000       12.090000       16.340000
  H4        47.959999       11.380000       15.840000
  C10       50.500000       11.060000       16.250000
  H5        49.790001       11.130000       15.420000
  C11       51.610001       10.220000       16.230000
  H6        51.889999        9.530000       15.430000
  C12       52.549999       10.210000       17.309999
  H7        53.480000        9.570000       17.200001
  C13       52.369999       11.090000       18.370001
  H8        52.980000       11.120000       19.270000
  C6        51.360001       13.120000       20.549999
  C1        51.009998       12.080000       21.420000
  H1        50.310001       11.300000       21.170000
  C2        51.389999       12.080000       22.760000
  H2        51.060001       11.240000       23.360001
  C3        52.139999       13.140000       23.230000
  H3        52.139999       13.210000       24.340000
  C4        52.450001       14.230000       22.379999
  H4        52.790001       15.150000       22.820000
  C5        52.119999       14.210000       21.000000
  H5        52.189999       15.120000       20.480000
  C1        49.709999       17.820000       15.470000
  C2        48.540001       18.410000       15.900000
  N1        49.959999       16.570000       16.200001
  C3c       48.959999       16.350000       17.180000
  N2        48.080002       17.530001       16.920000
  C4        46.919998       17.510000       17.660000
  C5c       47.049999       16.850000       18.940001
  C6        46.080002       17.049999       19.940001
  H1        46.240002       16.879999       21.010000
  C7        44.990002       17.840000       19.670000
  H2        44.299999       18.070000       20.459999
  C8        44.820000       18.450001       18.430000
  H3        43.970001       19.190001       18.309999
  C9        45.830002       18.340000       17.420000
  H4        45.599998       18.750000       16.410000
  C10       48.230000       19.730000       15.450000
  H5        47.639999       20.360001       16.180000
  C11       48.980000       20.350000       14.460000
  H6        48.720001       21.280001       13.980000
  C12       50.200001       19.760000       14.070000
  H7        50.770000       20.260000       13.320000
  C13       50.560001       18.480000       14.560000
  H8        51.580002       18.209999       14.490000
  C6        51.080002       15.730000       15.940000
  C1        52.029999       15.370000       16.930000
  H1        52.110001       16.020000       17.809999
  C2        53.020000       14.420000       16.639999
  H2        53.869999       14.400000       17.290001
  C3        53.090000       13.840000       15.350000
  H3        53.970001       13.250000       15.130000
  C4        52.090000       14.150000       14.420000
  H4        52.020000       13.800000       13.380000
  C5        51.130001       15.050000       14.710000
  H5        50.259998       15.050000       14.040000
  IR        47.500000       15.500000        7.810000
  C1        45.250000       18.350000       10.310000
  C2        44.500000       17.180000       10.260000
  N1        46.380001       18.129999        9.430000
  C3a       46.360001       16.790001        8.940000
  N2        45.169998       16.190001        9.470000
  C4        44.939999       14.800000        9.170000
  C5a       45.750000       14.400000        8.080000
  C6        45.439999       13.160000        7.480000
  H1        45.990002       12.740000        6.600000
  C7        44.500000       12.330000        8.020000
  H2        44.130001       11.470000        7.410000
  C8        43.820000       12.630000        9.210000
  H3        43.029999       11.980000        9.560000
  C9        43.970001       13.920000        9.750000
  H4        43.320000       14.160000       10.560000
  C10       43.290001       17.120001       11.040000
  H5        42.930000       16.219999       11.450000
  C11       42.880001       18.170000       11.780000
  H6        42.020000       18.190001       12.490000
  C12       43.680000       19.350000       11.830000
  H7        43.410000       20.170000       12.430000
  C13       44.840000       19.410000       11.110000
  H8        45.380001       20.309999       11.110000
  C6        47.299999       19.219999        9.020000
  C1        47.430000       19.540001        7.650000
  H1        46.580002       19.440001        6.980000
  C2        48.560001       20.260000        7.170000
  H2        48.669998       20.490000        6.150000
  C3        49.520000       20.620001        8.110000
  H3        50.490002       21.020000        7.970000
  C4        49.400002       20.389999        9.470000
  H4        50.020000       20.980000       10.140000
  C5        48.320000       19.690001        9.910000
  H5        48.419998       19.410000       10.910000
  C1        49.200001       12.930000       11.020000
  C2        49.380001       12.300000        9.790000
  N1        48.500000       14.170000       10.680000
  C3b       48.299999       14.230000        9.250000
  N2        48.959999       13.200000        8.740000
  C4        49.230000       13.120000        7.380000
  C5b       48.480000       14.020000        6.650000
  C6        48.580002       14.050000        5.220000
  H1        47.930000       14.720000        4.630000
  C7        49.619999       13.350000        4.580000
  H2        49.939999       13.610000        3.590000
  C8        50.400002       12.460000        5.330000
  H3        51.130001       11.880000        4.880000
  C9        50.200001       12.350000        6.740000
  H4        50.970001       11.970000        7.410000
  C10       49.790001       11.010000        9.840000
  H5        50.090000       10.530000        8.950000
  C11       49.919998       10.270000       11.060000
  H6        50.130001        9.190000       10.910000
  C12       49.779999       10.940000       12.280000
  H7        49.740002       10.500000       13.240000
  C13       49.410000       12.290000       12.170000
  H8        49.299999       12.810000       13.100000
  C6        47.959999       15.090000       11.660000
  C1        46.959999       14.650000       12.550000
  H1        46.549999       13.630000       12.540000
  C2        46.400002       15.560000       13.450000
  H2        45.770000       15.200000       14.200000
  C3        46.799999       16.850000       13.440000
  H3        46.320000       17.510000       14.190000
  C4        47.930000       17.270000       12.670000
  H4        48.470001       18.180000       12.850000
  C5        48.459999       16.400000       11.740000
  H5        49.320000       16.629999       11.210000
  C1        50.959999       17.299999        5.930000
  C2        49.939999       17.540001        5.000000
  N1        50.410000       16.709999        7.110000
  C3c       49.029999       16.660000        7.030000
  N2        48.730000       17.219999        5.710000
  C4        47.330002       17.250000        5.370000
  C5c       46.520000       16.450001        6.150000
  C6        45.189999       16.299999        5.800000
  H1        44.520000       15.590000        6.270000
  C7        44.700001       17.000000        4.650000
  H2        43.669998       16.940001        4.470000
  C8        45.490002       17.879999        3.910000
  H3        45.070000       18.629999        3.260000
  C9        46.820000       17.980000        4.280000
  H4        47.360001       18.900000        3.950000
  C10       50.209999       18.090000        3.770000
  H5        49.490002       18.049999        3.010000
  C11       51.520000       18.260000        3.450000
  H6        51.810001       18.660000        2.490000
  C12       52.549999       18.040001        4.350000
  H7        53.610001       18.129999        4.050000
  C13       52.290001       17.520000        5.590000
  H8        52.980000       17.680000        6.360000
  C6        51.150002       16.629999        8.370000
  C1        51.400002       15.410000        9.060000
  H1        51.480000       14.490000        8.510000
  C2        51.810001       15.380000       10.410000
  H2        51.880001       14.430000       10.920000
  C3        51.930000       16.520000       11.140000
  H3        52.400002       16.549999       12.120000
  C4        51.619999       17.760000       10.540000
  H4        51.430000       18.629999       11.120000
  C5        51.290001       17.760000        9.170000
  H5        51.029999       18.660000        8.770000
