206
 generated by VMD
  IR        33.849998       51.320000       47.020000
  C1        34.619999       48.599998       43.730000
  C2        35.860001       48.790001       44.240002
  N1        33.660000       49.349998       44.470001
  C3a       34.299999       50.099998       45.439999
  N2        35.689999       49.770000       45.250000
  C4        36.549999       50.560001       46.080002
  C5a       35.919998       51.520000       46.860001
  C6        36.680000       52.439999       47.540001
  H1        36.220001       53.250000       48.099998
  C7        38.099998       52.439999       47.639999
  H2        38.580002       53.230000       48.290001
  C8        38.720001       51.400002       46.950001
  H3        39.799999       51.110001       47.200001
  C9        37.950001       50.490002       46.160000
  H4        38.450001       49.709999       45.689999
  C10       37.009998       48.200001       43.610001
  H5        37.980000       48.610001       43.830002
  C11       36.779999       47.360001       42.529999
  H6        37.630001       46.919998       42.009998
  C12       35.520000       47.110001       42.060001
  H7        35.320000       46.430000       41.279999
  C13       34.419998       47.740002       42.650002
  H8        33.380001       47.580002       42.389999
  C6        32.209999       49.340000       44.110001
  C1        31.459999       48.299999       44.639999
  H1        32.000000       47.549999       45.270000
  C2        30.059999       48.250000       44.540001
  H2        29.440001       47.419998       44.910000
  C3        29.410000       49.299999       43.830002
  H3        28.299999       49.349998       43.750000
  C4        30.170000       50.320000       43.290001
  H4        29.790001       51.150002       42.770000
  C5        31.590000       50.340000       43.389999
  H5        32.130001       51.099998       42.810001
  C1        35.209999       48.730000       50.400002
  C2        34.919998       49.910000       51.000000
  N1        34.930000       48.820000       49.009998
  C3b       34.389999       50.080002       48.689999
  N2        34.459999       50.770000       49.910000
  C4        34.299999       52.240002       49.900002
  C5b       33.849998       52.730000       48.660000
  C6        33.410000       54.049999       48.540001
  H1        33.029999       54.380001       47.560001
  C7        33.400002       54.860001       49.630001
  H2        33.020000       55.910000       49.680000
  C8        33.939999       54.380001       50.849998
  H3        34.029999       55.060001       51.790001
  C9        34.340000       53.080002       51.009998
  H4        34.669998       52.770000       52.000000
  C10       34.910000       49.990002       52.400002
  H5        34.880001       50.930000       52.980000
  C11       35.099998       48.820000       53.160000
  H6        35.000000       48.980000       54.220001
  C12       35.389999       47.599998       52.540001
  H7        35.290001       46.759998       53.049999
  C13       35.430000       47.590000       51.150002
  H8        35.430000       46.520000       50.740002
  C6        35.259998       47.740002       48.130001
  C1        34.220001       47.200001       47.369999
  H1        33.410000       47.860001       47.200001
  C2        34.419998       46.060001       46.630001
  H2        33.660000       45.689999       45.939999
  C3        35.689999       45.459999       46.549999
  H3        35.740002       44.459999       46.180000
  C4        36.759998       46.049999       47.250000
  H4        37.680000       45.669998       47.310001
  C5        36.580002       47.230000       48.040001
  H5        37.360001       47.820000       48.400002
  C1        29.549999       51.369999       47.119999
  C2        29.870001       52.509998       46.279999
  N1        30.709999       50.779999       47.490002
  C3c       31.790001       51.419998       47.009998
  N2        31.309999       52.529999       46.209999
  C4        32.209999       53.049999       45.290001
  C5c       33.549999       52.750000       45.480000
  C6        34.500000       53.220001       44.560001
  H1        35.590000       53.009998       44.730000
  C7        34.200001       54.029999       43.459999
  H2        35.049999       54.209999       42.740002
  C8        32.860001       54.360001       43.259998
  H3        32.689999       55.180000       42.619999
  C9        31.850000       53.880001       44.130001
  H4        30.959999       54.509998       44.169998
  C10       28.860001       53.259998       45.630001
  H5        29.030001       54.320000       45.240002
  C11       27.520000       52.820000       45.709999
  H6        26.780001       53.430000       45.169998
  C12       27.209999       51.669998       46.470001
  H7        26.120001       51.500000       46.660000
  C13       28.190001       50.970001       47.209999
  H8        27.950001       50.189999       47.840000
  C6        30.760000       49.930000       48.680000
  C1        31.000000       50.590000       49.869999
  H1        31.080000       51.650002       49.919998
  C2        31.180000       49.820000       51.020000
  H2        31.180000       50.209999       52.020000
  C3        31.209999       48.410000       50.990002
  H3        31.660000       47.889999       51.770000
  C4        31.030001       47.759998       49.759998
  H4        30.719999       46.740002       49.709999
  C5        30.780001       48.580002       48.630001
  H5        30.809999       48.160000       47.580002
  IR        25.250000       57.720001       50.810001
  C1        25.700001       61.700001       49.209999
  C2        26.049999       60.930000       48.139999
  N1        25.410000       60.919998       50.320000
  C3a       25.540001       59.610001       50.009998
  N2        26.059999       59.610001       48.689999
  C4        26.260000       58.299999       48.119999
  C5a       25.610001       57.290001       48.759998
  C6        25.559999       56.009998       48.180000
  H1        25.389999       55.139999       48.700001
  C7        26.150000       55.820000       46.939999
  H2        25.959999       54.900002       46.400002
  C8        26.840000       56.830002       46.310001
  H3        27.330000       56.660000       45.349998
  C9        26.879999       58.060001       46.889999
  H4        27.629999       58.790001       46.570000
  C10       26.200001       61.480000       46.880001
  H5        26.290001       60.750000       46.029999
  C11       25.879999       62.840000       46.750000
  H6        25.940001       63.220001       45.730000
  C12       25.639999       63.570000       47.910000
  H7        25.740000       64.660004       47.889999
  C13       25.480000       63.020000       49.160000
  H8        25.010000       63.599998       49.950001
  C6        25.100000       61.459999       51.700001
  C1        26.070000       61.779999       52.650002
  H1        27.049999       61.709999       52.330002
  C2        25.709999       62.290001       53.880001
  H2        26.570000       62.270000       54.650002
  C3        24.389999       62.480000       54.279999
  H3        24.139999       62.799999       55.279999
  C4        23.350000       62.160000       53.340000
  H4        22.309999       62.180000       53.599998
  C5        23.760000       61.680000       52.099998
  H5        22.940001       61.459999       51.439999
  C1        20.980000       57.139999       50.230000
  C2        21.260000       56.110001       51.060001
  N1        22.190001       57.779999       49.799999
  C3b       23.280001       57.180000       50.410000
  N2        22.740000       56.080002       51.040001
  C4        23.770000       55.200001       51.520000
  C5b       25.100000       55.639999       51.299999
  C6        26.120001       54.660000       51.470001
  H1        27.230000       54.869999       51.490002
  C7        25.860001       53.299999       51.720001
  H2        26.709999       52.580002       51.759998
  C8        24.520000       52.840000       51.840000
  H3        24.330000       51.750000       51.930000
  C9        23.510000       53.840000       51.889999
  H4        22.520000       53.619999       52.259998
  C10       20.190001       55.330002       51.650002
  H5        20.639999       54.560001       52.259998
  C11       18.889999       55.820000       51.549999
  H6        18.090000       55.410000       52.090000
  C12       18.620001       56.880001       50.730000
  H7        17.620001       57.000000       50.500000
  C13       19.680000       57.549999       50.029999
  H8        19.520000       58.560001       49.680000
  C6        22.150000       58.980000       48.939999
  C1        22.660000       59.009998       47.619999
  H1        22.799999       58.110001       47.110001
  C2        22.980000       60.310001       47.060001
  H2        23.650000       60.240002       46.189999
  C3        22.590000       61.540001       47.590000
  H3        22.690001       62.459999       47.009998
  C4        22.030001       61.480000       48.900002
  H4        22.250000       62.330002       49.540001
  C5        21.809999       60.220001       49.549999
  H5        21.549999       60.310001       50.540001
  C1        25.389999       58.900002       55.000000
  C2        26.680000       59.049999       54.580002
  N1        24.700001       58.299999       53.950001
  C3c       25.450001       58.189999       52.840000
  N2        26.680000       58.669998       53.250000
  C4        27.750000       58.430000       52.330002
  C5c       27.389999       57.750000       51.119999
  C6        28.440001       57.099998       50.400002
  H1        28.160000       56.330002       49.680000
  C7        29.770000       57.090000       50.840000
  H2        30.440001       56.380001       50.439999
  C8        30.160000       57.849998       51.939999
  H3        31.190001       58.160000       52.119999
  C9        29.129999       58.509998       52.709999
  H4        29.410000       59.270000       53.459999
  C10       27.670000       59.360001       55.520000
  H5        28.680000       59.040001       55.310001
  C11       27.360001       59.560001       56.860001
  H6        28.120001       59.970001       57.470001
  C12       26.040001       59.419998       57.279999
  H7        25.680000       59.500000       58.340000
  C13       25.080000       59.070000       56.320000
  H8        24.150000       58.790001       56.700001
  C6        23.340000       57.590000       54.090000
  C1        23.309999       56.490002       54.849998
  H1        24.049999       55.730000       54.810001
  C2        22.120001       56.150002       55.480000
  H2        22.209999       55.360001       56.160000
  C3        20.900000       56.840000       55.200001
  H3        19.950001       56.520000       55.599998
  C4        20.959999       57.970001       54.380001
  H4        20.270000       58.709999       54.560001
  C5        22.190001       58.340000       53.830002
  H5        22.209999       59.160000       53.160000
