206
 generated by VMD
  IR        38.480000       16.750000       55.349998
  C1        42.610001       17.740000       54.320000
  C2        41.930000       17.639999       53.099998
  N1        41.700001       17.350000       55.310001
  C3a       40.389999       17.160000       54.779999
  N2        40.549999       17.360001       53.389999
  C4        39.389999       17.260000       52.610001
  C5a       38.209999       17.260000       53.320000
  C6        37.000000       17.510000       52.709999
  H1        36.110001       17.719999       53.259998
  C7        36.910000       17.719999       51.330002
  H2        36.000000       17.809999       50.849998
  C8        38.060001       17.600000       50.509998
  H3        38.080002       17.379999       49.400002
  C9        39.360001       17.469999       51.180000
  H4        40.299999       17.400000       50.619999
  C10       42.709999       17.830000       51.950001
  H5        42.189999       17.969999       50.950001
  C11       44.070000       18.160000       51.939999
  H6        44.599998       18.090000       51.090000
  C12       44.639999       18.330000       53.180000
  H7        45.599998       18.700001       53.189999
  C13       43.900002       18.120001       54.360001
  H8        44.299999       18.250000       55.360001
  C6        42.150002       16.680000       56.509998
  C1        42.810001       15.410000       56.310001
  H1        43.070000       15.060000       55.299999
  C2        43.310001       14.840000       57.509998
  H2        43.509998       13.830000       57.580002
  C3        43.240002       15.500000       58.759998
  H3        43.660000       15.030000       59.630001
  C4        42.700001       16.760000       58.849998
  H4        42.529999       17.219999       59.820000
  C5        42.090000       17.340000       57.720001
  H5        41.950001       18.389999       57.630001
  C1        36.849998       20.680000       55.029999
  C2        35.740002       19.920000       55.279999
  N1        37.980000       19.879999       55.430000
  C3b       37.570000       18.590000       55.740002
  N2        36.220001       18.590000       55.709999
  C4        35.610001       17.330000       55.980000
  C5b       36.450001       16.219999       55.680000
  C6        35.950001       14.940000       55.889999
  H1        36.630001       14.090000       55.799999
  C7        34.720001       14.790000       56.430000
  H2        34.160000       13.850000       56.500000
  C8        33.900002       15.910000       56.759998
  H3        32.939999       15.770000       57.180000
  C9        34.369999       17.209999       56.470001
  H4        33.599998       17.990000       56.580002
  C10       34.459999       20.450001       55.049999
  H5        33.599998       19.780001       55.290001
  C11       34.320000       21.760000       54.590000
  H6        33.310001       22.010000       54.240002
  C12       35.439999       22.530001       54.279999
  H7        35.480000       23.520000       53.779999
  C13       36.730000       21.990000       54.580002
  H8        37.570000       22.650000       54.310001
  C6        39.299999       20.459999       55.849998
  C1        39.419998       21.030001       57.130001
  H1        38.610001       21.340000       57.689999
  C2        40.630001       21.620001       57.480000
  H2        40.759998       21.860001       58.480000
  C3        41.680000       21.760000       56.570000
  H3        42.669998       22.049999       56.889999
  C4        41.549999       21.250000       55.279999
  H4        42.400002       21.030001       54.619999
  C5        40.349998       20.590000       54.889999
  H5        40.400002       19.980000       54.040001
  C1        39.340000       15.270000       59.400002
  C2        39.770000       14.300000       58.520000
  N1        38.669998       16.209999       58.549999
  C3c       38.820000       15.910000       57.220001
  N2        39.459999       14.680000       57.220001
  C4        39.759998       14.140000       55.930000
  C5c       39.000000       14.790000       54.939999
  C6        38.910000       14.190000       53.660000
  H1        38.119999       14.430000       52.939999
  C7        39.590000       13.030000       53.369999
  H2        39.360001       12.580000       52.419998
  C8        40.330002       12.310000       54.340000
  H3        40.900002       11.500000       53.990002
  C9        40.470001       12.890000       55.599998
  H4        41.169998       12.460000       56.360001
  C10       40.529999       13.180000       59.000000
  H5        40.430000       12.230000       58.459999
  C11       40.930000       13.170000       60.349998
  H6        41.720001       12.480000       60.619999
  C12       40.430000       14.110000       61.230000
  H7        40.610001       14.050000       62.299999
  C13       39.570000       15.170000       60.759998
  H8        39.340000       15.940000       61.480000
  C6        38.180000       17.430000       59.180000
  C1        39.110001       18.350000       59.709999
  H1        40.160000       18.250000       59.689999
  C2        38.660000       19.600000       60.139999
  H2        39.320000       20.410000       60.310001
  C3        37.279999       19.920000       60.009998
  H3        36.930000       20.740000       60.610001
  C4        36.389999       19.010000       59.570000
  H4        35.369999       19.330000       59.480000
  C5        36.810001       17.730000       59.139999
  H5        35.959999       17.090000       58.830002
  IR        35.880001        7.680000       59.369999
  C1        38.490002        8.710000       62.799999
  C2        38.230000        9.900000       62.090000
  N1        37.919998        7.750000       61.970001
  C3a       37.240002        8.270000       60.810001
  N2        37.400002        9.610000       60.990002
  C4        36.540001       10.480000       60.160000
  C5a       35.459999        9.770000       59.509998
  C6        34.410000       10.490000       58.860001
  H1        33.820000        9.990000       58.160000
  C7        34.419998       11.890000       58.840000
  H2        33.619999       12.440000       58.380001
  C8        35.529999       12.540000       59.360001
  H3        35.610001       13.680000       59.230000
  C9        36.599998       11.880000       59.980000
  H4        37.570000       12.430000       59.959999
  C10       38.759998       11.070000       62.590000
  H5        38.480000       12.020000       62.209999
  C11       39.639999       11.090000       63.709999
  H6        40.009998       12.050000       64.089996
  C12       39.869999        9.920000       64.449997
  H7        40.340000       10.050000       65.349998
  C13       39.290001        8.770000       63.930000
  H8        39.680000        7.840000       64.349998
  C6        38.500000        6.430000       62.009998
  C1        38.230000        5.660000       63.169998
  H1        37.410000        5.930000       63.810001
  C2        38.889999        4.410000       63.310001
  H2        38.610001        3.720000       64.089996
  C3        39.599998        3.880000       62.230000
  H3        39.939999        2.810000       62.259998
  C4        39.849998        4.580000       61.020000
  H4        40.090000        4.100000       60.049999
  C5        39.290001        5.880000       60.970001
  H5        39.470001        6.470000       60.060001
  C1        32.189999        7.140000       61.580002
  C2        31.770000        7.140000       60.279999
  N1        33.549999        7.370000       61.660000
  C3b       34.080002        7.450000       60.389999
  N2        32.950001        7.370000       59.560001
  C4        33.119999        7.410000       58.180000
  C5b       34.470001        7.390000       57.790001
  C6        34.840000        7.120000       56.450001
  H1        35.880001        7.240000       56.169998
  C7        33.849998        6.900000       55.500000
  H2        34.060001        6.820000       54.430000
  C8        32.500000        7.060000       55.860001
  H3        31.709999        7.090000       55.110001
  C9        32.080002        7.280000       57.150002
  H4        31.070000        7.600000       57.330002
  C10       30.379999        6.830000       59.970001
  H5        29.870001        7.200000       59.060001
  C11       29.469999        6.430000       61.020000
  H6        28.559999        5.870000       60.810001
  C12       29.940001        6.600000       62.340000
  H7        29.250000        6.500000       63.130001
  C13       31.219999        6.970000       62.590000
  H8        31.590000        6.890000       63.650002
  C6        34.099998        8.160000       62.700001
  C1        34.310001        9.580000       62.580002
  H1        33.919998       10.110000       61.720001
  C2        35.150002       10.250000       63.540001
  H2        35.450001       11.270000       63.480000
  C3        35.750000        9.510000       64.570000
  H3        36.650002        9.810000       65.120003
  C4        35.470001        8.130000       64.690002
  H4        35.939999        7.540000       65.410004
  C5        34.680000        7.450000       63.750000
  H5        34.509998        6.370000       63.869999
  C1        37.389999        3.560000       58.950001
  C2        37.910000        4.270000       57.869999
  N1        36.590000        4.490000       59.709999
  C3c       36.580002        5.760000       59.090000
  N2        37.459999        5.650000       58.040001
  C4        38.110001        6.840000       57.610001
  C5c       37.410000        7.980000       57.900002
  C6        37.849998        9.170000       57.380001
  H1        37.209999       10.070000       57.410000
  C7        39.000000        9.290000       56.630001
  H2        39.330002       10.240000       56.410000
  C8        39.709999        8.180000       56.360001
  H3        40.590000        8.200000       55.700001
  C9        39.310001        6.960000       56.900002
  H4        39.930000        6.090000       56.900002
  C10       38.810001        3.650000       57.000000
  H5        39.220001        4.100000       56.080002
  C11       39.160000        2.350000       57.330002
  H6        39.919998        1.940000       56.669998
  C12       38.599998        1.630000       58.380001
  H7        39.110001        0.740000       58.779999
  C13       37.709999        2.270000       59.230000
  H8        37.139999        1.800000       60.000000
  C6        35.570000        3.890000       60.509998
  C1        34.240002        4.210000       60.220001
  H1        34.009998        4.730000       59.270000
  C2        33.279999        3.900000       61.209999
  H2        32.310001        3.920000       60.860001
  C3        33.590000        3.370000       62.439999
  H3        32.779999        3.200000       63.209999
  C4        34.900002        3.060000       62.770000
  H4        35.060001        2.390000       63.619999
  C5        35.930000        3.290000       61.759998
  H5        36.830002        2.760000       61.880001
