206
 generated by VMD
  IR        41.689999       26.510000       52.820000
  C1        43.990002       27.820000       49.349998
  C2        43.520000       26.540001       49.029999
  N1        43.560001       28.040001       50.599998
  C3a       42.840000       27.010000       51.150002
  N2        42.959999       26.040001       50.200001
  C4        42.750000       24.690001       50.730000
  C5a       41.790001       24.700001       51.790001
  C6        41.459999       23.410000       52.250000
  H1        40.849998       23.270000       53.180000
  C7        41.930000       22.190001       51.759998
  H2        41.450001       21.230000       51.900002
  C8        42.930000       22.200001       50.790001
  H3        43.509998       21.340000       50.580002
  C9        43.360001       23.430000       50.250000
  H4        44.310001       23.520000       49.740002
  C10       43.799999       25.980000       47.759998
  H5        43.060001       25.379999       47.310001
  C11       44.680000       26.580000       46.880001
  H6        45.020000       26.040001       46.040001
  C12       45.180000       27.850000       47.180000
  H7        46.110001       28.150000       46.860001
  C13       44.799999       28.510000       48.400002
  H8        45.150002       29.480000       48.639999
  C6        43.830002       29.350000       51.150002
  C1        42.910000       30.340000       50.830002
  H1        42.160000       30.209999       50.080002
  C2        43.270000       31.639999       51.259998
  H2        42.540001       32.360001       51.009998
  C3        44.500000       31.930000       51.860001
  H3        44.619999       32.849998       52.369999
  C4        45.410000       30.930000       52.110001
  H4        46.439999       31.100000       52.220001
  C5        45.029999       29.629999       51.810001
  H5        45.689999       28.709999       52.049999
  C1        37.700001       26.680000       51.130001
  C2        37.450001       26.450001       52.480000
  N1        39.090000       26.820000       50.900002
  C3b       39.759998       26.540001       52.060001
  N2        38.709999       26.299999       53.070000
  C4        39.200001       26.049999       54.450001
  C5b       40.590000       25.790001       54.490002
  C6        41.090000       25.230000       55.709999
  H1        42.130001       25.100000       55.810001
  C7        40.220001       25.030001       56.820000
  H2        40.660000       24.670000       57.730000
  C8        38.880001       25.430000       56.840000
  H3        38.220001       25.219999       57.570000
  C9        38.410000       25.940001       55.619999
  H4        37.439999       26.420000       55.669998
  C10       36.119999       26.350000       52.959999
  H5        36.110001       26.180000       54.009998
  C11       35.049999       26.530001       52.130001
  H6        34.060001       26.299999       52.500000
  C12       35.299999       26.790001       50.799999
  H7        34.470001       27.070000       50.150002
  C13       36.630001       26.830000       50.320000
  H8        36.900002       27.340000       49.380001
  C6        39.660000       26.850000       49.619999
  C1        39.849998       25.639999       48.970001
  H1        39.900002       24.719999       49.490002
  C2        40.169998       25.709999       47.549999
  H2        40.200001       24.860001       46.990002
  C3        40.400002       26.930000       46.950001
  H3        40.730000       27.080000       45.910000
  C4        40.299999       28.139999       47.660000
  H4        40.220001       29.110001       47.189999
  C5        39.980000       28.059999       49.070000
  H5        39.889999       28.860001       49.750000
  C1        42.250000       30.320000       54.599998
  C2        43.380001       29.620001       54.910000
  N1        41.369999       29.400000       54.000000
  C3c       41.889999       28.200001       53.950001
  N2        43.130001       28.280001       54.529999
  C4        43.930000       27.150000       54.580002
  C5c       43.529999       26.139999       53.700001
  C6        44.139999       24.900000       53.880001
  H1        44.090000       24.250000       53.099998
  C7        44.990002       24.570000       54.910000
  H2        45.360001       23.520000       55.139999
  C8        45.290001       25.510000       55.919998
  H3        45.720001       25.110001       56.810001
  C9        44.860001       26.840000       55.700001
  H4        45.290001       27.520000       56.400002
  C10       44.509998       30.230000       55.540001
  H5        45.430000       29.740000       55.790001
  C11       44.290001       31.549999       55.950001
  H6        45.139999       32.000000       56.450001
  C12       43.049999       32.240002       55.740002
  H7        42.810001       33.130001       56.349998
  C13       42.060001       31.660000       54.990002
  H8        41.200001       32.240002       54.720001
  C6        40.000000       29.620001       53.619999
  C1        39.880001       29.959999       52.330002
  H1        40.720001       30.260000       51.770000
  C2        38.610001       30.270000       51.849998
  H2        38.380001       29.990000       50.840000
  C3        37.529999       30.440001       52.680000
  H3        36.570000       30.790001       52.349998
  C4        37.650002       29.969999       53.980000
  H4        36.849998       30.070000       54.770000
  C5        38.860001       29.510000       54.500000
  H5        38.910000       29.160000       55.529999
  IR        47.410000       12.690000       49.740002
  C1        45.919998        9.000000       48.090000
  C2        47.240002        8.960000       47.680000
  N1        45.680000       10.320000       48.560001
  C3a       46.750000       11.100000       48.590000
  N2        47.740002       10.270000       48.060001
  C4        48.990002       10.920000       47.880001
  C5a       49.200001       12.020000       48.820000
  C6        50.509998       12.460000       49.009998
  H1        50.730000       13.200000       49.740002
  C7        51.549999       11.950000       48.250000
  H2        52.509998       12.450000       48.349998
  C8        51.320000       10.960000       47.290001
  H3        52.110001       10.750000       46.540001
  C9        50.029999       10.400000       47.110001
  H4        49.919998        9.650000       46.369999
  C10       47.849998        7.740000       47.250000
  H5        48.830002        7.400000       47.560001
  C11       46.990002        6.680000       47.029999
  H6        47.439999        5.770000       46.599998
  C12       45.610001        6.750000       47.360001
  H7        45.070000        5.890000       47.099998
  C13       45.009998        7.890000       47.950001
  H8        44.020000        7.950000       48.200001
  C6        44.330002       10.730000       48.770000
  C1        43.820000       10.500000       50.060001
  H1        44.459999       10.360000       50.860001
  C2        42.490002       10.660000       50.270000
  H2        42.110001       10.700000       51.310001
  C3        41.619999       10.980000       49.270000
  H3        40.570000       11.170000       49.450001
  C4        42.049999       11.240000       47.970001
  H4        41.529999       11.870000       47.310001
  C5        43.439999       11.110000       47.720001
  H5        43.799999       11.330000       46.720001
  C1        48.480000       10.830000       53.509998
  C2        49.240002       11.960000       53.540001
  N1        47.820000       10.670000       52.299999
  C3b       48.110001       11.810000       51.470001
  N2        48.980000       12.620000       52.270000
  C4        49.070000       14.040000       51.889999
  C5b       48.490002       14.330000       50.630001
  C6        48.619999       15.690000       50.169998
  H1        48.160000       15.910000       49.270000
  C7        49.200001       16.700001       51.009998
  H2        49.549999       17.540001       50.380001
  C8        49.680000       16.410000       52.279999
  H3        50.000000       17.250000       52.869999
  C9        49.630001       15.080000       52.709999
  H4        50.310001       14.760000       53.459999
  C10       50.000000       12.260000       54.680000
  H5        50.730000       12.950000       54.529999
  C11       50.029999       11.360000       55.779999
  H6        50.570000       11.550000       56.669998
  C12       49.240002       10.190000       55.730000
  H7        49.389999        9.410000       56.470001
  C13       48.490002       10.040000       54.599998
  H8        47.680000        9.280000       54.759998
  C6        47.590000        9.290000       51.750000
  C1        46.389999        8.660000       52.070000
  H1        45.480000        9.170000       52.380001
  C2        46.240002        7.320000       51.650002
  H2        45.259998        6.850000       51.830002
  C3        47.250000        6.620000       50.930000
  H3        47.230000        5.540000       50.889999
  C4        48.400002        7.280000       50.570000
  H4        49.130001        6.750000       50.049999
  C5        48.599998        8.620000       51.029999
  H5        49.459999        9.160000       50.700001
  C1        43.459999       14.160000       50.790001
  C2        43.529999       14.260000       49.419998
  N1        44.669998       13.690000       51.310001
  C3c       45.619999       13.580000       50.240002
  N2        44.840000       13.910000       49.080002
  C4        45.590000       14.120000       47.860001
  C5c       46.910000       13.700000       47.919998
  C6        47.730000       13.910000       46.810001
  H1        48.730000       13.640000       46.910000
  C7        47.169998       14.450000       45.619999
  H2        47.869999       14.650000       44.810001
  C8        45.840000       14.880000       45.470001
  H3        45.490002       15.160000       44.480000
  C9        45.080002       14.740000       46.599998
  H4        44.080002       15.160000       46.480000
  C10       42.349998       14.470000       48.700001
  H5        42.340000       14.660000       47.650002
  C11       41.090000       14.590000       49.310001
  H6        40.189999       14.520000       48.740002
  C12       41.099998       14.640000       50.709999
  H7        40.209999       14.630000       51.340000
  C13       42.250000       14.380000       51.439999
  H8        42.139999       14.550000       52.490002
  C6        45.000000       13.830000       52.689999
  C1        45.750000       14.770000       53.340000
  H1        46.080002       15.650000       52.840000
  C2        46.130001       14.660000       54.700001
  H2        46.689999       15.410000       55.209999
  C3        45.910000       13.490000       55.360001
  H3        46.459999       13.350000       56.340000
  C4        45.360001       12.430000       54.650002
  H4        45.520000       11.410000       54.970001
  C5        44.849998       12.630000       53.340000
  H5        44.169998       11.930000       52.919998
