206
 generated by VMD
 Ir       61.685123       25.438740     -119.233093
 C        59.493271       24.724270     -115.583344
 C        60.749695       24.275002     -115.310501
 N        59.508987       25.295959     -116.841568
 C        60.784241       25.186153     -117.420662
 N        61.513084       24.483021     -116.482529
 C        62.954834       24.556370     -116.716759
 C        63.282562       24.725086     -118.056580
 C        64.636780       24.640533     -118.419281
 H        64.821815       24.526894     -119.464287
 C        65.652939       24.479408     -117.444046
 H        66.664635       24.469864     -117.727036
 C        65.291794       24.307541     -116.128166
 H        66.046936       24.197746     -115.296600
 C        64.001350       24.353085     -115.740753
 H        63.779526       24.462067     -114.668831
 C        61.020561       23.725258     -114.020760
 H        62.009209       23.324314     -113.789864
 C        60.027843       23.668449     -113.058113
 H        60.274483       23.416691     -112.028610
 C        58.729103       24.108322     -113.345856
 H        57.855564       23.866779     -112.779907
 C        58.500343       24.681511     -114.622269
 H        57.576889       25.137169     -114.817711
 C        58.382927       26.129341     -117.196640
 C        57.346912       25.533287     -117.939941
 H        57.425911       24.393124     -118.029327
 C        56.211655       26.276180     -118.211777
 H        55.458275       25.886501     -118.800400
 C        56.025330       27.490295     -117.635750
 H        55.105122       28.041248     -117.806534
 C        56.995911       28.091160     -116.776718
 H        56.744843       28.966328     -116.232712
 C        58.244946       27.363743     -116.636459
 H        58.937187       27.655193     -115.899467
 C        63.909096       29.131435     -118.889496
 C        63.975670       28.770683     -120.221054
 N        63.015511       28.229362     -118.246094
 C        62.513191       27.345844     -119.149178
 N        63.074112       27.691170     -120.403381
 C        63.020828       26.757526     -121.496346
 C        62.784332       25.435192     -121.071358
 C        62.901405       24.420532     -122.019707
 H        62.846916       23.405807     -121.667915
 C        63.234741       24.756313     -123.393555
 H        63.310539       23.979294     -124.119354
 C        63.375969       26.067749     -123.776031
 H        63.304115       26.252323     -124.856850
 C        63.269012       27.068356     -122.827431
 H        62.994347       27.986057     -123.304276
 C        64.992783       29.382133     -120.998543
 H        65.016449       29.243393     -122.119919
 C        65.877319       30.355835     -120.486183
 H        66.679268       30.450375     -121.212646
 C        65.629944       30.855465     -119.225487
 H        66.010559       31.817886     -118.939697
 C        64.664452       30.167511     -118.438950
 H        64.679131       30.310837     -117.409271
 C        62.431091       28.472870     -116.940651
 C        63.343887       28.430489     -115.907837
 H        64.354080       28.100864     -116.125656
 C        63.056442       29.104855     -114.798004
 H        63.738541       28.863838     -113.985008
 C        61.915375       29.865414     -114.654816
 H        61.735420       30.350609     -113.724335
 C        60.953922       29.867287     -115.597679
 H        60.081562       30.346916     -115.328896
 C        61.164413       29.136631     -116.755585
 H        60.528976       29.238533     -117.673813
 C        58.019409       26.099098     -121.638138
 C        58.224525       24.704620     -121.535927
 N        59.147842       26.646675     -120.958946
 C        60.020317       25.675991     -120.461594
 N        59.392941       24.469765     -120.859489
 C        60.044098       23.294285     -120.510735
 C        61.122669       23.418896     -119.597626
 C        61.741112       22.213802     -119.190948
 H        62.245842       22.046291     -118.269608
 C        61.466606       20.987061     -119.819641
 H        62.115326       20.145412     -119.795456
 C        60.440662       20.907768     -120.716103
 H        60.277382       19.956089     -121.189659
 C        59.743404       22.036430     -121.031960
 H        59.109306       21.941654     -121.863487
 C        57.160286       23.879272     -122.034218
 H        57.141224       22.876640     -122.025780
 C        55.946991       24.492374     -122.438965
 H        55.226433       23.955925     -123.008110
 C        55.836708       25.843269     -122.433907
 H        54.954929       26.243832     -123.001816
 C        56.895554       26.698147     -122.053085
 H        56.875671       27.756920     -122.127342
 C        59.458389       28.011395     -121.204704
 C        59.725777       28.428413     -122.543175
 H        59.838978       27.741955     -123.291344
 C        59.896088       29.827480     -122.781525
 H        59.826653       30.227596     -123.844017
 C        59.860466       30.717312     -121.750832
 H        60.139580       31.711975     -121.929001
 C        59.552200       30.320583     -120.416458
 H        59.182648       31.036728     -119.623505
 C        59.432068       28.943386     -120.180016
 H        59.022388       28.530571     -119.232361
 Ir       61.685127       25.438740     -107.218697
 C        58.039639       24.383110     -109.317184
 C        58.684105       23.177715     -109.172287
 N        58.813576       25.356884     -108.725677
 C        60.029305       24.831261     -108.302444
 N        59.964260       23.498775     -108.566383
 C        61.141014       22.757462     -108.285835
 C        61.979721       23.392746     -107.355896
 C        62.862541       22.583191     -106.626968
 H        63.234627       22.988804     -105.717171
 C        63.003044       21.241314     -106.938461
 H        63.753021       20.637608     -106.452179
 C        62.268280       20.637222     -107.921516
 H        62.630508       19.682686     -108.234329
 C        61.317177       21.392212     -108.556320
 H        60.968918       21.009972     -109.514969
 C        58.051704       22.018387     -109.531769
 H        58.493809       21.091213     -109.162048
 C        56.768318       22.001923     -110.085632
 H        56.427101       21.120441     -110.608276
 C        56.077965       23.210476     -110.196136
 H        55.187851       23.208218     -110.674255
 C        56.744389       24.394829     -109.808083
 H        56.173538       25.334854     -109.853676
 C        58.563484       26.689960     -109.245636
 C        59.190636       26.955698     -110.456490
 H        59.712952       26.196037     -111.085213
 C        58.848915       28.155828     -111.135918
 H        59.050560       28.282757     -112.131416
 C        58.047329       29.155983     -110.483261
 H        57.608891       29.979664     -111.207779
 C        57.509285       28.920006     -109.208572
 H        56.684616       29.507561     -108.807579
 C        57.739014       27.644798     -108.613541
 H        57.403610       27.406940     -107.638077
 C        60.590183       24.504749     -103.128845
 C        61.860313       24.895554     -102.981667
 N        60.097389       24.681202     -104.418808
 C        61.077316       25.188038     -105.172379
 N        62.153229       25.367287     -104.279465
 C        63.407021       25.833839     -104.791824
 C        63.534195       25.629185     -106.199287
 C        64.698067       26.058163     -106.781677
 H        65.075974       25.616777     -107.664261
 C        65.741730       26.808807     -106.056900
 H        66.759155       26.936565     -106.449493
 C        65.521667       26.946270     -104.665466
 H        66.146027       27.640396     -104.137390
 C        64.367928       26.439209     -104.082748
 H        64.167572       26.435757     -103.000916
 C        62.470848       24.739391     -101.716690
 H        63.574135       24.844233     -101.687393
 C        61.771996       24.292381     -100.590683
 H        62.167496       24.410753      -99.579666
 C        60.456375       23.940659     -100.700401
 H        59.982494       23.341684     -100.010284
 C        59.885918       24.004681     -101.967407
 H        58.963219       23.457708     -102.157028
 C        58.787056       24.305655     -104.871025
 C        57.983479       25.352770     -105.457886
 H        58.386951       26.381927     -105.534348
 C        56.754128       25.011414     -106.061020
 H        56.144028       25.752655     -106.480835
 C        56.325188       23.689981     -106.177757
 H        55.547684       23.403339     -106.796394
 C        57.100655       22.658497     -105.574600
 H        56.687317       21.690517     -105.266937
 C        58.304150       22.988956     -104.938126
 H        58.967888       22.286795     -104.493919
 C        62.573830       29.696362     -107.057350
 C        62.858803       29.337269     -108.338928
 N        61.762146       28.659916     -106.481277
 C        61.781410       27.512611     -107.329941
 N        62.362423       27.987652     -108.508186
 C        62.415428       27.074375     -109.560043
 C        62.570488       25.734909     -109.148849
 C        62.975471       24.820202     -110.132111
 H        63.095764       23.802319     -109.831703
 C        63.128502       25.218437     -111.496437
 H        63.596756       24.511833     -112.152756
 C        62.899559       26.482899     -111.932465
 H        63.010017       26.784634     -113.007523
 C        62.524719       27.433525     -110.950066
 H        62.188084       28.373249     -111.284874
 C        63.598686       30.240768     -109.077080
 H        63.917328       29.931953     -110.103241
 C        63.960411       31.498547     -108.628479
 H        64.249344       32.370857     -109.267769
 C        63.743698       31.829609     -107.288116
 H        64.362137       32.611137     -106.805054
 C        63.070236       30.960533     -106.505211
 H        62.715736       31.242741     -105.521545
 C        60.922138       28.943781     -105.354866
 C        59.581013       29.147896     -105.581604
 H        59.173435       29.007729     -106.531151
 C        58.742744       29.481659     -104.518494
 H        57.715378       29.650002     -104.660515
 C        59.340988       29.445820     -103.193756
 H        58.668716       29.340534     -102.325272
 C        60.680290       29.176098     -102.980881
 H        61.080803       29.375633     -102.008423
 C        61.566891       28.926655     -104.059914
 H        62.517487       28.733433     -103.811646
