206
 generated by VMD
 Ir      -79.338486      -64.977509     -118.569717
 C       -82.693748      -63.552841     -116.134422
 C       -83.265869      -64.460289     -117.029198
 N       -81.332748      -63.488567     -116.472260
 C       -80.977753      -64.228195     -117.556480
 N       -82.211945      -64.841843     -117.864876
 C       -82.217514      -65.644196     -119.018814
 C       -80.970451      -65.816040     -119.633553
 C       -80.843712      -66.531837     -120.898407
 H       -79.959236      -66.528038     -121.551628
 C       -81.968117      -67.271820     -121.336731
 H       -81.771225      -67.974480     -122.095627
 C       -83.174744      -67.146088     -120.643005
 H       -84.086502      -67.526962     -121.173111
 C       -83.377304      -66.307823     -119.523590
 H       -84.389816      -66.060944     -119.248482
 C       -84.632317      -64.615952     -117.002670
 H       -85.165665      -64.997620     -117.851059
 C       -85.456947      -63.968956     -116.071289
 H       -86.465134      -64.025452     -116.317200
 C       -84.886169      -63.184509     -115.070358
 H       -85.540985      -62.695068     -114.353310
 C       -83.496574      -62.898598     -115.141632
 H       -83.001221      -62.193085     -114.413986
 C       -80.431702      -62.480076     -115.978134
 C       -80.036758      -61.427582     -116.844879
 H       -80.474823      -61.247421     -117.796585
 C       -79.113876      -60.418152     -116.513290
 H       -78.904938      -59.700241     -117.310379
 C       -78.594223      -60.334335     -115.211357
 H       -78.360786      -59.389275     -114.804825
 C       -78.937241      -61.355072     -114.314682
 H       -78.515701      -61.393471     -113.347771
 C       -79.854385      -62.378429     -114.654816
 H       -80.030136      -63.126625     -113.973404
 C       -79.028786      -68.905479     -116.705711
 C       -77.965591      -68.906906     -117.569946
 N       -79.758453      -67.709412     -116.922989
 C       -79.131561      -66.856682     -117.799713
 N       -77.996628      -67.637901     -118.221397
 C       -77.224258      -67.048447     -119.214821
 C       -77.836082      -65.868729     -119.783012
 C       -77.242310      -65.315468     -120.896004
 H       -77.723930      -64.560486     -121.479904
 C       -76.080132      -65.876144     -121.542221
 H       -75.793701      -65.580170     -122.523880
 C       -75.476997      -66.983780     -120.945251
 H       -74.754791      -67.510590     -121.392006
 C       -76.027184      -67.561020     -119.752106
 H       -75.316879      -67.823700     -118.998077
 C       -77.057335      -70.005814     -117.531754
 H       -76.358978      -70.134819     -118.339317
 C       -77.191345      -71.026398     -116.600227
 H       -76.414497      -71.669754     -116.269463
 C       -78.299477      -71.018288     -115.741989
 H       -78.357307      -71.872589     -114.995514
 C       -79.198273      -69.920303     -115.702019
 H       -79.888596      -69.780716     -114.859474
 C       -81.001465      -67.440979     -116.264084
 C       -82.139511      -68.235229     -116.494156
 H       -82.198479      -68.939507     -117.305275
 C       -83.157906      -68.243851     -115.559975
 H       -83.954651      -69.050804     -115.610153
 C       -83.093124      -67.431831     -114.405396
 H       -83.916252      -67.443268     -113.686775
 C       -81.915207      -66.674561     -114.181877
 H       -82.019470      -65.873825     -113.473961
 C       -80.880981      -66.657761     -115.142181
 H       -80.014542      -66.119858     -114.980843
 C       -75.641365      -62.920712     -117.262604
 C       -76.306824      -61.956863     -118.053345
 N       -76.445564      -64.064507     -117.166229
 C       -77.663055      -63.900219     -117.948364
 N       -77.548080      -62.580154     -118.502998
 C       -78.527931      -62.245144     -119.474319
 C       -79.460396      -63.256985     -119.820129
 C       -80.319252      -62.977173     -120.842560
 H       -80.973404      -63.745667     -121.234474
 C       -80.261948      -61.825417     -121.653221
 H       -80.897797      -61.891407     -122.464966
 C       -79.372147      -60.820812     -121.312569
 H       -79.480560      -59.949768     -121.928711
 C       -78.488380      -61.109734     -120.270233
 H       -77.646988      -60.460350     -120.096848
 C       -75.742393      -60.649345     -118.121323
 H       -76.366455      -59.785301     -118.416748
 C       -74.440498      -60.345074     -117.531845
 H       -74.066727      -59.347618     -117.467896
 C       -73.753365      -61.349792     -116.882401
 H       -72.736877      -61.170303     -116.761398
 C       -74.402840      -62.581875     -116.643311
 H       -73.895287      -63.457050     -116.337761
 C       -76.115753      -65.205925     -116.393311
 C       -76.976974      -65.742592     -115.475502
 H       -78.012787      -65.356918     -115.454346
 C       -76.892761      -66.927444     -114.761681
 H       -77.577911      -67.109825     -113.917221
 C       -75.843338      -67.764938     -115.172409
 H       -75.827332      -68.810593     -114.942497
 C       -74.913010      -67.276779     -116.128586
 H       -74.056221      -67.897621     -116.354782
 C       -75.032631      -66.009247     -116.684891
 H       -74.404739      -65.789886     -117.475929
 Ir      -79.338486      -64.977509     -109.034737
 C       -76.514725      -67.936958     -107.518250
 C       -75.957687      -67.324608     -108.623520
 N       -77.704285      -67.161102     -107.276802
 C       -77.857132      -66.202713     -108.229393
 N       -76.747177      -66.273254     -108.937637
 C       -76.583420      -65.244499     -109.932793
 C       -77.747063      -64.527885     -110.268349
 C       -77.747887      -63.525669     -111.260551
 H       -78.605515      -63.142403     -111.759926
 C       -76.495773      -63.093872     -111.756096
 H       -76.447571      -62.129959     -112.324814
 C       -75.355255      -63.690834     -111.397118
 H       -74.451645      -63.208275     -111.659279
 C       -75.346870      -64.814178     -110.530106
 H       -74.406860      -65.313751     -110.277489
 C       -74.765121      -67.915024     -109.130486
 H       -74.339272      -67.445923     -109.996445
 C       -74.126068      -68.935165     -108.488197
 H       -73.239014      -69.383972     -108.799164
 C       -74.654114      -69.421555     -107.276176
 H       -74.153008      -70.232269     -106.717049
 C       -75.855240      -68.899872     -106.815056
 H       -76.330124      -69.497345     -106.041931
 C       -78.279404      -67.155884     -105.996918
 C       -77.754440      -66.295067     -105.034317
 H       -76.893852      -65.691925     -105.323090
 C       -78.278175      -66.316238     -103.735367
 H       -77.882111      -65.663658     -103.023216
 C       -79.412056      -67.065193     -103.462616
 H       -79.761093      -66.938293     -102.440186
 C       -80.093941      -67.852600     -104.451416
 H       -80.983139      -68.315460     -104.258575
 C       -79.494949      -67.839050     -105.722458
 H       -80.247643      -68.105499     -106.449547
 C       -78.318878      -61.124638     -107.387413
 C       -79.320473      -60.825672     -108.302795
 N       -78.184402      -62.474438     -107.284210
 C       -79.088020      -63.136032     -108.088608
 N       -79.723770      -62.051987     -108.750992
 C       -80.732979      -62.387871     -109.701202
 C       -80.654587      -63.709023     -110.162750
 C       -81.625099      -64.057358     -111.066612
 H       -81.611740      -65.089226     -111.434952
 C       -82.717545      -63.339264     -111.450417
 H       -83.368042      -63.543674     -112.256935
 C       -82.807243      -62.054161     -110.961067
 H       -83.785797      -61.494026     -111.057343
 C       -81.784843      -61.606804     -110.101959
 H       -81.865036      -60.751801     -109.630424
 C       -79.658417      -59.464500     -108.502785
 H       -80.611832      -59.201424     -108.952354
 C       -78.864471      -58.400810     -107.995033
 H       -78.980400      -57.475899     -108.411331
 C       -77.794312      -58.700710     -107.160873
 H       -76.900864      -58.121933     -106.989517
 C       -77.604294      -60.076363     -106.802437
 H       -76.795441      -60.318802     -106.097183
 C       -77.108360      -62.996361     -106.458534
 C       -75.852043      -63.249386     -107.016510
 H       -75.499672      -63.168190     -108.048370
 C       -74.805519      -63.555046     -106.095123
 H       -73.889053      -64.079285     -106.427177
 C       -75.079803      -63.410721     -104.746338
 H       -74.295090      -63.467182     -103.986038
 C       -76.276199      -63.048084     -104.198128
 H       -76.400200      -62.515461     -103.241562
 C       -77.331093      -62.942337     -105.079964
 H       -78.271790      -62.770355     -104.692902
 C       -82.632492      -66.273773     -106.544739
 C       -82.664284      -67.257294     -107.537750
 N       -81.695038      -65.292366     -106.837006
 C       -80.979332      -65.610306     -107.968765
 N       -81.563896      -66.868927     -108.345535
 C       -81.019653      -67.392685     -109.572876
 C       -79.964127      -66.664520     -110.098663
 C       -79.432755      -67.004715     -111.341454
 H       -78.795975      -66.271088     -111.958542
 C       -79.882149      -68.206123     -111.966728
 H       -79.371628      -68.501556     -112.886612
 C       -81.006302      -68.904549     -111.477058
 H       -81.614624      -69.544281     -112.118607
 C       -81.567123      -68.421654     -110.287857
 H       -82.524750      -68.774521     -110.109726
 C       -83.523148      -68.294434     -107.429642
 H       -83.706619      -69.087692     -108.190948
 C       -84.339241      -68.501343     -106.281784
 H       -85.017937      -69.305344     -106.362839
 C       -84.317001      -67.587502     -105.228317
 H       -85.045532      -67.665649     -104.442612
 C       -83.462837      -66.458572     -105.348831
 H       -83.498627      -65.729385     -104.583527
 C       -81.892303      -63.978065     -106.526199
 C       -82.875534      -63.271492     -107.157478
 H       -83.631622      -63.778179     -107.693848
 C       -82.970612      -61.895149     -106.926102
 H       -83.493927      -61.252186     -107.589455
 C       -82.079300      -61.308987     -106.030281
 H       -82.241745      -60.273376     -105.674568
 C       -81.121292      -62.051598     -105.333694
 H       -80.492813      -61.406105     -104.769989
 C       -81.008118      -63.433708     -105.590363
 H       -80.243759      -64.088577     -105.178909
