206
 generated by VMD
 Ir       30.194832       14.023766      -83.765808
 C        28.918325       15.764621      -79.961456
 C        28.608841       16.725573      -80.897026
 N        29.593899       14.727463      -80.630714
 C        29.669655       14.971984      -81.988678
 N        29.051510       16.209696      -82.141541
 C        28.891706       16.674105      -83.483368
 C        29.639652       15.943379      -84.427139
 C        29.811058       16.490013      -85.704605
 H        30.352077       15.910343      -86.422852
 C        29.256050       17.722889      -86.059677
 H        29.457165       18.146957      -87.024261
 C        28.468548       18.417286      -85.136292
 H        27.987076       19.334267      -85.424255
 C        28.271322       17.885845      -83.860321
 H        27.477448       18.301373      -83.251724
 C        27.952248       17.900597      -80.490707
 H        27.800858       18.727306      -81.174904
 C        27.586750       18.076027      -79.157089
 H        27.058372       18.972488      -78.846497
 C        27.881279       17.089314      -78.225067
 H        27.595634       17.213009      -77.189697
 C        28.554901       15.930691      -78.624992
 H        28.779387       15.167283      -77.891296
 C        30.500584       13.865038      -79.911102
 C        31.633232       14.428223      -79.305847
 H        31.849131       15.473430      -79.434036
 C        32.481377       13.623161      -78.530716
 H        33.318459       14.068999      -78.025818
 C        32.210976       12.264273      -78.375458
 H        32.863152       11.642663      -77.767776
 C        31.078333       11.701086      -78.980713
 H        30.920776       10.635954      -78.925323
 C        30.227604       12.509670      -79.742393
 H        29.338196       12.093119      -80.183228
 C        26.290251       12.678282      -85.241104
 C        27.188044       12.248460      -86.182877
 N        27.027580       13.358611      -84.244308
 C        28.377699       13.367479      -84.530136
 N        28.467911       12.658277      -85.732216
 C        29.786457       12.510048      -86.265480
 C        30.713217       13.414787      -85.722290
 C        31.909128       13.642027      -86.407166
 H        32.578011       14.417644      -86.065521
 C        32.219604       12.948225      -87.578415
 H        33.132629       13.170733      -88.108200
 C        31.331434       11.982702      -88.068542
 H        31.583868       11.392158      -88.928566
 C        30.122437       11.757776      -87.401657
 H        29.550350       10.873476      -87.644211
 C        26.717422       11.572864      -87.322998
 H        27.401793       11.226167      -88.082169
 C        25.339705       11.352852      -87.500153
 H        24.990501       10.818050      -88.371323
 C        24.442253       11.793241      -86.523911
 H        23.387510       11.607450      -86.648026
 C        24.917524       12.455957      -85.394394
 H        24.222549       12.720735      -84.615799
 C        26.392990       14.157369      -83.229675
 C        25.804783       15.373842      -83.579391
 H        25.841095       15.722831      -84.600563
 C        25.197041       16.169079      -82.595856
 H        24.782310       17.129436      -82.860069
 C        25.160477       15.731437      -81.269005
 H        24.699276       16.352169      -80.509010
 C        25.735092       14.511441      -80.920975
 H        25.729401       14.182379      -79.891708
 C        26.356430       13.719727      -81.902817
 H        26.840481       12.799221      -81.628296
 C        31.749104       10.321016      -82.036789
 C        32.802475       11.206629      -81.999557
 N        30.696995       10.959827      -82.718323
 C        31.053293       12.243638      -83.112503
 N        32.374489       12.365535      -82.690033
 C        33.041115       13.558275      -83.082565
 C        32.186287       14.631842      -83.356842
 C        32.748260       15.883155      -83.621246
 H        32.111801       16.745192      -83.731293
 C        34.138550       16.054956      -83.681824
 H        34.554451       17.028812      -83.909050
 C        34.990116       14.963777      -83.463043
 H        36.050049       15.069758      -83.569809
 C        34.436062       13.717197      -83.153748
 H        35.086288       12.853951      -83.092796
 C        33.977959       10.830077      -81.318405
 H        34.817245       11.506062      -81.252518
 C        34.076813        9.579588      -80.689438
 H        34.971024        9.309200      -80.157005
 C        32.996765        8.692767      -80.746338
 H        33.056168        7.738245      -80.239624
 C        31.831446        9.059959      -81.430527
 H        31.033304        8.352376      -81.524841
 C        29.513363       10.249313      -83.138657
 C        29.473721        9.680393      -84.417282
 H        30.197224        9.968108      -85.156647
 C        28.471788        8.761769      -84.740799
 H        28.460831        8.310197      -85.724945
 C        27.514156        8.399182      -83.796295
 H        26.773682        7.650537      -84.032356
 C        27.536064        8.983297      -82.525070
 H        26.824282        8.671029      -81.769577
 C        28.527836        9.911282      -82.198517
 H        28.553099       10.334777      -81.211700
 Ir       30.194834       14.023766      -72.918839
 C        32.943367       15.812261      -69.989792
 C        32.491013       16.870426      -70.747787
 N        32.335487       14.656137      -70.502579
 C        31.497663       14.936578      -71.569542
 N        31.597860       16.317604      -71.703796
 C        30.773418       16.910622      -72.701355
 C        30.249292       16.005779      -73.643036
 C        29.635181       16.513359      -74.793442
 H        29.327042       15.833543      -75.574142
 C        29.502548       17.887135      -74.992798
 H        29.076805       18.269829      -75.918213
 C        29.967144       18.784933      -74.030975
 H        29.809097       19.847443      -74.146271
 C        30.598791       18.299595      -72.890465
 H        30.837742       18.987562      -72.102875
 C        32.908287       18.165524      -70.412064
 H        32.688049       19.010952      -71.054909
 C        33.728546       18.386049      -69.301239
 H        34.008186       19.394230      -69.035767
 C        34.171463       17.305641      -68.539238
 H        34.869907       17.460243      -67.731918
 C        33.786537       16.010544      -68.898483
 H        34.166275       15.179206      -68.325356
 C        32.501656       13.369417      -69.866074
 C        33.141953       12.325214      -70.532814
 H        33.584846       12.501316      -71.504997
 C        33.278664       11.078247      -69.919807
 H        33.741577       10.258764      -70.456429
 C        32.769062       10.866123      -68.631317
 H        32.840862        9.888152      -68.175560
 C        32.147858       11.917372      -67.955315
 H        31.765688       11.775287      -66.950645
 C        32.011147       13.164339      -68.568329
 H        31.550304       13.974463      -68.028854
 C        26.349720       14.702944      -70.980072
 C        26.054295       14.002892      -72.117340
 N        27.722355       15.023385      -71.030930
 C        28.320070       14.517072      -72.181274
 N        27.261433       13.928123      -72.854790
 C        27.554495       13.491644      -74.185989
 C        28.924992       13.396355      -74.477798
 C        29.307079       12.894466      -75.737610
 H        30.343697       12.858648      -76.012451
 C        28.342758       12.492594      -76.672485
 H        28.653412       12.053003      -77.605469
 C        26.989283       12.604288      -76.374260
 H        26.242264       12.283539      -77.095352
 C        26.592045       13.117851      -75.135284
 H        25.561262       13.399319      -75.005432
 C        24.743868       13.527769      -72.303978
 H        24.495577       12.898272      -73.138412
 C        23.751904       13.778458      -71.355682
 H        22.737518       13.459223      -71.526314
 C        24.059696       14.507792      -70.201416
 H        23.285208       14.774783      -69.498154
 C        25.374268       14.964198      -70.009079
 H        25.624012       15.497790      -69.104645
 C        28.246674       16.122353      -70.259010
 C        27.725204       17.402229      -70.448959
 H        27.018429       17.589390      -71.250732
 C        28.120499       18.459030      -69.616425
 H        27.664478       19.423012      -69.733383
 C        29.058937       18.239475      -68.598129
 H        29.335829       19.044376      -67.945389
 C        29.596582       16.959595      -68.419937
 H        30.384031       16.809872      -67.694260
 C        29.185114       15.902796      -69.240715
 H        29.591251       14.916571      -69.090332
 C        30.273130        9.775034      -71.910110
 C        31.372026        9.929510      -72.728378
 N        29.677713       11.035294      -71.759697
 C        30.344629       12.012365      -72.474854
 N        31.389082       11.317274      -73.095963
 C        32.235268       12.097702      -73.955673
 C        31.953798       13.473895      -73.968643
 C        32.835728       14.339968      -74.643196
 H        32.628479       15.401373      -74.656128
 C        33.974152       13.861446      -75.288101
 H        34.637337       14.550804      -75.787384
 C        34.248039       12.491091      -75.285553
 H        35.128632       12.109682      -75.774918
 C        33.378853       11.612135      -74.627487
 H        33.560623       10.556465      -74.717590
 C        32.161621        8.802693      -73.002838
 H        33.074234        8.881191      -73.584198
 C        31.822004        7.544748      -72.500702
 H        32.421608        6.683509      -72.747375
 C        30.691780        7.401946      -71.691513
 H        30.398071        6.431817      -71.330292
 C        29.917341        8.517088      -71.396210
 H        29.015604        8.397633      -70.816910
 C        28.560806       11.290506      -70.881180
 C        27.302338       10.808236      -71.234406
 H        27.125626       10.403357      -72.225433
 C        26.235262       10.919542      -70.338379
 H        25.293076       10.461027      -70.562759
 C        26.422520       11.531837      -69.094818
 H        25.603943       11.604498      -68.401169
 C        27.684933       12.032827      -68.753174
 H        27.825769       12.542971      -67.811462
 C        28.754078       11.912161      -69.646362
 H        29.700409       12.351958      -69.416290
