206
 generated by VMD
  IR         0.280000        4.120000       31.230000
  C1         4.090000        6.140000       32.180000
  C2         4.320000        4.830000       32.610001
  N1         2.790000        6.170000       31.590000
  C3a        2.170000        4.940000       31.660000
  N2         3.130000        4.100000       32.290001
  C4         2.780000        2.770000       32.270000
  C5a        1.420000        2.440000       31.889999
  C6         0.990000        1.140000       31.950001
  H1        -0.070000        0.820000       31.830000
  C7         1.880000        0.050000       32.290001
  H2         1.560000       -0.970000       32.130001
  C8         3.210000        0.360000       32.529999
  H3         3.990000       -0.430000       32.490002
  C9         3.670000        1.690000       32.590000
  H4         4.670000        1.660000       32.680000
  C10        5.630000        4.480000       33.119999
  H5         5.700000        3.440000       33.380001
  C11        6.640000        5.450000       33.230000
  H6         7.540000        5.100000       33.740002
  C12        6.400000        6.720000       32.799999
  H7         7.210000        7.470000       32.889999
  C13        5.160000        7.080000       32.160000
  H8         5.040000        7.810000       31.459999
  C6         2.480000        7.190000       30.700001
  C1         3.040000        7.140000       29.459999
  H1         3.840000        6.410000       29.240000
  C2         2.820000        8.060000       28.450001
  H2         3.080000        7.750000       27.430000
  C3         1.970000        9.110000       28.750000
  H3         1.680000        9.770000       27.940001
  C4         1.380000        9.160000       30.049999
  H4         0.590000        9.890000       30.270000
  C5         1.670000        8.250000       31.080000
  H5         1.010000        8.150000       31.959999
  C1         0.500000        2.870000       27.170000
  C2        -0.770000        2.440000       27.660000
  N1         1.260000        3.150000       28.280001
  C3b        0.520000        3.150000       29.440001
  N2        -0.730000        2.650000       29.030001
  C4        -1.630000        2.300000       30.040001
  C5b       -1.520000        3.030000       31.209999
  C6        -2.360000        2.780000       32.270000
  H1        -2.370000        3.460000       33.119999
  C7        -3.250000        1.780000       32.259998
  H2        -3.900000        1.400000       33.020000
  C8        -3.370000        1.010000       31.100000
  H3        -3.980000        0.070000       31.120001
  C9        -2.530000        1.340000       30.049999
  H4        -2.520000        0.540000       29.360001
  C10       -1.760000        1.990000       26.730000
  H5        -2.790000        1.550000       27.120001
  C11       -1.440000        1.980000       25.330000
  H6        -2.160000        1.480000       24.670000
  C12       -0.150000        2.390000       24.830000
  H7         0.200000        2.210000       23.850000
  C13        0.770000        2.930000       25.760000
  H8         1.740000        3.230000       25.440001
  C6         2.690000        2.840000       28.420000
  C1         3.080000        1.480000       28.750000
  H1         2.330000        0.730000       28.959999
  C2         4.380000        1.190000       29.059999
  H2         4.510000        0.300000       29.670000
  C3         5.340000        2.220000       29.120001
  H3         6.410000        1.820000       29.170000
  C4         5.030000        3.570000       28.830000
  H4         5.780000        4.390000       28.760000
  C5         3.670000        3.860000       28.430000
  H5         3.360000        4.830000       28.219999
  C1        -2.050000        7.720000       30.260000
  C2        -2.190000        7.580000       31.700001
  N1        -1.300000        6.610000       29.780001
  C3c       -0.850000        5.870000       30.820000
  N2        -1.360000        6.460000       32.000000
  C4        -0.720000        6.010000       33.250000
  C5c       -0.110000        4.730000       33.230000
  C6         0.210000        4.040000       34.389999
  H1         0.880000        3.210000       34.270000
  C7        -0.110000        4.500000       35.650002
  H2         0.040000        3.830000       36.520000
  C8        -0.780000        5.750000       35.750000
  H3        -1.140000        6.150000       36.700001
  C9        -1.000000        6.530000       34.590000
  H4        -1.320000        7.510000       34.630001
  C10       -3.020000        8.390000       32.439999
  H5        -3.190000        8.180000       33.520000
  C11       -3.670000        9.470000       31.790001
  H6        -4.480000        9.900000       32.250000
  C12       -3.350000        9.730000       30.480000
  H7        -4.080000       10.330000       30.000000
  C13       -2.640000        8.830000       29.690001
  H8        -2.680000        8.880000       28.590000
  C6        -1.440000        6.120000       28.480000
  C1        -0.340000        6.240000       27.639999
  H1         0.620000        6.510000       27.940001
  C2        -0.600000        6.020000       26.240000
  H2         0.150000        5.970000       25.490000
  C3        -1.860000        5.670000       25.799999
  H3        -1.960000        5.230000       24.799999
  C4        -2.930000        5.660000       26.690001
  H4        -3.920000        5.250000       26.360001
  C5        -2.770000        5.920000       28.020000
  H5        -3.550000        5.820000       28.840000
  IR         6.930000        7.830000       23.520000
  C1         9.710000        4.390000       23.790001
  C2         9.240000        4.590000       25.080000
  N1         9.270000        5.430000       23.020000
  C3a        8.430000        6.290000       23.709999
  N2         8.500000        5.800000       24.990000
  C4         7.900000        6.590000       26.080000
  C5a        6.760000        7.290000       25.570000
  C6         5.940000        7.860000       26.549999
  H1         5.050000        8.390000       26.219999
  C7         6.360000        7.840000       27.900000
  H2         5.650000        8.170000       28.639999
  C8         7.430000        7.070000       28.320000
  H3         7.480000        6.910000       29.389999
  C9         8.260000        6.430000       27.410000
  H4         9.290000        6.290000       27.709999
  C10        9.410000        3.640000       26.030001
  H5         9.210000        3.690000       27.100000
  C11       10.180000        2.510000       25.719999
  H6        10.450000        1.770000       26.430000
  C12       10.690000        2.320000       24.430000
  H7        11.240000        1.480000       24.209999
  C13       10.440000        3.290000       23.490000
  H8        10.830000        3.040000       22.469999
  C6         9.560000        5.640000       21.600000
  C1         9.980000        6.930000       21.280001
  H1        10.170000        7.650000       22.020000
  C2        10.200000        7.170000       19.940001
  H2        10.060000        8.110000       19.370001
  C3        10.140000        6.190000       18.959999
  H3        10.380000        6.460000       17.940001
  C4         9.700000        4.920000       19.280001
  H4         9.740000        4.120000       18.510000
  C5         9.390000        4.670000       20.620001
  H5         9.060000        3.680000       20.850000
  C1         3.250000        5.600000       22.750000
  C2         2.770000        6.780000       23.170000
  N1         4.620000        5.570000       22.889999
  C3b        5.130000        6.800000       23.290001
  N2         3.960000        7.550000       23.490000
  C4         4.150000        8.910000       23.799999
  C5b        5.490000        9.350000       23.780001
  C6         5.770000       10.690000       24.040001
  H1         6.680000       11.140000       23.660000
  C7         4.810000       11.640000       24.520000
  H2         5.090000       12.630000       24.770000
  C8         3.500000       11.160000       24.540001
  H3         2.690000       11.820000       24.469999
  C9         3.090000        9.850000       24.240000
  H4         2.000000        9.760000       24.120001
  C10        1.410000        6.970000       23.240000
  H5         0.960000        7.950000       23.430000
  C11        0.540000        5.970000       22.879999
  H6        -0.470000        6.020000       23.200001
  C12        0.960000        4.720000       22.420000
  H7         0.260000        3.910000       22.370001
  C13        2.360000        4.580000       22.330000
  H8         2.870000        3.640000       22.219999
  C6         5.330000        4.420000       23.389999
  C1         5.130000        4.040000       24.709999
  H1         4.340000        4.400000       25.330000
  C2         5.770000        2.860000       25.100000
  H2         5.560000        2.650000       26.139999
  C3         6.520000        2.060000       24.250000
  H3         7.270000        1.340000       24.570000
  C4         6.810000        2.500000       22.920000
  H4         7.270000        1.810000       22.250000
  C5         6.240000        3.700000       22.520000
  H5         6.330000        3.990000       21.430000
  C1         7.150000        9.740000       19.660000
  C2         8.060000       10.440000       20.379999
  N1         6.660000        8.740000       20.420000
  C3c        7.250000        8.700000       21.690001
  N2         8.140000        9.770000       21.670000
  C4         9.040000        9.770000       22.740000
  C5c        8.590000        9.120000       23.920000
  C6         9.290000        9.320000       25.110001
  H1         8.780000        8.990000       26.030001
  C7        10.470000       10.010000       25.150000
  H2        11.110000        9.930000       26.010000
  C8        11.060000       10.510000       23.980000
  H3        11.990000       11.050000       24.040001
  C9        10.340000       10.390000       22.799999
  H4        10.590000       11.080000       22.000000
  C10        8.840000       11.310000       19.750000
  H5         9.430000       11.990000       20.320000
  C11        8.890000       11.360000       18.330000
  H6         9.640000       11.950000       17.850000
  C12        8.010000       10.600000       17.549999
  H7         7.980000       10.730000       16.510000
  C13        7.080000        9.890000       18.270000
  H8         6.290000        9.370000       17.680000
  C6         5.630000        7.920000       19.870001
  C1         4.280000        8.080000       20.309999
  H1         4.080000        8.980000       21.010000
  C2         3.230000        7.250000       19.889999
  H2         2.220000        7.500000       20.080000
  C3         3.580000        6.160000       19.110001
  H3         2.860000        5.370000       19.110001
  C4         4.950000        5.900000       18.770000
  H4         5.110000        4.900000       18.420000
  C5         5.960000        6.780000       19.090000
  H5         7.050000        6.510000       18.910000
