206
 generated by VMD
  IR        60.799999       25.480000       21.910000
  C1        64.639999       24.230000       23.230000
  C2        64.879997       25.490000       22.730000
  N1        63.410000       23.820000       22.709999
  C3a       62.759998       24.850000       22.059999
  N2        63.669998       25.879999       22.100000
  C4        63.119999       27.260000       21.760000
  C5a       61.740002       27.309999       21.799999
  C6        61.040001       28.500000       21.549999
  H1        59.939999       28.570000       21.480000
  C7        61.750000       29.670000       21.490000
  H2        61.330002       30.660000       21.450001
  C8        63.180000       29.610001       21.490000
  H3        63.680000       30.490000       21.010000
  C9        63.889999       28.430000       21.629999
  H4        64.980003       28.450001       21.760000
  C10       66.089996       26.139999       23.030001
  H5        66.550003       26.920000       22.379999
  C11       67.050003       25.540001       23.879999
  H6        67.900002       26.120001       24.209999
  C12       66.750000       24.299999       24.420000
  H7        67.519997       23.850000       25.059999
  C13       65.599998       23.620001       24.110001
  H8        65.570000       22.629999       24.410000
  C6        63.040001       22.430000       22.549999
  C1        62.480000       22.010000       21.309999
  H1        62.310001       22.709999       20.530001
  C2        61.849998       20.750000       21.230000
  H2        61.119999       20.490000       20.469999
  C3        61.799999       19.959999       22.379999
  H3        61.520000       18.990000       22.190001
  C4        62.299999       20.350000       23.600000
  H4        62.220001       19.700001       24.520000
  C5        62.990002       21.590000       23.690001
  H5        63.419998       21.920000       24.650000
  C1        59.900002       26.809999       25.959999
  C2        58.709999       27.100000       25.260000
  N1        60.849998       26.230000       25.100000
  C3b       60.279999       26.080000       23.840000
  N2        59.000000       26.629999       23.969999
  C4        58.200001       26.650000       22.780001
  C5b       58.919998       26.410000       21.590000
  C6        58.180000       26.559999       20.420000
  H1        58.709999       26.490000       19.469999
  C7        56.840000       26.930000       20.290001
  H2        56.369999       26.969999       19.379999
  C8        56.049999       27.090000       21.450001
  H3        55.090000       27.629999       21.420000
  C9        56.730000       26.900000       22.650000
  H4        56.130001       26.760000       23.430000
  C10       57.639999       27.809999       25.900000
  H5        56.680000       27.870001       25.500000
  C11       57.820000       28.100000       27.290001
  H6        57.160000       28.770000       27.719999
  C12       58.900002       27.660000       28.010000
  H7        58.720001       27.590000       29.080000
  C13       59.970001       26.980000       27.370001
  H8        60.790001       26.559999       27.969999
  C6        62.220001       26.080000       25.469999
  C1        62.549999       24.920000       26.160000
  H1        61.869999       24.049999       26.080000
  C2        63.730000       24.820000       27.010000
  H2        63.980000       23.969999       27.770000
  C3        64.610001       25.889999       26.940001
  H3        65.449997       25.790001       27.629999
  C4        64.279999       27.090000       26.290001
  H4        64.989998       27.900000       26.350000
  C5        63.110001       27.180000       25.459999
  H5        62.779999       28.070000       24.900000
  C1        58.520000       21.709999       21.629999
  C2        58.849998       22.030001       20.330000
  N1        59.000000       22.760000       22.430000
  C3c       59.619999       23.790001       21.670000
  N2        59.520000       23.299999       20.370001
  C4        60.080002       24.219999       19.330000
  C5c       61.029999       25.100000       19.840000
  C6        61.860001       25.780001       18.920000
  H1        62.619999       26.469999       19.270000
  C7        61.759998       25.580000       17.530001
  H2        62.270000       26.270000       16.930000
  C8        60.709999       24.750000       17.070000
  H3        60.360001       24.940001       16.070000
  C9        59.910000       24.020000       17.940001
  H4        58.990002       23.639999       17.549999
  C10       58.619999       21.110001       19.280001
  H5        58.419998       21.540001       18.270000
  C11       58.150002       19.840000       19.600000
  H6        58.240002       19.090000       18.770000
  C12       57.889999       19.490000       20.879999
  H7        57.869999       18.440001       21.200001
  C13       58.070000       20.430000       21.910000
  H8        57.860001       20.090000       22.950001
  C6        58.639999       22.830000       23.860001
  C1        59.580002       22.650000       24.840000
  H1        60.630001       22.840000       24.549999
  C2        59.279999       22.520000       26.200001
  H2        60.049999       22.200001       26.910000
  C3        57.950001       22.590000       26.639999
  H3        57.779999       22.770000       27.709999
  C4        56.939999       22.820000       25.660000
  H4        55.880001       22.950001       25.870001
  C5        57.250000       22.940001       24.270000
  H5        56.450001       23.350000       23.629999
  IR        60.990002       11.110000       20.340000
  C1        56.900002        9.470000       19.600000
  C2        57.040001        9.400000       20.990000
  N1        58.060001       10.000000       19.090000
  C3a       59.060001       10.300000       20.120001
  N2        58.430000        9.800000       21.280001
  C4        59.330002        9.690000       22.370001
  C5a       60.660000       10.120000       22.170000
  C6        61.610001        9.960000       23.230000
  H1        62.650002       10.210000       22.930000
  C7        61.230000        9.420000       24.430000
  H2        61.970001        9.050000       25.070000
  C8        59.919998        9.080000       24.629999
  H3        59.580002        8.820000       25.620001
  C9        58.970001        9.210000       23.620001
  H4        58.020000        8.770000       23.740000
  C10       56.020000        8.770000       21.760000
  H5        56.119999        8.640000       22.840000
  C11       54.910000        8.190000       21.120001
  H6        54.169998        7.670000       21.719999
  C12       54.799999        8.190000       19.719999
  H7        54.060001        7.540000       19.330000
  C13       55.830002        8.810000       19.000000
  H8        55.840000        8.630000       17.980000
  C6        58.389999       10.240000       17.680000
  C1        58.160000       11.490000       17.110001
  H1        58.029999       12.340000       17.730000
  C2        58.299999       11.750000       15.740000
  H2        58.009998       12.710000       15.350000
  C3        58.849998       10.750000       14.950000
  H3        59.459999       11.060000       14.100000
  C4        58.990002        9.450000       15.390000
  H4        59.160000        8.660000       14.680000
  C5        58.700001        9.200000       16.760000
  H5        59.220001        8.370000       17.160000
  C1        59.889999       14.960000       22.139999
  C2        61.250000       14.790000       22.430000
  N1        59.480000       13.860000       21.389999
  C3b       60.540001       12.980000       21.230000
  N2        61.680000       13.620000       21.830000
  C4        62.889999       12.940000       21.730000
  C5b       62.900002       11.860000       20.889999
  C6        64.129997       11.370000       20.459999
  H1        64.019997       10.560000       19.740000
  C7        65.349998       11.890000       20.809999
  H2        66.099998       11.650000       20.080000
  C8        65.349998       12.910000       21.760000
  H3        66.150002       13.560000       21.950001
  C9        64.150002       13.410000       22.299999
  H4        64.250000       14.180000       23.030001
  C10       61.849998       15.790000       23.230000
  H5        62.939999       15.920000       23.170000
  C11       61.049999       16.740000       23.870001
  H6        61.509998       17.389999       24.530001
  C12       59.720001       16.870001       23.660000
  H7        59.290001       17.760000       24.030001
  C13       59.169998       15.960000       22.730000
  H8        58.110001       16.070000       22.320000
  C6        58.130001       13.230000       21.510000
  C1        57.700001       12.890000       22.750000
  H1        58.430000       13.170000       23.510000
  C2        56.369999       12.520000       22.940001
  H2        55.980000       12.780000       23.930000
  C3        55.500000       12.490000       21.799999
  H3        54.490002       12.260000       21.940001
  C4        55.990002       12.970000       20.620001
  H4        55.270000       13.170000       19.760000
  C5        57.290001       13.400000       20.440001
  H5        57.689999       13.780000       19.580000
  C1        61.880001       12.520000       16.309999
  C2        61.990002       11.220000       16.170000
  N1        61.459999       12.830000       17.670000
  C3c       61.470001       11.640000       18.400000
  N2        61.770000       10.640000       17.469999
  C4        61.750000        9.350000       18.010000
  C5c       61.720001        9.330000       19.420000
  C6        61.830002        8.110000       20.090000
  H1        62.209999        8.130000       21.129999
  C7        61.930000        6.920000       19.350000
  H2        61.630001        6.000000       19.870001
  C8        62.000000        6.960000       17.959999
  H3        61.830002        6.090000       17.480000
  C9        61.889999        8.220000       17.270000
  H4        61.630001        8.220000       16.209999
  C10       62.279999       10.590000       14.940000
  H5        62.669998        9.570000       14.930000
  C11       62.380001       11.370000       13.810000
  H6        62.619999       10.920000       12.830000
  C12       62.459999       12.740000       13.960000
  H7        62.799999       13.400000       13.180000
  C13       62.160000       13.320000       15.250000
  H8        62.189999       14.380000       15.410000
  C6        61.290001       14.190000       18.170000
  C1        60.000000       14.630000       18.340000
  H1        59.060001       14.370000       17.820000
  C2        59.849998       15.950000       18.799999
  H2        58.810001       16.379999       18.889999
  C3        60.950001       16.780001       19.139999
  H3        60.860001       17.730000       19.709999
  C4        62.259998       16.340000       18.950001
  H4        63.180000       16.990000       19.000000
  C5        62.410000       15.070000       18.350000
  H5        63.380001       14.580000       18.100000
