206
 generated by VMD
  IR        57.630001       43.580002       35.549999
  C1        56.860001       47.869999       35.020000
  C2        57.380001       47.450001       33.840000
  N1        56.950001       46.770000       35.959999
  C3a       57.549999       45.650002       35.419998
  N2        57.910000       46.139999       34.080002
  C4        58.830002       45.189999       33.430000
  C5a       58.759998       43.880001       33.820000
  C6        59.500000       42.959999       33.130001
  H1        59.189999       41.959999       33.389999
  C7        60.340000       43.320000       32.070000
  H2        60.669998       42.630001       31.360001
  C8        60.430000       44.669998       31.709999
  H3        60.830002       45.080002       30.820000
  C9        59.580002       45.549999       32.369999
  H4        59.540001       46.580002       32.040001
  C10       57.259998       48.270000       32.669998
  H5        57.849998       48.070000       31.790001
  C11       56.560001       49.419998       32.810001
  H6        56.400002       50.029999       31.920000
  C12       56.040001       49.860001       33.990002
  H7        55.259998       50.610001       33.869999
  C13       56.169998       49.090000       35.110001
  H8        55.660000       49.459999       36.020000
  C6        56.680000       46.849998       37.330002
  C1        57.740002       46.759998       38.240002
  H1        58.779999       47.099998       38.029999
  C2        57.490002       46.500000       39.599998
  H2        58.209999       46.419998       40.389999
  C3        56.209999       46.419998       40.049999
  H3        56.060001       46.419998       41.209999
  C4        55.070000       46.470001       39.180000
  H4        54.209999       46.000000       39.570000
  C5        55.369999       46.770000       37.810001
  H5        54.540001       47.080002       37.250000
  C1        54.029999       42.599998       33.470001
  C2        54.689999       41.450001       33.560001
  N1        54.889999       43.660000       33.910000
  C3b       56.139999       43.180000       34.220001
  N2        55.990002       41.810001       33.990002
  C4        57.130001       40.930000       34.270000
  C5b       57.770000       41.490002       35.410000
  C6        58.700001       40.610001       35.980000
  H1        59.500000       41.029999       36.490002
  C7        58.889999       39.310001       35.410000
  H2        59.660000       38.750000       35.939999
  C8        58.220001       38.840000       34.250000
  H3        58.220001       37.810001       33.970001
  C9        57.369999       39.730000       33.669998
  H4        57.119999       39.520000       32.590000
  C10       54.040001       40.230000       33.509998
  H5        54.599998       39.320000       33.580002
  C11       52.650002       40.180000       33.259998
  H6        52.279999       39.200001       32.990002
  C12       51.950001       41.360001       33.060001
  H7        50.830002       41.310001       33.090000
  C13       52.650002       42.580002       33.189999
  H8        52.000000       43.439999       32.990002
  C6        54.610001       44.980000       33.470001
  C1        54.919998       45.330002       32.150002
  H1        55.529999       44.740002       31.500000
  C2        54.369999       46.450001       31.510000
  H2        54.099998       46.480000       30.430000
  C3        53.509998       47.290001       32.240002
  H3        52.939999       48.130001       31.830000
  C4        53.270000       46.990002       33.599998
  H4        52.580002       47.599998       34.169998
  C5        53.730000       45.869999       34.209999
  H5        53.520000       45.770000       35.349998
  C1        55.730000       43.080002       39.470001
  C2        57.060001       43.139999       39.770000
  N1        55.680000       43.029999       38.070000
  C3c       56.840000       43.220001       37.439999
  N2        57.730000       43.259998       38.560001
  C4        59.080002       43.560001       38.259998
  C5c       59.320000       43.779999       36.889999
  C6        60.570000       44.299999       36.500000
  H1        60.720001       44.599998       35.509998
  C7        61.599998       44.410000       37.349998
  H2        62.580002       44.570000       36.970001
  C8        61.459999       44.049999       38.709999
  H3        62.200001       43.939999       39.459999
  C9        60.180000       43.660000       39.180000
  H4        60.099998       43.230000       40.139999
  C10       57.430000       43.049999       41.169998
  H5        58.450001       43.340000       41.380001
  C11       56.450001       42.970001       42.169998
  H6        56.669998       43.169998       43.209999
  C12       55.060001       42.840000       41.840000
  H7        54.410000       42.560001       42.630001
  C13       54.740002       42.900002       40.470001
  H8        53.700001       42.709999       40.119999
  C6        54.450001       42.490002       37.430000
  C1        54.169998       41.099998       37.439999
  H1        54.919998       40.480000       37.950001
  C2        52.900002       40.709999       37.110001
  H2        52.759998       39.570000       37.240002
  C3        51.880001       41.590000       36.630001
  H3        50.910000       41.299999       36.230000
  C4        52.230000       42.959999       36.570000
  H4        51.639999       43.660000       36.009998
  C5        53.480000       43.389999       36.950001
  H5        53.639999       44.419998       37.099998
  IR        61.950001       40.630001       45.480000
  C1        60.750000       39.770000       41.310001
  C2        61.820000       40.630001       41.279999
  N1        60.389999       39.590000       42.720001
  C3a       61.270000       40.369999       43.529999
  N2        62.060001       41.110001       42.610001
  C4        62.810001       42.209999       43.130001
  C5a       63.160000       42.110001       44.509998
  C6        64.209999       42.900002       44.950001
  H1        64.440002       42.880001       45.959999
  C7        64.959999       43.689999       44.119999
  H2        65.870003       44.169998       44.529999
  C8        64.570000       43.950001       42.799999
  H3        65.080002       44.619999       42.139999
  C9        63.490002       43.209999       42.320000
  H4        62.939999       43.639999       41.500000
  C10       62.250000       41.099998       39.980000
  H5        63.230000       41.599998       39.910000
  C11       61.720001       40.570000       38.849998
  H6        62.250000       40.840000       37.930000
  C12       60.650002       39.639999       38.910000
  H7        60.160000       39.209999       38.029999
  C13       60.169998       39.290001       40.169998
  H8        59.340000       38.639999       40.090000
  C6        59.040001       39.200001       43.090000
  C1        58.200001       40.299999       43.389999
  H1        58.549999       41.270000       43.240002
  C2        56.919998       40.060001       43.820000
  H2        56.220001       40.770000       44.029999
  C3        56.500000       38.759998       44.099998
  H3        55.580002       38.610001       44.639999
  C4        57.410000       37.700001       44.000000
  H4        57.150002       36.820000       44.540001
  C5        58.639999       37.900002       43.360001
  H5        59.220001       37.029999       43.139999
  C1        65.650002       38.259998       45.470001
  C2        65.669998       38.880001       46.720001
  N1        64.459999       38.599998       44.820000
  C3b       63.759998       39.540001       45.570000
  N2        64.500000       39.720001       46.680000
  C4        63.990002       40.669998       47.680000
  C5b       62.770000       41.270000       47.299999
  C6        62.200001       42.150002       48.209999
  H1        61.169998       42.470001       48.180000
  C7        62.900002       42.520000       49.330002
  H2        62.669998       43.480000       49.759998
  C8        64.089996       41.889999       49.700001
  H3        64.550003       42.160000       50.599998
  C9        64.639999       41.000000       48.830002
  H4        65.709999       40.970001       48.919998
  C10       66.769997       38.599998       47.669998
  H5        66.599998       38.730000       48.720001
  C11       67.820000       37.840000       47.279999
  H6        68.790001       38.090000       47.680000
  C12       67.739998       37.200001       46.049999
  H7        68.620003       36.590000       45.779999
  C13       66.690002       37.330002       45.180000
  H8        66.809998       36.939999       44.130001
  C6        64.209999       38.259998       43.419998
  C1        63.320000       37.259998       43.200001
  H1        63.029999       36.599998       44.060001
  C2        62.799999       36.930000       41.900002
  H2        62.150002       36.139999       41.689999
  C3        63.369999       37.730000       40.880001
  H3        62.930000       37.700001       39.880001
  C4        64.300003       38.770000       41.060001
  H4        64.699997       39.200001       40.160000
  C5        64.680000       39.049999       42.360001
  H5        65.230003       39.939999       42.619999
  C1        58.880001       37.790001       46.889999
  C2        58.349998       39.070000       47.119999
  N1        60.220001       38.070000       46.580002
  C3c       60.580002       39.389999       46.470001
  N2        59.360001       40.040001       46.860001
  C4        59.349998       41.459999       46.650002
  C5c       60.250000       41.869999       45.630001
  C6        60.009998       43.049999       44.959999
  H1        60.619999       43.270000       44.049999
  C7        59.040001       43.900002       45.520000
  H2        59.110001       44.950001       45.209999
  C8        58.169998       43.540001       46.540001
  H3        57.419998       44.279999       46.970001
  C9        58.299999       42.330002       47.119999
  H4        57.630001       42.130001       47.930000
  C10       57.090000       39.160000       47.650002
  H5        56.520000       40.080002       47.630001
  C11       56.340000       38.040001       47.970001
  H6        55.419998       38.220001       48.430000
  C12       56.830002       36.799999       47.730000
  H7        56.259998       35.880001       47.619999
  C13       58.110001       36.639999       47.180000
  H8        58.430000       35.650002       46.939999
  C6        61.169998       37.090000       46.410000
  C1        60.759998       35.990002       45.580002
  H1        59.740002       35.889999       45.110001
  C2        61.610001       34.889999       45.520000
  H2        61.369999       34.139999       44.759998
  C3        62.759998       34.810001       46.320000
  H3        63.360001       33.840000       46.439999
  C4        63.169998       35.919998       47.119999
  H4        64.199997       35.990002       47.590000
  C5        62.360001       37.049999       47.119999
  H5        62.669998       37.910000       47.750000
