206
 generated by VMD
 Ir       35.740868     -115.634186       79.123199
 C        34.437466     -112.304688       76.704308
 C        35.106491     -111.723198       77.738312
 N        34.566029     -113.675003       76.830429
 C        35.296646     -114.000702       77.985344
 N        35.553993     -112.776459       78.569031
 C        36.596870     -112.846664       79.591957
 C        36.668732     -114.087006       80.214363
 C        37.517735     -114.218376       81.325455
 H        37.361130     -115.092857       81.917023
 C        38.347733     -113.150406       81.749924
 H        39.014854     -113.281563       82.550827
 C        38.244678     -111.934357       81.115814
 H        38.890068     -111.048370       81.384689
 C        37.421200     -111.756973       80.063286
 H        37.553669     -110.860641       79.439468
 C        35.206177     -110.299400       77.781425
 H        35.704704     -109.807617       78.618759
 C        34.649254     -109.524963       76.778694
 H        34.874107     -108.462112       76.716248
 C        33.940361     -110.121048       75.727432
 H        33.266075     -109.614243       75.071548
 C        33.889328     -111.537491       75.693192
 H        33.481323     -112.012115       74.852448
 C        34.227463     -114.473938       75.674721
 C        32.931976     -115.021996       75.625107
 H        32.219337     -114.622162       76.429138
 C        32.544300     -115.709488       74.488594
 H        31.621159     -116.169540       74.443161
 C        33.328423     -115.713303       73.381462
 H        32.990654     -116.204659       72.473732
 C        34.603619     -115.070534       73.339874
 H        35.110954     -114.970901       72.413818
 C        35.056656     -114.494690       74.593689
 H        35.901455     -113.867378       74.603294
 C        39.853806     -116.585205       78.185440
 C        39.389568     -117.630371       78.959854
 N        38.745728     -115.737900       77.901825
 C        37.613884     -116.247925       78.456177
 N        37.988464     -117.456200       79.093887
 C        37.109222     -118.063492       80.056816
 C        36.154434     -117.161545       80.566681
 C        35.374859     -117.584518       81.641830
 H        34.739319     -116.854095       82.109772
 C        35.553852     -118.923950       82.175880
 H        34.946922     -119.249115       82.989639
 C        36.441319     -119.794365       81.592033
 H        36.288033     -120.854965       81.834961
 C        37.219002     -119.364136       80.532501
 H        37.526718     -120.206535       79.948830
 C        40.367836     -118.463936       79.560738
 H        40.062218     -119.416199       80.087135
 C        41.754974     -118.298462       79.357109
 H        42.247490     -118.897964       80.117264
 C        42.165333     -117.396164       78.399162
 H        43.133804     -117.490540       77.945343
 C        41.175858     -116.516685       77.878067
 H        41.493317     -115.644547       77.409462
 C        38.752743     -114.729492       76.858719
 C        39.598099     -113.670906       77.116531
 H        40.066650     -113.611145       78.092995
 C        40.063511     -112.981796       76.078445
 H        40.565754     -112.067032       76.387115
 C        39.768875     -113.302574       74.770279
 H        40.150379     -112.684418       73.991867
 C        38.880177     -114.268997       74.470901
 H        38.620689     -114.328339       73.474686
 C        38.312096     -114.987419       75.510162
 H        37.730217     -115.934128       75.360359
 C        33.028435     -118.514595       77.122276
 C        32.278954     -117.821678       78.099640
 N        34.345604     -117.993393       77.289398
 C        34.439606     -117.039444       78.305244
 N        33.108860     -116.974899       78.786743
 C        32.877182     -116.096809       79.836838
 C        33.927803     -115.195580       80.147614
 C        33.664890     -114.256866       81.172218
 H        34.109634     -113.295776       81.273163
 C        32.528252     -114.350220       81.993698
 H        32.447845     -113.903404       82.954788
 C        31.548994     -115.248894       81.683952
 H        30.706070     -115.302605       82.349686
 C        31.723267     -116.083405       80.619522
 H        31.030630     -116.870422       80.561531
 C        30.862492     -118.057144       78.082489
 H        30.189730     -117.637497       78.696487
 C        30.305422     -118.820290       77.024620
 H        29.313320     -119.198196       77.086411
 C        31.116903     -119.387062       76.098679
 H        30.625916     -120.170227       75.461441
 C        32.524696     -119.270493       76.137917
 H        33.192707     -119.777397       75.486992
 C        35.418854     -118.742241       76.735649
 C        35.610985     -120.091141       77.160439
 H        35.086174     -120.469482       77.951157
 C        36.606968     -120.864182       76.486916
 H        36.601246     -121.997017       76.589104
 C        37.380188     -120.305573       75.514549
 H        38.200783     -120.844223       75.146484
 C        37.171017     -118.973618       75.050735
 H        37.539200     -118.597626       74.050110
 C        36.225349     -118.205368       75.745369
 H        35.852455     -117.227974       75.368607
 Ir       35.740868     -115.634178       89.943336
 C        32.447647     -113.185806       88.537781
 C        31.963356     -113.673889       89.704422
 N        33.764893     -113.677689       88.304085
 C        34.118340     -114.561653       89.307419
 N        32.953484     -114.582344       90.155815
 C        33.063053     -115.559006       91.198280
 C        34.213623     -116.335342       91.178818
 C        34.312874     -117.413544       92.023834
 H        35.165741     -118.086113       91.984283
 C        33.385643     -117.761520       93.046349
 H        33.637585     -118.645058       93.704292
 C        32.290016     -116.905167       93.137779
 H        31.653416     -116.888664       94.090393
 C        32.123627     -115.834221       92.204781
 H        31.310135     -115.200531       92.331146
 C        30.617105     -113.383690       90.117798
 H        30.161106     -114.018890       90.856712
 C        29.884125     -112.512939       89.324425
 H        28.850859     -112.294647       89.591301
 C        30.399412     -111.961792       88.183502
 H        29.880810     -111.253510       87.600235
 C        31.690081     -112.303024       87.767868
 H        32.211906     -111.893044       86.910889
 C        34.531960     -113.312660       87.075027
 C        35.239506     -112.120575       87.132622
 H        35.162457     -111.525780       88.076691
 C        36.143845     -111.729019       86.131943
 H        36.687000     -110.772400       86.125214
 C        36.296059     -112.587723       85.005630
 H        37.028473     -112.364182       84.196564
 C        35.571045     -113.762863       84.950882
 H        35.625954     -114.474442       84.179939
 C        34.647354     -114.130234       85.970016
 H        34.002975     -114.999390       85.783096
 C        36.660175     -113.456429       93.737335
 C        37.486988     -114.529381       93.777901
 N        35.913246     -113.475067       92.528885
 C        36.294693     -114.564316       91.722885
 N        37.209946     -115.250435       92.535873
 C        37.575977     -116.636406       92.172958
 C        37.122780     -117.001190       90.891655
 C        37.582741     -118.173111       90.287155
 H        37.231503     -118.399933       89.267899
 C        38.485680     -118.955963       90.932251
 H        38.972988     -119.880829       90.536575
 C        38.863705     -118.622932       92.257599
 H        39.569908     -119.304260       92.883057
 C        38.462959     -117.460594       92.860909
 H        38.859730     -117.240913       93.850571
 C        38.474426     -114.604492       94.770790
 H        39.062462     -115.508484       95.011452
 C        38.658169     -113.516724       95.645782
 H        39.488281     -113.647346       96.318878
 C        37.810455     -112.404991       95.597504
 H        38.083633     -111.566101       96.041718
 C        36.821285     -112.405106       94.620087
 H        36.348572     -111.367722       94.504356
 C        34.882858     -112.508865       92.295540
 C        34.992214     -111.730476       91.141006
 H        35.560211     -112.171860       90.364372
 C        34.139015     -110.674240       90.932137
 H        34.130386     -110.129288       89.986862
 C        33.086388     -110.403763       91.825508
 H        32.618610     -109.446503       91.760345
 C        32.923431     -111.237976       92.948235
 H        32.251999     -111.095016       93.671524
 C        33.804207     -112.337891       93.199913
 H        33.610062     -113.101044       93.882553
 C        38.835564     -114.628914       87.130020
 C        38.233482     -115.812576       86.543465
 N        38.172462     -114.341171       88.273743
 C        37.196960     -115.226318       88.540802
 N        37.178429     -116.184845       87.452965
 C        36.004265     -116.909538       87.301468
 C        35.142075     -116.947060       88.386330
 C        33.923958     -117.635536       88.276749
 H        33.239319     -117.699051       89.164627
 C        33.518890     -118.347321       87.142998
 H        32.457550     -118.730125       87.160278
 C        34.379509     -118.338882       86.045830
 H        34.202484     -119.092224       85.330254
 C        35.603432     -117.626015       86.080772
 H        36.367172     -118.018700       85.407646
 C        38.626480     -116.292191       85.270432
 H        38.426018     -117.361542       84.922684
 C        39.543785     -115.537239       84.506119
 H        39.798443     -115.947296       83.517029
 C        40.081871     -114.346329       85.043167
 H        40.947582     -113.914413       84.480072
 C        39.780907     -113.907837       86.352798
 H        40.245770     -113.092804       86.780029
 C        38.807945     -113.529343       89.312103
 C        39.577904     -114.228027       90.222214
 H        39.744259     -115.275314       90.132645
 C        40.108765     -113.525620       91.305084
 H        40.868088     -113.903725       91.962776
 C        39.816967     -112.165962       91.541916
 H        39.947372     -111.772095       92.495415
 C        38.979080     -111.491669       90.641319
 H        38.981186     -110.426804       90.570221
 C        38.520004     -112.225403       89.517624
 H        37.699802     -111.825562       88.848907
