206
 generated by VMD
 Ir       69.117416       46.765617      -57.903309
 C        68.488144       49.840256      -54.968979
 C        67.475967       49.895622      -55.831139
 N        69.267792       48.745598      -55.327431
 C        68.713959       48.112064      -56.391388
 N        67.551636       48.741974      -56.588150
 C        66.621384       48.027050      -57.221325
 C        67.087929       47.225857      -58.264503
 C        66.258064       46.660744      -59.211330
 H        66.540955       45.971199      -59.955170
 C        64.880615       46.863216      -59.054935
 H        64.214439       46.622231      -59.860870
 C        64.411987       47.537479      -57.970715
 H        63.433823       47.184219      -57.573204
 C        65.254745       48.112354      -57.039330
 H        64.770515       48.568691      -56.086498
 C        66.644974       50.921131      -55.857239
 H        65.983437       51.024040      -56.759171
 C        66.916901       52.049652      -55.143166
 H        66.268005       52.922218      -55.340576
 C        68.038589       52.076717      -54.383530
 H        68.078232       52.808365      -53.622200
 C        68.800385       50.938366      -54.227516
 H        69.712799       50.894119      -53.713669
 C        70.705826       48.688148      -55.017666
 C        71.533562       49.606743      -55.643143
 H        71.084351       50.184555      -56.469006
 C        72.816406       49.944084      -55.148571
 H        73.488220       50.527592      -55.734062
 C        73.249680       49.269520      -53.950314
 H        74.209351       49.570206      -53.502716
 C        72.428787       48.307549      -53.346550
 H        72.857788       47.632179      -52.599266
 C        71.195236       47.977810      -53.905243
 H        70.606636       47.137245      -53.406342
 C        67.201477       43.046665      -56.576675
 C        68.004379       42.615135      -57.616829
 N        67.436966       44.384865      -56.375740
 C        68.364105       44.946678      -57.215065
 N        68.734940       43.829765      -58.026161
 C        69.490540       44.169495      -59.129776
 C        69.216934       45.493198      -59.557495
 C        69.317688       45.821556      -60.936714
 H        68.953827       46.801445      -61.313965
 C        69.877045       44.923683      -61.840458
 H        70.033844       45.196426      -62.787045
 C        70.290100       43.670410      -61.426605
 H        70.844711       43.025124      -62.090389
 C        70.088150       43.303078      -60.065868
 H        70.345062       42.278847      -59.799507
 C        67.948288       41.329041      -58.049503
 H        68.577126       41.046127      -58.953232
 C        67.034653       40.459343      -57.484276
 H        66.968948       39.467201      -57.926914
 C        66.178413       40.864861      -56.427376
 H        65.226715       40.305679      -56.319351
 C        66.326042       42.157364      -55.914207
 H        65.821068       42.471649      -54.997292
 C        66.778053       45.087456      -55.315922
 C        65.379135       45.157715      -55.325844
 H        64.901787       44.714890      -56.166466
 C        64.700645       45.471916      -54.113480
 H        63.633934       45.285919      -53.995045
 C        65.436119       45.807022      -52.976429
 H        64.972176       46.039913      -52.031380
 C        66.811516       45.845284      -53.034111
 H        67.321609       46.310913      -52.274773
 C        67.514297       45.463776      -54.178066
 H        68.591873       45.624805      -54.270836
 C        73.369339       45.819290      -57.657894
 C        73.281784       46.971725      -58.440086
 N        72.046997       45.566063      -57.329147
 C        71.121094       46.437908      -57.842567
 N        71.925079       47.371708      -58.478271
 C        71.248329       48.617538      -58.877422
 C        69.859680       48.484993      -58.948719
 C        69.093216       49.528107      -59.440895
 H        68.110992       49.322815      -59.782230
 C        69.763672       50.714561      -59.840519
 H        69.225922       51.568726      -60.196381
 C        71.094742       50.847107      -59.713676
 H        71.312531       51.895912      -59.833584
 C        71.890915       49.795273      -59.176315
 H        72.866051       49.950623      -58.755882
 C        74.484329       47.359634      -58.965069
 H        74.290283       48.134651      -59.699234
 C        75.739151       46.778465      -58.744438
 H        76.557861       47.153648      -59.364872
 C        75.832817       45.674770      -57.855064
 H        76.711769       45.520958      -57.289482
 C        74.591827       45.213146      -57.369942
 H        74.625610       44.367786      -56.729927
 C        71.620674       44.269730      -56.633179
 C        70.914963       44.253166      -55.477840
 H        70.706444       45.117416      -54.930595
 C        70.584320       42.987160      -54.812332
 H        70.331055       43.056076      -53.749687
 C        70.974846       41.785576      -55.530998
 H        70.581848       40.841934      -55.160606
 C        71.791100       41.825912      -56.643745
 H        71.996811       40.885704      -57.150696
 C        72.079880       43.081032      -57.208611
 H        72.499649       43.274460      -58.199463
 Ir       69.117416       46.765617      -47.359108
 C        73.199799       47.746422      -48.225777
 C        72.520721       48.648598      -48.915436
 N        72.318237       46.808376      -47.670486
 C        71.049583       47.158581      -47.977497
 N        71.182770       48.274040      -48.818928
 C        69.971138       48.772942      -49.340504
 C        68.803207       48.165981      -48.938087
 C        67.608665       48.515305      -49.643600
 H        66.730988       47.976532      -49.285965
 C        67.534561       49.405396      -50.671143
 H        66.583321       49.786896      -51.023571
 C        68.749329       49.987385      -51.082611
 H        68.669434       50.806732      -51.712833
 C        69.891022       49.702087      -50.374268
 H        70.577713       50.457901      -50.728264
 C        73.144028       49.509964      -49.767265
 H        72.642639       50.407501      -50.143070
 C        74.532867       49.285889      -50.070301
 H        74.964081       49.948776      -50.761189
 C        75.318115       48.345695      -49.400204
 H        76.339859       48.177078      -49.579670
 C        74.643509       47.671921      -48.414291
 H        75.290237       47.254570      -47.671745
 C        72.764908       45.779274      -46.717628
 C        73.155792       46.023376      -45.433685
 H        73.059410       47.100357      -45.202301
 C        73.712456       45.029007      -44.626060
 H        74.144058       45.254864      -43.688828
 C        73.759293       43.727707      -45.124878
 H        74.071754       42.929886      -44.455212
 C        73.327629       43.423973      -46.422302
 H        73.465210       42.459923      -46.884663
 C        72.776840       44.470367      -47.166206
 H        72.314651       44.165359      -48.120754
 C        68.443031       49.948776      -44.471550
 C        67.218338       49.310684      -44.531311
 N        69.293945       49.342545      -45.433132
 C        68.690186       48.320465      -46.059097
 N        67.421402       48.268837      -45.545174
 C        66.486885       47.538784      -46.269196
 C        67.020149       46.573608      -47.055939
 C        66.119415       45.711109      -47.615288
 H        66.503868       44.910721      -48.124184
 C        64.710968       45.795452      -47.591885
 H        64.074974       45.304855      -48.193657
 C        64.213196       46.904919      -46.897976
 H        63.215027       47.016075      -46.780502
 C        65.093369       47.708759      -46.172688
 H        64.654350       48.296429      -45.403458
 C        66.224976       49.824883      -43.688622
 H        65.358200       49.312202      -43.434906
 C        66.455032       50.942516      -42.873905
 H        65.621948       51.307056      -42.225159
 C        67.735870       51.544838      -42.899986
 H        67.891808       52.361076      -42.234154
 C        68.744766       51.115234      -43.740982
 H        69.771530       51.416161      -43.742382
 C        70.428680       50.122047      -45.941986
 C        70.151169       51.253998      -46.733868
 H        69.205406       51.235336      -47.224670
 C        71.286285       51.980278      -47.127098
 H        71.247101       52.945927      -47.585457
 C        72.580017       51.603989      -46.750870
 H        73.383499       52.162365      -47.171040
 C        72.782196       50.407055      -46.037094
 H        73.809235       50.057167      -46.009403
 C        71.686913       49.698059      -45.573761
 H        71.808029       48.798439      -44.972832
 C        70.122528       43.533203      -44.574055
 C        70.152267       42.970982      -45.753212
 N        69.611702       44.808090      -44.757965
 C        69.317657       45.143166      -46.099960
 N        69.587738       43.929657      -46.713036
 C        69.315247       43.897072      -48.133518
 C        69.212814       45.138344      -48.729465
 C        69.195969       45.255257      -50.100983
 H        69.149406       46.178650      -50.624603
 C        69.412109       44.168839      -50.957233
 H        69.381348       44.223732      -51.997444
 C        69.592026       42.936207      -50.381771
 H        69.898438       42.138138      -51.058010
 C        69.525024       42.806328      -49.010769
 H        69.633240       41.814671      -48.653687
 C        70.475464       41.579247      -45.864670
 H        70.334259       41.096176      -46.832138
 C        70.822845       40.815845      -44.755463
 H        70.918457       39.738792      -44.858002
 C        70.898743       41.433292      -43.524406
 H        71.114807       40.834991      -42.666588
 C        70.493912       42.751316      -43.411156
 H        70.173981       43.117542      -42.475250
 C        68.984535       45.440098      -43.593224
 C        67.616165       45.262978      -43.513847
 H        67.165802       44.878746      -44.398514
 C        66.885872       46.019989      -42.686504
 H        65.887245       45.806786      -42.483074
 C        67.538391       47.046318      -41.952354
 H        66.888596       47.710167      -41.401672
 C        68.912285       47.232079      -41.982792
 H        69.317459       47.866970      -41.216995
 C        69.648880       46.387192      -42.789196
 H        70.695404       46.461311      -42.626072
