206
 generated by VMD
  IR        61.720001       19.309999       51.660000
  C1        59.200001       22.580000       50.230000
  C2        58.919998       22.490000       51.590000
  N1        60.070000       21.500000       49.939999
  C3a       60.400002       20.820000       51.049999
  N2        59.669998       21.400000       52.049999
  C4        59.720001       20.879999       53.360001
  C5a       60.820000       19.959999       53.500000
  C6        61.040001       19.400000       54.759998
  H1        61.910000       18.730000       54.880001
  C7        60.209999       19.590000       55.840000
  H2        60.500000       19.120001       56.740002
  C8        59.110001       20.400000       55.660000
  H3        58.410000       20.600000       56.410000
  C9        58.860001       20.990000       54.450001
  H4        58.139999       21.780001       54.380001
  C10       58.049999       23.450001       52.130001
  H5        57.919998       23.389999       53.220001
  C11       57.459999       24.450001       51.310001
  H6        56.889999       25.200001       51.860001
  C12       57.779999       24.530001       49.930000
  H7        57.419998       25.309999       49.279999
  C13       58.680000       23.610001       49.369999
  H8        58.930000       23.559999       48.340000
  C6        60.150002       21.040001       48.590000
  C1        59.480000       19.870001       48.209999
  H1        58.860001       19.270000       48.820000
  C2        59.570000       19.430000       46.840000
  H2        58.889999       18.670000       46.529999
  C3        60.369999       20.129999       45.889999
  H3        60.410000       19.780001       44.849998
  C4        60.930000       21.370001       46.240002
  H4        61.480000       22.040001       45.549999
  C5        60.889999       21.740000       47.599998
  H5        61.480000       22.559999       47.910000
  C1        65.430000       21.490000       52.459999
  C2        65.730003       20.209999       52.770000
  N1        63.990002       21.549999       52.279999
  C3b       63.419998       20.309999       52.310001
  N2        64.529999       19.459999       52.500000
  C4        64.169998       18.100000       52.770000
  C5b       62.840000       17.799999       52.549999
  C6        62.400002       16.459999       52.770000
  H1        61.439999       16.070000       52.660000
  C7        63.200001       15.450000       53.340000
  H2        62.959999       14.400000       53.520000
  C8        64.559998       15.800000       53.610001
  H3        65.250000       15.110000       54.020000
  C9        65.029999       17.070000       53.240002
  H4        66.070000       17.350000       53.349998
  C10       67.089996       19.930000       53.020000
  H5        67.279999       19.160000       53.820000
  C11       68.120003       20.840000       52.740002
  H6        69.199997       20.670000       52.939999
  C12       67.720001       22.129999       52.340000
  H7        68.430000       22.860001       51.889999
  C13       66.379997       22.500000       52.349998
  H8        66.220001       23.540001       52.270000
  C6        63.279999       22.799999       52.439999
  C1        62.450001       22.940001       53.570000
  H1        62.430000       22.070000       54.209999
  C2        61.459999       24.030001       53.580002
  H2        60.750000       24.219999       54.320000
  C3        61.450001       24.910000       52.419998
  H3        60.669998       25.639999       52.299999
  C4        62.270000       24.719999       51.320000
  H4        61.950001       25.190001       50.380001
  C5        63.259998       23.680000       51.279999
  H5        63.779999       23.350000       50.410000
  C1        63.360001       17.629999       47.980000
  C2        62.400002       16.709999       48.369999
  N1        63.410000       18.620001       48.950001
  C3c       62.470001       18.389999       49.919998
  N2        61.840000       17.209999       49.520000
  C4        60.610001       16.969999       50.169998
  C5c       60.200001       17.940001       51.130001
  C6        58.860001       18.150000       51.389999
  H1        58.540001       19.020000       51.939999
  C7        57.869999       17.379999       50.799999
  H2        56.840000       17.700001       50.900002
  C8        58.180000       16.420000       49.910000
  H3        57.369999       16.070000       49.250000
  C9        59.540001       16.190001       49.599998
  H4        59.680000       15.240000       49.130001
  C10       62.200001       15.610000       47.590000
  H5        61.610001       14.730000       47.799999
  C11       62.980000       15.370000       46.430000
  H6        62.810001       14.560000       45.779999
  C12       64.059998       16.209999       46.070000
  H7        64.849998       15.800000       45.490002
  C13       64.150002       17.389999       46.799999
  H8        64.849998       18.139999       46.380001
  C6        64.419998       19.629999       48.930000
  C1        64.160004       20.930000       48.480000
  H1        63.310001       21.110001       47.799999
  C2        65.139999       21.879999       48.630001
  H2        64.930000       22.969999       48.770000
  C3        66.370003       21.549999       49.110001
  H3        67.110001       22.309999       49.189999
  C4        66.620003       20.240000       49.529999
  H4        67.580002       19.959999       49.950001
  C5        65.599998       19.270000       49.470001
  H5        65.650002       18.530001       50.320000
  IR        47.410000       12.690000       49.740002
  C1        45.919998        9.000000       48.090000
  C2        47.240002        8.960000       47.680000
  N1        45.680000       10.320000       48.560001
  C3a       46.750000       11.100000       48.590000
  N2        47.740002       10.270000       48.060001
  C4        48.990002       10.920000       47.880001
  C5a       49.200001       12.020000       48.820000
  C6        50.509998       12.460000       49.009998
  H1        50.730000       13.200000       49.740002
  C7        51.549999       11.950000       48.250000
  H2        52.509998       12.450000       48.349998
  C8        51.320000       10.960000       47.290001
  H3        52.110001       10.750000       46.540001
  C9        50.029999       10.400000       47.110001
  H4        49.919998        9.650000       46.369999
  C10       47.849998        7.740000       47.250000
  H5        48.830002        7.400000       47.560001
  C11       46.990002        6.680000       47.029999
  H6        47.439999        5.770000       46.599998
  C12       45.610001        6.750000       47.360001
  H7        45.070000        5.890000       47.099998
  C13       45.009998        7.890000       47.950001
  H8        44.020000        7.950000       48.200001
  C6        44.330002       10.730000       48.770000
  C1        43.820000       10.500000       50.060001
  H1        44.459999       10.360000       50.860001
  C2        42.490002       10.660000       50.270000
  H2        42.110001       10.700000       51.310001
  C3        41.619999       10.980000       49.270000
  H3        40.570000       11.170000       49.450001
  C4        42.049999       11.240000       47.970001
  H4        41.529999       11.870000       47.310001
  C5        43.439999       11.110000       47.720001
  H5        43.799999       11.330000       46.720001
  C1        48.480000       10.830000       53.509998
  C2        49.240002       11.960000       53.540001
  N1        47.820000       10.670000       52.299999
  C3b       48.110001       11.810000       51.470001
  N2        48.980000       12.620000       52.270000
  C4        49.070000       14.040000       51.889999
  C5b       48.490002       14.330000       50.630001
  C6        48.619999       15.690000       50.169998
  H1        48.160000       15.910000       49.270000
  C7        49.200001       16.700001       51.009998
  H2        49.549999       17.540001       50.380001
  C8        49.680000       16.410000       52.279999
  H3        50.000000       17.250000       52.869999
  C9        49.630001       15.080000       52.709999
  H4        50.310001       14.760000       53.459999
  C10       50.000000       12.260000       54.680000
  H5        50.730000       12.950000       54.529999
  C11       50.029999       11.360000       55.779999
  H6        50.570000       11.550000       56.669998
  C12       49.240002       10.190000       55.730000
  H7        49.389999        9.410000       56.470001
  C13       48.490002       10.040000       54.599998
  H8        47.680000        9.280000       54.759998
  C6        47.590000        9.290000       51.750000
  C1        46.389999        8.660000       52.070000
  H1        45.480000        9.170000       52.380001
  C2        46.240002        7.320000       51.650002
  H2        45.259998        6.850000       51.830002
  C3        47.250000        6.620000       50.930000
  H3        47.230000        5.540000       50.889999
  C4        48.400002        7.280000       50.570000
  H4        49.130001        6.750000       50.049999
  C5        48.599998        8.620000       51.029999
  H5        49.459999        9.160000       50.700001
  C1        43.459999       14.160000       50.790001
  C2        43.529999       14.260000       49.419998
  N1        44.669998       13.690000       51.310001
  C3c       45.619999       13.580000       50.240002
  N2        44.840000       13.910000       49.080002
  C4        45.590000       14.120000       47.860001
  C5c       46.910000       13.700000       47.919998
  C6        47.730000       13.910000       46.810001
  H1        48.730000       13.640000       46.910000
  C7        47.169998       14.450000       45.619999
  H2        47.869999       14.650000       44.810001
  C8        45.840000       14.880000       45.470001
  H3        45.490002       15.160000       44.480000
  C9        45.080002       14.740000       46.599998
  H4        44.080002       15.160000       46.480000
  C10       42.349998       14.470000       48.700001
  H5        42.340000       14.660000       47.650002
  C11       41.090000       14.590000       49.310001
  H6        40.189999       14.520000       48.740002
  C12       41.099998       14.640000       50.709999
  H7        40.209999       14.630000       51.340000
  C13       42.250000       14.380000       51.439999
  H8        42.139999       14.550000       52.490002
  C6        45.000000       13.830000       52.689999
  C1        45.750000       14.770000       53.340000
  H1        46.080002       15.650000       52.840000
  C2        46.130001       14.660000       54.700001
  H2        46.689999       15.410000       55.209999
  C3        45.910000       13.490000       55.360001
  H3        46.459999       13.350000       56.340000
  C4        45.360001       12.430000       54.650002
  H4        45.520000       11.410000       54.970001
  C5        44.849998       12.630000       53.340000
  H5        44.169998       11.930000       52.919998
