206
 generated by VMD
 Ir      137.216415       63.126534      -74.103058
 C       140.731018       62.060890      -71.731934
 C       140.690002       63.431122      -71.702324
 N       139.701843       61.636353      -72.604584
 C       138.996338       62.713223      -73.118881
 N       139.647339       63.811821      -72.577545
 C       139.167740       65.072739      -72.995956
 C       137.855423       65.060059      -73.491394
 C       137.218262       66.288925      -73.709671
 H       136.218231       66.332993      -74.097595
 C       137.878143       67.504005      -73.470787
 H       137.344238       68.425934      -73.627960
 C       139.199921       67.509331      -73.031532
 H       139.722870       68.444534      -72.878799
 C       139.848053       66.302818      -72.796524
 H       140.907257       66.296387      -72.599350
 C       141.576233       64.111130      -70.849800
 H       141.497162       65.184189      -70.718674
 C       142.512253       63.411743      -70.082596
 H       143.214874       63.956810      -69.455185
 C       142.549652       62.015053      -70.134262
 H       143.289429       61.462074      -69.583038
 C       141.643768       61.338272      -70.960266
 H       141.656708       60.255802      -70.969589
 C       139.620544       60.279594      -73.076279
 C       140.552521       59.853317      -74.020767
 H       141.067108       60.590977      -74.626793
 C       140.762817       58.490978      -74.234329
 H       141.587555       58.159992      -74.842331
 C       140.018768       57.546631      -73.524261
 H       140.225342       56.491219      -73.661118
 C       139.058533       57.967915      -72.596359
 H       138.489716       57.234367      -72.049850
 C       138.854065       59.330250      -72.374680
 H       138.095276       59.657116      -71.690948
 C       134.122284       62.706207      -71.054214
 C       133.559341       63.502640      -72.016876
 N       135.475281       62.524879      -71.402290
 C       135.798035       63.180237      -72.585228
 N       134.590698       63.789932      -72.946793
 C       134.560638       64.382652      -74.232628
 C       135.526489       63.883522      -75.115234
 C       135.384949       64.128395      -76.493271
 H       136.051910       63.646591      -77.184677
 C       134.338959       64.911560      -76.971359
 H       134.253265       65.112373      -78.031982
 C       133.412231       65.461250      -76.092331
 H       132.578827       66.051857      -76.464905
 C       133.523270       65.213676      -74.716949
 H       132.914642       65.782509      -74.030655
 C       132.191574       63.792747      -71.941833
 H       131.727203       64.426010      -72.679626
 C       131.395660       63.278198      -70.922920
 H       130.335663       63.472191      -70.909805
 C       131.980225       62.468544      -69.938873
 H       131.384689       62.103653      -69.114021
 C       133.340607       62.182549      -70.008575
 H       133.779480       61.552521      -69.252365
 C       136.435089       61.917213      -70.504227
 C       137.575226       62.629883      -70.131149
 H       137.739136       63.615654      -70.533249
 C       138.501251       62.075134      -69.245697
 H       139.411713       62.600525      -69.027451
 C       138.280746       60.806831      -68.704041
 H       138.991592       60.379379      -68.008575
 C       137.135742       60.089165      -69.061272
 H       136.959564       59.102516      -68.637970
 C       136.218628       60.635689      -69.965500
 H       135.315292       60.088837      -70.213562
 C       136.617310       59.047134      -75.421982
 C       137.661652       59.518761      -76.176254
 N       136.069244       60.154850      -74.730103
 C       136.790359       61.302917      -74.991882
 N       137.724884       60.911388      -75.925888
 C       138.396240       61.973034      -76.583450
 C       138.379486       63.194191      -75.880569
 C       138.911560       64.335793      -76.511566
 H       138.925079       65.272728      -75.978577
 C       139.404694       64.270821      -77.817558
 H       139.763794       65.175163      -78.298935
 C       139.409332       63.065189      -78.511688
 H       139.791290       63.011139      -79.515335
 C       138.900116       61.913063      -77.897194
 H       138.772247       61.018166      -78.470970
 C       138.426422       58.612671      -76.925964
 H       139.310394       58.939644      -77.453400
 C       138.120300       57.246490      -76.914589
 H       138.724213       56.545067      -77.486435
 C       137.044617       56.778095      -76.150009
 H       136.823792       55.727364      -76.113892
 C       136.290558       57.689182      -75.408035
 H       135.459717       57.322525      -74.832642
 C       134.723129       60.163010      -74.238968
 C       133.738617       60.859749      -74.958832
 H       133.986771       61.306068      -75.915192
 C       132.447754       60.963169      -74.445923
 H       131.704208       61.546726      -74.969742
 C       132.118958       60.364849      -73.221619
 H       131.128799       60.497978      -72.802536
 C       133.095825       59.654884      -72.520905
 H       132.851715       59.195339      -71.567474
 C       134.395874       59.560581      -73.028114
 H       135.168365       59.057281      -72.451172
 Ir      137.216415       63.126534      -63.852306
 C       135.327148       66.434967      -61.673656
 C       135.162567       65.340996      -60.851677
 N       135.944916       65.971985      -62.859962
 C       136.181183       64.604347      -62.808578
 N       135.689728       64.224167      -61.565468
 C       135.899475       62.861809      -61.198860
 C       136.822021       62.180397      -62.000854
 C       137.324310       60.941826      -61.549500
 H       138.067291       60.419449      -62.123108
 C       136.892914       60.385544      -60.349777
 H       137.298096       59.437428      -60.013302
 C       135.936951       61.039612      -59.572983
 H       135.609344       60.617989      -58.633247
 C       135.413177       62.268188      -60.008842
 H       134.543076       62.658852      -59.528439
 C       134.593842       65.534966      -59.577431
 H       134.546478       64.720299      -58.864780
 C       134.183533       66.805565      -59.157745
 H       133.742157       66.938988      -58.185181
 C       134.360352       67.900421      -60.000908
 H       134.043961       68.884033      -59.698380
 C       134.944153       67.715561      -61.261353
 H       135.124176       68.579857      -61.884796
 C       136.214539       66.839005      -63.979858
 C       135.440491       66.729057      -65.135437
 H       134.742142       65.912621      -65.247833
 C       135.582062       67.650993      -66.175179
 H       134.987274       67.567497      -67.065491
 C       136.514893       68.689690      -66.059448
 H       136.638855       69.397064      -66.864410
 C       137.288940       68.799644      -64.903862
 H       137.987305       69.616074      -64.791473
 C       137.140869       67.875885      -63.871754
 H       137.705383       67.998184      -62.959579
 C       141.300781       64.081543      -62.719173
 C       141.404724       62.929127      -63.448021
 N       139.923065       64.314323      -62.501255
 C       139.154587       63.369423      -63.155109
 N       140.075684       62.493973      -63.697014
 C       139.529968       61.326824      -64.302048
 C       138.168991       61.402336      -64.614311
 C       137.557983       60.314568      -65.258537
 H       136.527298       60.373333      -65.550308
 C       138.280945       59.158630      -65.558640
 H       137.775269       58.306641      -65.995239
 C       139.637054       59.078125      -65.230530
 H       140.198700       58.193245      -65.475800
 C       140.259491       60.148552      -64.594566
 H       141.257538       60.010109      -64.192856
 C       142.683411       62.454685      -63.804108
 H       142.801910       61.586853      -64.432449
 C       143.834442       63.149128      -63.401882
 H       144.810822       62.746696      -63.613644
 C       143.709137       64.332115      -62.669945
 H       144.583405       64.865387      -62.339214
 C       142.439392       64.798325      -62.332642
 H       142.336121       65.762245      -61.850994
 C       139.456985       65.015144      -61.325829
 C       139.047180       64.273651      -60.215717
 H       139.222717       63.208824      -60.182137
 C       138.399567       64.903908      -59.143539
 H       138.057159       64.318535      -58.304138
 C       138.184174       66.280663      -59.173012
 H       137.662170       66.773346      -58.364258
 C       138.619080       67.034439      -60.276585
 H       138.500122       68.109268      -60.277012
 C       139.256653       66.401009      -61.341496
 H       139.675598       66.986320      -62.149834
 C       137.546753       65.110802      -67.717506
 C       136.250275       64.648003      -67.693954
 N       138.179840       64.647758      -66.558807
 C       137.332092       63.881851      -65.773842
 N       136.138046       63.873886      -66.502716
 C       135.063660       63.114452      -65.924126
 C       135.338837       62.570244      -64.654938
 C       134.352295       61.777008      -64.041107
 H       134.579407       61.257210      -63.119621
 C       133.106171       61.571762      -64.633698
 H       132.380890       60.942291      -64.159210
 C       132.827225       62.146542      -65.875473
 H       131.867889       62.001282      -66.342133
 C       133.808350       62.900097      -66.522415
 H       133.599060       63.265255      -67.506104
 C       135.374512       65.046646      -68.726730
 H       134.336914       64.767319      -68.729813
 C       135.811035       65.870697      -69.769806
 H       135.152161       66.114700      -70.589157
 C       137.139862       66.325256      -69.779701
 H       137.491013       66.959435      -70.588409
 C       138.005707       65.939842      -68.752106
 H       139.033203       66.255630      -68.791092
 C       139.587128       64.843895      -66.316986
 C       140.499695       63.866425      -66.717041
 H       140.152100       62.876259      -66.959412
 C       141.871231       64.131310      -66.671448
 H       142.572769       63.370258      -66.968414
 C       142.339218       65.366364      -66.207642
 H       143.399200       65.546326      -66.134384
 C       141.421783       66.338837      -65.791733
 H       141.779510       67.262558      -65.371658
 C       140.047058       66.081245      -65.847366
 H       139.347168       66.839119      -65.526917
