206
 generated by VMD
 Ir       28.562939      -80.996613       -8.862444
 C        30.175266      -84.594955       -7.042683
 C        31.211010      -83.646606       -7.015123
 N        29.120731      -83.980240       -7.831714
 C        29.508896      -82.719040       -8.248865
 N        30.775963      -82.567886       -7.690398
 C        31.340691      -81.203903       -7.779432
 C        30.335674      -80.250473       -8.009689
 C        30.638653      -78.884140       -7.885465
 H        29.811420      -78.177979       -8.012018
 C        31.879452      -78.483177       -7.453899
 H        32.043995      -77.462189       -7.271642
 C        32.911674      -79.319534       -7.321893
 H        33.693100      -78.951454       -6.691342
 C        32.690151      -80.658066       -7.570589
 H        33.565372      -81.232864       -7.486931
 C        32.305897      -83.900131       -6.289342
 H        33.018772      -83.097626       -6.097511
 C        32.469925      -85.098267       -5.539314
 H        33.402546      -85.306366       -5.075084
 C        31.423782      -86.025681       -5.537668
 H        31.529800      -87.027069       -5.226760
 C        30.235226      -85.762764       -6.313820
 H        29.296249      -86.113403       -5.941287
 C        27.929523      -84.597542       -8.415724
 C        26.704779      -84.311508       -7.865465
 H        26.445450      -83.356499       -7.389642
 C        25.522560      -84.969925       -8.283256
 H        24.584595      -84.774536       -7.822658
 C        25.650898      -86.007942       -9.136504
 H        24.802086      -86.655197       -9.405917
 C        26.832001      -86.366226       -9.660758
 H        26.781624      -87.154823      -10.421000
 C        27.998262      -85.640656       -9.313934
 H        28.982292      -85.935699       -9.851002
 C        26.878223      -79.737122       -5.041512
 C        26.672085      -78.666031       -5.903710
 N        27.336685      -80.758499       -5.840508
 C        27.560989      -80.387909       -7.149495
 N        27.087276      -79.083450       -7.216370
 C        27.164814      -78.426636       -8.461070
 C        27.962658      -79.043541       -9.408792
 C        28.310089      -78.408066      -10.617412
 H        28.911179      -78.893799      -11.434821
 C        27.768900      -77.154114      -10.949420
 H        27.989288      -76.793503      -11.927369
 C        26.874630      -76.509415      -10.059397
 H        26.581562      -75.506836      -10.242587
 C        26.674774      -77.113564       -8.827547
 H        25.813396      -76.717697       -8.219833
 C        25.942535      -77.574181       -5.371631
 H        25.727777      -76.772484       -6.142967
 C        25.553570      -77.538925       -4.046012
 H        25.055492      -76.616028       -3.779399
 C        25.727566      -78.647995       -3.212528
 H        25.038918      -78.753113       -2.372280
 C        26.439962      -79.747871       -3.676479
 H        26.600449      -80.648834       -3.106640
 C        28.048452      -81.895172       -5.196333
 C        29.352310      -81.681961       -4.795960
 H        29.832787      -80.704445       -5.223292
 C        29.970844      -82.674538       -3.973339
 H        30.983494      -82.467194       -3.751196
 C        29.298740      -83.843521       -3.572779
 H        29.691086      -84.524612       -2.783619
 C        27.963900      -84.048904       -3.941863
 H        27.267593      -84.868240       -3.691152
 C        27.417030      -83.060242       -4.801214
 H        26.344200      -83.173218       -4.927579
 C        25.173996      -82.790176      -10.919258
 C        26.335201      -83.421555      -11.439595
 N        25.646442      -81.855125      -10.058980
 C        26.980793      -81.775040      -10.004219
 N        27.404251      -82.655472      -10.981836
 C        28.632793      -82.242767      -11.607349
 C        29.418034      -81.356476      -10.795888
 C        30.653435      -80.933594      -11.289307
 H        31.401608      -80.516968      -10.633516
 C        31.060978      -81.348465      -12.565429
 H        31.984142      -80.920105      -13.037002
 C        30.314274      -82.265106      -13.331129
 H        30.787685      -82.650803      -14.204124
 C        29.070137      -82.655090      -12.860991
 H        28.460670      -83.425873      -13.175699
 C        26.181662      -84.494827      -12.275493
 H        27.049965      -84.804352      -12.750930
 C        24.917660      -84.965485      -12.655059
 H        24.748329      -85.772491      -13.362284
 C        23.729687      -84.333908      -12.206022
 H        22.765553      -84.765991      -12.355825
 C        23.887424      -83.212097      -11.358942
 H        22.995922      -82.620651      -11.258321
 C        24.878464      -80.893463       -9.430083
 C        24.190929      -81.209435       -8.273858
 H        24.251083      -82.251740       -7.857489
 C        23.366297      -80.270096       -7.625158
 H        23.009682      -80.354843       -6.640202
 C        23.123096      -79.054909       -8.329991
 H        22.400265      -78.349915       -8.007661
 C        23.631418      -78.842117       -9.650647
 H        23.224182      -78.068024      -10.337189
 C        24.581360      -79.719009      -10.107782
 H        25.198765      -79.436508      -10.967087
 Ir       28.562941      -80.996613        4.312846
 C        27.882996      -85.310577        3.696550
 C        29.169182      -85.153168        3.281521
 N        27.301537      -83.993973        4.082491
 C        28.265656      -83.012344        3.947686
 N        29.341106      -83.701286        3.369618
 C        30.416939      -82.855530        2.906395
 C        30.369015      -81.502701        3.319380
 C        31.519833      -80.761284        3.084388
 H        31.593697      -79.881844        3.736480
 C        32.665386      -81.218819        2.351606
 H        33.530952      -80.668884        2.124985
 C        32.655281      -82.584763        1.954757
 H        33.484913      -83.016266        1.433198
 C        31.562332      -83.409187        2.287015
 H        31.861282      -84.407455        2.315136
 C        29.868790      -86.258148        2.755037
 H        30.908752      -86.197250        2.708463
 C        29.213831      -87.397781        2.404499
 H        29.605370      -88.126472        1.683319
 C        27.869759      -87.557724        2.807588
 H        27.228489      -88.354752        2.493524
 C        27.242867      -86.516373        3.556253
 H        26.321392      -86.744263        4.203056
 C        25.993862      -83.849487        4.554093
 C        25.529835      -84.524124        5.708193
 H        26.177555      -85.195435        6.153276
 C        24.131603      -84.574837        6.023914
 H        23.800598      -84.847343        6.991732
 C        23.224258      -84.072876        5.114810
 H        22.134171      -83.930359        5.227036
 C        23.657597      -83.511017        3.907407
 H        23.009474      -83.314072        3.062862
 C        25.046173      -83.339706        3.679789
 H        25.310207      -82.906853        2.675835
 C        30.489822      -80.997322        8.279613
 C        30.112373      -79.692474        8.013910
 N        30.096733      -81.682175        7.090090
 C        29.517391      -80.884979        6.144229
 N        29.562565      -79.583832        6.719883
 C        29.317890      -78.482407        5.811926
 C        29.176628      -78.984604        4.468069
 C        29.308914      -78.064453        3.454589
 H        29.236355      -78.394165        2.436046
 C        29.410389      -76.713974        3.696481
 H        29.873161      -76.087692        2.994333
 C        29.363949      -76.290298        4.995572
 H        29.435013      -75.258743        5.184896
 C        29.345844      -77.141129        6.085597
 H        29.164482      -76.771683        7.053698
 C        30.181480      -78.800888        9.080165
 H        29.644566      -77.830025        9.072567
 C        30.684151      -79.204750       10.305526
 H        30.822754      -78.539879       11.158540
 C        31.044949      -80.551498       10.526873
 H        31.004757      -80.820488       11.558052
 C        30.970608      -81.470688        9.475131
 H        30.933681      -82.564888        9.661320
 C        30.281300      -83.119965        7.012681
 C        29.214920      -83.945755        7.358807
 H        28.347578      -83.591591        7.836808
 C        29.265316      -85.338127        7.009304
 H        28.321030      -85.771194        6.713197
 C        30.439793      -85.942101        6.552780
 H        30.514420      -87.002243        6.182466
 C        31.543819      -85.115135        6.250032
 H        32.572403      -85.408218        5.973948
 C        31.420082      -83.692024        6.404146
 H        32.217072      -83.003082        6.279383
 C        24.855595      -79.075249        5.562399
 C        24.749035      -79.190002        4.168707
 N        26.040298      -79.761436        5.986807
 C        26.722813      -80.266167        4.845655
 N        25.895149      -79.956863        3.750438
 C        26.383575      -80.386215        2.462147
 C        27.723244      -80.627594        2.417260
 C        28.327721      -80.747238        1.153577
 H        29.359154      -80.935760        1.084280
 C        27.630177      -80.766052       -0.050283
 H        28.151031      -80.891556       -1.024532
 C        26.271233      -80.623138        0.000168
 H        25.624157      -80.730637       -0.926947
 C        25.639294      -80.470612        1.247603
 H        24.535172      -80.540710        1.322439
 C        23.518105      -78.745010        3.592688
 H        23.343708      -79.256195        2.729686
 C        22.464224      -78.320557        4.398963
 H        21.550379      -78.121857        4.013209
 C        22.691936      -78.162537        5.773946
 H        21.893890      -77.649796        6.351193
 C        23.848663      -78.498482        6.351466
 H        23.845623      -78.505127        7.481621
 C        26.069656      -80.390839        7.260181
 C        25.491648      -81.640488        7.313844
 H        24.891663      -81.954147        6.369895
 C        25.729271      -82.508560        8.373753
 H        25.514933      -83.541672        8.343391
 C        26.564516      -82.016739        9.403793
 H        26.699062      -82.638718       10.274453
 C        27.126141      -80.731659        9.363392
 H        27.854202      -80.533127       10.079430
 C        26.870829      -79.884537        8.284821
 H        27.441593      -78.913483        8.325686
