206
 generated by VMD
 Ir        5.793602       71.235199       76.764137
 C         7.860871       70.354340       73.018394
 C         6.604153       69.801483       72.757782
 N         7.958939       70.832451       74.340393
 C         6.787373       70.589767       75.040642
 N         6.004997       69.875763       74.089279
 C         4.674847       69.579376       74.615265
 C         4.301039       70.320625       75.691101
 C         2.965721       70.200348       76.103241
 H         2.614679       70.774353       76.929855
 C         2.105918       69.277626       75.586220
 H         1.338181       68.989853       76.207153
 C         2.478915       68.451752       74.516541
 H         1.855574       67.626076       74.195137
 C         3.772981       68.666618       74.034744
 H         4.079399       68.125290       73.164078
 C         6.230403       69.455475       71.461174
 H         5.248522       69.030289       71.334610
 C         7.034130       69.833969       70.337662
 H         6.641686       69.722290       69.335907
 C         8.256161       70.354141       70.631882
 H         9.034614       70.474350       69.853127
 C         8.692268       70.613449       71.914520
 H         9.694897       70.873535       72.113251
 C         9.239882       70.955383       75.029358
 C         9.927910       69.714920       75.319153
 H         9.540010       68.792908       74.971558
 C        11.295042       69.762085       75.660370
 H        11.847537       68.871773       75.677536
 C        11.949144       70.935127       75.595390
 H        12.925486       71.034248       75.916992
 C        11.329684       72.156303       75.244545
 H        11.835741       73.070679       75.307922
 C         9.962082       72.185875       74.983414
 H         9.366087       73.129494       74.913651
 C         4.809370       75.239624       75.737228
 C         4.082331       75.041389       76.814590
 N         5.394495       74.022072       75.353836
 C         5.073195       73.050430       76.184372
 N         4.182919       73.666107       77.122757
 C         3.930289       72.956696       78.350555
 C         4.579825       71.683167       78.473251
 C         4.586515       71.009857       79.646751
 H         4.845782       69.910049       79.669373
 C         4.105401       71.605270       80.847961
 H         4.147790       70.982811       81.750648
 C         3.372052       72.796234       80.748932
 H         2.586212       73.036209       81.507210
 C         3.323570       73.507721       79.509888
 H         2.586027       74.261459       79.442688
 C         3.546935       76.130714       77.585907
 H         3.307109       75.954483       78.640060
 C         3.594987       77.411346       77.068344
 H         3.144560       78.297974       77.501144
 C         4.328430       77.572060       75.865883
 H         4.581571       78.489807       75.552406
 C         5.004563       76.549500       75.251205
 H         5.565779       76.635300       74.360542
 C         5.782880       73.679825       74.014389
 C         4.880545       72.920776       73.207886
 H         4.135951       72.244232       73.653259
 C         5.113821       72.945236       71.820839
 H         4.477563       72.598328       71.061813
 C         6.183783       73.569122       71.279221
 H         6.424631       73.369003       70.217316
 C         7.071123       74.281387       72.122971
 H         8.020647       74.646278       71.806343
 C         6.880023       74.326408       73.496124
 H         7.395589       75.082993       74.022987
 C         9.471670       72.316437       78.856682
 C         9.432491       70.946259       78.924347
 N         8.255581       72.811371       78.287857
 C         7.384511       71.709114       77.932816
 N         8.110985       70.593910       78.390045
 C         7.482533       69.380630       78.489990
 C         6.347875       69.333008       77.686012
 C         5.633590       68.154793       77.671921
 H         4.749172       68.085564       77.188591
 C         6.031437       67.032799       78.479668
 H         5.307475       66.227173       78.615501
 C         7.204648       67.032921       79.220726
 H         7.583031       66.122429       79.717041
 C         7.914550       68.208038       79.191559
 H         8.831001       68.226349       79.661438
 C        10.543922       70.175385       79.292404
 H        10.582066       69.109673       79.462143
 C        11.802711       70.886093       79.384277
 H        12.800209       70.369667       79.239334
 C        11.835798       72.268295       79.286316
 H        12.864688       72.754700       79.285812
 C        10.635839       73.005859       79.130745
 H        10.635736       74.116013       79.284546
 C         7.792238       74.061279       78.742126
 C         6.788215       74.091110       79.701729
 H         6.403940       73.132080       80.015274
 C         6.382244       75.313843       80.179871
 H         5.432351       75.384171       80.728828
 C         6.983264       76.526344       79.675888
 H         6.508177       77.459747       80.066208
 C         7.969033       76.467270       78.701736
 H         8.558132       77.364380       78.441223
 C         8.388740       75.256577       78.195908
 H         8.983604       75.170013       77.279533
 Ir        5.793602       71.235199       89.236221
 C         6.004779       69.784279       85.109222
 C         6.920110       70.796356       85.205017
 N         5.474702       69.631851       86.452316
 C         6.083619       70.577026       87.342232
 N         6.945809       71.254868       86.540390
 C         7.474743       72.497208       87.118866
 C         7.046359       72.678101       88.379166
 C         7.502676       73.807281       89.049408
 H         6.933761       74.145645       89.921959
 C         8.526627       74.667183       88.627289
 H         9.146835       75.118317       89.355026
 C         9.019485       74.426758       87.336983
 H         9.900829       74.918594       87.001968
 C         8.399959       73.437912       86.527557
 H         8.588140       73.494781       85.482590
 C         7.678173       71.002480       84.045341
 H         8.711176       71.425285       84.243179
 C         7.455264       70.327621       82.828720
 H         8.064790       70.378662       81.954147
 C         6.397539       69.423912       82.741882
 H         6.062821       69.128891       81.761314
 C         5.757772       69.147263       83.922379
 H         4.776859       68.755447       83.864990
 C         4.209976       68.843437       86.558502
 C         3.011195       69.268890       86.011406
 H         3.070676       70.069595       85.330643
 C         1.800654       68.565498       86.318680
 H         0.910288       68.813095       85.803955
 C         1.819761       67.457283       87.168442
 H         0.945740       66.801308       87.294876
 C         3.038777       67.074142       87.715073
 H         3.145745       66.219414       88.357414
 C         4.205725       67.724548       87.355911
 H         5.155880       67.199265       87.570114
 C         9.512459       69.613480       91.019341
 C         9.089579       70.541824       91.931824
 N         8.550926       69.541016       89.896751
 C         7.521787       70.468201       90.128685
 N         7.821761       71.101791       91.372826
 C         6.823511       71.907288       91.982559
 C         5.685289       72.231880       91.129105
 C         4.556957       72.883583       91.654411
 H         3.635010       72.485497       91.226234
 C         4.612577       73.264008       92.992355
 H         3.861185       73.849274       93.336273
 C         5.666768       73.027145       93.871147
 H         5.466337       73.113388       94.932510
 C         6.828799       72.401581       93.319740
 H         7.682163       72.199081       93.962128
 C         9.914030       70.889847       93.023094
 H         9.877710       71.827385       93.528168
 C        11.154999       70.293327       93.173630
 H        11.762930       70.623749       93.994514
 C        11.518594       69.221542       92.328308
 H        12.210211       68.480942       92.667397
 C        10.721595       68.924438       91.258347
 H        11.007393       68.233147       90.467575
 C         9.007545       69.270325       88.575310
 C         9.982372       70.118835       87.990219
 H        10.363930       70.920837       88.538956
 C        10.284279       69.966469       86.618164
 H        10.757280       70.815376       86.167130
 C         9.631341       68.914352       85.909134
 H         9.397234       68.839813       84.853989
 C         8.835981       68.007019       86.586601
 H         8.448936       67.115936       86.079491
 C         8.472589       68.211662       87.889473
 H         7.560472       67.805481       88.228386
 C         2.677697       68.815948       91.142853
 C         2.020114       69.607330       90.239532
 N         4.058815       69.084183       90.918877
 C         4.286273       69.970810       89.882019
 N         2.994307       70.331635       89.506218
 C         2.890263       71.375145       88.535629
 C         4.060502       72.194870       88.457573
 C         3.986230       73.425232       87.720222
 H         4.778240       74.051315       87.756821
 C         2.771848       73.905037       87.138443
 H         2.801637       74.865738       86.606400
 C         1.630812       73.028893       87.224518
 H         0.754254       73.421677       86.758080
 C         1.674778       71.807457       87.885704
 H         0.946566       71.089828       87.671204
 C         0.739774       69.306290       89.928558
 H        -0.030531       69.957413       89.421234
 C         0.242863       68.061111       90.484436
 H        -0.665390       67.767250       90.028885
 C         0.854989       67.244621       91.426529
 H         0.224804       66.604561       91.998711
 C         2.122810       67.660568       91.755951
 H         2.619711       67.331184       92.653946
 C         5.041224       68.260704       91.424004
 C         5.538841       68.440887       92.699158
 H         4.913687       69.194748       93.233170
 C         6.708390       67.846512       93.161934
 H         7.283590       68.184166       94.078087
 C         7.344439       66.885483       92.315720
 H         8.134592       66.207512       92.748978
 C         6.756334       66.670555       91.038368
 H         7.082396       65.839630       90.477783
 C         5.662098       67.330994       90.616386
 H         5.098969       66.889816       89.838211
