206
 generated by VMD
 Ir      124.552055      -62.252541       -0.822203
 C       125.320976      -64.863091        2.597107
 C       123.975166      -64.490623        2.701336
 N       125.849251      -64.131432        1.526638
 C       124.836189      -63.416290        0.822807
 N       123.660782      -63.664574        1.567440
 C       122.480003      -63.093445        1.073919
 C       122.563057      -62.605064       -0.211027
 C       121.435349      -62.331856       -0.954195
 H       121.467422      -62.154671       -2.005993
 C       120.153587      -62.485771       -0.415682
 H       119.307159      -62.191071       -0.928839
 C       119.986130      -62.852493        0.943283
 H       119.076813      -62.660500        1.589176
 C       121.181953      -63.272194        1.684675
 H       121.135025      -63.597519        2.730648
 C       123.290344      -64.986412        3.820354
 H       122.158508      -64.898643        3.855576
 C       123.828476      -65.849701        4.781479
 H       123.344521      -66.005333        5.647421
 C       125.127556      -66.240364        4.555244
 H       125.494057      -66.974518        5.175972
 C       125.860603      -65.742928        3.460125
 H       126.882736      -66.026817        3.233070
 C       127.231956      -63.707764        1.527233
 C       127.617561      -62.824799        2.604355
 H       126.930214      -62.613792        3.436966
 C       129.002319      -62.512848        2.608536
 H       129.360992      -61.676193        3.094696
 C       129.920166      -63.084702        1.695549
 H       130.961761      -62.830673        1.764397
 C       129.495361      -64.008224        0.771450
 H       130.166046      -64.356613       -0.009705
 C       128.119598      -64.283745        0.642002
 H       127.762474      -65.181648        0.198807
 C       122.730148      -65.155525       -3.363380
 C       122.601685      -64.004265       -4.091599
 N       123.752426      -64.894943       -2.381573
 C       124.101295      -63.550919       -2.395998
 N       123.465149      -62.992188       -3.447918
 C       123.682747      -61.592701       -3.611307
 C       124.030014      -60.929893       -2.399782
 C       124.249344      -59.557728       -2.439278
 H       124.653168      -59.065384       -1.551851
 C       124.193054      -58.912106       -3.625446
 H       124.193878      -57.824623       -3.765007
 C       123.878815      -59.592293       -4.839653
 H       123.838318      -59.067528       -5.756487
 C       123.572372      -60.970249       -4.791340
 H       123.159607      -61.361618       -5.734665
 C       121.714668      -63.956970       -5.179333
 H       121.672012      -62.991112       -5.737366
 C       120.982925      -65.091568       -5.532259
 H       120.171295      -64.901131       -6.246458
 C       121.061768      -66.256065       -4.769945
 H       120.442398      -67.173851       -4.845798
 C       122.016129      -66.298393       -3.705465
 H       122.025757      -67.246864       -3.144754
 C       124.594391      -65.969254       -1.755350
 C       125.642632      -66.537811       -2.500757
 H       125.698997      -66.484772       -3.530224
 C       126.372063      -67.575699       -1.930298
 H       127.249565      -67.847984       -2.410236
 C       126.027878      -68.137718       -0.699093
 H       126.693474      -68.811455       -0.179813
 C       124.954102      -67.619644        0.021816
 H       124.810516      -67.771172        1.100204
 C       124.208847      -66.522171       -0.495733
 H       123.618919      -65.987564        0.184914
 C       128.760498      -61.261192       -1.621454
 C       128.390213      -60.556137       -0.496286
 N       127.526695      -61.839600       -2.066656
 C       126.501595      -61.628586       -1.180073
 N       127.043549      -60.773758       -0.232414
 C       126.170265      -60.406342        0.839075
 C       124.833862      -60.683510        0.496441
 C       123.805328      -60.100063        1.276329
 H       122.773987      -59.991577        0.923254
 C       124.099243      -59.325516        2.374418
 H       123.263092      -58.820675        2.825956
 C       125.423630      -58.976349        2.736326
 H       125.543839      -58.474892        3.651525
 C       126.461502      -59.562286        2.013065
 H       127.525932      -59.460556        2.343418
 C       129.380463      -59.851112        0.268391
 H       129.061707      -58.944908        0.798761
 C       130.735199      -60.007561       -0.082115
 H       131.468369      -59.706398        0.656029
 C       131.079987      -60.656334       -1.251818
 H       132.102509      -60.676216       -1.619213
 C       130.065552      -61.265350       -2.078926
 H       130.428406      -61.871109       -2.894762
 C       127.601471      -62.747406       -3.204945
 C       128.292816      -63.969818       -3.063675
 H       128.770508      -64.313354       -2.188074
 C       128.205872      -64.921486       -4.081846
 H       128.485291      -65.932014       -3.935701
 C       127.403625      -64.641640       -5.222799
 H       127.597816      -65.243256       -6.091852
 C       126.806435      -63.444885       -5.380730
 H       126.201599      -63.314034       -6.257057
 C       126.885979      -62.453491       -4.375486
 H       126.364235      -61.519081       -4.663351
 Ir      124.552055      -62.252544       10.478266
 C       123.204536      -58.276741       11.445677
 C       123.453384      -58.786652       12.706699
 N       123.232849      -59.379044       10.548449
 C       123.582191      -60.531960       11.098869
 N       123.740051      -60.186127       12.442513
 C       124.015160      -61.295189       13.286135
 C       124.700027      -62.383469       12.590225
 C       125.366577      -63.326195       13.373020
 H       125.947655      -64.090897       12.918608
 C       125.281631      -63.292358       14.755392
 H       125.699554      -64.144852       15.284731
 C       124.547752      -62.295940       15.405903
 H       124.296875      -62.431736       16.477966
 C       123.923584      -61.252251       14.677055
 H       123.385597      -60.523972       15.226954
 C       123.606461      -57.928513       13.840527
 H       124.388306      -58.024601       14.583214
 C       123.244621      -56.607620       13.650976
 H       123.261688      -55.965466       14.546989
 C       122.893044      -56.100189       12.371479
 H       122.600006      -55.093811       12.382809
 C       122.899826      -56.889641       11.194864
 H       122.657104      -56.534519       10.266867
 C       122.720810      -59.193542        9.230082
 C       123.657394      -58.773090        8.269287
 H       124.669846      -58.910526        8.428183
 C       123.205757      -58.368282        7.056545
 H       123.928604      -58.247421        6.225586
 C       121.878761      -58.299515        6.750507
 H       121.521454      -58.037903        5.763142
 C       120.891174      -58.714165        7.642267
 H       119.953804      -59.072456        7.332649
 C       121.329041      -59.171116        8.911507
 H       120.578461      -59.520386        9.613388
 C       128.690399      -61.002178       10.120495
 C       128.827728      -62.345406       10.300198
 N       127.374641      -60.583366       10.257116
 C       126.550972      -61.741173       10.488752
 N       127.472176      -62.838615       10.488091
 C       126.891220      -64.168533       10.237686
 C       125.475754      -64.192482       10.300673
 C       124.855751      -65.484329       10.143148
 H       123.821396      -65.494225       10.147396
 C       125.639526      -66.643822        9.821604
 H       125.078224      -67.553352       10.109148
 C       127.018486      -66.578484        9.674627
 H       127.502670      -67.475609        9.332809
 C       127.642433      -65.347054        9.899488
 H       128.666534      -65.337181       10.179485
 C       130.099152      -62.933052       10.227049
 H       130.157074      -63.863312       10.630484
 C       131.252502      -62.126167       10.028021
 H       132.230103      -62.522629        9.944656
 C       131.092499      -60.734116        9.848917
 H       131.962921      -60.086136        9.880320
 C       129.803436      -60.287155        9.871109
 H       129.732422      -59.260063        9.424643
 C       127.076805      -59.231915       10.844210
 C       126.941719      -58.161751        9.963413
 H       126.694786      -58.249390        8.907173
 C       126.784676      -56.879826       10.534815
 H       126.594612      -56.046364        9.839886
 C       126.759926      -56.660614       11.941879
 H       126.938072      -55.669174       12.333952
 C       126.831528      -57.737392       12.792244
 H       126.818932      -57.557049       13.817678
 C       127.045898      -59.040009       12.240496
 H       127.037140      -59.887527       12.889910
 C       123.376389      -61.955906        6.307446
 C       122.198219      -62.075912        7.006958
 N       124.471184      -62.028847        7.174339
 C       123.994278      -62.321896        8.495773
 N       122.567009      -62.299477        8.336699
 C       121.803757      -62.801056        9.459583
 C       122.538673      -62.965042       10.623800
 C       121.902550      -63.495590       11.747387
 H       122.496758      -63.663681       12.584984
 C       120.505508      -63.755394       11.701611
 H       120.077629      -64.227180       12.585035
 C       119.685898      -63.596382       10.570580
 H       118.610794      -63.706413       10.684877
 C       120.352119      -63.154381        9.459328
 H       119.709732      -63.122841        8.577770
 C       120.996788      -61.778702        6.356470
 H       120.041756      -61.947525        6.801567
 C       120.932236      -61.366455        5.014839
 H       120.045082      -60.930237        4.611744
 C       122.141777      -61.416107        4.309761
 H       122.288506      -61.038651        3.297287
 C       123.348602      -61.655388        4.949541
 H       124.175446      -61.764618        4.280273
 C       125.789490      -62.292870        6.699734
 C       126.499542      -63.458992        6.632002
 H       126.033836      -64.396667        6.824833
 C       127.874458      -63.516129        6.296654
 H       128.416138      -64.430649        6.216541
 C       128.588348      -62.359989        6.215508
 H       129.716400      -62.460175        6.213924
 C       127.941261      -61.167404        6.514185
 H       128.500916      -60.305088        6.848223
 C       126.532509      -61.138390        6.689644
 H       126.004433      -60.219719        6.612286
