206
 generated by VMD
 Ir       56.180046      126.614014       64.956924
 C        60.398293      127.131287       63.896164
 C        59.732552      127.746475       62.863281
 N        59.460091      126.619217       64.792473
 C        58.162895      127.120682       64.444893
 N        58.359444      127.685608       63.158367
 C        57.146873      128.055435       62.523712
 C        56.031044      127.347855       62.981812
 C        54.864471      127.332336       62.221115
 H        54.389645      126.411102       62.054188
 C        54.781738      128.105881       61.048515
 H        53.885101      128.087021       60.495720
 C        55.925568      128.826660       60.642773
 H        56.006363      129.173187       59.669945
 C        57.100864      128.821152       61.377380
 H        57.866081      129.469879       61.133064
 C        60.381588      128.373871       61.807949
 H        59.947762      128.957352       61.039101
 C        61.802246      128.321014       61.835056
 H        62.355804      128.664200       60.961662
 C        62.498619      127.653229       62.797981
 H        63.632202      127.570740       62.775990
 C        61.771103      127.103027       63.833794
 H        62.234310      126.788284       64.763611
 C        59.692738      125.845673       65.884903
 C        59.540329      124.466385       65.811958
 H        59.422935      123.947166       64.850220
 C        59.765602      123.684998       66.954231
 H        59.866737      122.627922       66.782845
 C        60.098854      124.271843       68.171173
 H        60.188393      123.604172       69.038406
 C        60.195099      125.642761       68.308731
 H        60.375866      126.209229       69.176918
 C        60.035751      126.444656       67.141312
 H        60.064171      127.559494       67.194466
 C        55.124031      130.322800       66.862862
 C        53.986633      129.623734       66.877724
 N        55.983009      129.661194       65.966858
 C        55.462532      128.455322       65.523712
 N        54.259449      128.393799       66.136742
 C        53.429161      127.258911       65.877655
 C        54.090755      126.270447       65.163895
 C        53.533688      125.192581       64.482674
 H        54.017204      124.433258       63.838829
 C        52.095741      125.269485       64.338425
 H        51.588478      124.574829       63.686722
 C        51.386642      126.293594       64.984558
 H        50.330948      126.310791       64.855316
 C        52.062073      127.260757       65.802292
 H        51.455986      127.885971       66.429001
 C        52.885849      129.973434       67.660843
 H        51.936710      129.689240       67.243134
 C        53.038124      131.042389       68.581787
 H        52.139572      131.404022       69.085693
 C        54.214996      131.761978       68.555923
 H        54.476547      132.458786       69.384323
 C        55.274418      131.367508       67.695442
 H        56.227898      131.805359       67.760773
 C        57.140343      130.322388       65.353104
 C        58.443165      129.971786       65.711205
 H        58.687103      129.387756       66.570274
 C        59.579994      130.510483       65.059097
 H        60.518471      130.011292       65.223610
 C        59.498894      131.516571       64.144020
 H        60.430737      132.014999       63.808395
 C        58.176819      131.906052       63.771130
 H        57.990211      132.625793       62.998055
 C        57.059052      131.286407       64.395264
 H        56.037498      131.473694       64.032982
 C        55.936920      124.120399       68.679855
 C        55.743114      123.262001       67.575233
 N        56.147171      125.395996       68.012733
 C        56.149578      125.371017       66.638847
 N        55.815605      124.037155       66.353607
 C        56.237957      123.607269       65.086433
 C        56.599335      124.686707       64.214172
 C        57.135506      124.338852       62.926567
 H        57.484261      125.119461       62.306393
 C        57.423248      122.989517       62.616417
 H        58.095997      122.717346       61.796280
 C        57.060608      121.960014       63.486313
 H        57.160393      120.944824       63.142757
 C        56.493595      122.245270       64.737442
 H        56.094460      121.377808       65.242218
 C        55.453644      121.921249       67.754929
 H        55.131348      121.322685       66.918961
 C        55.400017      121.432663       69.096649
 H        55.007420      120.396637       69.210724
 C        55.731659      122.282684       70.162140
 H        55.597569      122.050293       71.247368
 C        55.972420      123.643951       70.018593
 H        56.216145      124.298668       70.813660
 C        55.921604      126.600258       68.820862
 C        56.981392      127.427750       69.021378
 H        57.912251      127.345169       68.471848
 C        56.901619      128.395233       70.038528
 H        57.874847      128.761246       70.268021
 C        55.703869      128.619751       70.767563
 H        55.715836      129.473434       71.447327
 C        54.617817      127.847351       70.475525
 H        53.709621      127.855392       71.131042
 C        54.741398      126.803726       69.519089
 H        53.865582      126.172394       69.344513
 Ir       56.180046      126.614014       78.062210
 C        56.648834      129.096329       81.589592
 C        55.676308      129.649643       80.894882
 N        57.279274      128.120331       80.732750
 C        56.502457      127.974792       79.555771
 N        55.588833      128.995590       79.607384
 C        55.000450      129.281036       78.337448
 C        55.065559      128.245789       77.377701
 C        54.432198      128.454025       76.193314
 H        54.799004      127.852661       75.352417
 C        53.586060      129.534531       75.989426
 H        53.022060      129.787750       75.083176
 C        53.444717      130.470993       77.018677
 H        52.732117      131.264282       77.022079
 C        54.181969      130.363678       78.164078
 H        54.182018      131.177963       78.863953
 C        54.943760      130.692108       81.518372
 H        54.299999      131.257782       80.908295
 C        55.210293      130.990997       82.822617
 H        54.442200      131.547714       83.358429
 C        56.224594      130.441422       83.574249
 H        56.601795      130.873978       84.470467
 C        57.015900      129.466705       82.869781
 H        57.902691      129.029785       83.319336
 C        58.689850      128.117401       80.762207
 C        59.432404      129.276276       80.305862
 H        58.973244      130.112289       79.807732
 C        60.796322      129.274094       80.587357
 H        61.363262      130.178696       80.353989
 C        61.450325      128.191864       81.280212
 H        62.512627      128.199448       81.506622
 C        60.722599      127.069717       81.658234
 H        61.208420      126.090469       81.866936
 C        59.338295      127.043549       81.423447
 H        58.706429      126.289795       81.705063
 C        52.342522      125.001419       79.474426
 C        52.590004      124.438499       78.240738
 N        53.450035      125.921455       79.700569
 C        54.304909      125.920303       78.584824
 N        53.746296      125.053528       77.709854
 C        54.338211      124.966370       76.399277
 C        55.649513      125.488930       76.370316
 C        56.406406      125.402527       75.198586
 H        57.329109      125.949997       75.057922
 C        55.822014      124.933350       74.063347
 H        56.146606      125.438782       73.143524
 C        54.517162      124.479622       74.061958
 H        53.929401      124.390648       73.132492
 C        53.797218      124.475082       75.196747
 H        52.785706      124.077721       75.171341
 C        51.766102      123.437500       77.845169
 H        52.034927      122.737885       77.096718
 C        50.870605      122.868202       78.778915
 H        50.404060      121.893814       78.542656
 C        50.591995      123.516693       79.933182
 H        49.849987      123.118011       80.581390
 C        51.346741      124.574921       80.305473
 H        51.018845      125.057541       81.155502
 C        53.490486      126.729385       80.878922
 C        54.526962      126.621002       81.841660
 H        55.440807      126.177017       81.493591
 C        54.473854      127.043793       83.184357
 H        55.204590      126.674286       83.872253
 C        53.435188      127.952271       83.468674
 H        53.368633      128.348450       84.468132
 C        52.461956      128.212051       82.496956
 H        51.893909      129.115921       82.643448
 C        52.430801      127.522339       81.272369
 H        51.573296      127.737228       80.559479
 C        59.077190      123.688782       79.450760
 C        59.857914      124.573540       78.684090
 N        57.709564      124.060104       79.353180
 C        57.596565      125.168747       78.505692
 N        58.871284      125.409683       78.047836
 C        59.007690      126.543671       77.178986
 C        57.904373      127.407700       77.193970
 C        57.965454      128.593216       76.396332
 H        57.308975      129.507065       76.589508
 C        59.028831      128.936279       75.670502
 H        59.134109      129.965652       75.358429
 C        60.116325      128.088455       75.583511
 H        61.013000      128.409607       75.118507
 C        60.071838      126.869766       76.306152
 H        61.038734      126.355759       76.354172
 C        61.197063      124.506409       78.664803
 H        61.764935      125.363022       78.263519
 C        61.854729      123.589844       79.470520
 H        62.962994      123.785889       79.422394
 C        61.123592      122.748787       80.287506
 H        61.694244      122.196861       81.015335
 C        59.698063      122.832138       80.272507
 H        59.192738      122.091797       80.769547
 C        56.612686      123.435837       80.079987
 C        55.545963      122.822792       79.336365
 H        55.567856      122.722969       78.274597
 C        54.434513      122.376122       80.014717
 H        53.763489      121.742981       79.480896
 C        54.349960      122.510933       81.425842
 H        53.422844      122.297485       81.855133
 C        55.380207      123.121841       82.143677
 H        55.446117      123.124481       83.221191
 C        56.522984      123.538017       81.439072
 H        57.186798      124.132286       82.001823
