206
 generated by VMD
 Ir      -42.480213      -14.450598      -53.120056
 C       -40.320599      -11.111208      -51.316849
 C       -39.629639      -11.426526      -52.489555
 N       -41.373726      -12.043920      -51.290985
 C       -41.388363      -12.916216      -52.308426
 N       -40.283833      -12.580210      -53.112167
 C       -39.877457      -13.480644      -54.074291
 C       -40.646820      -14.631844      -54.111984
 C       -40.398552      -15.666351      -55.045349
 H       -40.771553      -16.643753      -54.757324
 C       -39.399548      -15.418896      -55.962326
 H       -39.200859      -16.191051      -56.706703
 C       -38.603745      -14.275972      -56.012566
 H       -37.879627      -14.120382      -56.793175
 C       -38.791077      -13.284501      -55.035225
 H       -38.429882      -12.286409      -55.204788
 C       -38.531689      -10.604713      -52.911140
 H       -37.969147      -10.903479      -53.766930
 C       -38.341125       -9.407167      -52.139793
 H       -37.574585       -8.692944      -52.443924
 C       -39.059425       -9.059574      -50.970383
 H       -38.816414       -8.204657      -50.409164
 C       -40.068497       -9.960009      -50.569260
 H       -40.398567       -9.792833      -49.532242
 C       -42.251675      -12.093576      -50.139008
 C       -43.489986      -11.426527      -50.144264
 H       -43.837318      -10.805820      -50.954193
 C       -44.272831      -11.461285      -48.998070
 H       -45.228710      -10.910927      -48.999535
 C       -43.802002      -12.007505      -47.815720
 H       -44.435997      -11.795637      -46.975502
 C       -42.543991      -12.675384      -47.799919
 H       -42.215206      -12.905457      -46.773048
 C       -41.792820      -12.693590      -48.929039
 H       -40.778450      -13.122291      -48.828186
 C       -43.929260      -12.859940      -56.924919
 C       -44.158173      -14.243696      -56.956764
 N       -43.290710      -12.593449      -55.698112
 C       -43.166199      -13.805065      -54.973488
 N       -43.799530      -14.773364      -55.743736
 C       -43.987358      -16.059462      -55.038925
 C       -43.233665      -16.275469      -53.818520
 C       -43.365749      -17.496187      -53.117874
 H       -42.615170      -17.765987      -52.398262
 C       -44.444397      -18.327105      -53.491371
 H       -44.720119      -19.139812      -52.822281
 C       -45.259205      -18.101166      -54.653755
 H       -46.078255      -18.615110      -54.956284
 C       -44.965454      -16.973969      -55.426628
 H       -45.434280      -16.835758      -56.312973
 C       -44.738617      -14.786606      -58.095726
 H       -44.775124      -15.873251      -58.330818
 C       -45.046837      -13.946585      -59.236374
 H       -45.271248      -14.459702      -60.184662
 C       -44.850967      -12.562828      -59.142815
 H       -44.877113      -12.026541      -60.075668
 C       -44.247181      -12.029850      -57.991348
 H       -44.115517      -10.920858      -57.932175
 C       -42.601608      -11.442249      -55.510559
 C       -41.379021      -11.337145      -56.126297
 H       -41.017677      -12.008331      -56.806252
 C       -40.590832      -10.272842      -55.760887
 H       -39.760674       -9.967457      -56.348579
 C       -40.996048       -9.386477      -54.764114
 H       -40.482590       -8.433077      -54.965569
 C       -42.213440       -9.479170      -54.100224
 H       -42.521442       -8.891569      -53.346329
 C       -43.072872      -10.548435      -54.560501
 H       -44.116821      -10.362225      -54.302849
 C       -46.160347      -14.047554      -50.871094
 C       -45.273216      -14.704673      -50.010284
 N       -45.478912      -13.856376      -52.071590
 C       -44.199238      -14.419148      -51.964775
 N       -44.091309      -14.971989      -50.749901
 C       -42.865532      -15.761526      -50.626587
 C       -41.791382      -15.508278      -51.503319
 C       -40.507072      -16.127327      -51.257904
 H       -39.619297      -15.544693      -51.429039
 C       -40.434502      -17.055901      -50.243462
 H       -39.439404      -17.520189      -50.118904
 C       -41.560318      -17.461428      -49.519180
 H       -41.375854      -18.144203      -48.694382
 C       -42.719181      -16.793549      -49.720100
 H       -43.663612      -17.134523      -49.443184
 C       -45.572098      -14.776674      -48.661621
 H       -44.837570      -15.054749      -47.950607
 C       -46.789955      -14.319008      -48.247543
 H       -47.115692      -14.670741      -47.230888
 C       -47.711983      -13.621336      -49.058975
 H       -48.594620      -13.232361      -48.669548
 C       -47.398937      -13.549334      -50.434078
 H       -48.157158      -13.248087      -51.146439
 C       -46.183296      -13.387951      -53.231552
 C       -46.259895      -12.029850      -53.465424
 H       -45.973419      -11.301558      -52.654053
 C       -46.743938      -11.621012      -54.700233
 H       -46.821098      -10.573263      -54.843651
 C       -47.209930      -12.578552      -55.630432
 H       -47.464386      -12.221027      -56.662872
 C       -47.134411      -13.945757      -55.385796
 H       -47.476894      -14.628531      -56.136406
 C       -46.564354      -14.352940      -54.150299
 H       -46.213436      -15.325377      -53.962357
 Ir      -42.480213      -14.450598      -38.531872
 C       -46.426216      -14.483703      -40.531769
 C       -46.035160      -13.181050      -40.515179
 N       -45.498737      -15.159029      -39.728760
 C       -44.437214      -14.345493      -39.353096
 N       -44.755203      -13.077600      -39.863708
 C       -43.938435      -11.961987      -39.414940
 C       -42.673916      -12.394825      -39.032646
 C       -41.775043      -11.319765      -38.721405
 H       -40.729439      -11.496872      -38.479042
 C       -42.205368       -9.936836      -38.690960
 H       -41.671856       -9.145644      -38.098946
 C       -43.540527       -9.591724      -39.043022
 H       -43.856052       -8.557217      -39.007812
 C       -44.417297      -10.639473      -39.421837
 H       -45.440052      -10.360571      -39.130138
 C       -46.745529      -12.188751      -41.167877
 H       -46.705723      -11.177416      -40.726837
 C       -47.914116      -12.549587      -41.895821
 H       -48.571621      -11.853571      -42.338707
 C       -48.263535      -13.900240      -42.060272
 H       -49.020378      -14.014450      -42.817268
 C       -47.540894      -14.859434      -41.276218
 H       -47.935738      -15.895597      -41.170052
 C       -45.762997      -16.462507      -39.166969
 C       -45.918243      -16.700859      -37.786758
 H       -46.333694      -15.896425      -37.203846
 C       -46.089066      -18.036615      -37.345085
 H       -46.295197      -18.397451      -36.287064
 C       -46.115208      -19.071121      -38.277935
 H       -46.220116      -20.077490      -37.857677
 C       -45.830227      -18.868359      -39.656731
 H       -45.973541      -19.613203      -40.300674
 C       -45.854675      -17.549154      -40.066856
 H       -46.191826      -17.430807      -41.086868
 C       -40.471264      -14.131969      -42.333809
 C       -39.475208      -14.277630      -41.494072
 N       -41.683472      -14.333078      -41.621758
 C       -41.425980      -14.534186      -40.326786
 N       -40.096733      -14.472116      -40.216114
 C       -39.554882      -14.611981      -38.859596
 C       -40.474323      -14.187420      -37.877316
 C       -39.987961      -13.899414      -36.573204
 H       -40.675083      -13.401196      -35.886223
 C       -38.674431      -14.179972      -36.289448
 H       -38.303719      -14.116246      -35.251465
 C       -37.736668      -14.673225      -37.216541
 H       -36.683537      -14.586327      -37.242405
 C       -38.206593      -14.917368      -38.500504
 H       -37.684486      -15.616695      -39.151077
 C       -38.128468      -14.214731      -41.975258
 H       -37.324371      -14.293354      -41.283707
 C       -37.886833      -13.939138      -43.343231
 H       -36.908752      -13.843136      -43.749603
 C       -38.911728      -13.733892      -44.209755
 H       -38.834610      -13.677614      -45.268806
 C       -40.177444      -13.805066      -43.662491
 H       -40.926910      -13.718994      -44.370163
 C       -42.898666      -14.697226      -42.329292
 C       -43.460873      -15.955185      -42.278732
 H       -42.862679      -16.730654      -41.788200
 C       -44.572803      -16.316021      -43.112457
 H       -45.000938      -17.282665      -43.080845
 C       -45.131844      -15.393240      -43.910988
 H       -45.783455      -15.639868      -44.713722
 C       -44.621994      -14.098866      -43.898842
 H       -45.101471      -13.349882      -44.632072
 C       -43.479286      -13.781893      -43.173412
 H       -43.065231      -12.717591      -43.133160
 C       -42.152985      -18.648216      -37.358360
 C       -42.687809      -18.063099      -36.294876
 N       -42.007538      -17.709711      -38.324104
 C       -42.374107      -16.416162      -37.907856
 N       -42.817142      -16.624720      -36.670429
 C       -43.096733      -15.456141      -35.924004
 C       -43.409729      -14.340527      -36.692856
 C       -44.073757      -13.299398      -36.129635
 H       -44.034817      -12.308754      -36.551186
 C       -44.557869      -13.391262      -34.834801
 H       -45.284805      -12.654694      -34.396019
 C       -44.240791      -14.552395      -34.029728
 H       -44.840027      -14.727846      -33.114182
 C       -43.403637      -15.532278      -34.579639
 H       -43.114964      -16.349127      -33.959938
 C       -43.266750      -18.805460      -35.243675
 H       -44.164497      -18.399933      -34.748909
 C       -43.204521      -20.207426      -35.289757
 H       -43.569645      -20.719713      -34.487045
 C       -42.508286      -20.775164      -36.368889
 H       -42.119846      -21.798910      -36.387733
 C       -42.003414      -20.029490      -37.471104
 H       -41.435211      -20.545088      -38.221771
 C       -41.356403      -17.986958      -39.552170
 C       -42.054230      -18.726011      -40.515781
 H       -43.171860      -18.783943      -40.490433
 C       -41.439056      -19.092640      -41.683708
 H       -41.685555      -19.984800      -42.156036
 C       -40.137520      -18.754150      -41.973564
 H       -39.703037      -19.132364      -42.909286
 C       -39.460854      -18.058960      -41.021286
 H       -38.459511      -17.666676      -41.267731
 C       -40.031860      -17.645157      -39.818367
 H       -39.429817      -17.298389      -39.019493
