206
 generated by VMD
 Ir      109.320770       18.720173      -50.170578
 C       110.316772       20.528618      -53.957199
 C       111.212082       19.537663      -53.768181
 N       109.717133       20.751591      -52.641865
 C       110.133194       19.774807      -51.739594
 N       111.176880       19.086758      -52.377338
 C       111.863579       18.097626      -51.635075
 C       111.142426       17.745113      -50.478966
 C       111.682404       16.690708      -49.733608
 H       111.310242       16.491901      -48.694061
 C       112.703873       15.846833      -50.186890
 H       113.252045       15.294812      -49.410820
 C       113.319527       16.192131      -51.392151
 H       114.283035       15.713469      -51.672920
 C       112.928795       17.318127      -52.081833
 H       113.591797       17.550020      -52.883858
 C       111.938522       19.149837      -54.843204
 H       112.556328       18.298168      -54.888699
 C       111.711014       19.702438      -56.043156
 H       112.174118       19.231602      -56.878475
 C       110.779831       20.689789      -56.231949
 H       110.773140       21.336544      -57.158806
 C       110.046188       21.066481      -55.152020
 H       109.391388       21.867310      -55.153923
 C       109.162338       22.050297      -52.264282
 C       109.724480       22.790039      -51.207405
 H       110.510307       22.332466      -50.580986
 C       109.153870       24.073704      -50.927917
 H       109.595634       24.583914      -50.079437
 C       108.046021       24.566784      -51.661774
 H       107.699287       25.639854      -51.510468
 C       107.481110       23.773796      -52.680473
 H       106.698257       24.201588      -53.308922
 C       108.091354       22.537060      -52.999031
 H       107.766052       22.189888      -53.999352
 C       107.202347       15.544657      -52.212536
 C       106.826141       15.458067      -50.904114
 N       108.303589       16.425438      -52.284634
 C       108.523422       17.030127      -51.079472
 N       107.635635       16.377384      -50.197041
 C       108.021057       16.396357      -48.874733
 C       108.805954       17.509703      -48.537994
 C       109.302475       17.670961      -47.218731
 H       109.937683       18.546352      -47.009949
 C       109.075172       16.747150      -46.265675
 H       109.506821       16.837107      -45.325630
 C       108.333694       15.588980      -46.619873
 H       108.412483       14.788790      -45.996101
 C       107.806335       15.403054      -47.918148
 H       107.338516       14.467489      -48.180382
 C       105.697037       14.590226      -50.619514
 H       105.482697       14.235886      -49.578506
 C       104.995361       13.965105      -51.641899
 H       104.216835       13.262102      -51.487022
 C       105.318665       14.159695      -52.986893
 H       104.923119       13.522834      -53.830544
 C       106.498672       14.939390      -53.233566
 H       106.637070       15.076836      -54.307556
 C       109.197220       16.392885      -53.449261
 C       110.267639       15.514130      -53.318943
 H       110.560196       15.383885      -52.308422
 C       111.046219       15.243927      -54.417358
 H       111.869324       14.546878      -54.360645
 C       110.819275       15.986349      -55.593498
 H       111.234161       15.662019      -56.432293
 C       109.735023       16.863903      -55.726498
 H       109.504341       17.495329      -56.609783
 C       108.956848       17.103121      -54.616264
 H       108.077759       17.712025      -54.792122
 C       105.743927       21.181694      -49.865173
 C       106.637253       21.646168      -48.864349
 N       106.385529       20.063478      -50.398605
 C       107.609375       19.769539      -49.755791
 N       107.733078       20.810425      -48.884377
 C       108.988304       20.866043      -48.299210
 C       110.031029       20.317875      -49.069363
 C       111.369926       20.627985      -48.843552
 H       112.147186       20.393290      -49.578182
 C       111.802307       21.494682      -47.770943
 H       112.766373       21.841806      -47.604527
 C       110.754959       22.032925      -47.009739
 H       110.958954       22.690248      -46.156681
 C       109.382233       21.727932      -47.212540
 H       108.647873       21.925322      -46.458714
 C       106.258987       22.683456      -48.086761
 H       107.009087       23.310665      -47.762630
 C       104.927643       23.192207      -48.196754
 H       104.631157       23.963558      -47.535309
 C       104.073242       22.730141      -49.175674
 H       103.073372       23.207890      -49.378204
 C       104.447128       21.729849      -50.059147
 H       103.792671       21.401653      -50.787071
 C       105.783371       19.172722      -51.367760
 C       106.183548       19.213285      -52.704590
 H       107.147583       19.594395      -52.888947
 C       105.459824       18.585758      -53.724068
 H       105.685669       18.688305      -54.748707
 C       104.249542       17.971218      -53.432594
 H       103.611252       17.564804      -54.171524
 C       103.816391       18.037453      -52.085423
 H       102.854958       17.522476      -51.854450
 C       104.534233       18.584358      -51.074036
 H       104.546249       18.194510      -50.066132
 Ir      109.320770       18.720173      -38.497658
 C       112.493393       21.761139      -38.104599
 C       112.240021       21.313248      -36.783009
 N       111.413315       21.114079      -38.917839
 C       110.664497       20.291962      -38.154175
 N       111.059021       20.442394      -36.825970
 C       110.567886       19.505657      -35.923187
 C       109.936531       18.432310      -36.473289
 C       109.507820       17.454355      -35.612991
 H       109.172691       16.598499      -36.110683
 C       109.553207       17.562689      -34.180229
 H       109.124863       16.756500      -33.622581
 C       110.009277       18.770512      -33.643890
 H       109.765823       19.090927      -32.643555
 C       110.531769       19.758089      -34.507538
 H       110.666061       20.749626      -34.078789
 C       113.146118       21.793966      -35.706207
 H       112.993256       21.436916      -34.682854
 C       114.095566       22.698212      -36.049988
 H       114.823570       22.961729      -35.299541
 C       114.350800       23.069088      -37.421227
 H       115.171417       23.796757      -37.580559
 C       113.536911       22.620560      -38.391430
 H       113.709816       22.999870      -39.416336
 C       111.114754       21.506634      -40.238770
 C       111.844513       21.029465      -41.328156
 H       112.832504       20.699425      -41.093353
 C       111.373070       21.370590      -42.591908
 H       111.960236       21.076637      -43.475380
 C       110.245262       22.235811      -42.755745
 H       109.790367       22.236404      -43.728355
 C       109.568192       22.688011      -41.665936
 H       108.637550       23.234047      -41.734135
 C       109.972862       22.290031      -40.405121
 H       109.304306       22.419132      -39.587219
 C       112.142448       15.619097      -39.692291
 C       110.926788       15.017790      -39.602798
 N       111.963676       16.956600      -39.183540
 C       110.638687       17.177164      -38.898674
 N       110.038864       15.975372      -39.143642
 C       108.570686       15.890898      -39.027443
 C       108.022942       17.047318      -38.473213
 C       106.807800       17.108145      -37.900219
 H       106.368103       18.008249      -37.564682
 C       105.999939       15.996917      -37.858444
 H       105.158173       16.033064      -37.261353
 C       106.454552       14.846816      -38.494450
 H       105.610603       14.181407      -38.839382
 C       107.708557       14.759814      -39.069695
 H       107.970596       13.842566      -39.562534
 C       110.861465       13.681505      -39.897038
 H       110.068176       13.116891      -39.429707
 C       111.963715       13.049105      -40.526253
 H       111.716034       12.158350      -40.974594
 C       113.193207       13.651616      -40.613064
 H       114.014305       13.042101      -40.809006
 C       113.292168       14.964437      -40.220753
 H       114.185738       15.606368      -40.345055
 C       113.144241       17.795876      -38.825768
 C       113.439384       18.100336      -37.538795
 H       112.958969       17.604912      -36.740082
 C       114.516205       18.995567      -37.267685
 H       114.850342       19.229927      -36.224983
 C       115.343491       19.607397      -38.229904
 H       116.275421       20.196690      -37.969036
 C       115.031593       19.326401      -39.590149
 H       115.480148       20.009548      -40.234123
 C       113.993622       18.404995      -39.863518
 H       113.815300       18.203720      -40.867104
 C       107.875565       19.454147      -42.521935
 C       107.101311       20.323891      -41.789349
 N       108.795395       18.809155      -41.756889
 C       108.625427       19.171093      -40.371101
 N       107.608139       20.191240      -40.428711
 C       107.321236       20.792641      -39.181072
 C       107.781075       20.144968      -38.018288
 C       107.315758       20.554749      -36.733894
 H       107.592972       19.905872      -35.821800
 C       106.378883       21.614603      -36.664795
 H       106.085556       22.176888      -35.739380
 C       105.968353       22.298071      -37.836945
 H       105.198715       23.043249      -37.930046
 C       106.410103       21.903336      -39.081104
 H       106.211189       22.554615      -39.913433
 C       106.139023       21.172546      -42.501305
 H       105.318901       21.574497      -41.918945
 C       106.134453       21.186949      -43.901363
 H       105.729752       22.023254      -44.351707
 C       106.953651       20.288628      -44.591965
 H       106.995895       20.332218      -45.612610
 C       107.779068       19.415609      -43.871529
 H       108.323761       18.727879      -44.508350
 C       109.247261       17.504433      -42.197483
 C       108.343102       16.410959      -42.114357
 H       107.479820       16.470873      -41.454239
 C       108.781387       15.185657      -42.557800
 H       108.213364       14.369539      -42.207504
 C       110.085304       15.054134      -42.997677
 H       110.402954       14.087249      -43.419502
 C       111.013245       16.049538      -43.084885
 H       112.060287       15.902987      -43.386227
 C       110.565353       17.314550      -42.647003
 H       111.241142       18.130970      -42.695660
