206
 generated by VMD
 Ir      103.324265      -21.302837        5.608386
 C       105.107407      -18.985302        8.848576
 C       105.181961      -20.319191        9.332093
 N       104.327911      -18.974422        7.705358
 C       103.780167      -20.228123        7.307722
 N       104.325623      -21.088680        8.388660
 C       103.977028      -22.458912        8.304176
 C       103.164368      -22.744892        7.184938
 C       102.462830      -23.932037        7.173328
 H       101.703949      -24.120026        6.411448
 C       102.571655      -24.845692        8.198260
 H       101.845345      -25.616852        8.285357
 C       103.491547      -24.525410        9.252499
 H       103.535408      -25.250761       10.125044
 C       104.138374      -23.331402        9.335942
 H       104.641335      -23.098528       10.257786
 C       106.067017      -20.634207       10.355051
 H       106.103058      -21.606592       10.844306
 C       107.012344      -19.642372       10.679580
 H       107.959549      -19.982630       11.113307
 C       106.973534      -18.359404       10.228156
 H       107.774780      -17.681305       10.477098
 C       105.941788      -18.050426        9.315395
 H       105.943710      -17.073238        8.900539
 C       103.749573      -17.727945        7.186189
 C       102.545090      -17.165361        7.610007
 H       101.908035      -17.799841        8.207250
 C       102.137177      -15.930285        7.122884
 H       101.122940      -15.687208        7.394965
 C       102.856934      -15.206045        6.183289
 H       102.377670      -14.329994        5.685859
 C       104.040916      -15.779877        5.633559
 H       104.522751      -15.299929        4.789477
 C       104.461914      -17.008919        6.159312
 H       105.402031      -17.571089        6.008827
 C       107.107285      -22.713490        4.086001
 C       106.146469      -23.306482        3.277233
 N       106.475182      -22.142147        5.238658
 C       105.073883      -22.306255        5.055774
 N       104.903954      -23.079601        3.908795
 C       103.595184      -23.410046        3.446146
 C       102.603470      -22.615803        4.087836
 C       101.262215      -22.633192        3.569144
 H       100.520279      -22.082977        4.112550
 C       101.012695      -23.398439        2.458226
 H       100.021576      -23.411995        2.079152
 C       101.998390      -24.144234        1.878315
 H       101.875862      -24.618391        0.935149
 C       103.263321      -24.210838        2.435999
 H       103.860764      -25.002193        2.085394
 C       106.506424      -24.020683        2.135589
 H       105.746475      -24.622334        1.547453
 C       107.865532      -24.249771        1.850580
 H       108.162155      -24.477308        0.853668
 C       108.905739      -23.702068        2.717183
 H       109.932877      -23.976303        2.577625
 C       108.487701      -22.865852        3.833556
 H       109.235397      -22.371670        4.504767
 C       107.065414      -22.208754        6.547926
 C       107.202774      -23.475670        7.155016
 H       106.828987      -24.297604        6.550695
 C       107.886612      -23.585506        8.400492
 H       108.211349      -24.547462        8.759205
 C       108.519119      -22.493893        9.035483
 H       109.189133      -22.595074        9.851967
 C       108.459122      -21.290794        8.350021
 H       108.859970      -20.414646        8.682999
 C       107.754593      -21.145826        7.139722
 H       108.079048      -20.167137        6.651573
 C       103.456390      -17.758457        2.904959
 C       102.207962      -17.756931        3.490907
 N       104.090652      -18.871670        3.420584
 C       103.317078      -19.650393        4.311862
 N       102.150909      -18.925304        4.340052
 C       101.012383      -19.551128        5.051525
 C       101.400124      -20.532312        5.964011
 C       100.533325      -20.942673        6.932859
 H       100.875183      -21.714558        7.683208
 C        99.272179      -20.415079        7.037045
 H        98.752899      -20.577585        7.968461
 C        98.820786      -19.502926        6.107736
 H        97.747650      -19.266979        6.085061
 C        99.687195      -19.063469        5.098229
 H        99.349640      -18.280746        4.512999
 C       101.335060      -16.642483        3.177634
 H       100.267998      -16.705454        3.241044
 C       101.696678      -15.684646        2.265948
 H       100.936661      -15.012951        2.040577
 C       102.978241      -15.763716        1.629115
 H       103.298492      -15.173418        0.747475
 C       103.882355      -16.746548        2.051033
 H       104.817047      -16.941448        1.573159
 C       105.365578      -19.201212        2.939056
 C       105.525154      -19.688267        1.617537
 H       104.719269      -19.579401        0.920973
 C       106.746292      -20.135698        1.074290
 H       106.909088      -20.587765        0.131933
 C       107.882339      -20.013321        1.879103
 H       108.806702      -20.357677        1.459155
 C       107.686104      -19.517756        3.167709
 H       108.573746      -19.328526        3.722666
 C       106.459351      -19.114378        3.799994
 H       106.286659      -18.904274        4.827531
 Ir      103.324265      -21.302837       19.046631
 C        99.676155      -23.525442       19.910704
 C       100.335983      -24.284668       18.930756
 N       100.406097      -22.354080       19.974693
 C       101.553711      -22.363974       19.204176
 N       101.520386      -23.617409       18.582977
 C       102.593483      -23.813810       17.664944
 C       103.722717      -22.920107       17.737972
 C       104.906570      -23.200232       16.999996
 H       105.746475      -22.512383       17.068636
 C       104.963463      -24.381752       16.217903
 H       105.763245      -24.486475       15.618916
 C       103.822098      -25.218914       16.160854
 H       103.766769      -26.096298       15.506461
 C       102.687881      -24.918201       16.876202
 H       101.835182      -25.494461       16.540754
 C        99.806671      -25.482243       18.536224
 H       100.223434      -25.977274       17.700905
 C        98.559448      -25.882151       19.029182
 H        97.879051      -26.428493       18.418388
 C        97.967232      -25.160942       20.069824
 H        97.326111      -25.768795       20.757481
 C        98.493042      -23.928650       20.501532
 H        98.087540      -23.512396       21.373825
 C        99.748108      -21.115993       20.338125
 C        99.462906      -20.269308       19.316128
 H        99.825104      -20.469809       18.310883
 C        98.732895      -19.084469       19.588028
 H        98.680504      -18.276770       18.855648
 C        98.339668      -18.747553       20.887939
 H        98.032005      -17.719179       21.095522
 C        98.789490      -19.583401       21.896461
 H        98.704437      -19.140667       22.868290
 C        99.438690      -20.816685       21.659519
 H        99.566559      -21.458872       22.526840
 C       105.690125      -23.162201       22.164896
 C       106.483658      -22.192989       21.640930
 N       104.538727      -23.199352       21.359732
 C       104.532822      -22.282129       20.400322
 N       105.819351      -21.696676       20.507053
 C       106.238220      -20.843008       19.431744
 C       105.179749      -20.450449       18.615936
 C       105.540573      -19.621754       17.434763
 H       104.729546      -19.442205       16.747017
 C       106.796860      -19.169006       17.124632
 H       107.041016      -18.688911       16.174690
 C       107.796860      -19.681105       17.968586
 H       108.778877      -19.533583       17.654137
 C       107.549370      -20.483589       19.130550
 H       108.218155      -20.641315       19.945930
 C       107.565216      -21.735737       22.383392
 H       108.235817      -20.936979       22.031279
 C       107.905190      -22.298193       23.642704
 H       108.830917      -22.107317       24.070583
 C       107.106941      -23.372805       24.135555
 H       107.272644      -23.819973       25.117485
 C       106.001419      -23.786419       23.358147
 H       105.341293      -24.605757       23.665920
 C       103.516876      -24.165121       21.598110
 C       102.544563      -24.064106       22.579739
 H       102.574554      -23.216640       23.345772
 C       101.564957      -25.098082       22.641022
 H       100.832199      -24.955894       23.421124
 C       101.549667      -26.162804       21.753819
 H       100.845665      -27.025230       21.780308
 C       102.479523      -26.149492       20.760941
 H       102.276337      -26.945625       20.094769
 C       103.517715      -25.186197       20.631311
 H       104.274155      -25.365992       19.939667
 C       102.333611      -17.797926       21.436255
 C       101.772858      -17.520517       20.166885
 N       103.029419      -18.964649       21.362091
 C       102.936264      -19.539263       20.095898
 N       102.189247      -18.611326       19.411865
 C       102.091248      -18.830477       18.060692
 C       102.355537      -20.121252       17.572285
 C       102.179642      -20.515247       16.204937
 H       102.418388      -21.518911       15.895173
 C       101.725174      -19.577295       15.407252
 H       101.904045      -19.651663       14.304631
 C       101.418762      -18.305042       15.804105
 H       101.452759      -17.612085       15.055205
 C       101.625870      -17.946592       17.145714
 H       101.763321      -16.884056       17.282539
 C       100.974045      -16.397703       20.067947
 H       100.405724      -16.162432       19.154623
 C       100.721008      -15.579744       21.211506
 H        99.825966      -15.001791       21.227760
 C       101.283035      -15.864016       22.468575
 H       101.083336      -15.190163       23.324051
 C       102.123238      -16.973518       22.564346
 H       102.266861      -17.355629       23.499577
 C       103.783829      -19.385897       22.536537
 C       103.317703      -20.521730       23.260353
 H       102.406342      -20.984077       22.952869
 C       104.064743      -20.928015       24.401302
 H       103.841782      -21.809813       24.886509
 C       105.194817      -20.239222       24.824493
 H       105.646530      -20.325029       25.821281
 C       105.538620      -19.058500       24.111816
 H       106.345673      -18.402636       24.406281
 C       104.881386      -18.674868       22.943974
 H       105.168259      -17.813656       22.354893
