206
 generated by VMD
  IR        17.590000       26.500000       51.509998
  C1        17.049999       24.200001       55.099998
  C2        15.920000       25.010000       55.000000
  N1        17.980000       24.670000       54.119999
  C3a       17.389999       25.639999       53.330002
  N2        16.160000       25.850000       53.959999
  C4        15.170000       26.540001       53.250000
  C5a       15.700000       27.200001       52.110001
  C6        15.110000       28.370001       51.610001
  H1        15.560000       28.980000       50.790001
  C7        13.910000       28.820000       52.189999
  H2        13.500000       29.770000       51.889999
  C8        13.310000       28.129999       53.209999
  H3        12.500000       28.620001       53.790001
  C9        13.940000       26.980000       53.689999
  H4        13.210000       26.350000       54.169998
  C10       14.860000       24.889999       55.980000
  H5        14.100000       25.680000       56.130001
  C11       14.930000       23.940001       56.980000
  H6        14.370000       23.980000       57.910000
  C12       15.970000       23.030001       56.919998
  H7        16.209999       22.330000       57.759998
  C13       17.070000       23.180000       56.060001
  H8        17.940001       22.480000       56.259998
  C6        19.379999       24.459999       54.270000
  C1        20.080000       25.590000       54.650002
  H1        19.570000       26.500000       54.720001
  C2        21.520000       25.549999       54.490002
  H2        22.200001       26.299999       54.950001
  C3        22.100000       24.410000       53.930000
  H3        23.139999       24.370001       53.730000
  C4        21.350000       23.309999       53.709999
  H4        21.950001       22.350000       53.860001
  C5        20.000000       23.260000       53.860001
  H5        19.620001       22.290001       53.689999
  C1        15.680000       23.440001       49.139999
  C2        16.100000       24.370001       48.220001
  N1        16.000000       23.920000       50.439999
  C3b       16.620001       25.120001       50.320000
  N2        16.629999       25.520000       49.000000
  C4        17.080000       26.770000       48.599998
  C5b       17.469999       27.580000       49.700001
  C6        17.889999       28.879999       49.430000
  H1        18.120001       29.520000       50.299999
  C7        18.049999       29.330000       48.110001
  H2        18.570000       30.299999       47.970001
  C8        17.719999       28.469999       47.029999
  H3        17.780001       28.920000       46.049999
  C9        17.190001       27.200001       47.259998
  H4        16.969999       26.540001       46.490002
  C10       15.850000       24.080000       46.860001
  H5        16.330000       24.760000       46.189999
  C11       15.100000       23.020000       46.349998
  H6        14.830000       22.879999       45.290001
  C12       14.650000       22.100000       47.270000
  H7        14.260000       21.129999       46.990002
  C13       14.920000       22.280001       48.619999
  H8        14.540000       21.490000       49.349998
  C6        15.620000       23.260000       51.669998
  C1        16.459999       22.309999       52.189999
  H1        17.500000       22.520000       52.360001
  C2        16.100000       21.290001       53.049999
  H2        16.870001       20.639999       53.490002
  C3        14.760000       21.240000       53.509998
  H3        14.460000       20.400000       54.189999
  C4        13.880000       22.209999       53.040001
  H4        12.890000       22.170000       53.470001
  C5        14.270000       23.240000       52.130001
  H5        13.570000       24.030001       51.770000
  C1        21.730000       25.610001       50.599998
  C2        21.799999       26.799999       51.200001
  N1        20.420000       25.320000       50.500000
  C3c       19.590000       26.299999       51.009998
  N2        20.510000       27.260000       51.380001
  C4        19.940001       28.379999       52.090000
  C5c       18.620001       28.120001       52.450001
  C6        18.100000       28.870001       53.500000
  H1        17.190001       28.420000       54.029999
  C7        18.760000       29.940001       54.040001
  H2        18.250000       30.379999       54.790001
  C8        20.059999       30.309999       53.580002
  H3        20.610001       31.100000       54.130001
  C9        20.670000       29.549999       52.619999
  H4        21.629999       29.879999       52.230000
  C10       23.000000       27.290001       51.599998
  H5        22.930000       28.129999       52.160000
  C11       24.129999       26.510000       51.400002
  H6        25.090000       26.870001       51.750000
  C12       24.080000       25.280001       50.840000
  H7        24.830000       24.540001       51.070000
  C13       22.820000       24.830000       50.380001
  H8        22.700001       23.969999       49.709999
  C6        19.879999       24.379999       49.549999
  C1        19.309999       23.150000       49.990002
  H1        19.520000       22.830000       50.980000
  C2        18.799999       22.170000       49.060001
  H2        18.360001       21.299999       49.509998
  C3        18.840000       22.480000       47.669998
  H3        18.670000       21.700001       46.900002
  C4        19.330000       23.730000       47.279999
  H4        19.410000       23.799999       46.220001
  C5        19.910000       24.650000       48.139999
  H5        20.469999       25.549999       47.799999
  IR         7.360000       26.129999       48.500000
  C1         9.680000       25.580000       44.860001
  C2         8.970000       26.760000       44.730000
  N1         9.480000       25.180000       46.180000
  C3a        8.640000       26.090000       46.880001
  N2         8.350000       27.070000       45.980000
  C4         7.470000       28.139999       46.310001
  C5a        6.710000       27.860001       47.470001
  C6         5.640000       28.690001       47.759998
  H1         5.090000       28.530001       48.619999
  C7         5.410000       29.930000       47.080002
  H2         4.690000       30.690001       47.369999
  C8         6.250000       30.250000       45.990002
  H3         6.260000       31.240000       45.540001
  C9         7.260000       29.330000       45.570000
  H4         7.850000       29.620001       44.700001
  C10        8.920000       27.430000       43.509998
  H5         8.080000       28.100000       43.279999
  C11        9.740000       26.959999       42.500000
  H6         9.780000       27.480000       41.540001
  C12       10.460000       25.760000       42.580002
  H7        11.070000       25.370001       41.720001
  C13       10.450000       25.020000       43.799999
  H8        10.800000       23.980000       43.830002
  C6        10.110000       24.030001       46.840000
  C1        10.930000       24.129999       48.020000
  H1        10.860000       25.020000       48.560001
  C2        11.450000       22.959999       48.580002
  H2        12.310000       23.070000       49.230000
  C3        11.210000       21.670000       48.029999
  H3        11.220000       20.820000       48.720001
  C4        10.420000       21.660000       46.910000
  H4        10.030000       20.709999       46.610001
  C5         9.870000       22.780001       46.290001
  H5         9.060000       22.730000       45.540001
  C1         9.240000       29.010000       51.209999
  C2         7.930000       28.969999       51.599998
  N1         9.350000       28.110001       50.070000
  C3b        8.160000       27.500000       49.810001
  N2         7.200000       28.080000       50.700001
  C4         5.940000       27.480000       50.799999
  C5b        5.790000       26.389999       49.939999
  C6         4.660000       25.629999       50.080002
  H1         4.390000       24.820000       49.419998
  C7         3.720000       25.889999       51.090000
  H2         2.800000       25.320000       51.130001
  C8         3.790000       27.070000       51.849998
  H3         3.170000       27.250000       52.730000
  C9         4.960000       27.840000       51.720001
  H4         4.920000       28.820000       52.169998
  C10        7.540000       29.760000       52.669998
  H5         6.600000       29.520000       53.139999
  C11        8.450000       30.580000       53.340000
  H6         8.110000       30.940001       54.349998
  C12        9.720000       30.629999       52.919998
  H7        10.370000       31.129999       53.529999
  C13       10.150000       29.850000       51.810001
  H8        11.190000       29.820000       51.660000
  C6        10.590000       27.709999       49.500000
  C1        10.800000       28.030001       48.200001
  H1        10.150000       28.780001       47.770000
  C2        12.000000       27.790001       47.590000
  H2        12.140000       27.930000       46.520000
  C3        13.020000       27.200001       48.360001
  H3        13.960000       26.950001       47.970001
  C4        12.820000       26.910000       49.730000
  H4        13.600000       26.320000       50.250000
  C5        11.620000       27.180000       50.279999
  H5        11.520000       27.170000       51.360001
  C1         8.650000       22.280001       50.270000
  C2         7.810000       21.959999       49.220001
  N1         8.590000       23.680000       50.320000
  C3c        7.780000       24.270000       49.360001
  N2         7.320000       23.170000       48.590000
  C4         6.560000       23.490000       47.410000
  C5c        6.170000       24.860001       47.310001
  C6         5.400000       25.230000       46.240002
  H1         5.000000       26.270000       46.099998
  C7         4.930000       24.320000       45.250000
  H2         4.340000       24.709999       44.470001
  C8         5.260000       22.940001       45.410000
  H3         4.970000       22.280001       44.560001
  C9         6.070000       22.600000       46.459999
  H4         6.480000       21.600000       46.509998
  C10        7.540000       20.600000       49.009998
  H5         6.710000       20.330000       48.369999
  C11        8.140000       19.549999       49.709999
  H6         8.240000       18.580000       49.259998
  C12        8.990000       19.959999       50.730000
  H7         9.400000       19.270000       51.450001
  C13        9.250000       21.309999       51.080002
  H8         9.820000       21.629999       51.980000
  C6         9.090000       24.379999       51.549999
  C1        10.450000       24.410000       51.959999
  H1        11.220000       23.719999       51.540001
  C2        10.760000       25.129999       53.099998
  H2        11.760000       25.049999       53.570000
  C3         9.810000       25.860001       53.750000
  H3        10.030000       26.690001       54.490002
  C4         8.430000       25.850000       53.369999
  H4         7.780000       26.629999       53.840000
  C5         8.080000       25.070000       52.279999
  H5         7.000000       25.070000       51.919998
