206
 generated by VMD
 Ir        8.092474       -3.167757       48.926186
 C        11.814718       -4.705321       47.108940
 C        11.056456       -5.834118       47.411350
 N        11.103209       -3.643713       47.658615
 C         9.924368       -4.024647       48.230125
 N         9.877359       -5.359228       48.058121
 C         8.781988       -5.996951       48.830112
 C         7.820956       -5.173493       49.359200
 C         6.770108       -5.733067       50.101021
 H         6.001829       -5.141518       50.476273
 C         6.670892       -7.102454       50.308708
 H         6.147235       -7.521881       51.180637
 C         7.595231       -7.929615       49.679420
 H         7.384390       -8.969059       49.817986
 C         8.661839       -7.398574       48.969807
 H         9.459670       -8.048420       48.599857
 C        11.437052       -7.032156       46.772324
 H        10.818781       -7.807423       46.937557
 C        12.572809       -7.155991       45.926857
 H        12.758795       -8.118399       45.455185
 C        13.265045       -6.043326       45.664192
 H        13.832565       -6.101429       44.766891
 C        12.921093       -4.793185       46.256935
 H        13.549562       -3.933545       45.944130
 C        11.749742       -2.462958       48.021950
 C        12.328854       -2.332963       49.316063
 H        11.971146       -3.009132       50.155670
 C        13.095850       -1.138547       49.610825
 H        13.490635       -0.936565       50.630455
 C        13.232956       -0.132437       48.687111
 H        13.719532        0.738245       48.965786
 C        12.564623       -0.315781       47.454590
 H        12.596800        0.455866       46.706707
 C        11.925186       -1.466757       47.039650
 H        12.046633       -1.749347       46.009605
 C         5.533682       -3.469759       45.365356
 C         4.771156       -2.760485       46.286057
 N         6.667873       -3.970955       45.999481
 C         6.735925       -3.538341       47.339821
 N         5.482501       -2.781795       47.499413
 C         5.174942       -2.460810       48.781822
 C         6.215830       -2.661908       49.727448
 C         5.987630       -2.255352       51.093407
 H         6.505156       -2.760332       51.954491
 C         4.795659       -1.545981       51.466766
 H         4.461277       -1.502785       52.503792
 C         3.800139       -1.217121       50.484833
 H         2.957290       -0.557315       50.668304
 C         4.033349       -1.701824       49.155861
 H         3.240112       -1.441235       48.464653
 C         3.630985       -2.095588       45.768833
 H         2.851262       -1.566101       46.374123
 C         3.323299       -2.040749       44.409412
 H         2.410804       -1.616522       44.145054
 C         4.202063       -2.661947       43.450882
 H         4.108084       -2.553823       42.372513
 C         5.313192       -3.416149       43.959084
 H         6.069161       -3.625602       43.232903
 C         7.247832       -5.131810       45.525600
 C         6.659678       -6.403245       45.838852
 H         6.070048       -6.624210       46.676712
 C         7.244031       -7.580216       45.333019
 H         6.877195       -8.491945       45.651737
 C         8.396557       -7.544051       44.512424
 H         8.860437       -8.412193       44.075226
 C         8.990902       -6.265180       44.227570
 H         9.838540       -6.185671       43.715626
 C         8.367936       -5.141541       44.720573
 H         8.776807       -4.107042       44.536613
 C         9.166565        1.013593       48.382362
 C         9.699534        0.697066       49.645000
 N         8.530909       -0.172093       47.866528
 C         8.589125       -1.148425       48.764515
 N         9.213216       -0.636366       49.878342
 C         9.138781       -1.410600       51.153770
 C         9.034316       -2.803446       50.812347
 C         9.506420       -3.731408       51.783535
 H         9.465889       -4.812932       51.491028
 C        10.083221       -3.316123       53.021049
 H        10.551510       -3.978596       53.726341
 C        10.036104       -1.951795       53.290291
 H        10.309191       -1.478166       54.240662
 C         9.519980       -1.007716       52.345608
 H         9.543127        0.056463       52.544319
 C        10.527805        1.603637       50.375069
 H        11.126331        1.251238       51.160931
 C        10.915648        2.783327       49.830173
 H        11.676960        3.317841       50.313076
 C        10.390725        3.103572       48.582413
 H        10.909056        3.898757       48.042862
 C         9.523332        2.291269       47.843231
 H         9.195684        2.621390       46.849216
 C         7.994298       -0.359138       46.556961
 C         6.874044        0.391329       46.115112
 H         6.303145        0.997703       46.816742
 C         6.426764        0.181958       44.816570
 H         5.371016        0.483383       44.566292
 C         7.108798       -0.746874       43.967392
 H         6.737993       -1.076621       42.993599
 C         8.243010       -1.388184       44.381134
 H         8.831306       -1.794836       43.552982
 C         8.662426       -1.101910       45.662086
 H         9.486715       -1.632819       45.980652
 Ir        8.092473       -3.167758       61.332432
 C        11.581839       -5.779869       61.502453
 C        12.041986       -4.623960       62.046734
 N        10.269363       -5.590072       61.210590
 C         9.790960       -4.393215       61.533176
 N        10.934874       -3.722239       61.949776
 C        10.870724       -2.318159       61.902428
 C         9.607985       -1.715355       61.762726
 C         9.454552       -0.337351       61.850834
 H         8.441009        0.064516       61.734085
 C        10.586609        0.434148       61.986622
 H        10.509689        1.492169       61.958733
 C        11.858809       -0.128949       62.057518
 H        12.664068        0.507383       62.000607
 C        12.002165       -1.484626       61.969280
 H        12.922699       -1.975717       61.661308
 C        13.319927       -4.585598       62.663174
 H        13.497620       -3.646759       63.206135
 C        14.180786       -5.693201       62.642345
 H        15.144415       -5.689563       63.195522
 C        13.736860       -6.815594       61.980106
 H        14.192919       -7.687602       62.260490
 C        12.445635       -6.891172       61.386875
 H        12.200573       -7.646408       60.673172
 C         9.469265       -6.741081       60.936325
 C         8.994289       -7.473122       62.041500
 H         9.160704       -7.042913       63.033535
 C         8.049010       -8.474071       61.868752
 H         7.662358       -8.912107       62.772038
 C         7.586927       -8.842216       60.604450
 H         7.057055       -9.753862       60.493843
 C         7.972234       -8.043198       59.490715
 H         7.414652       -8.143494       58.553890
 C         8.944192       -7.043492       59.689671
 H         9.255244       -6.585621       58.822319
 C         6.629364       -2.935437       65.439491
 C         5.745601       -2.173747       64.745956
 N         7.612366       -3.334617       64.530396
 C         7.368548       -2.860565       63.293774
 N         6.189371       -2.106493       63.427261
 C         5.767840       -1.452603       62.235107
 C         6.573823       -1.740123       61.145187
 C         6.246017       -1.124675       59.932106
 H         6.975973       -1.019075       59.174866
 C         5.134743       -0.256435       59.792000
 H         4.825320        0.301894       58.885674
 C         4.290993       -0.053257       60.862938
 H         3.368675        0.596655       60.890244
 C         4.596452       -0.656303       62.091728
 H         4.085781       -0.214909       62.869213
 C         4.634498       -1.600870       65.412109
 H         3.869056       -1.148046       64.812408
 C         4.440767       -1.819445       66.747620
 H         3.698983       -1.308565       67.370651
 C         5.383125       -2.550126       67.455482
 H         5.108660       -3.009240       68.350403
 C         6.492199       -3.096957       66.804077
 H         7.215310       -3.515056       67.417999
 C         8.839291       -4.041661       64.930580
 C         9.914989       -3.236696       65.182571
 H        10.104916       -2.288983       64.755653
 C        11.003304       -3.798682       65.856705
 H        11.783556       -3.163625       65.981644
 C        11.083865       -5.099862       66.151718
 H        12.058949       -5.517896       66.474770
 C         9.925194       -5.897388       65.915863
 H         9.827978       -6.910840       66.329231
 C         8.809126       -5.334177       65.296768
 H         7.846428       -5.809247       65.250687
 C         5.037965       -5.921113       59.835129
 C         5.644948       -5.452023       58.724262
 N         5.637338       -5.245338       60.981899
 C         6.666090       -4.470006       60.547585
 N         6.740782       -4.632218       59.196880
 C         7.617629       -3.739000       58.472519
 C         8.593665       -3.204534       59.229088
 C         9.712723       -2.617704       58.651905
 H        10.575247       -2.346155       59.206261
 C         9.833794       -2.544241       57.257545
 H        10.735857       -2.144716       56.716843
 C         8.864006       -3.017920       56.455521
 H         8.891108       -2.958166       55.377514
 C         7.749787       -3.579950       57.070934
 H         6.832950       -3.742326       56.397701
 C         5.267465       -5.862346       57.505394
 H         5.588317       -5.409422       56.566769
 C         4.197620       -6.776466       57.284233
 H         4.174799       -7.209146       56.275635
 C         3.680583       -7.329914       58.475060
 H         3.197527       -8.308587       58.611263
 C         3.997717       -6.861312       59.765770
 H         3.515374       -7.181508       60.630882
 C         4.933451       -5.138947       62.283638
 C         3.803700       -4.309200       62.351322
 H         3.324449       -3.786857       61.505524
 C         3.128582       -4.176750       63.590668
 H         2.404441       -3.413996       63.791737
 C         3.656107       -4.778534       64.746078
 H         2.948099       -4.905233       65.563919
 C         4.839953       -5.566103       64.652039
 H         5.323298       -5.866447       65.614883
 C         5.452929       -5.744451       63.424168
 H         6.387685       -6.326140       63.379807
