206
 generated by VMD
 Ir       -0.557817        0.023756       -6.922359
 C         3.171083       -1.332991       -8.732697
 C         3.209009       -1.857664       -7.462626
 N         2.017298       -0.550774       -8.843193
 C         1.280685       -0.585619       -7.661800
 N         2.041418       -1.375757       -6.806425
 C         1.551027       -1.496229       -5.469975
 C         0.227955       -1.068884       -5.280621
 C        -0.412363       -1.345808       -4.067234
 H        -1.443167       -1.058718       -3.921558
 C         0.252287       -2.018530       -3.034430
 H        -0.271629       -2.234190       -2.120369
 C         1.582586       -2.409338       -3.203468
 H         2.111879       -2.902094       -2.401945
 C         2.233160       -2.142092       -4.417856
 H         3.298529       -2.268343       -4.466391
 C         4.291517       -2.689272       -7.104988
 H         4.314142       -3.177340       -6.146406
 C         5.317154       -2.954977       -8.011003
 H         6.169161       -3.540117       -7.704576
 C         5.262484       -2.425619       -9.298321
 H         6.076571       -2.586088       -9.993452
 C         4.187824       -1.615873       -9.663731
 H         4.150743       -1.200880      -10.662935
 C         1.937449        0.546059       -9.783607
 C         2.401201        1.803782       -9.404964
 H         2.747454        1.974112       -8.401922
 C         2.420906        2.850004      -10.334064
 H         2.751268        3.840067      -10.032009
 C         1.986280        2.638508      -11.645157
 H         2.005667        3.446060      -12.366325
 C         1.532787        1.371103      -12.024803
 H         1.212391        1.188595      -13.044673
 C         1.503660        0.324879      -11.092350
 H         1.169218       -0.657999      -11.405880
 C        -3.028238       -3.418898       -7.929214
 C        -3.910120       -2.531878       -7.364964
 N        -1.731674       -2.873960       -7.805250
 C        -1.782021       -1.623423       -7.230770
 N        -3.131800       -1.420988       -6.937481
 C        -3.446262       -0.177944       -6.299866
 C        -2.316227        0.540922       -5.868301
 C        -2.497845        1.633053       -5.006460
 H        -1.635294        2.120804       -4.580898
 C        -3.776314        2.047243       -4.632078
 H        -3.892950        2.912336       -4.005251
 C        -4.901430        1.369299       -5.109474
 H        -5.887211        1.725082       -4.867085
 C        -4.730490        0.262798       -5.941660
 H        -5.603298       -0.157476       -6.425888
 C        -5.282874       -2.862566       -7.345079
 H        -5.998223       -2.249475       -6.819914
 C        -5.733231       -4.044035       -7.924736
 H        -6.786583       -4.308218       -7.872272
 C        -4.834495       -4.919184       -8.531116
 H        -5.169151       -5.835188       -8.994408
 C        -3.465406       -4.615046       -8.531471
 H        -2.777067       -5.271555       -9.013222
 C        -0.584696       -3.726454       -7.684059
 C        -0.302652       -4.299242       -6.443829
 H        -0.981169       -4.154425       -5.606306
 C         0.863600       -5.054293       -6.268471
 H         1.126488       -5.403387       -5.290913
 C         1.721739       -5.273104       -7.346951
 H         2.570274       -5.925051       -7.229273
 C         1.436449       -4.702818       -8.596306
 H         2.132452       -4.820780       -9.414515
 C         0.284437       -3.923403       -8.761473
 H         0.075994       -3.447817       -9.705332
 C        -1.877043        2.597889      -10.182804
 C        -1.206335        3.459139       -9.341795
 N        -1.873747        1.340887       -9.576885
 C        -1.210405        1.350924       -8.368755
 N        -0.787174        2.672411       -8.223331
 C         0.040224        2.946699       -7.091085
 C         0.453478        1.803030       -6.377047
 C         1.505194        1.933348       -5.449627
 H         1.767719        1.094252       -4.831085
 C         2.151609        3.144239       -5.243729
 H         2.973215        3.209333       -4.545424
 C         1.726843        4.283213       -5.930466
 H         2.176641        5.246117       -5.740198
 C         0.663507        4.189436       -6.830866
 H         0.209011        5.107523       -7.183502
 C        -1.092991        4.815102       -9.709385
 H        -0.585089        5.526480       -9.087309
 C        -1.682289        5.283257      -10.888390
 H        -1.569593        6.319674      -11.168293
 C        -2.373413        4.400145      -11.727112
 H        -2.901460        4.776093      -12.584801
 C        -2.449905        3.053865      -11.375286
 H        -2.926197        2.361549      -12.057669
 C        -2.715508        0.258745      -10.033508
 C        -4.097857        0.346264       -9.861597
 H        -4.521538        1.197655       -9.351965
 C        -4.922548       -0.675285      -10.329918
 H        -5.995347       -0.618704      -10.182943
 C        -4.364056       -1.794031      -10.967800
 H        -4.997678       -2.607904      -11.286907
 C        -2.982545       -1.871866      -11.142063
 H        -2.547870       -2.759188      -11.590969
 C        -2.157851       -0.850317      -10.673744
 H        -1.086729       -0.945326      -10.765760
 Ir       -0.557817        0.023754        8.083569
 C         0.086725        4.331512        8.582531
 C        -0.700792        3.975603        9.650684
 N         0.305925        3.165022        7.826328
 C        -0.342644        2.068619        8.390026
 N        -0.985947        2.593821        9.505520
 C        -1.812145        1.675127       10.226284
 C        -1.691656        0.333971        9.848953
 C        -2.290690       -0.661276       10.641376
 H        -2.164731       -1.700727       10.398754
 C        -3.029373       -0.322855       11.787117
 H        -3.455565       -1.098192       12.403061
 C        -3.191945        1.017996       12.135662
 H        -3.730279        1.282423       13.033070
 C        -2.586420        2.018240       11.361481
 H        -2.826070        3.042711       11.582890
 C        -1.017454        4.966211       10.610279
 H        -1.528601        4.711823       11.530396
 C        -0.560320        6.271196       10.463165
 H        -0.820585        7.025080       11.193447
 C         0.226879        6.619616        9.364292
 H         0.561094        7.638187        9.229683
 C         0.558619        5.643686        8.417240
 H         1.169847        5.903677        7.569592
 C         0.913557        3.179281        6.521076
 C         0.105658        3.297930        5.383965
 H        -0.960752        3.458529        5.489235
 C         0.672142        3.203178        4.112228
 H         0.031956        3.265854        3.237679
 C         2.051867        2.996964        3.962772
 H         2.477354        2.867495        2.980888
 C         2.861338        2.900183        5.104301
 H         3.923662        2.746769        4.987553
 C         2.294016        3.004616        6.373684
 H         2.923105        2.961306        7.246880
 C         2.532707       -1.589907       10.714016
 C         1.892462       -2.703295       10.227131
 N         1.888212       -0.462503       10.185352
 C         0.848312       -0.827414        9.350815
 N         0.866856       -2.214556        9.373096
 C        -0.074869       -2.865576        8.516171
 C        -1.080126       -2.020201        8.017670
 C        -2.196134       -2.590044        7.386871
 H        -3.022906       -1.958677        7.091702
 C        -2.286368       -3.966825        7.192917
 H        -3.159178       -4.387102        6.708687
 C        -1.258083       -4.802820        7.636814
 H        -1.303282       -5.864138        7.450104
 C        -0.155161       -4.259535        8.290493
 H         0.702593       -4.886820        8.463913
 C         2.350286       -3.980268       10.589111
 H         1.790777       -4.866312       10.329155
 C         3.470861       -4.117308       11.411747
 H         3.805281       -5.096594       11.725204
 C         4.137697       -2.984556       11.883873
 H         5.051302       -3.087484       12.452934
 C         3.655695       -1.714766       11.543423
 H         4.145277       -0.847174       11.964840
 C         2.066919        0.856421       10.747311
 C         1.415337        1.190458       11.929031
 H         0.879328        0.431385       12.480938
 C         1.451040        2.513159       12.387375
 H         0.992586        2.766014       13.336258
 C         2.129744        3.492146       11.669704
 H         2.017603        4.531904       11.951176
 C         2.816917        3.153425       10.498528
 H         3.340261        3.909998        9.940849
 C         2.790636        1.830721       10.036831
 H         3.348440        1.551920        9.158352
 C         1.388351       -0.699053        4.245800
 C         0.098326       -0.367504        3.901550
 N         1.481382       -0.630919        5.640934
 C         0.272955       -0.266119        6.212181
 N        -0.570845       -0.076889        5.123333
 C        -1.842607        0.506601        5.427071
 C        -2.152613        0.563837        6.793205
 C        -3.399878        1.104212        7.165798
 H        -3.677870        1.115595        8.204254
 C        -4.289397        1.602329        6.216942
 H        -5.239892        2.019320        6.528679
 C        -3.964315        1.559774        4.863350
 H        -4.651896        1.950705        4.124088
 C        -2.737046        1.021591        4.464386
 H        -2.445020        1.117031        3.435547
 C        -0.278086       -0.409391        2.545246
 H        -1.314785       -0.290258        2.256693
 C         0.644430       -0.765654        1.558208
 H         0.360474       -0.773561        0.521431
 C         1.953615       -1.089716        1.926477
 H         2.661854       -1.418211        1.172493
 C         2.326780       -1.050325        3.273657
 H         3.343788       -1.290949        3.536699
 C         2.545391       -1.292677        6.364235
 C         2.579531       -2.682314        6.370693
 H         1.779051       -3.245337        5.910763
 C         3.598207       -3.346876        7.056080
 H         3.662409       -4.419157        6.997871
 C         4.560972       -2.616804        7.763317
 H         5.311033       -3.132338        8.350033
 C         4.516575       -1.217482        7.757858
 H         5.220123       -0.658541        8.363007
 C         3.510248       -0.557913        7.047520
 H         3.490849        0.518753        7.022823
