206
 generated by VMD
  IR        57.630001       43.580002       35.549999
  C1        56.860001       47.869999       35.020000
  C2        57.380001       47.450001       33.840000
  N1        56.950001       46.770000       35.959999
  C3a       57.549999       45.650002       35.419998
  N2        57.910000       46.139999       34.080002
  C4        58.830002       45.189999       33.430000
  C5a       58.759998       43.880001       33.820000
  C6        59.500000       42.959999       33.130001
  H1        59.189999       41.959999       33.389999
  C7        60.340000       43.320000       32.070000
  H2        60.669998       42.630001       31.360001
  C8        60.430000       44.669998       31.709999
  H3        60.830002       45.080002       30.820000
  C9        59.580002       45.549999       32.369999
  H4        59.540001       46.580002       32.040001
  C10       57.259998       48.270000       32.669998
  H5        57.849998       48.070000       31.790001
  C11       56.560001       49.419998       32.810001
  H6        56.400002       50.029999       31.920000
  C12       56.040001       49.860001       33.990002
  H7        55.259998       50.610001       33.869999
  C13       56.169998       49.090000       35.110001
  H8        55.660000       49.459999       36.020000
  C6        56.680000       46.849998       37.330002
  C1        57.740002       46.759998       38.240002
  H1        58.779999       47.099998       38.029999
  C2        57.490002       46.500000       39.599998
  H2        58.209999       46.419998       40.389999
  C3        56.209999       46.419998       40.049999
  H3        56.060001       46.419998       41.209999
  C4        55.070000       46.470001       39.180000
  H4        54.209999       46.000000       39.570000
  C5        55.369999       46.770000       37.810001
  H5        54.540001       47.080002       37.250000
  C1        54.029999       42.599998       33.470001
  C2        54.689999       41.450001       33.560001
  N1        54.889999       43.660000       33.910000
  C3b       56.139999       43.180000       34.220001
  N2        55.990002       41.810001       33.990002
  C4        57.130001       40.930000       34.270000
  C5b       57.770000       41.490002       35.410000
  C6        58.700001       40.610001       35.980000
  H1        59.500000       41.029999       36.490002
  C7        58.889999       39.310001       35.410000
  H2        59.660000       38.750000       35.939999
  C8        58.220001       38.840000       34.250000
  H3        58.220001       37.810001       33.970001
  C9        57.369999       39.730000       33.669998
  H4        57.119999       39.520000       32.590000
  C10       54.040001       40.230000       33.509998
  H5        54.599998       39.320000       33.580002
  C11       52.650002       40.180000       33.259998
  H6        52.279999       39.200001       32.990002
  C12       51.950001       41.360001       33.060001
  H7        50.830002       41.310001       33.090000
  C13       52.650002       42.580002       33.189999
  H8        52.000000       43.439999       32.990002
  C6        54.610001       44.980000       33.470001
  C1        54.919998       45.330002       32.150002
  H1        55.529999       44.740002       31.500000
  C2        54.369999       46.450001       31.510000
  H2        54.099998       46.480000       30.430000
  C3        53.509998       47.290001       32.240002
  H3        52.939999       48.130001       31.830000
  C4        53.270000       46.990002       33.599998
  H4        52.580002       47.599998       34.169998
  C5        53.730000       45.869999       34.209999
  H5        53.520000       45.770000       35.349998
  C1        55.730000       43.080002       39.470001
  C2        57.060001       43.139999       39.770000
  N1        55.680000       43.029999       38.070000
  C3c       56.840000       43.220001       37.439999
  N2        57.730000       43.259998       38.560001
  C4        59.080002       43.560001       38.259998
  C5c       59.320000       43.779999       36.889999
  C6        60.570000       44.299999       36.500000
  H1        60.720001       44.599998       35.509998
  C7        61.599998       44.410000       37.349998
  H2        62.580002       44.570000       36.970001
  C8        61.459999       44.049999       38.709999
  H3        62.200001       43.939999       39.459999
  C9        60.180000       43.660000       39.180000
  H4        60.099998       43.230000       40.139999
  C10       57.430000       43.049999       41.169998
  H5        58.450001       43.340000       41.380001
  C11       56.450001       42.970001       42.169998
  H6        56.669998       43.169998       43.209999
  C12       55.060001       42.840000       41.840000
  H7        54.410000       42.560001       42.630001
  C13       54.740002       42.900002       40.470001
  H8        53.700001       42.709999       40.119999
  C6        54.450001       42.490002       37.430000
  C1        54.169998       41.099998       37.439999
  H1        54.919998       40.480000       37.950001
  C2        52.900002       40.709999       37.110001
  H2        52.759998       39.570000       37.240002
  C3        51.880001       41.590000       36.630001
  H3        50.910000       41.299999       36.230000
  C4        52.230000       42.959999       36.570000
  H4        51.639999       43.660000       36.009998
  C5        53.480000       43.389999       36.950001
  H5        53.639999       44.419998       37.099998
  IR        51.939999       58.509998       35.980000
  C1        52.590000       58.099998       40.320000
  C2        51.750000       57.070000       39.919998
  N1        52.910000       58.740002       39.169998
  C3a       52.209999       58.259998       38.040001
  N2        51.580002       57.139999       38.549999
  C4        50.430000       56.669998       37.750000
  C5a       50.580002       56.900002       36.340000
  C6        49.689999       56.290001       35.459999
  H1        49.700001       56.509998       34.389999
  C7        48.610001       55.549999       35.980000
  H2        47.810001       55.369999       35.250000
  C8        48.389999       55.410000       37.349998
  H3        47.529999       54.860001       37.709999
  C9        49.320000       55.950001       38.230000
  H4        49.349998       55.759998       39.290001
  C10       51.380001       56.160000       40.880001
  H5        50.869999       55.270000       40.599998
  C11       51.790001       56.380001       42.250000
  H6        51.660000       55.720001       43.099998
  C12       52.500000       57.529999       42.650002
  H7        52.639999       57.799999       43.680000
  C13       52.970001       58.369999       41.650002
  H8        53.580002       59.230000       41.910000
  C6        53.830002       59.759998       39.029999
  C1        55.040001       59.529999       38.419998
  H1        55.230000       58.759998       37.720001
  C2        56.070000       60.490002       38.529999
  H2        56.860001       60.439999       37.869999
  C3        55.939999       61.630001       39.330002
  H3        56.779999       62.299999       39.439999
  C4        54.759998       61.810001       40.060001
  H4        54.750000       62.540001       40.799999
  C5        53.689999       60.900002       39.759998
  H5        52.779999       61.000000       40.279999
  C1        54.520000       55.349998       34.340000
  C2        53.790001       55.799999       33.279999
  N1        54.160000       56.119999       35.470001
  C3b       53.230000       57.060001       35.169998
  N2        53.029999       56.900002       33.720001
  C4        52.349998       57.910000       33.070000
  C5b       51.430000       58.549999       33.930000
  C6        50.439999       59.380001       33.360001
  H1        49.540001       59.490002       33.980000
  C7        50.389999       59.630001       31.990000
  H2        49.650002       60.290001       31.570000
  C8        51.320000       58.990002       31.170000
  H3        51.509998       59.470001       30.230000
  C9        52.290001       58.139999       31.740000
  H4        53.060001       57.970001       31.120001
  C10       53.799999       55.139999       32.040001
  H5        53.139999       55.450001       31.240000
  C11       54.630001       54.029999       31.910000
  H6        54.549999       53.310001       31.110001
  C12       55.380001       53.570000       32.990002
  H7        55.889999       52.619999       32.889999
  C13       55.389999       54.270000       34.180000
  H8        56.029999       54.099998       35.009998
  C6        54.439999       55.669998       36.799999
  C1        53.520000       54.830002       37.400002
  H1        52.680000       54.500000       36.779999
  C2        53.770000       54.450001       38.759998
  H2        53.139999       53.779999       39.320000
  C3        54.959999       54.849998       39.439999
  H3        55.209999       54.549999       40.439999
  C4        55.860001       55.650002       38.830002
  H4        56.810001       55.910000       39.240002
  C5        55.570000       56.020000       37.480000
  H5        56.349998       56.549999       36.939999
  C1        54.320000       62.169998       35.889999
  C2        53.270000       62.450001       36.779999
  N1        53.980000       60.910000       35.240002
  C3c       52.799999       60.410000       35.680000
  N2        52.270000       61.410000       36.549999
  C4        50.889999       61.250000       36.880001
  C5c       50.439999       59.939999       36.549999
  C6        49.060001       59.750000       36.630001
  H1        48.689999       58.770000       36.360001
  C7        48.110001       60.770000       36.980000
  H2        47.040001       60.500000       37.080002
  C8        48.660000       61.950001       37.439999
  H3        48.060001       62.630001       37.970001
  C9        50.009998       62.230000       37.340000
  H4        50.320000       63.230000       37.570000
  C10       53.400002       63.560001       37.660000
  H5        52.720001       63.759998       38.509998
  C11       54.520000       64.360001       37.619999
  H6        54.779999       65.059998       38.419998
  C12       55.509998       64.099998       36.660000
  H7        56.340000       64.760002       36.580002
  C13       55.400002       62.990002       35.840000
  H8        56.139999       62.750000       35.099998
  C6        54.779999       60.369999       34.189999
  C1        55.939999       59.660000       34.470001
  H1        55.959999       58.980000       35.320000
  C2        56.910000       59.480000       33.470001
  H2        57.880001       59.400002       33.830002
  C3        56.700001       59.959999       32.180000
  H3        57.560001       60.090000       31.540001
  C4        55.540001       60.660000       31.889999
  H4        55.389999       61.380001       31.110001
  C5        54.599998       60.860001       32.900002
  H5        53.660000       61.220001       32.540001
