206
 generated by VMD
 Ir      150.432175       40.244019      -81.539413
 C       152.182541       39.263802      -77.597733
 C       151.659546       40.528191      -77.426826
 N       151.833405       38.850441      -78.919685
 C       151.195312       39.855145      -79.611565
 N       151.074707       40.905472      -78.689407
 C       150.386261       42.080872      -79.160995
 C       150.067261       42.104984      -80.534950
 C       149.521606       43.227100      -81.102852
 H       149.394287       43.283936      -82.132881
 C       149.377014       44.435028      -80.287857
 H       149.266144       45.445900      -80.705162
 C       149.669495       44.408661      -78.900070
 H       149.493042       45.335037      -78.256874
 C       150.194397       43.257202      -78.362289
 H       150.412552       43.235512      -77.289711
 C       151.458755       41.074478      -76.147430
 H       150.722260       41.874653      -75.947975
 C       151.971008       40.376945      -75.090439
 H       152.266174       40.891640      -74.195244
 C       152.429535       39.078716      -75.260300
 H       152.614349       38.552990      -74.384018
 C       152.619720       38.565334      -76.511322
 H       153.218170       37.684952      -76.627075
 C       152.319336       37.603256      -79.476898
 C       153.574554       37.547546      -80.035698
 H       154.016296       38.516167      -80.274902
 C       154.084015       36.280163      -80.370346
 H       155.114685       36.226318      -80.557022
 C       153.321838       35.141968      -80.216415
 H       153.496582       34.259159      -80.797974
 C       152.036285       35.223110      -79.747803
 H       151.299835       34.390781      -79.776878
 C       151.579956       36.481514      -79.298286
 H       150.603302       36.575180      -78.799210
 C       146.285721       38.985428      -81.185860
 C       146.374924       39.655670      -82.395203
 N       147.506546       39.107697      -80.596237
 C       148.458130       39.754753      -81.428040
 N       147.691223       40.143440      -82.546326
 C       148.409866       40.504074      -83.668816
 C       149.706573       40.985306      -83.424881
 C       150.360580       41.620396      -84.431625
 H       151.395325       41.921021      -84.372253
 C       149.717438       41.784920      -85.652527
 H       150.172775       42.531815      -86.299225
 C       148.501099       41.203667      -85.997154
 H       148.117493       41.220871      -87.084091
 C       147.826996       40.516045      -84.965195
 H       146.935532       39.842255      -85.207916
 C       145.192490       40.131470      -82.973259
 H       145.132965       40.782265      -83.842010
 C       143.959686       39.905067      -82.417267
 H       143.032227       40.100998      -82.934914
 C       143.840210       39.120033      -81.241196
 H       142.970917       38.866142      -80.686600
 C       145.040588       38.624226      -80.682579
 H       144.869537       38.042786      -79.825386
 C       147.581299       39.092361      -79.168701
 C       147.393936       40.232239      -78.410629
 H       146.727188       41.007545      -78.826004
 C       147.796387       40.328331      -77.088501
 H       147.494308       41.141220      -76.480499
 C       148.355347       39.179482      -76.470520
 H       148.737976       39.197060      -75.466583
 C       148.620483       38.046715      -77.179565
 H       149.120728       37.245045      -76.690117
 C       148.155273       37.957726      -78.505188
 H       148.073273       37.045937      -79.113892
 C       151.941345       36.761765      -83.605431
 C       153.026199       37.635971      -83.508759
 N       150.831085       37.456123      -83.091637
 C       151.131821       38.744625      -82.725296
 N       152.506531       38.868954      -83.004082
 C       153.083710       40.137268      -82.891655
 C       152.391968       40.893696      -81.926773
 C       152.954636       42.109283      -81.547119
 H       152.738525       42.625099      -80.569443
 C       154.065857       42.604534      -82.234802
 H       154.558929       43.437801      -81.783173
 C       154.706390       41.885498      -83.234009
 H       155.628723       42.228378      -83.759178
 C       154.227890       40.626717      -83.553238
 H       154.464035       40.064541      -84.413239
 C       154.285019       37.156990      -83.963013
 H       155.123383       37.854153      -84.035156
 C       154.417328       35.828667      -84.459641
 H       155.353668       35.389877      -84.651047
 C       153.300201       34.979317      -84.498520
 H       153.315567       33.884312      -84.653839
 C       152.047577       35.462791      -84.089447
 H       151.214661       34.792362      -84.060379
 C       149.491409       37.046124      -83.391960
 C       148.964661       37.325066      -84.638611
 H       149.582825       37.887802      -85.321030
 C       147.736267       36.822151      -85.008102
 H       147.266541       36.881977      -86.007484
 C       146.968140       36.061611      -84.095932
 H       146.019562       35.732750      -84.442825
 C       147.370193       35.901386      -82.772758
 H       146.663025       35.556641      -82.052155
 C       148.688187       36.345596      -82.414467
 H       149.161835       36.047775      -81.511223
 Ir      150.432175       40.244015      -68.976273
 C       152.846252       42.111340      -65.953079
 C       152.885361       42.996391      -67.028473
 N       152.148849       40.995392      -66.343590
 C       151.601990       41.179550      -67.593567
 N       152.069351       42.453094      -67.958328
 C       151.432373       43.015831      -69.110062
 C       150.994873       42.008888      -69.938705
 C       150.729340       42.378319      -71.284302
 H       150.532562       41.491016      -71.957260
 C       150.777100       43.680283      -71.726112
 H       150.485504       44.051201      -72.716568
 C       151.123413       44.748177      -70.910599
 H       151.330795       45.687073      -71.351021
 C       151.452164       44.360989      -69.591278
 H       151.660736       45.083580      -68.835663
 C       153.677765       44.192726      -66.977684
 H       153.740021       44.801270      -67.829437
 C       154.378799       44.519524      -65.797401
 H       154.792496       45.544800      -65.647507
 C       154.297241       43.639336      -64.694176
 H       154.723480       43.886116      -63.721233
 C       153.566589       42.470673      -64.824463
 H       153.648682       41.806595      -64.044670
 C       151.966064       39.819061      -65.569229
 C       150.653137       39.567787      -65.113052
 H       149.956635       40.274300      -65.191856
 C       150.385727       38.360802      -64.426422
 H       149.463440       38.243576      -63.958519
 C       151.498047       37.498932      -64.117691
 H       151.259506       36.593311      -63.565384
 C       152.793365       37.800865      -64.498230
 H       153.586487       37.060143      -64.449371
 C       153.043945       38.994019      -65.139847
 H       154.072189       39.358398      -65.234406
 C       146.643982       42.240341      -68.210320
 C       146.532623       41.769585      -69.454346
 N       147.921173       41.969810      -67.771484
 C       148.632111       41.244980      -68.730591
 N       147.768127       41.185905      -69.760620
 C       148.174286       40.437141      -70.961029
 C       149.287521       39.596214      -70.683304
 C       149.508224       38.537849      -71.530518
 H       150.297821       37.841061      -71.329483
 C       148.698730       38.311069      -72.620605
 H       148.814178       37.573898      -73.386215
 C       147.733246       39.178364      -72.979416
 H       147.147217       39.068054      -73.839058
 C       147.485382       40.299911      -72.145164
 H       146.825699       41.001747      -72.493820
 C       145.212097       41.911667      -70.119949
 H       145.033554       41.963638      -71.212852
 C       144.090591       42.422997      -69.433334
 H       143.221161       42.660805      -69.991943
 C       144.268311       42.913754      -68.138351
 H       143.416290       43.282433      -67.601448
 C       145.568634       42.817101      -67.532974
 H       145.772842       43.337959      -66.594353
 C       148.492401       42.334751      -66.472473
 C       149.343353       43.464348      -66.406982
 H       149.842361       43.962212      -67.256119
 C       149.561737       44.049515      -65.192207
 H       149.911377       45.086006      -65.185028
 C       149.202026       43.472191      -63.973221
 H       149.411285       43.890228      -62.991001
 C       148.384491       42.326153      -64.042397
 H       148.314423       41.715363      -63.169792
 C       148.067261       41.800613      -65.306908
 H       147.342194       40.997635      -65.309357
 C       149.866104       36.441128      -66.948441
 C       151.167908       36.383545      -67.374847
 N       149.322144       37.604187      -67.520889
 C       150.212891       38.329018      -68.247093
 N       151.325531       37.567917      -68.196136
 C       152.424240       38.109909      -68.907455
 C       152.138306       39.241180      -69.713165
 C       152.998718       39.737923      -70.700821
 H       152.590897       40.333382      -71.494614
 C       154.255081       39.212387      -70.805878
 H       154.871399       39.395233      -71.654663
 C       154.582214       38.109154      -69.996155
 H       155.452515       37.554268      -70.267929
 C       153.713684       37.579506      -69.043869
 H       154.092010       36.804760      -68.313988
 C       151.990448       35.230583      -67.090637
 H       152.999939       35.172440      -67.477638
 C       151.389465       34.135201      -66.425545
 H       151.883240       33.158169      -66.461273
 C       150.092972       34.260838      -65.956238
 H       149.688995       33.435238      -65.361191
 C       149.257980       35.404827      -66.150085
 H       148.151932       35.342571      -66.047295
 C       147.978271       37.500427      -67.924179
 C       147.081482       38.433334      -67.381668
 H       147.206543       38.936813      -66.431320
 C       145.763580       38.398193      -67.883026
 H       145.031937       39.234818      -67.639450
 C       145.378479       37.418907      -68.794685
 H       144.268982       37.302628      -69.025314
 C       146.322250       36.529182      -69.348572
 H       145.988525       35.809212      -70.083534
 C       147.640717       36.554611      -68.934425
 H       148.294586       35.907742      -69.455399
