206
 generated by VMD
  IR        43.029999       25.190001       10.950000
  C1        46.570000       27.690001       11.640000
  C2        46.700001       26.709999       12.570000
  N1        45.250000       27.570000       11.070000
  C3a       44.619999       26.420000       11.470000
  N2        45.590000       25.809999       12.330000
  C4        45.290001       24.480000       12.620000
  C5a       43.950001       24.139999       12.540000
  C6        43.380001       23.059999       13.260000
  H1        42.529999       22.490000       12.810000
  C7        44.209999       22.320000       14.130000
  H2        43.619999       21.670000       14.880000
  C8        45.610001       22.559999       14.220000
  H3        46.299999       21.870001       14.690000
  C9        46.139999       23.650000       13.430000
  H4        47.180000       23.879999       13.440000
  C10       47.820000       26.740000       13.510000
  H5        47.910000       25.969999       14.210000
  C11       48.779999       27.730000       13.360000
  H6        49.709999       27.700001       13.990000
  C12       48.650002       28.639999       12.340000
  H7        49.389999       29.459999       12.290000
  C13       47.549999       28.620001       11.500000
  H8        47.500000       29.370001       10.750000
  C6        44.470001       28.740000       10.720000
  C1        44.020000       28.889999        9.400000
  H1        44.029999       28.000000        8.770000
  C2        43.630001       30.120001        8.890000
  H2        43.500000       30.260000        7.830000
  C3        43.450001       31.180000        9.740000
  H3        43.130001       32.189999        9.400000
  C4        43.910000       31.059999       11.080000
  H4        43.980000       31.910000       11.750000
  C5        44.380001       29.840000       11.580000
  H5        44.900002       29.719999       12.500000
  C1        45.049999       22.799999        7.970000
  C2        43.849998       22.160000        8.150000
  N1        45.160000       23.809999        8.940000
  C3b       43.959999       23.830000        9.690000
  N2        43.209999       22.790001        9.220000
  C4        42.000000       22.600000        9.900000
  C5b       41.520000       23.740000       10.610000
  C6        40.220001       23.900000       10.960000
  H1        39.910000       24.870001       11.400000
  C7        39.270000       22.940001       10.550000
  H2        38.189999       23.040001       10.620000
  C8        39.689999       21.709999        9.970000
  H3        38.970001       20.860001        9.890000
  C9        41.090000       21.559999        9.660000
  H4        41.549999       20.690001        9.720000
  C10       43.590000       21.040001        7.330000
  H5        42.619999       20.559999        7.560000
  C11       44.380001       20.690001        6.240000
  H6        44.340000       19.700001        5.810000
  C12       45.529999       21.450001        5.950000
  H7        46.250000       21.080000        5.220000
  C13       45.799999       22.469999        6.850000
  H8        46.730000       22.959999        6.780000
  C6        46.470001       24.290001        9.250000
  C1        46.810001       25.570000        8.850000
  H1        46.119999       26.320000        8.450000
  C2        48.160000       25.920000        9.080000
  H2        48.500000       26.940001        8.850000
  C3        49.070000       25.040001        9.660000
  H3        50.080002       25.389999        9.870000
  C4        48.630001       23.799999       10.080000
  H4        49.290001       23.200001       10.800000
  C5        47.320000       23.330000        9.860000
  H5        47.049999       22.320000        9.850000
  C1        40.959999       27.520000        8.010000
  C2        40.759998       28.139999        9.230000
  N1        41.779999       26.440001        8.210000
  C3c       41.990002       26.299999        9.600000
  N2        41.349998       27.360001       10.200000
  C4        41.180000       27.330000       11.620000
  C5c       41.770000       26.309999       12.290000
  C6        41.700001       26.230000       13.680000
  H1        42.230000       25.280001       14.040000
  C7        40.980000       27.230000       14.430000
  H2        41.009998       27.150000       15.470000
  C8        40.310001       28.230000       13.760000
  H3        39.889999       29.020000       14.340000
  C9        40.470001       28.280001       12.370000
  H4        39.779999       29.000000       11.870000
  C10       40.150002       29.389999        9.210000
  H5        39.740002       29.840000       10.100000
  C11       39.639999       30.010000        8.040000
  H6        39.240002       31.049999        7.960000
  C12       39.900002       29.370001        6.780000
  H7        39.509998       29.780001        5.870000
  C13       40.580002       28.170000        6.780000
  H8        40.730000       27.760000        5.830000
  C6        42.060001       25.559999        7.240000
  C1        43.049999       25.840000        6.300000
  H1        43.730000       26.730000        6.460000
  C2        43.090000       25.100000        5.110000
  H2        43.840000       25.309999        4.440000
  C3        42.279999       24.010000        4.910000
  H3        42.310001       23.650000        3.890000
  C4        41.360001       23.709999        5.870000
  H4        40.939999       22.670000        5.970000
  C5        41.189999       24.469999        7.070000
  H5        40.250000       24.270000        7.620000
  IR        51.020000       30.559999        5.290000
  C1        48.580002       31.510000        8.760000
  C2        49.849998       31.440001        9.260000
  N1        48.630001       31.110001        7.390000
  C3a       49.959999       30.940001        7.020000
  N2        50.720001       31.030001        8.210000
  C4        52.180000       31.139999        8.010000
  C5a       52.619999       30.820000        6.670000
  C6        53.980000       30.959999        6.410000
  H1        54.209999       30.920000        5.370000
  C7        54.869999       31.270000        7.470000
  H2        55.910000       31.200001        7.370000
  C8        54.430000       31.420000        8.770000
  H3        55.130001       31.520000        9.590000
  C9        53.049999       31.400000        9.060000
  H4        52.810001       31.559999       10.070000
  C10       50.049999       31.670000       10.540000
  H5        50.970001       31.490000       11.040000
  C11       49.020000       32.099998       11.370000
  H6        49.220001       32.340000       12.420000
  C12       47.740002       32.169998       10.930000
  H7        47.049999       32.669998       11.560000
  C13       47.439999       31.820000        9.570000
  H8        46.389999       31.670000        9.290000
  C6        47.450001       30.730000        6.630000
  C1        46.950001       31.620001        5.710000
  H1        47.500000       32.610001        5.690000
  C2        45.770000       31.320000        5.020000
  H2        45.450001       32.000000        4.270000
  C3        45.099998       30.059999        5.240000
  H3        44.500000       29.620001        4.420000
  C4        45.660000       29.160000        6.200000
  H4        45.310001       28.160000        6.230000
  C5        46.840000       29.459999        6.840000
  H5        47.330002       28.680000        7.370000
  C1        51.639999       34.500000        3.870000
  C2        52.400002       33.750000        2.970000
  N1        51.230000       33.700001        4.960000
  C3b       51.540001       32.400002        4.630000
  N2        52.290001       32.410000        3.430000
  C4        52.810001       31.180000        2.980000
  C5b       52.369999       30.070000        3.730000
  C6        52.889999       28.780001        3.480000
  H1        52.270000       27.900000        3.690000
  C7        53.900002       28.620001        2.500000
  H2        54.369999       27.680000        2.460000
  C8        54.369999       29.709999        1.840000
  H3        55.340000       29.629999        1.510000
  C9        53.799999       30.959999        2.040000
  H4        54.279999       31.840000        1.600000
  C10       53.000000       34.330002        1.880000
  H5        53.349998       33.650002        1.090000
  C11       52.849998       35.660000        1.600000
  H6        53.520000       36.080002        0.890000
  C12       52.040001       36.480000        2.390000
  H7        51.730000       37.389999        1.960000
  C13       51.470001       35.880001        3.550000
  H8        51.000000       36.549999        4.260000
  C6        51.259998       34.189999        6.350000
  C1        52.500000       34.240002        6.980000
  H1        53.380001       33.799999        6.520000
  C2        52.520000       34.630001        8.280000
  H2        53.400002       34.650002        8.890000
  C3        51.330002       34.919998        9.010000
  H3        51.389999       34.750000       10.060000
  C4        50.090000       35.070000        8.320000
  H4        49.310001       35.540001        8.830000
  C5        50.099998       34.639999        6.990000
  H5        49.419998       34.930000        6.250000
  C1        47.660000       29.510000        2.750000
  C2        47.910000       28.350000        3.350000
  N1        48.709999       30.340000        2.960000
  C3c       49.639999       29.860001        3.890000
  N2        49.080002       28.620001        4.220000
  C4        49.840000       27.860001        5.120000
  C5c       50.820000       28.580000        5.850000
  C6        51.730000       27.840000        6.640000
  H1        52.520000       28.309999        7.110000
  C7        51.599998       26.500000        6.860000
  H2        52.200001       25.900000        7.500000
  C8        50.580002       25.799999        6.170000
  H3        50.639999       24.719999        6.330000
  C9        49.709999       26.480000        5.340000
  H4        49.200001       25.959999        4.650000
  C10       46.950001       27.309999        3.270000
  H5        47.049999       26.340000        3.840000
  C11       45.779999       27.480000        2.470000
  H6        45.080002       26.660000        2.330000
  C12       45.529999       28.690001        1.880000
  H7        44.740002       28.719999        1.170000
  C13       46.459999       29.730000        2.040000
  H8        46.259998       30.690001        1.580000
  C6        48.880001       31.450001        2.120000
  C1        49.950001       31.500000        1.220000
  H1        50.540001       30.590000        1.020000
  C2        50.290001       32.740002        0.620000
  H2        51.310001       32.830002        0.250000
  C3        49.639999       33.910000        0.880000
  H3        49.910000       34.900002        0.530000
  C4        48.650002       33.860001        1.870000
  H4        48.160000       34.720001        2.260000
  C5        48.250000       32.669998        2.400000
  H5        47.459999       32.730000        3.110000
