206
 generated by VMD
 Ir       55.326351      104.411591       23.738602
 C        58.142616      107.508713       25.204674
 C        58.859295      106.785606       24.317955
 N        56.844173      106.933243       25.318991
 C        56.783558      105.788109       24.446802
 N        58.034653      105.726509       23.929144
 C        58.283142      104.654625       22.959036
 C        57.068520      103.960526       22.619141
 C        57.132210      103.050201       21.527605
 H        56.219883      102.604897       21.164883
 C        58.386448      102.753784       20.971895
 H        58.390377      102.031799       20.116484
 C        59.611595      103.329315       21.376839
 H        60.640797      103.003845       21.173565
 C        59.512169      104.348892       22.353546
 H        60.368408      104.697739       22.915390
 C        60.148205      107.199478       23.941357
 H        60.551006      106.821609       23.076742
 C        60.746166      108.285309       24.480156
 H        61.770618      108.506210       24.289646
 C        60.004307      109.051445       25.427835
 H        60.405346      110.009369       25.688492
 C        58.723801      108.698029       25.821018
 H        58.265354      109.179352       26.686438
 C        56.076168      107.034447       26.436361
 C        56.469719      106.311516       27.545406
 H        57.388214      105.744263       27.411270
 C        56.165230      106.758026       28.869724
 H        56.472603      106.180374       29.697941
 C        55.468731      107.918159       29.021667
 H        55.081188      108.168167       29.982813
 C        55.059944      108.628296       27.882545
 H        54.225414      109.275757       27.983271
 C        55.329807      108.178299       26.600521
 H        54.816154      108.610626       25.719131
 C        53.960289      106.525711       20.089682
 C        53.255455      105.325989       20.092373
 N        54.736977      106.484009       21.246967
 C        54.636009      105.312302       21.999306
 N        53.712021      104.594940       21.259422
 C        53.460823      103.332520       21.670872
 C        54.151981      102.919983       22.836342
 C        54.070847      101.563416       23.251585
 H        54.278553      101.487968       24.325674
 C        53.463352      100.594971       22.494774
 H        53.719032       99.516205       22.534817
 C        52.806828      101.021446       21.309158
 H        52.414028      100.269241       20.644257
 C        52.841774      102.345467       20.891251
 H        52.496025      102.541801       19.832331
 C        52.244743      105.158447       19.092730
 H        51.557236      104.298187       19.151756
 C        51.943089      106.166206       18.165138
 H        51.322414      105.910355       17.338036
 C        52.609650      107.410103       18.286072
 H        52.201569      108.235382       17.679533
 C        53.609314      107.574158       19.219641
 H        54.274769      108.393730       19.139210
 C        55.831345      107.397797       21.437950
 C        57.111855      107.107193       20.956240
 H        57.226089      106.210861       20.318626
 C        58.121674      108.003517       21.024551
 H        59.006367      108.027908       20.403168
 C        57.859406      109.196266       21.657608
 H        58.823051      109.898460       21.745419
 C        56.582035      109.510117       22.101244
 H        56.217194      110.520287       22.089132
 C        55.559105      108.604492       22.073452
 H        54.531006      108.806747       22.411697
 C        52.110916      105.613708       26.508457
 C        52.845497      104.661743       27.206354
 N        52.610626      105.556641       25.149071
 C        53.766403      104.755745       25.107185
 N        53.862911      104.079308       26.293701
 C        54.896454      103.059875       26.386721
 C        55.880219      103.278374       25.429766
 C        57.128448      102.657700       25.636829
 H        57.801033      102.776230       24.840096
 C        57.391857      101.821999       26.776625
 H        58.413891      101.769775       27.112513
 C        56.302574      101.476776       27.658031
 H        56.393120      100.668930       28.301598
 C        55.076408      102.159073       27.516668
 H        54.221100      101.863823       28.085413
 C        52.673332      104.557259       28.614876
 H        53.274036      103.886597       29.247627
 C        51.830055      105.455872       29.251652
 H        51.669846      105.421097       30.351799
 C        51.098099      106.415970       28.558941
 H        50.206520      106.827492       29.078205
 C        51.237217      106.442581       27.173683
 H        50.550964      107.000473       26.549088
 C        51.808205      105.831985       23.985243
 C        50.913712      104.904236       23.502789
 H        50.810570      104.031273       24.095909
 C        50.137035      105.245865       22.434067
 H        49.422615      104.455307       22.107973
 C        50.111053      106.508255       21.873714
 H        49.486671      106.677856       21.017162
 C        50.832394      107.569695       22.523336
 H        50.559906      108.603119       22.427967
 C        51.767544      107.159485       23.484442
 H        52.421654      107.888435       23.957056
 Ir       55.326347      104.411598       35.446674
 C        55.251232      104.856079       39.724854
 C        55.655914      103.544815       39.572178
 N        54.792030      105.375565       38.486195
 C        55.021606      104.468750       37.478733
 N        55.474335      103.341232       38.151302
 C        55.451553      102.230988       37.398079
 C        55.853615      102.426163       36.000816
 C        56.230747      101.356628       35.174042
 H        56.846100      101.535599       34.330708
 C        56.254097      100.075623       35.707062
 H        56.652802       99.256042       35.055672
 C        55.834160       99.828125       37.002625
 H        55.671623       98.863304       37.345680
 C        55.416618      100.927902       37.860283
 H        55.115215      100.690842       38.925110
 C        56.120316      102.882332       40.666183
 H        56.163399      101.827972       40.640587
 C        56.312294      103.519501       41.864128
 H        56.619659      102.931381       42.670193
 C        55.849377      104.785431       42.078876
 H        55.669701      104.944778       43.096336
 C        55.284729      105.465347       41.008270
 H        54.604500      106.334854       41.125942
 C        53.820473      106.442673       38.537689
 C        54.257668      107.728409       38.670532
 H        55.356136      107.892349       38.493362
 C        53.283470      108.766449       38.672554
 H        53.637794      109.741806       38.929501
 C        51.984371      108.524567       38.475723
 H        51.247448      109.318512       38.547840
 C        51.555046      107.156296       38.314140
 H        50.461716      107.034164       38.191601
 C        52.492508      106.132202       38.328125
 H        52.269417      105.125465       38.131104
 C        59.649517      105.205750       35.173836
 C        59.235458      105.320694       33.891518
 N        58.546032      104.898888       35.982944
 C        57.381107      104.731361       35.254257
 N        57.804703      105.038139       33.921650
 C        56.873756      104.738068       32.858170
 C        55.684624      104.085907       33.365383
 C        54.986847      103.186050       32.585228
 H        54.221268      102.551338       33.043419
 C        55.345398      102.968552       31.279114
 H        54.701210      102.345367       30.693306
 C        56.366539      103.741592       30.705807
 H        56.772942      103.521805       29.649105
 C        57.166668      104.606590       31.488859
 H        58.087135      105.035553       31.159437
 C        60.135216      105.857704       32.901489
 H        60.081856      105.573959       31.888702
 C        61.313625      106.419273       33.236286
 H        61.974674      106.722641       32.483162
 C        61.727707      106.335732       34.585049
 H        62.659435      106.696182       34.897560
 C        60.899315      105.702232       35.516788
 H        61.187328      105.551224       36.572365
 C        58.860912      104.250366       37.246498
 C        59.308197      102.920525       37.332870
 H        59.554062      102.398499       36.446114
 C        59.678162      102.369652       38.550266
 H        59.907578      101.295532       38.538452
 C        59.710560      103.198616       39.720856
 H        60.058369      102.729080       40.628910
 C        59.324173      104.537766       39.666191
 H        59.235756      105.143494       40.553978
 C        58.909584      105.067703       38.427086
 H        59.030724      106.160431       38.290016
 C        53.762039      108.158020       33.907295
 C        52.658463      107.532608       34.406357
 N        54.901115      107.382736       34.142292
 C        54.493084      106.208679       34.841660
 N        53.138931      106.286499       34.845978
 C        52.443672      105.118210       35.199554
 C        53.276215      104.011581       35.338356
 C        52.654961      102.775879       35.683128
 H        53.146721      101.826141       35.458939
 C        51.281479      102.678192       35.914871
 H        50.874374      101.773796       36.306213
 C        50.432133      103.749924       35.742889
 H        49.379814      103.566208       35.811989
 C        51.022949      104.991455       35.404411
 H        50.352516      105.692352       35.010246
 C        51.433388      108.263741       34.399952
 H        50.643715      108.064987       35.054024
 C        51.288258      109.536591       33.825676
 H        50.378113      110.091049       33.821365
 C        52.374977      110.053879       33.138393
 H        52.335396      111.033798       32.661850
 C        53.578026      109.409935       33.211975
 H        54.405018      110.079514       32.764381
 C        56.208046      107.951263       34.266052
 C        56.617363      108.296669       35.561142
 H        55.840309      108.402496       36.328663
 C        57.832481      108.898918       35.813488
 H        58.081081      109.238472       36.813393
 C        58.679752      109.132507       34.786232
 H        59.673393      109.532486       35.043922
 C        58.310856      108.767349       33.482407
 H        59.166130      108.645264       32.758667
 C        57.048473      108.211594       33.181015
 H        56.895958      107.704651       32.260174
