206
 generated by VMD
  IR        51.939999       58.509998       35.980000
  C1        52.590000       58.099998       40.320000
  C2        51.750000       57.070000       39.919998
  N1        52.910000       58.740002       39.169998
  C3a       52.209999       58.259998       38.040001
  N2        51.580002       57.139999       38.549999
  C4        50.430000       56.669998       37.750000
  C5a       50.580002       56.900002       36.340000
  C6        49.689999       56.290001       35.459999
  H1        49.700001       56.509998       34.389999
  C7        48.610001       55.549999       35.980000
  H2        47.810001       55.369999       35.250000
  C8        48.389999       55.410000       37.349998
  H3        47.529999       54.860001       37.709999
  C9        49.320000       55.950001       38.230000
  H4        49.349998       55.759998       39.290001
  C10       51.380001       56.160000       40.880001
  H5        50.869999       55.270000       40.599998
  C11       51.790001       56.380001       42.250000
  H6        51.660000       55.720001       43.099998
  C12       52.500000       57.529999       42.650002
  H7        52.639999       57.799999       43.680000
  C13       52.970001       58.369999       41.650002
  H8        53.580002       59.230000       41.910000
  C6        53.830002       59.759998       39.029999
  C1        55.040001       59.529999       38.419998
  H1        55.230000       58.759998       37.720001
  C2        56.070000       60.490002       38.529999
  H2        56.860001       60.439999       37.869999
  C3        55.939999       61.630001       39.330002
  H3        56.779999       62.299999       39.439999
  C4        54.759998       61.810001       40.060001
  H4        54.750000       62.540001       40.799999
  C5        53.689999       60.900002       39.759998
  H5        52.779999       61.000000       40.279999
  C1        54.520000       55.349998       34.340000
  C2        53.790001       55.799999       33.279999
  N1        54.160000       56.119999       35.470001
  C3b       53.230000       57.060001       35.169998
  N2        53.029999       56.900002       33.720001
  C4        52.349998       57.910000       33.070000
  C5b       51.430000       58.549999       33.930000
  C6        50.439999       59.380001       33.360001
  H1        49.540001       59.490002       33.980000
  C7        50.389999       59.630001       31.990000
  H2        49.650002       60.290001       31.570000
  C8        51.320000       58.990002       31.170000
  H3        51.509998       59.470001       30.230000
  C9        52.290001       58.139999       31.740000
  H4        53.060001       57.970001       31.120001
  C10       53.799999       55.139999       32.040001
  H5        53.139999       55.450001       31.240000
  C11       54.630001       54.029999       31.910000
  H6        54.549999       53.310001       31.110001
  C12       55.380001       53.570000       32.990002
  H7        55.889999       52.619999       32.889999
  C13       55.389999       54.270000       34.180000
  H8        56.029999       54.099998       35.009998
  C6        54.439999       55.669998       36.799999
  C1        53.520000       54.830002       37.400002
  H1        52.680000       54.500000       36.779999
  C2        53.770000       54.450001       38.759998
  H2        53.139999       53.779999       39.320000
  C3        54.959999       54.849998       39.439999
  H3        55.209999       54.549999       40.439999
  C4        55.860001       55.650002       38.830002
  H4        56.810001       55.910000       39.240002
  C5        55.570000       56.020000       37.480000
  H5        56.349998       56.549999       36.939999
  C1        54.320000       62.169998       35.889999
  C2        53.270000       62.450001       36.779999
  N1        53.980000       60.910000       35.240002
  C3c       52.799999       60.410000       35.680000
  N2        52.270000       61.410000       36.549999
  C4        50.889999       61.250000       36.880001
  C5c       50.439999       59.939999       36.549999
  C6        49.060001       59.750000       36.630001
  H1        48.689999       58.770000       36.360001
  C7        48.110001       60.770000       36.980000
  H2        47.040001       60.500000       37.080002
  C8        48.660000       61.950001       37.439999
  H3        48.060001       62.630001       37.970001
  C9        50.009998       62.230000       37.340000
  H4        50.320000       63.230000       37.570000
  C10       53.400002       63.560001       37.660000
  H5        52.720001       63.759998       38.509998
  C11       54.520000       64.360001       37.619999
  H6        54.779999       65.059998       38.419998
  C12       55.509998       64.099998       36.660000
  H7        56.340000       64.760002       36.580002
  C13       55.400002       62.990002       35.840000
  H8        56.139999       62.750000       35.099998
  C6        54.779999       60.369999       34.189999
  C1        55.939999       59.660000       34.470001
  H1        55.959999       58.980000       35.320000
  C2        56.910000       59.480000       33.470001
  H2        57.880001       59.400002       33.830002
  C3        56.700001       59.959999       32.180000
  H3        57.560001       60.090000       31.540001
  C4        55.540001       60.660000       31.889999
  H4        55.389999       61.380001       31.110001
  C5        54.599998       60.860001       32.900002
  H5        53.660000       61.220001       32.540001
  IR        50.869999       51.270000       29.490000
  C1        49.790001       50.209999       25.379999
  C2        49.529999       49.070000       26.110001
  N1        50.450001       51.139999       26.219999
  C3a       50.529999       50.650002       27.500000
  N2        50.009998       49.340000       27.410000
  C4        50.049999       48.540001       28.690001
  C5a       50.279999       49.259998       29.870001
  C6        50.080002       48.610001       31.090000
  H1        50.029999       49.220001       31.980000
  C7        49.759998       47.299999       31.160000
  H2        49.840000       46.759998       32.080002
  C8        49.599998       46.549999       30.059999
  H3        49.849998       45.509998       30.230000
  C9        49.689999       47.169998       28.809999
  H4        49.549999       46.500000       27.930000
  C10       48.889999       47.970001       25.510000
  H5        48.439999       47.099998       26.020000
  C11       48.380001       48.009998       24.209999
  H6        47.840000       47.150002       23.760000
  C12       48.580002       49.209999       23.469999
  H7        48.349998       49.189999       22.379999
  C13       49.270000       50.279999       24.049999
  H8        49.470001       51.119999       23.320000
  C6        51.110001       52.259998       25.730000
  C1        52.470001       52.200001       25.510000
  H1        53.080002       51.349998       25.910000
  C2        53.259998       53.330002       25.100000
  H2        54.290001       53.040001       24.820000
  C3        52.669998       54.549999       25.000000
  H3        53.189999       55.470001       24.910000
  C4        51.240002       54.639999       25.200001
  H4        50.740002       55.439999       24.790001
  C5        50.480000       53.490002       25.570000
  H5        49.369999       53.549999       25.590000
  C1        46.730000       52.450001       30.420000
  C2        47.500000       52.939999       31.440001
  N1        47.599998       51.759998       29.590000
  C3b       48.919998       51.750000       30.040001
  N2        48.810001       52.450001       31.219999
  C4        50.040001       52.529999       31.969999
  C5b       50.950001       51.619999       31.540001
  C6        52.000000       51.330002       32.430000
  H1        52.599998       50.500000       32.180000
  C7        52.240002       51.970001       33.590000
  H2        53.200001       51.889999       34.070000
  C8        51.389999       53.029999       33.950001
  H3        51.450001       53.400002       34.919998
  C9        50.240002       53.279999       33.220001
  H4        49.520000       53.950001       33.610001
  C10       46.849998       53.560001       32.470001
  H5        47.389999       54.060001       33.270000
  C11       45.389999       53.660000       32.410000
  H6        44.790001       54.209999       33.160000
  C12       44.650002       53.049999       31.420000
  H7        43.619999       52.939999       31.480000
  C13       45.380001       52.470001       30.340000
  H8        44.889999       51.910000       29.520000
  C6        47.119999       50.919998       28.549999
  C1        46.580002       49.700001       28.969999
  H1        46.759998       49.380001       29.910000
  C2        45.910000       48.889999       27.969999
  H2        45.459999       47.980000       28.330000
  C3        45.730000       49.389999       26.700001
  H3        45.099998       48.889999       26.000000
  C4        46.360001       50.549999       26.280001
  H4        46.389999       50.790001       25.190001
  C5        47.080002       51.299999       27.240000
  H5        47.660000       52.169998       26.840000
  C1        52.040001       55.349998       28.580000
  C2        53.220001       54.709999       28.520000
  N1        51.110001       54.439999       29.070000
  C3c       51.580002       53.180000       29.270000
  N2        52.919998       53.349998       28.879999
  C4        53.660000       52.130001       28.840000
  C5c       52.919998       50.930000       29.100000
  C6        53.560001       49.700001       29.090000
  H1        53.049999       48.820000       29.330000
  C7        54.970001       49.660000       28.930000
  H2        55.310001       48.680000       28.660000
  C8        55.759998       50.860001       28.910000
  H3        56.820000       50.820000       28.870001
  C9        55.070000       52.080002       28.790001
  H4        55.590000       52.939999       28.549999
  C10       54.299999       55.389999       28.030001
  H5        55.209999       54.889999       27.780001
  C11       54.259998       56.730000       27.740000
  H6        55.180000       57.310001       27.629999
  C12       53.130001       57.410000       27.850000
  H7        53.020000       58.490002       27.910000
  C13       51.959999       56.689999       28.150000
  H8        51.049999       57.119999       27.709999
  C6        49.810001       54.950001       29.580000
  C1        49.770000       55.599998       30.870001
  H1        50.619999       55.619999       31.480000
  C2        48.599998       56.340000       31.190001
  H2        48.680000       57.090000       31.950001
  C3        47.430000       56.349998       30.379999
  H3        46.619999       56.990002       30.590000
  C4        47.560001       55.639999       29.150000
  H4        46.630001       55.400002       28.690001
  C5        48.720001       55.000000       28.750000
  H5        48.919998       54.639999       27.740000
