206
 generated by VMD
 Ir       34.173309      -99.063873      -65.860931
 C        32.168728      -95.296890      -66.391373
 C        32.233147      -95.409241      -65.001831
 N        32.611984      -96.469009      -66.951431
 C        33.025898      -97.349052      -66.028351
 N        32.772682      -96.701019      -64.807434
 C        33.070499      -97.398697      -63.644432
 C        33.933426      -98.467079      -63.847679
 C        34.449181      -99.117867      -62.682793
 H        35.337074      -99.687454      -62.687096
 C        34.146233      -98.756195      -61.428314
 H        34.419083      -99.371635      -60.589996
 C        33.231888      -97.627045      -61.194023
 H        33.103127      -97.191452      -60.272404
 C        32.708179      -96.997177      -62.298927
 H        31.961973      -96.206001      -62.065208
 C        32.074501      -94.234093      -64.214638
 H        32.143147      -94.139221      -63.213989
 C        31.980896      -93.060455      -64.911209
 H        31.923485      -92.203201      -64.368149
 C        31.710588      -93.000565      -66.284653
 H        31.612448      -92.043289      -66.700569
 C        31.822731      -94.130295      -67.015495
 H        31.454519      -94.175011      -68.050011
 C        31.927507      -97.045425      -68.116608
 C        30.809261      -97.771378      -67.881226
 H        30.232376      -97.477791      -67.053513
 C        30.259827      -98.488770      -68.952660
 H        29.558374      -99.298416      -68.777901
 C        30.784233      -98.364990      -70.271851
 H        30.384441      -98.953003      -71.119972
 C        31.996986      -97.601936      -70.420097
 H        32.453739      -97.535980      -71.445053
 C        32.590706      -96.955078      -69.372398
 H        33.582321      -96.539780      -69.257851
 C        38.121334      -97.328941      -65.951195
 C        38.417976      -98.622093      -65.544434
 N        36.756111      -97.154907      -66.066414
 C        36.111649      -98.294128      -65.770683
 N        37.144661      -99.237869      -65.504532
 C        36.741695     -100.615921      -65.333435
 C        35.324005     -100.755386      -65.221558
 C        34.777496     -101.985329      -64.869476
 H        33.740238     -102.071503      -64.656929
 C        35.595703     -103.112915      -64.744247
 H        35.152771     -104.022873      -64.273514
 C        36.956909     -102.981232      -64.976334
 H        37.558510     -103.900864      -65.030647
 C        37.557323     -101.747726      -65.230011
 H        38.611328     -101.577660      -65.327736
 C        39.751991      -99.066498      -65.547638
 H        40.109520     -100.090851      -65.337440
 C        40.728821      -98.168129      -65.868324
 H        41.725250      -98.591705      -65.872345
 C        40.423409      -96.793930      -66.216309
 H        41.217819      -96.045044      -66.449944
 C        39.101265      -96.408920      -66.267242
 H        38.949356      -95.310371      -66.314308
 C        36.160202      -95.854622      -66.003609
 C        35.877029      -95.259674      -64.773506
 H        35.900238      -95.839584      -63.912537
 C        35.294876      -93.957283      -64.708145
 H        35.085793      -93.592239      -63.726761
 C        35.094070      -93.203697      -65.852119
 H        34.323662      -92.402206      -65.888054
 C        35.336517      -93.787491      -67.107071
 H        34.846001      -93.466911      -68.018730
 C        35.874321      -95.117844      -67.184723
 H        36.157188      -95.419304      -68.145821
 C        34.135696     -100.427429      -69.976936
 C        33.070091     -101.064468      -69.393524
 N        34.887318      -99.682076      -68.998978
 C        34.200947      -99.907928      -67.741844
 N        33.134872     -100.729836      -68.021400
 C        32.274776     -101.058472      -66.879814
 C        32.280029     -100.089188      -65.865982
 C        31.080498      -99.922989      -65.105202
 H        30.867565      -98.987610      -64.650513
 C        30.037369     -100.859375      -65.296623
 H        29.161943     -100.737854      -64.716835
 C        30.132061     -101.902588      -66.161301
 H        29.342430     -102.637589      -66.082214
 C        31.239906     -102.077927      -66.969093
 H        31.586851     -103.060623      -67.205826
 C        32.112259     -101.697357      -70.176224
 H        31.321796     -102.269424      -69.757057
 C        32.185150     -101.730927      -71.558456
 H        31.488531     -102.391472      -72.041153
 C        33.219334     -101.017776      -72.152824
 H        33.183334     -100.873802      -73.212532
 C        34.140663     -100.331810      -71.334778
 H        34.836399      -99.578918      -71.823456
 C        36.389671      -99.474823      -69.074326
 C        36.761303      -98.209335      -69.453850
 H        36.081741      -97.364349      -69.192543
 C        38.093781      -97.867950      -69.351578
 H        38.411659      -96.861496      -69.541862
 C        39.082527      -98.725708      -68.917953
 H        40.038792      -98.395653      -68.856148
 C        38.721252     -100.004440      -68.504997
 H        39.546791     -100.713638      -68.332893
 C        37.369705     -100.394714      -68.581848
 H        37.049049     -101.285110      -68.198105
 Ir       34.173317      -99.063873      -53.375961
 C        37.632515      -98.966309      -56.063950
 C        36.561180      -99.118759      -56.944176
 N        37.199265      -98.985275      -54.734467
 C        35.762909      -98.998367      -54.704346
 N        35.379555      -99.120125      -56.102776
 C        34.018219      -99.283531      -56.391838
 C        33.172985      -99.476669      -55.246025
 C        31.782063      -99.585526      -55.381630
 H        31.180849     -100.172760      -54.715973
 C        31.187183      -99.173676      -56.628662
 H        30.106785      -98.875191      -56.696072
 C        32.003693      -98.944901      -57.727512
 H        31.584419      -98.836662      -58.730453
 C        33.347504      -99.035141      -57.644253
 H        33.948570      -98.773468      -58.471809
 C        36.775772      -99.104813      -58.384407
 H        36.017426      -99.140396      -59.049049
 C        38.102257      -98.987938      -58.847958
 H        38.346809      -98.731392      -59.866226
 C        39.140888      -98.818039      -57.962643
 H        40.164314      -99.074135      -58.249718
 C        38.933601      -98.783829      -56.601334
 H        39.643097      -98.570160      -55.937737
 C        38.063446      -99.041603      -53.624458
 C        38.135399      -97.935440      -52.690746
 H        37.426941      -97.169586      -52.795902
 C        39.165489      -97.902405      -51.764290
 H        39.222130      -97.137878      -51.015091
 C        40.209106      -98.783478      -51.841591
 H        41.062004      -98.740860      -51.143631
 C        40.217140      -99.782738      -52.745758
 H        41.092201     -100.403412      -52.912933
 C        39.121414      -99.917740      -53.626465
 H        39.247879     -100.476959      -54.551491
 C        32.814362      -94.950470      -53.086613
 C        31.904638      -95.686554      -52.360397
 N        33.586823      -95.902557      -53.838028
 C        33.275681      -97.187599      -53.493977
 N        32.103767      -97.061874      -52.691971
 C        31.501390      -98.281296      -52.243614
 C        32.367554      -99.357269      -52.262383
 C        31.720469     -100.583740      -51.880749
 H        32.239784     -101.507675      -52.075813
 C        30.383030     -100.690201      -51.523369
 H        30.061474     -101.705704      -51.266716
 C        29.557468      -99.580704      -51.515862
 H        28.425608      -99.530746      -51.336716
 C        30.211454      -98.368210      -51.923126
 H        29.632725      -97.624847      -52.355648
 C        30.982752      -95.020813      -51.508621
 H        30.333675      -95.606674      -50.860497
 C        31.082401      -93.639191      -51.341949
 H        30.264420      -93.121025      -50.927921
 C        32.054092      -92.923294      -51.993652
 H        32.194691      -91.883850      -51.765865
 C        32.881302      -93.551392      -52.914856
 H        33.649010      -92.924133      -53.296124
 C        34.201523      -95.541946      -55.094330
 C        35.559578      -95.869759      -55.205383
 H        36.237366      -96.154709      -54.391502
 C        36.104179      -95.676804      -56.494446
 H        37.069508      -96.076088      -56.742474
 C        35.364410      -95.032326      -57.544533
 H        35.788048      -94.897934      -58.565006
 C        34.054291      -94.720490      -57.326019
 H        33.545082      -94.099480      -58.032036
 C        33.442108      -94.933731      -56.047989
 H        32.392639      -94.697922      -55.799782
 C        36.380432      -98.779465      -49.597187
 C        36.651794     -100.075935      -50.108383
 N        35.430351      -98.222244      -50.422203
 C        35.146591      -99.091125      -51.546265
 N        35.905548     -100.223557      -51.293892
 C        35.851021     -101.205460      -52.345314
 C        34.761269     -101.079224      -53.199135
 C        34.381882     -102.170776      -54.016808
 H        33.363113     -102.271858      -54.243729
 C        35.212120     -103.319382      -54.017326
 H        34.874035     -104.245171      -54.450005
 C        36.358734     -103.391151      -53.240326
 H        37.022438     -104.081818      -53.543266
 C        36.691673     -102.397369      -52.366226
 H        37.663177     -102.405197      -52.030190
 C        37.505493     -100.957993      -49.319412
 H        37.795151     -101.959602      -49.623672
 C        37.818871     -100.580673      -47.989479
 H        38.270657     -101.417610      -47.423054
 C        37.467110      -99.340134      -47.508434
 H        37.778217      -99.147392      -46.523209
 C        36.765236      -98.447563      -48.340302
 H        36.498421      -97.500305      -47.840271
 C        34.671593      -96.959595      -50.117405
 C        35.322330      -95.791679      -50.313950
 H        36.293213      -95.894188      -50.679443
 C        34.800488      -94.599380      -49.817268
 H        35.277687      -93.706680      -49.949432
 C        33.553486      -94.611351      -49.163250
 H        33.105179      -93.734001      -48.646645
 C        32.830780      -95.766754      -49.020210
 H        32.006081      -95.761810      -48.382679
 C        33.446838      -96.915649      -49.394264
 H        32.983070      -97.867538      -48.972588
