206
 generated by VMD
  IR         8.920000       37.650002        7.680000
  C1         4.860000       37.169998        5.980000
  C2         4.880000       36.340000        7.070000
  N1         6.150000       37.730000        5.840000
  C3a        7.010000       37.250000        6.870000
  N2         6.190000       36.439999        7.580000
  C4         6.870000       35.680000        8.660000
  C5a        8.190000       36.080002        8.880000
  C6         8.990000       35.299999        9.720000
  H1        10.060000       35.570000        9.940000
  C7         8.500000       34.209999       10.460000
  H2         8.950000       33.869999       11.390000
  C8         7.200000       33.849998       10.180000
  H3         6.690000       33.099998       10.700000
  C9         6.420000       34.590000        9.300000
  H4         5.390000       34.490002        9.270000
  C10        3.690000       35.660000        7.410000
  H5         3.760000       34.939999        8.150000
  C11        2.500000       35.779999        6.670000
  H6         1.670000       35.220001        7.040000
  C12        2.540000       36.590000        5.500000
  H7         1.650000       37.000000        5.080000
  C13        3.750000       37.310001        5.200000
  H8         3.890000       37.939999        4.330000
  C6         6.410000       38.650002        4.760000
  C1         7.390000       38.330002        3.810000
  H1         7.860000       37.330002        3.960000
  C2         7.710000       39.209999        2.790000
  H2         8.500000       38.849998        2.120000
  C3         7.050000       40.470001        2.710000
  H3         7.290000       41.209999        2.020000
  C4         6.010000       40.720001        3.660000
  H4         5.820000       41.770000        3.730000
  C5         5.730000       39.810001        4.640000
  H5         4.900000       40.049999        5.290000
  C1         7.820000       40.509998       10.780000
  C2         9.170000       40.369999       10.900000
  N1         7.410000       39.570000        9.740000
  C3b        8.510000       38.950001        9.230000
  N2         9.570000       39.389999        9.880000
  C4        10.790000       38.869999        9.510000
  C5b       10.750000       37.799999        8.600000
  C6        11.950000       37.070000        8.320000
  H1        11.860000       36.080002        7.840000
  C7        13.160000       37.419998        8.900000
  H2        14.050000       37.000000        8.480000
  C8        13.140000       38.459999        9.880000
  H3        14.020000       38.720001       10.380000
  C9        11.990000       39.169998       10.160000
  H4        12.040000       40.200001       10.540000
  C10        9.860000       41.049999       11.960000
  H5        10.890000       40.830002       12.130000
  C11        9.180000       41.950001       12.820000
  H6         9.680000       42.270000       13.720000
  C12        7.810000       41.900002       12.810000
  H7         7.270000       42.520000       13.460000
  C13        7.110000       41.160000       11.810000
  H8         6.070000       40.930000       12.000000
  C6         6.070000       39.240002        9.480000
  C1         5.350000       40.099998        8.650000
  H1         5.850000       40.759998        7.910000
  C2         3.970000       40.090000        8.670000
  H2         3.420000       40.750000        7.990000
  C3         3.240000       39.259998        9.520000
  H3         2.180000       39.509998        9.590000
  C4         3.890000       38.380001       10.320000
  H4         3.390000       37.759998       10.980000
  C5         5.300000       38.380001       10.330000
  H5         5.820000       37.860001       11.140000
  C1        10.170000       40.520000        4.620000
  C2        10.700000       39.270000        4.130000
  N1         9.600000       40.209999        5.870000
  C3c        9.640000       38.869999        6.130000
  N2        10.370000       38.270000        5.140000
  C4        10.590000       36.869999        5.330000
  C5c        9.690000       36.240002        6.250000
  C6         9.560000       34.849998        6.260000
  H1         8.880000       34.330002        6.950000
  C7        10.490000       34.110001        5.550000
  H2        10.550000       33.070000        5.700000
  C8        11.440000       34.730000        4.790000
  H3        12.290000       34.119999        4.450000
  C9        11.570000       36.090000        4.640000
  H4        12.110000       36.509998        3.810000
  C10       11.440000       39.330002        2.960000
  H5        11.960000       38.490002        2.440000
  C11       11.690000       40.509998        2.280000
  H6        12.400000       40.490002        1.480000
  C12       11.050000       41.700001        2.690000
  H7        11.050000       42.619999        2.080000
  C13       10.290000       41.700001        3.870000
  H8        10.130000       42.590000        4.420000
  C6         9.260000       41.279999        6.800000
  C1        10.190000       41.570000        7.730000
  H1        11.130000       41.130001        7.670000
  C2        10.030000       42.669998        8.590000
  H2        10.450000       42.529999        9.560000
  C3         8.930000       43.439999        8.480000
  H3         8.750000       44.340000        9.080000
  C4         7.960000       43.139999        7.490000
  H4         7.070000       43.730000        7.350000
  C5         8.140000       42.080002        6.660000
  H5         7.490000       41.919998        5.850000
  IR        15.150000       29.379999        8.570000
  C1        12.730000       30.410000       12.050000
  C2        13.970000       30.250000       12.580000
  N1        12.840000       30.219999       10.710000
  C3a       14.070000       29.959999       10.280000
  N2        14.780000       29.850000       11.470000
  C4        15.980000       29.120001       11.400000
  C5a       16.520000       28.850000       10.130000
  C6        17.770000       28.260000        9.990000
  H1        18.129999       28.080000        8.970000
  C7        18.430000       27.860001       11.130000
  H2        19.340000       27.320000       11.050000
  C8        17.889999       28.049999       12.400000
  H3        18.360001       27.590000       13.190000
  C9        16.660000       28.629999       12.530000
  H4        16.020000       28.500000       13.400000
  C10       14.220000       30.610001       13.930000
  H5        15.290000       30.590000       14.180000
  C11       13.190000       31.040001       14.780000
  H6        13.400000       31.400000       15.810000
  C12       11.920000       31.080000       14.250000
  H7        11.270000       31.700001       14.740000
  C13       11.650000       30.760000       12.890000
  H8        10.660000       30.549999       12.550000
  C6        11.760000       30.650000        9.880000
  C1        11.700000       32.020000        9.560000
  H1        12.550000       32.639999        9.860000
  C2        10.810000       32.480000        8.600000
  H2        10.900000       33.520000        8.340000
  C3         9.900000       31.629999        7.970000
  H3         9.090000       32.049999        7.430000
  C4        10.020000       30.230000        8.200000
  H4         9.510000       29.540001        7.520000
  C5        10.920000       29.790001        9.190000
  H5        10.870000       28.780001        9.380000
  C1        17.469999       32.970001        7.680000
  C2        17.850000       32.099998        6.710000
  N1        16.610001       32.270000        8.530000
  C3b       16.430000       31.000000        8.120000
  N2        17.230000       30.879999        6.970000
  C4        17.240000       29.580000        6.390000
  C5b       16.400000       28.690001        7.040000
  C6        16.360001       27.379999        6.550000
  H1        16.030001       26.590000        7.170000
  C7        17.120001       26.959999        5.430000
  H2        17.180000       25.940001        5.000000
  C8        17.879999       27.879999        4.740000
  H3        18.520000       27.690001        3.830000
  C9        17.940001       29.200001        5.210000
  H4        18.740000       29.709999        4.810000
  C10       18.750000       32.520000        5.700000
  H5        18.900000       31.870001        4.860000
  C11       19.230000       33.799999        5.690000
  H6        20.030001       34.169998        5.040000
  C12       18.879999       34.660000        6.720000
  H7        18.940001       35.689999        6.570000
  C13       18.010000       34.240002        7.730000
  H8        17.900000       34.889999        8.530000
  C6        16.110001       32.820000        9.800000
  C1        16.860001       32.509998       10.900000
  H1        17.459999       31.650000       11.030000
  C2        16.629999       33.240002       12.070000
  H2        17.190001       32.939999       12.860000
  C3        15.640000       34.130001       12.190000
  H3        15.370000       34.500000       13.200000
  C4        14.910000       34.459999       11.010000
  H4        14.240000       35.330002       10.970000
  C5        15.170000       33.779999        9.820000
  H5        14.800000       34.090000        8.860000
  C1        12.230000       29.820000        5.340000
  C2        12.050000       28.559999        5.790000
  N1        13.340000       30.400000        6.090000
  C3c       13.730000       29.520000        7.050000
  N2        12.920000       28.430000        6.940000
  C4        13.280000       27.260000        7.710000
  C5c       14.050000       27.530001        8.780000
  C6        14.200000       26.610001        9.810000
  H1        14.650000       26.850000       10.740000
  C7        13.570000       25.360001        9.740000
  H2        13.590000       24.590000       10.560000
  C8        12.830000       25.020000        8.670000
  H3        12.350000       24.059999        8.550000
  C9        12.720000       25.959999        7.650000
  H4        12.310000       25.570000        6.650000
  C10       11.120000       27.760000        5.250000
  H5        11.030000       26.690001        5.440000
  C11       10.290000       28.150000        4.160000
  H6         9.420000       27.500000        4.000000
  C12       10.430000       29.510000        3.810000
  H7         9.680000       30.170000        3.350000
  C13       11.450000       30.350000        4.300000
  H8        11.630000       31.309999        3.940000
  C6        14.120000       31.549999        5.570000
  C1        14.950000       31.330000        4.460000
  H1        15.020000       30.400000        3.870000
  C2        15.720000       32.410000        3.960000
  H2        16.530001       32.290001        3.270000
  C3        15.730000       33.639999        4.640000
  H3        16.070000       34.490002        4.050000
  C4        14.920000       33.810001        5.800000
  H4        15.100000       34.730000        6.410000
  C5        14.120000       32.770000        6.240000
  H5        13.530000       32.910000        7.160000
