206
 generated by VMD
 Ir       49.882446      -83.668228      -13.752230
 C        47.762939      -79.858780      -14.319706
 C        49.121883      -79.533279      -14.543169
 N        47.802509      -81.181122      -13.853188
 C        49.037529      -81.789078      -13.896898
 N        49.855976      -80.726456      -14.249991
 C        51.180885      -81.067001      -14.219443
 C        51.566673      -82.428329      -14.066633
 C        52.942722      -82.763184      -14.020198
 H        53.280838      -83.781525      -13.780289
 C        53.906898      -81.772308      -14.180907
 H        54.922821      -82.103561      -14.197664
 C        53.587830      -80.463997      -14.397267
 H        54.338547      -79.648621      -14.487721
 C        52.228203      -80.120712      -14.348523
 H        51.923676      -79.111893      -14.655376
 C        49.394669      -78.295822      -15.197916
 H        50.371246      -77.891685      -15.307721
 C        48.320244      -77.477097      -15.671294
 H        48.474075      -76.549660      -16.102577
 C        47.031494      -77.817818      -15.385050
 H        46.333847      -76.999084      -15.233177
 C        46.736374      -78.997650      -14.716846
 H        45.766926      -79.288193      -14.576312
 C        46.676590      -81.767776      -13.209727
 C        46.700344      -81.945595      -11.799651
 H        47.333366      -81.379562      -11.106984
 C        45.725212      -82.737213      -11.247056
 H        45.631268      -82.770203      -10.221393
 C        44.784409      -83.365692      -12.034465
 H        44.190216      -84.238678      -11.734776
 C        44.720596      -83.143845      -13.432073
 H        43.865379      -83.437767      -13.979171
 C        45.674240      -82.323410      -13.995069
 H        45.694237      -82.097183      -15.034550
 C        49.608570      -85.141685      -17.825335
 C        50.350758      -86.136688      -17.163425
 N        49.453033      -83.993874      -16.949364
 C        50.001575      -84.341690      -15.738772
 N        50.567589      -85.637070      -15.881375
 C        50.889252      -86.260941      -14.697520
 C        51.169765      -85.351822      -13.710702
 C        52.027847      -85.733688      -12.628265
 H        52.300640      -84.930061      -11.975383
 C        52.464108      -87.062157      -12.517548
 H        53.017220      -87.382034      -11.671651
 C        52.085167      -87.967995      -13.503431
 H        52.331978      -88.985245      -13.360277
 C        51.305153      -87.573639      -14.539510
 H        50.829498      -88.361710      -15.105178
 C        50.531933      -87.342346      -17.704592
 H        51.084755      -88.084854      -17.115374
 C        49.928520      -87.735077      -18.882114
 H        50.125374      -88.710793      -19.222574
 C        49.171135      -86.840088      -19.616592
 H        48.567917      -87.022705      -20.549053
 C        49.009377      -85.542847      -19.063778
 H        48.290207      -84.847565      -19.459351
 C        49.153831      -82.636154      -17.492931
 C        47.920052      -82.179260      -17.216459
 H        47.146820      -82.819588      -16.902287
 C        47.630051      -80.867989      -17.590445
 H        46.739048      -80.355453      -17.146925
 C        48.559486      -80.046471      -18.138855
 H        48.300667      -78.971603      -18.251421
 C        49.827797      -80.484619      -18.482832
 H        50.644463      -79.867966      -18.846531
 C        50.092545      -81.860306      -18.187035
 H        50.747826      -82.334518      -18.873795
 C        46.870972      -86.603500      -12.661371
 C        47.219353      -86.130814      -11.446918
 N        47.518044      -85.837967      -13.646739
 C        48.333359      -84.899689      -13.145650
 N        48.142330      -85.063042      -11.722899
 C        49.109306      -84.322060      -10.927915
 C        49.727951      -83.295578      -11.650974
 C        50.322227      -82.273506      -10.864903
 H        50.826138      -81.429871      -11.367044
 C        50.325134      -82.274399       -9.488970
 H        50.860840      -81.503189       -8.959491
 C        49.702637      -83.315552       -8.798615
 H        49.841496      -83.469269       -7.761458
 C        49.137749      -84.378380       -9.450613
 H        49.230980      -85.334946       -9.004753
 C        46.846661      -86.710236      -10.253276
 H        47.263424      -86.288712       -9.360238
 C        46.061317      -87.872650      -10.235364
 H        45.595619      -88.333870       -9.300911
 C        45.675209      -88.346436      -11.567186
 H        45.004711      -89.172981      -11.548425
 C        46.142109      -87.742043      -12.770892
 H        45.749367      -88.143196      -13.666731
 C        47.393150      -86.131088      -15.065921
 C        46.623657      -85.235558      -15.793104
 H        46.404194      -84.257645      -15.380646
 C        46.047546      -85.644600      -17.033781
 H        45.244400      -85.051201      -17.355400
 C        46.242050      -86.942383      -17.559626
 H        45.777893      -87.101120      -18.482485
 C        47.072624      -87.769455      -16.845901
 H        47.253250      -88.814743      -17.153229
 C        47.678761      -87.368851      -15.623318
 H        48.253914      -88.033356      -14.989181
 Ir       49.882446      -83.668228        1.822659
 C        47.300217      -82.723175       -1.559938
 C        48.586517      -82.761597       -2.054863
 N        47.386173      -82.825729       -0.175671
 C        48.739632      -82.926819        0.199612
 N        49.494793      -82.855133       -0.979324
 C        50.938965      -82.793762       -0.822161
 C        51.377724      -83.514694        0.302805
 C        52.727135      -83.840561        0.400320
 H        53.072220      -84.551743        1.149743
 C        53.673439      -83.459641       -0.566891
 H        54.715908      -83.701492       -0.669698
 C        53.213570      -82.637039       -1.597408
 H        53.954788      -82.449257       -2.300926
 C        51.821842      -82.260895       -1.727799
 H        51.531738      -81.916359       -2.673808
 C        48.837975      -82.677872       -3.467328
 H        49.819519      -82.755074       -3.930381
 C        47.698887      -82.545113       -4.380426
 H        47.825569      -82.337402       -5.460844
 C        46.426754      -82.492020       -3.835664
 H        45.511200      -82.338341       -4.393103
 C        46.187210      -82.554810       -2.418704
 H        45.179485      -82.414841       -2.044949
 C        46.247673      -82.417160        0.673850
 C        46.059807      -81.076202        0.892138
 H        46.935261      -80.484741        1.135156
 C        44.838882      -80.589966        1.242586
 H        44.609741      -79.579727        1.485746
 C        43.720070      -81.390556        1.461451
 H        42.962704      -81.104660        2.116325
 C        43.893951      -82.767654        1.181540
 H        42.981174      -83.366684        1.206194
 C        45.147156      -83.268585        0.858340
 H        45.230782      -84.347504        0.831295
 C        50.105255      -87.983688        1.186353
 C        50.512856      -87.829788        2.481877
 N        49.925682      -86.673843        0.570698
 C        50.167061      -85.672592        1.499370
 N        50.603851      -86.371506        2.660547
 C        51.225914      -85.586380        3.675054
 C        51.314903      -84.238510        3.282844
 C        52.156887      -83.388535        4.013045
 H        52.348911      -82.426041        3.628798
 C        52.871979      -83.885864        5.099923
 H        53.804390      -83.315880        5.425370
 C        52.780731      -85.227493        5.446790
 H        53.413132      -85.586807        6.221562
 C        52.003487      -86.108475        4.689250
 H        52.246178      -87.195831        4.858239
 C        50.355873      -88.918045        3.358723
 H        50.734360      -88.783737        4.333201
 C        49.791569      -90.124588        2.951556
 H        49.665241      -91.013687        3.576421
 C        49.583824      -90.357361        1.582300
 H        49.701103      -91.289597        1.161367
 C        49.630932      -89.272621        0.701612
 H        49.608624      -89.462448       -0.335725
 C        49.297661      -86.516525       -0.743778
 C        47.886612      -86.194702       -0.792470
 H        47.408508      -86.089020        0.161127
 C        47.301384      -85.937927       -2.015980
 H        46.275043      -85.643929       -2.109695
 C        48.070068      -86.135300       -3.179711
 H        47.498001      -86.183929       -4.084245
 C        49.432419      -86.490524       -3.113348
 H        49.933975      -86.647041       -4.092757
 C        50.102188      -86.594048       -1.870733
 H        51.148422      -86.646721       -1.707278
 C        46.566177      -83.427887        4.801789
 C        47.002075      -82.109695        4.562469
 N        47.473686      -84.222290        4.091468
 C        48.443462      -83.524994        3.413670
 N        48.173313      -82.207916        3.716567
 C        49.234135      -81.335571        3.450922
 C        49.999725      -81.673164        2.347428
 C        50.993076      -80.757874        1.994014
 H        51.352848      -80.810547        1.018315
 C        51.297489      -79.650681        2.662872
 H        51.912407      -78.952194        2.163888
 C        50.613724      -79.343002        3.822135
 H        51.036743      -78.544296        4.477895
 C        49.557976      -80.156631        4.201478
 H        48.820789      -79.904709        4.960944
 C        46.058601      -81.121834        4.979227
 H        46.409042      -80.064484        5.001559
 C        44.829643      -81.438904        5.486300
 H        44.148891      -80.597595        5.733071
 C        44.458771      -82.752487        5.709790
 H        43.441742      -83.049820        5.785590
 C        45.368660      -83.750648        5.430018
 H        45.296837      -84.709625        5.835235
 C        47.466103      -85.669724        3.885879
 C        46.938976      -86.185028        2.720760
 H        46.401447      -85.536842        2.040601
 C        46.717468      -87.531036        2.632415
 H        46.143070      -87.961227        1.752637
 C        46.993797      -88.419357        3.610076
 H        46.592693      -89.468277        3.571579
 C        47.418461      -87.913803        4.825265
 H        47.357082      -88.488174        5.726228
 C        47.560036      -86.521027        4.996810
 H        47.344284      -86.112106        5.979121
