206
 generated by VMD
  IR        20.059999       33.799999       35.009998
  C1        24.190001       34.509998       33.790001
  C2        23.549999       35.740002       33.480000
  N1        23.219999       33.580002       34.119999
  C3a       21.870001       34.029999       34.049999
  N2        22.100000       35.430000       33.610001
  C4        20.930000       36.209999       33.439999
  C5a       19.750000       35.490002       33.730000
  C6        18.549999       35.990002       33.270000
  H1        17.639999       35.389999       33.330002
  C7        18.480000       37.180000       32.580002
  H2        17.600000       37.410000       32.029999
  C8        19.709999       37.900002       32.410000
  H3        19.660000       38.849998       31.790001
  C9        20.920000       37.400002       32.779999
  H4        21.799999       37.910000       32.430000
  C10       24.309999       36.889999       33.310001
  H5        23.900000       37.840000       32.970001
  C11       25.660000       36.799999       33.700001
  H6        26.150000       37.730000       34.009998
  C12       26.299999       35.639999       34.009998
  H7        27.320000       35.669998       34.360001
  C13       25.510000       34.470001       34.000000
  H8        25.980000       33.570000       34.310001
  C6        23.510000       32.139999       34.119999
  C1        23.450001       31.309999       33.000000
  H1        22.959999       31.719999       32.130001
  C2        23.840000       29.980000       33.090000
  H2        23.590000       29.410000       32.209999
  C3        24.270000       29.389999       34.270000
  H3        24.370001       28.280001       34.320000
  C4        24.250000       30.160000       35.470001
  H4        24.430000       29.670000       36.419998
  C5        23.889999       31.510000       35.360001
  H5        23.940001       32.330002       36.099998
  C1        20.400000       36.060001       38.669998
  C2        19.080000       35.630001       38.630001
  N1        21.010000       35.849998       37.389999
  C3b       20.049999       35.169998       36.590000
  N2        18.870001       35.119999       37.330002
  C4        17.709999       34.480000       36.799999
  C5b       18.030001       33.689999       35.660000
  C6        17.040001       32.779999       35.150002
  H1        17.280001       32.250000       34.250000
  C7        15.840000       32.700001       35.810001
  H2        15.110000       32.029999       35.430000
  C8        15.580000       33.480000       36.900002
  H3        14.730000       33.330002       37.520000
  C9        16.490000       34.430000       37.330002
  H4        16.100000       35.150002       37.990002
  C10       18.230000       35.810001       39.720001
  H5        17.120001       35.590000       39.650002
  C11       18.670000       36.540001       40.840000
  H6        18.190001       36.400002       41.779999
  C12       20.030001       37.070000       40.889999
  H7        20.330000       37.730000       41.680000
  C13       20.920000       36.759998       39.779999
  H8        21.990000       37.090000       39.779999
  C6        21.920000       36.799999       36.810001
  C1        21.420000       38.070000       36.450001
  H1        20.360001       38.200001       36.650002
  C2        22.320000       39.070000       35.980000
  H2        22.010000       40.099998       35.930000
  C3        23.719999       38.889999       35.930000
  H3        24.410000       39.680000       35.770000
  C4        24.180000       37.669998       36.400002
  H4        25.160000       37.389999       36.419998
  C5        23.309999       36.650002       36.830002
  H5        23.920000       35.880001       37.410000
  C1        21.250000       30.049999       37.110001
  C2        20.860001       29.680000       35.840000
  N1        21.080000       31.420000       37.150002
  C3c       20.559999       32.000000       35.970001
  N2        20.440001       30.889999       35.169998
  C4        19.740000       31.090000       33.880001
  C5c       19.719999       32.419998       33.459999
  C6        19.440001       32.720001       32.160000
  H1        19.459999       33.799999       31.830000
  C7        19.170000       31.740000       31.240000
  H2        19.230000       32.020000       30.200001
  C8        19.100000       30.420000       31.629999
  H3        18.670000       29.690001       30.930000
  C9        19.379999       30.080000       32.959999
  H4        19.450001       29.070000       33.169998
  C10       21.000000       28.280001       35.490002
  H5        20.410000       27.809999       34.730000
  C11       21.410000       27.350000       36.410000
  H6        21.350000       26.370001       36.070000
  C12       21.740000       27.770000       37.740002
  H7        21.889999       27.100000       38.610001
  C13       21.760000       29.139999       38.029999
  H8        21.900000       29.540001       39.009998
  C6        21.309999       32.090000       38.360001
  C1        20.420000       31.920000       39.450001
  H1        19.719999       31.110001       39.430000
  C2        20.510000       32.619999       40.669998
  H2        19.830000       32.599998       41.480000
  C3        21.600000       33.480000       40.830002
  H3        21.660000       34.009998       41.759998
  C4        22.459999       33.610001       39.740002
  H4        23.340000       34.180000       39.919998
  C5        22.379999       32.980000       38.450001
  H5        22.930000       33.209999       37.570000
  IR        27.690001       41.180000       41.040001
  C1        28.590000       39.250000       44.810001
  C2        29.490000       38.650002       43.880001
  N1        27.809999       40.139999       44.150002
  C3a       28.280001       40.290001       42.820000
  N2        29.299999       39.340000       42.680000
  C4        29.980000       39.279999       41.410000
  C5a       29.459999       40.200001       40.439999
  C6        30.100000       40.279999       39.160000
  H1        29.870001       40.959999       38.410000
  C7        31.190001       39.400002       38.830002
  H2        31.520000       39.290001       37.860001
  C8        31.549999       38.459999       39.799999
  H3        32.189999       37.689999       39.540001
  C9        31.000000       38.400002       41.080002
  H4        31.549999       37.849998       41.779999
  C10       30.209999       37.599998       44.299999
  H5        30.900000       37.130001       43.599998
  C11       30.200001       37.160000       45.630001
  H6        30.990000       36.480000       45.980000
  C12       29.340000       37.759998       46.570000
  H7        29.410000       37.470001       47.610001
  C13       28.520000       38.840000       46.169998
  H8        28.059999       39.459999       46.950001
  C6        26.459999       40.410000       44.619999
  C1        25.450001       39.470001       44.459999
  H1        25.690001       38.540001       44.049999
  C2        24.240000       39.630001       45.090000
  H2        23.660000       38.779999       45.110001
  C3        24.010000       40.790001       45.860001
  H3        23.150000       40.790001       46.520000
  C4        24.940001       41.840000       46.049999
  H4        24.889999       42.520000       46.910000
  C5        26.160000       41.619999       45.349998
  H5        26.910000       42.369999       45.130001
  C1        30.090000       44.900002       41.209999
  C2        29.139999       45.060001       40.240002
  N1        29.940001       43.509998       41.610001
  C3b       28.840000       42.900002       40.990002
  N2        28.430000       43.790001       40.029999
  C4        27.660000       43.209999       38.910000
  C5b       27.459999       41.799999       39.049999
  C6        27.110001       41.040001       37.930000
  H1        26.889999       39.990002       38.000000
  C7        26.930000       41.599998       36.680000
  H2        26.969999       40.980000       35.750000
  C8        26.980000       43.000000       36.520000
  H3        26.780001       43.500000       35.599998
  C9        27.400000       43.779999       37.639999
  H4        27.000000       44.759998       37.619999
  C10       29.100000       46.220001       39.459999
  H5        28.469999       46.369999       38.570000
  C11       29.930000       47.330002       39.799999
  H6        29.840000       48.230000       39.160000
  C12       30.920000       47.230000       40.849998
  H7        31.360001       48.099998       41.240002
  C13       31.000000       45.970001       41.480000
  H8        31.889999       45.759998       42.070000
  C6        30.950001       42.790001       42.270000
  C1        30.850000       42.639999       43.700001
  H1        29.980000       42.980000       44.189999
  C2        31.760000       41.820000       44.320000
  H2        31.490000       41.509998       45.330002
  C3        32.790001       41.150002       43.560001
  H3        33.240002       40.270000       44.060001
  C4        32.939999       41.380001       42.169998
  H4        33.669998       40.910000       41.470001
  C5        32.000000       42.200001       41.570000
  H5        32.040001       42.310001       40.470001
  C1        23.760000       42.799999       42.080002
  C2        23.680000       41.410000       42.160000
  N1        25.040001       43.090000       41.630001
  C3c       25.750000       41.930000       41.349998
  N2        24.940001       40.910000       41.610001
  C4        25.309999       39.590000       41.070000
  C5c       26.639999       39.380001       40.689999
  C6        27.059999       38.110001       40.160000
  H1        28.090000       37.970001       39.779999
  C7        26.209999       36.990002       40.060001
  H2        26.590000       36.029999       39.730000
  C8        24.879999       37.189999       40.470001
  H3        24.170000       36.430000       40.380001
  C9        24.450001       38.470001       40.900002
  H4        23.410000       38.689999       41.099998
  C10       22.500000       40.830002       42.680000
  H5        22.639999       39.810001       42.980000
  C11       21.360001       41.630001       42.950001
  H6        20.500000       41.250000       43.439999
  C12       21.459999       43.040001       42.750000
  H7        20.559999       43.570000       42.840000
  C13       22.650000       43.660000       42.290001
  H8        22.830000       44.740002       42.130001
  C6        25.559999       44.389999       41.860001
  C1        26.150000       44.570000       43.110001
  H1        25.850000       44.049999       44.049999
  C2        26.930000       45.700001       43.410000
  H2        27.240000       45.980000       44.459999
  C3        27.040001       46.700001       42.450001
  H3        27.620001       47.540001       42.730000
  C4        26.530001       46.490002       41.180000
  H4        26.549999       47.180000       40.330002
  C5        25.750000       45.389999       40.910000
  H5        24.980000       45.590000       40.220001
