206
 generated by VMD
  IR        57.820000       12.360000        8.860000
  C1        54.029999       10.190000        8.530000
  C2        54.779999        9.510000        9.450000
  N1        54.830002       11.350000        8.180000
  C3a       56.070000       11.340000        8.900000
  N2        55.990002       10.210000        9.650000
  C4        57.259998        9.780000       10.250000
  C5a       58.250000       10.650000        9.990000
  C6        59.500000       10.370000       10.530000
  H1        60.369999       10.860000       10.080000
  C7        59.790001        9.390000       11.490000
  H2        60.549999        9.580000       12.200000
  C8        58.730000        8.530000       11.810000
  H3        58.810001        7.870000       12.640000
  C9        57.509998        8.630000       11.090000
  H4        56.860001        7.790000       11.140000
  C10       54.119999        8.430000       10.050000
  H5        54.480000        8.200000       11.100000
  C11       52.840000        7.980000        9.670000
  H6        52.259998        7.230000       10.160000
  C12       52.189999        8.610000        8.610000
  H7        51.360001        8.100000        8.150000
  C13       52.799999        9.740000        8.130000
  H8        52.549999       10.050000        7.150000
  C6        54.410000       12.070000        6.940000
  C1        54.480000       11.500000        5.680000
  H1        54.639999       10.460000        5.650000
  C2        54.250000       12.310000        4.520000
  H2        54.180000       11.850000        3.570000
  C3        53.959999       13.670000        4.650000
  H3        53.619999       14.280000        3.800000
  C4        53.919998       14.210000        5.930000
  H4        53.680000       15.240000        6.120000
  C5        54.080002       13.400000        7.040000
  H5        53.740002       13.810000        8.010000
  C1        57.430000       14.390000       12.780000
  C2        58.759998       14.510000       12.480000
  N1        56.730000       13.690000       11.680000
  C3b       57.669998       13.360000       10.690000
  N2        58.930000       13.850000       11.150000
  C4        60.020000       13.880000       10.240000
  C5b       59.810001       13.140000        9.000000
  C6        60.740002       13.220000        7.950000
  H1        60.240002       13.250000        6.980000
  C7        61.889999       13.970000        8.180000
  H2        62.619999       13.920000        7.480000
  C8        62.189999       14.680000        9.340000
  H3        62.959999       15.440000        9.280000
  C9        61.259998       14.560000       10.420000
  H4        61.450001       15.090000       11.350000
  C10       59.660000       15.020000       13.440000
  H5        60.700001       14.790000       13.470000
  C11       59.200001       15.400000       14.690000
  H6        59.930000       15.740000       15.400000
  C12       57.810001       15.430000       14.940000
  H7        57.410000       16.100000       15.670000
  C13       56.959999       14.900000       14.010000
  H8        55.900002       14.730000       14.190000
  C6        55.630001       12.830000       11.960000
  C1        55.810001       11.740000       12.850000
  H1        56.740002       11.590000       13.300000
  C2        54.779999       10.780000       12.970000
  H2        55.090000        9.840000       13.380000
  C3        53.580002       11.000000       12.230000
  H3        52.860001       10.280000       11.860000
  C4        53.400002       12.180000       11.530000
  H4        52.430000       12.420000       11.080000
  C5        54.430000       13.060000       11.340000
  H5        54.419998       13.670000       10.480000
  C1        57.490002       15.680000        6.020000
  C2        57.560001       14.550000        5.250000
  N1        57.430000       15.200000        7.360000
  C3c       57.410000       13.820000        7.450000
  N2        57.549999       13.430000        6.120000
  C4        57.720001       12.030000        5.890000
  C5c       58.189999       11.320000        7.040000
  C6        58.650002        9.970000        6.870000
  H1        59.080002        9.510000        7.660000
  C7        58.740002        9.340000        5.590000
  H2        59.119999        8.310000        5.550000
  C8        58.230000       10.090000        4.470000
  H3        58.299999        9.570000        3.540000
  C9        57.730000       11.380000        4.600000
  H4        57.110001       11.760000        3.850000
  C10       57.240002       14.640000        3.940000
  H5        57.470001       13.910000        3.110000
  C11       56.700001       15.920000        3.520000
  H6        56.259998       15.860000        2.560000
  C12       56.639999       17.100000        4.250000
  H7        56.580002       18.010000        3.700000
  C13       57.060001       16.950001        5.550000
  H8        57.349998       17.790001        6.160000
  C6        57.049999       16.020000        8.400000
  C1        57.970001       16.809999        9.060000
  H1        58.939999       16.780001        8.510000
  C2        57.720001       17.430000       10.280000
  H2        58.520000       17.840000       10.970000
  C3        56.389999       17.360001       10.800000
  H3        56.090000       18.049999       11.640000
  C4        55.450001       16.600000       10.050000
  H4        54.430000       16.690001       10.300000
  C5        55.770000       15.960000        8.910000
  H5        54.980000       15.720000        8.250000
  IR        54.799999        2.720000       17.660000
  C1        57.549999        5.450000       19.770000
  C2        56.549999        5.120000       20.719999
  N1        57.040001        4.860000       18.490000
  C3a       55.900002        4.170000       18.700001
  N2        55.500000        4.370000       20.020000
  C4        54.480000        3.550000       20.490000
  C5a       54.139999        2.510000       19.680000
  C6        53.189999        1.640000       20.150000
  H1        53.090000        0.790000       19.549999
  C7        52.439999        1.840000       21.360001
  H2        51.680000        1.120000       21.580000
  C8        52.660000        3.030000       22.059999
  H3        51.939999        3.440000       22.750000
  C9        53.689999        3.900000       21.639999
  H4        53.680000        4.900000       22.070000
  C10       56.750000        5.580000       22.120001
  H5        56.009998        5.310000       22.879999
  C11       57.830002        6.360000       22.370001
  H6        58.040001        6.600000       23.400000
  C12       58.849998        6.610000       21.379999
  H7        59.700001        7.240000       21.709999
  C13       58.669998        6.180000       20.120001
  H8        59.430000        6.470000       19.370001
  C6        57.580002        5.190000       17.230000
  C1        58.730000        4.570000       16.740000
  H1        59.369999        4.160000       17.490000
  C2        59.090000        4.870000       15.430000
  H2        60.029999        4.460000       15.030000
  C3        58.360001        5.830000       14.660000
  H3        58.529999        5.810000       13.600000
  C4        57.250000        6.420000       15.180000
  H4        56.590000        7.050000       14.600000
  C5        56.830002        6.070000       16.450001
  H5        55.840000        6.320000       16.750000
  C1        57.410000       -0.720000       18.260000
  C2        56.290001       -1.190000       17.650000
  N1        57.139999        0.660000       18.580000
  C3b       55.919998        1.030000       18.070000
  N2        55.419998       -0.120000       17.530001
  C4        54.139999       -0.050000       16.799999
  C5b       53.520000        1.190000       16.950001
  C6        52.209999        1.410000       16.740000
  H1        51.770000        2.370000       16.770000
  C7        51.389999        0.390000       16.320000
  H2        50.369999        0.550000       16.340000
  C8        51.980000       -0.840000       16.049999
  H3        51.400002       -1.440000       15.290000
  C9        53.320000       -1.090000       16.280001
  H4        53.700001       -2.060000       16.020000
  C10       56.240002       -2.530000       17.370001
  H5        55.259998       -2.980000       17.309999
  C11       57.419998       -3.310000       17.469999
  H6        57.360001       -4.200000       16.959999
  C12       58.549999       -2.840000       18.090000
  H7        59.259998       -3.540000       18.389999
  C13       58.570000       -1.520000       18.469999
  H8        59.450001       -0.980000       18.870001
  C6        58.009998        1.400000       19.540001
  C1        57.570000        1.760000       20.770000
  H1        56.669998        1.370000       21.160000
  C2        58.410000        2.560000       21.600000
  H2        58.130001        2.830000       22.650000
  C3        59.700001        3.020000       21.270000
  H3        60.389999        3.530000       22.010000
  C4        60.169998        2.680000       19.969999
  H4        60.980000        3.270000       19.690001
  C5        59.360001        1.850000       19.160000
  H5        59.750000        1.600000       18.230000
  C1        55.950001        3.320000       13.520000
  C2        55.009998        4.310000       13.690000
  N1        56.200001        2.640000       14.670000
  C3c       55.330002        3.110000       15.720000
  N2        54.650002        4.220000       15.100000
  C4        53.790001        4.930000       15.970000
  C5c       53.439999        4.320000       17.190001
  C6        52.389999        4.860000       17.990000
  H1        52.029999        4.250000       18.900000
  C7        51.709999        6.010000       17.520000
  H2        51.020000        6.660000       18.120001
  C8        52.110001        6.650000       16.320000
  H3        51.619999        7.460000       15.810000
  C9        53.119999        6.130000       15.540000
  H4        53.500000        6.740000       14.740000
  C10       54.720001        5.200000       12.560000
  H5        53.770000        5.720000       12.580000
  C11       55.500000        5.120000       11.400000
  H6        55.520000        5.960000       10.800000
  C12       56.450001        4.100000       11.290000
  H7        57.060001        4.070000       10.470000
  C13       56.619999        3.200000       12.350000
  H8        57.340000        2.420000       12.130000
  C6        56.660000        1.270000       14.560000
  C1        55.740002        0.280000       14.120000
  H1        54.669998        0.470000       14.180000
  C2        56.200001       -1.010000       14.000000
  H2        55.439999       -1.740000       13.970000
  C3        57.500000       -1.300000       14.370000
  H3        57.880001       -2.320000       14.200000
  C4        58.430000       -0.410000       14.820000
  H4        59.439999       -0.680000       15.160000
  C5        57.970001        0.920000       14.930000
  H5        58.650002        1.660000       15.270000
