206
 generated by VMD
  IR        13.540000       53.860001       20.670000
  C1        13.240000       57.880001       22.520000
  C2        13.200000       57.020000       23.559999
  N1        13.300000       57.130001       21.309999
  C3a       13.290000       55.730000       21.650000
  N2        13.170000       55.740002       23.000000
  C4        13.160000       54.430000       23.660000
  C5a       13.450000       53.369999       22.730000
  C6        13.690000       52.080002       23.280001
  H1        14.030000       51.290001       22.629999
  C7        13.460000       51.880001       24.650000
  H2        13.660000       50.849998       25.040001
  C8        13.050000       52.880001       25.559999
  H3        12.630000       52.779999       26.570000
  C9        12.970000       54.189999       25.030001
  H4        12.450000       54.990002       25.540001
  C10       13.240000       57.500000       24.879999
  H5        13.500000       56.849998       25.629999
  C11       13.260000       58.820000       25.170000
  H6        13.150000       59.169998       26.170000
  C12       13.290000       59.740002       24.080000
  H7        13.510000       60.759998       24.320000
  C13       13.270000       59.320000       22.760000
  H8        13.090000       60.040001       21.959999
  C6        12.830000       57.590000       20.120001
  C1        11.460000       57.680000       19.969999
  H1        10.890000       57.389999       20.850000
  C2        10.870000       58.650002       19.100000
  H2         9.820000       58.689999       19.000000
  C3        11.690000       59.490002       18.410000
  H3        11.280000       60.090000       17.629999
  C4        13.080000       59.369999       18.559999
  H4        13.690000       59.730000       17.770000
  C5        13.650000       58.410000       19.379999
  H5        14.730000       58.169998       19.320000
  C1        17.920000       53.330002       21.100000
  C2        17.480000       52.169998       20.469999
  N1        16.770000       54.099998       21.270000
  C3b       15.580000       53.509998       20.840000
  N2        16.040001       52.299999       20.350000
  C4        15.100000       51.419998       19.940001
  C5b       13.760000       51.869999       20.030001
  C6        12.700000       50.959999       19.770000
  H1        11.800000       51.509998       19.469999
  C7        12.910000       49.619999       19.570000
  H2        12.160000       48.830002       19.780001
  C8        14.260000       49.180000       19.520000
  H3        14.450000       48.119999       19.469999
  C9        15.320000       50.049999       19.740000
  H4        16.330000       49.570000       19.910000
  C10       18.480000       51.250000       20.020000
  H5        18.190001       50.400002       19.379999
  C11       19.850000       51.509998       20.170000
  H6        20.530001       50.709999       19.990000
  C12       20.240000       52.759998       20.709999
  H7        21.309999       53.009998       20.620001
  C13       19.290001       53.639999       21.180000
  H8        19.580000       54.439999       21.809999
  C6        16.760000       55.230000       22.160000
  C1        16.469999       55.080002       23.520000
  H1        16.370001       54.049999       23.910000
  C2        16.570000       56.110001       24.389999
  H2        16.709999       56.040001       25.459999
  C3        16.900000       57.340000       23.870001
  H3        16.889999       58.209999       24.690001
  C4        17.230000       57.490002       22.530001
  H4        17.959999       58.209999       22.209999
  C5        17.100000       56.470001       21.629999
  H5        17.350000       56.540001       20.559999
  C1        13.410000       55.430000       16.549999
  C2        12.080000       55.209999       16.889999
  N1        14.180000       54.810001       17.610001
  C3c       13.320000       54.439999       18.660000
  N2        12.030000       54.529999       18.209999
  C4        10.990000       54.020000       19.090000
  C5c       11.450000       53.959999       20.400000
  C6        10.480000       53.889999       21.420000
  H1        10.880000       53.750000       22.379999
  C7         9.070000       53.869999       21.139999
  H2         8.420000       54.270000       21.900000
  C8         8.630000       53.759998       19.770000
  H3         7.660000       53.459999       19.559999
  C9         9.580000       53.919998       18.740000
  H4         9.310000       53.750000       17.719999
  C10       11.060000       55.810001       16.100000
  H5         9.990000       55.750000       16.350000
  C11       11.430000       56.650002       15.060000
  H6        10.670000       57.150002       14.420000
  C12       12.760000       56.880001       14.720000
  H7        12.950000       57.250000       13.690000
  C13       13.730000       56.220001       15.470000
  H8        14.760000       56.169998       15.140000
  C6        15.480000       54.220001       17.420000
  C1        15.620000       52.980000       16.840000
  H1        14.720000       52.549999       16.480000
  C2        16.879999       52.500000       16.629999
  H2        16.920000       51.500000       16.139999
  C3        18.030001       53.230000       16.860001
  H3        18.980000       52.759998       16.690001
  C4        17.910000       54.619999       17.209999
  H4        18.680000       55.340000       17.010000
  C5        16.629999       55.029999       17.610001
  H5        16.469999       56.040001       17.980000
  IR        26.070000       52.970001       20.549999
  C1        29.059999       56.049999       20.049999
  C2        29.760000       54.970001       20.660000
  N1        27.709999       55.759998       20.070000
  C3a       27.500000       54.529999       20.590000
  N2        28.760000       54.049999       20.920000
  C4        28.799999       52.840000       21.680000
  C5a       27.620001       52.160000       21.730000
  C6        27.600000       50.990002       22.490000
  H1        26.639999       50.500000       22.830000
  C7        28.629999       50.549999       23.299999
  H2        28.510000       49.639999       23.860001
  C8        29.850000       51.209999       23.320000
  H3        30.660000       50.770000       23.799999
  C9        29.940001       52.389999       22.469999
  H4        30.879999       52.990002       22.450001
  C10       31.120001       55.080002       20.780001
  H5        31.740000       54.330002       21.280001
  C11       31.709999       56.290001       20.400000
  H6        32.779999       56.330002       20.350000
  C12       31.020000       57.279999       19.790001
  H7        31.629999       58.099998       19.379999
  C13       29.670000       57.240002       19.580000
  H8        29.230000       58.000000       18.980000
  C6        26.740000       56.709999       19.790001
  C1        26.170000       56.750000       18.500000
  H1        26.500000       55.990002       17.860001
  C2        25.150000       57.660000       18.200001
  H2        24.799999       57.930000       17.170000
  C3        24.629999       58.439999       19.280001
  H3        23.879999       59.160000       19.070000
  C4        25.190001       58.439999       20.570000
  H4        24.799999       59.070000       21.400000
  C5        26.240000       57.560001       20.820000
  H5        26.910000       57.689999       21.650000
  C1        27.030001       51.009998       16.840000
  C2        26.209999       50.049999       17.540001
  N1        27.430000       52.020000       17.750000
  C3b       26.850000       51.790001       19.030001
  N2        26.059999       50.590000       18.840000
  C4        25.290001       50.180000       19.959999
  C5b       24.860001       51.240002       20.799999
  C6        23.750000       51.090000       21.620001
  H1        23.549999       51.770000       22.379999
  C7        22.940001       49.919998       21.530001
  H2        22.090000       49.830002       22.100000
  C8        23.330000       48.869999       20.700001
  H3        22.730000       48.040001       20.520000
  C9        24.600000       48.980000       20.020000
  H4        25.209999       48.150002       19.830000
  C10       25.580000       49.020000       16.790001
  H5        24.780001       48.430000       17.270000
  C11       25.860001       48.889999       15.420000
  H6        25.360001       48.230000       14.780000
  C12       26.700001       49.799999       14.740000
  H7        26.830000       49.680000       13.640000
  C13       27.240000       50.849998       15.410000
  H8        27.610001       51.630001       14.820000
  C6        28.660000       52.689999       17.559999
  C1        29.730000       52.230000       18.260000
  H1        29.600000       51.240002       18.760000
  C2        30.990000       52.590000       17.799999
  H2        31.809999       52.430000       18.510000
  C3        31.190001       53.549999       16.799999
  H3        32.209999       53.880001       16.490000
  C4        30.049999       54.180000       16.219999
  H4        30.219999       55.040001       15.630000
  C5        28.780001       53.709999       16.600000
  H5        27.910000       53.830002       16.049999
  C1        22.709999       55.320000       18.850000
  C2        22.700001       55.520000       20.170000
  N1        23.690001       54.380001       18.580000
  C3c       24.360001       53.939999       19.770000
  N2        23.650000       54.619999       20.799999
  C4        24.049999       54.290001       22.150000
  C5c       25.379999       53.950001       22.250000
  C6        26.080000       54.029999       23.490000
  H1        27.059999       53.900002       23.750000
  C7        25.350000       54.389999       24.590000
  H2        25.770000       54.560001       25.540001
  C8        23.950001       54.599998       24.480000
  H3        23.410000       54.779999       25.410000
  C9        23.250000       54.549999       23.280001
  H4        22.160000       54.509998       23.059999
  C10       21.680000       56.400002       20.730000
  H5        21.700001       56.490002       21.799999
  C11       20.750000       57.000000       19.910000
  H6        20.000000       57.599998       20.420000
  C12       20.770000       56.779999       18.549999
  H7        20.030001       57.360001       17.930000
  C13       21.750000       55.930000       18.030001
  H8        21.650000       55.669998       16.990000
  C6        23.639999       53.560001       17.410000
  C1        22.809999       52.410000       17.450001
  H1        21.950001       52.369999       18.100000
  C2        22.940001       51.549999       16.360001
  H2        22.360001       50.639999       16.330000
  C3        23.870001       51.830002       15.330000
  H3        24.070000       51.060001       14.610000
  C4        24.629999       53.020000       15.290000
  H4        25.330000       53.340000       14.540000
  C5        24.520000       53.849998       16.389999
  H5        25.260000       54.560001       16.510000
