206
 generated by VMD
 Ir       95.002747       88.652069       -0.322840
 C        91.015396       89.879333       -1.579450
 C        90.765564       88.866196       -0.721985
 N        92.426926       90.115479       -1.607910
 C        93.078880       89.205452       -0.766357
 N        92.072235       88.356956       -0.273897
 C        92.468964       87.309982        0.550157
 C        93.876450       87.177521        0.625184
 C        94.432022       86.081482        1.253637
 H        95.470093       85.958054        1.240092
 C        93.588318       85.180328        1.941736
 H        94.095871       84.422920        2.552081
 C        92.199699       85.284027        1.913788
 H        91.599915       84.525238        2.353226
 C        91.661453       86.359161        1.201892
 H        90.618866       86.636475        1.459970
 C        89.418159       88.544968       -0.488713
 H        89.202576       87.709923        0.189836
 C        88.378960       89.147217       -1.182588
 H        87.407127       88.959328       -0.727353
 C        88.697739       90.070694       -2.126711
 H        87.924530       90.481262       -2.725710
 C        90.014496       90.511261       -2.355499
 H        90.113419       91.302666       -3.071313
 C        93.010704       91.126221       -2.528450
 C        93.377609       92.274277       -2.029196
 H        93.480698       92.394333       -0.952087
 C        93.692139       93.369194       -2.881729
 H        94.054535       94.275841       -2.455957
 C        93.590149       93.264267       -4.264402
 H        93.593201       94.165314       -4.851425
 C        93.167023       92.034729       -4.763306
 H        93.275032       91.671188       -5.767932
 C        92.930084       90.931641       -3.921376
 H        92.492889       90.041946       -4.417261
 C        95.422318       90.892929        3.342279
 C        96.607697       90.072556        3.302632
 N        94.626648       90.455658        2.317049
 C        95.234764       89.547913        1.505886
 N        96.518402       89.331573        2.163432
 C        97.421738       88.452347        1.406440
 C        96.826019       87.858185        0.258308
 C        97.567635       86.846886       -0.363763
 H        97.384262       86.635048       -1.420173
 C        98.829803       86.416084        0.056630
 H        99.209160       85.568306       -0.390429
 C        99.391144       87.069595        1.218704
 H       100.448929       86.980103        1.417668
 C        98.612198       88.050308        1.864657
 H        98.845039       88.312424        2.857620
 C        97.569000       90.213928        4.324937
 H        98.208771       89.392891        4.499311
 C        97.377335       91.184746        5.277494
 H        98.021164       91.165222        6.137554
 C        96.275436       92.017548        5.333767
 H        96.150833       92.875992        6.033591
 C        95.305138       91.895874        4.305855
 H        94.549820       92.646332        4.283356
 C        93.252716       90.888901        2.227566
 C        92.931564       92.204582        1.815682
 H        93.710831       92.971893        1.617516
 C        91.608810       92.709305        1.734502
 H        91.426292       93.656372        1.196875
 C        90.509453       91.905609        2.051471
 H        89.503036       92.227432        1.908041
 C        90.751022       90.586891        2.402051
 H        89.872177       89.896790        2.585361
 C        92.110748       90.134262        2.553359
 H        92.339363       89.155998        2.942992
 C        96.883492       91.885498       -2.603442
 C        96.595322       90.931259       -3.619064
 N        96.624298       91.308868       -1.339550
 C        96.078056       90.032089       -1.467496
 N        96.119537       89.750900       -2.843328
 C        95.684692       88.493202       -3.208184
 C        95.065704       87.742630       -2.227114
 C        94.687401       86.437698       -2.509670
 H        94.360107       85.791962       -1.700411
 C        94.927559       85.823669       -3.750067
 H        94.366470       84.916725       -3.875477
 C        95.536507       86.554245       -4.713836
 H        95.570885       86.089531       -5.670052
 C        95.972679       87.869171       -4.524828
 H        96.512375       88.380768       -5.307899
 C        96.881676       91.186829       -4.983830
 H        96.390442       90.641182       -5.772476
 C        97.486610       92.366943       -5.361167
 H        97.537376       92.610680       -6.460311
 C        97.749847       93.300278       -4.361066
 H        98.367355       94.081787       -4.659905
 C        97.451881       93.084694       -2.979964
 H        97.541840       93.849258       -2.240820
 C        97.270996       91.734009       -0.206799
 C        98.505669       91.278038       -0.062649
 H        98.904312       90.566849       -0.756835
 C        99.348801       91.726822        0.980339
 H       100.315262       91.315048        1.193138
 C        98.861732       92.640060        1.937506
 H        99.363022       92.768333        2.885531
 C        97.577881       93.195068        1.809864
 H        97.269318       93.948380        2.489433
 C        96.782310       92.746277        0.690465
 H        95.763260       93.148071        0.562725
 Ir       95.002747       88.652069       10.242491
 C        93.277519       85.221481       12.454983
 C        92.888382       86.382462       13.107965
 N        94.136536       85.667664       11.446617
 C        94.219177       87.098831       11.344927
 N        93.523239       87.528328       12.419449
 C        94.057182       88.662178       13.010885
 C        94.817673       89.488800       12.176769
 C        95.358765       90.739548       12.560638
 H        96.115891       91.179092       11.924662
 C        95.107918       91.153671       13.829723
 H        95.507492       92.169044       14.113735
 C        94.343277       90.407318       14.684814
 H        94.115517       90.847168       15.650244
 C        93.764427       89.186554       14.359892
 H        92.910507       88.833008       14.900290
 C        92.071976       86.230392       14.295975
 H        91.620193       86.938545       14.886406
 C        91.661636       84.984581       14.629519
 H        91.027328       84.942467       15.518606
 C        92.074928       83.794830       14.015121
 H        91.854706       82.824066       14.349207
 C        92.859352       83.877228       12.901443
 H        93.368332       82.944054       12.535055
 C        94.618958       84.802582       10.380547
 C        93.840988       84.534317        9.260325
 H        92.808334       84.885216        9.100567
 C        94.347305       83.730133        8.209133
 H        93.700562       83.461304        7.465051
 C        95.638260       83.184799        8.305866
 H        96.165054       82.874039        7.420536
 C        96.429749       83.463364        9.422718
 H        97.430618       83.099434        9.444920
 C        95.917282       84.256958       10.446529
 H        96.499893       84.437042       11.374495
 C        91.440536       90.700226        8.956007
 C        92.402985       91.550552        8.648056
 N        91.954727       89.642349        9.535149
 C        93.339905       89.759766        9.631624
 N        93.586166       90.977982        9.089956
 C        94.983688       91.383133        9.017447
 C        95.902435       90.321045        9.306553
 C        97.272324       90.605339        9.228617
 H        97.939774       89.838547        9.620455
 C        97.709091       91.851166        8.852626
 H        98.778015       92.060318        8.940733
 C        96.813393       92.831764        8.436518
 H        97.096268       93.870117        8.471226
 C        95.459702       92.578064        8.524532
 H        94.822006       93.450897        8.457455
 C        92.207176       92.623596        7.878372
 H        93.002205       93.218552        7.513338
 C        90.971077       92.892036        7.273969
 H        90.712311       93.889999        6.912692
 C        89.897514       91.988083        7.536328
 H        88.969849       92.066360        7.053209
 C        90.154114       90.907776        8.379179
 H        89.308777       90.279488        8.618677
 C        91.075089       88.912628       10.365780
 C        90.667427       89.442131       11.596161
 H        90.799072       90.439590       11.819431
 C        89.974739       88.709122       12.543146
 H        90.072311       88.998489       13.581486
 C        89.690659       87.366035       12.225004
 H        89.345879       86.739685       13.023376
 C        90.112343       86.826843       10.991571
 H        90.331665       85.760986       10.927835
 C        90.735413       87.588318       10.060149
 H        90.721481       87.181137        9.026752
 C        95.845856       86.651260        6.409160
 C        96.976212       86.501549        7.100875
 N        94.918678       87.350876        7.233763
 C        95.461609       87.694542        8.443277
 N        96.741943       87.136177        8.368494
 C        97.413330       87.023102        9.587282
 C        96.895401       87.787613       10.678360
 C        97.476028       87.702995       11.946671
 H        97.314331       88.441185       12.694086
 C        98.494995       86.823257       12.215700
 H        98.600372       86.562271       13.235348
 C        99.009285       86.039360       11.169468
 H        99.611259       85.220764       11.555893
 C        98.533279       86.216064        9.860270
 H        99.096100       85.826553        8.997353
 C        98.104637       85.910706        6.495746
 H        99.090240       85.935120        7.050259
 C        98.032730       85.467453        5.178911
 H        98.796051       85.018326        4.641021
 C        96.877449       85.755585        4.424576
 H        96.865158       85.329025        3.427532
 C        95.800468       86.328262        5.061715
 H        94.856186       86.384415        4.474029
 C        93.527557       87.637184        6.744891
 C        93.324280       88.933479        6.182579
 H        93.938354       89.814392        6.470522
 C        92.153320       89.223129        5.548040
 H        92.040649       90.235962        5.254128
 C        91.208679       88.214661        5.325267
 H        90.450195       88.413185        4.582306
 C        91.414032       86.918053        5.865316
 H        90.612106       86.186157        5.813817
 C        92.557007       86.608719        6.564887
 H        92.788925       85.619232        6.874125
