206
 generated by VMD
 Ir      135.105682       96.065948      -34.649147
 C       135.674652       92.058449      -33.271885
 C       135.408936       91.922684      -34.682507
 N       136.140381       93.358154      -33.017181
 C       135.907318       94.185410      -34.177151
 N       135.603256       93.214951      -35.184895
 C       135.662003       93.848495      -36.454567
 C       135.062317       95.122375      -36.531483
 C       134.690750       95.619667      -37.771698
 H       134.333832       96.650742      -37.917274
 C       135.045944       94.981430      -38.987995
 H       134.928818       95.621384      -39.860771
 C       135.854462       93.845749      -38.925079
 H       136.124512       93.312553      -39.795815
 C       136.106186       93.199661      -37.662502
 H       136.472031       92.175461      -37.758743
 C       134.952972       90.701035      -35.085575
 H       134.811493       90.618233      -36.184498
 C       134.545639       89.685287      -34.202316
 H       134.120270       88.703766      -34.578823
 C       134.696579       89.791656      -32.815384
 H       134.676041       88.960526      -32.118950
 C       135.289124       90.982559      -32.385811
 H       135.478531       91.234741      -31.307188
 C       137.193970       93.552002      -32.060078
 C       138.279236       92.732864      -32.101597
 H       138.379883       92.081329      -32.945972
 C       139.292343       92.916420      -31.193010
 H       140.306107       92.466934      -31.308962
 C       139.166809       93.840607      -30.156958
 H       140.113800       93.950745      -29.558920
 C       138.028992       94.720039      -30.125591
 H       137.888458       95.441269      -29.330744
 C       137.034851       94.526184      -31.045755
 H       136.143051       95.134163      -30.974562
 C       138.504898       98.420868      -36.122871
 C       137.429138       99.206146      -36.380959
 N       138.063507       97.231277      -35.563835
 C       136.682068       97.163635      -35.443481
 N       136.332870       98.490219      -35.942635
 C       134.905853       98.731506      -35.938423
 C       134.110367       97.785461      -35.321026
 C       132.690491       97.967499      -35.252480
 H       132.065674       97.299774      -34.663460
 C       132.069153       99.075737      -35.787323
 H       131.019211       99.245247      -35.688938
 C       132.869507      100.000443      -36.507301
 H       132.521713      100.673080      -37.311981
 C       134.257965       99.849297      -36.525257
 H       134.874969      100.732056      -36.722622
 C       137.594360      100.366333      -37.063934
 H       136.825165      101.130867      -37.190117
 C       138.815399      100.809906      -37.608360
 H       138.929871      101.782959      -38.095894
 C       139.907745       99.974640      -37.339096
 H       140.788727      100.171066      -37.866714
 C       139.734222       98.805641      -36.566940
 H       140.598801       98.334198      -36.139420
 C       139.068085       96.185585      -35.380707
 C       139.089264       95.182892      -36.362469
 H       138.791626       95.292603      -37.361603
 C       139.769012       94.041077      -36.073311
 H       139.505264       93.185966      -36.634209
 C       140.440277       93.911369      -34.841766
 H       141.168579       93.086548      -34.763466
 C       140.511810       95.002419      -33.933472
 H       141.201416       94.917633      -33.091606
 C       139.797180       96.144974      -34.185436
 H       139.840851       97.032463      -33.573437
 C       134.979797       97.638329      -30.598963
 C       133.832703       96.846161      -30.685333
 N       135.491425       97.777916      -31.896549
 C       134.800598       96.921906      -32.793327
 N       133.741608       96.379982      -32.017021
 C       132.880341       95.468292      -32.677261
 C       133.239304       95.228073      -34.051250
 C       132.515488       94.284904      -34.743290
 H       132.736237       94.289566      -35.818909
 C       131.470139       93.530167      -34.178474
 H       130.951416       92.708176      -34.651077
 C       131.074677       93.860229      -32.840504
 H       130.272659       93.231766      -32.421082
 C       131.799728       94.813850      -32.112549
 H       131.354065       95.258392      -31.243382
 C       132.975372       96.776260      -29.627218
 H       132.100494       96.144821      -29.488476
 C       133.180450       97.499733      -28.441160
 H       132.468887       97.585510      -27.636667
 C       134.339020       98.262054      -28.335363
 H       134.484650       98.971207      -27.527403
 C       135.276993       98.341354      -29.390648
 H       136.144608       98.848022      -29.119658
 C       136.500107       98.795151      -32.288605
 C       136.070221       99.991592      -32.847366
 H       135.048096      100.311531      -32.699013
 C       136.986725      100.908539      -33.318459
 H       136.641663      101.795906      -33.748466
 C       138.341858      100.659027      -33.225887
 H       138.990906      101.084839      -33.948677
 C       138.785095       99.605103      -32.461182
 H       139.892456       99.517822      -32.348755
 C       137.861694       98.627869      -32.016880
 H       138.216324       97.812874      -31.393810
 Ir      135.105682       96.065948      -20.415359
 C       135.756851       95.564392      -16.175842
 C       135.038406       94.385117      -16.554312
 N       135.811584       96.440002      -17.287422
 C       135.187164       95.861427      -18.347961
 N       134.598053       94.661682      -17.892258
 C       133.807617       93.956100      -18.818209
 C       133.624313       94.662178      -20.039335
 C       132.618683       94.199104      -20.903074
 H       132.481079       94.577446      -21.913477
 C       131.815918       93.099648      -20.558275
 H       131.035690       92.806702      -21.273205
 C       132.116333       92.341934      -19.393011
 H       131.464462       91.609467      -19.196388
 C       133.075470       92.815613      -18.511255
 H       133.153351       92.175804      -17.651093
 C       134.882843       93.307297      -15.678410
 H       134.700012       92.284431      -16.009502
 C       135.331940       93.470520      -14.354525
 H       135.171127       92.610001      -13.697611
 C       135.930908       94.661736      -13.897415
 H       135.988846       94.774971      -12.815601
 C       136.199036       95.667328      -14.878736
 H       136.799835       96.486053      -14.614103
 C       136.197708       97.817169      -17.283648
 C       135.250305       98.751053      -16.781773
 H       134.263275       98.458984      -16.765726
 C       135.641388      100.102394      -16.444820
 H       134.846069      100.801254      -16.244654
 C       137.013702      100.499847      -16.588385
 H       137.177002      101.545120      -16.870253
 C       137.981766       99.476562      -17.028767
 H       138.985657       99.705521      -17.280466
 C       137.576370       98.204910      -17.399549
 H       138.268860       97.492485      -17.945898
 C       137.412216       92.659256      -21.854574
 C       137.201172       93.306824      -22.974180
 N       136.871185       93.316742      -20.812908
 C       136.216873       94.487358      -21.180944
 N       136.469635       94.488007      -22.554489
 C       135.759003       95.484917      -23.248800
 C       134.663483       95.963173      -22.489510
 C       133.621643       96.642212      -23.219147
 H       132.768280       97.014816      -22.754974
 C       133.705933       96.794029      -24.605780
 H       132.881104       97.243385      -25.173061
 C       134.844345       96.336952      -25.244606
 H       134.765091       96.343857      -26.329998
 C       135.814178       95.697327      -24.607491
 H       136.762421       95.543495      -25.110739
 C       137.837372       92.787376      -24.112213
 H       137.551285       93.137512      -25.073074
 C       138.597900       91.621849      -24.066805
 H       139.134491       91.267151      -24.892849
 C       138.901062       90.953835      -22.924946
 H       139.658020       90.186768      -23.006466
 C       138.292084       91.432983      -21.792841
 H       138.525879       90.912872      -20.861486
 C       136.879623       92.732742      -19.537693
 C       136.073547       91.651939      -19.301250
 H       135.215591       91.541214      -19.891052
 C       136.332153       90.752762      -18.277193
 H       135.728668       89.868668      -18.177382
 C       137.328033       90.906311      -17.378780
 H       137.592484       90.062668      -16.705269
 C       138.092773       92.098297      -17.548664
 H       138.740799       92.273041      -16.772499
 C       137.935669       92.976288      -18.603489
 H       138.644058       93.777420      -18.872164
 C       137.799469       99.354172      -21.284010
 C       136.709442       99.958687      -20.817854
 N       137.555893       98.036102      -21.270914
 C       136.276566       97.742508      -20.765318
 N       135.739990       98.970108      -20.507898
 C       134.367249       98.975601      -20.136198
 C       133.779541       97.642448      -19.948078
 C       132.373734       97.618378      -19.561068
 H       131.904190       96.730270      -19.695864
 C       131.589249       98.795547      -19.492064
 H       130.633453       98.809090      -19.014585
 C       132.235291      100.017517      -19.736191
 H       131.667145      100.913818      -19.598536
 C       133.564453      100.132317      -20.113529
 H       133.889648      101.044922      -20.504429
 C       136.721863      101.360176      -20.705193
 H       135.803757      101.843666      -20.212555
 C       137.831497      102.136688      -21.089191
 H       137.744568      103.226868      -21.138752
 C       138.988586      101.600517      -21.644390
 H       139.681915      102.106766      -22.305779
 C       138.963409      100.179634      -21.717548
 H       139.845337       99.758362      -22.057156
 C       138.603485       97.142502      -21.687721
 C       139.231812       96.268402      -20.822992
 H       138.873566       96.324036      -19.810286
 C       140.295792       95.526276      -21.114542
 H       140.770615       94.871262      -20.419628
 C       140.884201       95.705856      -22.365152
 H       141.585892       95.015808      -22.717812
 C       140.330811       96.568314      -23.312635
 H       140.659088       96.612831      -24.333939
 C       139.121567       97.282387      -22.957767
 H       138.548706       97.646545      -23.779116
