206
 generated by VMD
 Ir        5.652547      117.906830       23.872402
 C         8.398859      116.052803       26.686180
 C         9.049185      117.188072       26.291170
 N         7.210452      115.938156       25.902634
 C         7.066768      117.088272       25.133688
 N         8.268200      117.820557       25.282440
 C         8.224583      119.202072       24.759752
 C         7.089970      119.476761       23.906052
 C         6.968686      120.778709       23.429590
 H         6.016683      120.973351       22.991518
 C         8.000956      121.718323       23.681292
 H         8.051544      122.642906       23.192333
 C         9.144651      121.375443       24.374468
 H         9.983418      122.056770       24.442734
 C         9.258774      120.103302       24.972422
 H        10.147654      119.947639       25.509970
 C        10.229424      117.463531       26.803476
 H        10.867738      118.234077       26.446232
 C        10.775751      116.692520       27.824137
 H        11.734034      116.971992       28.275457
 C        10.181387      115.548080       28.241156
 H        10.559027      115.116585       29.132336
 C         8.946071      115.132881       27.638077
 H         8.593227      114.110886       27.823633
 C         6.448246      114.704819       25.791615
 C         5.263619      114.603806       26.480785
 H         5.036550      115.504730       27.128685
 C         4.545907      113.402557       26.460819
 H         3.603476      113.382202       26.949398
 C         5.023942      112.283401       25.683722
 H         4.291737      111.557297       25.280432
 C         6.256758      112.435364       24.975010
 H         6.520450      111.713638       24.244961
 C         6.926824      113.636612       24.979820
 H         7.708039      113.772591       24.272282
 C         3.280763      120.055191       26.644331
 C         2.723752      120.450531       25.426319
 N         4.491760      119.358727       26.433102
 C         4.575931      119.121231       25.079769
 N         3.520798      119.812256       24.438074
 C         3.496711      119.795212       23.029200
 C         4.466129      118.946915       22.455772
 C         4.649292      118.905792       21.055143
 H         5.018369      117.984871       20.587614
 C         3.882623      119.766800       20.232349
 H         4.162647      119.820267       19.220015
 C         3.008171      120.634552       20.804131
 H         2.833846      121.491013       20.263483
 C         2.782387      120.613823       22.173798
 H         2.177109      121.406509       22.625126
 C         1.596940      121.232796       25.372877
 H         1.075467      121.280640       24.406038
 C         0.942590      121.628891       26.506338
 H         0.230839      122.411095       26.401651
 C         1.369263      121.215836       27.771225
 H         0.669133      121.296883       28.553749
 C         2.571981      120.453026       27.816959
 H         3.005404      120.291245       28.796692
 C         5.683963      119.582756       27.270693
 C         6.421207      120.738678       27.031309
 H         6.212014      121.368286       26.171402
 C         7.554194      120.913437       27.758150
 H         8.236939      121.727570       27.624125
 C         8.024647      119.939697       28.687450
 H         9.079745      119.926468       28.834387
 C         7.174692      118.863998       29.083239
 H         7.435363      118.338028       29.946260
 C         6.027870      118.700676       28.300919
 H         5.159484      118.194107       28.589697
 C         3.115055      114.407806       23.470295
 C         4.039306      114.171509       22.543999
 N         3.212383      115.702568       23.857113
 C         4.344982      116.361931       23.364506
 N         4.935664      115.351562       22.596163
 C         6.096748      115.742889       21.915024
 C         6.711646      116.929398       22.390198
 C         7.780590      117.466148       21.635836
 H         8.194033      118.378342       21.886593
 C         8.346495      116.809563       20.582487
 H         9.195931      117.118500       20.023369
 C         7.759299      115.594437       20.152185
 H         8.218937      115.216171       19.234987
 C         6.673759      115.070251       20.826759
 H         6.098594      114.394501       20.358635
 C         4.135112      112.874962       21.978867
 H         4.959782      112.577469       21.266674
 C         3.183291      111.871407       22.332012
 H         3.192446      110.901268       21.841351
 C         2.254685      112.127762       23.304985
 H         1.473705      111.416138       23.417942
 C         2.231469      113.396828       23.905832
 H         1.502242      113.598701       24.680866
 C         2.124371      116.303543       24.506470
 C         1.382925      117.303741       23.868305
 H         1.516737      117.479172       22.787785
 C         0.508195      118.112587       24.638905
 H         0.254629      119.083031       24.215418
 C         0.352074      117.986481       25.987505
 H        -0.223513      118.630920       26.642408
 C         1.189013      117.059570       26.622368
 H         1.262304      116.955681       27.678606
 C         1.975859      116.215813       25.897133
 H         2.539744      115.516220       26.466698
 Ir        5.652546      117.906830       36.508018
 C         9.952108      117.003342       36.286026
 C         9.383554      115.862923       36.720867
 N         8.894996      118.029518       36.211399
 C         7.733364      117.479477       36.564346
 N         8.024221      116.113892       36.837601
 C         6.810618      115.223137       37.090012
 C         5.647466      115.992882       37.282784
 C         4.575087      115.321548       37.948975
 H         3.776868      115.834274       38.479034
 C         4.715000      113.948532       38.234905
 H         3.824552      113.555954       38.659035
 C         5.838851      113.163872       37.967743
 H         6.073324      112.199173       38.451256
 C         6.929880      113.869034       37.440872
 H         7.917578      113.367920       37.469795
 C        10.238247      114.725677       36.805046
 H         9.908407      113.717461       37.083237
 C        11.578192      114.741432       36.353382
 H        12.166615      113.829788       36.317944
 C        12.123873      115.952866       35.924458
 H        13.074995      115.935989       35.375565
 C        11.384062      117.143929       35.874992
 H        11.688774      117.995712       35.213928
 C         9.161652      119.443245       36.230831
 C         8.726260      120.254318       35.158318
 H         8.671073      119.808533       34.177132
 C         8.733435      121.644638       35.300713
 H         8.605309      122.316628       34.515850
 C         9.222794      122.189507       36.500481
 H         9.133947      123.275200       36.614845
 C         9.642606      121.326881       37.522995
 H        10.025512      121.788658       38.463608
 C         9.614452      119.974945       37.413567
 H        10.332029      119.462029       38.060795
 C         4.641061      116.124344       32.594933
 C         3.414048      116.384048       33.219425
 N         5.688321      116.401115       33.591301
 C         5.112262      116.843605       34.808537
 N         3.714460      116.831627       34.518353
 C         2.945542      117.157318       35.682095
 C         3.557896      117.920837       36.660133
 C         2.757038      118.452599       37.627373
 H         3.109542      119.357414       38.102707
 C         1.445612      118.163055       37.824429
 H         0.941432      118.517838       38.749702
 C         0.839946      117.237518       36.957333
 H        -0.118511      116.742386       37.166389
 C         1.573111      116.764137       35.873001
 H         1.108748      116.043663       35.254471
 C         2.258946      116.401657       32.397148
 H         1.305477      116.740875       32.854454
 C         2.283277      115.900787       31.099981
 H         1.367566      115.514267       30.745764
 C         3.489623      115.485359       30.540476
 H         3.429654      115.166077       29.442358
 C         4.684649      115.696762       31.270220
 H         5.639894      115.592285       30.774340
 C         6.942070      115.673752       33.476601
 C         7.980885      116.328568       33.047901
 H         7.862019      117.404434       32.893745
 C         9.243555      115.809013       32.806179
 H         9.895110      116.418022       32.275345
 C         9.442272      114.411331       32.973221
 H        10.390898      113.962845       32.828064
 C         8.327054      113.677490       33.345200
 H         8.553969      112.665802       33.687523
 C         7.069232      114.236557       33.604668
 H         6.324436      113.673950       34.164719
 C         4.851695      122.122147       35.759697
 C         5.348443      122.102440       36.969227
 N         5.075950      120.875946       35.120644
 C         5.473434      119.957764       36.081398
 N         5.730817      120.802109       37.218689
 C         6.212953      120.142807       38.408169
 C         5.957027      118.741112       38.420990
 C         6.337295      117.976440       39.534840
 H         6.034627      116.955521       39.529663
 C         6.941615      118.560768       40.604122
 H         7.198819      117.905952       41.445053
 C         7.263739      119.905762       40.581131
 H         7.852213      120.268990       41.403297
 C         6.942207      120.657265       39.480560
 H         7.316593      121.619202       39.524200
 C         5.195659      123.225006       37.779480
 H         5.645365      123.244751       38.806984
 C         4.433990      124.315186       37.402832
 H         4.124492      125.012909       38.243904
 C         3.848716      124.336029       36.141716
 H         3.105121      125.059807       35.939194
 C         4.049163      123.210594       35.313580
 H         3.295516      123.059845       34.581810
 C         5.455964      120.779266       33.727966
 C         6.292638      121.736969       33.175980
 H         6.729809      122.542763       33.781029
 C         6.386029      121.871094       31.826649
 H         7.217710      122.460106       31.488312
 C         5.566000      121.168335       31.006659
 H         5.657670      121.344368       29.992649
 C         4.733662      120.193451       31.545013
 H         4.158395      119.427170       30.912249
 C         4.592607      120.062202       32.912224
 H         3.901423      119.457748       33.336716
