206
 generated by VMD
  IR        27.350000       15.820000       60.540001
  C1        29.719999       18.969999       58.599998
  C2        29.639999       19.360001       59.880001
  N1        29.170000       17.680000       58.529999
  C3a       28.610001       17.299999       59.790001
  N2        28.930000       18.330000       60.630001
  C4        28.270000       18.340000       61.900002
  C5a       27.389999       17.209999       62.119999
  C6        26.790001       17.110001       63.380001
  H1        26.230000       16.270000       63.669998
  C7        26.950001       18.059999       64.339996
  H2        26.260000       18.030001       65.199997
  C8        27.840000       19.139999       64.089996
  H3        27.850000       19.980000       64.790001
  C9        28.490000       19.230000       62.930000
  H4        29.340000       19.870001       63.009998
  C10       30.160000       20.559999       60.220001
  H5        29.920000       20.889999       61.240002
  C11       30.840000       21.389999       59.290001
  H6        31.340000       22.330000       59.660000
  C12       31.020000       20.910000       57.970001
  H7        31.510000       21.450001       57.230000
  C13       30.309999       19.750000       57.619999
  H8        30.219999       19.510000       56.570000
  C6        28.709999       17.100000       57.270000
  C1        29.440001       16.070000       56.639999
  H1        30.410000       15.810000       57.049999
  C2        29.049999       15.540000       55.410000
  H2        29.770000       14.920000       54.849998
  C3        27.910000       16.059999       54.790001
  H3        27.559999       15.590000       53.970001
  C4        27.180000       17.150000       55.320000
  H4        26.240000       17.500000       54.799999
  C5        27.540001       17.600000       56.639999
  H5        26.820000       18.270000       57.150002
  C1        29.959999       12.920000       62.490002
  C2        28.700001       12.670000       62.930000
  N1        29.889999       14.140000       61.720001
  C3b       28.600000       14.670000       61.779999
  N2        27.870001       13.720000       62.529999
  C4        26.469999       13.840000       62.529999
  C5b       25.889999       14.720000       61.549999
  C6        24.540001       14.890000       61.509998
  H1        24.139999       15.610000       60.779999
  C7        23.709999       14.180000       62.340000
  H2        22.740000       14.140000       62.029999
  C8        24.200001       13.290000       63.290001
  H3        23.570000       12.750000       63.889999
  C9        25.559999       13.110000       63.419998
  H4        25.920000       12.630000       64.339996
  C10       28.410000       11.410000       63.419998
  H5        27.400000       11.060000       63.549999
  C11       29.450001       10.470000       63.529999
  H6        29.320000        9.410000       63.840000
  C12       30.780001       10.750000       63.119999
  H7        31.540001       10.010000       63.270000
  C13       31.049999       11.990000       62.560001
  H8        31.950001       12.150000       62.020000
  C6        31.100000       15.080000       61.570000
  C1        31.139999       16.230000       62.380001
  H1        30.309999       16.520000       63.020000
  C2        32.160000       17.100000       62.220001
  H2        32.040001       17.900000       62.990002
  C3        33.169998       16.910000       61.220001
  H3        33.730000       17.750000       60.840000
  C4        33.070000       15.760000       60.400002
  H4        33.860001       15.450000       59.759998
  C5        32.029999       14.780000       60.599998
  H5        31.850000       13.840000       60.189999
  C1        26.500000       12.650000       57.709999
  C2        25.570000       13.620000       57.500000
  N1        27.389999       13.210000       58.689999
  C3c       26.990000       14.470000       59.070000
  N2        25.879999       14.760000       58.340000
  C4        25.360001       16.090000       58.299999
  C5c       25.879999       16.809999       59.320000
  C6        25.450001       18.129999       59.509998
  H1        25.930000       18.840000       60.279999
  C7        24.410000       18.680000       58.750000
  H2        24.129999       19.730000       58.889999
  C8        23.840000       17.900000       57.720001
  H3        22.950001       18.240000       57.220001
  C9        24.370001       16.639999       57.450001
  H4        24.110001       16.200001       56.500000
  C10       24.559999       13.320000       56.639999
  H5        23.709999       14.020000       56.470001
  C11       24.480000       12.100000       55.830002
  H6        23.730000       11.810000       55.099998
  C12       25.430000       11.200000       56.110001
  H7        25.270000       10.170000       55.799999
  C13       26.480000       11.390000       57.040001
  H8        27.150000       10.580000       57.209999
  C6        28.660000       12.670000       59.000000
  C1        28.660000       11.550000       59.840000
  H1        27.879999       11.500000       60.560001
  C2        29.559999       10.480000       59.700001
  H2        29.480000        9.560000       60.410000
  C3        30.469999       10.560000       58.639999
  H3        31.230000        9.750000       58.590000
  C4        30.540001       11.680000       57.840000
  H4        31.430000       11.920000       57.240002
  C5        29.610001       12.690000       58.040001
  H5        29.430000       13.450000       57.270000
  IR        38.480000       16.750000       55.349998
  C1        42.610001       17.740000       54.320000
  C2        41.930000       17.639999       53.099998
  N1        41.700001       17.350000       55.310001
  C3a       40.389999       17.160000       54.779999
  N2        40.549999       17.360001       53.389999
  C4        39.389999       17.260000       52.610001
  C5a       38.209999       17.260000       53.320000
  C6        37.000000       17.510000       52.709999
  H1        36.110001       17.719999       53.259998
  C7        36.910000       17.719999       51.330002
  H2        36.000000       17.809999       50.849998
  C8        38.060001       17.600000       50.509998
  H3        38.080002       17.379999       49.400002
  C9        39.360001       17.469999       51.180000
  H4        40.299999       17.400000       50.619999
  C10       42.709999       17.830000       51.950001
  H5        42.189999       17.969999       50.950001
  C11       44.070000       18.160000       51.939999
  H6        44.599998       18.090000       51.090000
  C12       44.639999       18.330000       53.180000
  H7        45.599998       18.700001       53.189999
  C13       43.900002       18.120001       54.360001
  H8        44.299999       18.250000       55.360001
  C6        42.150002       16.680000       56.509998
  C1        42.810001       15.410000       56.310001
  H1        43.070000       15.060000       55.299999
  C2        43.310001       14.840000       57.509998
  H2        43.509998       13.830000       57.580002
  C3        43.240002       15.500000       58.759998
  H3        43.660000       15.030000       59.630001
  C4        42.700001       16.760000       58.849998
  H4        42.529999       17.219999       59.820000
  C5        42.090000       17.340000       57.720001
  H5        41.950001       18.389999       57.630001
  C1        36.849998       20.680000       55.029999
  C2        35.740002       19.920000       55.279999
  N1        37.980000       19.879999       55.430000
  C3b       37.570000       18.590000       55.740002
  N2        36.220001       18.590000       55.709999
  C4        35.610001       17.330000       55.980000
  C5b       36.450001       16.219999       55.680000
  C6        35.950001       14.940000       55.889999
  H1        36.630001       14.090000       55.799999
  C7        34.720001       14.790000       56.430000
  H2        34.160000       13.850000       56.500000
  C8        33.900002       15.910000       56.759998
  H3        32.939999       15.770000       57.180000
  C9        34.369999       17.209999       56.470001
  H4        33.599998       17.990000       56.580002
  C10       34.459999       20.450001       55.049999
  H5        33.599998       19.780001       55.290001
  C11       34.320000       21.760000       54.590000
  H6        33.310001       22.010000       54.240002
  C12       35.439999       22.530001       54.279999
  H7        35.480000       23.520000       53.779999
  C13       36.730000       21.990000       54.580002
  H8        37.570000       22.650000       54.310001
  C6        39.299999       20.459999       55.849998
  C1        39.419998       21.030001       57.130001
  H1        38.610001       21.340000       57.689999
  C2        40.630001       21.620001       57.480000
  H2        40.759998       21.860001       58.480000
  C3        41.680000       21.760000       56.570000
  H3        42.669998       22.049999       56.889999
  C4        41.549999       21.250000       55.279999
  H4        42.400002       21.030001       54.619999
  C5        40.349998       20.590000       54.889999
  H5        40.400002       19.980000       54.040001
  C1        39.340000       15.270000       59.400002
  C2        39.770000       14.300000       58.520000
  N1        38.669998       16.209999       58.549999
  C3c       38.820000       15.910000       57.220001
  N2        39.459999       14.680000       57.220001
  C4        39.759998       14.140000       55.930000
  C5c       39.000000       14.790000       54.939999
  C6        38.910000       14.190000       53.660000
  H1        38.119999       14.430000       52.939999
  C7        39.590000       13.030000       53.369999
  H2        39.360001       12.580000       52.419998
  C8        40.330002       12.310000       54.340000
  H3        40.900002       11.500000       53.990002
  C9        40.470001       12.890000       55.599998
  H4        41.169998       12.460000       56.360001
  C10       40.529999       13.180000       59.000000
  H5        40.430000       12.230000       58.459999
  C11       40.930000       13.170000       60.349998
  H6        41.720001       12.480000       60.619999
  C12       40.430000       14.110000       61.230000
  H7        40.610001       14.050000       62.299999
  C13       39.570000       15.170000       60.759998
  H8        39.340000       15.940000       61.480000
  C6        38.180000       17.430000       59.180000
  C1        39.110001       18.350000       59.709999
  H1        40.160000       18.250000       59.689999
  C2        38.660000       19.600000       60.139999
  H2        39.320000       20.410000       60.310001
  C3        37.279999       19.920000       60.009998
  H3        36.930000       20.740000       60.610001
  C4        36.389999       19.010000       59.570000
  H4        35.369999       19.330000       59.480000
  C5        36.810001       17.730000       59.139999
  H5        35.959999       17.090000       58.830002
