206
 generated by VMD
 Ir       88.396843       72.425629      -45.853416
 C        84.955482       73.854240      -43.536880
 C        85.623169       75.009377      -43.915379
 N        85.705887       72.671951      -43.967201
 C        86.874481       73.164352      -44.628658
 N        86.741379       74.550537      -44.575127
 C        87.919701       75.220825      -45.115093
 C        88.973000       74.459381      -45.552090
 C        90.163086       75.086304      -45.896149
 H        90.910233       74.505981      -46.408405
 C        90.290588       76.446457      -45.859940
 H        91.166580       76.893311      -46.265846
 C        89.247696       77.176453      -45.421341
 H        89.264931       78.255692      -45.253887
 C        88.012985       76.635223      -45.040325
 H        87.286209       77.139618      -44.465446
 C        85.040497       76.331581      -43.636684
 H        85.271988       77.250252      -44.080139
 C        83.848160       76.370667      -42.872471
 H        83.513306       77.397858      -42.503479
 C        83.246933       75.188416      -42.521324
 H        82.325974       75.278465      -42.080627
 C        83.720703       73.948639      -42.784416
 H        83.163284       73.074425      -42.537170
 C        85.549438       71.273865      -43.498604
 C        84.771828       70.334488      -44.226482
 H        84.216072       70.638123      -45.146782
 C        84.513985       69.090431      -43.696266
 H        83.678276       68.545898      -44.159695
 C        85.067108       68.660995      -42.482086
 H        84.917587       67.645782      -42.219070
 C        85.853546       69.571083      -41.762238
 H        86.328064       69.250099      -40.842949
 C        86.102737       70.895416      -42.283356
 H        86.768082       71.641701      -41.684387
 C        86.825790       73.427559      -49.699421
 C        88.106735       73.003456      -49.983521
 N        86.707932       73.599030      -48.312950
 C        87.816971       73.041573      -47.727066
 N        88.736885       72.750824      -48.794033
 C        90.041702       72.427643      -48.374252
 C        90.089523       71.895172      -47.028000
 C        91.385406       71.461349      -46.662811
 H        91.419991       70.844254      -45.769398
 C        92.535461       71.528564      -47.437706
 H        93.474876       71.243347      -46.897751
 C        92.398476       71.959076      -48.771568
 H        93.198242       72.302872      -49.395805
 C        91.176712       72.351669      -49.241196
 H        90.959900       72.152023      -50.257530
 C        88.398956       72.645432      -51.295170
 H        89.288895       72.096588      -51.553810
 C        87.492401       72.802620      -52.377926
 H        87.624207       72.274330      -53.307243
 C        86.216705       73.280960      -52.061714
 H        85.424042       73.304749      -52.881714
 C        85.865448       73.597763      -50.739311
 H        84.962326       74.099968      -50.499397
 C        85.420441       73.878906      -47.696953
 C        84.704285       72.702072      -47.305038
 H        84.962044       71.679230      -47.587791
 C        83.383652       72.932037      -46.829796
 H        82.794006       72.030701      -46.593765
 C        82.801895       74.191315      -46.731491
 H        81.910278       74.411530      -46.235161
 C        83.555008       75.296555      -47.083282
 H        83.070541       76.246689      -47.319584
 C        84.857193       75.150116      -47.609371
 H        85.134911       75.939697      -48.265896
 C        87.105164       68.315857      -46.006859
 C        87.769287       68.415741      -44.795471
 N        87.469330       69.409134      -46.754471
 C        88.165466       70.369118      -45.967117
 N        88.392120       69.688049      -44.766586
 C        89.025085       70.394234      -43.745781
 C        89.276520       71.684952      -44.067234
 C        89.951637       72.469223      -43.222580
 H        90.220184       73.456238      -43.563293
 C        90.261009       71.984474      -41.949860
 H        90.482468       72.641830      -41.153030
 C        89.920334       70.680740      -41.554474
 H        90.096756       70.212242      -40.661179
 C        89.386856       69.857422      -42.524490
 H        89.593735       68.782547      -42.374687
 C        87.606781       67.344170      -43.806061
 H        87.841576       67.587204      -42.803658
 C        86.871384       66.196579      -44.151756
 H        86.765564       65.336494      -43.435402
 C        86.219391       66.206245      -45.350849
 H        85.667755       65.367783      -45.688141
 C        86.281395       67.225754      -46.273270
 H        85.864342       67.036957      -47.212906
 C        87.750237       69.336365      -48.197273
 C        89.082764       69.253922      -48.599735
 H        89.924049       69.073929      -47.916260
 C        89.320282       69.070526      -49.998074
 H        90.389252       69.021698      -50.277225
 C        88.319626       69.122505      -50.912666
 H        88.505630       69.055191      -51.944302
 C        87.005020       69.245087      -50.462582
 H        86.176651       69.188629      -51.191017
 C        86.692467       69.354736      -49.089344
 H        85.676094       69.631332      -48.736374
 Ir       88.396835       72.425629      -30.481022
 C        86.147217       72.570694      -34.139103
 C        87.099518       71.648727      -34.388126
 N        86.175110       72.909195      -32.790756
 C        87.124084       72.289917      -32.130348
 N        87.720253       71.453583      -33.132259
 C        88.905319       70.633629      -32.763206
 C        89.362305       70.873436      -31.455324
 C        90.539520       70.200996      -31.010267
 H        90.942963       70.422333      -30.029938
 C        91.230499       69.390709      -31.866119
 H        92.145386       68.930847      -31.600201
 C        90.828537       69.218147      -33.209381
 H        91.421310       68.602028      -33.860153
 C        89.602661       69.817917      -33.642082
 H        89.197998       69.516312      -34.629898
 C        87.351562       71.271179      -35.697605
 H        88.199188       70.691956      -36.091103
 C        86.581001       71.827522      -36.754257
 H        86.790955       71.600761      -37.763420
 C        85.503555       72.745148      -36.464989
 H        84.819016       73.032516      -37.243340
 C        85.297989       73.133545      -35.119152
 H        84.445358       73.804955      -34.818264
 C        85.016899       73.399490      -32.127769
 C        83.940445       72.505722      -32.080330
 H        83.989075       71.526260      -32.526726
 C        82.681229       73.032867      -31.849245
 H        81.813683       72.410294      -31.577694
 C        82.492271       74.417984      -31.641508
 H        81.603882       74.821503      -31.187481
 C        83.569672       75.293304      -31.745155
 H        83.438599       76.267357      -31.307261
 C        84.809143       74.766159      -31.973013
 H        85.595924       75.343170      -32.490730
 C        86.311714       69.898560      -27.678112
 C        87.403313       70.509285      -26.950987
 N        86.606796       70.082863      -29.034233
 C        87.716324       70.937569      -29.189289
 N        88.251801       71.027687      -27.959072
 C        89.593521       71.609085      -27.933357
 C        89.884048       72.489746      -29.007425
 C        90.975937       73.304337      -28.836475
 H        91.312035       73.982193      -29.693771
 C        91.760834       73.424828      -27.692093
 H        92.643929       74.108170      -27.682634
 C        91.537003       72.479080      -26.705856
 H        92.239990       72.292587      -25.876677
 C        90.480515       71.595070      -26.846317
 H        90.525665       70.727386      -26.260149
 C        87.348099       70.406349      -25.491207
 H        88.175514       70.948715      -25.016531
 C        86.312180       69.713287      -24.823946
 H        86.432922       69.386887      -23.775385
 C        85.313553       69.083038      -25.664089
 H        84.599464       68.381279      -25.383547
 C        85.360413       69.180557      -27.051060
 H        84.529984       68.741219      -27.668129
 C        85.784805       69.474289      -30.095581
 C        84.443878       69.888596      -30.364389
 H        84.019150       70.794296      -29.987291
 C        83.653030       69.134689      -31.235191
 H        82.649849       69.470901      -31.483368
 C        84.197723       67.905746      -31.746178
 H        83.568428       67.150795      -32.124634
 C        85.461349       67.584717      -31.516396
 H        85.756561       66.697433      -32.189949
 C        86.350708       68.287643      -30.662794
 H        87.212471       67.809357      -30.163986
 C        86.235001       75.893341      -29.077185
 C        87.265221       76.382477      -29.841316
 N        86.423080       74.523430      -28.980343
 C        87.599396       74.124252      -29.594639
 N        88.160233       75.283714      -30.068872
 C        89.314659       75.150269      -30.816992
 C        89.450562       73.947342      -31.473272
 C        90.401764       73.794342      -32.472824
 H        90.489304       72.894043      -33.053078
 C        91.370987       74.730392      -32.742332
 H        92.154373       74.526428      -33.528709
 C        91.293350       75.951752      -32.039528
 H        91.933533       76.704483      -32.400311
 C        90.285980       76.144882      -31.073660
 H        90.047844       77.119995      -30.856758
 C        87.275948       77.750198      -30.147604
 H        88.167053       78.159088      -30.523005
 C        86.196503       78.564789      -29.808548
 H        86.137909       79.601700      -30.043034
 C        85.086876       78.018158      -29.096279
 H        84.164673       78.587601      -28.973045
 C        85.153290       76.690567      -28.752045
 H        84.393097       76.302307      -28.071630
 C        85.692863       73.769653      -27.992670
 C        84.549286       73.125336      -28.417854
 H        84.098244       73.229385      -29.379436
 C        83.780273       72.483276      -27.419455
 H        82.968582       71.966942      -27.921980
 C        84.098228       72.560387      -26.094326
 H        83.435638       72.368454      -25.250736
 C        85.261963       73.217728      -25.731787
 H        85.579025       73.046425      -24.721924
 C        86.085487       73.818565      -26.644579
 H        86.834549       74.517120      -26.215355
