206
 generated by VMD
  IR        60.230000       23.920000        2.850000
  C1        59.790001       26.969999       -0.220000
  C2        60.099998       25.790001       -0.870000
  N1        60.000000       26.690001        1.100000
  C3a       60.400002       25.410000        1.390000
  N2        60.480000       24.870001        0.100000
  C4        60.930000       23.510000       -0.030000
  C5a       60.869999       22.760000        1.180000
  C6        61.349998       21.440001        1.210000
  H1        61.419998       20.809999        2.070000
  C7        62.009998       20.920000        0.080000
  H2        62.230000       19.889999       -0.050000
  C8        62.099998       21.650000       -1.120000
  H3        62.209999       21.150000       -2.050000
  C9        61.509998       22.910000       -1.160000
  H4        61.490002       23.299999       -2.180000
  C10       60.080002       25.780001       -2.260000
  H5        60.549999       24.930000       -2.790000
  C11       59.660000       26.879999       -3.020000
  H6        59.400002       26.830000       -4.050000
  C12       59.330002       28.059999       -2.370000
  H7        59.040001       28.889999       -2.940000
  C13       59.380001       28.160000       -0.970000
  H8        59.209999       29.080000       -0.500000
  C6        59.820000       27.700001        2.180000
  C1        60.759998       27.889999        3.210000
  H1        61.770000       27.879999        2.970000
  C2        60.369999       28.530001        4.380000
  H2        61.119999       28.959999        4.980000
  C3        59.029999       28.950001        4.610000
  H3        58.730000       29.219999        5.620000
  C4        58.119999       28.780001        3.560000
  H4        57.209999       29.350000        3.540000
  C5        58.520000       28.219999        2.390000
  H5        57.730000       28.170000        1.620000
  C1        56.080002       22.830000        2.550000
  C2        56.599998       21.920000        3.480000
  N1        57.150002       23.450001        2.010000
  C3b       58.380001       23.020000        2.530000
  N2        58.029999       22.059999        3.480000
  C4        59.070000       21.629999        4.330000
  C5b       60.330002       22.250000        4.150000
  C6        61.439999       21.680000        4.740000
  H1        62.400002       22.100000        4.500000
  C7        61.320000       20.660000        5.690000
  H2        62.119999       20.030001        5.950000
  C8        60.060001       20.070000        5.930000
  H3        59.930000       19.379999        6.770000
  C9        58.950001       20.580000        5.250000
  H4        58.020000       20.360001        5.670000
  C10       55.680000       21.150000        4.230000
  H5        56.020000       20.670000        5.090000
  C11       54.299999       21.299999        4.130000
  H6        53.689999       20.889999        4.940000
  C12       53.790001       22.230000        3.190000
  H7        52.799999       22.570000        3.410000
  C13       54.630001       23.020000        2.420000
  H8        54.230000       23.719999        1.730000
  C6        56.900002       24.250000        0.830000
  C1        57.360001       23.760000       -0.390000
  H1        58.060001       22.900000       -0.400000
  C2        56.860001       24.350000       -1.570000
  H2        57.090000       23.930000       -2.570000
  C3        56.060001       25.520000       -1.480000
  H3        55.830002       26.090000       -2.360000
  C4        55.689999       26.070000       -0.230000
  H4        55.340000       27.080000       -0.260000
  C5        56.099998       25.430000        0.910000
  H5        55.810001       25.900000        1.920000
  C1        59.450001       26.200001        6.580000
  C2        60.770000       26.150000        6.450000
  N1        58.919998       25.420000        5.460000
  C3c       59.919998       24.910000        4.620000
  N2        61.099998       25.340000        5.240000
  C4        62.380001       25.000000        4.630000
  C5c       62.250000       24.469999        3.320000
  C6        63.450001       24.219999        2.610000
  H1        63.430000       23.620001        1.690000
  C7        64.720001       24.480000        3.150000
  H2        65.610001       24.420000        2.490000
  C8        64.879997       24.990000        4.460000
  H3        65.889999       25.230000        4.760000
  C9        63.689999       25.129999        5.210000
  H4        63.680000       25.049999        6.260000
  C10       61.630001       26.780001        7.440000
  H5        62.599998       27.020000        7.120000
  C11       61.029999       27.340000        8.560000
  H6        61.459999       27.100000        9.520000
  C12       59.650002       27.500000        8.610000
  H7        59.150002       28.219999        9.330000
  C13       58.820000       26.920000        7.630000
  H8        57.770000       26.860001        7.760000
  C6        57.549999       24.940001        5.580000
  C1        57.340000       23.799999        6.410000
  H1        58.090000       23.330000        7.070000
  C2        55.980000       23.370001        6.640000
  H2        55.790001       22.459999        7.070000
  C3        54.919998       24.160000        6.170000
  H3        53.910000       23.879999        6.420000
  C4        55.160000       25.299999        5.330000
  H4        54.360001       25.879999        4.960000
  C5        56.500000       25.680000        5.080000
  H5        56.630001       26.490000        4.460000
  IR        57.820000       12.360000        8.860000
  C1        54.029999       10.190000        8.530000
  C2        54.779999        9.510000        9.450000
  N1        54.830002       11.350000        8.180000
  C3a       56.070000       11.340000        8.900000
  N2        55.990002       10.210000        9.650000
  C4        57.259998        9.780000       10.250000
  C5a       58.250000       10.650000        9.990000
  C6        59.500000       10.370000       10.530000
  H1        60.369999       10.860000       10.080000
  C7        59.790001        9.390000       11.490000
  H2        60.549999        9.580000       12.200000
  C8        58.730000        8.530000       11.810000
  H3        58.810001        7.870000       12.640000
  C9        57.509998        8.630000       11.090000
  H4        56.860001        7.790000       11.140000
  C10       54.119999        8.430000       10.050000
  H5        54.480000        8.200000       11.100000
  C11       52.840000        7.980000        9.670000
  H6        52.259998        7.230000       10.160000
  C12       52.189999        8.610000        8.610000
  H7        51.360001        8.100000        8.150000
  C13       52.799999        9.740000        8.130000
  H8        52.549999       10.050000        7.150000
  C6        54.410000       12.070000        6.940000
  C1        54.480000       11.500000        5.680000
  H1        54.639999       10.460000        5.650000
  C2        54.250000       12.310000        4.520000
  H2        54.180000       11.850000        3.570000
  C3        53.959999       13.670000        4.650000
  H3        53.619999       14.280000        3.800000
  C4        53.919998       14.210000        5.930000
  H4        53.680000       15.240000        6.120000
  C5        54.080002       13.400000        7.040000
  H5        53.740002       13.810000        8.010000
  C1        57.430000       14.390000       12.780000
  C2        58.759998       14.510000       12.480000
  N1        56.730000       13.690000       11.680000
  C3b       57.669998       13.360000       10.690000
  N2        58.930000       13.850000       11.150000
  C4        60.020000       13.880000       10.240000
  C5b       59.810001       13.140000        9.000000
  C6        60.740002       13.220000        7.950000
  H1        60.240002       13.250000        6.980000
  C7        61.889999       13.970000        8.180000
  H2        62.619999       13.920000        7.480000
  C8        62.189999       14.680000        9.340000
  H3        62.959999       15.440000        9.280000
  C9        61.259998       14.560000       10.420000
  H4        61.450001       15.090000       11.350000
  C10       59.660000       15.020000       13.440000
  H5        60.700001       14.790000       13.470000
  C11       59.200001       15.400000       14.690000
  H6        59.930000       15.740000       15.400000
  C12       57.810001       15.430000       14.940000
  H7        57.410000       16.100000       15.670000
  C13       56.959999       14.900000       14.010000
  H8        55.900002       14.730000       14.190000
  C6        55.630001       12.830000       11.960000
  C1        55.810001       11.740000       12.850000
  H1        56.740002       11.590000       13.300000
  C2        54.779999       10.780000       12.970000
  H2        55.090000        9.840000       13.380000
  C3        53.580002       11.000000       12.230000
  H3        52.860001       10.280000       11.860000
  C4        53.400002       12.180000       11.530000
  H4        52.430000       12.420000       11.080000
  C5        54.430000       13.060000       11.340000
  H5        54.419998       13.670000       10.480000
  C1        57.490002       15.680000        6.020000
  C2        57.560001       14.550000        5.250000
  N1        57.430000       15.200000        7.360000
  C3c       57.410000       13.820000        7.450000
  N2        57.549999       13.430000        6.120000
  C4        57.720001       12.030000        5.890000
  C5c       58.189999       11.320000        7.040000
  C6        58.650002        9.970000        6.870000
  H1        59.080002        9.510000        7.660000
  C7        58.740002        9.340000        5.590000
  H2        59.119999        8.310000        5.550000
  C8        58.230000       10.090000        4.470000
  H3        58.299999        9.570000        3.540000
  C9        57.730000       11.380000        4.600000
  H4        57.110001       11.760000        3.850000
  C10       57.240002       14.640000        3.940000
  H5        57.470001       13.910000        3.110000
  C11       56.700001       15.920000        3.520000
  H6        56.259998       15.860000        2.560000
  C12       56.639999       17.100000        4.250000
  H7        56.580002       18.010000        3.700000
  C13       57.060001       16.950001        5.550000
  H8        57.349998       17.790001        6.160000
  C6        57.049999       16.020000        8.400000
  C1        57.970001       16.809999        9.060000
  H1        58.939999       16.780001        8.510000
  C2        57.720001       17.430000       10.280000
  H2        58.520000       17.840000       10.970000
  C3        56.389999       17.360001       10.800000
  H3        56.090000       18.049999       11.640000
  C4        55.450001       16.600000       10.050000
  H4        54.430000       16.690001       10.300000
  C5        55.770000       15.960000        8.910000
  H5        54.980000       15.720000        8.250000
