206
 generated by VMD
 Ir       60.406090     -115.289886       -6.798016
 C        64.249741     -117.174568       -6.193056
 C        63.734730     -116.999474       -4.942173
 N        63.370274     -116.592628       -7.126904
 C        62.234123     -116.179878       -6.414368
 N        62.472095     -116.474281       -5.065552
 C        61.499561     -115.957260       -4.140041
 C        60.733940     -114.933212       -4.724201
 C        60.076248     -113.995041       -3.901175
 H        59.806808     -112.944000       -4.170271
 C        60.061493     -114.195107       -2.491266
 H        59.554321     -113.443443       -1.900095
 C        60.773335     -115.216782       -1.917189
 H        60.593300     -115.313461       -0.900458
 C        61.528561     -116.087601       -2.718998
 H        61.916477     -117.022507       -2.340473
 C        64.389160     -117.643799       -3.873917
 H        63.947380     -117.632980       -2.834105
 C        65.571373     -118.424149       -4.046040
 H        66.166626     -118.829735       -3.270369
 C        66.053146     -118.552414       -5.307011
 H        66.709023     -119.386299       -5.401665
 C        65.356064     -117.933342       -6.381775
 H        65.897919     -118.053391       -7.346388
 C        64.060844     -115.895401       -8.027897
 C        64.155807     -116.353073       -9.316387
 H        63.745792     -117.305923       -9.614834
 C        64.935890     -115.688225      -10.186710
 H        65.033646     -116.066238      -11.203642
 C        65.674255     -114.509369       -9.890558
 H        66.401413     -114.166367      -10.594114
 C        65.557022     -114.023415       -8.565943
 H        65.878479     -112.984650       -8.250914
 C        64.776939     -114.742226       -7.609091
 H        64.821358     -114.470413       -6.512756
 C        57.888763     -118.740738       -6.361853
 C        57.049561     -117.777115       -6.736406
 N        59.030212     -118.188957       -6.012939
 C        59.074577     -116.792740       -6.129122
 N        57.806149     -116.579697       -6.493395
 C        57.448715     -115.231613       -6.570326
 C        58.539425     -114.391029       -6.824835
 C        58.289806     -113.061310       -7.183611
 H        59.156864     -112.445663       -7.557632
 C        57.023430     -112.561371       -7.322746
 H        56.824047     -111.515732       -7.599812
 C        55.892258     -113.338272       -7.065510
 H        54.832100     -113.140556       -7.245153
 C        56.138832     -114.707077       -6.719540
 H        55.415291     -115.452026       -6.476986
 C        55.821136     -118.144768       -7.321815
 H        55.072182     -117.420761       -7.619282
 C        55.499470     -119.498260       -7.551147
 H        54.531235     -119.828766       -7.819822
 C        56.346294     -120.474388       -7.101191
 H        56.203438     -121.555229       -7.010225
 C        57.596672     -120.089905       -6.509899
 H        58.447296     -120.797935       -6.433586
 C        59.993568     -118.935608       -5.158678
 C        59.852436     -118.978317       -3.761593
 H        59.018791     -118.480515       -3.333412
 C        60.776039     -119.621132       -2.988197
 H        60.704666     -119.678093       -1.946678
 C        61.870102     -120.284286       -3.574924
 H        62.560776     -120.796944       -2.916851
 C        62.002064     -120.192368       -5.010662
 H        62.851078     -120.476883       -5.460682
 C        61.064297     -119.560989       -5.800434
 H        61.252174     -119.598358       -6.870720
 C        59.829403     -115.063789      -11.175644
 C        60.424309     -113.895073      -10.791080
 N        59.708168     -115.839798       -9.997799
 C        60.215141     -115.224106       -8.857969
 N        60.740604     -114.027786       -9.415380
 C        61.613998     -113.244164       -8.593727
 C        61.491436     -113.506836       -7.248299
 C        62.312275     -112.766380       -6.344944
 H        62.220341     -112.894791       -5.260157
 C        63.270302     -111.832985       -6.812008
 H        63.619640     -111.018494       -6.163029
 C        63.394016     -111.665291       -8.195871
 H        64.138184     -110.988342       -8.524744
 C        62.573578     -112.347458       -9.097548
 H        62.575485     -111.993042      -10.085312
 C        60.321026     -112.776909      -11.702427
 H        60.737419     -111.845001      -11.333830
 C        59.657997     -112.906685      -12.936792
 H        59.442265     -112.042374      -13.585810
 C        59.112190     -114.183548      -13.331007
 H        58.567463     -114.269058      -14.283508
 C        59.190731     -115.263290      -12.437305
 H        58.724976     -116.235352      -12.710764
 C        59.394497     -117.255447       -9.976984
 C        60.426514     -118.060822       -9.482914
 H        61.379562     -117.736794       -9.105028
 C        60.130432     -119.421646       -9.344696
 H        60.947807     -120.163780       -9.148672
 C        58.830193     -119.927002       -9.539877
 H        58.763077     -120.993378       -9.432947
 C        57.868229     -119.127022      -10.041922
 H        56.908611     -119.555962      -10.230999
 C        58.117237     -117.721954      -10.335150
 H        57.615425     -117.062721      -11.063570
 Ir       60.406090     -115.289886        8.095810
 C        60.156525     -112.642403       11.547293
 C        59.095261     -112.268768       10.800152
 N        60.796272     -113.752190       10.908464
 C        60.132591     -114.061569        9.714642
 N        59.124161     -113.091682        9.579712
 C        58.347115     -113.137268        8.427881
 C        58.822365     -114.081062        7.485756
 C        58.275097     -114.124924        6.219471
 H        58.682350     -114.776428        5.510469
 C        57.147247     -113.324722        5.927862
 H        56.661350     -113.518387        4.963398
 C        56.631989     -112.398422        6.831339
 H        55.852200     -111.741119        6.533871
 C        57.256947     -112.318512        8.078512
 H        56.658333     -111.857399        8.890635
 C        58.281857     -111.245117       11.313583
 H        57.428478     -110.918106       10.706123
 C        58.598530     -110.554955       12.474403
 H        57.763348     -109.966507       12.852798
 C        59.748070     -110.888451       13.117165
 H        60.050579     -110.317673       13.958534
 C        60.567848     -111.960014       12.717150
 H        61.399216     -112.164413       13.361778
 C        62.048210     -114.330902       11.463028
 C        61.968128     -115.454254       12.121489
 H        61.068565     -116.063866       12.055502
 C        63.066654     -115.921570       12.895729
 H        63.004517     -116.873314       13.369995
 C        64.243027     -115.188049       13.002056
 H        64.941353     -115.443390       13.778996
 C        64.284592     -113.979431       12.311251
 H        65.158020     -113.411697       12.050640
 C        63.225288     -113.557228       11.485767
 H        63.323242     -112.532089       11.075769
 C        57.722038     -118.447784        9.301704
 C        58.079254     -118.797302        7.948956
 N        58.235397     -117.196396        9.515926
 C        59.033661     -116.755829        8.505737
 N        58.921623     -117.819435        7.514225
 C        59.795902     -117.625397        6.347996
 C        60.470005     -116.371864        6.330151
 C        61.133141     -116.048737        5.140381
 H        61.964302     -115.340042        5.178007
 C        61.183823     -116.872734        4.011726
 H        61.575378     -116.464546        3.150000
 C        60.494690     -118.141815        4.096151
 H        60.726173     -118.918953        3.382727
 C        59.789299     -118.431908        5.281086
 H        59.044449     -119.176010        5.260685
 C        57.578926     -119.996246        7.399950
 H        57.524418     -120.056503        6.347712
 C        56.834084     -120.825806        8.202227
 H        56.320267     -121.640717        7.726299
 C        56.498032     -120.549026        9.514233
 H        55.985016     -121.251869       10.210670
 C        57.003494     -119.352463       10.084877
 H        56.862022     -119.237595       11.134157
 C        57.843933     -116.439751       10.681107
 C        58.333775     -116.778625       11.965254
 H        58.971642     -117.671654       12.141108
 C        57.969147     -116.101852       13.156900
 H        58.557190     -116.274727       14.075386
 C        57.088924     -115.015831       13.129089
 H        56.872738     -114.430161       13.993530
 C        56.621277     -114.592773       11.895142
 H        55.971268     -113.667145       11.841307
 C        56.947983     -115.355461       10.716936
 H        56.505039     -115.132721        9.760231
 C        63.821926     -117.440063        9.799397
 C        64.432846     -116.256256        9.298910
 N        62.476318     -117.483688        9.369808
 C        62.127220     -116.323860        8.678560
 N        63.321739     -115.594231        8.558270
 C        63.233238     -114.419930        7.839100
 C        61.962505     -113.989944        7.508423
 C        61.814148     -112.864441        6.710281
 H        60.834805     -112.623123        6.308224
 C        62.904152     -112.144966        6.193033
 H        62.617275     -111.184807        5.807169
 C        64.151535     -112.564163        6.511944
 H        64.932663     -111.908798        6.208904
 C        64.408867     -113.695061        7.292870
 H        65.424873     -114.020790        7.459705
 C        65.818504     -116.006271        9.464279
 H        66.222252     -115.010048        9.389931
 C        66.625084     -116.932320       10.091078
 H        67.675751     -116.626411       10.360600
 C        66.014015     -118.080063       10.590939
 H        66.679451     -118.823929       10.882940
 C        64.616669     -118.351639       10.462950
 H        64.137115     -119.168900       10.953989
 C        61.804337     -118.670746        9.223417
 C        62.086376     -119.340820        8.116825
 H        62.732918     -118.915581        7.376717
 C        61.578457     -120.639709        7.882229
 H        61.699310     -121.176804        6.962547
 C        60.699383     -121.231804        8.811769
 H        60.077515     -122.068726        8.530109
 C        60.401611     -120.590431       10.025267
 H        59.812500     -121.096191       10.747526
 C        60.997093     -119.291557       10.239071
 H        60.777004     -118.749054       11.173658
