206
 generated by VMD
 Ir       93.194351       72.366302      -72.749519
 C        94.786324       74.283066      -76.210175
 C        94.310074       73.116707      -76.737335
 N        94.415466       74.465889      -74.915909
 C        93.701935       73.333527      -74.496361
 N        93.632141       72.536514      -75.687195
 C        92.903214       71.367264      -75.527084
 C        92.787796       70.882225      -74.191605
 C        92.303261       69.551346      -73.965591
 H        92.340225       69.040985      -72.946243
 C        91.757812       68.852051      -75.023743
 H        91.251236       67.894424      -74.797424
 C        91.802971       69.315506      -76.324615
 H        91.287903       68.814453      -77.107841
 C        92.366577       70.607697      -76.604950
 H        92.323257       71.096466      -77.561096
 C        94.490219       72.848480      -78.119537
 H        94.028275       71.989166      -78.605225
 C        95.196152       73.705811      -78.913925
 H        95.222313       73.355606      -79.951935
 C        95.721977       74.865959      -78.350662
 H        96.236412       75.535568      -78.986343
 C        95.518280       75.168488      -77.038239
 H        95.768005       76.138336      -76.665901
 C        94.359856       75.761017      -74.350800
 C        93.500870       76.699066      -74.879494
 H        93.056686       76.556549      -75.870148
 C        93.443924       77.984741      -74.311432
 H        92.734070       78.660637      -74.732689
 C        94.238220       78.376419      -73.246300
 H        94.100571       79.185951      -72.546799
 C        95.106300       77.403786      -72.688965
 H        95.613289       77.744354      -71.814209
 C        95.204941       76.124329      -73.252289
 H        96.190216       75.653061      -73.201790
 C        88.988129       73.112091      -72.016022
 C        89.278160       71.928329      -71.244019
 N        90.089592       73.252838      -72.861938
 C        91.138443       72.432785      -72.512787
 N        90.635559       71.659035      -71.462112
 C        91.562340       70.908905      -70.742126
 C        92.889038       70.982765      -71.160965
 C        93.846954       70.197769      -70.437119
 H        94.848259       70.160141      -70.716324
 C        93.426178       69.389435      -69.325111
 H        94.131119       68.733025      -68.843880
 C        92.107590       69.366394      -68.875427
 H        91.889946       68.614059      -68.168526
 C        91.161415       70.135727      -69.576553
 H        90.230316       70.244812      -69.037994
 C        88.223442       71.276390      -70.625031
 H        88.326508       70.260864      -70.243210
 C        86.896904       71.930206      -70.549377
 H        86.151772       71.380020      -70.108170
 C        86.675179       73.162117      -71.204697
 H        85.749466       73.666710      -71.021011
 C        87.736877       73.727509      -71.961746
 H        87.620087       74.666229      -72.459808
 C        89.905685       73.761185      -74.189514
 C        90.279701       75.105347      -74.388885
 H        90.805420       75.644524      -73.580475
 C        90.493301       75.663376      -75.649979
 H        90.479645       76.774628      -75.888824
 C        90.430298       74.835602      -76.733551
 H        90.640930       75.098053      -77.792114
 C        89.970299       73.529282      -76.586884
 H        89.596687       72.879272      -77.343460
 C        89.751434       72.967995      -75.338501
 H        89.766769       71.876625      -75.372787
 C        94.478935       75.336296      -69.817276
 C        95.645737       74.640259      -70.099091
 N        93.449448       74.742661      -70.552567
 C        93.877525       73.600098      -71.240112
 N        95.238998       73.559692      -70.928574
 C        95.978882       72.530342      -71.553963
 C        95.259613       72.002441      -72.615356
 C        95.932831       71.138931      -73.483536
 H        95.425644       70.769714      -74.382339
 C        97.220970       70.737411      -73.277451
 H        97.851898       70.239136      -73.977631
 C        97.913910       71.104813      -72.132713
 H        98.825577       70.559906      -71.844193
 C        97.302177       72.012650      -71.230530
 H        97.952332       72.487442      -70.504410
 C        96.828812       75.114296      -69.609177
 H        97.703613       74.534325      -69.752525
 C        96.860962       76.291153      -68.774979
 H        97.760796       76.739494      -68.460022
 C        95.656448       77.009354      -68.506805
 H        95.794601       77.792336      -67.836090
 C        94.482422       76.610413      -69.090424
 H        93.632507       77.237671      -68.953728
 C        92.118149       75.037079      -70.343842
 C        91.240730       74.237633      -69.508957
 H        91.761383       73.755470      -68.689247
 C        89.927216       74.706406      -69.242035
 H        89.315376       74.078445      -68.584534
 C        89.396957       75.892456      -69.844376
 H        88.397484       76.100601      -69.593750
 C        90.287491       76.648140      -70.610596
 H        90.028732       77.659164      -70.840302
 C        91.586639       76.210709      -70.918900
 H        92.201996       76.969254      -71.461815
 Ir       93.194351       72.366310      -62.023643
 C        97.458145       72.379440      -62.738903
 C        96.959427       71.409981      -63.558678
 N        96.405746       72.889481      -61.953705
 C        95.223610       72.295441      -62.421227
 N        95.591545       71.406532      -63.439583
 C        94.538567       70.555717      -63.926464
 C        93.464996       70.503906      -63.020447
 C        92.571602       69.412720      -63.055935
 H        91.970444       69.014046      -62.201904
 C        92.672279       68.464386      -64.113579
 H        91.972763       67.638588      -64.092682
 C        93.693817       68.532150      -65.025711
 H        93.590805       67.849380      -65.799484
 C        94.658752       69.547668      -64.929756
 H        95.338821       69.769318      -65.739799
 C        97.823563       70.876938      -64.535271
 H        97.439178       70.157196      -65.316765
 C        99.186371       71.278755      -64.667511
 H        99.907562       70.831299      -65.300095
 C        99.638275       72.232841      -63.816559
 H       100.522705       72.704117      -64.177353
 C        98.741600       72.794266      -62.865196
 H        99.258385       73.506355      -62.183762
 C        96.804016       73.018616      -60.688984
 C        96.994171       74.268280      -60.158997
 H        96.900269       75.161804      -60.757233
 C        97.488625       74.377930      -58.913406
 H        97.665680       75.370514      -58.501060
 C        97.820946       73.286362      -58.064507
 H        98.374313       73.478271      -57.171005
 C        97.601959       71.995621      -58.603523
 H        97.585098       71.052124      -57.978119
 C        97.127861       71.853485      -59.943611
 H        97.122269       70.840553      -60.445351
 C        91.931381       74.632309      -65.445000
 C        90.815025       74.471512      -64.737198
 N        92.847916       73.816940      -64.971466
 C        92.438843       73.030487      -63.885628
 N        91.156738       73.405632      -63.835842
 C        90.384094       72.691879      -62.916832
 C        91.138489       72.166534      -61.860470
 C        90.463676       71.659607      -60.743843
 H        91.074043       71.405579      -59.830818
 C        89.099770       71.684532      -60.633640
 H        88.566376       71.282600      -59.759663
 C        88.286789       72.175583      -61.656982
 H        87.213387       72.381729      -61.681911
 C        88.970764       72.717087      -62.794098
 H        88.532936       73.125702      -63.676506
 C        89.748726       75.368652      -64.949409
 H        88.797264       75.281509      -64.438797
 C        89.869202       76.442276      -65.855408
 H        89.048706       77.027702      -66.176300
 C        90.999489       76.551971      -66.618835
 H        91.213470       77.179642      -67.488968
 C        92.081390       75.635910      -66.392517
 H        93.116051       75.863388      -66.721802
 C        94.029587       73.454697      -65.800774
 C        93.959785       72.441299      -66.771210
 H        93.026596       71.956558      -66.913651
 C        95.067688       72.083450      -67.484589
 H        95.055725       71.337448      -68.216995
 C        96.294647       72.744644      -67.288681
 H        97.136230       72.436096      -67.896507
 C        96.338623       73.758614      -66.260513
 H        97.217316       74.124794      -65.947281
 C        95.220390       74.138626      -65.548523
 H        95.371803       74.944061      -64.833984
 C        92.418900       75.668839      -59.188278
 C        92.621826       74.542107      -58.441952
 N        92.594788       75.274399      -60.536491
 C        92.918579       73.931015      -60.697060
 N        93.013123       73.518105      -59.341125
 C        93.618637       72.246750      -59.078430
 C        93.634972       71.405983      -60.167946
 C        94.207489       70.108643      -60.002903
 H        94.200485       69.377731      -60.819862
 C        94.798935       69.711777      -58.778202
 H        94.892242       68.647827      -58.521515
 C        94.812714       70.640633      -57.731522
 H        95.288727       70.336349      -56.836525
 C        94.221977       71.900421      -57.855835
 H        94.074883       72.433289      -56.963806
 C        92.133430       74.561470      -57.080849
 H        92.242569       73.626289      -56.541203
 C        91.502968       75.703461      -56.553135
 H        90.998787       75.700760      -55.573040
 C        91.380798       76.895828      -57.357529
 H        90.858276       77.773956      -56.948666
 C        91.832832       76.870529      -58.686333
 H        91.693230       77.767029      -59.329300
 C        92.751709       76.194412      -61.646389
 C        94.004250       76.130905      -62.266796
 H        94.816353       75.468956      -62.025116
 C        94.164482       76.924133      -63.408596
 H        95.182877       77.087509      -63.848446
 C        93.088287       77.622192      -63.990494
 H        93.369904       78.214996      -64.840424
 C        91.903503       77.682457      -63.350140
 H        91.125534       78.266739      -63.790569
 C        91.678978       76.988480      -62.089111
 H        90.966751       77.225479      -61.280678
