206
 generated by VMD
  IR        43.029999       25.190001       10.950000
  C1        46.570000       27.690001       11.640000
  C2        46.700001       26.709999       12.570000
  N1        45.250000       27.570000       11.070000
  C3a       44.619999       26.420000       11.470000
  N2        45.590000       25.809999       12.330000
  C4        45.290001       24.480000       12.620000
  C5a       43.950001       24.139999       12.540000
  C6        43.380001       23.059999       13.260000
  H1        42.529999       22.490000       12.810000
  C7        44.209999       22.320000       14.130000
  H2        43.619999       21.670000       14.880000
  C8        45.610001       22.559999       14.220000
  H3        46.299999       21.870001       14.690000
  C9        46.139999       23.650000       13.430000
  H4        47.180000       23.879999       13.440000
  C10       47.820000       26.740000       13.510000
  H5        47.910000       25.969999       14.210000
  C11       48.779999       27.730000       13.360000
  H6        49.709999       27.700001       13.990000
  C12       48.650002       28.639999       12.340000
  H7        49.389999       29.459999       12.290000
  C13       47.549999       28.620001       11.500000
  H8        47.500000       29.370001       10.750000
  C6        44.470001       28.740000       10.720000
  C1        44.020000       28.889999        9.400000
  H1        44.029999       28.000000        8.770000
  C2        43.630001       30.120001        8.890000
  H2        43.500000       30.260000        7.830000
  C3        43.450001       31.180000        9.740000
  H3        43.130001       32.189999        9.400000
  C4        43.910000       31.059999       11.080000
  H4        43.980000       31.910000       11.750000
  C5        44.380001       29.840000       11.580000
  H5        44.900002       29.719999       12.500000
  C1        45.049999       22.799999        7.970000
  C2        43.849998       22.160000        8.150000
  N1        45.160000       23.809999        8.940000
  C3b       43.959999       23.830000        9.690000
  N2        43.209999       22.790001        9.220000
  C4        42.000000       22.600000        9.900000
  C5b       41.520000       23.740000       10.610000
  C6        40.220001       23.900000       10.960000
  H1        39.910000       24.870001       11.400000
  C7        39.270000       22.940001       10.550000
  H2        38.189999       23.040001       10.620000
  C8        39.689999       21.709999        9.970000
  H3        38.970001       20.860001        9.890000
  C9        41.090000       21.559999        9.660000
  H4        41.549999       20.690001        9.720000
  C10       43.590000       21.040001        7.330000
  H5        42.619999       20.559999        7.560000
  C11       44.380001       20.690001        6.240000
  H6        44.340000       19.700001        5.810000
  C12       45.529999       21.450001        5.950000
  H7        46.250000       21.080000        5.220000
  C13       45.799999       22.469999        6.850000
  H8        46.730000       22.959999        6.780000
  C6        46.470001       24.290001        9.250000
  C1        46.810001       25.570000        8.850000
  H1        46.119999       26.320000        8.450000
  C2        48.160000       25.920000        9.080000
  H2        48.500000       26.940001        8.850000
  C3        49.070000       25.040001        9.660000
  H3        50.080002       25.389999        9.870000
  C4        48.630001       23.799999       10.080000
  H4        49.290001       23.200001       10.800000
  C5        47.320000       23.330000        9.860000
  H5        47.049999       22.320000        9.850000
  C1        40.959999       27.520000        8.010000
  C2        40.759998       28.139999        9.230000
  N1        41.779999       26.440001        8.210000
  C3c       41.990002       26.299999        9.600000
  N2        41.349998       27.360001       10.200000
  C4        41.180000       27.330000       11.620000
  C5c       41.770000       26.309999       12.290000
  C6        41.700001       26.230000       13.680000
  H1        42.230000       25.280001       14.040000
  C7        40.980000       27.230000       14.430000
  H2        41.009998       27.150000       15.470000
  C8        40.310001       28.230000       13.760000
  H3        39.889999       29.020000       14.340000
  C9        40.470001       28.280001       12.370000
  H4        39.779999       29.000000       11.870000
  C10       40.150002       29.389999        9.210000
  H5        39.740002       29.840000       10.100000
  C11       39.639999       30.010000        8.040000
  H6        39.240002       31.049999        7.960000
  C12       39.900002       29.370001        6.780000
  H7        39.509998       29.780001        5.870000
  C13       40.580002       28.170000        6.780000
  H8        40.730000       27.760000        5.830000
  C6        42.060001       25.559999        7.240000
  C1        43.049999       25.840000        6.300000
  H1        43.730000       26.730000        6.460000
  C2        43.090000       25.100000        5.110000
  H2        43.840000       25.309999        4.440000
  C3        42.279999       24.010000        4.910000
  H3        42.310001       23.650000        3.890000
  C4        41.360001       23.709999        5.870000
  H4        40.939999       22.670000        5.970000
  C5        41.189999       24.469999        7.070000
  H5        40.250000       24.270000        7.620000
  IR        47.500000       15.500000        7.810000
  C1        45.250000       18.350000       10.310000
  C2        44.500000       17.180000       10.260000
  N1        46.380001       18.129999        9.430000
  C3a       46.360001       16.790001        8.940000
  N2        45.169998       16.190001        9.470000
  C4        44.939999       14.800000        9.170000
  C5a       45.750000       14.400000        8.080000
  C6        45.439999       13.160000        7.480000
  H1        45.990002       12.740000        6.600000
  C7        44.500000       12.330000        8.020000
  H2        44.130001       11.470000        7.410000
  C8        43.820000       12.630000        9.210000
  H3        43.029999       11.980000        9.560000
  C9        43.970001       13.920000        9.750000
  H4        43.320000       14.160000       10.560000
  C10       43.290001       17.120001       11.040000
  H5        42.930000       16.219999       11.450000
  C11       42.880001       18.170000       11.780000
  H6        42.020000       18.190001       12.490000
  C12       43.680000       19.350000       11.830000
  H7        43.410000       20.170000       12.430000
  C13       44.840000       19.410000       11.110000
  H8        45.380001       20.309999       11.110000
  C6        47.299999       19.219999        9.020000
  C1        47.430000       19.540001        7.650000
  H1        46.580002       19.440001        6.980000
  C2        48.560001       20.260000        7.170000
  H2        48.669998       20.490000        6.150000
  C3        49.520000       20.620001        8.110000
  H3        50.490002       21.020000        7.970000
  C4        49.400002       20.389999        9.470000
  H4        50.020000       20.980000       10.140000
  C5        48.320000       19.690001        9.910000
  H5        48.419998       19.410000       10.910000
  C1        49.200001       12.930000       11.020000
  C2        49.380001       12.300000        9.790000
  N1        48.500000       14.170000       10.680000
  C3b       48.299999       14.230000        9.250000
  N2        48.959999       13.200000        8.740000
  C4        49.230000       13.120000        7.380000
  C5b       48.480000       14.020000        6.650000
  C6        48.580002       14.050000        5.220000
  H1        47.930000       14.720000        4.630000
  C7        49.619999       13.350000        4.580000
  H2        49.939999       13.610000        3.590000
  C8        50.400002       12.460000        5.330000
  H3        51.130001       11.880000        4.880000
  C9        50.200001       12.350000        6.740000
  H4        50.970001       11.970000        7.410000
  C10       49.790001       11.010000        9.840000
  H5        50.090000       10.530000        8.950000
  C11       49.919998       10.270000       11.060000
  H6        50.130001        9.190000       10.910000
  C12       49.779999       10.940000       12.280000
  H7        49.740002       10.500000       13.240000
  C13       49.410000       12.290000       12.170000
  H8        49.299999       12.810000       13.100000
  C6        47.959999       15.090000       11.660000
  C1        46.959999       14.650000       12.550000
  H1        46.549999       13.630000       12.540000
  C2        46.400002       15.560000       13.450000
  H2        45.770000       15.200000       14.200000
  C3        46.799999       16.850000       13.440000
  H3        46.320000       17.510000       14.190000
  C4        47.930000       17.270000       12.670000
  H4        48.470001       18.180000       12.850000
  C5        48.459999       16.400000       11.740000
  H5        49.320000       16.629999       11.210000
  C1        50.959999       17.299999        5.930000
  C2        49.939999       17.540001        5.000000
  N1        50.410000       16.709999        7.110000
  C3c       49.029999       16.660000        7.030000
  N2        48.730000       17.219999        5.710000
  C4        47.330002       17.250000        5.370000
  C5c       46.520000       16.450001        6.150000
  C6        45.189999       16.299999        5.800000
  H1        44.520000       15.590000        6.270000
  C7        44.700001       17.000000        4.650000
  H2        43.669998       16.940001        4.470000
  C8        45.490002       17.879999        3.910000
  H3        45.070000       18.629999        3.260000
  C9        46.820000       17.980000        4.280000
  H4        47.360001       18.900000        3.950000
  C10       50.209999       18.090000        3.770000
  H5        49.490002       18.049999        3.010000
  C11       51.520000       18.260000        3.450000
  H6        51.810001       18.660000        2.490000
  C12       52.549999       18.040001        4.350000
  H7        53.610001       18.129999        4.050000
  C13       52.290001       17.520000        5.590000
  H8        52.980000       17.680000        6.360000
  C6        51.150002       16.629999        8.370000
  C1        51.400002       15.410000        9.060000
  H1        51.480000       14.490000        8.510000
  C2        51.810001       15.380000       10.410000
  H2        51.880001       14.430000       10.920000
  C3        51.930000       16.520000       11.140000
  H3        52.400002       16.549999       12.120000
  C4        51.619999       17.760000       10.540000
  H4        51.430000       18.629999       11.120000
  C5        51.290001       17.760000        9.170000
  H5        51.029999       18.660000        8.770000
