206
 generated by VMD
  IR        14.180000       43.650002       17.480000
  C1        13.880000       42.639999       13.250000
  C2        12.910000       43.590000       13.490000
  N1        14.420000       42.279999       14.480000
  C3a       13.780000       43.009998       15.500000
  N2        12.810000       43.810001       14.880000
  C4        11.920000       44.549999       15.760000
  C5a       12.560000       44.939999       16.950001
  C6        11.970000       45.930000       17.730000
  H1        12.520000       46.389999       18.549999
  C7        10.750000       46.540001       17.389999
  H2        10.220000       47.360001       17.840000
  C8        10.090000       46.029999       16.270000
  H3         9.230000       46.570000       16.049999
  C9        10.660000       44.990002       15.440000
  H4        10.250000       44.900002       14.480000
  C10       12.160000       44.169998       12.410000
  H5        11.420000       44.959999       12.520000
  C11       12.440000       43.730000       11.040000
  H6        11.810000       44.029999       10.180000
  C12       13.410000       42.759998       10.850000
  H7        13.670000       42.310001        9.900000
  C13       14.140000       42.169998       11.940000
  H8        14.820000       41.349998       11.740000
  C6        15.180000       41.020000       14.620000
  C1        14.470000       39.849998       14.710000
  H1        13.610000       39.840000       15.370000
  C2        15.040000       38.660000       14.380000
  H2        14.590000       37.700001       14.470000
  C3        16.370001       38.520000       13.990000
  H3        16.900000       37.639999       14.160000
  C4        17.090000       39.730000       13.840000
  H4        18.080000       39.630001       13.390000
  C5        16.520000       40.939999       14.210000
  H5        17.190001       41.790001       14.230000
  C1        16.730000       47.169998       17.049999
  C2        16.860001       46.840000       18.370001
  N1        15.720000       46.320000       16.430000
  C3b       15.240000       45.400002       17.350000
  N2        15.880000       45.759998       18.570000
  C4        15.340000       45.189999       19.760000
  C5b       14.220000       44.389999       19.469999
  C6        13.390000       44.000000       20.530001
  H1        12.470000       43.540001       20.299999
  C7        13.690000       44.400002       21.830000
  H2        12.840000       44.410000       22.590000
  C8        14.790000       45.209999       22.080000
  H3        14.930000       45.570000       23.070000
  C9        15.590000       45.669998       21.030001
  H4        16.240000       46.549999       21.299999
  C10       18.030001       47.240002       19.040001
  H5        18.070000       47.020000       20.070000
  C11       19.049999       47.939999       18.400000
  H6        19.969999       48.299999       18.870001
  C12       18.820000       48.470001       17.120001
  H7        19.219999       49.369999       16.820000
  C13       17.719999       48.009998       16.389999
  H8        17.469999       48.500000       15.490000
  C6        15.510000       46.299999       14.980000
  C1        16.160000       45.259998       14.210000
  H1        16.750000       44.570000       14.780000
  C2        15.890000       45.160000       12.860000
  H2        16.299999       44.380001       12.250000
  C3        15.100000       46.160000       12.260000
  H3        15.150000       46.180000       11.190000
  C4        14.510000       47.189999       13.020000
  H4        13.930000       47.939999       12.440000
  C5        14.630000       47.220001       14.430000
  H5        14.070000       47.810001       15.110000
  C1        17.230000       40.500000       18.320000
  C2        15.970000       39.869999       18.340000
  N1        16.930000       41.860001       18.180000
  C3c       15.590000       42.150002       18.100000
  N2        14.980000       40.919998       18.219999
  C4        13.620000       40.990002       18.540001
  C5c       12.950000       42.070000       17.990000
  C6        11.570000       42.099998       18.200001
  H1        11.010000       42.689999       17.549999
  C7        10.880000       41.230000       18.930000
  H2         9.830000       41.250000       18.820000
  C8        11.540000       40.200001       19.570000
  H3        10.980000       39.630001       20.350000
  C9        12.900000       40.049999       19.350000
  H4        13.480000       39.169998       19.620001
  C10       16.049999       38.450001       18.209999
  H5        15.120000       37.869999       18.410000
  C11       17.230000       37.790001       18.010000
  H6        17.180000       36.689999       17.870001
  C12       18.440001       38.459999       18.010000
  H7        19.309999       38.060001       17.549999
  C13       18.440001       39.820000       18.240000
  H8        19.290001       40.340000       18.549999
  C6        17.840000       42.990002       18.000000
  C1        18.080000       43.470001       16.730000
  H1        17.719999       42.919998       15.870000
  C2        19.100000       44.360001       16.540001
  H2        19.420000       44.650002       15.490000
  C3        19.900000       44.830002       17.520000
  H3        20.850000       45.380001       17.280001
  C4        19.750000       44.279999       18.780001
  H4        20.520000       44.349998       19.520000
  C5        18.780001       43.279999       19.000000
  H5        19.010000       42.509998       19.730000
  IR        26.070000       52.970001       20.549999
  C1        29.059999       56.049999       20.049999
  C2        29.760000       54.970001       20.660000
  N1        27.709999       55.759998       20.070000
  C3a       27.500000       54.529999       20.590000
  N2        28.760000       54.049999       20.920000
  C4        28.799999       52.840000       21.680000
  C5a       27.620001       52.160000       21.730000
  C6        27.600000       50.990002       22.490000
  H1        26.639999       50.500000       22.830000
  C7        28.629999       50.549999       23.299999
  H2        28.510000       49.639999       23.860001
  C8        29.850000       51.209999       23.320000
  H3        30.660000       50.770000       23.799999
  C9        29.940001       52.389999       22.469999
  H4        30.879999       52.990002       22.450001
  C10       31.120001       55.080002       20.780001
  H5        31.740000       54.330002       21.280001
  C11       31.709999       56.290001       20.400000
  H6        32.779999       56.330002       20.350000
  C12       31.020000       57.279999       19.790001
  H7        31.629999       58.099998       19.379999
  C13       29.670000       57.240002       19.580000
  H8        29.230000       58.000000       18.980000
  C6        26.740000       56.709999       19.790001
  C1        26.170000       56.750000       18.500000
  H1        26.500000       55.990002       17.860001
  C2        25.150000       57.660000       18.200001
  H2        24.799999       57.930000       17.170000
  C3        24.629999       58.439999       19.280001
  H3        23.879999       59.160000       19.070000
  C4        25.190001       58.439999       20.570000
  H4        24.799999       59.070000       21.400000
  C5        26.240000       57.560001       20.820000
  H5        26.910000       57.689999       21.650000
  C1        27.030001       51.009998       16.840000
  C2        26.209999       50.049999       17.540001
  N1        27.430000       52.020000       17.750000
  C3b       26.850000       51.790001       19.030001
  N2        26.059999       50.590000       18.840000
  C4        25.290001       50.180000       19.959999
  C5b       24.860001       51.240002       20.799999
  C6        23.750000       51.090000       21.620001
  H1        23.549999       51.770000       22.379999
  C7        22.940001       49.919998       21.530001
  H2        22.090000       49.830002       22.100000
  C8        23.330000       48.869999       20.700001
  H3        22.730000       48.040001       20.520000
  C9        24.600000       48.980000       20.020000
  H4        25.209999       48.150002       19.830000
  C10       25.580000       49.020000       16.790001
  H5        24.780001       48.430000       17.270000
  C11       25.860001       48.889999       15.420000
  H6        25.360001       48.230000       14.780000
  C12       26.700001       49.799999       14.740000
  H7        26.830000       49.680000       13.640000
  C13       27.240000       50.849998       15.410000
  H8        27.610001       51.630001       14.820000
  C6        28.660000       52.689999       17.559999
  C1        29.730000       52.230000       18.260000
  H1        29.600000       51.240002       18.760000
  C2        30.990000       52.590000       17.799999
  H2        31.809999       52.430000       18.510000
  C3        31.190001       53.549999       16.799999
  H3        32.209999       53.880001       16.490000
  C4        30.049999       54.180000       16.219999
  H4        30.219999       55.040001       15.630000
  C5        28.780001       53.709999       16.600000
  H5        27.910000       53.830002       16.049999
  C1        22.709999       55.320000       18.850000
  C2        22.700001       55.520000       20.170000
  N1        23.690001       54.380001       18.580000
  C3c       24.360001       53.939999       19.770000
  N2        23.650000       54.619999       20.799999
  C4        24.049999       54.290001       22.150000
  C5c       25.379999       53.950001       22.250000
  C6        26.080000       54.029999       23.490000
  H1        27.059999       53.900002       23.750000
  C7        25.350000       54.389999       24.590000
  H2        25.770000       54.560001       25.540001
  C8        23.950001       54.599998       24.480000
  H3        23.410000       54.779999       25.410000
  C9        23.250000       54.549999       23.280001
  H4        22.160000       54.509998       23.059999
  C10       21.680000       56.400002       20.730000
  H5        21.700001       56.490002       21.799999
  C11       20.750000       57.000000       19.910000
  H6        20.000000       57.599998       20.420000
  C12       20.770000       56.779999       18.549999
  H7        20.030001       57.360001       17.930000
  C13       21.750000       55.930000       18.030001
  H8        21.650000       55.669998       16.990000
  C6        23.639999       53.560001       17.410000
  C1        22.809999       52.410000       17.450001
  H1        21.950001       52.369999       18.100000
  C2        22.940001       51.549999       16.360001
  H2        22.360001       50.639999       16.330000
  C3        23.870001       51.830002       15.330000
  H3        24.070000       51.060001       14.610000
  C4        24.629999       53.020000       15.290000
  H4        25.330000       53.340000       14.540000
  C5        24.520000       53.849998       16.389999
  H5        25.260000       54.560001       16.510000
