206
 generated by VMD
  IR         5.440000       18.180000       27.629999
  C1         3.360000       14.350000       27.410000
  C2         2.760000       15.110000       26.430000
  N1         4.540000       14.980000       27.809999
  C3a        4.660000       16.290001       27.250000
  N2         3.590000       16.250000       26.280001
  C4         3.560000       17.389999       25.450001
  C5a        4.380000       18.480000       25.879999
  C6         4.350000       19.620001       25.090000
  H1         4.970000       20.459999       25.420000
  C7         3.620000       19.629999       23.860001
  H2         3.960000       20.379999       23.170000
  C8         2.920000       18.490000       23.450001
  H3         2.540000       18.430000       22.410000
  C9         2.900000       17.330000       24.180000
  H4         2.520000       16.379999       23.750000
  C10        1.570000       14.670000       25.740000
  H5         0.920000       15.220000       25.090000
  C11        1.020000       13.450000       26.080000
  H6         0.150000       13.080000       25.510000
  C12        1.540000       12.700000       27.100000
  H7         1.170000       11.690000       27.219999
  C13        2.700000       13.090000       27.809999
  H8         3.180000       12.370000       28.510000
  C6         5.670000       14.280000       28.350000
  C1         6.370000       13.450000       27.459999
  H1         6.400000       13.720000       26.400000
  C2         7.440000       12.720000       27.930000
  H2         7.750000       12.030000       27.170000
  C3         7.810000       12.750000       29.250000
  H3         8.450000       11.990000       29.590000
  C4         7.040000       13.480000       30.170000
  H4         7.310000       13.450000       31.240000
  C5         5.980000       14.270000       29.660000
  H5         5.500000       14.880000       30.320000
  C1         9.330000       18.490000       25.680000
  C2         9.200000       19.639999       26.280001
  N1         8.160000       17.760000       25.809999
  C3b        7.220000       18.410000       26.580000
  N2         7.870000       19.629999       26.830000
  C4         7.210000       20.600000       27.690001
  C5b        5.840000       20.230000       27.950001
  C6         5.090000       21.040001       28.799999
  H1         4.010000       20.809999       28.860001
  C7         5.670000       22.180000       29.360001
  H2         4.940000       22.860001       29.809999
  C8         7.040000       22.520000       29.110001
  H3         7.400000       23.420000       29.570000
  C9         7.780000       21.709999       28.260000
  H4         8.770000       22.000000       28.190001
  C10       10.310000       20.600000       26.230000
  H5        10.130000       21.600000       26.620001
  C11       11.470000       20.280001       25.520000
  H6        12.220000       21.030001       25.670000
  C12       11.540000       19.120001       24.790001
  H7        12.570000       18.830000       24.559999
  C13       10.520000       18.200001       24.930000
  H8        10.660000       17.190001       24.510000
  C6         7.750000       16.750000       24.860001
  C1         6.640000       16.910000       24.049999
  H1         6.490000       17.879999       23.600000
  C2         6.080000       15.890000       23.309999
  H2         5.430000       16.139999       22.410000
  C3         6.540000       14.560000       23.459999
  H3         6.270000       13.750000       22.680000
  C4         7.640000       14.410000       24.370001
  H4         8.150000       13.500000       24.379999
  C5         8.300000       15.470000       25.000000
  H5         9.300000       15.190000       25.370001
  C1         7.120000       17.450001       31.670000
  C2         5.770000       17.400000       31.860001
  N1         7.380000       17.790001       30.309999
  C3c        6.180000       17.959999       29.580000
  N2         5.230000       17.700001       30.520000
  C4         3.930000       17.629999       30.129999
  C5c        3.740000       18.190001       28.840000
  C6         2.440000       18.309999       28.340000
  H1         2.260000       18.969999       27.549999
  C7         1.300000       17.889999       29.110001
  H2         0.360000       18.010000       28.709999
  C8         1.550000       17.330000       30.350000
  H3         0.700000       17.020000       30.860001
  C9         2.780000       17.209999       30.930000
  H4         2.940000       16.520000       31.719999
  C10        5.210000       17.240000       33.139999
  H5         4.180000       17.540001       33.419998
  C11        6.090000       16.940001       34.189999
  H6         5.690000       16.879999       35.250000
  C12        7.460000       16.850000       33.900002
  H7         8.210000       16.799999       34.730000
  C13        8.020000       17.240000       32.680000
  H8         9.080000       17.059999       32.540001
  C6         8.630000       17.690001       29.639999
  C1         8.830000       16.559999       28.870001
  H1         7.970000       15.980000       28.549999
  C2        10.170000       16.309999       28.400000
  H2        10.310000       15.480000       27.680000
  C3        11.200000       17.190001       28.700001
  H3        12.260000       16.969999       28.530001
  C4        10.940000       18.350000       29.459999
  H4        11.730000       19.090000       29.469999
  C5         9.650000       18.590000       29.940001
  H5         9.440000       19.459999       30.629999
  IR         6.350000       19.299999       16.680000
  C1         6.310000       23.180000       18.680000
  C2         6.010000       23.500000       17.410000
  N1         6.530000       21.830000       18.770000
  C3a        6.330000       21.170000       17.600000
  N2         6.030000       22.230000       16.760000
  C4         5.540000       21.889999       15.430000
  C5a        5.800000       20.559999       15.100000
  C6         5.180000       20.120001       13.950000
  H1         5.270000       19.110001       13.680000
  C7         4.230000       20.850000       13.160000
  H2         3.830000       20.320000       12.300000
  C8         3.980000       22.190001       13.520000
  H3         3.350000       22.780001       12.920000
  C9         4.640000       22.719999       14.640000
  H4         4.520000       23.740000       14.800000
  C10        5.720000       24.820000       17.070000
  H5         5.610000       24.990000       16.010000
  C11        5.700000       25.799999       18.080000
  H6         5.330000       26.730000       17.850000
  C12        5.960000       25.480000       19.420000
  H7         5.520000       26.129999       20.170000
  C13        6.290000       24.160000       19.690001
  H8         6.490000       23.850000       20.719999
  C6         7.080000       21.290001       19.900000
  C1         6.290000       20.840000       20.969999
  H1         5.210000       21.020000       20.910000
  C2         6.900000       20.190001       22.070000
  H2         6.390000       20.000000       23.030001
  C3         8.250000       19.959999       22.000000
  H3         8.710000       19.520000       22.870001
  C4         9.060000       20.389999       20.990000
  H4         9.980000       19.950001       20.920000
  C5         8.400000       21.070000       19.950001
  H5         9.020000       21.500000       19.110001
  C1         2.130000       18.219999       16.020000
  C2         2.910000       17.270000       15.340000
  N1         3.060000       18.980000       16.799999
  C3b        4.350000       18.620001       16.590000
  N2         4.250000       17.480000       15.730000
  C4         5.500000       16.809999       15.350000
  C5b        6.610000       17.650000       15.410000
  C6         7.850000       17.059999       15.040000
  H1         8.680000       17.650000       14.740000
  C7         7.940000       15.740000       14.700000
  H2         8.890000       15.350000       14.350000
  C8         6.850000       14.910000       14.760000
  H3         7.000000       13.830000       14.620000
  C9         5.630000       15.430000       15.030000
  H4         4.790000       14.710000       15.040000
  C10        2.190000       16.330000       14.520000
  H5         2.720000       15.630000       13.890000
  C11        0.810000       16.410000       14.460000
  H6         0.280000       16.090000       13.660000
  C12        0.100000       17.270000       15.240000
  H7        -1.020000       17.200001       15.160000
  C13        0.780000       18.240000       15.970000
  H8         0.320000       19.219999       16.170000
  C6         2.580000       20.260000       17.360001
  C1         1.840000       21.120001       16.549999
  H1         1.370000       20.790001       15.610000
  C2         1.810000       22.480000       16.850000
  H2         1.080000       23.160000       16.379999
  C3         2.480000       23.030001       17.920000
  H3         2.130000       24.070000       18.170000
  C4         3.170000       22.150000       18.760000
  H4         3.600000       22.500000       19.650000
  C5         3.210000       20.780001       18.459999
  H5         3.860000       20.020000       19.000000
  C1         8.150000       16.730000       19.809999
  C2         9.180000       17.430000       19.360001
  N1         6.960000       17.170000       19.070000
  C3c        7.280000       18.030001       18.070000
  N2         8.640000       18.200001       18.290001
  C4         9.280000       18.980000       17.280001
  C5c        8.420000       19.709999       16.430000
  C6         8.950000       20.469999       15.360000
  H1         8.270000       21.230000       14.930000
  C7        10.340000       20.450001       15.090000
  H2        10.740000       21.150000       14.420000
  C8        11.190000       19.660000       15.870000
  H3        12.280000       19.570000       15.770000
  C9        10.660000       18.889999       16.959999
  H4        11.330000       18.250000       17.490000
  C10       10.300000       17.400000       20.049999
  H5        11.030000       18.110001       19.709999
  C11       10.530000       16.680000       21.190001
  H6        11.480000       16.459999       21.530001
  C12        9.500000       15.910000       21.660000
  H7         9.680000       15.110000       22.350000
  C13        8.310000       15.970000       20.920000
  H8         7.620000       15.240000       21.129999
  C6         5.680000       16.520000       19.230000
  C1         5.520000       15.280000       18.629999
  H1         6.190000       14.830000       17.889999
  C2         4.350000       14.600000       18.799999
  H2         4.330000       13.580000       18.450001
  C3         3.260000       15.190000       19.469999
  H3         2.400000       14.700000       19.799999
  C4         3.400000       16.480000       19.980000
  H4         2.580000       17.000000       20.420000
  C5         4.620000       17.100000       19.940001
  H5         4.610000       18.190001       20.100000
