206
 generated by VMD
 Ir        0.309113        0.566067       -7.865343
 C        -0.816277       -1.065224       -3.970974
 C         0.244617       -0.228497       -3.720755
 N        -0.936729       -1.175873       -5.375017
 C        -0.000816       -0.375854       -6.031239
 N         0.736950        0.166515       -4.978559
 C         1.789951        1.037395       -5.347431
 C         1.636616        1.620461       -6.612312
 C         2.468281        2.699570       -6.957664
 H         2.370033        3.148182       -7.933775
 C         3.441830        3.167618       -6.076685
 H         4.038712        4.031776       -6.341581
 C         3.633343        2.547485       -4.842930
 H         4.409412        2.889622       -4.169909
 C         2.818092        1.473286       -4.480070
 H         3.075726        0.881317       -3.613241
 C         0.567619        0.102013       -2.391153
 H         1.327526        0.832619       -2.171709
 C        -0.175995       -0.418190       -1.331047
 H         0.085648       -0.177441       -0.307190
 C        -1.254429       -1.273079       -1.593996
 H        -1.818771       -1.690254       -0.770842
 C        -1.579350       -1.585411       -2.915462
 H        -2.427681       -2.216087       -3.108562
 C        -1.651318       -2.268784       -6.003828
 C        -0.987900       -3.077522       -6.941927
 H         0.068108       -2.947433       -7.106028
 C        -1.686234       -4.060875       -7.639528
 H        -1.191647       -4.613052       -8.428377
 C        -3.047199       -4.266914       -7.402395
 H        -3.577160       -5.049675       -7.942795
 C        -3.710785       -3.480530       -6.463593
 H        -4.774429       -3.606445       -6.310637
 C        -3.011318       -2.483917       -5.770769
 H        -3.539612       -1.857780       -5.056723
 C        -2.718433        3.671829       -7.576223
 C        -2.361935        3.635857       -8.911482
 N        -1.842659        2.818943       -6.890291
 C        -0.940529        2.221161       -7.751463
 N        -1.244740        2.774971       -8.986633
 C        -0.274948        2.507332      -10.003771
 C         0.803410        1.721123       -9.566467
 C         1.963001        1.652077      -10.343111
 H         2.825241        1.148048       -9.947891
 C         2.039139        2.301468      -11.578991
 H         2.945656        2.258587      -12.154224
 C         0.948219        3.046429      -12.050070
 H         1.007160        3.553001      -12.995592
 C        -0.202431        3.146908      -11.267765
 H        -1.028294        3.722885      -11.643003
 C        -3.168621        4.310318       -9.846392
 H        -2.971970        4.239822      -10.896420
 C        -4.303734        5.007492       -9.434372
 H        -4.963306        5.441208      -10.165573
 C        -4.644775        5.057461       -8.077539
 H        -5.513451        5.611282       -7.749517
 C        -3.847828        4.382999       -7.144930
 H        -4.115982        4.413704       -6.096670
 C        -1.644508        2.907249       -5.467146
 C        -0.591007        3.675827       -4.968128
 H         0.052479        4.213295       -5.647867
 C        -0.371887        3.753597       -3.590250
 H         0.496906        4.264351       -3.222797
 C        -1.227654        3.080952       -2.707857
 H        -1.119640        3.198875       -1.642622
 C        -2.281155        2.312366       -3.206881
 H        -2.904392        1.743469       -2.525902
 C        -2.489582        2.225517       -4.586525
 H        -3.323586        1.637905       -4.970781
 C        -2.027782       -2.045845      -10.500139
 C        -0.745934       -2.536606      -10.576353
 N        -1.984554       -0.888245       -9.682646
 C        -0.705956       -0.650581       -9.223059
 N         0.055996       -1.667732       -9.795290
 C         1.438210       -1.697708       -9.426413
 C         1.759083       -0.921860       -8.305298
 C         3.033749       -1.061218       -7.742088
 H         3.304916       -0.520309       -6.845552
 C         3.984829       -1.926834       -8.288502
 H         4.970661       -1.996422       -7.851019
 C         3.670391       -2.667793       -9.436850
 H         4.406448       -3.296471       -9.899441
 C         2.407379       -2.546600      -10.005892
 H         2.248405       -2.961235      -10.985895
 C        -0.511982       -3.745811      -11.262281
 H         0.474098       -4.184067      -11.304369
 C        -1.564857       -4.441170      -11.850958
 H        -1.382782       -5.371460      -12.360764
 C        -2.872272       -3.940590      -11.753523
 H        -3.690983       -4.536560      -12.115499
 C        -3.101078       -2.732117      -11.089342
 H        -4.111137       -2.346916      -11.032755
 C        -3.157799       -0.095490       -9.370184
 C        -3.533722        0.083660       -8.039700
 H        -2.877869       -0.222866       -7.249258
 C        -4.685925        0.813538       -7.729357
 H        -4.971745        0.946907       -6.693300
 C        -5.443527        1.395702       -8.741543
 H        -6.304096        1.996216       -8.491327
 C        -5.057709        1.238892      -10.070436
 H        -5.633411        1.715126      -10.852209
 C        -3.923054        0.490845      -10.393507
 H        -3.678577        0.308601      -11.428507
 Ir        0.309113        0.566071        6.837881
 C         4.195011       -0.737434        5.307402
 C         4.369984        0.578789        5.654169
 N         2.843906       -1.064308        5.546301
 C         2.131950        0.046959        5.993864
 N         3.091393        1.060833        6.021101
 C         2.582058        2.381958        6.219854
 C         1.196957        2.439194        6.428690
 C         0.545357        3.675468        6.316225
 H        -0.525768        3.703087        6.370340
 C         1.254681        4.847603        6.053808
 H         0.721287        5.786987        5.919416
 C         2.638283        4.800903        5.894838
 H         3.196983        5.702126        5.661062
 C         3.299191        3.572262        5.967867
 H         4.363922        3.568268        5.810312
 C         5.657196        1.139870        5.590052
 H         5.868294        2.092335        6.044859
 C         6.742733        0.383278        5.126928
 H         7.726727        0.829895        5.050184
 C         6.537018       -0.938576        4.736307
 H         7.349339       -1.504387        4.298826
 C         5.269691       -1.507286        4.846754
 H         5.125961       -2.539146        4.585222
 C         2.362976       -2.421227        5.537809
 C         1.264202       -2.768997        4.751974
 H         0.811760       -2.030037        4.100874
 C         0.768734       -4.080490        4.761522
 H        -0.069778       -4.340141        4.135363
 C         1.385792       -5.058212        5.542234
 H         1.018600       -6.071541        5.530745
 C         2.508041       -4.724434        6.315699
 H         3.021885       -5.484474        6.880854
 C         2.978909       -3.412209        6.323305
 H         3.845070       -3.158195        6.919405
 C         1.453751        0.677086       11.040117
 C         0.152058        1.106987       11.026323
 N         1.863377        0.550987        9.697432
 C         0.838825        0.870777        8.814863
 N        -0.203308        1.240898        9.659765
 C        -1.375938        1.725845        9.012564
 C        -1.440136        1.467834        7.631323
 C        -2.588287        1.861214        6.924002
 H        -2.644753        1.716034        5.858057
 C        -3.657524        2.489525        7.579161
 H        -4.521015        2.804771        7.015242
 C        -3.580551        2.742630        8.949785
 H        -4.369686        3.265923        9.463129
 C        -2.433193        2.380684        9.660475
 H        -2.309849        2.760441       10.660810
 C        -0.527271        1.258156       12.249292
 H        -1.574047        1.526707       12.287313
 C         0.132633        0.996151       13.457586
 H        -0.376152        1.172760       14.393557
 C         1.457966        0.574608       13.458292
 H         1.978325        0.389824       14.387373
 C         2.115749        0.419258       12.239569
 H         3.154961        0.102558       12.233553
 C         3.250904        0.457962        9.347837
 C         4.067028        1.575401        9.503271
 H         3.626202        2.534042        9.716528
 C         5.450687        1.458206        9.378851
 H         6.079769        2.301289        9.586630
 C         6.026268        0.213757        9.073641
 H         7.099522        0.121815        8.967012
 C         5.205547       -0.904411        8.894156
 H         5.635807       -1.847786        8.595133
 C         3.816750       -0.786491        9.040323
 H         3.183910       -1.645561        8.891962
 C        -2.165287       -2.996666        7.351755
 C        -2.584316       -2.444847        6.167688
 N        -1.069267       -2.234444        7.801264
 C        -0.779976       -1.194954        6.924532
 N        -1.698978       -1.372650        5.899611
 C        -1.461525       -0.588440        4.720320
 C        -0.514404        0.438881        4.886717
 C        -0.166431        1.210552        3.761538
 H         0.546402        2.005299        3.875772
 C        -0.723003        0.964714        2.507269
 H        -0.464531        1.585213        1.674032
 C        -1.662468       -0.066784        2.352007
 H        -2.124481       -0.236855        1.393400
 C        -2.024776       -0.839188        3.450842
 H        -2.699429       -1.670998        3.305483
 C        -3.741943       -2.970497        5.544001
 H        -4.182060       -2.456657        4.710241
 C        -4.416054       -4.057785        6.092356
 H        -5.301262       -4.446434        5.620394
 C        -3.948532       -4.631950        7.288626
 H        -4.471107       -5.473572        7.717443
 C        -2.823151       -4.101395        7.918325
 H        -2.462597       -4.558540        8.827951
 C        -0.492939       -2.425774        9.102392
 C        -1.169807       -1.955536       10.227926
 H        -1.996170       -1.277260       10.115816
 C        -0.751823       -2.361275       11.503416
 H        -1.247540       -1.949356       12.384039
 C         0.332333       -3.228149       11.655142
 H         0.586205       -3.624435       12.624887
 C         1.029964       -3.662773       10.528719
 H         1.907406       -4.292175       10.642069
 C         0.622673       -3.266121        9.251459
 H         1.137226       -3.624252        8.378088
