206
 generated by VMD
 Ir       38.912548      -16.161041      -45.643929
 C        39.986122      -13.556520      -42.311123
 C        38.767597      -13.070936      -42.732307
 N        40.191803      -14.814249      -42.881310
 C        39.202553      -15.119689      -43.867310
 N        38.258492      -14.054908      -43.617523
 C        37.071690      -14.187655      -44.368046
 C        37.119965      -15.154605      -45.420700
 C        35.970390      -15.287352      -46.185852
 H        36.005695      -16.020718      -46.998146
 C        34.783974      -14.566226      -45.841930
 H        33.887962      -15.009625      -46.235329
 C        34.778667      -13.710928      -44.734619
 H        33.812664      -13.326256      -44.349304
 C        35.877037      -13.525841      -43.935726
 H        35.801003      -13.014351      -42.953690
 C        38.222702      -11.830382      -42.232391
 H        37.384735      -11.265386      -42.587471
 C        38.952202      -11.112154      -41.305847
 H        38.510326      -10.198309      -40.871872
 C        40.200165      -11.519979      -40.919113
 H        40.658257      -11.009837      -40.081673
 C        40.780212      -12.723714      -41.384266
 H        41.717407      -13.096222      -40.913418
 C        41.006729      -15.832973      -42.284157
 C        40.515423      -16.407562      -41.101166
 H        39.432693      -16.475729      -40.958153
 C        41.272934      -17.362625      -40.458721
 H        40.831600      -17.571140      -39.503971
 C        42.509872      -17.733124      -40.920158
 H        43.134842      -18.258299      -40.259548
 C        43.061657      -17.075001      -42.031284
 H        44.082428      -17.337971      -42.359253
 C        42.245712      -16.138386      -42.713036
 H        42.614082      -15.750204      -43.580055
 C        37.188229      -20.055519      -44.700298
 C        37.323479      -20.090712      -45.996395
 N        37.512543      -18.793438      -44.230545
 C        37.944832      -17.955650      -45.235649
 N        37.769653      -18.772858      -46.364754
 C        38.184433      -18.257811      -47.660439
 C        38.488968      -16.849068      -47.596390
 C        38.947678      -16.222141      -48.752956
 H        39.030506      -15.120387      -48.706253
 C        39.086334      -16.958664      -49.931053
 H        39.220882      -16.333008      -50.818886
 C        38.801971      -18.363131      -49.971123
 H        38.922985      -18.847700      -50.920723
 C        38.342735      -18.980160      -48.815880
 H        38.224190      -20.001381      -48.926132
 C        36.987209      -21.326180      -46.715248
 H        36.978722      -21.290508      -47.802979
 C        36.502747      -22.428745      -46.006908
 H        36.409889      -23.277960      -46.653214
 C        36.247002      -22.332739      -44.662003
 H        36.191631      -23.310905      -44.174126
 C        36.657238      -21.192055      -44.000984
 H        36.639339      -21.186708      -42.898376
 C        36.972713      -18.243706      -43.006992
 C        36.103062      -17.167831      -43.005287
 H        35.325222      -17.157578      -43.754120
 C        35.754478      -16.468203      -41.869236
 H        34.792458      -15.860458      -41.856506
 C        36.399616      -16.733994      -40.637917
 H        35.952888      -16.351330      -39.642227
 C        37.358192      -17.801395      -40.686745
 H        37.723572      -18.176523      -39.784477
 C        37.595131      -18.605703      -41.806137
 H        38.092995      -19.555601      -41.550938
 C        43.024426      -17.719879      -46.226528
 C        43.148994      -16.376530      -46.429001
 N        41.649132      -18.025673      -46.007751
 C        40.845627      -16.862141      -46.056458
 N        41.765095      -15.884788      -46.286789
 C        41.359707      -14.588078      -46.252045
 C        39.946453      -14.479813      -46.321217
 C        39.369896      -13.210176      -46.421257
 H        38.386299      -13.126059      -46.764130
 C        40.179176      -12.021963      -46.467209
 H        39.714455      -11.108654      -46.556091
 C        41.549026      -12.189615      -46.371788
 H        42.091618      -11.304117      -46.385506
 C        42.196392      -13.389966      -46.310295
 H        43.189804      -13.450014      -45.942440
 C        44.369019      -15.799445      -46.824104
 H        44.467300      -14.822702      -47.339485
 C        45.500732      -16.627718      -46.815147
 H        46.488144      -16.223249      -47.200676
 C        45.334835      -17.970913      -46.444469
 H        46.164505      -18.706135      -46.602570
 C        44.087372      -18.580772      -46.283180
 H        44.077499      -19.604305      -45.925583
 C        41.126934      -19.248669      -45.504772
 C        40.829872      -19.285610      -44.155628
 H        40.697224      -18.351742      -43.618328
 C        40.552811      -20.576315      -43.575695
 H        40.190533      -20.596619      -42.529156
 C        40.567085      -21.721199      -44.359493
 H        40.543774      -22.739033      -43.954071
 C        40.840847      -21.629143      -45.740570
 H        40.623398      -22.516525      -46.321144
 C        41.133438      -20.386501      -46.308319
 H        41.449665      -20.302612      -47.390015
 Ir       38.912552      -16.161041      -34.408508
 C        40.554276      -18.422501      -30.969696
 C        41.657955      -17.985794      -31.688156
 N        39.438156      -18.135181      -31.704418
 C        39.725163      -17.426296      -32.860451
 N        41.097511      -17.425762      -32.868015
 C        41.794647      -16.944454      -34.074059
 C        41.007126      -15.915831      -34.683514
 C        41.670074      -15.185418      -35.675831
 H        41.124657      -14.380021      -36.161377
 C        42.955643      -15.598283      -36.095547
 H        43.487862      -14.942551      -36.764397
 C        43.681103      -16.547646      -35.397968
 H        44.737480      -16.574337      -35.635361
 C        43.109165      -17.277981      -34.365448
 H        43.492752      -18.277521      -34.209629
 C        42.894943      -18.018692      -31.137995
 H        43.862251      -17.827858      -31.601992
 C        43.055710      -18.619820      -29.881531
 H        43.998512      -18.781620      -29.423765
 C        41.950497      -19.097542      -29.166979
 H        42.078560      -19.522236      -28.239759
 C        40.711403      -18.988310      -29.749832
 H        39.872948      -19.338707      -29.094690
 C        38.055656      -18.452147      -31.339962
 C        37.312653      -19.051674      -32.355545
 H        37.750572      -19.342331      -33.264305
 C        35.990093      -19.303629      -32.057274
 H        35.111954      -19.299002      -32.733253
 C        35.429722      -19.104599      -30.803970
 H        34.395168      -19.380623      -30.647743
 C        36.164444      -18.488123      -29.809464
 H        35.739555      -18.413721      -28.785534
 C        37.485931      -18.145664      -30.110458
 H        38.041241      -17.677963      -29.326376
 C        38.811523      -12.200834      -32.560604
 C        38.750149      -11.893873      -33.864906
 N        39.024094      -13.552580      -32.402496
 C        38.977604      -14.232642      -33.614254
 N        38.831200      -13.181450      -34.533470
 C        38.637196      -13.563300      -35.874496
 C        38.529118      -14.952324      -36.094803
 C        38.300514      -15.420406      -37.387177
 H        37.831345      -16.385242      -37.542030
 C        38.353233      -14.605570      -38.565212
 H        38.242043      -15.023781      -39.531513
 C        38.477356      -13.240541      -38.304081
 H        38.131020      -12.532850      -38.993881
 C        38.651096      -12.648060      -37.041946
 H        38.515186      -11.556357      -37.059696
 C        38.675613      -10.574824      -34.245895
 H        38.474152      -10.269058      -35.277847
 C        38.657288       -9.571210      -33.308388
 H        38.884361       -8.578640      -33.605450
 C        38.703659       -9.808808      -31.932926
 H        38.913918       -9.000533      -31.261303
 C        38.743561      -11.174574      -31.585375
 H        39.008118      -11.545427      -30.611580
 C        39.942833      -14.091469      -31.431870
 C        41.298508      -13.839363      -31.591202
 H        41.704010      -13.108721      -32.254402
 C        42.122086      -14.304691      -30.561985
 H        43.155094      -14.066911      -30.776823
 C        41.659752      -14.933044      -29.414631
 H        42.257362      -15.572798      -28.768970
 C        40.277740      -15.282782      -29.294975
 H        39.927982      -15.639769      -28.353256
 C        39.441261      -14.889589      -30.329678
 H        38.326500      -15.019993      -30.186157
 C        34.639992      -16.650957      -34.726799
 C        35.104065      -17.651417      -35.514332
 N        35.683846      -16.023464      -34.148598
 C        36.911060      -16.601746      -34.498081
 N        36.551418      -17.635130      -35.358414
 C        37.594170      -18.525946      -35.630474
 C        38.904278      -17.987919      -35.523029
 C        39.975872      -18.709272      -36.049747
 H        40.925007      -18.157455      -36.149929
 C        39.824776      -19.975552      -36.543518
 H        40.687492      -20.597622      -36.699539
 C        38.585583      -20.630779      -36.497871
 H        38.494377      -21.628235      -36.893936
 C        37.493286      -19.901026      -36.051163
 H        36.511932      -20.246796      -36.360985
 C        34.243385      -18.547424      -35.981873
 H        34.558422      -19.228298      -36.738548
 C        32.906303      -18.604038      -35.501854
 H        32.285046      -19.430456      -35.770309
 C        32.409672      -17.624725      -34.633118
 H        31.393124      -17.613556      -34.376415
 C        33.288368      -16.603045      -34.365788
 H        32.886360      -15.747009      -33.775707
 C        35.415180      -14.887131      -33.328621
 C        35.696381      -13.573706      -33.815998
 H        36.011574      -13.503988      -34.927662
 C        35.551285      -12.416151      -33.037018
 H        35.584953      -11.452080      -33.470760
 C        35.238251      -12.607263      -31.701170
 H        35.486759      -11.782041      -31.068911
 C        35.087368      -13.926235      -31.155602
 H        35.132038      -13.942110      -30.085155
 C        35.119205      -15.051323      -31.949368
 H        35.106258      -16.091728      -31.490248
