206
 generated by VMD
 Ir      -48.112591       14.255268     -124.341156
 C       -50.949131       14.213808     -127.524994
 C       -51.242485       13.045708     -126.881104
 N       -50.068390       14.987003     -126.837555
 C       -49.672127       14.289446     -125.686996
 N       -50.466324       13.096024     -125.743546
 C       -50.285282       12.260075     -124.651520
 C       -49.053604       12.409069     -123.949463
 C       -48.661377       11.411276     -122.996750
 H       -47.624100       11.377039     -122.523682
 C       -49.578598       10.449203     -122.623489
 H       -49.310585        9.787428     -121.777832
 C       -50.804623       10.308643     -123.244934
 H       -51.536709        9.632067     -122.876022
 C       -51.196838       11.234529     -124.272018
 H       -52.176640       11.277195     -124.711517
 C       -52.253822       12.195503     -127.399994
 H       -52.600399       11.314991     -126.859360
 C       -52.886429       12.493248     -128.572830
 H       -53.647236       11.742943     -128.815750
 C       -52.539154       13.661652     -129.246582
 H       -53.062103       13.894730     -130.135010
 C       -51.607697       14.517565     -128.741318
 H       -51.482903       15.488625     -129.169174
 C       -50.012222       16.384945     -127.043457
 C       -51.120258       17.158340     -126.776230
 H       -52.107994       16.700443     -126.659164
 C       -51.059235       18.549364     -126.976807
 H       -51.931065       19.106775     -126.717194
 C       -49.933899       19.194365     -127.463013
 H       -49.649666       20.232237     -127.387970
 C       -48.786991       18.400511     -127.717178
 H       -47.931381       18.974215     -127.994659
 C       -48.827904       17.009188     -127.553970
 H       -48.214466       16.427078     -128.246964
 C       -49.536926       16.011913     -120.643585
 C       -48.392651       15.228315     -120.246078
 N       -49.821716       15.577145     -121.939148
 C       -48.820217       14.798021     -122.472504
 N       -47.908405       14.643772     -121.423538
 C       -46.666798       14.104723     -121.751923
 C       -46.471676       13.746986     -123.084198
 C       -45.202599       13.172741     -123.426956
 H       -44.995289       12.835178     -124.388763
 C       -44.192680       12.998043     -122.418716
 H       -43.278137       12.483952     -122.661041
 C       -44.373810       13.412331     -121.100769
 H       -43.636826       13.079977     -120.422913
 C       -45.613720       13.979963     -120.755646
 H       -45.592850       14.476374     -119.795410
 C       -48.122612       15.105043     -118.892387
 H       -47.441662       14.342789     -118.514267
 C       -48.832710       15.966030     -117.919052
 H       -48.611019       15.800928     -116.931030
 C       -49.863392       16.828447     -118.355103
 H       -50.262848       17.526981     -117.649567
 C       -50.220795       16.815739     -119.730637
 H       -50.982563       17.463675     -120.108505
 C       -51.183128       15.508184     -122.382431
 C       -51.604588       16.549595     -123.233444
 H       -50.858299       17.268589     -123.616470
 C       -52.753281       16.478222     -124.022629
 H       -53.303894       17.368637     -124.465454
 C       -53.444138       15.301056     -124.039734
 H       -54.331383       15.052208     -124.659943
 C       -53.116135       14.287312     -123.142883
 H       -53.718674       13.463034     -122.839554
 C       -51.979492       14.351467     -122.352097
 H       -51.665821       13.364178     -122.006607
 C       -45.986763       17.881186     -125.525467
 C       -45.507416       16.926338     -126.410782
 N       -46.871853       17.238621     -124.655624
 C       -46.917953       15.855398     -124.870041
 N       -46.053459       15.695045     -125.955963
 C       -45.947090       14.380106     -126.463638
 C       -46.994907       13.601542     -125.996185
 C       -47.174229       12.344950     -126.580490
 H       -48.041489       11.735750     -126.300964
 C       -46.319580       11.833235     -127.513626
 H       -46.487221       10.979448     -128.129700
 C       -45.163044       12.508923     -127.876205
 H       -44.356934       11.974663     -128.401611
 C       -44.942009       13.807632     -127.350082
 H       -44.191895       14.411703     -127.847900
 C       -44.727173       17.331236     -127.455612
 H       -44.292297       16.592094     -128.077499
 C       -44.368557       18.720169     -127.611069
 H       -43.851036       19.082054     -128.454330
 C       -44.882580       19.696075     -126.704422
 H       -44.495464       20.646704     -126.873108
 C       -45.761475       19.317041     -125.723618
 H       -46.205803       20.090778     -125.141891
 C       -47.360504       17.836700     -123.512756
 C       -46.785454       17.639431     -122.195038
 H       -45.717209       17.456270     -122.223434
 C       -47.270782       18.413494     -121.108025
 H       -46.784214       18.244785     -120.140656
 C       -48.375671       19.315027     -121.238998
 H       -48.658939       19.791864     -120.345978
 C       -48.873383       19.499659     -122.531052
 H       -49.491230       20.350672     -122.720642
 C       -48.438980       18.738834     -123.629532
 H       -48.867104       19.070890     -124.606903
 Ir      -48.112595       14.255270     -110.461044
 C       -46.308060       11.986034     -107.104767
 C       -45.585701       11.639158     -108.228226
 N       -47.261562       12.884853     -107.545052
 C       -47.251221       13.031893     -108.991592
 N       -46.219826       12.298500     -109.343231
 C       -45.963631       12.252729     -110.682632
 C       -46.622337       13.213514     -111.497421
 C       -46.370705       13.230310     -112.901352
 H       -46.946243       13.984137     -113.460907
 C       -45.582966       12.248713     -113.521378
 H       -45.369423       12.291389     -114.595337
 C       -44.976227       11.265059     -112.763817
 H       -44.377392       10.586994     -113.249741
 C       -45.130363       11.270226     -111.401276
 H       -44.606388       10.465250     -110.898529
 C       -44.425770       10.915720     -108.066376
 H       -43.643524       10.730103     -108.885849
 C       -43.999649       10.489519     -106.778793
 H       -43.091042       10.080132     -106.655739
 C       -44.822685       10.743134     -105.647202
 H       -44.635162       10.308184     -104.696808
 C       -46.009407       11.601046     -105.779053
 H       -46.678268       11.619106     -104.923958
 C       -48.406673       13.271111     -106.678955
 C       -49.454903       12.352043     -106.598755
 H       -49.363949       11.330116     -106.900253
 C       -50.618908       12.735580     -105.887360
 H       -51.538986       12.216909     -106.097435
 C       -50.647488       13.962690     -105.189865
 H       -51.464748       14.160635     -104.453598
 C       -49.614414       14.873034     -105.361145
 H       -49.631470       15.780355     -104.769989
 C       -48.501083       14.523479     -106.113480
 H       -47.606880       15.199772     -106.199692
 C       -45.586731       17.877342     -110.460892
 C       -46.335903       18.010828     -111.628235
 N       -45.979813       16.664108     -109.897102
 C       -46.908386       15.987474     -110.696732
 N       -47.152069       16.838167     -111.694107
 C       -48.151051       16.321264     -112.615921
 C       -48.788544       15.129974     -112.232086
 C       -49.754974       14.663614     -113.118042
 H       -50.105019       13.666067     -112.819260
 C       -50.284874       15.424339     -114.177765
 H       -51.122948       15.170687     -114.699188
 C       -49.763245       16.657446     -114.495819
 H       -50.075008       17.239798     -115.404541
 C       -48.690655       17.095825     -113.686325
 H       -48.247860       18.038328     -113.972214
 C       -46.085911       19.153044     -112.528152
 H       -46.589867       19.208033     -113.514664
 C       -45.098682       20.070625     -112.199478
 H       -44.892639       20.805227     -112.894905
 C       -44.349754       19.916382     -111.002640
 H       -43.563980       20.659468     -110.791733
 C       -44.591705       18.838545     -110.064125
 H       -43.999111       18.797693     -109.158493
 C       -45.504723       16.247240     -108.510956
 C       -45.940979       17.028519     -107.459152
 H       -46.792397       17.651197     -107.563850
 C       -45.288658       16.937449     -106.205086
 H       -45.610954       17.483778     -105.355057
 C       -44.141914       16.100899     -106.028000
 H       -43.817833       15.725220     -105.031342
 C       -43.740921       15.311190     -107.133522
 H       -42.911354       14.625341     -106.978516
 C       -44.405949       15.402563     -108.356956
 H       -44.183971       14.699802     -109.168716
 C       -51.454987       15.840900     -108.236435
 C       -51.781784       14.531973     -108.417862
 N       -50.395096       16.125486     -109.092270
 C       -49.843842       14.971807     -109.645477
 N       -50.741241       13.953787     -109.250381
 C       -50.423866       12.588026     -109.585144
 C       -49.361961       12.552528     -110.557755
 C       -49.154594       11.314598     -111.207092
 H       -48.648262       11.315184     -112.077576
 C       -49.964890       10.233101     -110.879700
 H       -49.801006        9.293900     -111.383530
 C       -50.952618       10.291470     -109.869995
 H       -51.663956        9.510185     -109.879913
 C       -51.217747       11.465317     -109.195030
 H       -51.800373       11.513468     -108.304459
 C       -52.987881       13.986250     -107.842102
 H       -53.119751       12.927036     -107.615433
 C       -53.795910       14.828571     -107.065903
 H       -54.756989       14.560818     -106.577293
 C       -53.440598       16.138403     -106.853058
 H       -54.147430       16.792997     -106.411713
 C       -52.300827       16.667875     -107.501892
 H       -51.862068       17.647703     -107.212013
 C       -50.112457       17.556818     -109.628937
 C       -50.808010       17.967371     -110.766983
 H       -51.676266       17.448698     -111.024109
 C       -50.478909       19.185410     -111.416107
 H       -51.192596       19.839363     -111.904678
 C       -49.377949       19.944162     -110.947296
 H       -49.091198       20.795193     -111.509186
 C       -48.752621       19.490591     -109.782463
 H       -47.956509       20.023705     -109.441147
 C       -49.147682       18.371826     -109.057205
 H       -48.563038       18.075869     -108.175217
