206
 generated by VMD
 Ir      100.698364       -7.619890      -26.168617
 C       100.893646      -11.031353      -28.883980
 C       101.051331       -9.920546      -29.755676
 N       100.533768      -10.561689      -27.633141
 C       100.381004       -9.150246      -27.513201
 N       100.698395       -8.749203      -28.907808
 C       100.651566       -7.356519      -29.161667
 C       100.307358       -6.606480      -28.015432
 C        99.875710       -5.308417      -28.189543
 H        99.449005       -4.749438      -27.354578
 C        99.814926       -4.728394      -29.437330
 H        99.252670       -3.835856      -29.567907
 C       100.273384       -5.523467      -30.540907
 H       100.166718       -5.065722      -31.574583
 C       100.629898       -6.830536      -30.416527
 H       100.759247       -7.401597      -31.318834
 C       101.603378      -10.105484      -31.016644
 H       101.657455       -9.323483      -31.772787
 C       102.196915      -11.360535      -31.251728
 H       103.000305      -11.397856      -31.996229
 C       102.071457      -12.440928      -30.434227
 H       102.612579      -13.346613      -30.659431
 C       101.348831      -12.237658      -29.238573
 H       101.305313      -13.051977      -28.558874
 C        99.935242      -11.448479      -26.626623
 C        98.577164      -11.755016      -26.534103
 H        97.909332      -11.135551      -27.113209
 C        98.128845      -12.684088      -25.604084
 H        97.054550      -12.706539      -25.519238
 C        98.966934      -13.327705      -24.704777
 H        98.521118      -13.899996      -23.857235
 C       100.348389      -12.975178      -24.680086
 H       100.979324      -13.350178      -23.882404
 C       100.795395      -12.064440      -25.647011
 H       101.820030      -11.753239      -25.922281
 C       104.960091       -6.944310      -26.174534
 C       104.434662       -5.942188      -25.369192
 N       103.898682       -7.584973      -26.893953
 C       102.684860       -7.015710      -26.417938
 N       103.035881       -5.974602      -25.560394
 C       102.028137       -5.207820      -24.902670
 C       100.755661       -5.839249      -24.993231
 C        99.678558       -5.342887      -24.179737
 H        98.714294       -5.789305      -24.319044
 C        99.942558       -4.296795      -23.332386
 H        99.145409       -3.930352      -22.735332
 C       101.180771       -3.723755      -23.282043
 H       101.455887       -3.023321      -22.531639
 C       102.189774       -4.130684      -24.137522
 H       103.001915       -3.466617      -24.211967
 C       105.265663       -5.098390      -24.634041
 H       104.857750       -4.194186      -24.085026
 C       106.662079       -5.177564      -24.791039
 H       107.298996       -4.806048      -24.022980
 C       107.251022       -6.172274      -25.683619
 H       108.300491       -6.155758      -25.902811
 C       106.351868       -7.108575      -26.343285
 H       106.741371       -7.928963      -26.998302
 C       104.039566       -7.991901      -28.265652
 C       104.203781       -6.989819      -29.246143
 H       104.200165       -5.978596      -28.848759
 C       104.460007       -7.366019      -30.596596
 H       104.822357       -6.639336      -31.303791
 C       104.645020       -8.705202      -31.005566
 H       105.024399       -8.983486      -31.956583
 C       104.589493       -9.649534      -29.992620
 H       104.695389      -10.653866      -30.131569
 C       104.296341       -9.309042      -28.658335
 H       104.575836      -10.192987      -27.993553
 C       101.041229      -10.320852      -22.636501
 C        99.692719      -10.130320      -22.853542
 N       101.668556       -9.572559      -23.613190
 C       100.805878       -8.852221      -24.471148
 N        99.580612       -9.226360      -23.975903
 C        98.408478       -8.508978      -24.528687
 C        98.655319       -7.913170      -25.765528
 C        97.613892       -7.530641      -26.557673
 H        97.831879       -7.079467      -27.569908
 C        96.312035       -7.713196      -26.168388
 H        95.560364       -7.645597      -26.939116
 C        96.024025       -8.223600      -24.921017
 H        94.990829       -8.153431      -24.553087
 C        97.072830       -8.623503      -24.082573
 H        96.803909       -9.125332      -23.219471
 C        98.778473      -10.864622      -22.000870
 H        97.777863      -10.537392      -21.805149
 C        99.232124      -11.637936      -20.963768
 H        98.475410      -12.009636      -20.356457
 C       100.641907      -11.752705      -20.732365
 H       101.114548      -12.178881      -19.825014
 C       101.526299      -11.175547      -21.652222
 H       102.583847      -11.127872      -21.513279
 C       103.068077       -9.488651      -23.599319
 C       103.729065       -8.760880      -22.578274
 H       103.183556       -8.482277      -21.700041
 C       105.119911       -8.537838      -22.530245
 H       105.655922       -7.934049      -21.846848
 C       105.895370       -9.145994      -23.521257
 H       106.952026       -8.969788      -23.478640
 C       105.209305       -9.864120      -24.500137
 H       105.821815      -10.409117      -25.178009
 C       103.792740      -10.065760      -24.641869
 H       103.264374      -10.461227      -25.475079
 Ir      100.698357       -7.619891      -14.840339
 C       103.108864      -11.135368      -14.139641
 C       102.444916      -10.972792      -12.944843
 N       102.788406      -10.101809      -15.029001
 C       101.950607       -9.201515      -14.324464
 N       101.739540       -9.757589      -13.108636
 C       100.887054       -9.104717      -12.164167
 C       100.291168       -7.958297      -12.766459
 C        99.790138       -6.995910      -11.904324
 H        99.195236       -6.218346      -12.312594
 C        99.911774       -7.105135      -10.524078
 H        99.726456       -6.232931       -9.899405
 C       100.383324       -8.247211      -10.006199
 H       100.661621       -8.326456       -9.006814
 C       100.879684       -9.235346      -10.782221
 H       101.419571      -10.021278      -10.359694
 C       102.560608      -11.986109      -11.985051
 H       102.303688      -11.818979      -10.907341
 C       103.214310      -13.241156      -12.184359
 H       103.612854      -13.621979      -11.269787
 C       103.861115      -13.322992      -13.369878
 H       104.487679      -14.135216      -13.582247
 C       103.821167      -12.291979      -14.300531
 H       104.376816      -12.508488      -15.215392
 C       103.557556       -9.893938      -16.224619
 C       104.879715       -9.509407      -16.178476
 H       105.365891       -9.344622      -15.215630
 C       105.564232       -9.283205      -17.388298
 H       106.633057       -9.157013      -17.405264
 C       104.958580       -9.454882      -18.619812
 H       105.611824       -9.568605      -19.483551
 C       103.593491       -9.758667      -18.672005
 H       103.110359       -9.981205      -19.600859
 C       102.902916       -9.949162      -17.471577
 H       101.832611       -9.714228      -17.549936
 C        96.799301       -9.536100      -14.759523
 C        96.552010       -8.183996      -14.793678
 N        98.170334       -9.709690      -14.971674
 C        98.827393       -8.468649      -15.137489
 N        97.796089       -7.547383      -15.027103
 C        98.151527       -6.137961      -15.135698
 C        99.516174       -5.921698      -14.926212
 C        99.903214       -4.591750      -14.931437
 H       100.959854       -4.255006      -14.927917
 C        99.080322       -3.516952      -15.308488
 H        99.352997       -2.524289      -15.532244
 C        97.762039       -3.746248      -15.458968
 H        97.139702       -3.031734      -15.918934
 C        97.271500       -5.061573      -15.416658
 H        96.213669       -5.373842      -15.613831
 C        95.208000       -7.712859      -14.372644
 H        94.991348       -6.675569      -14.164819
 C        94.260094       -8.675842      -13.952492
 H        93.252304       -8.329321      -13.646877
 C        94.527649      -10.043844      -14.108959
 H        93.857895      -10.781446      -13.745691
 C        95.780365      -10.469629      -14.532995
 H        95.982086      -11.536371      -14.598309
 C        98.807617      -11.034883      -15.065104
 C        99.419144      -11.389999      -16.308701
 H        99.582596      -10.680695      -17.092262
 C       100.081703      -12.621738      -16.425072
 H       100.830444      -12.842588      -17.214638
 C        99.933243      -13.583765      -15.451490
 H       100.179672      -14.625397      -15.631131
 C        99.341858      -13.287354      -14.241776
 H        99.312843      -14.019657      -13.429932
 C        98.811935      -12.023933      -14.015839
 H        98.170441      -11.865812      -13.171859
 C       101.863358       -6.245306      -18.775553
 C       102.920036       -5.952417      -17.969923
 N       100.898674       -6.823102      -17.955463
 C       101.335388       -6.971856      -16.694212
 N       102.599289       -6.399771      -16.706633
 C       103.338417       -6.444580      -15.543066
 C       102.489395       -6.446881      -14.408764
 C       103.079796       -6.006902      -13.190760
 H       102.480446       -5.901230      -12.221989
 C       104.442780       -5.693156      -13.056731
 H       104.959305       -5.604768      -12.105791
 C       105.267303       -5.753267      -14.188959
 H       106.130524       -5.156275      -14.231915
 C       104.674545       -6.125851      -15.383457
 H       105.379723       -6.114114      -16.197578
 C       104.122704       -5.453138      -18.485878
 H       104.752457       -4.859947      -17.881861
 C       104.155014       -5.273769      -19.890221
 H       105.114082       -5.278133      -20.407396
 C       103.040588       -5.472559      -20.716137
 H       103.063469       -5.006122      -21.693745
 C       101.921043       -5.971521      -20.124743
 H       101.063553       -5.982437      -20.795782
 C        99.595795       -7.095953      -18.366648
 C        98.725586       -6.064487      -18.292381
 H        98.955902       -5.086542      -17.916649
 C        97.472916       -6.174687      -18.905369
 H        96.729706       -5.470865      -18.849024
 C        97.078018       -7.289649      -19.610861
 H        96.113495       -7.256375      -20.023653
 C        98.006622       -8.325779      -19.665936
 H        97.568970       -9.259850      -19.869081
 C        99.270409       -8.260612      -19.071617
 H        99.966469       -9.122538      -19.283466
