206
 generated by VMD
  IR        26.209999        0.920000       17.059999
  C1        28.170000        2.470000       13.470000
  C2        28.510000        1.160000       13.530000
  N1        27.330000        2.690000       14.600000
  C3a       27.320000        1.580000       15.430000
  N2        28.090000        0.670000       14.710000
  C4        28.270000       -0.550000       15.410000
  C5a       27.320000       -0.770000       16.459999
  C6        27.260000       -2.020000       17.000000
  H1        26.940001       -1.960000       17.969999
  C7        28.150000       -3.080000       16.580000
  H2        27.740000       -4.070000       16.610001
  C8        29.110001       -2.880000       15.600000
  H3        29.900000       -3.580000       15.360000
  C9        29.200001       -1.630000       15.020000
  H4        30.100000       -1.420000       14.530000
  C10       29.120001        0.670000       12.400000
  H5        29.639999       -0.280000       12.470000
  C11       29.309999        1.410000       11.240000
  H6        29.950001        0.950000       10.530000
  C12       28.809999        2.720000       11.190000
  H7        28.870001        3.250000       10.220000
  C13       28.299999        3.280000       12.310000
  H8        27.990000        4.280000       12.420000
  C6        26.629999        3.950000       14.710000
  C1        25.530001        4.190000       13.930000
  H1        25.230000        3.470000       13.200000
  C2        24.879999        5.450000       13.960000
  H2        24.000000        5.680000       13.290000
  C3        25.420000        6.420000       14.820000
  H3        24.920000        7.350000       14.890000
  C4        26.520000        6.140000       15.640000
  H4        26.879999        6.910000       16.299999
  C5        27.100000        4.870000       15.620000
  H5        27.910000        4.650000       16.219999
  C1        23.059999       -1.370000       14.980000
  C2        22.860001       -1.570000       16.370001
  N1        24.120001       -0.460000       14.970000
  C3b       24.680000       -0.180000       16.190001
  N2        23.889999       -0.810000       17.049999
  C4        23.950001       -0.410000       18.350000
  C5b       25.200001       -0.020000       18.670000
  C6        25.760000       -0.100000       19.920000
  H1        26.600000        0.400000       20.230000
  C7        24.969999       -0.570000       20.980000
  H2        25.580000       -0.910000       21.770000
  C8        23.610001       -0.880000       20.730000
  H3        22.900000       -0.930000       21.500000
  C9        23.170000       -0.770000       19.410000
  H4        22.150000       -0.820000       19.290001
  C10       21.730000       -2.300000       16.740000
  H5        21.889999       -2.710000       17.670000
  C11       20.780001       -2.780000       15.790000
  H6        19.870001       -3.270000       16.129999
  C12       21.059999       -2.500000       14.430000
  H7        20.590000       -3.150000       13.750000
  C13       22.219999       -1.780000       14.040000
  H8        22.410000       -1.800000       12.980000
  C6        24.969999       -0.390000       13.820000
  C1        25.620001       -1.550000       13.470000
  H1        25.600000       -2.470000       14.060000
  C2        26.129999       -1.610000       12.160000
  H2        26.530001       -2.540000       11.790000
  C3        25.910000       -0.560000       11.240000
  H3        26.410000       -0.520000       10.260000
  C4        25.230000        0.570000       11.630000
  H4        25.110001        1.390000       10.960000
  C5        24.760000        0.700000       12.920000
  H5        24.090000        1.450000       13.210000
  C1        24.340000        4.660000       18.400000
  C2        25.610001        4.660000       19.040001
  N1        24.200001        3.340000       17.850000
  C3c       25.360001        2.600000       17.980000
  N2        26.219999        3.390000       18.730000
  C4        27.590000        2.940000       18.730000
  C5c       27.760000        1.610000       18.309999
  C6        28.879999        0.880000       18.660000
  H1        29.320000        0.290000       17.870001
  C7        29.860001        1.530000       19.410000
  H2        30.860001        1.070000       19.500000
  C8        29.700001        2.870000       19.830000
  H3        30.530001        3.370000       20.160000
  C9        28.590000        3.590000       19.469999
  H4        28.690001        4.670000       19.430000
  C10       26.129999        5.910000       19.430000
  H5        27.090000        6.130000       19.920000
  C11       25.379999        7.100000       19.379999
  H6        25.870001        7.840000       19.969999
  C12       24.100000        7.130000       18.820000
  H7        23.650000        8.010000       18.500000
  C13       23.590000        5.880000       18.350000
  H8        22.700001        5.760000       17.820000
  C6        22.900000        2.830000       17.299999
  C1        22.480000        2.990000       15.970000
  H1        23.150000        3.310000       15.210000
  C2        21.190001        2.570000       15.610000
  H2        20.850000        2.690000       14.500000
  C3        20.240000        2.060000       16.520000
  H3        19.290001        1.580000       16.230000
  C4        20.740000        1.890000       17.830000
  H4        20.120001        1.520000       18.610001
  C5        22.020000        2.250000       18.180000
  H5        22.230000        2.020000       19.230000
  IR        26.469999        4.070000        3.660000
  C1        30.510000        5.870000        3.560000
  C2        29.650000        6.910000        3.730000
  N1        29.700001        4.760000        3.290000
  C3a       28.350000        5.040000        3.460000
  N2        28.299999        6.410000        3.760000
  C4        26.990000        7.040000        3.750000
  C5a       25.990000        6.110000        4.010000
  C6        24.690001        6.700000        4.160000
  H1        23.820000        6.110000        4.440000
  C7        24.450001        8.110000        3.930000
  H2        23.440001        8.520000        3.660000
  C8        25.530001        8.980000        3.610000
  H3        25.340000       10.030000        3.430000
  C9        26.830000        8.420000        3.530000
  H4        27.410000        8.990000        2.790000
  C10       30.090000        8.200000        3.970000
  H5        29.450001        9.020000        3.600000
  C11       31.490000        8.440000        4.060000
  H6        31.920000        9.400000        4.140000
  C12       32.400002        7.370000        4.040000
  H7        33.380001        7.690000        4.350000
  C13       31.879999        6.080000        3.690000
  H8        32.580002        5.260000        3.410000
  C6        30.209999        3.560000        2.670000
  C1        29.840000        3.130000        1.380000
  H1        29.590000        3.900000        0.670000
  C2        30.340000        1.890000        0.910000
  H2        30.200001        1.430000       -0.120000
  C3        31.190001        1.140000        1.720000
  H3        31.510000        0.180000        1.300000
  C4        31.469999        1.490000        3.070000
  H4        32.169998        0.990000        3.570000
  C5        31.120001        2.780000        3.420000
  H5        31.780001        3.210000        4.160000
  C1        26.360001        4.370000        7.960000
  C2        25.260000        3.710000        7.690000
  N1        27.110001        4.490000        6.760000
  C3b       26.430000        3.960000        5.740000
  N2        25.290001        3.510000        6.270000
  C4        24.330000        2.920000        5.330000
  C5b       24.469999        3.450000        4.030000
  C6        23.400000        3.280000        3.110000
  H1        23.450001        3.850000        2.180000
  C7        22.340000        2.490000        3.480000
  H2        21.570000        2.210000        2.740000
  C8        22.190001        1.880000        4.740000
  H3        21.320000        1.580000        5.260000
  C9        23.219999        2.080000        5.650000
  H4        23.370001        1.380000        6.470000
  C10       24.360001        3.370000        8.750000
  H5        23.450001        2.870000        8.520000
  C11       24.639999        3.800000       10.070000
  H6        23.990000        3.610000       10.890000
  C12       25.750000        4.530000       10.350000
  H7        26.120001        4.760000       11.320000
  C13       26.559999        4.820000        9.270000
  H8        27.430000        5.310000        9.540000
  C6        28.540001        4.740000        6.810000
  C1        29.490000        3.790000        6.500000
  H1        29.120001        2.770000        6.350000
  C2        30.889999        4.030000        6.710000
  H2        31.620001        3.300000        6.480000
  C3        31.299999        5.230000        7.150000
  H3        32.270000        5.400000        7.550000
  C4        30.350000        6.220000        7.380000
  H4        30.740000        7.220000        7.800000
  C5        28.990000        5.950000        7.280000
  H5        28.200001        6.760000        7.440000
  C1        27.440001       -0.100000        2.780000
  C2        27.170000        0.420000        1.590000
  N1        27.350000        0.890000        3.700000
  C3c       26.930000        2.120000        3.160000
  N2        26.840000        1.850000        1.860000
  C4        26.260000        2.870000        1.070000
  C5c       26.379999        4.150000        1.600000
  C6        26.240000        5.230000        0.790000
  H1        25.980000        6.200000        1.180000
  C7        26.110001        5.070000       -0.580000
  H2        26.200001        5.920000       -1.310000
  C8        25.990000        3.740000       -1.140000
  H3        26.150000        3.620000       -2.230000
  C9        25.959999        2.650000       -0.260000
  H4        25.799999        1.680000       -0.670000
  C10       27.490000       -0.250000        0.390000
  H5        27.830000        0.350000       -0.470000
  C11       28.040001       -1.540000        0.460000
  H6        28.200001       -2.030000       -0.420000
  C12       28.180000       -2.100000        1.740000
  H7        28.299999       -3.170000        1.940000
  C13       27.940001       -1.390000        2.950000
  H8        28.020000       -1.920000        3.880000
  C6        27.469999        0.640000        5.090000
  C1        28.750000        0.410000        5.610000
  H1        29.660000        0.760000        5.060000
  C2        28.910000        0.080000        6.930000
  H2        29.680000       -0.550000        7.230000
  C3        27.850000       -0.030000        7.800000
  H3        28.059999       -0.350000        8.830000
  C4        26.610001        0.170000        7.280000
  H4        25.750000        0.210000        7.970000
  C5        26.379999        0.520000        5.950000
  H5        25.410000        0.460000        5.530000
