206
 generated by VMD
 Ir      133.971191       38.291729      -26.125359
 C       135.470871       35.414608      -29.056782
 C       134.747467       36.311485      -29.797649
 N       135.353912       35.795887      -27.701256
 C       134.571411       36.930840      -27.566441
 N       134.188568       37.236351      -28.866058
 C       133.323593       38.364384      -29.011505
 C       133.322205       39.229393      -27.911026
 C       132.643738       40.453636      -28.014553
 H       132.710648       41.175747      -27.223934
 C       131.914963       40.775566      -29.165318
 H       131.326752       41.675274      -29.183197
 C       131.884735       39.886909      -30.247337
 H       131.300888       40.120461      -31.122082
 C       132.586960       38.681320      -30.165897
 H       132.434967       37.941574      -30.940670
 C       134.688873       36.161484      -31.201065
 H       134.189697       36.894348      -31.816551
 C       135.346008       35.097279      -31.823097
 H       135.266876       34.958889      -32.894630
 C       136.078003       34.188065      -31.056252
 H       136.569855       33.351768      -31.523239
 C       136.148285       34.351727      -29.669468
 H       136.731842       33.653816      -29.092159
 C       135.835876       34.984322      -26.609203
 C       135.399399       33.655861      -26.480061
 H       134.722122       33.243111      -27.199665
 C       135.872452       32.865295      -25.425152
 H       135.567749       31.833630      -25.356388
 C       136.761200       33.406860      -24.486942
 H       137.104630       32.791618      -23.667961
 C       137.194336       34.721668      -24.617626
 H       137.866577       35.148075      -23.878315
 C       136.729156       35.517227      -25.668907
 H       136.937836       36.572235      -25.671814
 C       137.310638       41.129669      -26.248737
 C       136.360229       41.765190      -25.475586
 N       136.785324       39.878273      -26.612003
 C       135.506439       39.687412      -26.111397
 N       135.246689       40.873398      -25.416290
 C       133.951202       40.966705      -24.802216
 C       133.172699       39.802971      -24.874767
 C       132.007996       39.714634      -24.101303
 H       131.419479       38.804680      -24.108303
 C       131.619644       40.754059      -23.256264
 H       130.760178       40.642982      -22.617386
 C       132.365112       41.928802      -23.209946
 H       132.073364       42.731354      -22.551613
 C       133.524078       42.048119      -23.986053
 H       133.979645       43.015770      -24.073364
 C       136.657715       43.039627      -24.953075
 H       135.980850       43.556805      -24.307091
 C       137.893661       43.645233      -25.220219
 H       138.105865       44.633881      -24.836109
 C       138.849442       42.987389      -26.001896
 H       139.795486       43.454163      -26.215481
 C       138.544815       41.722614      -26.516693
 H       139.285828       41.223064      -27.133106
 C       137.585922       38.896317      -27.300053
 C       137.382828       38.690056      -28.670967
 H       136.534439       39.129192      -29.172146
 C       138.284195       37.891968      -29.389641
 H       138.147430       37.759594      -30.454712
 C       139.384109       37.308796      -28.739487
 H       140.110779       36.764603      -29.318466
 C       139.571472       37.505070      -27.375824
 H       140.396957       37.033623      -26.863178
 C       138.677963       38.308151      -26.653526
 H       138.853027       38.491486      -25.603836
 C       134.664001       36.087112      -22.414543
 C       133.713593       35.347294      -23.083874
 N       134.958847       37.216839      -23.203575
 C       134.206375       37.223621      -24.365261
 N       133.417175       36.072525      -24.266575
 C       132.335663       35.995430      -25.205547
 C       132.195740       37.150967      -25.996788
 C       130.966248       37.405025      -26.629581
 H       130.845642       38.311657      -27.202709
 C       129.895920       36.530865      -26.495316
 H       128.943771       36.763809      -26.956234
 C       130.045074       35.361671      -25.732857
 H       129.180466       34.751282      -25.525780
 C       131.268387       35.075302      -25.124920
 H       131.445358       34.076736      -24.768063
 C       133.265839       34.141033      -22.519478
 H       132.582703       33.495380      -23.043575
 C       133.758560       33.705566      -21.279320
 H       133.386108       32.795799      -20.845387
 C       134.706909       34.481361      -20.599930
 H       135.013245       34.213573      -19.599850
 C       135.172119       35.670296      -21.178303
 H       135.890320       36.268959      -20.638031
 C       135.614166       38.372215      -22.659260
 C       134.900208       39.236851      -21.832180
 H       133.879303       39.009293      -21.565010
 C       135.502029       40.414242      -21.367580
 H       134.956680       41.064629      -20.694012
 C       136.809601       40.730667      -21.744854
 H       137.270126       41.637276      -21.378414
 C       137.523560       39.866032      -22.571934
 H       138.534317       40.104927      -22.865799
 C       136.934143       38.684967      -23.030823
 H       137.488754       38.004921      -23.656071
 Ir      133.971191       38.291729      -15.840856
 C       136.422180       39.439346      -12.431743
 C       137.213867       39.683441      -13.520303
 N       135.264130       38.792187      -12.888471
 C       135.281189       38.629829      -14.268023
 N       136.514526       39.152161      -14.635468
 C       136.846405       39.037003      -16.024059
 C       135.796082       38.620071      -16.860565
 C       136.049835       38.433975      -18.230122
 H       135.256348       38.115204      -18.882168
 C       137.323486       38.650826      -18.755161
 H       137.498016       38.508350      -19.819893
 C       138.366791       39.049103      -17.932903
 H       139.336578       39.270042      -18.355774
 C       138.137512       39.236523      -16.563084
 H       138.978561       39.436348      -15.933158
 C       138.402374       40.428253      -13.346837
 H       139.009430       40.713017      -14.201171
 C       138.763550       40.908989      -12.090240
 H       139.631714       41.540981      -11.976348
 C       137.948120       40.646236      -10.979598
 H       138.214691       41.043098      -10.008857
 C       136.779510       39.911419      -11.154891
 H       136.138657       39.723274      -10.305127
 C       134.367493       38.131718      -11.958404
 C       134.765244       36.935814      -11.367640
 H       135.653503       36.427505      -11.717969
 C       134.026215       36.402863      -10.298858
 H       134.333466       35.471863       -9.848920
 C       132.877869       37.055828       -9.837173
 H       132.306824       36.642128       -9.021297
 C       132.468216       38.250412      -10.455443
 H       131.567169       38.739067      -10.111003
 C       133.203064       38.783360      -11.515145
 H       132.849976       39.665741      -12.019250
 C       133.405884       42.418179      -17.125477
 C       132.963699       41.655930      -18.177170
 N       133.695953       41.532730      -16.066830
 C       133.452362       40.211609      -16.421364
 N       132.949326       40.318268      -17.710312
 C       132.460266       39.117531      -18.277096
 C       132.946274       37.949242      -17.667671
 C       132.753922       36.722099      -18.317913
 H       133.108887       35.816071      -17.868000
 C       132.108215       36.660892      -19.562515
 H       132.029770       35.720860      -20.083172
 C       131.618378       37.820518      -20.151680
 H       131.209579       37.791504      -21.154949
 C       131.769684       39.050007      -19.498341
 H       131.224838       39.898457      -19.870609
 C       132.752380       42.258537      -19.430763
 H       132.478363       41.675766      -20.294819
 C       133.011703       43.621052      -19.608524
 H       132.961823       44.059654      -20.600517
 C       133.444656       44.396957      -18.528057
 H       133.736542       45.424976      -18.679806
 C       133.625427       43.800694      -17.277538
 H       133.873077       44.421791      -16.436646
 C       134.460526       41.955376      -14.921584
 C       135.723389       42.533642      -15.121266
 H       136.189102       42.507652      -16.095810
 C       136.396011       43.111912      -14.040437
 H       137.384857       43.533020      -14.201259
 C       135.839294       43.095905      -12.755481
 H       136.361557       43.556664      -11.931148
 C       134.594208       42.491646      -12.558614
 H       134.215179       42.348034      -11.566142
 C       133.895935       41.934380      -13.640262
 H       132.926117       41.496937      -13.492692
 C       130.416168       37.057640      -13.625611
 C       131.382599       36.132427      -13.290242
 N       130.980713       37.920116      -14.576615
 C       132.278976       37.565575      -14.892119
 N       132.499786       36.427670      -14.107636
 C       133.683929       35.694382      -14.453712
 C       134.366333       36.223362      -15.559608
 C       135.303558       35.432911      -16.228722
 H       135.751862       35.792702      -17.145226
 C       135.617645       34.148441      -15.775632
 H       136.361786       33.570919      -16.291496
 C       134.994354       33.650749      -14.620467
 H       135.271973       32.676132      -14.239234
 C       134.038055       34.417553      -13.960143
 H       133.639023       34.051746      -13.031940
 C       131.111496       35.197876      -12.270036
 H       131.857849       34.488956      -11.948028
 C       129.884811       35.215851      -11.591210
 H       129.701294       34.518173      -10.783891
 C       128.913483       36.158394      -11.939841
 H       127.965675       36.191959      -11.418756
 C       129.173386       37.074295      -12.965209
 H       128.396255       37.745911      -13.279382
 C       130.172195       38.815369      -15.378741
 C       129.405502       38.308754      -16.436871
 H       129.477356       37.258022      -16.690037
 C       128.569580       39.164356      -17.152531
 H       127.932800       38.770256      -17.930542
 C       128.488785       40.516582      -16.826397
 H       127.813324       41.165878      -17.357975
 C       129.255478       41.023193      -15.768273
 H       129.171906       42.060268      -15.498479
 C       130.107147       40.177582      -15.045358
 H       130.694839       40.565361      -14.234908
