206
 generated by VMD
  IR        47.160000       10.140000       36.110001
  C1        50.509998       12.720000       37.320000
  C2        51.080002       11.850000       36.490002
  N1        49.099998       12.410000       37.439999
  C3a       48.770000       11.310000       36.610001
  N2        50.020000       10.960000       36.130001
  C4        49.980000        9.750000       35.320000
  C5a       48.830002        8.970000       35.549999
  C6        48.900002        7.610000       35.310001
  H1        48.080002        6.970000       35.360001
  C7        50.060001        7.030000       34.810001
  H2        50.090000        6.010000       34.430000
  C8        51.200001        7.830000       34.580002
  H3        52.160000        7.320000       34.480000
  C9        51.119999        9.190000       34.799999
  H4        51.919998        9.870000       34.560001
  C10       52.380001       12.060000       35.990002
  H5        53.020000       11.210000       35.820000
  C11       53.110001       13.250000       36.340000
  H6        54.180000       13.280000       36.189999
  C12       52.450001       14.130000       37.200001
  H7        52.849998       15.130000       37.340000
  C13       51.200001       13.900000       37.770000
  H8        50.669998       14.750000       38.139999
  C6        48.459999       12.780000       38.680000
  C1        48.509998       11.840000       39.650002
  H1        49.150002       10.910000       39.529999
  C2        47.869999       11.950000       40.880001
  H2        47.720001       11.070000       41.490002
  C3        47.180000       13.130000       41.180000
  H3        46.939999       13.340000       42.270000
  C4        47.180000       14.160000       40.209999
  H4        46.549999       15.050000       40.430000
  C5        47.750000       13.960000       38.939999
  H5        47.650002       14.650000       38.169998
  C1        46.689999       11.320000       31.980000
  C2        45.799999       10.230000       32.150002
  N1        47.389999       11.430000       33.189999
  C3b       47.020000       10.460000       34.080002
  N2        46.099998        9.650000       33.340000
  C4        45.560001        8.550000       34.130001
  C5b       45.799999        8.580000       35.509998
  C6        45.180000        7.600000       36.290001
  H1        45.459999        7.400000       37.310001
  C7        44.400002        6.580000       35.700001
  H2        43.860001        5.870000       36.270000
  C8        44.160000        6.580000       34.360001
  H3        43.689999        5.740000       33.889999
  C9        44.730000        7.560000       33.580002
  H4        44.410000        7.580000       32.509998
  C10       44.810001        9.980000       31.209999
  H5        43.910000        9.530000       31.559999
  C11       44.810001       10.740000       30.090000
  H6        44.070000       10.530000       29.330000
  C12       45.810001       11.690000       29.820000
  H7        45.900002       12.210000       28.850000
  C13       46.790001       12.040000       30.780001
  H8        47.680000       12.590000       30.700001
  C6        48.480000       12.330000       33.410000
  C1        48.299999       13.530000       34.150002
  H1        47.349998       13.590000       34.700001
  C2        49.320000       14.470000       34.209999
  H2        49.049999       15.360000       34.790001
  C3        50.580002       14.270000       33.669998
  H3        51.439999       15.000000       33.810001
  C4        50.770000       13.120000       32.950001
  H4        51.630001       13.030000       32.380001
  C5        49.730000       12.140000       32.869999
  H5        49.869999       11.220000       32.419998
  C1        44.169998       12.780000       37.880001
  C2        44.599998       11.940000       38.869999
  N1        44.759998       12.350000       36.650002
  C3c       45.540001       11.190000       36.900002
  N2        45.310001       10.940000       38.259998
  C4        45.880001        9.750000       38.730000
  C5c       47.040001        9.310000       38.049999
  C6        47.840000        8.340000       38.570000
  H1        48.820000        8.250000       38.169998
  C7        47.369999        7.630000       39.740002
  H2        47.919998        6.850000       40.209999
  C8        46.180000        8.030000       40.419998
  H3        45.980000        7.790000       41.430000
  C9        45.490002        9.100000       39.930000
  H4        44.619999        9.480000       40.470001
  C10       44.150002       12.240000       40.130001
  H5        44.410000       11.630000       40.939999
  C11       43.250000       13.300000       40.389999
  H6        43.200001       13.800000       41.369999
  C12       42.759998       14.040000       39.349998
  H7        41.970001       14.750000       39.540001
  C13       43.250000       13.860000       38.070000
  H8        42.869999       14.450000       37.240002
  C6        44.220001       12.620000       35.389999
  C1        43.650002       11.600000       34.630001
  H1        43.720001       10.580000       34.930000
  C2        43.070000       11.830000       33.340000
  H2        42.529999       11.070000       32.790001
  C3        43.200001       13.170000       32.810001
  H3        42.820000       13.500000       31.840000
  C4        43.840000       14.220000       33.540001
  H4        44.200001       15.030000       32.970001
  C5        44.259998       13.940000       34.849998
  H5        44.889999       14.670000       35.310001
  IR        46.700001       20.350000       27.010000
  C1        46.540001       20.629999       31.379999
  C2        46.410000       21.959999       30.980000
  N1        46.740002       19.790001       30.280001
  C3a       46.590000       20.549999       29.070000
  N2        46.419998       21.920000       29.530001
  C4        46.369999       22.930000       28.559999
  C5a       46.660000       22.500000       27.219999
  C6        46.580002       23.389999       26.139999
  H1        47.200001       23.299999       25.270000
  C7        45.889999       24.639999       26.340000
  H2        45.459999       25.219999       25.480000
  C8        45.570000       25.040001       27.629999
  H3        45.240002       26.059999       27.840000
  C9        45.830002       24.260000       28.700001
  H4        45.500000       24.549999       29.660000
  C10       46.169998       23.010000       31.959999
  H5        46.000000       23.969999       31.700001
  C11       46.130001       22.639999       33.320000
  H6        45.730000       23.280001       34.090000
  C12       46.240002       21.320000       33.689999
  H7        46.560001       21.049999       34.700001
  C13       46.419998       20.320000       32.759998
  H8        46.410000       19.350000       32.980000
  C6        47.090000       18.430000       30.379999
  C1        46.180000       17.400000       29.920000
  H1        45.330002       17.709999       29.389999
  C2        46.430000       16.080000       30.260000
  H2        45.820000       15.280000       29.889999
  C3        47.400002       15.760000       31.170000
  H3        47.580002       14.720000       31.490000
  C4        48.220001       16.700001       31.680000
  H4        48.900002       16.490000       32.500000
  C5        48.070000       18.040001       31.260000
  H5        48.470001       18.840000       31.879999
  C1        42.570000       19.990000       25.719999
  C2        43.310001       20.049999       24.559999
  N1        43.459999       20.379999       26.780001
  C3b       44.740002       20.540001       26.330000
  N2        44.619999       20.500000       24.910000
  C4        45.820000       20.719999       24.160000
  C5b       46.970001       20.490000       24.889999
  C6        48.160000       20.790001       24.139999
  H1        49.090000       20.860001       24.680000
  C7        48.169998       21.250000       22.830000
  H2        49.169998       21.430000       22.420000
  C8        46.990002       21.459999       22.139999
  H3        46.840000       21.920000       21.100000
  C9        45.810001       21.180000       22.910000
  H4        44.939999       21.690001       22.670000
  C10       42.700001       19.719999       23.320000
  H5        43.310001       19.670000       22.420000
  C11       41.389999       19.240000       23.309999
  H6        40.860001       19.240000       22.400000
  C12       40.689999       19.090000       24.480000
  H7        39.730000       18.610001       24.469999
  C13       41.240002       19.520000       25.680000
  H8        40.650002       19.280001       26.530001
  C6        42.959999       20.990000       27.990000
  C1        43.419998       20.410000       29.180000
  H1        43.919998       19.440001       29.290001
  C2        43.070000       21.120001       30.350000
  H2        43.529999       20.879999       31.290001
  C3        42.169998       22.240000       30.320000
  H3        41.910000       22.809999       31.240000
  C4        41.750000       22.709999       29.110001
  H4        40.959999       23.430000       29.080000
  C5        42.110001       22.049999       27.889999
  H5        41.799999       22.370001       26.879999
  C1        47.340000       16.020000       26.740000
  C2        48.549999       16.559999       27.250000
  N1        46.540001       17.090000       26.410000
  C3c       47.160000       18.340000       26.799999
  N2        48.400002       17.959999       27.290001
  C4        49.169998       19.049999       27.830000
  C5c       48.770000       20.309999       27.400000
  C6        49.650002       21.410000       27.540001
  H1        49.590000       22.170000       26.820000
  C7        50.869999       21.200001       28.230000
  H2        51.660000       21.930000       28.190001
  C8        51.209999       19.959999       28.750000
  H3        51.910000       19.990000       29.469999
  C9        50.430000       18.860001       28.540001
  H4        50.610001       18.059999       29.160000
  C10       49.650002       15.640000       27.520000
  H5        50.610001       15.940000       27.930000
  C11       49.549999       14.310000       27.040001
  H6        50.520000       13.780000       27.100000
  C12       48.380001       13.850000       26.480000
  H7        48.400002       12.840000       26.190001
  C13       47.279999       14.720000       26.360001
  H8        46.410000       14.260000       25.860001
  C6        45.270000       16.990000       25.610001
  C1        44.169998       16.549999       26.260000
  H1        44.320000       16.340000       27.270000
  C2        43.029999       16.180000       25.549999
  H2        42.189999       15.840000       26.020000
  C3        43.009998       16.330000       24.150000
  H3        42.189999       15.970000       23.490000
  C4        44.080002       16.850000       23.469999
  H4        44.090000       16.780001       22.430000
  C5        45.209999       17.059999       24.190001
  H5        46.160000       17.170000       23.570000
