206
 generated by VMD
 Ir       73.264648       70.459335       -5.823676
 C        74.462509       66.243713       -5.701664
 C        74.842743       66.673302       -6.950134
 N        73.859879       67.339157       -5.055565
 C        73.837631       68.461784       -5.880016
 N        74.425545       68.024277       -7.061940
 C        74.446198       68.979111       -8.126819
 C        74.077515       70.281258       -7.774555
 C        74.279465       71.326859       -8.692829
 H        74.052933       72.341965       -8.421834
 C        74.818832       71.074814       -9.965015
 H        74.998306       71.890625      -10.646494
 C        75.139908       69.768768      -10.335120
 H        75.585434       69.573364      -11.298646
 C        74.957001       68.720169       -9.422169
 H        75.099487       67.714058       -9.773501
 C        75.537354       65.768997       -7.788081
 H        75.966141       66.092819       -8.728233
 C        75.808441       64.472267       -7.365460
 H        76.325989       63.783405       -8.018925
 C        75.402328       64.047180       -6.099375
 H        75.584862       63.032391       -5.776600
 C        74.728012       64.938599       -5.256718
 H        74.416183       64.619568       -4.276575
 C        73.150146       67.220604       -3.808439
 C        71.773590       66.966049       -3.818194
 H        71.261871       66.780006       -4.755017
 C        71.056747       66.957748       -2.620999
 H        69.984421       66.789749       -2.643116
 C        71.708199       67.195610       -1.401352
 H        71.142395       67.244812       -0.485196
 C        73.091385       67.428894       -1.393452
 H        73.592133       67.606537       -0.453563
 C        73.806778       67.427307       -2.590244
 H        74.873535       67.575531       -2.576950
 C        77.019997       72.422104       -4.765650
 C        76.147362       73.461212       -4.978574
 N        76.330498       71.227905       -5.019387
 C        75.019028       71.475479       -5.379604
 N        74.911896       72.858192       -5.339273
 C        73.610641       73.391602       -5.598513
 C        72.710648       72.468567       -6.156826
 C        71.500885       72.936951       -6.690841
 H        70.847702       72.252380       -7.214317
 C        71.156563       74.284927       -6.615354
 H        70.220306       74.626846       -7.038929
 C        72.026352       75.194183       -6.007064
 H        71.744720       76.230560       -5.907567
 C        73.244591       74.753967       -5.496183
 H        73.817062       75.423859       -4.877462
 C        76.579498       74.781868       -4.777492
 H        75.959900       75.619324       -5.061154
 C        77.878494       75.035248       -4.330720
 H        78.229431       76.050896       -4.210775
 C        78.756317       73.976349       -4.088096
 H        79.733688       74.164429       -3.665631
 C        78.327072       72.664078       -4.321137
 H        79.035843       71.858078       -4.187004
 C        77.018967       69.975769       -5.232614
 C        77.637199       69.734497       -6.454161
 H        77.703110       70.524246       -7.189041
 C        78.159668       68.463806       -6.724816
 H        78.691803       68.287567       -7.652328
 C        78.062653       67.444260       -5.783957
 H        78.328720       66.433037       -6.066005
 C        77.472977       67.692413       -4.539245
 H        77.394852       66.904160       -3.811335
 C        76.953201       68.963104       -4.258959
 H        76.532837       69.175293       -3.290009
 C        71.194656       70.876953       -2.005398
 C        70.205963       70.470154       -2.871181
 N        72.388229       70.946053       -2.733626
 C        72.193451       70.596687       -4.060166
 N        70.842377       70.275314       -4.128963
 C        70.415298       69.680603       -5.359412
 C        71.352570       69.744019       -6.400179
 C        70.991272       69.199615       -7.649021
 H        71.676254       69.278336       -8.473891
 C        69.757919       68.582825       -7.844173
 H        69.505676       68.165466       -8.812000
 C        68.840942       68.506523       -6.798696
 H        67.883430       68.023331       -6.946362
 C        69.169525       69.045517       -5.551096
 H        68.510895       68.861938       -4.723207
 C        68.883621       70.369003       -2.397691
 H        68.064980       70.187485       -3.082577
 C        68.577110       70.660278       -1.065998
 H        67.570831       70.559097       -0.701627
 C        69.597069       71.062592       -0.198568
 H        69.359436       71.341270        0.823131
 C        70.909882       71.165237       -0.669397
 H        71.684586       71.464493        0.017390
 C        73.522614       71.709976       -2.261603
 C        73.411346       73.094185       -2.199348
 H        72.522415       73.582916       -2.573854
 C        74.488586       73.855713       -1.742503
 H        74.373154       74.919052       -1.627167
 C        75.688072       73.230042       -1.382130
 H        76.545357       73.824707       -1.092229
 C        75.795212       71.835938       -1.453612
 H        76.745987       71.361877       -1.241765
 C        74.704300       71.077408       -1.885870
 H        74.778557       70.003296       -1.917014
 Ir       73.264648       70.459335        7.062106
 C        72.604935       74.759705        6.976562
 C        73.629547       74.586456        7.884221
 N        72.145012       73.477097        6.617113
 C        72.905289       72.490738        7.224867
 N        73.780807       73.185471        8.049607
 C        74.588005       72.374680        8.914209
 C        74.547516       70.994080        8.645179
 C        75.450333       70.150909        9.306535
 H        75.392929       69.081894        9.177215
 C        76.416824       70.672470       10.178527
 H        77.166748       70.013870       10.602272
 C        76.444901       72.034805       10.451029
 H        77.189133       72.429047       11.125567
 C        75.524292       72.882462        9.836181
 H        75.438934       73.890976       10.202693
 C        74.323456       75.727341        8.334012
 H        75.198532       75.635300        8.961589
 C        73.986961       77.001892        7.877757
 H        74.533409       77.876419        8.213020
 C        72.935028       77.158363        6.956967
 H        72.669296       78.132706        6.584766
 C        72.245255       76.027374        6.516404
 H        71.412788       76.151474        5.835383
 C        70.791962       73.272263        6.175068
 C        69.801392       72.979950        7.116516
 H        70.063004       72.913742        8.164789
 C        68.491425       72.729576        6.703961
 H        67.739891       72.464500        7.433221
 C        68.159821       72.773010        5.342988
 H        67.154739       72.562767        5.021719
 C        69.142303       73.076721        4.403798
 H        68.895401       73.110275        3.351413
 C        70.463242       73.335480        4.813288
 H        71.208145       73.621826        4.085881
 C        76.871330       70.408340        4.589808
 C        76.560547       69.084702        4.749372
 N        75.930878       71.161667        5.309578
 C        75.011749       70.340523        5.940320
 N        75.418518       69.043762        5.608559
 C        74.734055       67.988907        6.308688
 C        73.764420       68.410568        7.223517
 C        73.128128       67.464462        8.034777
 H        72.476471       67.784218        8.829566
 C        73.424835       66.101212        7.910298
 H        72.922958       65.381302        8.549003
 C        74.368607       65.672661        6.981933
 H        74.594360       64.624008        6.877291
 C        75.029312       66.615768        6.184613
 H        75.783875       66.275627        5.506423
 C        77.360161       68.112076        4.100121
 H        77.151260       67.063156        4.168903
 C        78.468063       68.505661        3.333542
 H        79.106964       67.756866        2.884969
 C        78.793945       69.858963        3.211289
 H        79.719177       70.159988        2.744976
 C        77.980675       70.811813        3.822823
 H        78.230560       71.863129        3.711437
 C        76.191422       72.523682        5.662464
 C        77.081894       72.800171        6.701074
 H        77.521233       71.990295        7.263561
 C        77.400818       74.131920        7.016870
 H        78.035461       74.336517        7.857029
 C        76.851013       75.172791        6.267216
 H        77.100952       76.198044        6.508845
 C        75.951012       74.897797        5.231267
 H        75.478973       75.713669        4.698689
 C        75.626701       73.577438        4.927358
 H        74.910110       73.356674        4.141260
 C        70.260712       69.450424        4.060000
 C        69.584076       69.365425        5.256342
 N        71.597137       69.732857        4.361324
 C        71.806129       69.838928        5.725425
 N        70.554474       69.588875        6.272609
 C        70.486359       69.616776        7.703793
 C        71.578384       70.251282        8.322637
 C        71.467026       70.615952        9.672458
 H        72.291679       71.122231       10.158381
 C        70.316620       70.338623       10.409385
 H        70.273575       70.619980       11.449378
 C        69.254211       69.669960        9.803026
 H        68.368706       69.438156       10.372455
 C        69.343643       69.288513        8.459338
 H        68.619278       68.599167        8.059595
 C        68.188667       69.133636        5.241473
 H        67.623718       69.122025        6.157388
 C        67.509232       68.970978        4.029649
 H        66.442291       68.802994        4.026793
 C        68.212997       69.041611        2.825726
 H        67.694839       68.896614        1.880320
 C        69.586670       69.276382        2.836288
 H        70.137955       69.279617        1.913805
 C        72.638954       69.782776        3.364017
 C        73.355713       68.623520        3.049429
 H        73.161499       67.712730        3.581357
 C        74.380981       68.668060        2.108663
 H        74.963486       67.776062        1.914675
 C        74.708534       69.868851        1.477162
 H        75.541138       69.911316        0.787541
 C        74.002739       71.036499        1.788683
 H        74.251389       71.961075        1.293455
 C        72.967949       70.993469        2.732110
 H        72.431610       71.890854        2.975494
