206
 generated by VMD
 Ir        0.475016       -0.296707       -7.498614
 C        -3.329460        0.591587       -9.468969
 C        -3.433348        1.200218       -8.239101
 N        -2.091810       -0.048290       -9.511150
 C        -1.379282        0.141518       -8.337446
 N        -2.232389        0.904816       -7.544672
 C        -1.785950        1.152626       -6.205948
 C        -0.602194        0.486420       -5.848879
 C        -0.126213        0.633781       -4.542346
 H         0.728914        0.060741       -4.212220
 C        -0.756374        1.475304       -3.615130
 H        -0.329472        1.610165       -2.643910
 C        -1.914959        2.154453       -3.989489
 H        -2.430124        2.784691       -3.272828
 C        -2.425266        1.994148       -5.274710
 H        -3.289942        2.571342       -5.551995
 C        -4.613230        1.922474       -7.941239
 H        -4.731213        2.459591       -7.016800
 C        -5.653423        2.006592       -8.866343
 H        -6.549259        2.571453       -8.642954
 C        -5.531847        1.366375      -10.105675
 H        -6.354446        1.369781      -10.809111
 C        -4.367165        0.660679      -10.413265
 H        -4.292486        0.160320      -11.361666
 C        -1.756159       -1.012581      -10.536818
 C        -0.836035       -0.676136      -11.525036
 H        -0.339140        0.284401      -11.488033
 C        -0.515158       -1.590195      -12.534607
 H         0.201984       -1.326736      -13.288795
 C        -1.122726       -2.862961      -12.550034
 H        -0.860014       -3.574520      -13.319164
 C        -2.052008       -3.199394      -11.557791
 H        -2.486223       -4.183212      -11.526752
 C        -2.375175       -2.272392      -10.553438
 H        -3.105223       -2.532234       -9.803759
 C         2.515036        3.562447       -7.753174
 C         3.339407        2.779793       -6.971146
 N         1.359133        2.808918       -8.022030
 C         1.450478        1.534779       -7.466303
 N         2.663260        1.556774       -6.794680
 C         2.931616        0.400757       -5.985352
 C         2.172369       -0.734352       -6.321005
 C         2.506586       -1.960823       -5.734608
 H         1.984789       -2.858761       -6.027071
 C         3.532221       -2.048565       -4.792918
 H         3.759802       -3.001682       -4.324868
 C         4.241751       -0.907757       -4.421273
 H         5.050001       -0.968632       -3.700774
 C         3.940203        0.324417       -5.007897
 H         4.403570        1.209942       -4.624701
 C         4.581774        3.306572       -6.555287
 H         5.277822        2.707161       -5.990647
 C         4.969381        4.597363       -6.916016
 H         5.927221        4.979118       -6.600731
 C         4.117743        5.377937       -7.710379
 H         4.415510        6.379288       -8.002134
 C         2.893686        4.851158       -8.134283
 H         2.285398        5.416378       -8.822330
 C         0.116043        3.409348       -8.439541
 C        -0.345362        3.213833       -9.737762
 H         0.270527        2.673183      -10.448946
 C        -1.598833        3.699326      -10.129189
 H        -1.953955        3.555145      -11.135918
 C        -2.387981        4.398960       -9.215759
 H        -3.358158        4.773167       -9.509405
 C        -1.923660        4.613110       -7.910908
 H        -2.519781        5.163082       -7.204457
 C        -0.671648        4.118305       -7.522797
 H        -0.315905        4.294067       -6.514655
 C         2.540613       -2.266312      -10.801363
 C         1.762659       -3.259892      -10.260080
 N         2.349039       -1.119801      -10.019493
 C         1.442656       -1.340767       -9.000015
 N         1.073713       -2.671528       -9.168390
 C         0.030970       -3.133820       -8.285175
 C        -0.317993       -2.251343       -7.264948
 C        -1.251240       -2.671673       -6.306574
 H        -1.534536       -1.998936       -5.509722
 C        -1.829689       -3.937191       -6.355164
 H        -2.504152       -4.268993       -5.578433
 C        -1.501135       -4.808796       -7.396966
 H        -1.901451       -5.813332       -7.413062
 C        -0.587460       -4.399868       -8.375013
 H        -0.517332       -4.977890       -9.284065
 C         1.783072       -4.540997      -10.859783
 H         1.247900       -5.369408      -10.437136
 C         2.561445       -4.784000      -11.996523
 H         2.536314       -5.746655      -12.476173
 C         3.349176       -3.758835      -12.540415
 H         3.942877       -3.933453      -13.426315
 C         3.340216       -2.490669      -11.939518
 H         3.915129       -1.697464      -12.371145
 C         3.214201        0.022999      -10.113867
 C         4.481054       -0.022331       -9.518032
 H         4.790037       -0.913296       -8.989056
 C         5.325830        1.079559       -9.609089
 H         6.327452        1.020187       -9.219051
 C         4.905008        2.238182      -10.268261
 H         5.561064        3.107582      -10.316467
 C         3.638147        2.283512      -10.864096
 H         3.292356        3.176556      -11.352568
 C         2.795866        1.166599      -10.792229
 H         1.840181        1.186085      -11.301424
 Ir        0.475016       -0.296703        7.759944
 C         1.087420       -0.129044       12.085598
 C         1.983187        0.787411       11.588692
 N         0.431360       -0.709755       10.990671
 C         0.894770       -0.202534        9.783491
 N         1.871950        0.720318       10.167629
 C         2.530416        1.413467        9.105995
 C         1.947905        1.228828        7.830461
 C         2.348722        2.065895        6.779102
 H         1.906622        1.947605        5.798160
 C         3.298124        3.070518        6.975778
 H         3.573179        3.725368        6.160173
 C         3.902269        3.217876        8.225979
 H         4.646891        3.991020        8.379242
 C         3.534121        2.386501        9.277111
 H         4.115625        2.404343       10.177578
 C         2.742556        1.558121       12.496199
 H         3.350821        2.374649       12.165287
 C         2.608023        1.365776       13.879995
 H         3.204138        1.940704       14.565203
 C         1.707876        0.421364       14.366953
 H         1.606886        0.252258       15.429453
 C         0.942266       -0.330704       13.470100
 H         0.246618       -1.065422       13.850718
 C        -0.602972       -1.687386       11.147486
 C        -0.293444       -3.044479       11.056444
 H         0.700769       -3.351494       10.758642
 C        -1.268618       -4.006027       11.322992
 H        -1.038225       -5.051956       11.176165
 C        -2.563940       -3.619808       11.681299
 H        -3.321909       -4.373203       11.870422
 C        -2.886374       -2.259090       11.767834
 H        -3.898113       -1.960381       11.976057
 C        -1.907446       -1.301163       11.509811
 H        -2.154104       -0.252144       11.594790
 C        -2.611864        2.754238        7.446990
 C        -2.551279        2.182358        6.193164
 N        -1.567759        2.202534        8.207037
 C        -0.861946        1.268372        7.476785
 N        -1.440102        1.304825        6.211162
 C        -0.701170        0.642960        5.183488
 C         0.324287       -0.199284        5.652605
 C         1.080959       -0.906696        4.714988
 H         1.917353       -1.513393        5.027341
 C         0.825720       -0.795673        3.339082
 H         1.413519       -1.367912        2.638555
 C        -0.180166        0.057964        2.889642
 H        -0.349707        0.181480        1.832950
 C        -0.946630        0.785561        3.804969
 H        -1.607630        1.542942        3.444332
 C        -3.547384        2.504135        5.244096
 H        -3.576767        2.003242        4.282617
 C        -4.583673        3.386925        5.570434
 H        -5.350737        3.615047        4.844230
 C        -4.633005        3.947937        6.849857
 H        -5.452034        4.600838        7.123737
 C        -3.644400        3.633404        7.781858
 H        -3.700113        4.061806        8.773407
 C        -0.974579        2.949963        9.283178
 C         0.021395        3.896492        8.989393
 H         0.245808        4.131374        7.959163
 C         0.716543        4.513962       10.024141
 H         1.500092        5.224380        9.793806
 C         0.436934        4.203537       11.351265
 H         0.985464        4.669754       12.151867
 C        -0.566736        3.266327       11.652395
 H        -0.779699        3.018501       12.683817
 C        -1.272493        2.639538       10.618353
 H        -2.067492        1.942062       10.847496
 C        -2.142756       -3.757214        7.992351
 C        -0.880165       -4.278522        7.907506
 N        -2.035810       -2.360275        7.788333
 C        -0.713827       -1.979626        7.614952
 N        -0.019659       -3.185463        7.653434
 C         1.385355       -3.107719        7.420436
 C         1.938723       -1.831291        7.660472
 C         3.327600       -1.688789        7.614416
 H         3.787340       -0.735985        7.840250
 C         4.159334       -2.767315        7.294895
 H         5.228773       -2.635193        7.267642
 C         3.606981       -4.016308        7.007463
 H         4.235624       -4.857174        6.772626
 C         2.213537       -4.184696        7.067977
 H         1.784319       -5.106979        6.712768
 C        -0.684916       -5.651611        8.152893
 H         0.295073       -6.095791        8.096098
 C        -1.766005       -6.477501        8.476711
 H        -1.611620       -7.532173        8.629122
 C        -3.051489       -5.930305        8.559168
 H        -3.896225       -6.570309        8.799416
 C        -3.248196       -4.566540        8.310469
 H        -4.234406       -4.155491        8.402813
 C        -3.166929       -1.539768        7.426755
 C        -3.742155       -1.677803        6.167802
 H        -3.330194       -2.382610        5.464853
 C        -4.877628       -0.937035        5.821165
 H        -5.319731       -1.055328        4.840219
 C        -5.441820       -0.052528        6.749351
 H        -6.321054        0.521042        6.488645
 C        -4.866598        0.085510        8.008307
 H        -5.305182        0.768051        8.725227
 C        -3.731123       -0.655262        8.354940
 H        -3.268436       -0.498138        9.308163
