206
 generated by VMD
 Ir      133.284729      -36.542862      -38.987579
 C       130.750336      -33.231110      -40.178741
 C       132.024811      -32.773121      -40.338638
 N       130.830109      -34.488834      -39.539310
 C       132.148010      -34.850006      -39.319088
 N       132.879395      -33.755531      -39.784500
 C       134.268753      -33.789070      -39.507248
 C       134.767395      -35.053726      -39.147648
 C       136.144409      -35.169727      -38.854641
 H       136.543381      -36.126633      -38.561794
 C       137.000931      -34.069611      -38.913101
 H       138.049347      -34.193565      -38.690464
 C       136.489807      -32.804955      -39.257072
 H       137.139679      -31.942799      -39.250172
 C       135.130371      -32.671944      -39.548843
 H       134.734741      -31.676029      -39.698277
 C       132.236115      -31.539154      -40.988853
 H       133.230438      -31.207912      -41.244404
 C       131.144226      -30.782593      -41.450912
 H       131.309845      -29.841957      -41.945648
 C       129.847290      -31.259996      -41.270569
 H       128.997879      -30.692020      -41.615849
 C       129.648468      -32.493965      -40.635979
 H       128.642685      -32.873924      -40.517525
 C       129.713348      -35.033070      -38.818535
 C       129.477478      -34.602356      -37.509811
 H       130.292236      -34.224144      -36.910698
 C       128.213272      -34.766273      -36.932289
 H       128.004242      -34.350533      -35.960396
 C       127.199661      -35.419052      -37.638943
 H       126.232796      -35.582596      -37.169563
 C       127.452118      -35.898209      -38.921623
 H       126.682053      -36.438751      -39.459492
 C       128.704910      -35.710068      -39.508263
 H       128.897339      -36.077362      -40.506195
 C       133.916351      -37.966286      -43.035797
 C       134.796906      -38.696129      -42.281822
 N       133.371674      -36.981361      -42.193626
 C       133.848328      -37.097549      -40.904755
 N       134.764465      -38.138947      -40.979614
 C       135.383881      -38.509636      -39.755928
 C       134.727020      -38.055630      -38.604103
 C       135.127411      -38.543083      -37.350517
 H       134.623810      -38.222572      -36.460213
 C       136.192200      -39.445717      -37.242767
 H       136.467407      -39.824638      -36.268204
 C       136.870392      -39.863297      -38.390350
 H       137.740967      -40.499496      -38.296852
 C       136.475708      -39.387955      -39.639381
 H       137.088135      -39.601501      -40.491455
 C       135.401428      -39.838203      -42.848480
 H       136.113876      -40.432808      -42.292641
 C       135.073349      -40.233521      -44.146706
 H       135.521790      -41.130707      -44.569252
 C       134.159454      -39.486755      -44.901718
 H       133.878418      -39.794243      -45.893723
 C       133.590698      -38.339783      -44.344894
 H       132.877502      -37.771896      -44.926926
 C       132.649033      -35.843452      -42.719231
 C       133.334290      -34.690742      -43.103745
 H       134.376846      -34.581825      -42.847385
 C       132.670731      -33.657207      -43.761307
 H       133.221680      -32.785992      -44.089256
 C       131.305603      -33.754570      -44.021786
 H       130.790924      -32.982563      -44.573326
 C       130.594666      -34.895172      -43.616814
 H       129.531128      -34.970070      -43.800350
 C       131.270172      -35.940819      -42.962513
 H       130.726624      -36.829041      -42.667061
 C       130.714737      -39.936668      -38.006477
 C       131.038788      -39.371719      -36.801029
 N       131.232635      -39.100403      -39.000530
 C       131.896057      -38.002228      -38.471020
 N       131.723251      -38.170380      -37.099174
 C       132.126862      -37.064987      -36.290833
 C       132.973831      -36.142738      -36.919884
 C       133.370422      -34.998711      -36.219521
 H       134.056686      -34.299629      -36.669754
 C       132.904022      -34.757607      -34.928452
 H       133.220703      -33.858925      -34.407005
 C       132.051361      -35.667740      -34.303955
 H       131.740036      -35.509190      -33.272964
 C       131.671295      -36.818985      -34.978348
 H       130.999054      -37.505859      -34.491310
 C       130.734299      -40.071526      -35.623848
 H       131.065918      -39.696091      -34.668247
 C       130.060974      -41.295151      -35.662270
 H       129.826813      -41.813309      -34.748821
 C       129.698975      -41.848087      -36.897995
 H       129.097961      -42.734467      -36.942684
 C       130.036835      -41.165192      -38.074142
 H       129.728577      -41.576958      -39.023888
 C       131.193176      -39.475937      -40.388268
 C       132.173523      -40.328651      -40.898071
 H       133.056519      -40.549400      -40.308449
 C       132.020782      -40.907928      -42.158710
 H       132.799591      -41.542564      -42.560669
 C       130.890701      -40.641800      -42.932732
 H       130.794098      -41.058090      -43.918259
 C       129.896530      -39.786682      -42.421165
 H       128.992996      -39.616867      -42.988785
 C       130.049271      -39.207397      -41.160530
 H       129.251801      -38.613991      -40.735058
 Ir      133.284729      -36.542862      -28.649467
 C       133.335815      -40.812660      -27.815435
 C       132.046432      -40.560860      -28.230406
 N       133.973801      -39.564728      -27.690069
 C       133.153656      -38.526199      -28.050383
 N       131.943237      -39.152077      -28.351154
 C       130.901016      -38.295944      -28.786366
 C       131.345795      -37.066231      -29.301413
 C       130.445862      -36.266029      -30.019688
 H       130.796600      -35.366257      -30.481834
 C       129.114594      -36.654228      -30.173805
 H       128.439194      -36.015900      -30.725677
 C       128.659973      -37.847519      -29.615446
 H       127.623291      -38.140495      -29.687986
 C       129.554794      -38.664726      -28.914043
 H       129.169250      -39.528084      -28.377319
 C       131.199615      -41.639626      -28.522444
 H       130.216034      -41.469719      -28.923655
 C       131.659775      -42.953182      -28.398273
 H       131.031998      -43.776886      -28.681820
 C       132.966217      -43.200089      -27.969694
 H       133.312027      -44.213108      -27.847214
 C       133.806778      -42.121323      -27.669840
 H       134.828705      -42.322845      -27.378763
 C       135.226471      -39.399040      -26.997334
 C       135.230682      -39.317032      -25.599348
 H       134.328552      -39.507011      -25.039913
 C       136.409348      -38.979305      -24.927286
 H       136.418457      -38.919579      -23.858053
 C       137.587646      -38.745411      -25.650137
 H       138.486847      -38.442360      -25.137144
 C       137.587250      -38.849239      -27.045065
 H       138.493225      -38.681076      -27.601446
 C       136.402863      -39.174854      -27.721689
 H       136.384216      -39.200657      -28.798525
 C       135.030548      -37.163750      -32.553043
 C       135.028564      -35.798038      -32.388306
 N       134.287476      -37.718979      -31.495619
 C       133.866180      -36.741081      -30.629171
 N       134.257706      -35.550377      -31.225103
 C       133.639893      -34.393784      -30.669052
 C       133.123291      -34.565079      -29.379679
 C       132.502289      -33.481152      -28.749399
 H       132.125885      -33.594391      -27.744757
 C       132.365936      -32.252644      -29.395601
 H       131.828735      -31.450119      -28.915943
 C       132.873077      -32.088650      -30.692530
 H       132.781525      -31.129065      -31.187822
 C       133.504059      -33.153164      -31.327627
 H       133.843872      -33.030308      -32.348675
 C       135.772964      -34.992741      -33.265556
 H       135.816498      -33.918053      -33.141247
 C       136.524536      -35.577370      -34.290619
 H       137.078644      -34.958908      -34.987087
 C       136.530365      -36.964897      -34.452301
 H       137.079407      -37.421028      -35.255173
 C       135.772675      -37.755680      -33.585659
 H       135.763031      -38.835175      -33.721306
 C       133.524567      -38.933266      -31.682314
 C       132.179871      -38.834274      -32.039082
 H       131.749908      -37.862762      -32.254295
 C       131.376862      -39.970818      -32.078644
 H       130.322815      -39.875977      -32.305786
 C       131.927277      -41.225761      -31.780075
 H       131.317322      -42.107338      -31.844685
 C       133.271973      -41.324753      -31.423306
 H       133.677185      -42.281654      -31.138273
 C       134.078217      -40.180908      -31.368368
 H       135.104507      -40.253838      -31.048225
 C       137.006531      -35.274818      -26.715305
 C       136.112915      -35.425316      -25.688459
 N       136.326202      -35.566315      -27.910833
 C       135.008667      -35.915127      -27.670164
 N       134.895813      -35.828491      -26.288834
 C       133.610809      -36.155022      -25.766300
 C       132.581146      -36.056313      -26.716066
 C       131.255539      -36.065289      -26.264332
 H       130.461731      -35.834835      -26.961876
 C       130.948700      -36.274948      -24.922693
 H       129.917191      -36.290855      -24.594473
 C       131.977753      -36.482841      -23.998993
 H       131.743881      -36.751019      -22.970171
 C       133.305389      -36.408318      -24.410734
 H       134.101685      -36.658184      -23.724003
 C       136.499588      -35.073547      -24.381849
 H       135.820923      -35.173019      -23.554502
 C       137.775848      -34.564056      -24.143694
 H       138.020157      -34.164497      -23.168215
 C       138.691986      -34.435371      -25.190924
 H       139.663055      -34.011402      -25.017218
 C       138.304779      -34.799255      -26.485167
 H       139.041000      -34.767548      -27.279383
 C       136.862640      -35.135429      -29.171576
 C       136.739136      -33.787663      -29.538828
 H       136.050446      -33.150249      -29.000963
 C       137.474701      -33.271259      -30.602255
 H       137.339020      -32.250843      -30.902481
 C       138.363281      -34.097725      -31.300447
 H       138.930115      -33.717125      -32.140301
 C       138.485443      -35.443089      -30.947065
 H       139.174133      -36.080498      -31.484928
 C       137.726593      -35.964390      -29.889435
 H       137.798431      -37.014114      -29.652966
