206
 generated by VMD
 Ir       12.103079     -143.726837        4.208996
 C        16.449863     -143.932495        4.690826
 C        16.231388     -144.277008        3.410955
 N        15.173492     -143.836151        5.318916
 C        14.162893     -143.925293        4.429844
 N        14.803482     -144.342682        3.222101
 C        14.040327     -145.136414        2.374580
 C        12.623438     -144.864899        2.504608
 C        11.799268     -145.091400        1.372070
 H        10.722366     -145.103012        1.545113
 C        12.266892     -145.530792        0.154383
 H        11.505829     -145.833038       -0.580688
 C        13.615322     -145.780106        0.009516
 H        13.881707     -146.350647       -0.866846
 C        14.470438     -145.692322        1.142151
 H        15.482788     -145.918488        1.099842
 C        17.322317     -144.282990        2.499943
 H        17.235512     -144.562622        1.471176
 C        18.598555     -143.919403        2.877338
 H        19.368238     -143.674713        2.091516
 C        18.830124     -143.627457        4.186628
 H        19.724598     -143.153046        4.442463
 C        17.759954     -143.657166        5.177610
 H        17.880749     -143.253220        6.114229
 C        15.045839     -143.770615        6.740463
 C        14.701786     -144.884216        7.477041
 H        14.721607     -145.918198        7.038086
 C        14.527264     -144.682800        8.880098
 H        14.113571     -145.517227        9.405426
 C        14.797651     -143.451263        9.515669
 H        14.837320     -143.279434       10.607361
 C        15.128519     -142.357224        8.750040
 H        15.565018     -141.443527        9.100662
 C        15.220781     -142.497726        7.305481
 H        15.136391     -141.624573        6.629103
 C        11.762465     -140.379196        1.354574
 C        10.466001     -140.678314        1.658897
 N        12.554495     -141.269608        2.089663
 C        11.878633     -142.199890        2.791576
 N        10.523119     -141.853012        2.481653
 C         9.525965     -142.845886        2.786390
 C         9.998419     -143.818298        3.680372
 C         9.143827     -144.821808        4.113409
 H         9.437334     -145.561768        4.859968
 C         7.808618     -144.780457        3.724436
 H         7.312988     -145.696838        3.925617
 C         7.356801     -143.874832        2.790285
 H         6.310184     -143.780518        2.523829
 C         8.234156     -142.896545        2.308828
 H         7.818962     -142.150543        1.634068
 C         9.495814     -139.796295        1.416445
 H         8.451017     -140.058197        1.464493
 C         9.854807     -138.514786        0.983486
 H         9.045607     -137.823853        0.837812
 C        11.163795     -138.173920        0.710791
 H        11.432304     -137.281036        0.187948
 C        12.183622     -139.145126        0.880568
 H        13.084629     -139.046951        0.226618
 C        13.962841     -141.230103        2.033096
 C        14.753429     -140.685364        3.014992
 H        14.279882     -140.378021        3.893967
 C        16.108631     -140.458160        2.763369
 H        16.623079     -139.919662        3.534052
 C        16.706358     -140.836823        1.521496
 H        17.767366     -140.764679        1.249550
 C        15.872213     -141.370377        0.548403
 H        16.271940     -141.472961       -0.445126
 C        14.512905     -141.572525        0.816015
 H        13.869270     -142.054672        0.186525
 C        11.253963     -141.623993        7.957138
 C        11.168064     -142.939835        8.251379
 N        11.413651     -141.539627        6.571646
 C        11.475256     -142.810242        5.970013
 N        11.349682     -143.647736        7.061895
 C        11.340769     -145.047028        6.775011
 C        11.995996     -145.367447        5.550465
 C        12.042442     -146.722702        5.208843
 H        12.637789     -146.991333        4.338034
 C        11.409550     -147.646912        6.024845
 H        11.650263     -148.673920        5.931805
 C        10.764038     -147.263138        7.171364
 H        10.241478     -147.860764        7.879375
 C        10.732716     -145.990997        7.534504
 H        10.130516     -145.666962        8.391796
 C        11.210539     -143.407318        9.613533
 H        10.831696     -144.404358        9.802189
 C        11.312017     -142.467682       10.625359
 H        11.362127     -142.759247       11.676395
 C        11.464340     -141.129837       10.313694
 H        11.740997     -140.449768       11.045456
 C        11.413464     -140.756470        8.984251
 H        11.096619     -139.710495        8.971724
 C        11.298022     -140.217117        5.896294
 C        12.479992     -139.624237        5.515175
 H        13.343558     -139.697144        6.132542
 C        12.431087     -138.499634        4.660435
 H        13.385815     -138.183838        4.279707
 C        11.228681     -137.950653        4.317167
 H        11.239107     -137.033295        3.633408
 C        10.031045     -138.407104        4.799484
 H         9.103252     -137.924347        4.592970
 C        10.024464     -139.593170        5.548670
 H         9.114241     -140.134979        5.675730
 Ir       12.103079     -143.726837       19.122421
 C         8.267744     -145.762512       19.262161
 C         9.177591     -146.744537       19.458149
 N         8.976547     -144.655960       18.874168
 C        10.331482     -144.776810       18.904964
 N        10.489100     -146.114670       19.296234
 C        11.749649     -146.600281       19.573921
 C        12.736643     -145.663406       19.710728
 C        14.064377     -146.090744       20.008217
 H        14.894672     -145.343246       19.951164
 C        14.421694     -147.460648       20.144550
 H        15.403212     -147.621368       20.423283
 C        13.396673     -148.397339       20.035198
 H        13.586119     -149.466064       19.900585
 C        12.080704     -147.964478       19.732111
 H        11.425211     -148.746689       19.550760
 C         8.698389     -147.983551       20.037546
 H         9.266577     -148.849426       20.076439
 C         7.339230     -148.091187       20.344788
 H         6.851680     -149.061462       20.313526
 C         6.473145     -147.003479       20.219601
 H         5.588846     -146.985519       20.808496
 C         6.960515     -145.850616       19.608402
 H         6.276186     -145.189819       19.016752
 C         8.218142     -143.534424       18.329744
 C         8.644224     -142.952896       17.153193
 H         9.415854     -143.442230       16.560795
 C         8.180681     -141.712204       16.666683
 H         8.653074     -141.290283       15.752010
 C         7.184629     -141.021912       17.449497
 H         6.964623     -139.948608       17.381516
 C         6.684404     -141.664734       18.552927
 H         5.763711     -141.411285       19.082531
 C         7.246267     -142.841675       19.058619
 H         7.140052     -143.152222       20.155514
 C        11.896797     -142.754059       23.342392
 C        13.131783     -142.366318       22.996031
 N        11.318495     -143.280396       22.217337
 C        12.087126     -143.156555       21.114033
 N        13.204023     -142.498291       21.589237
 C        14.308922     -142.371429       20.623835
 C        14.110168     -143.017868       19.427958
 C        15.152761     -142.951736       18.504147
 H        15.219158     -143.574844       17.602463
 C        16.322912     -142.213928       18.812193
 H        17.019073     -142.088806       17.950857
 C        16.437996     -141.547958       20.012249
 H        17.180656     -140.765747       20.215988
 C        15.414114     -141.591888       20.943607
 H        15.745146     -141.216034       21.865648
 C        14.025396     -141.813782       23.898392
 H        15.098286     -141.705017       23.740980
 C        13.536816     -141.573654       25.197674
 H        14.293819     -141.210297       25.948551
 C        12.247131     -142.027618       25.596197
 H        11.987728     -142.008347       26.606163
 C        11.401937     -142.566498       24.666109
 H        10.377884     -142.954788       24.954971
 C        10.321220     -144.304382       22.401939
 C         9.029087     -143.921295       22.689398
 H         8.738522     -142.908356       22.735344
 C         8.111067     -144.824249       23.248793
 H         7.244606     -144.351807       23.768236
 C         8.525242     -146.141022       23.485348
 H         7.812280     -146.745270       23.929720
 C         9.829851     -146.518417       23.229692
 H        10.052126     -147.560059       23.530031
 C        10.750563     -145.668213       22.659821
 H        11.716196     -146.072937       22.397429
 C        11.609653     -139.824234       17.385525
 C        11.760731     -140.672958       16.314941
 N        11.598175     -140.689636       18.475361
 C        11.740200     -141.964432       18.163580
 N        11.856199     -141.990707       16.827597
 C        12.088682     -143.231140       16.203827
 C        12.509972     -144.186859       17.096035
 C        13.237324     -145.282867       16.635826
 H        13.794994     -146.007233       17.238241
 C        13.409212     -145.409149       15.283234
 H        13.741829     -146.428711       15.033361
 C        12.941515     -144.470322       14.330515
 H        13.331944     -144.311798       13.413380
 C        12.221781     -143.393463       14.841461
 H        11.683933     -142.794525       14.121679
 C        11.902374     -140.133362       14.999699
 H        12.207476     -140.767288       14.213795
 C        11.924740     -138.761734       14.751835
 H        12.399935     -138.347778       13.906651
 C        11.835287     -137.907135       15.904072
 H        12.003132     -136.918243       15.692759
 C        11.599569     -138.427368       17.183594
 H        11.453556     -137.832153       18.033474
 C        11.179705     -140.263733       19.783058
 C        10.045023     -140.772369       20.382051
 H         9.585680     -141.642212       19.919376
 C         9.701904     -140.374344       21.677753
 H         8.731968     -140.692810       22.077503
 C        10.524572     -139.525574       22.454359
 H        10.140457     -139.068512       23.346910
 C        11.687548     -139.053177       21.825600
 H        12.299543     -138.473495       22.538082
 C        12.020981     -139.451202       20.527411
 H        12.900423     -138.994385       20.037815
