206
 generated by VMD
 Ir      -35.378372      -98.413437      -70.422951
 C       -33.898987     -100.786385      -73.720261
 C       -33.179569     -101.191986      -72.634651
 N       -34.735474      -99.721275      -73.332924
 C       -34.602970      -99.583832      -71.942795
 N       -33.656517     -100.530602      -71.529938
 C       -33.238503     -100.427444      -70.157234
 C       -33.554924      -99.166977      -69.621323
 C       -32.849113      -98.687088      -68.498100
 H       -32.675270      -97.616798      -68.226135
 C       -31.941790      -99.553078      -67.823624
 H       -31.415186      -99.137253      -66.974228
 C       -31.658722     -100.800232      -68.318184
 H       -31.067490     -101.363869      -67.679222
 C       -32.267632     -101.243942      -69.503059
 H       -32.247368     -102.281944      -69.802979
 C       -32.390690     -102.350815      -72.773888
 H       -31.864109     -102.802521      -71.882156
 C       -32.288502     -103.077026      -73.997963
 H       -31.625008     -103.878845      -74.191269
 C       -33.009560     -102.622185      -75.052383
 H       -33.144276     -103.371140      -75.797653
 C       -33.836826     -101.476929      -74.884125
 H       -34.311085     -101.168175      -75.842377
 C       -34.697388      -98.756775      -74.251122
 C       -35.791981      -98.527046      -75.043449
 H       -36.670002      -99.153282      -74.998627
 C       -35.702045      -97.616058      -76.028343
 H       -36.562424      -97.451904      -76.675957
 C       -34.551018      -96.832291      -76.317184
 H       -34.522488      -96.274796      -77.228119
 C       -33.428276      -97.052841      -75.483337
 H       -32.542114      -96.350357      -75.430084
 C       -33.482025      -98.053024      -74.464737
 H       -32.543518      -98.364532      -73.917046
 C       -37.994148     -101.308647      -68.631027
 C       -38.226562     -100.195030      -67.938972
 N       -36.901264     -101.138664      -69.342224
 C       -36.293472      -99.882950      -69.205566
 N       -37.095497      -99.371185      -68.266495
 C       -36.686287      -98.129295      -67.775322
 C       -35.913345      -97.406845      -68.692726
 C       -35.660294      -96.054413      -68.435638
 H       -35.194096      -95.440758      -69.258301
 C       -36.162525      -95.406593      -67.339691
 H       -35.961475      -94.345230      -67.132385
 C       -36.923527      -96.070755      -66.375809
 H       -37.494976      -95.687622      -65.526131
 C       -37.206001      -97.450195      -66.643112
 H       -37.755608      -98.127296      -66.029289
 C       -39.444881     -100.079483      -67.239502
 H       -39.691040      -99.220993      -66.626312
 C       -40.420429     -101.095520      -67.302597
 H       -41.262047     -101.134598      -66.663025
 C       -40.136093     -102.258003      -67.966057
 H       -40.660862     -103.217880      -67.978668
 C       -38.894371     -102.364502      -68.678574
 H       -38.747555     -103.112076      -69.484978
 C       -36.158180     -102.316338      -69.867783
 C       -35.248753     -103.025558      -69.065575
 H       -35.126022     -102.709991      -68.059860
 C       -34.534061     -104.069191      -69.579811
 H       -33.850967     -104.623528      -69.014839
 C       -34.717613     -104.479607      -70.913551
 H       -34.141323     -105.326904      -71.264099
 C       -35.635826     -103.707825      -71.718811
 H       -35.664299     -103.830566      -72.713013
 C       -36.374920     -102.664322      -71.202454
 H       -37.064747     -102.190758      -71.896774
 C       -38.700233      -95.992340      -72.051094
 C       -37.563400      -95.244118      -72.175522
 N       -38.289009      -97.227921      -71.495728
 C       -36.920208      -97.318581      -71.264526
 N       -36.480549      -96.073936      -71.789459
 C       -35.073658      -95.905823      -72.000168
 C       -34.297184      -96.781364      -71.275803
 C       -32.879040      -96.684608      -71.408524
 H       -32.209572      -97.319466      -70.816528
 C       -32.281265      -95.761795      -72.302002
 H       -31.249001      -95.420586      -72.145157
 C       -33.130192      -94.949310      -73.062057
 H       -32.664570      -94.290680      -73.747337
 C       -34.519020      -94.996704      -72.919174
 H       -35.056351      -94.204315      -73.348930
 C       -37.733559      -93.818718      -72.350945
 H       -36.812050      -93.245865      -72.370102
 C       -39.016548      -93.244293      -72.414795
 H       -39.177231      -92.153915      -72.407005
 C       -40.187199      -94.086723      -72.355019
 H       -41.186993      -93.626984      -72.373589
 C       -40.023830      -95.467407      -72.160782
 H       -40.921387      -96.116005      -72.059219
 C       -39.110977      -98.421829      -71.452637
 C       -38.619385      -99.480545      -72.224152
 H       -37.710281      -99.499123      -72.797989
 C       -39.322018     -100.687149      -72.129105
 H       -39.122574     -101.519249      -72.853760
 C       -40.362968     -100.874336      -71.198792
 H       -40.830978     -101.838478      -71.265823
 C       -40.827354      -99.824539      -70.491920
 H       -41.654678      -99.988739      -69.836807
 C       -40.238495      -98.497849      -70.615845
 H       -40.699303      -97.511620      -70.436935
 Ir      -35.378372      -98.413437      -55.912125
 C       -32.499981      -95.675339      -53.940296
 C       -31.876411      -96.116898      -55.089428
 N       -33.738075      -96.290154      -53.935661
 C       -33.880939      -97.245506      -55.022438
 N       -32.764061      -97.079796      -55.693573
 C       -32.622478      -97.868195      -56.798149
 C       -33.786591      -98.537148      -57.265312
 C       -33.703587      -99.352806      -58.432537
 H       -34.642628      -99.859207      -58.705231
 C       -32.478813      -99.611305      -59.066261
 H       -32.432381     -100.212029      -59.981556
 C       -31.318497      -99.022873      -58.600414
 H       -30.448345      -99.207008      -59.113663
 C       -31.377403      -98.167015      -57.530670
 H       -30.416756      -97.749931      -57.250488
 C       -30.704365      -95.507607      -55.476830
 H       -30.193987      -95.645416      -56.495857
 C       -30.116791      -94.478889      -54.690960
 H       -29.338978      -93.952148      -55.045715
 C       -30.702713      -94.126404      -53.444103
 H       -30.219215      -93.487480      -52.747246
 C       -32.006435      -94.687195      -53.060024
 H       -32.315681      -94.508064      -52.034756
 C       -34.591110      -96.283508      -52.717918
 C       -34.245480      -97.196625      -51.719589
 H       -33.296650      -97.687897      -51.676353
 C       -35.106411      -97.310951      -50.599846
 H       -35.063019      -98.213020      -50.013260
 C       -36.205421      -96.435532      -50.462307
 H       -36.743591      -96.373978      -49.484665
 C       -36.551170      -95.598541      -51.513596
 H       -37.361073      -94.895966      -51.360485
 C       -35.743954      -95.533714      -52.641384
 H       -35.942963      -94.802864      -53.472443
 C       -37.463799      -95.612068      -58.614471
 C       -37.935326      -96.858604      -59.021412
 N       -36.553749      -95.869179      -57.589779
 C       -36.380077      -97.240814      -57.370796
 N       -37.260185      -97.810532      -58.194595
 C       -37.262192      -99.259300      -58.068283
 C       -36.484428      -99.789886      -57.025951
 C       -36.516354     -101.176231      -56.910011
 H       -35.782112     -101.519775      -56.168545
 C       -37.446556     -102.000832      -57.571255
 H       -37.605843     -102.980667      -57.340717
 C       -38.313324     -101.483932      -58.506851
 H       -38.984020     -102.123734      -59.141609
 C       -38.209259     -100.092949      -58.735367
 H       -38.852272      -99.699776      -59.508709
 C       -38.850677      -96.950592      -60.174957
 H       -39.139122      -97.941238      -60.581917
 C       -39.217953      -95.791008      -60.842098
 H       -39.787487      -95.902962      -61.695801
 C       -38.727695      -94.530907      -60.407501
 H       -39.031967      -93.639145      -60.978706
 C       -37.865662      -94.385529      -59.251274
 H       -37.550602      -93.390488      -58.962097
 C       -35.951199      -94.737450      -56.766968
 C       -36.833313      -94.020676      -55.982674
 H       -37.775177      -94.427704      -55.716557
 C       -36.442474      -92.760948      -55.466122
 H       -37.065819      -92.190643      -54.824955
 C       -35.175385      -92.186836      -55.799400
 H       -34.682369      -91.409355      -55.173328
 C       -34.302334      -92.966293      -56.597416
 H       -33.313469      -92.558884      -56.794315
 C       -34.698845      -94.212585      -57.084183
 H       -33.981033      -94.871567      -57.586754
 C       -38.280205      -98.454308      -52.716438
 C       -37.263302      -99.221695      -52.236816
 N       -38.063717      -98.285736      -54.080811
 C       -36.791855      -98.704529      -54.465351
 N       -36.286125      -99.334732      -53.305664
 C       -34.928600      -99.819473      -53.321815
 C       -34.427162      -99.837181      -54.672054
 C       -33.237000     -100.569138      -54.883827
 H       -33.018147     -100.855927      -55.824017
 C       -32.636009     -101.212418      -53.807533
 H       -31.730206     -101.771400      -53.980320
 C       -33.123821     -101.114182      -52.484322
 H       -32.749504     -101.830948      -51.804153
 C       -34.282722     -100.422165      -52.198204
 H       -34.579346     -100.153587      -51.210896
 C       -37.316368      -99.765114      -50.900452
 H       -36.429188     -100.041077      -50.328217
 C       -38.424389      -99.456490      -50.099236
 H       -38.615311      -99.813370      -49.064690
 C       -39.428825      -98.648781      -50.574532
 H       -40.327461      -98.572044      -50.018242
 C       -39.392136      -98.203842      -51.916580
 H       -40.063709      -97.398643      -52.287041
 C       -39.217911      -98.007523      -55.084324
 C       -39.911839      -99.107849      -55.589546
 H       -39.845512     -100.009918      -55.069092
 C       -40.856117      -98.949348      -56.636696
 H       -41.767860      -99.526848      -56.741165
 C       -41.028698      -97.672302      -57.225746
 H       -41.663963      -97.601227      -58.070484
 C       -40.327919      -96.612053      -56.644054
 H       -40.438828      -95.692146      -57.063541
 C       -39.501144      -96.726334      -55.531811
 H       -38.962521      -95.837311      -55.175697
