206
 generated by VMD
 Ir       97.140572       88.580780       24.918726
 C        97.043297       86.348328       28.724701
 C        98.264008       86.057053       28.182177
 N        96.378349       87.312584       27.840919
 C        97.270653       87.652512       26.807457
 N        98.413635       86.859879       27.111813
 C        99.375458       86.950119       26.067278
 C        98.880386       87.386734       24.782331
 C        99.774185       87.305206       23.689140
 H        99.345711       87.251137       22.697124
 C       101.083694       86.911179       23.880482
 H       101.731705       87.058456       23.038342
 C       101.622406       86.564484       25.154881
 H       102.596405       86.453354       25.431065
 C       100.764755       86.525681       26.244158
 H       101.109802       86.413727       27.277121
 C        99.059143       85.080803       28.772177
 H       100.134132       85.166924       28.720505
 C        98.481926       84.179688       29.681576
 H        99.194412       83.462494       30.052132
 C        97.228058       84.461929       30.246880
 H        96.700943       83.629028       30.646046
 C        96.548744       85.558655       29.807442
 H        95.583130       85.730606       30.217356
 C        94.961647       87.386566       27.862610
 C        94.365868       88.462082       28.489040
 H        94.931137       89.366974       28.349600
 C        92.882622       88.435303       28.694355
 H        92.491852       89.068642       29.452503
 C        92.120499       87.346809       28.189013
 H        91.178833       87.092194       28.749836
 C        92.806870       86.299408       27.560734
 H        92.264946       85.393860       27.373898
 C        94.212784       86.343773       27.403481
 H        94.730591       85.568405       26.870480
 C       100.253250       91.697495       25.124474
 C        99.931015       91.599045       23.795351
 N        99.320114       90.872650       25.818232
 C        98.497070       90.171112       24.965096
 N        98.846611       90.767479       23.682339
 C        98.037605       90.254639       22.599653
 C        97.348892       89.113380       22.887043
 C        96.680099       88.504059       21.798954
 H        96.075050       87.655708       21.876587
 C        96.712311       89.060318       20.530045
 H        95.968079       88.694267       19.876497
 C        97.436630       90.197800       20.253487
 H        97.306351       90.618126       19.286758
 C        98.127777       90.757652       21.306187
 H        98.362984       91.803253       21.304066
 C       100.574860       92.451675       22.871504
 H       100.419006       92.060959       21.844200
 C       101.565857       93.368057       23.321239
 H       102.210320       93.910667       22.582567
 C       101.776962       93.563980       24.689724
 H       102.283577       94.423492       25.096638
 C       101.172058       92.688507       25.551426
 H       101.444580       92.585098       26.622704
 C        99.328857       90.574287       27.227169
 C        98.176895       90.799156       28.019016
 H        97.501831       91.561218       27.891949
 C        98.212708       90.370445       29.367323
 H        97.283340       90.599098       29.927139
 C        99.368927       89.728699       29.856213
 H        99.478996       89.411606       30.860821
 C       100.515968       89.485260       29.027885
 H       101.419037       89.049805       29.497944
 C       100.482834       89.851181       27.667332
 H       101.298523       89.555801       26.959450
 C        93.259697       90.696350       24.753876
 C        92.973618       89.460732       24.404566
 N        94.682251       90.740051       25.077171
 C        95.256279       89.464981       24.840361
 N        94.178535       88.727928       24.489185
 C        94.477158       87.304749       24.192204
 C        95.816620       86.966454       24.479975
 C        96.218666       85.611824       24.180754
 H        97.259628       85.236206       24.366020
 C        95.387794       84.694946       23.564404
 H        95.837990       83.814049       23.198414
 C        94.126099       85.109352       23.213697
 H        93.445709       84.553116       22.634674
 C        93.651321       86.373085       23.489508
 H        92.721413       86.651062       22.988115
 C        91.638565       89.115402       23.891371
 H        91.328186       88.080154       23.774996
 C        90.699524       90.130432       23.871185
 H        89.672256       89.931885       23.578938
 C        91.089676       91.434097       24.188267
 H        90.318871       92.155228       24.103165
 C        92.375854       91.781738       24.613674
 H        92.577133       92.763718       24.848621
 C        95.313980       91.917969       25.691620
 C        95.047874       92.333824       26.979542
 H        94.364807       91.774948       27.580936
 C        95.659813       93.426590       27.601631
 H        95.423782       93.610191       28.617249
 C        96.585045       94.124367       26.806423
 H        97.146072       94.867004       27.399826
 C        96.854576       93.717056       25.491756
 H        97.592407       94.208374       24.815956
 C        96.261673       92.593880       24.907253
 H        96.464111       92.263321       23.960020
 Ir       97.140572       88.580780       38.813805
 C        98.475540       92.586632       38.343178
 C        98.903656       92.265091       39.611458
 N        97.497467       91.649864       38.000763
 C        97.428925       90.622002       38.919846
 N        98.318161       91.004486       39.896355
 C        98.718704       89.917450       40.886513
 C        98.394775       88.648468       40.446907
 C        98.710205       87.507027       41.199371
 H        98.392349       86.482635       40.935944
 C        99.550224       87.648857       42.272148
 H        99.985359       86.846039       42.841557
 C        99.912552       88.967316       42.695099
 H       100.204651       89.043243       43.773849
 C        99.522247       90.113525       42.024303
 H        99.935822       91.090416       42.307247
 C        99.850250       93.081200       40.255287
 H        99.943314       93.163712       41.363007
 C       100.409798       94.205551       39.601936
 H       101.237900       94.726112       40.061344
 C       100.007133       94.464294       38.301895
 H       100.442596       95.352745       37.826477
 C        99.051987       93.715240       37.663445
 H        98.689178       94.111244       36.778820
 C        96.455521       91.909439       37.030426
 C        95.111076       91.582664       37.367035
 H        94.883179       91.129799       38.299919
 C        94.134048       91.551620       36.349518
 H        93.200974       91.002769       36.428520
 C        94.528824       91.844055       35.042717
 H        93.736153       92.005493       34.409470
 C        95.823746       92.129410       34.679047
 H        96.117867       92.334885       33.608269
 C        96.813293       92.223244       35.695808
 H        97.856010       92.470947       35.437378
 C       100.748276       87.198685       36.799946
 C       100.056366       85.998901       37.068218
 N       100.018188       88.305435       37.269585
 C        98.814583       87.854225       37.801331
 N        98.880890       86.461960       37.678917
 C        97.766495       85.730156       38.207191
 C        96.921806       86.483658       39.050308
 C        95.915741       85.750542       39.674301
 H        95.300476       86.259613       40.416328
 C        95.662041       84.380951       39.577980
 H        94.863800       83.938950       40.044930
 C        96.417419       83.598358       38.676727
 H        96.445312       82.499664       38.755405
 C        97.406067       84.294334       37.986282
 H        97.749237       83.811729       37.187958
 C       100.662476       84.728104       36.792015
 H       100.127060       83.834557       36.781853
 C       101.938705       84.766891       36.145226
 H       102.475822       83.883850       36.111252
 C       102.527000       85.931335       35.725250
 H       103.248367       85.798523       34.922634
 C       101.938530       87.189316       36.022049
 H       102.375160       88.110153       35.609489
 C       100.591881       89.608116       37.370548
 C       100.525368       90.402237       36.232327
 H        99.763817       90.159302       35.466339
 C       101.440178       91.511765       35.993668
 H       101.586899       92.101074       34.996773
 C       102.261055       91.850037       37.059464
 H       102.959808       92.652191       36.814545
 C       102.381477       91.038818       38.199127
 H       103.100883       91.334518       38.946667
 C       101.478760       89.942596       38.421158
 H       101.485199       89.263870       39.289429
 C        94.076530       88.130783       35.667557
 C        93.369247       88.292358       36.840141
 N        95.435135       88.115967       36.023788
 C        95.636185       88.236275       37.426643
 N        94.332916       88.355293       37.903526
 C        94.239937       88.468369       39.393555
 C        95.408997       88.951118       39.974281
 C        95.341072       89.410873       41.309093
 H        96.224037       89.803055       41.801796
 C        94.140022       89.405937       42.043640
 H        94.232018       89.572113       43.073265
 C        93.010544       88.811409       41.432251
 H        92.265549       88.413780       42.099693
 C        93.019424       88.400154       40.105377
 H        92.243927       87.730827       39.799606
 C        91.966782       88.477623       36.816956
 H        91.397057       88.113029       37.704365
 C        91.332123       88.595505       35.584274
 H        90.285690       88.997414       35.638542
 C        92.026031       88.510033       34.426826
 H        91.645905       88.940720       33.491241
 C        93.411179       88.271011       34.460518
 H        93.942619       88.226479       33.482307
 C        96.462189       87.760590       35.024654
 C        97.361931       88.687347       34.568596
 H        97.545410       89.555405       35.228516
 C        98.234871       88.471680       33.497162
 H        98.799957       89.304581       33.065468
 C        98.240372       87.239357       32.827278
 H        99.111565       87.008728       32.199554
 C        97.350578       86.227951       33.294945
 H        97.291779       85.214081       32.903530
 C        96.451752       86.456924       34.382278
 H        95.984421       85.558441       34.820488
