206
 generated by VMD
 Ir        4.086541       77.770126       44.766953
 C         5.831508       81.737869       44.499718
 C         6.869315       80.882156       44.904221
 N         4.629878       80.921326       44.542564
 C         4.940086       79.634796       44.947433
 N         6.321856       79.672607       45.119122
 C         6.963152       78.356201       45.326786
 C         6.136510       77.311218       44.883224
 C         6.663123       76.013206       44.773857
 H         6.002585       75.241547       44.364929
 C         7.996304       75.781250       45.009293
 H         8.382305       74.823242       44.819748
 C         8.814223       76.695511       45.536114
 H         9.852165       76.500610       45.367615
 C         8.298314       77.949333       45.789818
 H         8.997865       78.587601       46.244392
 C         8.127917       81.335571       44.892868
 H         8.951988       80.630753       45.007454
 C         8.464587       82.657463       44.487572
 H         9.460209       83.008270       44.607033
 C         7.435829       83.497177       44.050484
 H         7.531487       84.543015       43.962387
 C         6.073599       83.019135       44.054363
 H         5.410071       83.366844       43.291321
 C         3.229330       81.341492       44.487518
 C         2.508583       81.077087       43.349442
 H         2.672223       80.208031       42.698547
 C         1.193274       81.568130       43.163582
 H         0.657477       81.395920       42.261715
 C         0.715424       82.441849       44.074768
 H        -0.239899       82.971176       43.936283
 C         1.401262       82.778877       45.176693
 H         0.856016       83.412506       45.886360
 C         2.677364       82.208092       45.406174
 H         3.198723       82.467438       46.408531
 C         4.770750       77.108139       40.510464
 C         4.322534       75.887894       41.003643
 N         4.603464       77.997604       41.546158
 C         4.190183       77.413452       42.724743
 N         3.950691       76.089279       42.378735
 C         3.488256       75.225891       43.392353
 C         3.595645       75.714592       44.682678
 C         3.377667       74.896881       45.809235
 H         3.403272       75.267014       46.871185
 C         2.939496       73.569992       45.657959
 H         2.688281       73.054962       46.556084
 C         2.725223       73.037109       44.362724
 H         2.535092       72.000473       44.245178
 C         3.085129       73.838242       43.289848
 H         2.718904       73.500954       42.279839
 C         4.135385       74.862900       40.043507
 H         3.684962       73.922806       40.487503
 C         4.478339       75.040649       38.716637
 H         4.328645       74.149315       38.121651
 C         4.879014       76.290817       38.235451
 H         4.701235       76.498711       37.178818
 C         5.084717       77.334793       39.130047
 H         5.372406       78.332367       38.839729
 C         5.361782       79.277115       41.508854
 C         6.704495       79.228058       41.825893
 H         7.045216       78.224319       42.321297
 C         7.495270       80.391991       41.572052
 H         8.499626       80.296936       41.888329
 C         6.949194       81.565857       41.022018
 H         7.577815       82.402817       40.641319
 C         5.597093       81.610779       40.661449
 H         5.007694       82.412895       40.183739
 C         4.848144       80.448914       40.984184
 H         3.855160       80.464539       40.544373
 C        -0.102936       78.930984       44.948689
 C         0.526713       79.535378       46.069427
 N         0.873746       78.200165       44.357414
 C         2.048026       78.221596       44.998123
 N         1.782209       78.938217       46.149639
 C         2.573773       78.503632       47.270111
 C         3.784442       77.833008       46.889145
 C         4.649976       77.412674       47.900414
 H         5.679702       77.172424       47.687466
 C         4.290438       77.617615       49.240349
 H         4.902322       77.174736       50.069538
 C         3.131027       78.328857       49.606400
 H         3.035151       78.582199       50.636753
 C         2.251294       78.712143       48.606312
 H         1.457987       79.370712       48.645725
 C        -0.187390       80.427765       46.823013
 H         0.264458       80.704605       47.714638
 C        -1.524609       80.735916       46.539841
 H        -2.147049       81.389107       47.144829
 C        -2.212933       80.116676       45.465332
 H        -3.173509       80.448593       45.140026
 C        -1.482291       79.178940       44.698715
 H        -2.100262       78.556412       44.078011
 C         0.683074       77.317764       43.310940
 C         0.633707       77.789520       42.013092
 H         0.737361       78.891403       41.816849
 C         0.401474       76.928757       40.922974
 H         0.582053       77.165146       39.915001
 C         0.022847       75.592941       41.246750
 H        -0.322770       74.910278       40.513313
 C        -0.178653       75.180725       42.602211
 H        -0.754153       74.269974       42.877403
 C         0.266145       76.023148       43.588505
 H         0.400527       75.632950       44.602943
 Ir        4.086541       77.770126       58.872776
 C         6.424150       74.859398       56.559975
 C         7.176612       75.047020       57.698528
 N         5.315364       75.791245       56.567863
 C         5.337888       76.468475       57.785019
 N         6.497822       76.088226       58.462486
 C         6.810967       76.814102       59.718014
 C         5.689813       77.449753       60.257614
 C         5.751748       77.843277       61.621948
 H         4.858913       77.953384       62.185349
 C         6.910275       77.628441       62.389641
 H         6.982886       77.735352       63.452747
 C         8.017157       77.145172       61.746708
 H         8.927879       76.887634       62.264061
 C         8.015805       76.780991       60.449223
 H         8.935200       76.355194       59.928547
 C         8.357606       74.202316       57.901096
 H         9.016482       74.353210       58.718723
 C         8.663309       73.234009       56.985504
 H         9.467126       72.503983       57.116043
 C         7.906346       73.071579       55.799572
 H         7.870521       72.109695       55.356758
 C         6.809183       73.966690       55.620071
 H         6.224365       73.993378       54.769562
 C         4.577962       76.098969       55.328339
 C         5.178798       76.902496       54.345715
 H         6.190722       77.146271       54.605099
 C         4.509203       77.186508       53.167332
 H         4.929722       77.793152       52.403168
 C         3.266888       76.550522       52.898499
 H         2.811149       76.714493       51.933559
 C         2.712230       75.731003       53.895668
 H         1.749816       75.301346       53.762768
 C         3.350110       75.523750       55.073570
 H         2.965275       74.767715       55.835083
 C         1.569701       75.160034       61.263126
 C         1.224337       76.460693       61.700733
 N         2.542535       75.276161       60.343884
 C         2.983063       76.593002       60.187763
 N         2.121242       77.351677       60.981350
 C         2.356192       78.757980       61.012665
 C         3.157930       79.265106       59.973602
 C         3.407582       80.607994       59.929676
 H         4.161452       81.014572       59.310261
 C         2.682938       81.518463       60.729767
 H         2.688283       82.528152       60.407280
 C         1.830789       81.076263       61.732162
 H         1.289677       81.888367       62.171219
 C         1.656437       79.680313       61.856800
 H         0.990409       79.380432       62.699821
 C         0.201447       76.596512       62.684883
 H        -0.131669       77.604919       62.858223
 C        -0.418503       75.484154       63.236980
 H        -1.188719       75.616470       64.047516
 C         0.010231       74.182907       62.822803
 H        -0.402405       73.321068       63.287952
 C         0.954180       74.026031       61.811737
 H         1.175619       73.012894       61.382656
 C         3.262453       74.124374       59.802139
 C         4.458675       73.824463       60.514671
 H         4.439525       74.026222       61.560963
 C         5.445306       73.012726       59.864632
 H         6.526373       73.256821       59.980434
 C         5.148461       72.365692       58.685383
 H         5.911731       71.919426       58.122211
 C         3.893239       72.425766       58.095722
 H         3.621531       71.741943       57.291321
 C         3.028579       73.458679       58.560543
 H         2.240728       73.872467       57.831802
 C         1.107064       78.506699       55.796886
 C         2.153859       79.197876       55.303139
 N         1.372001       77.993469       57.052197
 C         2.658082       78.327682       57.413860
 N         3.127535       79.129715       56.331055
 C         4.474689       79.597649       56.542747
 C         5.113355       79.294647       57.770962
 C         6.404114       79.835785       58.001621
 H         6.579700       79.889053       59.098175
 C         7.066765       80.642868       57.046684
 H         7.881033       81.221603       57.270840
 C         6.417604       80.812477       55.801281
 H         7.057650       81.138138       54.966003
 C         5.151983       80.325882       55.550812
 H         4.724153       80.179199       54.512955
 C         2.061393       79.844818       54.039249
 H         2.831264       80.439018       53.623650
 C         0.896973       79.765007       53.199810
 H         0.618454       80.546455       52.413509
 C        -0.200754       79.072334       53.695496
 H        -1.221399       79.255432       53.328392
 C        -0.080082       78.472237       54.962624
 H        -0.677434       77.579880       55.038601
 C         0.397010       77.167984       57.782185
 C        -0.443118       77.748505       58.647797
 H        -0.233266       78.671585       59.093540
 C        -1.370686       77.048126       59.378605
 H        -1.967276       77.663681       59.963223
 C        -1.554998       75.657547       59.141895
 H        -2.346281       75.060364       59.663486
 C        -0.727779       75.029617       58.210072
 H        -0.817797       73.955322       58.166412
 C         0.200380       75.792831       57.491524
 H         0.816928       75.402603       56.623829
