206
 generated by VMD
  IR         9.250000       15.760000       42.230000
  C1        12.200000       18.480000       40.520000
  C2        11.250000       18.309999       39.540001
  N1        11.790000       17.670000       41.619999
  C3a       10.660000       16.969999       41.340000
  N2        10.350000       17.330000       40.009998
  C4         9.580000       16.330000       39.330002
  C5a        8.830000       15.530000       40.180000
  C6         7.970000       14.590000       39.590000
  H1         7.000000       14.240000       40.080002
  C7         7.980000       14.320000       38.230000
  H2         7.170000       13.850000       37.790001
  C8         8.800000       15.040000       37.369999
  H3         9.080000       14.610000       36.400002
  C9         9.630000       16.030001       37.930000
  H4        10.220000       16.700001       37.290001
  C10       11.360000       18.959999       38.299999
  H5        10.420000       19.260000       37.889999
  C11       12.560000       19.670000       38.020000
  H6        12.640000       20.209999       37.099998
  C12       13.450000       19.840000       39.040001
  H7        14.320000       20.459999       38.959999
  C13       13.320000       19.260000       40.290001
  H8        14.150000       19.200001       40.950001
  C6        12.350000       17.850000       42.900002
  C1        11.800000       18.670000       43.939999
  H1        10.950000       19.280001       43.830002
  C2        12.490000       18.670000       45.160000
  H2        12.080000       18.959999       46.090000
  C3        13.650000       17.889999       45.340000
  H3        14.130000       17.910000       46.360001
  C4        14.140000       17.090000       44.320000
  H4        14.730000       16.240000       44.669998
  C5        13.480000       17.090000       43.099998
  H5        13.970000       16.469999       42.369999
  C1         5.840000       18.440001       42.340000
  C2         5.400000       17.320000       42.939999
  N1         7.220000       18.219999       42.020000
  C3b        7.570000       16.950001       42.220001
  N2         6.450000       16.400000       42.840000
  C4         6.510000       15.070000       43.279999
  C5b        7.710000       14.430000       42.860001
  C6         7.970000       13.090000       43.139999
  H1         8.850000       12.620000       42.689999
  C7         7.010000       12.320000       43.820000
  H2         7.120000       11.270000       43.830002
  C8         5.860000       12.940000       44.389999
  H3         5.140000       12.280000       44.860001
  C9         5.610000       14.250000       44.110001
  H4         4.610000       14.610000       44.279999
  C10        4.050000       17.299999       43.439999
  H5         3.730000       16.370001       43.880001
  C11        3.210000       18.350000       43.400002
  H6         2.140000       18.230000       43.720001
  C12        3.640000       19.500000       42.689999
  H7         2.970000       20.129999       42.139999
  C13        5.020000       19.540001       42.279999
  H8         5.360000       20.490000       42.099998
  C6         8.100000       19.360001       41.820000
  C1         8.730000       19.950001       42.900002
  H1         8.260000       19.969999       43.880001
  C2         9.550000       21.030001       42.560001
  H2         9.900000       21.680000       43.299999
  C3         9.770000       21.500000       41.270000
  H3        10.410000       22.340000       41.130001
  C4         9.120000       20.840000       40.230000
  H4         9.060000       21.160000       39.220001
  C5         8.260000       19.790001       40.490002
  H5         7.720000       19.500000       39.650002
  C1        10.410000       16.170000       46.430000
  C2        11.340000       15.390000       45.840000
  N1         9.420000       16.400000       45.470001
  C3c        9.820000       15.760000       44.240002
  N2        10.950000       15.080000       44.540001
  C4        11.170000       14.010000       43.660000
  C5c       10.790000       14.280000       42.310001
  C6        11.420000       13.470000       41.340000
  H1        10.980000       13.410000       40.369999
  C7        12.410000       12.520000       41.599998
  H2        12.650000       11.880000       40.730000
  C8        12.800000       12.270000       42.880001
  H3        13.440000       11.500000       43.180000
  C9        12.160000       13.000000       43.900002
  H4        12.300000       12.710000       44.970001
  C10       12.580000       15.130000       46.549999
  H5        13.410000       14.600000       46.090000
  C11       12.800000       15.610000       47.900002
  H6        13.640000       15.220000       48.439999
  C12       11.810000       16.400000       48.450001
  H7        11.990000       16.719999       49.490002
  C13       10.610000       16.650000       47.730000
  H8         9.840000       17.260000       48.180000
  C6         8.050000       16.520000       45.919998
  C1         7.440000       17.719999       45.980000
  H1         7.890000       18.580000       45.459999
  C2         6.270000       17.910000       46.639999
  H2         5.930000       18.870001       46.959999
  C3         5.640000       16.790001       47.139999
  H3         4.740000       16.830000       47.680000
  C4         6.200000       15.580000       47.099998
  H4         5.860000       14.760000       47.740002
  C5         7.450000       15.450000       46.549999
  H5         7.940000       14.530000       46.590000
  IR        17.430000       15.920000       50.250000
  C1        16.180000       14.640000       54.270000
  C2        15.070000       15.310000       53.669998
  N1        17.250000       14.670000       53.259998
  C3a       16.770000       15.310000       52.119999
  N2        15.500000       15.790000       52.439999
  C4        15.010000       16.879999       51.740002
  C5a       15.650000       17.059999       50.520000
  C6        15.140000       18.000000       49.689999
  H1        15.200000       17.770000       48.639999
  C7        14.120000       18.879999       50.099998
  H2        13.910000       19.580000       49.330002
  C8        13.570000       18.790001       51.389999
  H3        13.100000       19.650000       51.900002
  C9        13.990000       17.750000       52.209999
  H4        13.840000       17.830000       53.200001
  C10       13.840000       15.180000       54.270000
  H5        13.030000       15.580000       53.709999
  C11       13.720000       14.430000       55.430000
  H6        12.720000       14.260000       55.919998
  C12       14.800000       13.800000       56.029999
  H7        14.610000       13.110000       56.810001
  C13       16.049999       13.920000       55.459999
  H8        16.850000       13.280000       55.860001
  C6        18.629999       14.620000       53.759998
  C1        19.480000       13.530000       53.410000
  H1        19.120001       12.780000       52.770000
  C2        20.750000       13.580000       53.869999
  H2        21.450001       12.900000       53.500000
  C3        21.270000       14.610000       54.689999
  H3        22.330000       14.690000       54.930000
  C4        20.400000       15.680000       55.049999
  H4        20.650000       16.420000       55.770000
  C5        19.070000       15.660000       54.580002
  H5        18.590000       16.629999       54.599998
  C1        15.390000       13.140000       47.730000
  C2        15.980000       14.010000       46.880001
  N1        15.590000       13.640000       48.970001
  C3b       16.250000       14.780000       48.990002
  N2        16.389999       15.120000       47.619999
  C4        17.250000       16.260000       47.330002
  C5b       17.770000       16.900000       48.450001
  C6        18.520000       18.100000       48.279999
  H1        19.139999       18.549999       49.119999
  C7        18.870001       18.549999       46.970001
  H2        19.410000       19.510000       46.910000
  C8        18.360001       17.840000       45.869999
  H3        18.410000       18.350000       44.889999
  C9        17.500000       16.770000       46.080002
  H4        17.110001       16.299999       45.220001
  C10       15.930000       13.690000       45.500000
  H5        16.570000       14.100000       44.799999
  C11       15.380000       12.480000       45.090000
  H6        15.070000       12.440000       44.090000
  C12       14.850000       11.590000       46.009998
  H7        14.750000       10.560000       45.810001
  C13       14.800000       11.940000       47.360001
  H8        14.170000       11.310000       48.000000
  C6        15.230000       12.840000       50.169998
  C1        13.930000       12.890000       50.630001
  H1        13.330000       13.650000       50.130001
  C2        13.540000       12.170000       51.790001
  H2        12.580000       12.430000       52.169998
  C3        14.510000       11.540000       52.540001
  H3        14.250000       11.340000       53.580002
  C4        15.810000       11.480000       52.029999
  H4        16.490000       10.990000       52.650002
  C5        16.240000       12.070000       50.830002
  H5        17.219999       12.540000       50.820000
  C1        21.240000       13.850000       49.980000
  C2        21.500000       14.930000       50.779999
  N1        19.940001       13.970000       49.500000
  C3c       19.320000       15.090000       50.080002
  N2        20.330000       15.690000       50.790001
  C4        20.010000       16.969999       51.250000
  C5c       18.670000       17.209999       51.330002
  C6        18.230000       18.170000       52.240002
  H1        17.180000       18.480000       52.320000
  C7        19.129999       18.940001       53.000000
  H2        18.820000       19.469999       53.889999
  C8        20.490000       18.840000       52.820000
  H3        21.209999       19.510000       53.250000
  C9        20.969999       17.840000       51.919998
  H4        21.920000       17.980000       51.430000
  C10       22.730000       14.980000       51.529999
  H5        22.889999       15.920000       52.070000
  C11       23.629999       13.880000       51.529999
  H6        24.510000       13.940000       52.200001
  C12       23.320000       12.780000       50.770000
  H7        23.889999       11.890000       50.820000
  C13       22.180000       12.790000       49.919998
  H8        22.070000       11.830000       49.389999
  C6        19.430000       13.370000       48.200001
  C1        18.950001       12.060000       48.070000
  H1        18.780001       11.590000       49.020000
  C2        18.780001       11.440000       46.810001
  H2        18.490000       10.440000       46.830002
  C3        19.080000       12.140000       45.610001
  H3        19.080000       11.640000       44.680000
  C4        19.570000       13.450000       45.740002
  H4        19.680000       14.050000       44.860001
  C5        19.740000       14.030000       47.029999
  H5        20.219999       15.010000       47.070000
