206
 generated by VMD
 Ir       55.202564       98.859184      -76.386475
 C        56.715355       94.719482      -75.814743
 C        55.947350       94.669296      -76.959007
 N        56.709999       96.002411      -75.323746
 C        55.959850       96.902763      -76.169586
 N        55.541592       95.985214      -77.215607
 C        55.247467       96.690590      -78.389206
 C        54.629982       97.911072      -78.200195
 C        53.993576       98.476585      -79.291473
 H        53.420059       99.353226      -79.213547
 C        53.869202       97.729988      -80.513565
 H        53.625290       98.291405      -81.403519
 C        54.453239       96.466965      -80.589569
 H        54.322315       95.857536      -81.415131
 C        55.213341       95.969360      -79.586548
 H        55.997124       95.262314      -79.760521
 C        55.676247       93.466812      -77.611252
 H        55.163284       93.463806      -78.578239
 C        56.157387       92.281250      -77.112526
 H        55.867100       91.311348      -77.520981
 C        57.079826       92.336334      -76.087944
 H        57.603256       91.467331      -75.813263
 C        57.309860       93.546997      -75.387253
 H        58.112328       93.542374      -74.627701
 C        57.007572       96.353088      -73.943687
 C        57.805954       97.452225      -73.698128
 H        58.215477       98.035713      -74.508514
 C        58.139503       97.792809      -72.358109
 H        58.577442       98.822418      -72.096725
 C        57.627323       96.994995      -71.301285
 H        57.746777       97.401291      -70.302513
 C        56.823654       95.838608      -71.634552
 H        56.627502       95.079498      -70.925339
 C        56.439285       95.590454      -72.948624
 H        55.880077       94.798347      -73.241455
 C        58.444473      100.661453      -78.704933
 C        57.539268      101.684799      -78.485016
 N        57.969955       99.510254      -78.134521
 C        56.693657       99.791138      -77.534042
 N        56.439278      101.159668      -77.770279
 C        55.039513      101.485519      -77.699081
 C        54.225380      100.689346      -76.896469
 C        52.994205      101.141464      -76.563278
 H        52.344566      100.410172      -76.051239
 C        52.458359      102.398193      -76.971786
 H        51.415104      102.730057      -76.659210
 C        53.261612      103.172562      -77.833611
 H        52.804543      104.121727      -78.121307
 C        54.550110      102.708176      -78.242050
 H        54.789898      102.887299      -79.235382
 C        57.770660      103.064781      -78.924469
 H        57.055420      103.887711      -78.670685
 C        58.968887      103.346420      -79.646927
 H        59.350548      104.398117      -79.736320
 C        59.801880      102.218643      -80.017769
 H        60.814552      102.474655      -80.453484
 C        59.556061      100.901932      -79.477364
 H        60.263390      100.157524      -79.718094
 C        58.370914       98.179886      -78.467896
 C        58.654316       97.308990      -77.469482
 H        58.627682       97.655029      -76.441940
 C        59.167419       96.033691      -77.698509
 H        59.252045       95.433289      -76.854446
 C        59.204620       95.580490      -78.994202
 H        59.706642       94.724564      -79.301392
 C        58.878754       96.488464      -80.057587
 H        59.058395       96.198868      -81.086746
 C        58.445511       97.794846      -79.844559
 H        58.464920       98.473511      -80.667320
 C        55.913876      100.348579      -72.352142
 C        55.051479       99.282990      -72.164261
 N        56.047211      100.526062      -73.767822
 C        55.322895       99.648056      -74.501953
 N        54.674889       98.905319      -73.491150
 C        53.530174       98.235649      -73.956291
 C        53.500103       98.125465      -75.333923
 C        52.374901       97.459335      -75.869812
 H        52.219429       97.295715      -77.002060
 C        51.302536       96.979462      -75.104218
 H        50.459957       96.573456      -75.624039
 C        51.315781       97.256516      -73.698837
 H        50.366852       97.151566      -73.213951
 C        52.432434       97.922653      -73.168129
 H        52.457893       98.268417      -72.168633
 C        54.938297       98.691055      -70.878258
 H        54.443344       97.737808      -70.775604
 C        55.681870       99.195770      -69.847992
 H        55.618919       98.517395      -68.991989
 C        56.472885      100.355698      -70.033882
 H        57.277405      100.507858      -69.296997
 C        56.685711      100.912201      -71.291351
 H        57.109287      101.894897      -71.430580
 C        56.673752      101.743515      -74.338203
 C        56.005630      102.955002      -74.432137
 H        55.036705      103.055908      -73.972130
 C        56.609894      104.123924      -74.907928
 H        56.054382      104.959389      -75.245438
 C        57.963840      103.990837      -75.308578
 H        58.436432      104.799301      -75.779388
 C        58.570129      102.734085      -75.286263
 H        59.620522      102.625824      -75.591324
 C        57.943176      101.600616      -74.792343
 H        58.293015      100.585182      -74.906403
 Ir       55.202568       98.859177      -61.863602
 C        58.709747       97.099365      -59.875000
 C        57.699772       96.933609      -59.000137
 N        58.193207       97.887909      -61.009678
 C        56.900562       98.141510      -60.806553
 N        56.575157       97.506760      -59.575577
 C        55.092377       97.500793      -59.213184
 C        54.364769       98.379601      -60.038338
 C        53.094276       98.787537      -59.524590
 H        52.579681       99.693626      -59.833138
 C        52.628944       98.196144      -58.332863
 H        51.647118       98.527451      -58.102306
 C        53.316269       97.260345      -57.557007
 H        53.106300       97.032410      -56.497116
 C        54.615021       96.976196      -58.001640
 H        55.293743       96.467667      -57.288727
 C        57.985703       96.139877      -57.851601
 H        57.251369       95.866959      -57.084156
 C        59.213837       95.460648      -57.678322
 H        59.357826       94.767807      -56.855011
 C        60.233284       95.677124      -58.607391
 H        61.098038       95.000069      -58.606300
 C        60.073441       96.500015      -59.732414
 H        60.726646       96.390106      -60.636093
 C        59.036896       98.640457      -61.899601
 C        59.012474       98.369400      -63.286552
 H        58.793770       97.360504      -63.600903
 C        59.608879       99.269730      -64.173691
 H        59.796715       99.068481      -65.177780
 C        60.257675      100.398048      -63.642868
 H        60.637932      101.127151      -64.366409
 C        60.247101      100.604485      -62.256081
 H        60.769836      101.508942      -61.864517
 C        59.647388       99.757050      -61.382763
 H        60.063385       99.793869      -60.371574
 C        53.612778       95.030334      -63.388412
 C        52.600491       95.973511      -63.609070
 N        54.656113       95.707642      -62.601768
 C        54.297493       97.057106      -62.357513
 N        53.034786       97.171356      -63.013802
 C        52.453129       98.460556      -62.787445
 C        53.311218       99.508698      -62.505356
 C        52.792854      100.768982      -62.556950
 H        53.487186      101.568176      -62.776268
 C        51.479263      101.085846      -62.685734
 H        51.154579      102.138626      -62.536011
 C        50.555702      100.030884      -62.782703
 H        49.473316      100.152237      -62.637035
 C        51.040306       98.728874      -62.868294
 H        50.326569       97.950134      -62.906281
 C        51.581425       95.626938      -64.532158
 H        50.854027       96.416046      -64.817635
 C        51.417999       94.319199      -64.976250
 H        50.432838       94.050079      -65.241653
 C        52.343765       93.343582      -64.612900
 H        52.177238       92.316147      -65.090454
 C        53.498619       93.737854      -63.894466
 H        54.328590       93.051544      -63.797440
 C        55.482018       94.891548      -61.726578
 C        56.709946       94.668755      -62.092983
 H        57.064713       95.189262      -62.986637
 C        57.635323       93.869019      -61.439690
 H        58.495766       93.636673      -61.971527
 C        57.215218       93.155731      -60.283989
 H        57.884842       92.550400      -59.729660
 C        55.885735       93.308182      -59.923676
 H        55.651947       92.944733      -58.920956
 C        54.981209       94.143097      -60.592072
 H        54.055611       94.447960      -60.107079
 C        56.292648      100.868958      -65.570724
 C        56.707108      101.682076      -64.634155
 N        55.977783       99.603508      -65.012878
 C        55.924667       99.735504      -63.633076
 N        56.492805      101.042953      -63.432110
 C        56.621681      101.480347      -62.063137
 C        55.792122      100.757248      -61.157944
 C        55.785591      101.100845      -59.797100
 H        55.076576      100.591789      -59.187126
 C        56.558006      102.120636      -59.335136
 H        56.492989      102.343430      -58.263580
 C        57.423450      102.787018      -60.183807
 H        58.092606      103.491325      -59.725136
 C        57.477188      102.431702      -61.506779
 H        58.225060      102.919487      -62.026543
 C        57.030144      102.993614      -64.974030
 H        57.422855      103.698212      -64.194458
 C        56.814621      103.508118      -66.238678
 H        56.814079      104.641342      -66.314926
 C        56.321724      102.677277      -67.238754
 H        55.962471      103.115448      -68.131363
 C        56.040947      101.338196      -66.891426
 H        55.311108      100.866753      -67.500732
 C        56.310448       98.362015      -65.677216
 C        57.487465       98.265198      -66.403259
 H        58.213299       99.088654      -66.443085
 C        57.658463       97.260384      -67.302444
 H        58.669067       97.122665      -67.638321
 C        56.635071       96.422470      -67.601212
 H        56.815090       95.704788      -68.322411
 C        55.454933       96.497757      -66.870041
 H        54.621693       95.709473      -66.923096
 C        55.241676       97.530106      -65.978310
 H        54.349648       97.691544      -65.529404
