206
 generated by VMD
  IR        51.459999       32.430000       16.490000
  C1        47.669998       34.070000       15.240000
  C2        47.340000       32.799999       15.740000
  N1        49.080002       34.080002       15.120000
  C3a       49.680000       32.990002       15.550000
  N2        48.630001       32.169998       15.960000
  C4        48.970001       30.870001       16.549999
  C5a       50.230000       30.840000       17.139999
  C6        50.560001       29.670000       17.790001
  H1        51.560001       29.540001       18.219999
  C7        49.689999       28.570000       17.889999
  H2        49.810001       27.700001       18.610001
  C8        48.459999       28.620001       17.270000
  H3        47.849998       27.750000       17.100000
  C9        48.110001       29.809999       16.600000
  H4        47.189999       29.780001       16.030001
  C10       46.070000       32.560001       16.010000
  H5        45.880001       31.660000       16.480000
  C11       45.040001       33.419998       15.700000
  H6        44.020000       33.189999       15.940000
  C12       45.380001       34.669998       15.160000
  H7        44.610001       35.389999       14.950000
  C13       46.700001       35.040001       14.960000
  H8        46.910000       36.110001       14.750000
  C6        49.720001       35.139999       14.390000
  C1        50.500000       36.080002       15.110000
  H1        50.790001       35.830002       16.190001
  C2        50.900002       37.240002       14.450000
  H2        51.570000       37.900002       14.900000
  C3        50.570000       37.410000       13.100000
  H3        50.619999       38.389999       12.720000
  C4        49.830002       36.450001       12.360000
  H4        49.730000       36.540001       11.290000
  C5        49.430000       35.299999       13.000000
  H5        48.680000       34.639999       12.710000
  C1        50.849998       34.730000       20.110001
  C2        52.099998       34.150002       20.270000
  N1        50.270000       34.150002       19.000000
  C3b       51.070000       33.200001       18.350000
  N2        52.209999       33.150002       19.240000
  C4        53.180000       32.180000       18.920000
  C5b       53.110001       31.700001       17.590000
  C6        54.070000       30.730000       17.230000
  H1        54.090000       30.530001       16.150000
  C7        55.049999       30.200001       18.160000
  H2        55.560001       29.309999       17.920000
  C8        55.029999       30.629999       19.450001
  H3        55.700001       30.240000       20.190001
  C9        54.119999       31.590000       19.820000
  H4        54.230000       32.040001       20.799999
  C10       53.029999       34.599998       21.180000
  H5        53.980000       34.060001       21.309999
  C11       52.709999       35.650002       22.030001
  H6        53.470001       36.049999       22.730000
  C12       51.419998       36.250000       22.040001
  H7        51.060001       36.990002       22.790001
  C13       50.470001       35.740002       21.080000
  H8        49.470001       36.180000       21.110001
  C6        48.849998       34.230000       18.900000
  C1        48.250000       35.389999       18.490000
  H1        48.779999       36.209999       17.990000
  C2        46.930000       35.650002       18.760000
  H2        46.439999       36.520000       18.290001
  C3        46.090000       34.740002       19.350000
  H3        45.009998       34.959999       19.629999
  C4        46.639999       33.500000       19.670000
  H4        46.070000       32.730000       20.219999
  C5        48.009998       33.209999       19.370001
  H5        48.349998       32.259998       19.200001
  C1        54.020000       35.360001       14.490000
  C2        53.720001       34.349998       13.610000
  N1        53.500000       34.900002       15.750000
  C3c       52.889999       33.700001       15.650000
  N2        53.090000       33.320000       14.350000
  C4        52.950001       31.990000       14.100000
  C5c       51.880001       31.400000       14.710000
  C6        51.480000       30.090000       14.420000
  H1        50.590000       29.660000       14.770000
  C7        52.189999       29.370001       13.470000
  H2        51.980000       28.379999       13.230000
  C8        53.279999       29.959999       12.820000
  H3        53.930000       29.330000       12.290000
  C9        53.619999       31.240000       13.100000
  H4        54.470001       31.590000       12.600000
  C10       54.049999       34.310001       12.220000
  H5        53.410000       33.770000       11.510000
  C11       54.619999       35.490002       11.700000
  H6        55.279999       35.470001       10.850000
  C12       54.759998       36.619999       12.540000
  H7        55.290001       37.570000       12.170000
  C13       54.529999       36.590000       13.890000
  H8        55.070000       37.250000       14.550000
  C6        54.169998       35.169998       16.930000
  C1        53.709999       36.160000       17.760000
  H1        52.830002       36.630001       17.450001
  C2        54.369999       36.500000       18.920000
  H2        54.139999       37.330002       19.570000
  C3        55.470001       35.740002       19.320000
  H3        55.770000       35.700001       20.360001
  C4        55.980000       34.770000       18.510000
  H4        57.040001       34.459999       18.629999
  C5        55.340000       34.450001       17.280001
  H5        55.730000       33.639999       16.700001
  IR        51.990002       28.940001       26.480000
  C1        49.259998       32.279999       25.620001
  C2        50.279999       32.570000       24.809999
  N1        49.560001       31.100000       26.389999
  C3a       50.720001       30.549999       25.940001
  N2        51.150002       31.389999       24.980000
  C4        52.549999       31.230000       24.709999
  C5a       53.250000       30.370001       25.540001
  C6        54.619999       30.270000       25.440001
  H1        55.080002       29.940001       26.330000
  C7        55.330002       30.980000       24.480000
  H2        56.360001       30.830000       24.299999
  C8        54.630001       31.719999       23.520000
  H3        55.150002       32.160000       22.750000
  C9        53.259998       31.930000       23.629999
  H4        52.689999       32.500000       22.950001
  C10       50.200001       33.619999       23.969999
  H5        51.009998       33.799999       23.370001
  C11       49.110001       34.540001       23.930000
  H6        49.060001       35.340000       23.219999
  C12       48.029999       34.310001       24.840000
  H7        47.169998       34.970001       24.930000
  C13       48.080002       33.130001       25.650000
  H8        47.169998       32.869999       26.160000
  C6        48.950001       30.670000       27.629999
  C1        48.139999       29.540001       27.620001
  H1        47.689999       29.250000       26.650000
  C2        47.630001       29.010000       28.870001
  H2        47.259998       27.950001       28.980000
  C3        47.860001       29.709999       30.100000
  H3        47.509998       29.340000       31.070000
  C4        48.549999       30.889999       30.030001
  H4        48.680000       31.330000       31.030001
  C5        49.070000       31.370001       28.809999
  H5        49.619999       32.259998       28.820000
  C1        52.020000       26.590000       22.809999
  C2        52.810001       25.870001       23.629999
  N1        51.520000       27.700001       23.459999
  C3b       52.090000       27.799999       24.719999
  N2        52.950001       26.700001       24.809999
  C4        53.509998       26.480000       26.150000
  C5b       53.529999       27.570000       26.980000
  C6        54.389999       27.540001       28.129999
  H1        54.560001       28.500000       28.580000
  C7        55.070000       26.379999       28.500000
  H2        55.689999       26.350000       29.420000
  C8        54.959999       25.240000       27.730000
  H3        55.320000       24.270000       28.139999
  C9        54.220001       25.280001       26.520000
  H4        54.250000       24.469999       25.870001
  C10       53.169998       24.530001       23.209999
  H5        53.910000       24.049999       23.809999
  C11       52.779999       23.980000       22.030001
  H6        52.520000       22.950001       21.969999
  C12       52.110001       24.860001       21.100000
  H7        52.099998       24.700001       20.020000
  C13       51.700001       26.150000       21.490000
  H8        51.049999       26.680000       20.830000
  C6        50.700001       28.700001       22.760000
  C1        49.470001       29.080000       23.309999
  H1        48.910000       28.510000       24.010000
  C2        48.880001       30.250000       22.860001
  H2        47.840000       30.450001       23.230000
  C3        49.509998       31.090000       21.900000
  H3        49.150002       32.150002       21.860001
  C4        50.639999       30.610001       21.260000
  H4        51.080002       31.209999       20.530001
  C5        51.250000       29.440001       21.709999
  H5        52.189999       29.090000       21.309999
  C1        49.730000       26.090000       28.920000
  C2        50.380001       26.840000       29.850000
  N1        50.020000       26.700001       27.660000
  C3c       50.759998       27.799999       27.680000
  N2        50.910000       28.000000       29.070000
  C4        51.599998       29.180000       29.430000
  C5c       52.180000       29.889999       28.430000
  C6        53.040001       30.959999       28.770000
  H1        53.450001       31.500000       27.920000
  C7        53.330002       31.290001       30.110001
  H2        54.160000       31.910000       30.290001
  C8        52.669998       30.549999       31.129999
  H3        52.959999       30.830000       32.180000
  C9        51.799999       29.510000       30.870001
  H4        51.220001       29.120001       31.660000
  C10       50.560001       26.389999       31.120001
  H5        51.320000       26.879999       31.750000
  C11       50.020000       25.230000       31.549999
  H6        50.160000       25.010000       32.660000
  C12       49.209999       24.469999       30.709999
  H7        48.730000       23.600000       31.049999
  C13       49.080002       24.900000       29.389999
  H8        48.389999       24.480000       28.719999
  C6        49.860001       25.879999       26.500000
  C1        50.599998       24.740000       26.350000
  H1        51.439999       24.620001       27.059999
  C2        50.470001       23.840000       25.280001
  H2        51.119999       22.969999       25.180000
  C3        49.669998       24.219999       24.200001
  H3        50.139999       24.070000       23.240000
  C4        48.810001       25.340000       24.389999
  H4        48.150002       25.660000       23.600000
  C5        48.939999       26.120001       25.500000
  H5        48.169998       26.910000       25.549999
