206
 generated by VMD
 Ir       84.736679      -46.104782       75.565613
 C        86.810898      -48.328171       72.423325
 C        86.619522      -49.211250       73.474487
 N        86.262444      -47.053192       72.834335
 C        85.835205      -47.169289       74.171532
 N        85.998520      -48.512077       74.502655
 C        85.451691      -48.912178       75.818939
 C        85.254669      -47.829224       76.655655
 C        85.115601      -47.970009       78.085846
 H        85.303680      -47.009880       78.675156
 C        85.084953      -49.252747       78.610283
 H        84.992065      -49.399055       79.736771
 C        85.202988      -50.402245       77.723259
 H        85.112556      -51.313522       78.235809
 C        85.391273      -50.222702       76.331451
 H        85.094559      -51.026436       75.674057
 C        87.014099      -50.543137       73.253166
 H        86.879524      -51.375839       73.969620
 C        87.716232      -50.851982       72.169647
 H        87.882507      -51.880672       71.862000
 C        87.898705      -49.968567       71.064438
 H        88.297577      -50.193016       70.138741
 C        87.355453      -48.686424       71.219284
 H        87.551117      -47.907242       70.449875
 C        86.357239      -45.795181       72.106728
 C        85.145409      -45.269073       71.691643
 H        84.170944      -45.632622       71.901764
 C        85.152832      -44.142097       70.833282
 H        84.303001      -43.451302       70.816620
 C        86.353088      -43.661629       70.340591
 H        86.588593      -42.917770       69.579201
 C        87.502808      -44.197670       70.858368
 H        88.459839      -43.772057       70.521973
 C        87.553925      -45.202522       71.789246
 H        88.410759      -45.355072       72.446487
 C        80.744743      -47.881554       75.128006
 C        80.631752      -47.166252       76.259460
 N        82.005249      -47.698120       74.623535
 C        82.808838      -46.900887       75.439781
 N        81.947380      -46.643841       76.488167
 C        82.447449      -45.756721       77.475258
 C        83.663910      -45.190132       77.169159
 C        84.178596      -44.145607       77.929077
 H        85.142258      -43.657890       77.758514
 C        83.555923      -43.695786       79.039230
 H        83.983421      -42.962379       79.659851
 C        82.358559      -44.312790       79.389984
 H        81.790604      -43.876373       80.268997
 C        81.763931      -45.335022       78.626724
 H        80.874786      -45.770569       79.068443
 C        79.397598      -47.066689       76.944534
 H        79.328461      -46.500618       77.886497
 C        78.318863      -47.687244       76.378265
 H        77.424316      -47.166885       76.593674
 C        78.372589      -48.463600       75.209946
 H        77.666534      -49.240517       75.008743
 C        79.626564      -48.566940       74.534531
 H        79.734497      -49.200230       73.652374
 C        82.411301      -48.102345       73.343964
 C        82.074348      -47.328354       72.205231
 H        81.263191      -46.663956       72.254204
 C        82.619858      -47.775444       70.954224
 H        82.507370      -47.133125       70.090408
 C        83.421944      -48.896378       70.859505
 H        83.731552      -49.365723       69.897034
 C        83.649567      -49.668312       71.964447
 H        84.494446      -50.279572       71.732620
 C        83.114212      -49.293594       73.207779
 H        83.118660      -50.037453       73.974045
 C        84.014473      -42.304962       73.696846
 C        85.392273      -42.364975       73.819168
 N        83.511398      -43.389778       74.335518
 C        84.481720      -44.152199       74.822235
 N        85.676819      -43.472755       74.583275
 C        86.841034      -43.925064       75.373047
 C        86.586533      -45.134720       76.084709
 C        87.580368      -45.670719       76.890930
 H        87.477005      -46.543900       77.548325
 C        88.907761      -45.123623       77.032730
 H        89.607864      -45.772854       77.527672
 C        89.122955      -43.943474       76.286652
 H        90.062592      -43.471848       76.314240
 C        88.148575      -43.396492       75.506897
 H        88.481262      -42.579216       74.885391
 C        86.207413      -41.485634       73.081535
 H        87.272949      -41.290096       73.312424
 C        85.543144      -40.481781       72.299789
 H        86.148941      -39.607178       72.020363
 C        84.135056      -40.438576       72.191605
 H        83.612747      -39.552319       71.807617
 C        83.382126      -41.402657       72.820389
 H        82.440491      -41.541279       72.399208
 C        82.181183      -43.341003       74.825165
 C        81.264900      -44.127926       74.140427
 H        81.651199      -44.782127       73.341805
 C        79.899658      -43.990349       74.384743
 H        79.091309      -44.504921       73.802338
 C        79.501938      -42.976334       75.254097
 H        78.443550      -42.943691       75.656296
 C        80.399246      -42.179810       75.888359
 H        80.093979      -41.439865       76.637154
 C        81.763763      -42.310181       75.679367
 H        82.530350      -41.544243       75.855728
 Ir       84.736679      -46.104782       88.374046
 C        88.187302      -45.021248       85.915558
 C        88.493095      -46.201065       86.618347
 N        86.791946      -44.789001       86.165421
 C        86.275024      -45.832287       86.993523
 N        87.330307      -46.667458       87.236343
 C        87.066269      -47.878830       87.925507
 C        85.968948      -47.798798       88.767410
 C        85.488808      -49.051697       89.262482
 H        84.567200      -49.083176       89.824936
 C        86.204437      -50.307106       88.992432
 H        85.833649      -51.140518       89.520203
 C        87.320007      -50.335678       88.236664
 H        87.924026      -51.181190       88.044914
 C        87.761597      -49.097191       87.670143
 H        88.741089      -49.129494       87.212479
 C        89.903000      -46.542694       86.637413
 H        90.299019      -47.221046       87.330307
 C        90.866539      -45.738113       85.980347
 H        91.950333      -45.836510       86.297058
 C        90.520035      -44.604935       85.311722
 H        91.257614      -43.974899       84.946152
 C        89.139824      -44.226265       85.308342
 H        88.876083      -43.227154       84.997185
 C        86.042366      -43.697655       85.644371
 C        85.122757      -43.940285       84.630493
 H        84.970520      -44.875687       84.246384
 C        84.504196      -42.763191       84.060638
 H        83.892616      -42.828140       83.146988
 C        84.704979      -41.467976       84.516701
 H        84.121750      -40.654430       84.177460
 C        85.481461      -41.267170       85.683434
 H        85.147362      -40.482300       86.374344
 C        86.161392      -42.427116       86.185928
 H        86.997429      -42.163948       86.882477
 C        81.766975      -48.623672       86.358948
 C        81.360962      -48.542549       87.636505
 N        82.968491      -47.908192       86.296799
 C        83.294029      -47.317734       87.505096
 N        82.285957      -47.705887       88.384888
 C        82.478104      -47.443306       89.759308
 C        83.472977      -46.451324       90.021584
 C        83.596718      -45.930141       91.316360
 H        84.345078      -45.139523       91.405212
 C        82.884567      -46.388237       92.400467
 H        83.294716      -46.277321       93.382744
 C        81.959076      -47.413826       92.169113
 H        81.332092      -47.757057       92.999344
 C        81.775574      -47.962799       90.861801
 H        81.238556      -48.866272       90.709671
 C        80.174423      -49.153725       87.946655
 H        79.658508      -48.621975       88.725159
 C        79.533211      -49.978073       87.014664
 H        78.559250      -50.244896       87.199394
 C        80.059555      -50.181648       85.722061
 H        79.612274      -51.018982       85.091110
 C        81.146477      -49.455223       85.392044
 H        81.686172      -49.543846       84.427330
 C        84.037231      -48.240334       85.384018
 C        84.535828      -49.540634       85.458473
 H        84.448875      -50.140076       86.292503
 C        85.128693      -50.040527       84.338112
 H        85.446938      -51.002968       84.427719
 C        85.202721      -49.342346       83.155251
 H        85.848587      -49.766396       82.380051
 C        84.625198      -48.064011       83.027054
 H        84.892227      -47.451530       82.191193
 C        84.011810      -47.499283       84.173401
 H        83.590973      -46.513504       84.210014
 C        82.783577      -42.249535       88.014824
 C        83.796173      -42.000404       88.882042
 N        82.811157      -43.565666       87.641273
 C        83.817650      -44.210411       88.317055
 N        84.473183      -43.245468       89.036613
 C        85.732407      -43.564384       89.580254
 C        85.949814      -44.954193       89.709732
 C        87.064568      -45.417480       90.472427
 H        87.090210      -46.455021       90.687500
 C        88.003662      -44.520134       91.019012
 H        88.934090      -44.870270       91.500061
 C        87.899170      -43.168419       90.746719
 H        88.856491      -42.602798       90.888550
 C        86.772354      -42.692764       90.086006
 H        86.652695      -41.617470       90.067993
 C        83.966370      -40.738800       89.366997
 H        84.690285      -40.561707       90.166611
 C        83.276367      -39.623436       88.867737
 H        83.430435      -38.618759       89.161316
 C        82.223831      -39.827976       87.996277
 H        81.570053      -39.025745       87.683395
 C        81.982834      -41.149261       87.550369
 H        81.330154      -41.344536       86.690796
 C        81.717636      -44.125198       86.818771
 C        80.834839      -44.968544       87.440094
 H        81.004326      -45.195816       88.452530
 C        79.838661      -45.634735       86.748917
 H        79.065056      -46.170067       87.411530
 C        79.917450      -45.564613       85.331924
 H        79.468277      -46.385818       84.793900
 C        80.850647      -44.745277       84.691040
 H        80.812317      -44.580788       83.623299
 C        81.795685      -43.994019       85.437431
 H        82.254425      -43.125954       85.011963
