206
 generated by VMD
 Ir       37.027985      -42.099266      113.991425
 C        37.147930      -38.087906      115.588921
 C        37.257126      -38.902107      116.700699
 N        37.176796      -38.888138      114.453804
 C        37.239044      -40.196404      114.835449
 N        37.313171      -40.179939      116.191483
 C        37.484940      -41.506409      116.774811
 C        37.063854      -42.625042      116.004059
 C        36.944862      -43.872032      116.610641
 H        36.390324      -44.652893      116.048462
 C        37.378563      -44.069584      117.930603
 H        37.312561      -45.016617      118.333672
 C        37.903305      -42.999313      118.657555
 H        38.616074      -43.053448      119.463547
 C        38.017868      -41.739632      118.081299
 H        38.854164      -41.136635      118.465485
 C        37.105927      -38.384834      117.995720
 H        37.063759      -39.031456      118.899879
 C        36.906258      -37.004295      118.177177
 H        36.688858      -36.584919      119.177010
 C        36.789024      -36.202057      117.023071
 H        36.463150      -35.218422      117.236748
 C        36.859978      -36.754280      115.734261
 H        36.674786      -36.053318      114.919304
 C        36.769531      -38.253471      113.165886
 C        37.719788      -37.672684      112.273361
 H        38.771393      -37.620750      112.451225
 C        37.220692      -37.073452      111.145164
 H        37.863472      -36.876884      110.348740
 C        35.810905      -37.026749      110.903458
 H        35.306427      -36.687263      110.015060
 C        34.930405      -37.643204      111.788101
 H        33.868370      -37.665688      111.447990
 C        35.366135      -38.290791      112.904198
 H        34.668221      -38.949364      113.463753
 C        41.192924      -43.474564      113.518967
 C        40.423744      -44.469200      113.166611
 N        40.295429      -42.478958      113.884979
 C        38.966324      -42.785118      113.746613
 N        39.045059      -44.082340      113.196045
 C        37.834183      -44.738960      112.822510
 C        36.740353      -44.098373      113.387566
 C        35.533085      -44.794266      113.515770
 H        34.666275      -44.211361      113.775314
 C        35.397633      -46.101791      113.070183
 H        34.460953      -46.576965      113.122437
 C        36.422554      -46.756500      112.517479
 H        36.303051      -47.758560      112.048645
 C        37.634377      -46.059166      112.359657
 H        38.460808      -46.569046      111.780052
 C        40.964767      -45.773861      112.960327
 H        40.432350      -46.746017      113.104698
 C        42.352554      -45.974724      113.032478
 H        42.765640      -47.024433      112.849274
 C        43.147591      -44.882652      113.413803
 H        44.194271      -44.948025      113.673004
 C        42.546673      -43.615822      113.679932
 H        43.183052      -42.801197      113.976097
 C        40.849091      -41.218124      114.335266
 C        41.349209      -40.292618      113.430710
 H        41.088345      -40.287071      112.377899
 C        41.816948      -39.046627      113.910942
 H        42.230721      -38.351898      113.248634
 C        41.922245      -38.712013      115.270332
 H        42.147461      -37.742027      115.652573
 C        41.483437      -39.666485      116.176163
 H        41.819595      -39.741932      117.196655
 C        40.950676      -40.934738      115.728737
 H        40.414719      -41.602654      116.444443
 C        36.250267      -40.867455      109.893280
 C        35.027916      -40.729343      110.478317
 N        37.080467      -41.481766      110.835350
 C        36.511421      -41.698456      112.020309
 N        35.198364      -41.254845      111.751968
 C        34.304672      -41.501457      112.888893
 C        34.943573      -41.677456      114.163818
 C        34.134285      -41.512314      115.262802
 H        34.448204      -41.721581      116.273376
 C        32.823227      -41.152500      115.112259
 H        32.361877      -40.881302      116.006584
 C        32.151138      -41.027725      113.877014
 H        31.143028      -40.715317      113.767418
 C        32.941090      -41.299160      112.783401
 H        32.425209      -41.620377      111.942215
 C        33.965698      -40.088703      109.761810
 H        33.016788      -40.046585      110.232330
 C        34.257751      -39.639572      108.511742
 H        33.365482      -39.340546      107.939865
 C        35.491051      -39.799229      107.930710
 H        35.819542      -39.158356      107.087227
 C        36.587158      -40.391510      108.664917
 H        37.610138      -40.386478      108.370148
 C        38.204292      -42.300468      110.428337
 C        37.970116      -43.564411      109.837997
 H        36.946465      -43.993862      109.700127
 C        39.012135      -44.365395      109.375359
 H        38.800560      -45.382542      109.225899
 C        40.302933      -43.799252      109.419159
 H        41.073353      -44.355095      108.919868
 C        40.578194      -42.547279      109.957848
 H        41.306358      -41.916481      109.664963
 C        39.520042      -41.809254      110.550003
 H        39.674065      -40.910374      111.093414
 Ir       37.027985      -42.099266      126.595734
 C        41.290443      -42.745857      125.832626
 C        40.776512      -43.979668      125.967148
 N        40.255272      -41.825413      126.170433
 C        39.063904      -42.438004      126.328758
 N        39.391495      -43.829330      126.338661
 C        38.571915      -44.639206      127.115250
 C        37.228767      -44.107994      127.224693
 C        36.166893      -45.028206      127.421783
 H        35.206886      -44.609520      127.726547
 C        36.333000      -46.392715      127.492554
 H        35.459255      -46.974438      127.822807
 C        37.603493      -46.915787      127.375694
 H        37.702995      -47.944687      127.685471
 C        38.719521      -46.037720      127.303070
 H        39.699646      -46.377892      127.265198
 C        41.539108      -45.098072      125.533890
 H        41.209969      -46.111877      125.623108
 C        42.782410      -44.960411      124.951950
 H        43.234077      -45.821228      124.382050
 C        43.326653      -43.715355      124.869919
 H        44.155907      -43.571941      124.251549
 C        42.613182      -42.535904      125.347458
 H        42.925140      -41.585526      125.114075
 C        40.535255      -40.445351      126.412186
 C        40.626228      -39.951065      127.696083
 H        40.704323      -40.626656      128.590332
 C        40.832272      -38.542992      127.816391
 H        40.746208      -38.160007      128.811035
 C        41.048264      -37.703415      126.701866
 H        41.370777      -36.646286      126.738655
 C        40.940010      -38.226669      125.434158
 H        41.286953      -37.773956      124.526978
 C        40.633629      -39.638573      125.267838
 H        40.200775      -40.033527      124.327805
 C        35.276733      -43.854309      122.945618
 C        34.200264      -43.331741      123.602158
 N        36.394852      -43.579052      123.742203
 C        36.130814      -42.991398      124.925346
 N        34.704311      -42.868576      124.863716
 C        34.034515      -42.591644      126.107773
 C        34.913082      -42.111000      127.090164
 C        34.416374      -41.750763      128.334518
 H        35.042072      -41.306973      129.110748
 C        33.041195      -41.783558      128.543335
 H        32.799007      -41.705322      129.573456
 C        32.182449      -42.323578      127.611763
 H        31.104473      -42.297718      127.723984
 C        32.691078      -42.741024      126.376602
 H        31.970707      -43.086670      125.637817
 C        33.058907      -43.104290      122.951332
 H        32.138039      -42.873291      123.462349
 C        33.039623      -43.275398      121.562462
 H        32.112114      -43.043888      121.073059
 C        34.129494      -43.760857      120.869278
 H        34.069263      -44.091892      119.854637
 C        35.312553      -44.090775      121.578949
 H        35.952297      -44.896301      121.141968
 C        37.695114      -43.961349      123.353127
 C        38.624344      -43.094509      122.832535
 H        38.378387      -42.079262      122.823700
 C        39.784271      -43.599846      122.240326
 H        40.393890      -42.866108      121.751862
 C        40.054703      -45.003136      122.217209
 H        40.960197      -45.495552      121.839706
 C        39.085060      -45.848431      122.739388
 H        39.191490      -46.901970      122.549324
 C        37.921387      -45.320831      123.311844
 H        37.221069      -45.876945      123.805092
 C        36.936085      -37.853203      125.521500
 C        37.178078      -37.886528      126.850304
 N        36.669605      -39.169579      125.136353
 C        36.782558      -40.067085      126.214279
 N        37.131985      -39.223045      127.251053
 C        37.293060      -39.840714      128.528915
 C        37.612045      -41.227013      128.439819
 C        37.801346      -41.898300      129.651886
 H        38.157169      -42.925514      129.596039
 C        37.609650      -41.212494      130.840820
 H        37.994316      -41.615189      131.741470
 C        37.265759      -39.885811      130.852280
 H        37.087543      -39.245956      131.683136
 C        37.111908      -39.218834      129.719727
 H        36.735725      -38.188744      129.721954
 C        37.696968      -36.736778      127.546463
 H        37.575481      -36.718628      128.622620
 C        37.915871      -35.576920      126.822716
 H        38.320061      -34.676598      127.289902
 C        37.727291      -35.570400      125.453552
 H        38.076569      -34.780403      124.880493
 C        37.226967      -36.711056      124.855240
 H        36.736732      -36.384254      123.934662
 C        36.126583      -39.443382      123.776695
 C        37.020164      -39.936737      122.853706
 H        38.023872      -39.584122      122.832832
 C        36.523613      -40.444427      121.631660
 H        37.253723      -40.952148      121.027214
 C        35.194889      -40.339073      121.334366
 H        34.841042      -40.752693      120.327934
 C        34.291271      -39.712860      122.150841
 H        33.272236      -39.562023      121.876404
 C        34.716187      -39.306190      123.424492
 H        33.995216      -39.103691      124.184357
