206
 generated by VMD
 Ir        0.295082       -0.256100       -6.533821
 C         2.816765       -3.448254       -8.163406
 C         1.726345       -4.102215       -7.629623
 N         2.623791       -2.081654       -7.928337
 C         1.445518       -1.830494       -7.251575
 N         0.914101       -3.100788       -7.054474
 C        -0.242916       -3.157856       -6.215096
 C        -0.911427       -1.924068       -6.075556
 C        -2.157932       -1.921001       -5.433352
 H        -2.740700       -1.018772       -5.397831
 C        -2.698742       -3.092793       -4.877350
 H        -3.638767       -3.049633       -4.346790
 C        -1.993301       -4.295277       -4.959087
 H        -2.379616       -5.177288       -4.482203
 C        -0.765347       -4.322872       -5.628757
 H        -0.185410       -5.236874       -5.611805
 C         1.643356       -5.508526       -7.761604
 H         0.774582       -6.046307       -7.437519
 C         2.668854       -6.226856       -8.391321
 H         2.584957       -7.298206       -8.506538
 C         3.778351       -5.549969       -8.907494
 H         4.593006       -6.103275       -9.341988
 C         3.842888       -4.158306       -8.804573
 H         4.705853       -3.643162       -9.206463
 C         3.675682       -1.108814       -8.120171
 C         3.473530       -0.055580       -9.011650
 H         2.585678       -0.036312       -9.630878
 C         4.420506        0.962826       -9.115086
 H         4.279354        1.748917       -9.838303
 C         5.580223        0.936275       -8.337952
 H         6.315517        1.727627       -8.416092
 C         5.792809       -0.128418       -7.454195
 H         6.692520       -0.183681       -6.869083
 C         4.835320       -1.145229       -7.341442
 H         4.987347       -1.954258       -6.634214
 C        -2.151310        0.786247       -9.999889
 C        -2.626751        1.571877       -8.986107
 N        -1.179882       -0.064548       -9.444473
 C        -1.033333        0.144112       -8.080515
 N        -1.959496        1.148643       -7.806217
 C        -2.113518        1.492016       -6.439735
 C        -1.046932        1.090336       -5.606936
 C        -1.018051        1.545795       -4.289278
 H        -0.201801        1.268265       -3.642275
 C        -2.037189        2.366638       -3.777256
 H        -1.992298        2.713413       -2.755619
 C        -3.114635        2.730431       -4.594364
 H        -3.886269        3.385948       -4.214657
 C        -3.153419        2.284843       -5.914154
 H        -4.053783        2.453480       -6.487217
 C        -3.562672        2.587391       -9.272068
 H        -3.853069        3.307022       -8.531792
 C        -4.032505        2.764736      -10.584091
 H        -4.762489        3.538239      -10.789318
 C        -3.546181        1.956173      -11.613857
 H        -3.891830        2.099197      -12.629570
 C        -2.610622        0.961990      -11.321228
 H        -2.256866        0.323235      -12.121883
 C        -0.466385       -1.048519      -10.230679
 C        -0.612434       -2.407955       -9.937439
 H        -1.189255       -2.721401       -9.086067
 C        -0.026352       -3.368702      -10.774872
 H        -0.089760       -4.412235      -10.528282
 C         0.666904       -2.973179      -11.927418
 H         1.112461       -3.719532      -12.573826
 C         0.802967       -1.613743      -12.221195
 H         1.283215       -1.299999      -13.138710
 C         0.245777       -0.649815      -11.362431
 H         0.397453        0.398510      -11.574585
 C         2.789894        3.345058       -6.555553
 C         3.392204        2.502327       -5.656204
 N         1.719746        2.632504       -7.137232
 C         1.600742        1.362297       -6.603355
 N         2.653160        1.297256       -5.693920
 C         2.688969        0.132542       -4.874554
 C         1.441444       -0.497967       -4.768980
 C         1.244450       -1.410709       -3.718935
 H         0.264969       -1.844082       -3.569901
 C         2.288994       -1.735310       -2.849079
 H         2.115421       -2.424877       -2.046907
 C         3.549805       -1.165325       -3.015148
 H         4.366501       -1.454327       -2.376408
 C         3.755360       -0.228058       -4.038265
 H         4.758297        0.103706       -4.250744
 C         4.504536        2.954418       -4.928654
 H         4.964016        2.344128       -4.165947
 C         4.994583        4.249237       -5.101528
 H         5.802631        4.614677       -4.488005
 C         4.373547        5.108524       -6.024855
 H         4.730667        6.108780       -6.147114
 C         3.260593        4.648155       -6.740961
 H         2.777309        5.320560       -7.433853
 C         0.873646        3.204510       -8.158121
 C        -0.077805        4.164162       -7.786633
 H        -0.304325        4.303631       -6.746134
 C        -0.756062        4.893818       -8.763090
 H        -1.482628        5.635300       -8.476009
 C        -0.502308        4.662224      -10.121979
 H        -1.012508        5.244495      -10.872749
 C         0.429001        3.682827      -10.491360
 H         0.625664        3.492405      -11.535374
 C         1.117245        2.953171       -9.514362
 H         1.804138        2.180481       -9.808681
 Ir        0.295082       -0.256100        8.094555
 C         0.307426        1.115639        3.977764
 C         1.306572        0.181896        4.020584
 N        -0.124554        1.332577        5.298948
 C         0.557983        0.529331        6.196245
 N         1.462639       -0.165165        5.393826
 C         2.307510       -1.097134        6.067120
 C         1.877190       -1.442295        7.357619
 C         2.512867       -2.505413        8.010388
 H         2.208794       -2.788242        9.003437
 C         3.557362       -3.210682        7.399874
 H         4.010246       -4.043324        7.914163
 C         3.996685       -2.852459        6.128036
 H         4.803658       -3.392399        5.650387
 C         3.381599       -1.781063        5.464897
 H         3.830807       -1.403309        4.565784
 C         1.882530       -0.260803        2.814728
 H         2.634487       -1.039783        2.798847
 C         1.428329        0.233433        1.584146
 H         1.868984       -0.102180        0.657986
 C         0.398247        1.180237        1.557831
 H         0.018494        1.538250        0.617077
 C        -0.167198        1.621342        2.754368
 H        -0.956772        2.352856        2.725170
 C        -0.886158        2.494453        5.678417
 C        -0.206051        3.655037        6.065056
 H         0.874767        3.678276        6.079172
 C        -0.936802        4.793983        6.429615
 H        -0.412212        5.688629        6.729141
 C        -2.328762        4.775536        6.428329
 H        -2.886673        5.641857        6.744904
 C        -3.009495        3.606670        6.053141
 H        -4.082714        3.560204        6.083773
 C        -2.278210        2.466133        5.678726
 H        -2.812782        1.571491        5.378654
 C        -2.379459       -3.589306        7.180638
 C        -2.111664       -3.719181        8.524777
 N        -1.623028       -2.506672        6.711590
 C        -0.906891       -1.905193        7.728312
 N        -1.228355       -2.660206        8.857693
 C        -0.744728       -2.149998       10.099784
 C         0.293537       -1.218922        9.974839
 C         0.962166       -0.795368       11.129369
 H         1.847736       -0.197960       11.050159
 C         0.542839       -1.212444       12.401668
 H         1.036209       -0.824055       13.278506
 C        -0.545380       -2.084667       12.524530
 H        -0.898849       -2.369091       13.505024
 C        -1.184483       -2.557583       11.379584
 H        -2.091450       -3.130459       11.484103
 C        -2.751530       -4.752064        9.245692
 H        -2.476376       -4.964199       10.268771
 C        -3.678566       -5.585972        8.610235
 H        -4.169376       -6.373058        9.167558
 C        -3.965904       -5.406742        7.257051
 H        -4.782604       -5.948887        6.803528
 C        -3.295448       -4.426403        6.526003
 H        -3.478477       -4.332439        5.466160
 C        -1.547146       -2.148220        5.308472
 C        -2.537903       -1.349979        4.740229
 H        -3.223324       -0.815716        5.377544
 C        -2.633202       -1.218204        3.354385
 H        -3.421402       -0.611317        2.929504
 C        -1.717148       -1.876400        2.526421
 H        -1.779030       -1.756008        1.448563
 C        -0.706249       -2.654903        3.092558
 H         0.018940       -3.146107        2.460571
 C        -0.610931       -2.784702        4.478081
 H         0.226910       -3.299549        4.911041
 C        -2.721554        2.569111        9.432130
 C        -1.537205        3.249374        9.568705
 N        -2.412888        1.245789        9.094866
 C        -1.053272        1.069298        8.953488
 N        -0.520565        2.313942        9.288119
 C         0.906090        2.358219        9.388548
 C         1.579540        1.282902        8.787416
 C         2.980164        1.274925        8.813732
 H         3.513256        0.433731        8.400447
 C         3.696926        2.292908        9.448607
 H         4.774292        2.235268        9.526346
 C         3.023300        3.348480       10.052929
 H         3.577656        4.141907       10.542902
 C         1.632393        3.387669       10.032228
 H         1.118984        4.117771       10.637012
 C        -1.564777        4.618866        9.893409
 H        -0.664207        5.210880        9.907182
 C        -2.787479        5.280071       10.095633
 H        -2.793045        6.319305       10.383667
 C        -3.991447        4.578472        9.951303
 H        -4.932735        5.072155       10.134988
 C        -3.953178        3.227127        9.614098
 H        -4.888287        2.689857        9.498295
 C        -3.313602        0.166946        9.454051
 C        -3.486706       -0.140629       10.803101
 H        -2.835388        0.306377       11.536977
 C        -4.418644       -1.114368       11.184169
 H        -4.565174       -1.337887       12.226863
 C        -5.157131       -1.799908       10.210278
 H        -5.863678       -2.557766       10.497588
 C        -4.963539       -1.495907        8.852769
 H        -5.483398       -2.067371        8.095421
 C        -4.042027       -0.510693        8.479427
 H        -3.855721       -0.304947        7.441757
