206
 generated by VMD
 Ir       30.461355       49.854279       52.447777
 C        32.666065       53.336452       53.909328
 C        31.571747       53.213158       54.743515
 N        32.470837       52.395096       52.885201
 C        31.374817       51.576885       53.145721
 N        30.820047       52.089417       54.334183
 C        29.439735       51.658409       54.650848
 C        29.013470       50.599503       53.867775
 C        27.745792       50.025806       54.043175
 H        27.606991       49.014641       53.732735
 C        26.922890       50.551590       55.070301
 H        25.946754       50.122494       55.153008
 C        27.267708       51.616852       55.858479
 H        26.523643       51.927090       56.550304
 C        28.510389       52.204063       55.639572
 H        28.920143       52.914146       56.397263
 C        31.450909       54.116440       55.728233
 H        30.595634       54.070679       56.361801
 C        32.339207       55.127575       55.929810
 H        32.159847       55.730881       56.765247
 C        33.409035       55.277920       55.062935
 H        33.963253       56.241600       55.145187
 C        33.590080       54.341789       54.060997
 H        34.523045       54.421219       53.390945
 C        32.839725       52.802391       51.563072
 C        31.916367       53.549198       50.847679
 H        31.021088       54.039375       51.312225
 C        32.228024       53.796432       49.497185
 H        31.574039       54.404694       48.942543
 C        33.288124       53.206062       48.789539
 H        33.584415       53.520645       47.855007
 C        34.191265       52.406822       49.580704
 H        34.888149       51.853455       49.065697
 C        33.917339       52.190224       50.946632
 H        34.543091       51.604866       51.492432
 C        31.461590       47.034126       55.679028
 C        30.894096       46.257538       54.641884
 N        31.539452       48.338089       55.200573
 C        30.954929       48.462830       53.906288
 N        30.533813       47.203575       53.651070
 C        29.635513       47.077194       52.482014
 C        29.261852       48.232975       51.839951
 C        28.163523       48.234932       50.963669
 H        27.823921       49.214096       50.614937
 C        27.522541       47.011841       50.701202
 H        26.665625       47.055191       50.020905
 C        27.997082       45.775742       51.152290
 H        27.553532       44.862839       51.029121
 C        29.045712       45.878380       52.085049
 H        29.415554       44.956894       52.452721
 C        30.722946       44.880718       54.799576
 H        30.346653       44.263088       53.970940
 C        31.089546       44.245159       55.975235
 H        31.035259       43.176315       55.890247
 C        31.539871       45.042725       57.056343
 H        31.633339       44.594559       58.028816
 C        31.744007       46.436657       56.894211
 H        31.859959       47.118050       57.701469
 C        32.319714       49.428165       55.872681
 C        33.466846       50.058434       55.289879
 H        34.022717       49.714527       54.399185
 C        34.215908       50.922489       56.098160
 H        35.202465       51.272926       55.789612
 C        33.812325       51.343391       57.403435
 H        34.269482       52.170753       57.928970
 C        32.672157       50.743206       57.883537
 H        32.164761       51.045990       58.795662
 C        31.950848       49.772072       57.161659
 H        31.097504       49.214649       57.639656
 C        33.102917       48.870258       49.152683
 C        32.253582       49.832329       48.645576
 N        32.746536       48.641792       50.491039
 C        31.633354       49.381180       50.792755
 N        31.280998       50.101463       49.621460
 C        30.033566       50.711418       49.665836
 C        29.571514       51.079887       50.965424
 C        28.653400       52.156776       51.020889
 H        28.471079       52.502323       52.012383
 C        28.160141       52.750946       49.893654
 H        27.767958       53.753853       49.989418
 C        28.443569       52.190407       48.666885
 H        28.133274       52.711716       47.807262
 C        29.410633       51.174232       48.533203
 H        29.541508       50.638542       47.643196
 C        32.366886       50.308075       47.332977
 H        31.584805       51.028946       47.004192
 C        33.417458       49.752480       46.508286
 H        33.326694       49.850708       45.446159
 C        34.212067       48.724457       47.007942
 H        34.788990       48.002747       46.394592
 C        34.075287       48.285137       48.331566
 H        34.579285       47.360336       48.669395
 C        33.361362       47.706234       51.318153
 C        34.503376       48.162109       52.008209
 H        34.832150       49.145660       51.798607
 C        35.183449       47.311272       52.948303
 H        35.990143       47.836151       53.530666
 C        34.740219       46.007591       53.101173
 H        35.172428       45.478828       53.936699
 C        33.659626       45.473061       52.293900
 H        33.554844       44.408905       52.122147
 C        32.929367       46.370819       51.454697
 H        32.020531       46.113365       50.986580
 Ir       30.461355       49.854279       66.489037
 C        30.275246       51.390163       70.487206
 C        31.333458       52.000839       69.979309
 N        29.799978       50.429497       69.583519
 C        30.548172       50.472496       68.458900
 N        31.554668       51.410221       68.737549
 C        32.519764       51.565811       67.721001
 C        32.351490       50.841637       66.562698
 C        33.445023       50.820877       65.640503
 H        33.247608       50.207649       64.761024
 C        34.630863       51.467155       65.812859
 H        35.333431       51.590477       64.996895
 C        34.787411       52.174221       67.020851
 H        35.591198       52.827694       67.063255
 C        33.722591       52.247417       67.885376
 H        34.026386       53.035046       68.560242
 C        32.141216       52.782654       70.748970
 H        32.855415       53.482208       70.303162
 C        31.950516       52.766129       72.175247
 H        32.619293       53.352005       72.733978
 C        30.869354       52.134758       72.793350
 H        30.688030       52.127335       73.828568
 C        29.998608       51.549992       71.909645
 H        29.018585       51.410675       72.314552
 C        28.537804       49.704025       69.800529
 C        27.294827       50.258781       69.710243
 H        27.370735       51.323204       69.420509
 C        26.142124       49.559242       70.074707
 H        25.202501       50.037270       70.140274
 C        26.273598       48.218010       70.432785
 H        25.368935       47.636024       70.592407
 C        27.526806       47.595642       70.496162
 H        27.679039       46.603241       70.888680
 C        28.631531       48.358650       70.110039
 H        29.577145       47.795349       70.030617
 C        28.768719       53.352005       64.532967
 C        29.036446       52.498383       63.479279
 N        29.254498       52.740726       65.718956
 C        29.765804       51.523380       65.478882
 N        29.659203       51.337074       64.125908
 C        30.430763       50.320900       63.575844
 C        30.763527       49.338432       64.447006
 C        31.340950       48.232574       63.888657
 H        31.501755       47.434738       64.509148
 C        31.761776       48.057007       62.553192
 H        32.389000       47.350483       62.214500
 C        31.538963       49.167244       61.729820
 H        31.756527       49.111748       60.743877
 C        30.800369       50.244682       62.220230
 H        30.364193       50.877495       61.485992
 C        28.680805       52.971672       62.210098
 H        28.582335       52.365623       61.372543
 C        28.130396       54.248070       62.026634
 H        27.869507       54.569569       60.989151
 C        27.916409       55.061119       63.165558
 H        27.452686       56.004688       62.996635
 C        28.286297       54.672558       64.439102
 H        28.052742       55.152779       65.366272
 C        29.572681       53.604530       66.862106
 C        30.660500       54.491463       66.738007
 H        31.392315       54.203575       66.018791
 C        30.859001       55.326302       67.848976
 H        31.527370       56.161366       67.855537
 C        30.033102       55.276127       68.976929
 H        30.315205       55.882446       69.805603
 C        29.024220       54.297569       69.063965
 H        28.606277       54.156311       70.055618
 C        28.753271       53.500271       67.964920
 H        27.944752       52.771458       67.979973
 C        26.807899       47.461750       66.867691
 C        27.751177       46.698654       67.352783
 N        27.439133       48.560089       66.306175
 C        28.846794       48.570244       66.440659
 N        29.038055       47.333057       67.035797
 C        30.422741       46.977829       67.258392
 C        31.303722       48.040287       67.220360
 C        32.602787       47.885971       67.648880
 H        33.323376       48.666397       67.675110
 C        33.065384       46.714455       68.260231
 H        34.047855       46.561531       68.572258
 C        32.182175       45.670761       68.376648
 H        32.521358       44.828487       68.979660
 C        30.905575       45.796925       67.871300
 H        30.303692       44.930122       67.966087
 C        27.420481       45.396080       67.850525
 H        28.238766       44.718262       68.096024
 C        26.108044       44.938297       67.892281
 H        25.913445       43.898441       68.138306
 C        25.098583       45.784191       67.482452
 H        24.097439       45.412773       67.466423
 C        25.434256       47.000931       66.916092
 H        24.755001       47.474518       66.262840
 C        26.705055       49.276802       65.258865
 C        26.998964       48.867493       63.971939
 H        27.857376       48.243484       63.889267
 C        26.637405       49.620621       62.926483
 H        26.697308       49.269012       61.948280
 C        26.012672       50.871918       63.175621
 H        25.859783       51.496986       62.308380
 C        25.674040       51.299995       64.450409
 H        24.999512       52.134293       64.501976
 C        25.993124       50.467384       65.504753
 H        25.546944       50.764374       66.421288
