206
 generated by VMD
  IR        39.320000       33.709999       45.799999
  C1        39.150002       30.530001       42.799999
  C2        38.849998       29.950001       43.980000
  N1        39.450001       31.860001       43.090000
  C3a       39.259998       32.130001       44.439999
  N2        38.849998       30.910000       44.959999
  C4        38.189999       30.980000       46.240002
  C5a       38.430000       32.169998       46.910000
  C6        37.860001       32.349998       48.130001
  H1        37.750000       33.290001       48.580002
  C7        37.070000       31.389999       48.730000
  H2        36.599998       31.530001       49.790001
  C8        36.790001       30.209999       48.099998
  H3        36.150002       29.469999       48.459999
  C9        37.360001       29.969999       46.880001
  H4        37.220001       28.980000       46.450001
  C10       38.740002       28.549999       44.060001
  H5        38.439999       28.230000       44.990002
  C11       38.869999       27.709999       42.950001
  H6        38.730000       26.610001       43.040001
  C12       39.270000       28.330000       41.779999
  H7        39.180000       27.799999       40.830002
  C13       39.330002       29.730000       41.689999
  H8        39.709999       29.950001       40.709999
  C6        39.990002       32.720001       42.099998
  C1        39.139999       33.369999       41.220001
  H1        38.200001       32.880001       40.860001
  C2        39.709999       34.220001       40.290001
  H2        39.119999       34.990002       39.810001
  C3        41.099998       34.250000       40.119999
  H3        41.459999       34.939999       39.369999
  C4        42.000000       33.490002       40.939999
  H4        43.020000       33.799999       41.009998
  C5        41.400002       32.770000       41.950001
  H5        42.020000       32.200001       42.650002
  C1        35.590000       35.900002       45.200001
  C2        36.110001       36.540001       46.279999
  N1        36.389999       34.759998       44.889999
  C3b       37.500000       34.669998       45.689999
  N2        37.259998       35.770000       46.599998
  C4        38.240002       35.869999       47.570000
  C5b       39.430000       35.150002       47.389999
  C6        40.450001       35.279999       48.389999
  H1        41.230000       34.570000       48.369999
  C7        40.340000       36.220001       49.430000
  H2        41.090000       36.200001       50.230000
  C8        39.160000       36.950001       49.549999
  H3        39.119999       37.610001       50.430000
  C9        38.070000       36.750000       48.700001
  H4        37.060001       36.930000       49.040001
  C10       35.549999       37.770000       46.680000
  H5        35.919998       38.250000       47.610001
  C11       34.419998       38.310001       46.040001
  H6        33.950001       39.169998       46.430000
  C12       33.980000       37.689999       44.860001
  H7        33.209999       38.310001       44.320000
  C13       34.540001       36.470001       44.470001
  H8        34.070000       35.900002       43.680000
  C6        35.930000       33.669998       44.150002
  C1        35.669998       32.459999       44.759998
  H1        35.549999       32.599998       45.849998
  C2        35.380001       31.320000       43.980000
  H2        35.060001       30.389999       44.349998
  C3        35.470001       31.400000       42.590000
  H3        35.250000       30.520000       41.959999
  C4        35.730000       32.660000       41.930000
  H4        35.840000       32.720001       40.849998
  C5        35.919998       33.750000       42.759998
  H5        35.779999       34.740002       42.340000
  C1        41.639999       36.470001       43.360001
  C2        42.540001       35.480000       43.730000
  N1        40.450001       36.099998       43.880001
  C3c       40.549999       35.009998       44.740002
  N2        41.860001       34.610001       44.610001
  C4        42.160000       33.340000       45.139999
  C5c       41.290001       32.959999       46.130001
  C6        41.660000       31.969999       47.060001
  H1        41.009998       31.639999       47.849998
  C7        42.919998       31.400000       46.990002
  H2        43.270000       30.719999       47.779999
  C8        43.770000       31.709999       45.970001
  H3        44.759998       31.299999       45.860001
  C9        43.410000       32.689999       45.070000
  H4        44.090000       33.020000       44.259998
  C10       43.930000       35.570000       43.320000
  H5        44.630001       34.860001       43.590000
  C11       44.290001       36.639999       42.520000
  H6        45.270000       36.950001       42.240002
  C12       43.349998       37.540001       42.060001
  H7        43.709999       38.430000       41.520000
  C13       42.040001       37.459999       42.419998
  H8        41.230000       38.160000       42.049999
  C6        39.200001       36.840000       43.619999
  C1        38.740002       37.770000       44.560001
  H1        39.020000       37.799999       45.610001
  C2        37.639999       38.549999       44.200001
  H2        37.779999       39.570000       44.520000
  C3        36.840000       38.290001       43.119999
  H3        35.860001       38.779999       43.020000
  C4        37.169998       37.310001       42.230000
  H4        36.349998       36.889999       41.680000
  C5        38.400002       36.660000       42.450001
  H5        38.799999       36.209999       41.549999
  IR        26.570000       31.299999       48.540001
  C1        25.190001       33.070000       44.770000
  C2        25.700001       34.139999       45.490002
  N1        25.230000       31.850000       45.580002
  C3a       25.790001       32.230000       46.840000
  N2        26.059999       33.590000       46.700001
  C4        26.540001       34.169998       47.950001
  C5a       26.629999       33.369999       49.060001
  C6        26.910000       33.950001       50.290001
  H1        27.160000       33.299999       51.110001
  C7        27.150000       35.290001       50.410000
  H2        27.500000       35.669998       51.340000
  C8        27.049999       36.060001       49.310001
  H3        27.120001       37.150002       49.299999
  C9        26.760000       35.570000       48.029999
  H4        26.430000       36.160000       47.220001
  C10       25.809999       35.470001       44.869999
  H5        26.400000       36.279999       45.169998
  C11       25.270000       35.630001       43.570000
  H6        25.190001       36.700001       43.180000
  C12       24.770000       34.529999       42.919998
  H7        24.510000       34.680000       41.939999
  C13       24.680000       33.279999       43.430000
  H8        24.340000       32.459999       42.840000
  C6        24.500000       30.580000       45.349998
  C1        25.120001       29.480000       44.700001
  H1        26.160000       29.559999       44.299999
  C2        24.379999       28.370001       44.360001
  H2        24.840000       27.709999       43.610001
  C3        23.030001       28.230000       44.709999
  H3        22.580000       27.290001       44.520000
  C4        22.410000       29.299999       45.369999
  H4        21.379999       29.200001       45.689999
  C5        23.160000       30.490000       45.700001
  H5        22.639999       31.370001       46.259998
  C1        30.740000       31.400000       47.610001
  C2        30.719999       30.969999       48.919998
  N1        29.459999       31.860001       47.270000
  C3b       28.600000       31.480000       48.270000
  N2        29.420000       31.000000       49.349998
  C4        28.740000       30.820000       50.570000
  C5b       27.320000       30.590000       50.400002
  C6        26.670000       30.290001       51.619999
  H1        25.670000       29.879999       51.509998
  C7        27.250000       30.230000       52.880001
  H2        26.520000       30.100000       53.720001
  C8        28.650000       30.360001       52.959999
  H3        29.200001       30.590000       53.849998
  C9        29.379999       30.600000       51.830002
  H4        30.350000       30.180000       51.779999
  C10       31.860001       30.350000       49.419998
  H5        31.850000       29.790001       50.340000
  C11       33.080002       30.240000       48.700001
  H6        33.840000       29.530001       48.980000
  C12       33.080002       30.730000       47.389999
  H7        34.000000       30.549999       46.740002
  C13       31.930000       31.309999       46.830002
  H8        31.950001       31.820000       45.900002
  C6        29.129999       32.220001       45.900002
  C1        28.610001       31.129999       45.130001
  H1        28.620001       30.080000       45.430000
  C2        28.410000       31.410000       43.750000
  H2        28.080000       30.559999       43.130001
  C3        28.680000       32.639999       43.160000
  H3        28.389999       32.930000       42.200001
  C4        29.139999       33.669998       43.959999
  H4        29.650000       34.529999       43.520000
  C5        29.410000       33.459999       45.330002
  H5        30.170000       34.099998       45.709999
  C1        26.030001       27.209999       47.290001
  C2        24.780001       27.590000       47.750000
  N1        26.930000       28.129999       47.770000
  C3c       26.270000       29.260000       48.330002
  N2        24.930000       28.860001       48.360001
  C4        24.000000       29.790001       48.820000
  C5c       24.549999       30.990000       49.119999
  C6        23.799999       31.959999       49.650002
  H1        24.299999       32.860001       49.970001
  C7        22.420000       31.770000       49.750000
  H2        21.760000       32.590000       49.840000
  C8        21.809999       30.570000       49.349998
  H3        20.820000       30.309999       49.380001
  C9        22.650000       29.540001       48.980000
  H4        22.240000       28.530001       49.160000
  C10       23.620001       26.750000       47.430000
  H5        22.670000       27.209999       47.500000
  C11       23.820000       25.530001       46.759998
  H6        22.959999       24.840000       46.540001
  C12       25.080000       25.260000       46.310001
  H7        25.309999       24.350000       45.820000
  C13       26.180000       26.059999       46.520000
  H8        27.110001       25.660000       46.259998
  C6        28.260000       27.760000       48.279999
  C1        28.420000       27.639999       49.660000
  H1        27.590000       27.639999       50.380001
  C2        29.690001       27.170000       50.119999
  H2        29.780001       27.100000       51.220001
  C3        30.740000       26.990000       49.279999
  H3        31.690001       26.709999       49.630001
  C4        30.540001       27.160000       47.910000
  H4        31.360001       26.920000       47.209999
  C5        29.290001       27.549999       47.380001
  H5        29.170000       27.860001       46.320000
