206
 generated by VMD
  IR        50.869999       22.870001       49.090000
  C1        54.060001       20.900000       46.990002
  C2        54.549999       22.180000       47.250000
  N1        52.820000       20.700001       47.529999
  C3a       52.490002       21.879999       48.230000
  N2        53.570000       22.670000       48.110001
  C4        53.450001       23.900000       48.840000
  C5a       52.230000       24.459999       48.840000
  C6        52.070000       25.799999       49.139999
  H1        51.000000       26.090000       49.150002
  C7        53.150002       26.610001       49.599998
  H2        52.959999       27.670000       49.919998
  C8        54.430000       26.040001       49.720001
  H3        55.220001       26.580000       50.150002
  C9        54.549999       24.709999       49.340000
  H4        55.340000       24.100000       49.820000
  C10       55.790001       22.530001       46.820000
  H5        56.139999       23.520000       46.830002
  C11       56.580002       21.639999       46.110001
  H6        57.570000       22.000000       45.790001
  C12       56.080002       20.389999       45.779999
  H7        56.740002       19.629999       45.419998
  C13       54.830002       20.020000       46.320000
  H8        54.389999       19.090000       46.000000
  C6        52.389999       19.420000       48.020000
  C1        51.330002       18.889999       47.250000
  H1        51.090000       19.450001       46.369999
  C2        51.009998       17.540001       47.450001
  H2        50.189999       17.090000       46.900002
  C3        51.490002       16.879999       48.590000
  H3        51.310001       15.860000       48.570000
  C4        52.560001       17.490000       49.349998
  H4        52.830002       17.160000       50.320000
  C5        53.000000       18.770000       49.020000
  H5        53.939999       19.100000       49.419998
  C1        52.720001       23.660000       52.970001
  C2        51.630001       24.480000       52.970001
  N1        52.549999       22.740000       51.939999
  C3b       51.520000       23.150000       51.090000
  N2        50.919998       24.170000       51.759998
  C4        49.630001       24.469999       51.310001
  C5b       49.380001       24.100000       49.980000
  C6        48.180000       24.540001       49.380001
  H1        47.950001       24.290001       48.349998
  C7        47.290001       25.270000       50.169998
  H2        46.330002       25.500000       49.689999
  C8        47.529999       25.540001       51.509998
  H3        46.849998       26.190001       52.020000
  C9        48.639999       25.090000       52.110001
  H4        48.910000       25.530001       53.040001
  C10       51.500000       25.450001       53.980000
  H5        50.939999       26.280001       53.720001
  C11       52.419998       25.629999       54.970001
  H6        52.299999       26.420000       55.669998
  C12       53.509998       24.760000       55.009998
  H7        54.320000       24.889999       55.700001
  C13       53.639999       23.799999       54.000000
  H8        54.430000       23.110001       54.139999
  C6        53.130001       21.389999       52.090000
  C1        52.220001       20.410000       52.320000
  H1        51.220001       20.559999       52.610001
  C2        52.560001       19.080000       52.389999
  H2        51.750000       18.379999       52.389999
  C3        53.830002       18.730000       52.400002
  H3        54.209999       17.719999       52.619999
  C4        54.820000       19.680000       52.200001
  H4        55.830002       19.420000       52.330002
  C5        54.480000       21.059999       52.009998
  H5        55.340000       21.750000       51.840000
  C1        47.709999       19.850000       49.020000
  C2        47.880001       20.299999       47.709999
  N1        48.619999       20.610001       49.810001
  C3c       49.290001       21.500000       49.029999
  N2        48.810001       21.370001       47.759998
  C4        49.009998       22.450001       46.820000
  C5c       50.200001       23.110001       47.060001
  C6        50.590000       24.020000       46.080002
  H1        51.590000       24.389999       46.150002
  C7        49.750000       24.350000       45.009998
  H2        50.200001       24.680000       44.099998
  C8        48.450001       23.709999       44.930000
  H3        47.750000       24.139999       44.220001
  C9        48.119999       22.750000       45.840000
  H4        47.340000       22.020000       45.590000
  C10       47.290001       19.559999       46.680000
  H5        47.389999       19.879999       45.630001
  C11       46.610001       18.430000       47.000000
  H6        46.209999       17.770000       46.240002
  C12       46.529999       17.969999       48.330002
  H7        45.910000       17.020000       48.500000
  C13       47.070000       18.680000       49.380001
  H8        46.680000       18.330000       50.310001
  C6        48.160000       21.020000       51.110001
  C1        47.099998       21.950001       51.180000
  H1        46.939999       22.600000       50.360001
  C2        46.430000       22.000000       52.410000
  H2        45.700001       22.790001       52.590000
  C3        46.750000       21.209999       53.540001
  H3        46.500000       21.370001       54.590000
  C4        47.770000       20.280001       53.389999
  H4        48.090000       19.530001       54.139999
  C5        48.439999       20.129999       52.150002
  H5        49.250000       19.480000       52.209999
  IR        51.669998       33.759998       48.740002
  C1        49.580002       37.580002       48.049999
  C2        50.570000       37.509998       47.060001
  N1        49.709999       36.389999       48.869999
  C3a       50.730000       35.549999       48.330002
  N2        51.250000       36.299999       47.279999
  C4        52.389999       35.669998       46.560001
  C5a       52.709999       34.349998       46.980000
  C6        53.689999       33.549999       46.349998
  H1        53.709999       32.520000       46.490002
  C7        54.310001       34.200001       45.240002
  H2        54.990002       33.540001       44.619999
  C8        54.029999       35.520000       44.799999
  H3        54.619999       36.130001       44.009998
  C9        53.099998       36.270000       45.490002
  H4        52.959999       37.259998       45.230000
  C10       50.500000       38.430000       46.000000
  H5        50.939999       38.250000       45.110001
  C11       49.529999       39.400002       45.950001
  H6        49.470001       40.029999       45.119999
  C12       48.580002       39.480000       46.970001
  H7        47.759998       40.180000       46.860001
  C13       48.590000       38.570000       48.000000
  H8        47.660000       38.480000       48.580002
  C6        48.630001       36.009998       49.840000
  C1        48.610001       36.639999       51.090000
  H1        49.380001       37.369999       51.380001
  C2        47.630001       36.270000       51.959999
  H2        47.610001       36.680000       52.900002
  C3        46.700001       35.349998       51.709999
  H3        46.000000       34.990002       52.480000
  C4        46.680000       34.779999       50.439999
  H4        45.790001       34.250000       50.160000
  C5        47.650002       35.110001       49.480000
  H5        47.990002       34.480000       48.630001
  C1        49.410000       31.030001       46.240002
  C2        50.310001       30.240000       46.869999
  N1        49.660000       32.369999       46.669998
  C3b       50.660000       32.400002       47.599998
  N2        51.160000       31.110001       47.660000
  C4        52.360001       30.870001       48.369999
  C5b       52.939999       32.040001       48.950001
  C6        54.299999       32.029999       49.360001
  H1        54.669998       32.990002       49.669998
  C7        55.090000       30.910000       49.250000
  H2        56.150002       30.840000       49.090000
  C8        54.480000       29.770000       48.750000
  H3        54.980000       28.820000       48.630001
  C9        53.090000       29.740000       48.349998
  H4        52.730000       28.770000       48.020000
  C10       50.110001       28.879999       46.689999
  H5        50.770000       28.299999       47.250000
  C11       49.150002       28.379999       45.880001
  H6        48.910000       27.299999       46.040001
  C12       48.189999       29.190001       45.240002
  H7        47.439999       28.660000       44.599998
  C13       48.369999       30.559999       45.389999
  H8        47.779999       31.330000       44.810001
  C6        49.139999       33.509998       45.869999
  C1        49.930000       33.980000       44.860001
  H1        50.790001       33.369999       44.580002
  C2        49.639999       35.139999       44.130001
  H2        50.340000       35.529999       43.410000
  C3        48.459999       35.840000       44.330002
  H3        48.369999       36.810001       43.930000
  C4        47.570000       35.299999       45.279999
  H4        46.740002       35.869999       45.610001
  C5        47.889999       34.110001       46.009998
  H5        47.189999       33.709999       46.730000
  C1        49.880001       32.919998       52.509998
  C2        50.500000       34.080002       52.730000
  N1        50.299999       32.360001       51.330002
  C3c       51.070000       33.259998       50.689999
  N2        51.310001       34.270000       51.590000
  C4        52.439999       35.040001       51.320000
  C5c       52.880001       34.880001       49.980000
  C6        53.950001       35.650002       49.630001
  H1        54.470001       35.450001       48.689999
  C7        54.610001       36.549999       50.470001
  H2        55.540001       36.990002       50.150002
  C8        54.110001       36.660000       51.799999
  H3        54.770000       36.990002       52.599998
  C9        53.049999       35.889999       52.240002
  H4        52.669998       36.020000       53.240002
  C10       50.240002       34.889999       53.840000
  H5        50.779999       35.799999       53.970001
  C11       49.320000       34.430000       54.810001
  H6        48.950001       35.099998       55.590000
  C12       48.700001       33.160000       54.639999
  H7        48.070000       32.759998       55.400002
  C13       48.939999       32.410000       53.500000
  H8        48.380001       31.480000       53.360001
  C6        49.849998       31.080000       50.869999
  C1        48.560001       30.940001       50.419998
  H1        47.849998       31.750000       50.340000
  C2        48.049999       29.680000       50.130001
  H2        46.980000       29.500000       50.099998
  C3        48.880001       28.549999       50.200001
  H3        48.389999       27.580000       50.189999
  C4        50.169998       28.670000       50.700001
  H4        50.790001       27.760000       50.630001
  C5        50.660000       29.910000       51.029999
  H5        51.669998       29.980000       51.310001
