206
 generated by VMD
  IR        17.170000       40.900002        1.740000
  C1        14.770000       43.439999        4.360000
  C2        14.480000       42.130001        4.710000
  N1        15.680000       43.299999        3.280000
  C3a       15.920000       41.970001        2.960000
  N2        15.140000       41.250000        3.800000
  C4        15.150000       39.869999        3.610000
  C5a       15.690000       39.500000        2.370000
  C6        15.580000       38.160000        2.040000
  H1        15.980000       37.790001        1.110000
  C7        15.060000       37.169998        2.900000
  H2        15.020000       36.139999        2.640000
  C8        14.480000       37.570000        4.090000
  H3        14.160000       36.799999        4.860000
  C9        14.530000       38.869999        4.450000
  H4        14.350000       39.099998        5.510000
  C10       13.580000       41.900002        5.780000
  H5        13.390000       40.869999        6.070000
  C11       13.250000       42.990002        6.610000
  H6        12.880000       42.759998        7.590000
  C12       13.600000       44.299999        6.340000
  H7        13.550000       45.119999        7.100000
  C13       14.310000       44.549999        5.160000
  H8        14.590000       45.570000        4.960000
  C6        16.020000       44.400002        2.420000
  C1        15.140000       44.810001        1.420000
  H1        14.220000       44.369999        1.430000
  C2        15.390000       46.020000        0.740000
  H2        14.730000       46.349998       -0.080000
  C3        16.559999       46.750000        1.050000
  H3        16.830000       47.700001        0.520000
  C4        17.469999       46.259998        2.010000
  H4        18.389999       46.700001        2.240000
  C5        17.180000       45.099998        2.760000
  H5        17.680000       44.810001        3.670000
  C1        19.639999       38.990002        4.760000
  C2        19.940001       38.270000        3.620000
  N1        18.690001       40.000000        4.480000
  C3b       18.379999       39.930000        3.140000
  N2        19.209999       38.939999        2.580000
  C4        19.080000       38.630001        1.130000
  C5b       18.170000       39.450001        0.440000
  C6        18.059999       39.380001       -0.970000
  H1        17.389999       40.020000       -1.430000
  C7        18.900000       38.540001       -1.710000
  H2        19.020000       38.720001       -2.770000
  C8        19.799999       37.720001       -1.070000
  H3        20.540001       37.230000       -1.790000
  C9        19.940001       37.730000        0.330000
  H4        20.430000       36.959999        0.880000
  C10       20.959999       37.250000        3.730000
  H5        20.990000       36.369999        3.070000
  C11       21.469999       36.869999        4.920000
  H6        21.900000       35.880001        4.980000
  C12       21.180000       37.570000        6.110000
  H7        21.770000       37.320000        6.980000
  C13       20.180000       38.630001        6.040000
  H8        19.709999       39.160000        6.890000
  C6        17.820000       40.470001        5.480000
  C1        17.900000       41.830002        5.880000
  H1        18.450001       42.549999        5.320000
  C2        17.230000       42.240002        6.960000
  H2        16.920000       43.279999        7.000000
  C3        16.510000       41.270000        7.740000
  H3        15.740000       41.540001        8.470000
  C4        16.459999       39.900002        7.330000
  H4        16.010000       39.099998        8.000000
  C5        17.090000       39.560001        6.190000
  H5        16.770000       38.630001        5.700000
  C1        19.780001       43.630001       -0.350000
  C2        18.520000       43.950001       -0.870000
  N1        19.650000       42.599998        0.620000
  C3c       18.309999       42.240002        0.710000
  N2        17.639999       43.020000       -0.190000
  C4        16.309999       42.560001       -0.530000
  C5c       15.790000       41.520000        0.230000
  C6        14.540000       40.990002        0.000000
  H1        14.380000       39.939999        0.240000
  C7        13.590000       41.590000       -0.840000
  H2        12.570000       41.110001       -0.890000
  C8        14.020000       42.770000       -1.530000
  H3        13.350000       43.139999       -2.320000
  C9        15.390000       43.240002       -1.390000
  H4        15.650000       44.200001       -1.780000
  C10       18.410000       44.919998       -1.850000
  H5        17.530001       45.259998       -2.350000
  C11       19.500000       45.540001       -2.390000
  H6        19.410000       46.130001       -3.230000
  C12       20.790001       45.330002       -1.860000
  H7        21.580000       46.110001       -2.050000
  C13       20.930000       44.330002       -0.830000
  H8        21.930000       43.980000       -0.550000
  C6        20.650000       42.080002        1.470000
  C1        20.760000       42.500000        2.800000
  H1        19.820000       42.889999        3.250000
  C2        21.910000       42.150002        3.450000
  H2        21.879999       42.520000        4.480000
  C3        22.959999       41.330002        3.010000
  H3        23.889999       41.220001        3.530000
  C4        22.809999       40.930000        1.700000
  H4        23.690001       40.700001        1.140000
  C5        21.680000       41.250000        0.950000
  H5        21.620001       40.889999       -0.080000
  IR        25.889999       32.869999        3.030000
  C1        26.160000       34.400002       -1.100000
  C2        24.959999       33.810001       -1.040000
  N1        26.750000       34.040001        0.090000
  C3a       25.969999       33.459999        1.000000
  N2        24.770000       33.320000        0.280000
  C4        23.650000       32.820000        1.040000
  C5a       23.879999       32.669998        2.450000
  C6        22.740000       32.259998        3.180000
  H1        22.900000       31.930000        4.190000
  C7        21.500000       32.000000        2.530000
  H2        20.770000       31.480000        3.120000
  C8        21.280001       32.250000        1.220000
  H3        20.340000       32.180000        0.770000
  C9        22.360001       32.630001        0.440000
  H4        22.250000       32.810001       -0.620000
  C10       24.000000       34.110001       -2.100000
  H5        23.170000       33.439999       -2.340000
  C11       24.330000       35.020000       -3.140000
  H6        23.700001       35.049999       -3.940000
  C12       25.590000       35.570000       -3.100000
  H7        26.090000       35.860001       -4.010000
  C13       26.500000       35.330002       -2.060000
  H8        27.420000       35.820000       -2.090000
  C6        28.190001       34.020000        0.060000
  C1        28.900000       33.130001       -0.800000
  H1        28.510000       32.669998       -1.680000
  C2        30.230000       32.849998       -0.550000
  H2        30.799999       32.040001       -1.010000
  C3        30.889999       33.590000        0.470000
  H3        31.969999       33.590000        0.520000
  C4        30.150000       34.509998        1.300000
  H4        30.740000       35.099998        2.010000
  C5        28.790001       34.709999        1.070000
  H5        28.160000       35.209999        1.850000
  C1        24.840000       36.759998        4.920000
  C2        24.780001       35.860001        5.980000
  N1        25.150000       35.990002        3.740000
  C3b       25.370001       34.639999        4.040000
  N2        25.040001       34.580002        5.450000
  C4        24.840000       33.169998        5.880000
  C5b       25.450001       32.230000        5.040000
  C6        25.629999       30.990000        5.610000
  H1        26.000000       30.250000        4.920000
  C7        25.299999       30.670000        6.900000
  H2        25.680000       29.820000        7.510000
  C8        24.559999       31.610001        7.680000
  H3        24.350000       31.420000        8.700000
  C9        24.320000       32.880001        7.160000
  H4        23.709999       33.549999        7.760000
  C10       24.590000       36.330002        7.300000
  H5        24.690001       35.580002        8.090000
  C11       24.650000       37.720001        7.520000
  H6        24.830000       38.099998        8.520000
  C12       24.780001       38.630001        6.510000
  H7        25.280001       39.520000        6.730000
  C13       24.830000       38.119999        5.200000
  H8        24.860001       38.869999        4.380000
  C6        24.750000       36.480000        2.460000
  C1        23.620001       35.889999        1.810000
  H1        22.959999       35.180000        2.170000
  C2        23.190001       36.410000        0.600000
  H2        22.430000       35.810001        0.060000
  C3        23.750000       37.560001        0.050000
  H3        23.350000       37.970001       -0.880000
  C4        24.840000       38.130001        0.650000
  H4        24.940001       39.209999        0.420000
  C5        25.410000       37.610001        1.850000
  H5        26.360001       37.900002        2.260000
  C1        30.129999       32.720001        4.170000
  C2        30.049999       31.910000        3.030000
  N1        28.809999       33.160000        4.470000
  C3c       27.870001       32.630001        3.580000
  N2        28.629999       31.820000        2.710000
  C4        27.830000       30.950001        1.850000
  C5c       26.480000       31.000000        2.200000
  C6        25.610001       29.969999        1.710000
  H1        24.590000       29.959999        2.100000
  C7        26.080000       29.070000        0.710000
  H2        25.370001       28.459999        0.180000
  C8        27.410000       29.160000        0.320000
  H3        27.709999       28.719999       -0.620000
  C9        28.299999       29.990000        0.920000
  H4        29.360001       29.950001        0.820000
  C10       31.230000       31.320000        2.500000
  H5        31.160000       30.469999        1.830000
  C11       32.439999       31.600000        3.200000
  H6        33.259998       30.910000        3.040000
  C12       32.480000       32.470001        4.330000
  H7        33.439999       32.730000        4.750000
  C13       31.299999       33.000000        4.830000
  H8        31.389999       33.720001        5.710000
  C6        28.450001       33.740002        5.780000
  C1        28.320000       32.910000        6.870000
  H1        28.490000       31.830000        6.660000
  C2        28.030001       33.310001        8.170000
  H2        27.830000       32.639999        8.980000
  C3        27.889999       34.650002        8.470000
  H3        27.830000       35.049999        9.440000
  C4        28.139999       35.570000        7.380000
  H4        28.059999       36.660000        7.520000
  C5        28.360001       35.139999        6.060000
  H5        28.680000       35.869999        5.340000
