103
 generated by VMD
 Ir       93.792877      -95.705376       47.654694
 C        91.603821      -98.299660       44.911552
 C        90.642761      -97.453011       45.478336
 N        92.754288      -97.960007       45.508942
 C        92.645996      -96.954056       46.435307
 N        91.297447      -96.764755       46.493324
 C        90.859604      -96.143188       47.746094
 C        91.847717      -95.234451       48.239159
 C        91.422737      -94.517654       49.375031
 H        92.144302      -93.894463       49.964584
 C        90.175964      -94.582642       50.000122
 H        89.761063      -93.826546       50.654175
 C        89.258301      -95.535629       49.563461
 H        88.425934      -95.817657       50.153152
 C        89.564606      -96.328651       48.437984
 H        89.046692      -97.259163       48.246651
 C        89.290054      -97.543884       45.069893
 H        88.729858      -96.653381       45.012512
 C        88.844696      -98.567360       44.255672
 H        87.807648      -98.721474       44.139229
 C        89.778259      -99.439377       43.689148
 H        89.539536     -100.416550       43.475983
 C        91.180069      -99.284782       43.970985
 H        91.907852      -99.920517       43.538353
 C        93.945953      -98.626053       45.031651
 C        94.545586      -98.061714       43.913231
 H        94.070755      -97.308670       43.322170
 C        95.623627      -98.810127       43.382011
 H        96.059998      -98.341843       42.542908
 C        95.989708     -100.069138       43.869759
 H        96.932175     -100.470764       43.602669
 C        95.334381     -100.620850       44.945290
 H        95.305984     -101.652359       45.137840
 C        94.355957      -99.853432       45.560257
 H        93.798050     -100.192696       46.515884
 C        93.510330      -91.968575       45.472588
 C        94.405472      -91.659195       46.492828
 N        93.136635      -93.332657       45.537605
 C        93.664658      -93.881516       46.674637
 N        94.473854      -92.809128       47.287300
 C        95.220894      -93.196396       48.511627
 C        94.787125      -94.435410       49.038864
 C        95.214569      -94.735252       50.372799
 H        94.983093      -95.682465       50.769920
 C        96.084717      -93.846336       51.066826
 H        96.426544      -94.151718       52.036980
 C        96.642242      -92.698586       50.494263
 H        97.182510      -92.006012       50.985237
 C        96.176147      -92.411606       49.202057
 H        96.728714      -91.640320       48.678993
 C        94.975662      -90.364609       46.583572
 H        95.638443      -90.301956       47.413208
 C        94.710205      -89.404541       45.648705
 H        95.043541      -88.392258       45.833298
 C        93.849083      -89.723297       44.621140
 H        93.729233      -89.022453       43.793945
 C        93.240173      -90.999123       44.572212
 H        92.822304      -91.415039       43.640015
 C        92.095772      -93.883461       44.777714
 C        90.797562      -93.685608       45.222893
 H        90.574677      -93.445457       46.228851
 C        89.732910      -94.011452       44.282646
 H        88.767059      -93.774185       44.501389
 C        90.031250      -94.611374       43.077492
 H        89.294907      -94.971725       42.341995
 C        91.354362      -94.894714       42.693733
 H        91.652573      -95.122009       41.680023
 C        92.405220      -94.565735       43.634148
 H        93.439583      -94.730377       43.518028
 C        97.438904      -97.428551       46.337418
 C        96.974487      -98.283035       47.295113
 N        96.591858      -96.305023       46.369011
 C        95.670212      -96.423752       47.290611
 N        95.883942      -97.626602       47.913414
 C        95.021347      -98.033180       48.918415
 C        93.808807      -97.337440       48.932587
 C        93.010956      -97.529160       50.058990
 H        92.029785      -97.278427       49.970512
 C        93.373093      -98.233368       51.183823
 H        92.785538      -98.256516       52.156731
 C        94.657074      -98.812225       51.283829
 H        94.960541      -99.095604       52.265976
 C        95.445419      -98.819626       50.108818
 H        96.306534      -99.440681       50.209198
 C        97.590347      -99.547104       47.557297
 H        97.262070     -100.267776       48.279701
 C        98.789856      -99.750854       46.865501
 H        99.266556     -100.698929       47.086624
 C        99.344559      -98.788757       45.957489
 H       100.417511      -98.839058       45.696671
 C        98.630264      -97.667046       45.624981
 H        98.989227      -97.031509       44.840031
 C        96.746109      -95.072495       45.643211
 C        96.044586      -95.064819       44.502205
 H        95.648880      -95.956497       44.105316
 C        96.162300      -93.955414       43.668671
 H        95.289413      -93.649399       43.124771
 C        97.110428      -92.982712       43.866421
 H        97.298157      -92.180275       43.178055
 C        97.735382      -92.949745       45.104828
 H        98.549507      -92.221115       45.388412
 C        97.562958      -93.955254       46.056305
 H        98.082138      -93.893311       47.011562
