206
 generated by VMD
 Ir        5.014168      -96.188614       -6.868455
 C         2.258994      -98.559830       -4.497370
 C         2.479458      -97.425995       -3.757469
 N         3.162916      -98.533951       -5.576507
 C         3.912831      -97.370178       -5.564020
 N         3.505088      -96.722916       -4.402427
 C         4.227861      -95.545212       -4.089991
 C         4.754850      -94.892944       -5.218455
 C         5.281049      -93.603668       -5.052341
 H         5.511887      -93.019455       -5.925727
 C         5.371066      -93.007561       -3.790657
 H         5.798767      -92.024643       -3.688910
 C         4.904065      -93.691452       -2.660964
 H         5.030569      -93.277039       -1.671589
 C         4.327426      -94.955544       -2.809141
 H         4.056446      -95.520828       -1.930264
 C         1.664568      -97.180153       -2.636551
 H         1.859564      -96.327095       -2.003402
 C         0.636111      -98.055260       -2.293245
 H         0.035040      -97.883774       -1.414437
 C         0.414476      -99.198364       -3.068026
 H        -0.401212      -99.864014       -2.838547
 C         1.240913      -99.450653       -4.169732
 H         1.123949     -100.373795       -4.719216
 C         3.626736      -99.760422       -6.152035
 C         4.327636     -100.654022       -5.340666
 H         4.603892     -100.369324       -4.339051
 C         4.679313     -101.922180       -5.827391
 H         5.184150     -102.612366       -5.183898
 C         4.330313     -102.293518       -7.134949
 H         4.588964     -103.277870       -7.495579
 C         3.639558     -101.387238       -7.952325
 H         3.393519     -101.668716       -8.962687
 C         3.287734     -100.131760       -7.459355
 H         2.853547      -99.400291       -8.129378
 C         1.870491      -94.283447       -9.189849
 C         2.996641      -93.560204       -9.519130
 N         2.236144      -95.168968       -8.161815
 C         3.566905      -95.066422       -7.841658
 N         4.047085      -94.068085       -8.684372
 C         5.456576      -93.837273       -8.646229
 C         6.199429      -94.787277       -7.916458
 C         7.601510      -94.751831       -7.987266
 H         8.188888      -95.479294       -7.449595
 C         8.269987      -93.798218       -8.756192
 H         9.351257      -93.775665       -8.796754
 C         7.536604      -92.845184       -9.463574
 H         8.039963      -92.060532      -10.019223
 C         6.134821      -92.855255       -9.405253
 H         5.595235      -92.042984       -9.849523
 C         2.911049      -92.598755      -10.546351
 H         3.737568      -91.973991      -10.810622
 C         1.698860      -92.398605      -11.225560
 H         1.615993      -91.594032      -11.946867
 C         0.581091      -93.169189      -10.912193
 H        -0.356855      -93.011131      -11.430144
 C         0.666530      -94.111710       -9.878531
 H        -0.178403      -94.745544       -9.681180
 C         1.246814      -95.850876       -7.360861
 C         0.660928      -95.209465       -6.279461
 H         1.023458      -94.237404       -5.961071
 C        -0.376366      -95.830757       -5.564675
 H        -0.836399      -95.326935       -4.727877
 C        -0.807852      -97.115616       -5.927792
 H        -1.552162      -97.619095       -5.334989
 C        -0.201895      -97.766495       -7.011937
 H        -0.505716      -98.767349       -7.275338
 C         0.825100      -97.138962       -7.714275
 H         1.344215      -97.655670       -8.511789
 C         5.857875      -99.144890       -9.957404
 C         6.622740      -99.543579       -8.891514
 N         5.259584      -97.913803       -9.615961
 C         5.578895      -97.548714       -8.321802
 N         6.438720      -98.556953       -7.883794
 C         6.967323      -98.391258       -6.557436
 C         6.714115      -97.123497       -6.005109
 C         7.416924      -96.738480       -4.853534
 H         7.298004      -95.725731       -4.479913
 C         8.312279      -97.599274       -4.227129
 H         8.821023      -97.288597       -3.327370
 C         8.514902      -98.886162       -4.755475
 H         9.234189      -99.543533       -4.296469
 C         7.841936      -99.283859       -5.900091
 H         7.848333     -100.322594       -6.169002
 C         7.385483     -100.716034       -8.997760
 H         7.996328     -101.072052       -8.185162
 C         7.363438     -101.467628      -10.173397
 H         8.005942     -102.327072      -10.271049
 C         6.558809     -101.065704      -11.249701
 H         6.489835     -101.673668      -12.134535
 C         5.805839      -99.896484      -11.133754
 H         5.165159      -99.591019      -11.953704
 C         4.933911      -96.965042      -10.642648
 C         5.946824      -96.174133      -11.173482
 H         6.958122      -96.252251      -10.795630
 C         5.671294      -95.275925      -12.205619
 H         6.440609      -94.621979      -12.588109
 C         4.362858      -95.168625      -12.707397
 H         4.151244      -94.452263      -13.482930
 C         3.349946      -95.959518      -12.176562
 H         2.330194      -95.856232      -12.535479
 C         3.625251      -96.860947      -11.134961
 H         2.834878      -97.445618      -10.708251
 Ir        5.014168      -96.188614        3.222264
 C         0.939014      -96.609818        4.735920
 C         0.995452      -97.425049        3.625016
 N         2.242061      -96.136673        4.959681
 C         3.135124      -96.595390        4.000613
 N         2.344053      -97.415833        3.195326
 C         2.991264      -97.974670        2.058964
 C         4.091750      -97.228676        1.631156
 C         4.592563      -97.451370        0.341585
 H         5.362180      -96.803658       -0.053589
 C         4.051824      -98.445633       -0.474651
 H         4.435737      -98.587936       -1.475481
 C         3.000504      -99.245605       -0.011215
 H         2.595481     -100.025940       -0.645737
 C         2.470150      -99.016464        1.258716
 H         1.752375      -99.708481        1.661172
 C        -0.202619      -97.956436        3.109206
 H        -0.202059      -98.602455        2.244768
 C        -1.436764      -97.625046        3.689266
 H        -2.347418      -98.033752        3.285448
 C        -1.473438      -96.781403        4.810304
 H        -2.424045      -96.493340        5.245000
 C        -0.275736      -96.297554        5.341626
 H        -0.307332      -95.708733        6.249250
 C         2.585581      -95.299278        6.077074
 C         2.468416      -93.907112        5.956488
 H         2.210844      -93.471138        5.010452
 C         2.691823      -93.082413        7.077271
 H         2.634462      -92.009674        6.965594
 C         3.022622      -93.646652        8.308937
 H         3.202389      -93.016335        9.161753
 C         3.129790      -95.038818        8.429284
 H         3.387137      -95.478012        9.384787
 C         2.916079      -95.857277        7.321426
 H         2.953445      -96.930000        7.432627
 C         7.313862      -99.633896        4.523824
 C         8.144592      -98.964279        3.662084
 N         6.045334      -99.026428        4.446843
 C         6.056010      -97.948944        3.577639
 N         7.348511      -97.955040        3.067438
 C         7.603200      -97.009308        2.032396
 C         6.781533      -95.874527        2.092720
 C         7.062210      -94.806503        1.226715
 H         6.490730      -93.889862        1.282133
 C         8.085032      -94.898453        0.279359
 H         8.251412      -94.071915       -0.407410
 C         8.867313      -96.045715        0.192715
 H         9.615698      -96.138855       -0.571383
 C         8.626324      -97.107483        1.072356
 H         9.159396      -98.033203        0.949539
 C         9.497050      -99.346169        3.574824
 H        10.163716      -98.851562        2.882058
 C         9.998103     -100.375725        4.377423
 H        11.039730     -100.644012        4.321440
 C         9.146774     -101.032852        5.264060
 H         9.540977     -101.795944        5.932931
 C         7.804615     -100.657196        5.338871
 H         7.176579     -101.107895        6.089769
 C         4.836302      -99.730942        4.812229
 C         4.385321     -100.791672        4.007201
 H         4.985439     -101.124695        3.168478
 C         3.158536     -101.400719        4.277866
 H         2.832671     -102.235031        3.679681
 C         2.363188     -100.942596        5.334153
 H         1.400414     -101.405624        5.523445
 C         2.814020      -99.894554        6.145422
 H         2.195029      -99.513794        6.936549
 C         4.050653      -99.298187        5.881241
 H         4.415611      -98.508377        6.518034
 C         6.497387      -93.678864        6.468157
 C         5.948398      -92.778427        5.578201
 N         6.441736      -94.952675        5.864156
 C         5.831092      -94.894386        4.622659
 N         5.535112      -93.549355        4.450075
 C         4.782812      -93.219551        3.276502
 C         4.187665      -94.319336        2.644940
 C         3.210780      -94.098282        1.661463
 H         2.711428      -94.930367        1.207838
 C         2.828970      -92.799591        1.312568
 H         2.058545      -92.646378        0.564493
 C         3.444864      -91.699600        1.912990
 H         3.171413      -90.698601        1.634397
 C         4.431894      -91.907974        2.890463
 H         5.034452      -91.071869        3.210549
 C         5.899708      -91.424080        5.942980
 H         5.505357      -90.673676        5.280352
 C         6.380242      -90.998566        7.187581
 H         6.374219      -89.943932        7.440784
 C         6.929235      -91.930626        8.077339
 H         7.306435      -91.610886        9.040452
 C         6.987846      -93.275513        7.716016
 H         7.371520      -94.003960        8.406998
 C         7.260983      -96.043289        6.325986
 C         8.582436      -96.138206        5.860202
 H         8.940819      -95.472404        5.091586
 C         9.430003      -97.115417        6.393009
 H        10.439287      -97.210930        6.014691
 C         8.966341      -97.994499        7.382373
 H         9.607700      -98.780991        7.753307
 C         7.645114      -97.896362        7.838693
 H         7.277492      -98.593582        8.575260
 C         6.797546      -96.919144        7.305887
 H         5.788263      -96.823639        7.684204
