206
 generated by VMD
 Ir       45.390404      -58.149693      107.179672
 C        43.715477      -60.049988      103.686859
 C        44.162552      -58.806091      103.212891
 N        43.762787      -59.961639      105.098442
 C        44.251579      -58.832458      105.566437
 N        44.528030      -58.087669      104.421074
 C        45.143288      -56.767124      104.598053
 C        45.877583      -56.649334      105.774292
 C        46.552307      -55.459171      105.943283
 H        47.096218      -55.259754      106.873978
 C        46.539871      -54.422516      104.993484
 H        47.261803      -53.546265      104.966949
 C        45.779491      -54.558167      103.851898
 H        45.531528      -53.732819      103.207527
 C        45.082710      -55.769676      103.666855
 H        44.407906      -55.803902      102.820892
 C        44.278816      -58.655235      101.906326
 H        44.715668      -57.770676      101.600204
 C        43.856544      -59.584965      100.982269
 H        43.972595      -59.426651       99.927574
 C        43.370766      -60.808212      101.469482
 H        43.077316      -61.580154      100.781448
 C        43.330986      -61.085270      102.826309
 H        43.156067      -62.138020      103.133255
 C        43.122177      -60.974430      105.892151
 C        43.936920      -61.857754      106.644714
 H        45.041496      -61.588135      106.786911
 C        43.338322      -62.987038      107.199326
 H        43.869667      -63.598705      107.855476
 C        41.960262      -63.179630      107.043907
 H        41.596912      -64.153763      107.206238
 C        41.130219      -62.273571      106.331955
 H        40.056671      -62.370323      106.365692
 C        41.709038      -61.154266      105.780388
 H        41.327126      -60.548172      105.026077
 C        48.931976      -60.486626      106.306473
 C        49.233574      -59.820877      107.485588
 N        47.756546      -59.948486      105.823090
 C        47.197678      -58.945015      106.626648
 N        48.215538      -58.815643      107.647141
 C        48.004242      -57.780361      108.578674
 C        46.671364      -57.306412      108.633430
 C        46.419170      -56.271828      109.559784
 H        45.347466      -56.070919      109.693504
 C        47.453911      -55.674782      110.383835
 H        47.268436      -54.751381      110.855782
 C        48.736046      -56.105125      110.241196
 H        49.546692      -55.669357      110.790329
 C        49.003983      -57.126247      109.362488
 H        49.993793      -57.567482      109.386688
 C        50.250641      -60.204926      108.330322
 H        50.487373      -59.599998      109.218597
 C        51.065575      -61.274689      107.985504
 H        51.853638      -61.620716      108.683228
 C        50.928230      -61.963181      106.748047
 H        51.636585      -62.726486      106.353973
 C        49.858658      -61.520672      105.885254
 H        49.774075      -62.029331      104.921616
 C        47.490345      -60.127312      104.433853
 C        47.021992      -61.326328      103.968346
 H        46.594807      -62.107372      104.609268
 C        47.136475      -61.677742      102.646866
 H        46.619133      -62.579796      102.277328
 C        47.615707      -60.828537      101.681992
 H        47.768112      -61.123310      100.594299
 C        47.988132      -59.553200      102.103088
 H        48.460655      -58.824821      101.420090
 C        47.849510      -59.168369      103.475563
 H        47.712990      -58.196976      103.766685
 C        43.730701      -60.894043      110.154968
 C        42.813148      -59.907421      109.891968
 N        44.916698      -60.471428      109.458984
 C        44.735519      -59.316887      108.783478
 N        43.465115      -58.923859      109.109055
 C        43.189377      -57.606861      108.907852
 C        43.663967      -57.092911      107.734940
 C        43.317993      -55.813995      107.282310
 H        43.556969      -55.447102      106.329536
 C        42.452507      -55.046238      108.048126
 H        42.181244      -54.073288      107.799950
 C        41.940559      -55.558792      109.245590
 H        41.485786      -54.884998      109.908524
 C        42.269276      -56.811966      109.637894
 H        41.875977      -57.101841      110.563248
 C        41.471519      -59.844505      110.380501
 H        40.686527      -59.350449      109.793137
 C        41.032166      -60.981888      111.088341
 H        40.265846      -60.915913      111.841278
 C        41.892105      -62.099373      111.205902
 H        41.595081      -63.010101      111.840446
 C        43.205238      -62.085484      110.816299
 H        43.929771      -62.706223      111.318832
 C        46.169704      -60.694046      110.001770
 C        46.947762      -61.713715      109.516479
 H        46.539974      -62.243935      108.714005
 C        48.180302      -62.006863      110.056580
 H        48.805443      -62.850880      109.809334
 C        48.701027      -61.172005      111.046265
 H        49.768799      -61.111183      111.217636
 C        47.948895      -60.168804      111.580093
 H        48.190578      -59.785641      112.594429
 C        46.649368      -59.894211      111.069473
 H        46.112782      -59.058987      111.468307
 Ir       45.390404      -58.149693      117.577805
 C        42.675308      -61.025543      115.751503
 C        41.830017      -60.406242      116.686890
 N        43.961609      -60.597931      115.982071
 C        44.070522      -59.625504      116.980835
 N        42.763729      -59.599701      117.508224
 C        42.687416      -58.864120      118.727432
 C        43.867432      -58.128170      119.080200
 C        43.930199      -57.651466      120.452499
 H        44.874100      -57.325218      120.852142
 C        43.027954      -57.922783      121.417007
 H        43.297215      -57.755604      122.493729
 C        41.869064      -58.668018      121.072449
 H        41.179970      -58.818020      121.881882
 C        41.649967      -59.022919      119.740494
 H        40.614998      -59.053600      119.421753
 C        40.424866      -60.691628      116.642181
 H        39.819267      -59.970528      117.138046
 C        39.906666      -61.545036      115.673706
 H        38.834023      -61.697247      115.630478
 C        40.793098      -62.193573      114.745560
 H        40.321598      -62.904964      114.084564
 C        42.140266      -61.957367      114.810738
 H        42.782043      -62.680557      114.280426
 C        45.071976      -61.476971      115.750153
 C        45.738907      -61.498001      114.501129
 H        45.797131      -60.581696      113.975403
 C        46.523895      -62.602089      114.243057
 H        47.122513      -62.408482      113.350494
 C        46.720528      -63.671459      115.132828
 H        47.058907      -64.696915      114.760895
 C        46.069664      -63.622585      116.347687
 H        46.491974      -64.168137      117.103027
 C        45.259605      -62.515713      116.648933
 H        44.806202      -62.455048      117.576965
 C        43.282261      -54.559811      116.112411
 C        44.147522      -54.131863      117.119980
 N        43.468479      -55.984722      116.069397
 C        44.457512      -56.437904      116.932434
 N        44.885414      -55.257660      117.565613
 C        46.107765      -55.393017      118.358292
 C        46.509987      -56.735764      118.606812
 C        47.677353      -56.890160      119.276138
 H        48.054962      -57.890732      119.402550
 C        48.503483      -55.817131      119.617050
 H        49.319771      -55.973621      120.298065
 C        48.072411      -54.498035      119.464493
 H        48.820107      -53.726852      119.654282
 C        46.879311      -54.261044      118.832794
 H        46.513802      -53.325211      118.638832
 C        44.142685      -52.757954      117.417549
 H        44.780426      -52.417271      118.205978
 C        43.331928      -51.836342      116.782959
 H        43.428425      -50.797901      117.001221
 C        42.421215      -52.287724      115.731987
 H        41.469936      -51.792912      115.608566
 C        42.469307      -53.659538      115.459396
 H        41.910320      -54.060776      114.655762
 C        42.461754      -56.761543      115.396004
 C        42.827732      -57.415924      114.156754
 H        43.898781      -57.537029      114.017502
 C        41.941677      -58.231953      113.481842
 H        42.324402      -58.724365      112.552246
 C        40.654636      -58.336533      114.005959
 H        39.811573      -58.938408      113.522858
 C        40.281334      -57.656410      115.183701
 H        39.240135      -57.739914      115.404465
 C        41.186150      -56.851055      115.847031
 H        40.799622      -56.525440      116.829208
 C        48.972187      -58.522781      115.097763
 C        49.098316      -59.472443      115.987495
 N        47.777885      -57.816814      115.301384
 C        47.058640      -58.370453      116.364899
 N        47.859566      -59.429905      116.747879
 C        47.449223      -60.167503      117.868317
 C        46.454269      -59.640556      118.646317
 C        45.975151      -60.413662      119.696678
 H        45.319321      -59.925919      120.447144
 C        46.402390      -61.663136      119.986130
 H        46.072678      -62.151131      120.938049
 C        47.298698      -62.215614      119.140907
 H        47.493225      -63.300655      119.083069
 C        47.904305      -61.468254      118.137863
 H        48.551640      -62.039497      117.485153
 C        50.317123      -60.274193      115.989601
 H        50.439426      -61.173553      116.593582
 C        51.272881      -59.986412      114.967102
 H        52.195808      -60.584038      114.767990
 C        51.179283      -58.848820      114.181404
 H        51.780846      -58.723648      113.313492
 C        49.969482      -58.131966      114.254868
 H        49.923225      -57.126789      113.866562
 C        47.584675      -56.425373      114.863014
 C        46.584915      -56.108849      113.909927
 H        46.321495      -56.856438      113.135834
 C        46.033424      -54.780476      113.760956
 H        45.136272      -54.649029      113.162010
 C        46.574928      -53.806446      114.586937
 H        46.056152      -52.849693      114.712616
 C        47.577209      -54.087254      115.476639
 H        47.999386      -53.361492      116.061737
 C        48.118195      -55.345795      115.621933
 H        48.903603      -55.567238      116.381874
