206
 generated by VMD
  IR         7.380000        9.630000       11.090000
  C1         5.050000        8.030000        7.690000
  C2         6.340000        8.190000        7.190000
  N1         5.010000        8.690000        8.950000
  C3a        6.270000        9.180000        9.360000
  N2         7.000000        8.880000        8.260000
  C4         8.250000        9.560000        8.260000
  C5a        8.740000        9.860000        9.600000
  C6        10.010000       10.400000        9.690000
  H1        10.300000       10.550000       10.720000
  C7        10.800000       10.750000        8.590000
  H2        11.850000       11.190000        8.760000
  C8        10.310000       10.560000        7.280000
  H3        10.790000       11.020000        6.420000
  C9         9.100000        9.940000        7.150000
  H4         8.620000       10.030000        6.200000
  C10        6.650000        7.700000        5.970000
  H5         7.510000        8.230000        5.520000
  C11        5.710000        6.910000        5.290000
  H6         6.050000        6.480000        4.370000
  C12        4.440000        6.650000        5.850000
  H7         3.680000        6.180000        5.280000
  C13        4.130000        7.260000        7.050000
  H8         3.300000        7.000000        7.690000
  C6         3.800000        8.980000        9.530000
  C1         3.300000        8.110000       10.520000
  H1         3.930000        7.400000       10.950000
  C2         2.010000        8.350000       10.920000
  H2         1.700000        7.710000       11.740000
  C3         1.220000        9.410000       10.440000
  H3         0.330000        9.550000       11.100000
  C4         1.760000       10.310000        9.530000
  H4         1.150000       11.180000        9.150000
  C5         3.070000       10.080000        9.070000
  H5         3.460000       10.890000        8.480000
  C1         8.940000        5.730000       12.110000
  C2         9.720000        6.640000       12.870000
  N1         8.240000        6.490000       11.270000
  C3b        8.450000        7.870000       11.440000
  N2         9.330000        7.940000       12.440000
  C4         9.820000        9.230000       12.700000
  C5b        8.860000       10.240000       12.490000
  C6         9.050000       11.500000       13.050000
  H1         8.450000       12.430000       12.820000
  C7        10.120000       11.750000       14.020000
  H2        10.020000       12.680000       14.600000
  C8        11.040000       10.770000       14.260000
  H3        11.810000       10.830000       15.030000
  C9        10.960000        9.530000       13.590000
  H4        11.780000        8.840000       13.640000
  C10       10.590000        6.170000       13.830000
  H5        11.140000        6.920000       14.400000
  C11       10.670000        4.790000       14.200000
  H6        11.320000        4.480000       15.010000
  C12        9.820000        3.930000       13.550000
  H7         9.550000        2.930000       13.840000
  C13        9.010000        4.330000       12.400000
  H8         8.590000        3.500000       11.870000
  C6         7.490000        5.950000       10.080000
  C1         6.160000        5.620000       10.210000
  H1         5.710000        5.620000       11.190000
  C2         5.530000        4.900000        9.220000
  H2         4.480000        4.730000        9.220000
  C3         6.250000        4.530000        8.040000
  H3         5.750000        4.120000        7.160000
  C4         7.610000        4.830000        7.940000
  H4         7.880000        5.120000        6.890000
  C5         8.210000        5.570000        8.960000
  H5         9.130000        6.040000        8.720000
  C1         4.510000        9.370000       14.440000
  C2         4.510000       10.680000       14.000000
  N1         5.540000        8.700000       13.700000
  C3c        6.060000        9.540000       12.700000
  N2         5.370000       10.770000       12.910000
  C4         5.350000       11.630000       11.810000
  C5c        6.520000       11.560000       11.020000
  C6         6.730000       12.470000       10.010000
  H1         7.500000       12.350000        9.290000
  C7         5.790000       13.490000        9.760000
  H2         6.100000       14.270000        9.090000
  C8         4.590000       13.580000       10.540000
  H3         3.940000       14.430000       10.580000
  C9         4.350000       12.640000       11.530000
  H4         3.320000       12.550000       11.870000
  C10        3.730000       11.670000       14.770000
  H5         3.690000       12.650000       14.340000
  C11        2.990000       11.210000       15.890000
  H6         2.390000       12.030000       16.379999
  C12        2.960000        9.830000       16.209999
  H7         2.210000        9.510000       16.879999
  C13        3.750000        8.930000       15.490000
  H8         3.890000        7.910000       15.780000
  C6         6.120000        7.550000       14.340000
  C1         7.250000        7.780000       15.140000
  H1         7.710000        8.740000       15.170000
  C2         7.700000        6.740000       15.890000
  H2         8.720000        6.760000       16.270000
  C3         7.020000        5.500000       15.790000
  H3         7.190000        4.880000       16.600000
  C4         5.980000        5.240000       14.920000
  H4         5.440000        4.290000       14.840000
  C5         5.540000        6.310000       14.160000
  H5         4.880000        6.200000       13.250000
  IR        15.410000        2.340000       22.270000
  C1        15.370000        4.680000       18.480000
  C2        14.080000        4.090000       18.540001
  N1        16.080000        4.150000       19.570000
  C3a       15.330000        3.370000       20.430000
  N2        14.080000        3.310000       19.719999
  C4        13.300000        2.260000       20.200001
  C5a       13.540000        1.760000       21.510000
  C6        12.770000        0.670000       21.980000
  H1        12.840000        0.360000       22.990000
  C7        11.760000        0.130000       21.150000
  H2        11.100000       -0.610000       21.540001
  C8        11.640000        0.530000       19.790001
  H3        10.970000        0.010000       19.100000
  C9        12.400000        1.610000       19.330000
  H4        12.030000        1.990000       18.379999
  C10       13.090000        4.540000       17.670000
  H5        12.070000        4.200000       17.719999
  C11       13.470000        5.550000       16.780001
  H6        12.650000        6.130000       16.320000
  C12       14.750000        6.080000       16.540001
  H7        14.990000        6.460000       15.510000
  C13       15.720000        5.580000       17.430000
  H8        16.610001        6.190000       17.480000
  C6        17.290001        4.720000       19.860001
  C1        18.400000        4.490000       19.059999
  H1        18.299999        3.880000       18.190001
  C2        19.629999        4.980000       19.440001
  H2        20.450001        4.750000       18.830000
  C3        19.670000        5.690000       20.690001
  H3        20.590000        6.000000       21.049999
  C4        18.580000        5.840000       21.500000
  H4        18.650000        6.550000       22.250000
  C5        17.340000        5.400000       21.120001
  H5        16.540001        5.260000       21.809999
  C1        13.160000        5.070000       24.889999
  C2        13.470000        3.980000       25.719999
  N1        13.690000        4.810000       23.629999
  C3b       14.300000        3.530000       23.580000
  N2        14.100000        3.060000       24.850000
  C4        14.710000        1.790000       25.080000
  C5b       15.210000        1.100000       23.930000
  C6        15.740000       -0.220000       24.000000
  H1        16.059999       -0.690000       23.150000
  C7        15.780000       -0.930000       25.160000
  H2        15.840000       -2.020000       25.129999
  C8        15.300000       -0.280000       26.299999
  H3        15.300000       -0.840000       27.280001
  C9        14.820000        1.070000       26.290001
  H4        14.430000        1.440000       27.200001
  C10       13.060000        3.960000       27.020000
  H5        13.120000        3.070000       27.620001
  C11       12.320000        5.080000       27.570000
  H6        12.070000        5.030000       28.650000
  C12       12.040000        6.220000       26.860001
  H7        11.590000        7.060000       27.430000
  C13       12.480000        6.220000       25.510000
  H8        12.290000        7.130000       24.900000
  C6        13.910000        5.950000       22.730000
  C1        14.710000        6.990000       23.090000
  H1        15.020000        6.990000       24.139999
  C2        15.100000        8.060000       22.180000
  H2        15.580000        8.970000       22.500000
  C3        14.590000        8.060000       20.889999
  H3        15.130000        8.650000       20.129999
  C4        13.670000        7.030000       20.559999
  H4        13.390000        7.160000       19.559999
  C5        13.390000        5.930000       21.410000
  H5        12.670000        5.210000       21.120001
  C1        19.530001        3.220000       23.309999
  C2        19.600000        2.220000       22.340000
  N1        18.190001        3.290000       23.670000
  C3c       17.379999        2.510000       22.889999
  N2        18.270000        1.790000       22.090000
  C4        17.740000        0.740000       21.290001
  C5c       16.350000        0.840000       21.090000
  C6        15.720000       -0.280000       20.490000
  H1        14.710000       -0.290000       20.090000
  C7        16.450001       -1.410000       20.000000
  H2        15.970000       -2.370000       19.770000
  C8        17.860001       -1.410000       20.139999
  H3        18.379999       -2.390000       19.969999
  C9        18.469999       -0.370000       20.820000
  H4        19.420000       -0.640000       21.230000
  C10       20.830000        2.040000       21.639999
  H5        20.850000        1.420000       20.780001
  C11       21.950001        2.820000       21.959999
  H6        22.790001        2.920000       21.240000
  C12       21.830000        3.790000       23.010000
  H7        22.700001        4.370000       23.459999
  C13       20.620001        3.890000       23.670000
  H8        20.389999        4.840000       24.190001
  C6        17.760000        3.710000       24.959999
  C1        16.930000        4.710000       25.180000
  H1        16.860001        5.430000       24.440001
  C2        16.450001        4.950000       26.459999
  H2        15.810000        5.760000       26.629999
  C3        16.790001        4.100000       27.549999
  H3        16.379999        4.300000       28.540001
  C4        17.690001        3.120000       27.370001
  H4        17.820000        2.370000       28.150000
  C5        18.139999        2.920000       26.090000
  H5        18.639999        1.980000       25.879999
