206
 generated by VMD
  IR        33.849998       51.320000       47.020000
  C1        34.619999       48.599998       43.730000
  C2        35.860001       48.790001       44.240002
  N1        33.660000       49.349998       44.470001
  C3a       34.299999       50.099998       45.439999
  N2        35.689999       49.770000       45.250000
  C4        36.549999       50.560001       46.080002
  C5a       35.919998       51.520000       46.860001
  C6        36.680000       52.439999       47.540001
  H1        36.220001       53.250000       48.099998
  C7        38.099998       52.439999       47.639999
  H2        38.580002       53.230000       48.290001
  C8        38.720001       51.400002       46.950001
  H3        39.799999       51.110001       47.200001
  C9        37.950001       50.490002       46.160000
  H4        38.450001       49.709999       45.689999
  C10       37.009998       48.200001       43.610001
  H5        37.980000       48.610001       43.830002
  C11       36.779999       47.360001       42.529999
  H6        37.630001       46.919998       42.009998
  C12       35.520000       47.110001       42.060001
  H7        35.320000       46.430000       41.279999
  C13       34.419998       47.740002       42.650002
  H8        33.380001       47.580002       42.389999
  C6        32.209999       49.340000       44.110001
  C1        31.459999       48.299999       44.639999
  H1        32.000000       47.549999       45.270000
  C2        30.059999       48.250000       44.540001
  H2        29.440001       47.419998       44.910000
  C3        29.410000       49.299999       43.830002
  H3        28.299999       49.349998       43.750000
  C4        30.170000       50.320000       43.290001
  H4        29.790001       51.150002       42.770000
  C5        31.590000       50.340000       43.389999
  H5        32.130001       51.099998       42.810001
  C1        35.209999       48.730000       50.400002
  C2        34.919998       49.910000       51.000000
  N1        34.930000       48.820000       49.009998
  C3b       34.389999       50.080002       48.689999
  N2        34.459999       50.770000       49.910000
  C4        34.299999       52.240002       49.900002
  C5b       33.849998       52.730000       48.660000
  C6        33.410000       54.049999       48.540001
  H1        33.029999       54.380001       47.560001
  C7        33.400002       54.860001       49.630001
  H2        33.020000       55.910000       49.680000
  C8        33.939999       54.380001       50.849998
  H3        34.029999       55.060001       51.790001
  C9        34.340000       53.080002       51.009998
  H4        34.669998       52.770000       52.000000
  C10       34.910000       49.990002       52.400002
  H5        34.880001       50.930000       52.980000
  C11       35.099998       48.820000       53.160000
  H6        35.000000       48.980000       54.220001
  C12       35.389999       47.599998       52.540001
  H7        35.290001       46.759998       53.049999
  C13       35.430000       47.590000       51.150002
  H8        35.430000       46.520000       50.740002
  C6        35.259998       47.740002       48.130001
  C1        34.220001       47.200001       47.369999
  H1        33.410000       47.860001       47.200001
  C2        34.419998       46.060001       46.630001
  H2        33.660000       45.689999       45.939999
  C3        35.689999       45.459999       46.549999
  H3        35.740002       44.459999       46.180000
  C4        36.759998       46.049999       47.250000
  H4        37.680000       45.669998       47.310001
  C5        36.580002       47.230000       48.040001
  H5        37.360001       47.820000       48.400002
  C1        29.549999       51.369999       47.119999
  C2        29.870001       52.509998       46.279999
  N1        30.709999       50.779999       47.490002
  C3c       31.790001       51.419998       47.009998
  N2        31.309999       52.529999       46.209999
  C4        32.209999       53.049999       45.290001
  C5c       33.549999       52.750000       45.480000
  C6        34.500000       53.220001       44.560001
  H1        35.590000       53.009998       44.730000
  C7        34.200001       54.029999       43.459999
  H2        35.049999       54.209999       42.740002
  C8        32.860001       54.360001       43.259998
  H3        32.689999       55.180000       42.619999
  C9        31.850000       53.880001       44.130001
  H4        30.959999       54.509998       44.169998
  C10       28.860001       53.259998       45.630001
  H5        29.030001       54.320000       45.240002
  C11       27.520000       52.820000       45.709999
  H6        26.780001       53.430000       45.169998
  C12       27.209999       51.669998       46.470001
  H7        26.120001       51.500000       46.660000
  C13       28.190001       50.970001       47.209999
  H8        27.950001       50.189999       47.840000
  C6        30.760000       49.930000       48.680000
  C1        31.000000       50.590000       49.869999
  H1        31.080000       51.650002       49.919998
  C2        31.180000       49.820000       51.020000
  H2        31.180000       50.209999       52.020000
  C3        31.209999       48.410000       50.990002
  H3        31.660000       47.889999       51.770000
  C4        31.030001       47.759998       49.759998
  H4        30.719999       46.740002       49.709999
  C5        30.780001       48.580002       48.630001
  H5        30.809999       48.160000       47.580002
  IR        28.280001       51.790001       58.919998
  C1        27.040001       55.849998       59.570000
  C2        26.580000       55.189999       60.660000
  N1        27.549999       54.889999       58.680000
  C3a       27.420000       53.619999       59.160000
  N2        26.770000       53.830002       60.389999
  C4        26.379999       52.639999       61.029999
  C5a       27.040001       51.470001       60.560001
  C6        26.820000       50.279999       61.220001
  H1        27.230000       49.349998       60.720001
  C7        26.100000       50.250000       62.439999
  H2        26.320000       49.419998       63.040001
  C8        25.530001       51.369999       62.980000
  H3        24.889999       51.340000       63.799999
  C9        25.570000       52.520000       62.240002
  H4        25.420000       53.450001       62.730000
  C10       26.219999       55.919998       61.799999
  H5        25.930000       55.439999       62.750000
  C11       26.170000       57.290001       61.759998
  H6        25.580000       57.900002       62.439999
  C12       26.510000       57.990002       60.570000
  H7        26.719999       59.080002       60.560001
  C13       26.990000       57.200001       59.529999
  H8        27.580000       57.700001       58.790001
  C6        27.690001       55.209999       57.330002
  C1        28.959999       55.450001       56.770000
  H1        29.770000       55.639999       57.419998
  C2        29.120001       55.630001       55.389999
  H2        30.070000       55.930000       54.910000
  C3        28.020000       55.599998       54.500000
  H3        28.230000       55.889999       53.470001
  C4        26.750000       55.279999       55.029999
  H4        26.010000       55.070000       54.320000
  C5        26.639999       55.130001       56.400002
  H5        25.690001       54.790001       56.779999
  C1        31.360001       52.099998       62.000000
  C2        31.459999       50.810001       61.490002
  N1        30.340000       52.740002       61.200001
  C3b       29.870001       51.830002       60.230000
  N2        30.549999       50.720001       60.400002
  C4        30.180000       49.590000       59.599998
  C5b       28.980000       49.779999       58.820000
  C6        28.500000       48.750000       58.029999
  H1        27.690001       48.950001       57.349998
  C7        29.200001       47.549999       57.919998
  H2        28.860001       46.830002       57.209999
  C8        30.280001       47.279999       58.750000
  H3        30.879999       46.389999       58.750000
  C9        30.780001       48.320000       59.509998
  H4        31.670000       48.040001       60.099998
  C10       32.380001       49.959999       62.189999
  H5        32.689999       49.029999       61.750000
  C11       33.139999       50.430000       63.310001
  H6        33.740002       49.689999       63.820000
  C12       33.000000       51.750000       63.740002
  H7        33.380001       52.000000       64.730003
  C13       32.139999       52.619999       63.070000
  H8        32.259998       53.680000       63.340000
  C6        30.040001       54.169998       61.349998
  C1        29.250000       54.740002       62.419998
  H1        28.450001       54.160000       62.849998
  C2        29.450001       56.090000       62.770000
  H2        28.910000       56.590000       63.540001
  C3        30.430000       56.889999       62.130001
  H3        30.320000       57.939999       62.290001
  C4        31.219999       56.340000       61.119999
  H4        32.110001       56.840000       60.770000
  C5        31.000000       55.020000       60.759998
  H5        31.610001       54.580002       59.959999
  C1        30.180000       52.490002       55.049999
  C2        28.940001       52.090000       54.709999
  N1        30.309999       52.259998       56.430000
  C3c       29.120001       51.880001       57.029999
  N2        28.290001       51.680000       55.959999
  C4        26.940001       51.490002       56.240002
  C5c       26.620001       51.439999       57.639999
  C6        25.240000       51.299999       57.950001
  H1        24.889999       51.369999       58.959999
  C7        24.270000       51.189999       56.970001
  H2        23.240000       51.040001       57.310001
  C8        24.580000       51.250000       55.610001
  H3        23.780001       51.279999       54.910000
  C9        25.959999       51.410000       55.259998
  H4        26.180000       51.540001       54.209999
  C10       28.650000       52.200001       53.380001
  H5        27.910000       51.500000       52.970001
  C11       29.570000       52.669998       52.410000
  H6        29.190001       52.840000       51.430000
  C12       30.850000       53.070000       52.820000
  H7        31.690001       53.270000       52.130001
  C13       31.110001       53.040001       54.209999
  H8        32.009998       53.509998       54.570000
  C6        31.639999       52.020000       56.990002
  C1        32.009998       50.730000       57.119999
  H1        31.340000       49.930000       56.990002
  C2        33.250000       50.480000       57.680000
  H2        33.430000       49.439999       57.840000
  C3        34.139999       51.459999       58.139999
  H3        35.180000       51.290001       58.490002
  C4        33.720001       52.750000       58.020000
  H4        34.209999       53.520000       58.639999
  C5        32.520000       53.000000       57.490002
  H5        32.450001       54.020000       57.040001
