206
 generated by VMD
 Ir       74.024475      -68.063179      -25.929281
 C        73.357788      -67.247116      -30.097466
 C        74.644310      -66.926994      -29.942284
 N        72.772781      -67.574951      -28.857792
 C        73.753235      -67.478638      -27.900963
 N        74.902481      -67.034454      -28.537720
 C        75.890671      -66.516586      -27.665323
 C        75.742844      -66.911499      -26.340340
 C        76.581406      -66.303070      -25.386028
 H        76.578812      -66.630844      -24.309433
 C        77.589691      -65.434967      -25.745438
 H        78.281189      -65.155914      -25.033783
 C        77.711403      -65.015068      -27.110342
 H        78.618881      -64.580322      -27.399445
 C        76.867935      -65.576263      -28.029387
 H        77.079124      -65.369339      -29.062576
 C        75.491119      -66.658371      -31.052128
 H        76.388885      -66.082138      -30.928211
 C        75.060699      -66.929153      -32.322685
 H        75.739304      -66.784164      -33.134335
 C        73.720276      -67.381866      -32.500534
 H        73.402885      -67.589859      -33.485119
 C        72.855240      -67.471924      -31.377235
 H        71.856537      -67.970734      -31.431747
 C        71.397247      -67.471268      -28.589340
 C        70.545135      -68.551758      -28.677927
 H        70.860176      -69.454773      -29.213665
 C        69.230301      -68.429810      -28.272423
 H        68.709732      -69.354225      -28.169651
 C        68.731949      -67.233902      -27.814217
 H        67.666916      -67.126404      -27.428398
 C        69.557938      -66.128433      -27.765551
 H        69.318390      -65.192574      -27.266167
 C        70.839455      -66.217537      -28.191322
 H        71.332466      -65.290398      -28.412134
 C        76.583656      -71.584641      -26.533337
 C        76.613861      -71.374298      -25.166500
 N        75.873947      -70.532425      -27.026230
 C        75.352478      -69.658615      -26.040565
 N        75.861969      -70.163757      -24.919018
 C        75.802841      -69.265152      -23.814524
 C        74.688171      -68.403580      -23.901268
 C        74.229202      -67.687416      -22.834705
 H        73.375565      -66.988693      -22.933617
 C        74.857040      -67.842072      -21.596321
 H        74.652985      -67.179619      -20.720123
 C        75.982574      -68.668182      -21.504517
 H        76.519394      -68.712265      -20.608315
 C        76.480728      -69.352837      -22.579500
 H        77.487686      -69.703674      -22.400776
 C        77.296570      -72.313820      -24.377518
 H        77.517906      -72.151810      -23.358864
 C        77.912216      -73.394012      -25.068001
 H        78.403931      -74.186249      -24.545338
 C        77.870781      -73.608292      -26.442469
 H        78.231445      -74.486443      -26.874762
 C        77.170197      -72.674026      -27.215542
 H        76.996689      -72.880630      -28.320942
 C        75.734024      -70.335617      -28.519878
 C        74.481934      -70.463684      -29.125984
 H        73.626900      -70.668915      -28.482090
 C        74.403915      -70.567627      -30.542744
 H        73.323639      -70.623718      -30.875538
 C        75.473511      -70.505402      -31.376415
 H        75.473686      -70.297150      -32.400978
 C        76.734818      -70.372124      -30.707958
 H        77.539413      -70.278488      -31.351116
 C        76.859215      -70.320679      -29.319332
 H        77.805206      -70.368454      -28.800846
 C        70.165901      -70.007767      -25.430773
 C        70.003799      -68.739700      -24.954521
 N        71.522308      -70.178482      -25.623449
 C        72.233154      -68.957535      -25.464758
 N        71.221405      -68.102966      -24.991989
 C        71.601395      -66.786148      -24.814840
 C        72.743713      -66.383957      -25.498390
 C        72.977463      -65.016930      -25.695133
 H        73.787933      -64.782776      -26.366924
 C        72.087997      -64.046898      -25.147434
 H        72.130112      -62.965992      -25.478006
 C        71.048233      -64.467590      -24.317123
 H        70.691666      -63.773453      -23.651970
 C        70.835724      -65.826698      -24.181919
 H        70.153061      -66.135788      -23.397673
 C        68.718887      -68.228973      -24.688526
 H        68.520752      -67.178734      -24.387636
 C        67.552559      -68.994125      -24.987923
 H        66.615982      -68.604324      -24.622196
 C        67.699791      -70.247627      -25.633188
 H        66.919548      -71.019608      -25.645882
 C        69.043098      -70.703308      -25.777695
 H        69.109283      -71.632568      -26.287289
 C        72.205109      -71.385498      -25.312531
 C        72.837189      -71.429871      -24.045483
 H        72.658997      -70.557106      -23.472923
 C        73.569946      -72.573929      -23.670219
 H        74.004669      -72.598343      -22.712456
 C        73.730362      -73.628960      -24.568146
 H        74.443275      -74.410553      -24.258690
 C        73.078201      -73.610893      -25.765881
 H        73.108185      -74.537506      -26.315247
 C        72.291763      -72.500961      -26.162434
 H        71.597595      -72.573746      -27.028831
 Ir       74.024475      -68.063179      -15.671648
 C        72.844437      -64.735123      -13.054963
 C        73.901978      -64.236992      -13.833418
 N        72.707733      -66.078079      -13.432681
 C        73.685364      -66.441162      -14.409719
 N        74.403244      -65.293411      -14.682180
 C        75.387917      -65.382050      -15.679955
 C        75.281891      -66.580261      -16.465603
 C        76.109451      -66.625465      -17.568871
 H        75.896118      -67.282654      -18.396637
 C        77.212524      -65.758820      -17.765759
 H        78.084122      -65.990868      -18.365984
 C        77.339378      -64.659142      -16.907606
 H        78.235527      -64.065674      -16.999792
 C        76.428375      -64.437912      -15.890092
 H        76.610535      -63.592846      -15.204903
 C        74.146561      -62.805843      -13.751644
 H        74.948608      -62.320961      -14.343682
 C        73.360680      -62.014671      -12.845090
 H        73.377708      -60.992989      -13.003430
 C        72.389183      -62.623138      -12.031655
 H        71.953346      -62.147121      -11.150547
 C        72.112915      -63.991196      -12.190991
 H        71.421326      -64.431496      -11.535606
 C        71.705193      -67.009445      -12.760917
 C        70.412292      -66.970810      -13.301131
 H        70.051498      -66.063034      -13.827130
 C        69.437721      -67.812775      -12.782092
 H        68.379463      -67.514496      -12.897529
 C        69.723953      -68.751083      -11.803096
 H        68.877930      -69.216248      -11.235069
 C        71.003120      -68.779205      -11.287391
 H        71.307167      -69.516449      -10.529877
 C        71.985565      -67.935966      -11.753172
 H        72.987457      -67.928574      -11.266802
 C        71.097046      -67.382965      -18.721300
 C        71.707199      -68.530350      -19.107061
 N        71.699326      -66.930893      -17.587502
 C        72.797379      -67.707283      -17.271257
 N        72.777916      -68.676903      -18.223495
 C        73.897392      -69.527885      -18.240986
 C        74.693527      -69.526230      -17.095047
 C        75.766129      -70.373337      -17.019327
 H        76.457108      -70.357048      -16.106049
 C        76.039803      -71.310112      -18.040089
 H        76.761841      -72.119171      -17.874027
 C        75.241173      -71.297310      -19.202902
 H        75.408058      -72.054367      -19.988728
 C        74.199699      -70.366119      -19.341562
 H        73.805145      -70.122421      -20.301109
 C        71.236572      -69.234543      -20.239281
 H        71.365349      -70.274445      -20.325502
 C        70.104904      -68.723114      -20.919762
 H        70.015396      -69.191086      -21.935581
 C        69.509636      -67.528481      -20.501652
 H        68.738029      -67.009247      -21.139782
 C        69.978340      -66.895180      -19.382477
 H        69.544708      -65.940697      -19.170292
 C        71.402969      -65.552551      -17.062119
 C        72.274597      -64.479568      -17.456913
 H        73.158218      -64.618408      -18.044243
 C        72.008118      -63.169395      -17.071386
 H        72.484604      -62.348427      -17.540707
 C        70.881989      -62.991302      -16.278280
 H        70.542480      -61.971245      -15.976426
 C        70.068077      -64.018364      -15.834903
 H        69.233536      -63.833679      -15.120731
 C        70.271744      -65.349533      -16.235054
 H        69.585228      -66.162399      -16.024040
 C        71.870323      -71.349854      -13.558589
 C        73.010818      -71.157471      -12.886825
 N        71.935890      -70.463982      -14.687854
 C        73.097427      -69.676270      -14.694347
 N        73.749252      -70.115768      -13.567245
 C        74.976257      -69.422844      -13.267585
 C        75.512512      -68.690742      -14.290015
 C        76.806259      -68.240509      -14.291096
 H        77.283684      -67.884048      -15.164426
 C        77.659706      -68.480392      -13.236115
 H        78.511871      -67.838516      -13.078857
 C        77.134888      -69.262398      -12.204796
 H        77.793373      -69.500778      -11.374517
 C        75.808670      -69.724487      -12.149813
 H        75.341446      -69.811821      -11.207431
 C        73.286789      -71.883270      -11.635366
 H        74.206161      -71.954697      -11.091733
 C        72.359070      -72.805267      -11.209597
 H        72.641701      -73.496597      -10.391805
 C        71.210510      -73.021240      -11.935932
 H        70.525040      -73.765991      -11.512649
 C        70.969589      -72.355865      -13.155455
 H        70.095032      -72.591667      -13.737809
 C        70.904053      -70.478882      -15.650300
 C        70.990250      -71.443176      -16.708408
 H        71.605484      -72.329666      -16.581039
 C        70.111038      -71.438301      -17.800915
 H        70.306870      -71.994347      -18.732883
 C        69.054581      -70.544006      -17.767483
 H        68.292786      -70.724533      -18.544331
 C        68.929001      -69.633545      -16.702267
 H        68.321533      -68.764114      -16.845400
 C        69.913574      -69.583260      -15.649188
 H        69.727936      -69.000900      -14.785070
