206
 generated by VMD
 Ir      -24.831554      -17.355789     -116.652138
 C       -25.144150      -13.642347     -114.477554
 C       -24.215794      -14.390791     -113.736084
 N       -25.731705      -14.553421     -115.387131
 C       -25.233103      -15.771236     -115.350784
 N       -24.272404      -15.709200     -114.342705
 C       -23.481564      -16.916925     -114.078766
 C       -23.371304      -17.760614     -115.179962
 C       -22.561171      -18.863209     -115.011810
 H       -22.477032      -19.613359     -115.806793
 C       -21.857435      -19.130857     -113.824371
 H       -21.000786      -19.869043     -113.719803
 C       -22.010509      -18.291540     -112.741821
 H       -21.703272      -18.554108     -111.744537
 C       -22.837585      -17.160748     -112.899132
 H       -23.027584      -16.584093     -112.002716
 C       -23.474527      -13.745411     -112.854370
 H       -22.727966      -14.304382     -112.410294
 C       -23.653328      -12.421923     -112.518219
 H       -23.026436      -11.931843     -111.798691
 C       -24.615051      -11.695168     -113.236969
 H       -24.751665      -10.647280     -113.040329
 C       -25.348389      -12.274498     -114.259666
 H       -25.918453      -11.599594     -114.932449
 C       -26.909779      -14.166264     -116.114014
 C       -26.802685      -13.961353     -117.512917
 H       -25.861626      -14.339954     -118.045898
 C       -27.865948      -13.341965     -118.166397
 H       -27.881861      -13.277803     -119.206894
 C       -29.011845      -12.997997     -117.439133
 H       -29.653728      -12.287123     -117.874954
 C       -29.144562      -13.244141     -116.046799
 H       -30.094471      -13.110710     -115.553978
 C       -28.102104      -13.855940     -115.390228
 H       -27.915924      -13.867981     -114.366806
 C       -22.053976      -15.213528     -119.194244
 C       -22.165279      -16.467941     -119.776093
 N       -22.682447      -15.275639     -117.967026
 C       -23.258781      -16.517555     -117.666214
 N       -22.833611      -17.298233     -118.808136
 C       -23.166340      -18.666080     -118.758316
 C       -24.193390      -18.984613     -117.837509
 C       -24.558533      -20.345947     -117.763054
 H       -25.473705      -20.510702     -117.178146
 C       -23.903870      -21.386515     -118.534302
 H       -24.032558      -22.393972     -118.254532
 C       -22.867617      -21.047279     -119.347015
 H       -22.318768      -21.779671     -119.904663
 C       -22.507542      -19.726110     -119.454041
 H       -21.798542      -19.456396     -120.228363
 C       -21.796474      -16.732491     -121.075897
 H       -21.844707      -17.761101     -121.464020
 C       -21.232689      -15.727444     -121.850128
 H       -20.979748      -15.919165     -122.911667
 C       -20.961519      -14.431795     -121.328629
 H       -20.383575      -13.635868     -121.850342
 C       -21.350863      -14.199738     -119.957962
 H       -21.113445      -13.214415     -119.548981
 C       -22.314560      -14.289774     -117.004974
 C       -22.815609      -13.018858     -117.091072
 H       -23.680847      -12.742098     -117.705948
 C       -22.202766      -11.961590     -116.466965
 H       -22.710443      -10.982340     -116.431870
 C       -21.125895      -12.104649     -115.629303
 H       -20.573708      -11.234098     -115.149261
 C       -20.665211      -13.403683     -115.422455
 H       -19.756222      -13.616447     -114.831879
 C       -21.313103      -14.516281     -116.049637
 H       -21.304165      -15.458492     -115.650681
 C       -28.339687      -16.800953     -119.206284
 C       -28.732094      -17.371704     -118.021057
 N       -26.902327      -16.811123     -119.147202
 C       -26.436516      -17.324036     -117.988739
 N       -27.557175      -17.742619     -117.322922
 C       -27.346897      -18.660370     -116.340820
 C       -26.267300      -18.410818     -115.542519
 C       -26.010632      -19.143995     -114.377716
 H       -25.271154      -18.890341     -113.678909
 C       -26.891846      -20.152790     -114.016068
 H       -26.747765      -20.767004     -113.189148
 C       -28.014013      -20.415377     -114.810104
 H       -28.525204      -21.316803     -114.647583
 C       -28.250601      -19.665859     -115.912216
 H       -29.087524      -19.954145     -116.470291
 C       -30.076138      -17.617052     -117.601593
 H       -30.337948      -17.609726     -116.535431
 C       -31.077461      -17.093250     -118.444611
 H       -32.055748      -17.538435     -118.501801
 C       -30.701580      -16.327229     -119.573334
 H       -31.488266      -15.951851     -120.322021
 C       -29.406834      -16.200132     -120.002029
 H       -29.190807      -16.051268     -121.047958
 C       -26.151554      -17.042822     -120.285995
 C       -25.540840      -15.992085     -120.921265
 H       -25.657042      -15.062181     -120.459549
 C       -24.824936      -16.164164     -122.085175
 H       -24.406651      -15.384655     -122.702988
 C       -24.618353      -17.457401     -122.567322
 H       -23.777523      -17.683205     -123.211685
 C       -25.233906      -18.525543     -121.986572
 H       -25.395184      -19.451342     -122.579010
 C       -26.025042      -18.351322     -120.816681
 H       -26.440651      -19.219902     -120.350372
 Ir      -24.831551      -17.355791     -104.235451
 C       -26.138988      -17.765663     -108.404419
 C       -25.065807      -18.593813     -108.336197
 N       -26.167435      -16.996675     -107.183952
 C       -25.261913      -17.458624     -106.264145
 N       -24.643257      -18.553370     -106.950729
 C       -23.895554      -19.366877     -106.100937
 C       -23.414757      -18.751755     -104.957245
 C       -22.263508      -19.199692     -104.261765
 H       -22.212831      -19.078304     -103.151535
 C       -21.550726      -20.301844     -104.781952
 H       -20.490862      -20.410542     -104.337021
 C       -22.013817      -21.031919     -105.912552
 H       -21.626160      -22.004923     -106.188385
 C       -23.217075      -20.550333     -106.555466
 H       -23.627003      -21.053446     -107.400116
 C       -24.612373      -19.300770     -109.533493
 H       -23.792538      -19.943546     -109.457939
 C       -25.359343      -19.175205     -110.695587
 H       -25.101589      -19.803888     -111.590591
 C       -26.492718      -18.400162     -110.682846
 H       -27.026310      -18.260225     -111.641068
 C       -26.866337      -17.698647     -109.549576
 H       -27.738644      -17.097105     -109.618317
 C       -26.556768      -15.600895     -107.180435
 C       -27.629387      -15.193913     -106.373444
 H       -27.937866      -15.875599     -105.580185
 C       -28.311363      -14.006710     -106.598312
 H       -29.256702      -13.815804     -106.118729
 C       -27.797871      -13.085295     -107.473419
 H       -28.287441      -12.110601     -107.693375
 C       -26.719458      -13.476036     -108.313629
 H       -26.390629      -12.876814     -109.155708
 C       -26.076420      -14.707773     -108.144440
 H       -25.394192      -15.137606     -108.837997
 C       -27.487450      -20.484993     -102.883705
 C       -26.734142      -20.188669     -101.776131
 N       -26.950188      -19.790453     -103.980087
 C       -25.878620      -18.993441     -103.511673
 N       -25.743061      -19.293756     -102.186371
 C       -24.669712      -18.649542     -101.557480
 C       -24.203224      -17.471981     -102.213104
 C       -23.496483      -16.503609     -101.579956
 H       -23.279755      -15.565771     -102.131393
 C       -23.262791      -16.612928     -100.192276
 H       -22.863659      -15.833410      -99.548584
 C       -23.566462      -17.819675      -99.501450
 H       -23.147263      -17.995401      -98.481308
 C       -24.274158      -18.845615     -100.226166
 H       -24.123257      -19.805319     -100.057961
 C       -27.054415      -20.868927     -100.580688
 H       -26.380718      -20.601080      -99.744873
 C       -28.195560      -21.649157     -100.426636
 H       -28.279057      -22.374130      -99.630371
 C       -29.065269      -21.821865     -101.521149
 H       -29.854725      -22.571659     -101.468529
 C       -28.647717      -21.223986     -102.700760
 H       -29.167587      -21.458187     -103.586647
 C       -27.255695      -20.279821     -105.287689
 C       -28.100845      -19.530310     -106.086395
 H       -28.443298      -18.511784     -105.876785
 C       -28.453697      -20.144358     -107.309647
 H       -29.071125      -19.592085     -108.032608
 C       -27.986828      -21.404840     -107.673126
 H       -28.242496      -21.797371     -108.656616
 C       -27.101559      -22.058857     -106.838776
 H       -26.506172      -22.944040     -107.258255
 C       -26.718414      -21.561899     -105.577171
 H       -26.342369      -22.152195     -104.800476
 C       -27.439369      -14.239534     -102.876923
 C       -26.460072      -13.638882     -103.646973
 N       -27.223980      -15.593100     -102.893143
 C       -26.010387      -15.836132     -103.574265
 N       -25.564932      -14.615009     -104.025528
 C       -24.227848      -14.527010     -104.526184
 C       -23.531422      -15.685207     -104.630936
 C       -22.240498      -15.700289     -105.156944
 H       -21.821548      -16.766291     -105.123474
 C       -21.616283      -14.472565     -105.585831
 H       -20.672436      -14.552799     -106.023575
 C       -22.279814      -13.277420     -105.415100
 H       -21.848234      -12.404463     -105.849380
 C       -23.592480      -13.343731     -104.932709
 H       -24.015705      -12.347967     -104.660980
 C       -26.634872      -12.293173     -103.952774
 H       -25.830406      -11.684664     -104.333893
 C       -27.689568      -11.490543     -103.446007
 H       -27.928097      -10.440968     -103.745148
 C       -28.719158      -12.145460     -102.687180
 H       -29.520737      -11.580326     -102.255432
 C       -28.600487      -13.498848     -102.449142
 H       -29.382271      -13.907612     -101.888046
 C       -27.931038      -16.443117     -102.137329
 C       -29.188774      -16.875719     -102.553329
 H       -29.534466      -16.643587     -103.605331
 C       -30.052185      -17.463161     -101.618057
 H       -30.966702      -17.792500     -101.950760
 C       -29.640148      -17.762316     -100.343323
 H       -30.458496      -18.054968      -99.698685
 C       -28.382393      -17.390493      -99.972122
 H       -27.848412      -17.905815      -99.125175
 C       -27.471844      -16.703180     -100.835251
 H       -26.603317      -16.242464     -100.325836
