206
 generated by VMD
  IR        50.630001       36.200001       38.880001
  C1        51.930000       33.070000       41.669998
  C2        50.619999       32.900002       41.480000
  N1        52.279999       34.220001       40.900002
  C3a       51.169998       34.779999       40.299999
  N2        50.160000       33.980000       40.759998
  C4        48.810001       34.450001       40.529999
  C5a       48.759998       35.369999       39.509998
  C6        47.490002       35.869999       39.090000
  H1        47.500000       36.560001       38.310001
  C7        46.310001       35.450001       39.730000
  H2        45.340000       35.860001       39.380001
  C8        46.389999       34.450001       40.730000
  H3        45.520000       34.290001       41.270000
  C9        47.669998       33.910000       41.070000
  H4        47.660000       33.080002       41.720001
  C10       50.060001       31.750000       42.000000
  H5        49.060001       31.500000       41.720001
  C11       50.840000       30.820000       42.720001
  H6        50.450001       29.860001       43.049999
  C12       52.150002       31.150000       43.060001
  H7        52.779999       30.469999       43.660000
  C13       52.720001       32.220001       42.500000
  H8        53.700001       32.529999       42.869999
  C6        53.639999       34.509998       40.610001
  C1        54.419998       33.470001       40.060001
  H1        53.980000       32.860001       39.330002
  C2        55.830002       33.580002       40.169998
  H2        56.560001       32.919998       39.680000
  C3        56.470001       34.730000       40.689999
  H3        57.439999       34.959999       40.250000
  C4        55.709999       35.790001       41.130001
  H4        56.009998       36.810001       41.180000
  C5        54.310001       35.619999       41.180000
  H5        53.680000       36.340000       41.689999
  C1        50.389999       33.860001       35.189999
  C2        50.250000       35.139999       34.759998
  N1        50.470001       33.849998       36.590000
  C3b       50.430000       35.150002       37.070000
  N2        50.279999       35.959999       36.020000
  C4        49.970001       37.230000       36.270000
  C5b       49.770000       37.590000       37.599998
  C6        49.070000       38.820000       37.970001
  H1        48.540001       38.740002       38.959999
  C7        48.840000       39.720001       36.970001
  H2        48.130001       40.540001       37.119999
  C8        49.250000       39.349998       35.669998
  H3        48.970001       40.070000       34.919998
  C9        49.810001       38.169998       35.299999
  H4        50.240002       38.070000       34.330002
  C10       50.400002       35.419998       33.330002
  H5        50.529999       36.419998       33.020000
  C11       50.759998       34.389999       32.450001
  H6        50.919998       34.570000       31.389999
  C12       50.919998       33.090000       32.910000
  H7        51.169998       32.410000       32.200001
  C13       50.619999       32.840000       34.240002
  H8        50.500000       31.780001       34.520000
  C6        50.570000       32.580002       37.400002
  C1        49.459999       32.130001       38.049999
  H1        48.580002       32.720001       38.150002
  C2        49.619999       30.980000       38.820000
  H2        48.779999       30.620001       39.410000
  C3        50.770000       30.209999       38.990002
  H3        51.040001       29.490000       39.810001
  C4        51.840000       30.660000       38.270000
  H4        52.740002       30.139999       38.160000
  C5        51.779999       31.850000       37.470001
  H5        52.709999       32.299999       37.250000
  C1        54.740002       37.720001       38.330002
  C2        54.200001       38.400002       39.419998
  N1        53.639999       36.990002       37.740002
  C3c       52.459999       37.119999       38.509998
  N2        52.779999       38.029999       39.540001
  C4        51.810001       38.470001       40.490002
  C5c       50.740002       37.509998       40.570000
  C6        49.750000       37.790001       41.529999
  H1        48.869999       37.220001       41.500000
  C7        49.820000       38.820000       42.410000
  H2        48.919998       38.779999       43.049999
  C8        50.830002       39.740002       42.369999
  H3        50.740002       40.689999       42.930000
  C9        51.840000       39.580002       41.380001
  H4        52.650002       40.230000       41.450001
  C10       55.080002       39.270000       40.169998
  H5        54.790001       39.730000       41.070000
  C11       56.430000       39.340000       39.779999
  H6        57.049999       39.910000       40.419998
  C12       57.000000       38.660000       38.709999
  H7        58.009998       38.930000       38.369999
  C13       56.090000       37.939999       37.930000
  H8        56.720001       37.400002       37.180000
  C6        53.770000       36.200001       36.590000
  C1        53.730000       36.730000       35.279999
  H1        53.169998       37.680000       35.119999
  C2        54.209999       35.980000       34.169998
  H2        54.360001       36.509998       33.240002
  C3        54.650002       34.660000       34.389999
  H3        54.820000       34.000000       33.619999
  C4        54.660000       34.130001       35.709999
  H4        54.520000       33.099998       35.880001
  C5        54.250000       34.939999       36.720001
  H5        54.090000       34.520000       37.680000
  IR        46.040001       47.230000       37.590000
  C1        48.790001       50.709999       37.119999
  C2        48.910000       50.270000       38.410000
  N1        47.709999       49.939999       36.560001
  C3a       47.259998       48.939999       37.520000
  N2        48.009998       49.240002       38.630001
  C4        47.320000       48.759998       39.820000
  C5a       46.310001       47.849998       39.580002
  C6        45.520000       47.430000       40.689999
  H1        44.790001       46.650002       40.610001
  C7        45.720001       48.000000       41.939999
  H2        45.070000       47.700001       42.650002
  C8        46.650002       49.000000       42.180000
  H3        46.509998       49.619999       43.040001
  C9        47.459999       49.369999       41.139999
  H4        48.439999       49.790001       41.430000
  C10       49.970001       50.740002       39.169998
  H5        50.270000       50.299999       40.080002
  C11       50.889999       51.669998       38.700001
  H6        51.650002       52.110001       39.299999
  C12       50.689999       52.200001       37.410000
  H7        51.400002       52.959999       37.049999
  C13       49.650002       51.680000       36.590000
  H8        49.590000       51.869999       35.520000
  C6        47.270000       50.130001       35.200001
  C1        47.689999       49.189999       34.250000
  H1        48.430000       48.500000       34.549999
  C2        47.000000       49.070000       33.020000
  H2        47.369999       48.430000       32.230000
  C3        45.840000       49.790001       32.790001
  H3        45.279999       49.650002       31.809999
  C4        45.299999       50.599998       33.799999
  H4        44.279999       50.970001       33.689999
  C5        46.070000       50.820000       35.000000
  H5        45.740002       51.470001       35.799999
  C1        49.119999       44.509998       38.720001
  C2        47.970001       43.740002       38.880001
  N1        48.779999       45.709999       38.150002
  C3b       47.439999       45.759998       38.009998
  N2        46.930000       44.560001       38.430000
  C4        45.509998       44.540001       38.590000
  C5b       44.799999       45.610001       38.090000
  C6        43.389999       45.639999       38.160000
  H1        42.720001       46.200001       37.560001
  C7        42.700001       44.580002       38.750000
  H2        41.680000       44.470001       38.689999
  C8        43.369999       43.520000       39.220001
  H3        42.660000       42.669998       39.369999
  C9        44.790001       43.509998       39.209999
  H4        45.320000       42.639999       39.480000
  C10       47.950001       42.459999       39.369999
  H5        47.240002       41.730000       39.080002
  C11       49.189999       42.020000       39.889999
  H6        49.380001       41.029999       40.330002
  C12       50.349998       42.730000       39.720001
  H7        51.320000       42.360001       40.090000
  C13       50.349998       43.970001       39.150002
  H8        51.220001       44.590000       38.990002
  C6        49.720001       46.730000       37.779999
  C1        50.570000       47.340000       38.779999
  H1        50.340000       47.299999       39.840000
  C2        51.580002       48.259998       38.369999
  H2        52.330002       48.520000       39.080002
  C3        51.820000       48.529999       37.040001
  H3        52.750000       49.169998       36.849998
  C4        50.950001       47.950001       36.110001
  H4        50.939999       48.500000       35.160000
  C5        49.910000       47.049999       36.430000
  H5        49.189999       46.700001       35.730000
  C1        44.759998       45.980000       33.590000
  C2        43.869999       46.860001       33.980000
  N1        45.730000       45.959999       34.529999
  C3c       45.459999       46.820000       35.610001
  N2        44.279999       47.410000       35.240002
  C4        43.709999       48.389999       36.110001
  C5c       44.349998       48.470001       37.360001
  C6        43.939999       49.520000       38.259998
  H1        44.400002       49.669998       39.169998
  C7        42.880001       50.400002       37.970001
  H2        42.689999       51.200001       38.660000
  C8        42.310001       50.290001       36.689999
  H3        41.419998       50.919998       36.509998
  C9        42.720001       49.310001       35.779999
  H4        42.480000       49.450001       34.740002
  C10       42.860001       47.220001       33.060001
  H5        42.290001       48.150002       33.060001
  C11       42.669998       46.570000       31.850000
  H6        41.660000       46.669998       31.389999
  C12       43.630001       45.599998       31.459999
  H7        43.540001       45.119999       30.500000
  C13       44.639999       45.320000       32.320000
  H8        45.419998       44.669998       31.920000
  C6        46.849998       45.090000       34.400002
  C1        46.849998       43.970001       35.270000
  H1        45.919998       43.930000       35.919998
  C2        47.990002       43.130001       35.270000
  H2        48.049999       42.270000       35.919998
  C3        49.090000       43.509998       34.529999
  H3        49.910000       42.830002       34.500000
  C4        49.130001       44.720001       33.830002
  H4        50.040001       45.320000       33.759998
  C5        47.950001       45.500000       33.709999
  H5        47.889999       46.279999       33.000000
