206
 generated by VMD
 Ir       27.551216      -89.440674     -135.405487
 C        30.562622      -89.261566     -132.375641
 C        29.687634      -90.327377     -131.954529
 N        30.417919      -89.070572     -133.758972
 C        29.248446      -89.780571     -134.219879
 N        28.951889      -90.630386     -133.106476
 C        28.020435      -91.616730     -133.526474
 C        26.960098      -91.153740     -134.332458
 C        25.804760      -91.914719     -134.430466
 H        24.992722      -91.676529     -135.134430
 C        25.706354      -93.225754     -133.897156
 H        24.859272      -93.787262     -134.287201
 C        26.841742      -93.785675     -133.309967
 H        26.818144      -94.745338     -132.869629
 C        27.994183      -92.968826     -133.027924
 H        28.680517      -93.412949     -132.304199
 C        29.723637      -90.634460     -130.625153
 H        29.077431      -91.494942     -130.348602
 C        30.382530      -89.855019     -129.657623
 H        30.341793      -90.115128     -128.554535
 C        31.177746      -88.754326     -129.994949
 H        31.923386      -88.301208     -129.350815
 C        31.266544      -88.501282     -131.366806
 H        31.856400      -87.654053     -131.810837
 C        31.579655      -88.784340     -134.554047
 C        32.706306      -89.522049     -134.361847
 H        32.632736      -90.391579     -133.740448
 C        33.818478      -89.257126     -135.122421
 H        34.681965      -89.957428     -135.207062
 C        33.848900      -88.168045     -135.992065
 H        34.783474      -88.141159     -136.618530
 C        32.651558      -87.401299     -136.209930
 H        32.638008      -86.540710     -136.866379
 C        31.551414      -87.687531     -135.448135
 H        30.675858      -87.061302     -135.554184
 C        28.060057      -92.043671     -138.903732
 C        26.796421      -91.567474     -139.033920
 N        28.603691      -91.547386     -137.728729
 C        27.725513      -90.739716     -137.018875
 N        26.592226      -90.751564     -137.938889
 C        25.475380      -89.965149     -137.460541
 C        25.686394      -89.194664     -136.333237
 C        24.636585      -88.368118     -135.814941
 H        24.822454      -87.663040     -135.007782
 C        23.394684      -88.305283     -136.409958
 H        22.627449      -87.648239     -136.062897
 C        23.142460      -89.167786     -137.508362
 H        22.153721      -89.546822     -137.823975
 C        24.182590      -89.930405     -138.044571
 H        24.099073      -90.267120     -139.083099
 C        26.005836      -92.028885     -140.034866
 H        25.038280      -91.605164     -140.311279
 C        26.369038      -93.044586     -140.940689
 H        25.734398      -93.347633     -141.779144
 C        27.673744      -93.528519     -140.776550
 H        27.921890      -94.395142     -141.306152
 C        28.510090      -92.989616     -139.775024
 H        29.568096      -93.161041     -139.836212
 C        29.899197      -92.093399     -137.329071
 C        29.860882      -93.096054     -136.347763
 H        29.067568      -93.759216     -136.175262
 C        31.028851      -93.400635     -135.721283
 H        30.944660      -93.877777     -134.782867
 C        32.218704      -92.740555     -136.085480
 H        33.160168      -93.193298     -135.731140
 C        32.241890      -91.832687     -137.178986
 H        33.216125      -91.500793     -137.542587
 C        31.068794      -91.478699     -137.793915
 H        31.009869      -90.838844     -138.660629
 C        28.882990      -85.718201     -137.211533
 C        28.399258      -85.328064     -135.960693
 N        28.487312      -87.047028     -137.418091
 C        27.923573      -87.583435     -136.231232
 N        27.844170      -86.474503     -135.347061
 C        27.312290      -86.733673     -134.059113
 C        26.946163      -88.111336     -133.853180
 C        26.509018      -88.473938     -132.600250
 H        26.089638      -89.488480     -132.577118
 C        26.426262      -87.585175     -131.511841
 H        26.193821      -87.850197     -130.490173
 C        26.705414      -86.203484     -131.773605
 H        26.657658      -85.541626     -130.893967
 C        27.157669      -85.809692     -133.040649
 H        27.098141      -84.775024     -133.319229
 C        28.391045      -84.008179     -135.618134
 H        28.143837      -83.543922     -134.665894
 C        28.828455      -82.999405     -136.491760
 H        28.715038      -81.941315     -136.322968
 C        29.344604      -83.384293     -137.724670
 H        29.545441      -82.663574     -138.510223
 C        29.406775      -84.742149     -138.114624
 H        29.925495      -84.880699     -139.006042
 C        28.513279      -87.727661     -138.737930
 C        27.352303      -87.769470     -139.498779
 H        26.560841      -87.059616     -139.301788
 C        27.318157      -88.485321     -140.677368
 H        26.430309      -88.515755     -141.227081
 C        28.439709      -89.154724     -141.125961
 H        28.312973      -90.025322     -141.718399
 C        29.653030      -88.923309     -140.520721
 H        30.534504      -89.419792     -140.992981
 C        29.696276      -88.236496     -139.283173
 H        30.659798      -88.037163     -138.824829
 Ir       27.551216      -89.440674     -120.842445
 C        31.380096      -91.208710     -119.623947
 C        31.388908      -89.940704     -119.207771
 N        30.136993      -91.376808     -120.305374
 C        29.427654      -90.193604     -120.356171
 N        30.282139      -89.319351     -119.741974
 C        29.958237      -87.912949     -119.857719
 C        28.632507      -87.721382     -120.166016
 C        28.121468      -86.389374     -120.228439
 H        27.110485      -86.292641     -120.459000
 C        28.968412      -85.288452     -120.007004
 H        28.539192      -84.266747     -120.065231
 C        30.311901      -85.522003     -119.623734
 H        30.926037      -84.687180     -119.622940
 C        30.770592      -86.870071     -119.489883
 H        31.732918      -86.988449     -119.075851
 C        32.427464      -89.565132     -118.378998
 H        32.371887      -88.615768     -117.892670
 C        33.440319      -90.479462     -118.018707
 H        34.210003      -90.242493     -117.287941
 C        33.488373      -91.722748     -118.645248
 H        34.289284      -92.450249     -118.424873
 C        32.451450      -92.120560     -119.386826
 H        32.559517      -93.040894     -119.965370
 C        29.645824      -92.675659     -120.604584
 C        29.592857      -93.606995     -119.545189
 H        29.269222      -93.266533     -118.608200
 C        29.534477      -94.983063     -119.884789
 H        29.359581      -95.806274     -119.177444
 C        29.405140      -95.437683     -121.218613
 H        28.838791      -96.360489     -121.341370
 C        29.350460      -94.523010     -122.245850
 H        28.893570      -94.661804     -123.197105
 C        29.577057      -93.166100     -121.931473
 H        29.734039      -92.432411     -122.714073
 C        25.420593      -89.565132     -117.022202
 C        24.451599      -89.229034     -117.911575
 N        26.651264      -89.645721     -117.689621
 C        26.466240      -89.405319     -119.042397
 N        25.173096      -89.131958     -119.227219
 C        24.819607      -88.629440     -120.407913
 C        25.835537      -88.376221     -121.325653
 C        25.635050      -87.494568     -122.475563
 H        26.582611      -86.983299     -122.804382
 C        24.349524      -87.128265     -122.751511
 H        24.148670      -86.300079     -123.439102
 C        23.349262      -87.590515     -121.867874
 H        22.371887      -87.202621     -122.099342
 C        23.536560      -88.326118     -120.742393
 H        22.698441      -88.766403     -120.253006
 C        23.050896      -89.333969     -117.495880
 H        22.299114      -89.307877     -118.235573
 C        22.733707      -89.848793     -116.231262
 H        21.704771      -89.979050     -115.905815
 C        23.737019      -90.207748     -115.341484
 H        23.413177      -90.559814     -114.446960
 C        25.046669      -89.949982     -115.715347
 H        25.799484      -89.995209     -114.910599
 C        27.952856      -89.940750     -116.984077
 C        28.817545      -88.913620     -116.750832
 H        28.693165      -87.953026     -117.191605
 C        30.023201      -89.249390     -116.138741
 H        30.773026      -88.475113     -115.991936
 C        30.449841      -90.504562     -115.706505
 H        31.489540      -90.882584     -115.506943
 C        29.526493      -91.492180     -115.901047
 H        29.607746      -92.461723     -115.519089
 C        28.268318      -91.249023     -116.547241
 H        27.795197      -92.098320     -116.960342
 C        26.051910      -93.266441     -122.461273
 C        26.731400      -92.627853     -123.496933
 N        25.956253      -92.292450     -121.396751
 C        26.659378      -91.106537     -121.715210
 N        27.114960      -91.282074     -123.039238
 C        27.815508      -90.255737     -123.741272
 C        28.415152      -89.346931     -122.799255
 C        29.201084      -88.325562     -123.364235
 H        29.506897      -87.544205     -122.734818
 C        29.486698      -88.235565     -124.687309
 H        30.134686      -87.352547     -124.834290
 C        28.945431      -89.091278     -125.605408
 H        28.998789      -88.855560     -126.685120
 C        28.075298      -90.113861     -125.133209
 H        27.772264      -90.813705     -125.841660
 C        26.918270      -93.362854     -124.729263
 H        27.515509      -93.005257     -125.517387
 C        26.443127      -94.685822     -124.788345
 H        26.693138      -95.210297     -125.672272
 C        25.779030      -95.354050     -123.766266
 H        25.278954      -96.310196     -123.976746
 C        25.497551      -94.566238     -122.645996
 H        25.044886      -95.272110     -121.905838
 C        25.305714      -92.542961     -120.181213
 C        23.907173      -92.421539     -120.014038
 H        23.361515      -91.721474     -120.687729
 C        23.247353      -93.011673     -118.899857
 H        22.169224      -93.077972     -118.939079
 C        24.028320      -93.650360     -117.916710
 H        23.648170      -93.920296     -117.000183
 C        25.437859      -93.742126     -118.084564
 H        26.081272      -93.762970     -117.250900
 C        25.976387      -93.211891     -119.212891
 H        27.030003      -93.118713     -119.282196
