206
 generated by VMD
 Ir      -83.367188        9.122173       65.482834
 C       -84.973251       13.073114       64.521049
 C       -83.954483       13.336229       65.405403
 N       -85.047867       11.680939       64.370110
 C       -84.107101       11.025997       65.154526
 N       -83.439865       12.067120       65.806427
 C       -82.392120       11.678909       66.696724
 C       -82.033218       10.312729       66.625061
 C       -80.852219        9.892441       67.253799
 H       -80.554657        8.853031       67.201035
 C       -80.033920       10.795916       67.934547
 H       -79.111938       10.458620       68.388275
 C       -80.417191       12.134453       68.040009
 H       -79.788513       12.836563       68.576210
 C       -81.593613       12.568880       67.440918
 H       -81.953705       13.553637       67.664291
 C       -83.632759       14.680918       65.692642
 H       -82.765961       14.939344       66.265419
 C       -84.364151       15.727932       65.110565
 H       -84.128143       16.749020       65.349487
 C       -85.404388       15.444086       64.229286
 H       -85.985603       16.240664       63.787308
 C       -85.713226       14.113216       63.930092
 H       -86.523300       13.895624       63.248165
 C       -85.982239       11.055225       63.483757
 C       -87.193710       10.574453       63.980736
 H       -87.376572       10.574833       65.047493
 C       -88.158997       10.069712       63.108917
 H       -89.061569        9.631289       63.511097
 C       -87.921379       10.038836       61.731247
 H       -88.669876        9.628941       61.060692
 C       -86.704483       10.512381       61.223385
 H       -86.492676       10.426535       60.172684
 C       -85.746048       11.024351       62.096184
 H       -84.815323       11.405586       61.700073
 C       -80.381271        8.876110       62.327080
 C       -80.399696        7.619362       62.895447
 N       -81.215981        9.696341       63.103409
 C       -81.791504        8.983894       64.135544
 N       -81.234451        7.712248       64.035469
 C       -81.441620        6.864628       65.166321
 C       -82.424240        7.320742       66.064888
 C       -82.709808        6.538489       67.186775
 H       -83.409485        6.881747       67.933640
 C       -82.047272        5.322129       67.415054
 H       -82.301102        4.729321       68.279831
 C       -81.062607        4.894293       66.526291
 H       -80.519379        3.984606       66.721161
 C       -80.749359        5.661772       65.400436
 H       -79.896286        5.400494       64.813416
 C       -79.700089        6.569178       62.259712
 H       -79.769547        5.553418       62.633354
 C       -79.001160        6.797425       61.068451
 H       -78.482285        5.985121       60.579857
 C       -79.003265        8.075855       60.503025
 H       -78.498291        8.252619       59.561821
 C       -79.689194        9.111586       61.136795
 H       -79.696259       10.093424       60.683212
 C       -80.979889       11.112986       63.180687
 C       -80.017822       11.596680       64.083275
 H       -79.392227       10.898438       64.619911
 C       -79.886185       12.966537       64.286652
 H       -79.160934       13.334648       65.000938
 C       -80.699463       13.866524       63.605179
 H       -80.608398       14.925966       63.773964
 C       -81.655792       13.389742       62.691669
 H       -82.293976       14.088303       62.166935
 C       -81.796013       12.012974       62.479416
 H       -82.508682       11.644547       61.753220
 C       -86.567703        7.022372       63.426270
 C       -87.038513        7.220753       64.695953
 N       -85.210014        7.423640       63.413441
 C       -84.821426        7.914055       64.650810
 N       -85.955421        7.743693       65.439751
 C       -85.821686        8.098743       66.814690
 C       -84.763412        8.995560       67.077148
 C       -84.645523        9.527502       68.363434
 H       -83.875443       10.253765       68.586388
 C       -85.521667        9.154129       69.388161
 H       -85.413727        9.579235       70.372810
 C       -86.535736        8.228085       69.139572
 H       -87.224136        7.941697       69.915131
 C       -86.683029        7.696774       67.847397
 H       -87.373672        6.884093       67.693871
 C       -88.397842        6.975962       64.971680
 H       -88.803101        7.122483       65.959198
 C       -89.259766        6.532151       63.963810
 H       -90.289413        6.315251       64.192268
 C       -88.763809        6.333128       62.670319
 H       -89.427277        5.977576       61.886559
 C       -87.411652        6.571015       62.395622
 H       -87.050888        6.439583       61.394279
 C       -84.288315        7.010897       62.382179
 C       -83.893631        5.679268       62.305382
 H       -84.263809        4.968348       63.025208
 C       -83.050789        5.247061       61.275330
 H       -82.753220        4.207652       61.222557
 C       -82.603737        6.160616       60.312126
 H       -81.954239        5.832449       59.511833
 C       -82.998413        7.492241       60.388920
 H       -82.653641        8.196573       59.642426
 C       -83.841263        7.924450       61.418976
 H       -84.092583        8.962906       61.495419
 Ir      -83.367188        9.122173       76.595337
 C       -87.631790        8.198027       76.499649
 C       -87.544388        9.287968       77.335709
 N       -86.327835        7.849637       76.130844
 C       -85.391869        8.700615       76.693695
 N       -86.156754        9.575813       77.449921
 C       -85.437119       10.573565       78.175117
 C       -84.092720       10.726299       77.760101
 C       -83.392792       11.872030       78.174957
 H       -82.369232       12.011009       77.866562
 C       -83.998764       12.835800       78.979111
 H       -83.453156       13.729891       79.254456
 C       -85.310127       12.654156       79.429802
 H       -85.769089       13.373764       80.101746
 C       -86.020889       11.522879       79.036697
 H       -86.921768       11.275803       79.569962
 C       -88.725479        9.860359       77.828339
 H       -88.710251       10.746080       78.442398
 C       -89.972046        9.321127       77.491859
 H       -90.874893        9.752701       77.904175
 C       -90.054337        8.209818       76.644974
 H       -91.003235        7.756308       76.427444
 C       -88.872925        7.651570       76.152298
 H       -88.939438        6.795077       75.474884
 C       -86.009644        6.588704       75.509392
 C       -86.121170        5.412411       76.262848
 H       -86.460129        5.451468       77.281273
 C       -85.789520        4.186667       75.679871
 H       -85.875809        3.278058       76.268082
 C       -85.336670        4.129986       74.362267
 H       -85.026596        3.181050       73.933914
 C       -85.225143        5.306277       73.608810
 H       -84.841354        5.266270       72.604156
 C       -85.565048        6.539250       74.182861
 H       -85.432510        7.446908       73.618332
 C       -83.222153       11.724813       73.109459
 C       -81.934555       11.704779       73.571381
 N       -84.011749       11.030945       74.040955
 C       -83.246552       10.522146       75.072800
 N       -81.962173       10.987831       74.787613
 C       -80.979980       10.728773       75.798431
 C       -81.357986        9.771217       76.751740
 C       -80.405220        9.328672       77.685974
 H       -80.665222        8.594164       78.430405
 C       -79.095581        9.837093       77.669922
 H       -78.368660        9.462452       78.363770
 C       -78.729828       10.809101       76.728485
 H       -77.729431       11.204159       76.716370
 C       -79.679443       11.265787       75.814003
 H       -79.427887       12.114037       75.192001
 C       -80.911682       12.294922       72.788269
 H       -79.877426       12.173761       73.044060
 C       -81.229553       12.906368       71.571060
 H       -80.444229       13.318415       70.953339
 C       -82.545151       12.927034       71.113159
 H       -82.793320       13.375097       70.158722
 C       -83.548607       12.329348       71.883377
 H       -84.566467       12.315397       71.514114
 C       -85.426834       11.253675       74.152939
 C       -85.884171       12.284966       74.986290
 H       -85.181778       12.971037       75.441200
 C       -87.259018       12.415321       75.244034
 H       -87.603027       13.203087       75.909607
 C       -88.169342       11.521292       74.667404
 H       -89.217865       11.587799       74.918777
 C       -87.711685       10.504141       73.834015
 H       -88.398254        9.768423       73.447540
 C       -86.346527       10.381010       73.557449
 H       -85.998993        9.628435       72.861069
 C       -81.789642        5.593741       74.550728
 C       -82.090103        5.137627       75.816177
 N       -82.077354        6.958020       74.521255
 C       -82.565025        7.411213       75.732742
 N       -82.560867        6.267889       76.540329
 C       -82.968338        6.472235       77.901947
 C       -83.202744        7.808236       78.248734
 C       -83.445503        8.114973       79.596832
 H       -83.719627        9.119190       79.868492
 C       -83.447495        7.120900       80.587143
 H       -83.600655        7.389277       81.619331
 C       -83.257912        5.785849       80.226585
 H       -83.268112        5.010445       80.975616
 C       -83.035202        5.458380       78.891449
 H       -83.019608        4.417449       78.616455
 C       -81.910019        3.762383       76.093430
 H       -82.061035        3.372843       77.095001
 C       -81.463669        2.879387       75.110123
 H       -81.370270        1.831231       75.329086
 C       -81.148590        3.363459       73.842567
 H       -80.781113        2.695080       73.072617
 C       -81.314987        4.724247       73.563362
 H       -81.048065        5.097115       72.575470
 C       -81.580093        7.806527       73.470047
 C       -80.249817        8.229794       73.511650
 H       -79.638107        8.013847       74.373558
 C       -79.716232        8.950100       72.435013
 H       -78.677216        9.252464       72.457779
 C       -80.511490        9.247139       71.326675
 H       -80.088974        9.800953       70.498314
 C       -81.841751        8.823868       71.285065
 H       -82.447739        9.046724       70.412231
 C       -82.376770        8.103561       72.351791
 H       -83.410370        7.793969       72.318161
