206
 generated by VMD
 Ir      -29.833714       94.124207       20.574183
 C       -29.672504       90.061874       18.901546
 C       -30.824196       90.050194       19.723783
 N       -29.068594       91.296982       19.180115
 C       -29.795597       92.144592       19.986233
 N       -30.841627       91.322708       20.378693
 C       -31.639290       91.919792       21.316521
 C       -31.480066       93.301880       21.616344
 C       -32.302589       93.901901       22.601851
 H       -32.129295       94.930435       22.949682
 C       -33.296410       93.155785       23.228689
 H       -33.919952       93.686661       23.915325
 C       -33.532997       91.846603       22.928082
 H       -34.292683       91.218796       23.443184
 C       -32.657059       91.230042       22.021778
 H       -32.897671       90.225830       21.649933
 C       -31.751614       88.984329       19.528275
 H       -32.583027       88.804352       20.165037
 C       -31.543203       88.028259       18.483629
 H       -32.162476       87.211807       18.343220
 C       -30.391695       88.061325       17.754358
 H       -30.001745       87.105247       17.416779
 C       -29.453030       89.065018       17.946980
 H       -28.631172       89.132332       17.343643
 C       -27.721161       91.558228       18.803190
 C       -26.711243       91.562576       19.803463
 H       -26.786674       91.056755       20.772671
 C       -25.482182       92.064789       19.456930
 H       -24.694456       91.951691       20.111603
 C       -25.250050       92.580154       18.199707
 H       -24.436947       93.270126       17.939323
 C       -26.234268       92.523346       17.182510
 H       -25.969362       92.701706       16.174980
 C       -27.462679       91.990051       17.508228
 H       -28.254515       91.902084       16.802990
 C       -32.153824       95.999832       17.422134
 C       -31.964838       97.036224       18.354424
 N       -31.701138       94.745697       17.997637
 C       -31.146881       95.046616       19.218145
 N       -31.331312       96.437668       19.441011
 C       -30.578403       96.963768       20.465975
 C       -30.288645       96.016739       21.413691
 C       -30.025745       96.429581       22.760624
 H       -29.939718       95.624451       23.461243
 C       -29.937696       97.795212       23.068398
 H       -29.647736       98.114731       24.036709
 C       -30.160881       98.718872       22.051968
 H       -29.993580       99.739624       22.267122
 C       -30.447163       98.304108       20.793633
 H       -30.338432       99.042076       20.012039
 C       -32.187675       98.310654       18.029636
 H       -31.979401       99.072128       18.791786
 C       -32.510956       98.713730       16.749826
 H       -32.657215       99.743362       16.591215
 C       -32.717278       97.780289       15.749717
 H       -32.917938       97.949242       14.655233
 C       -32.520573       96.419449       16.101860
 H       -32.470005       95.646133       15.355849
 C       -32.191143       93.432755       17.483337
 C       -31.267561       92.703537       16.833233
 H       -30.376698       93.129257       16.470289
 C       -31.634636       91.416771       16.442236
 H       -30.839390       90.682846       16.155462
 C       -32.836716       90.875679       16.761192
 H       -32.987793       89.792770       16.562523
 C       -33.835159       91.602036       17.389219
 H       -34.784592       91.214233       17.746555
 C       -33.490753       92.955826       17.703444
 H       -34.305077       93.634338       17.654411
 C       -26.355061       96.227280       19.040932
 C       -25.851654       95.690010       20.171251
 N       -27.658195       95.736671       18.848969
 C       -28.076748       94.929993       19.834002
 N       -26.915815       94.874954       20.692259
 C       -27.186321       94.254715       21.979984
 C       -28.347116       93.472656       21.968288
 C       -28.436172       92.504532       23.002937
 H       -29.322773       91.849541       23.055058
 C       -27.476772       92.336983       23.974884
 H       -27.647572       91.632095       24.772413
 C       -26.332829       93.136528       23.959934
 H       -25.666950       93.186722       24.780107
 C       -26.160629       94.133759       23.038153
 H       -25.691822       95.027069       23.361734
 C       -24.631798       96.030182       20.714975
 H       -24.387447       95.596024       21.664024
 C       -23.819328       96.996918       20.103725
 H       -22.744774       97.235161       20.405996
 C       -24.378916       97.541977       18.863935
 H       -23.721075       98.205788       18.354332
 C       -25.675377       97.197983       18.381180
 H       -25.942652       97.617584       17.448339
 C       -28.497398       96.170242       17.742918
 C       -28.690552       95.232910       16.739428
 H       -28.479185       94.187698       16.932943
 C       -29.072678       95.665169       15.433428
 H       -28.890083       94.964607       14.674168
 C       -29.272608       97.029907       15.123407
 H       -29.566265       97.202820       14.135397
 C       -29.146015       97.914848       16.164637
 H       -29.242104       99.004669       16.013794
 C       -28.794922       97.499130       17.478603
 H       -28.588375       98.183884       18.292818
 Ir      -29.833715       94.124207       31.517984
 C       -27.127026       97.411087       31.411531
 C       -26.422558       96.514244       32.201149
 N       -28.342140       96.916519       31.093727
 C       -28.513767       95.703598       31.674658
 N       -27.360739       95.506729       32.369755
 C       -27.506039       94.443436       33.294956
 C       -28.429060       93.432907       32.964100
 C       -28.471491       92.262688       33.821590
 H       -29.019796       91.475266       33.332581
 C       -27.775734       92.242996       35.016090
 H       -28.019461       91.517746       35.760075
 C       -26.875999       93.203033       35.373573
 H       -26.215883       93.078400       36.195229
 C       -26.733282       94.314911       34.500660
 H       -26.186283       95.161560       34.886761
 C       -25.063183       96.696938       32.523212
 H       -24.672035       96.126678       33.372623
 C       -24.358559       97.770592       31.960300
 H       -23.342661       98.019562       32.287956
 C       -25.075918       98.601364       31.019127
 H       -24.471752       99.118500       30.203251
 C       -26.439812       98.484741       30.780819
 H       -26.853155       99.115273       30.071321
 C       -29.404753       97.561081       30.323793
 C       -29.619606       97.244347       28.964520
 H       -28.938301       96.655197       28.510841
 C       -30.644455       97.876266       28.267487
 H       -30.780067       97.850906       27.176952
 C       -31.385216       98.858871       28.953245
 H       -32.220501       99.272163       28.506947
 C       -31.102226       99.174576       30.253725
 H       -31.630440       99.971474       30.709400
 C       -30.122585       98.558235       30.993341
 H       -29.750156       99.007828       31.837234
 C       -27.825352       91.800888       28.410931
 C       -28.920557       90.999435       28.795366
 N       -27.911726       92.975372       29.176458
 C       -28.992220       92.907318       30.104309
 N       -29.568331       91.735336       29.890871
 C       -30.634293       91.301102       30.794342
 C       -30.923767       92.340729       31.663637
 C       -32.065941       92.190155       32.535053
 H       -32.426434       92.861687       33.226421
 C       -32.816433       90.999878       32.521255
 H       -33.778069       90.848129       32.943668
 C       -32.372540       89.957230       31.694906
 H       -32.882832       88.998947       31.846571
 C       -31.286535       90.118530       30.858562
 H       -30.816387       89.201263       30.552013
 C       -28.993046       89.599785       28.380356
 H       -29.776508       89.004021       28.736374
 C       -27.960775       89.114258       27.547482
 H       -27.927465       88.149658       27.043362
 C       -26.921007       89.922546       27.146303
 H       -26.058764       89.379913       26.811357
 C       -26.816835       91.274574       27.532532
 H       -25.961824       91.846970       27.127171
 C       -27.098259       94.104362       28.885006
 C       -27.383812       94.643394       27.595509
 H       -28.415892       94.789780       27.488819
 C       -26.409321       95.331238       26.901361
 H       -26.510662       95.691483       25.884623
 C       -25.200127       95.602478       27.571716
 H       -24.493935       96.219635       27.008400
 C       -24.967175       95.181992       28.874718
 H       -23.964584       95.228943       29.205791
 C       -25.921570       94.396988       29.522408
 H       -25.805504       94.055199       30.545689
 C       -33.341053       95.516136       29.238594
 C       -33.494469       96.002106       30.506580
 N       -32.077309       94.933449       29.182562
 C       -31.424364       94.902145       30.460325
 N       -32.313698       95.689636       31.235853
 C       -31.873714       96.029526       32.557968
 C       -30.889624       95.165451       33.038334
 C       -30.558046       95.191681       34.388287
 H       -29.702297       94.641411       34.746735
 C       -31.077694       96.105209       35.275383
 H       -30.493885       96.312820       36.126953
 C       -32.045868       97.049896       34.852875
 H       -32.323086       97.950562       35.368000
 C       -32.416656       96.968323       33.502670
 H       -33.215343       97.637070       33.170868
 C       -34.716202       96.578995       30.851234
 H       -34.855511       96.884254       31.909111
 C       -35.767944       96.719421       29.964941
 H       -36.766285       96.839645       30.345156
 C       -35.636162       96.232491       28.702509
 H       -36.545803       96.327217       28.037842
 C       -34.431274       95.597336       28.300236
 H       -34.517864       95.021271       27.413927
 C       -31.793747       93.913223       28.149593
 C       -30.964779       94.187332       27.069511
 H       -30.375534       95.025162       27.186657
 C       -30.884830       93.266312       26.016550
 H       -30.856434       93.680855       25.028450
 C       -31.488892       91.982697       26.089048
 H       -31.374802       91.244293       25.254459
 C       -32.339294       91.613419       27.195282
 H       -32.796837       90.663818       27.157890
 C       -32.482067       92.644241       28.202427
 H       -33.046135       92.387398       29.111254
