206
 generated by VMD
  IR        20.059999       33.799999       35.009998
  C1        24.190001       34.509998       33.790001
  C2        23.549999       35.740002       33.480000
  N1        23.219999       33.580002       34.119999
  C3a       21.870001       34.029999       34.049999
  N2        22.100000       35.430000       33.610001
  C4        20.930000       36.209999       33.439999
  C5a       19.750000       35.490002       33.730000
  C6        18.549999       35.990002       33.270000
  H1        17.639999       35.389999       33.330002
  C7        18.480000       37.180000       32.580002
  H2        17.600000       37.410000       32.029999
  C8        19.709999       37.900002       32.410000
  H3        19.660000       38.849998       31.790001
  C9        20.920000       37.400002       32.779999
  H4        21.799999       37.910000       32.430000
  C10       24.309999       36.889999       33.310001
  H5        23.900000       37.840000       32.970001
  C11       25.660000       36.799999       33.700001
  H6        26.150000       37.730000       34.009998
  C12       26.299999       35.639999       34.009998
  H7        27.320000       35.669998       34.360001
  C13       25.510000       34.470001       34.000000
  H8        25.980000       33.570000       34.310001
  C6        23.510000       32.139999       34.119999
  C1        23.450001       31.309999       33.000000
  H1        22.959999       31.719999       32.130001
  C2        23.840000       29.980000       33.090000
  H2        23.590000       29.410000       32.209999
  C3        24.270000       29.389999       34.270000
  H3        24.370001       28.280001       34.320000
  C4        24.250000       30.160000       35.470001
  H4        24.430000       29.670000       36.419998
  C5        23.889999       31.510000       35.360001
  H5        23.940001       32.330002       36.099998
  C1        20.400000       36.060001       38.669998
  C2        19.080000       35.630001       38.630001
  N1        21.010000       35.849998       37.389999
  C3b       20.049999       35.169998       36.590000
  N2        18.870001       35.119999       37.330002
  C4        17.709999       34.480000       36.799999
  C5b       18.030001       33.689999       35.660000
  C6        17.040001       32.779999       35.150002
  H1        17.280001       32.250000       34.250000
  C7        15.840000       32.700001       35.810001
  H2        15.110000       32.029999       35.430000
  C8        15.580000       33.480000       36.900002
  H3        14.730000       33.330002       37.520000
  C9        16.490000       34.430000       37.330002
  H4        16.100000       35.150002       37.990002
  C10       18.230000       35.810001       39.720001
  H5        17.120001       35.590000       39.650002
  C11       18.670000       36.540001       40.840000
  H6        18.190001       36.400002       41.779999
  C12       20.030001       37.070000       40.889999
  H7        20.330000       37.730000       41.680000
  C13       20.920000       36.759998       39.779999
  H8        21.990000       37.090000       39.779999
  C6        21.920000       36.799999       36.810001
  C1        21.420000       38.070000       36.450001
  H1        20.360001       38.200001       36.650002
  C2        22.320000       39.070000       35.980000
  H2        22.010000       40.099998       35.930000
  C3        23.719999       38.889999       35.930000
  H3        24.410000       39.680000       35.770000
  C4        24.180000       37.669998       36.400002
  H4        25.160000       37.389999       36.419998
  C5        23.309999       36.650002       36.830002
  H5        23.920000       35.880001       37.410000
  C1        21.250000       30.049999       37.110001
  C2        20.860001       29.680000       35.840000
  N1        21.080000       31.420000       37.150002
  C3c       20.559999       32.000000       35.970001
  N2        20.440001       30.889999       35.169998
  C4        19.740000       31.090000       33.880001
  C5c       19.719999       32.419998       33.459999
  C6        19.440001       32.720001       32.160000
  H1        19.459999       33.799999       31.830000
  C7        19.170000       31.740000       31.240000
  H2        19.230000       32.020000       30.200001
  C8        19.100000       30.420000       31.629999
  H3        18.670000       29.690001       30.930000
  C9        19.379999       30.080000       32.959999
  H4        19.450001       29.070000       33.169998
  C10       21.000000       28.280001       35.490002
  H5        20.410000       27.809999       34.730000
  C11       21.410000       27.350000       36.410000
  H6        21.350000       26.370001       36.070000
  C12       21.740000       27.770000       37.740002
  H7        21.889999       27.100000       38.610001
  C13       21.760000       29.139999       38.029999
  H8        21.900000       29.540001       39.009998
  C6        21.309999       32.090000       38.360001
  C1        20.420000       31.920000       39.450001
  H1        19.719999       31.110001       39.430000
  C2        20.510000       32.619999       40.669998
  H2        19.830000       32.599998       41.480000
  C3        21.600000       33.480000       40.830002
  H3        21.660000       34.009998       41.759998
  C4        22.459999       33.610001       39.740002
  H4        23.340000       34.180000       39.919998
  C5        22.379999       32.980000       38.450001
  H5        22.930000       33.209999       37.570000
  IR        26.570000       31.299999       48.540001
  C1        25.190001       33.070000       44.770000
  C2        25.700001       34.139999       45.490002
  N1        25.230000       31.850000       45.580002
  C3a       25.790001       32.230000       46.840000
  N2        26.059999       33.590000       46.700001
  C4        26.540001       34.169998       47.950001
  C5a       26.629999       33.369999       49.060001
  C6        26.910000       33.950001       50.290001
  H1        27.160000       33.299999       51.110001
  C7        27.150000       35.290001       50.410000
  H2        27.500000       35.669998       51.340000
  C8        27.049999       36.060001       49.310001
  H3        27.120001       37.150002       49.299999
  C9        26.760000       35.570000       48.029999
  H4        26.430000       36.160000       47.220001
  C10       25.809999       35.470001       44.869999
  H5        26.400000       36.279999       45.169998
  C11       25.270000       35.630001       43.570000
  H6        25.190001       36.700001       43.180000
  C12       24.770000       34.529999       42.919998
  H7        24.510000       34.680000       41.939999
  C13       24.680000       33.279999       43.430000
  H8        24.340000       32.459999       42.840000
  C6        24.500000       30.580000       45.349998
  C1        25.120001       29.480000       44.700001
  H1        26.160000       29.559999       44.299999
  C2        24.379999       28.370001       44.360001
  H2        24.840000       27.709999       43.610001
  C3        23.030001       28.230000       44.709999
  H3        22.580000       27.290001       44.520000
  C4        22.410000       29.299999       45.369999
  H4        21.379999       29.200001       45.689999
  C5        23.160000       30.490000       45.700001
  H5        22.639999       31.370001       46.259998
  C1        30.740000       31.400000       47.610001
  C2        30.719999       30.969999       48.919998
  N1        29.459999       31.860001       47.270000
  C3b       28.600000       31.480000       48.270000
  N2        29.420000       31.000000       49.349998
  C4        28.740000       30.820000       50.570000
  C5b       27.320000       30.590000       50.400002
  C6        26.670000       30.290001       51.619999
  H1        25.670000       29.879999       51.509998
  C7        27.250000       30.230000       52.880001
  H2        26.520000       30.100000       53.720001
  C8        28.650000       30.360001       52.959999
  H3        29.200001       30.590000       53.849998
  C9        29.379999       30.600000       51.830002
  H4        30.350000       30.180000       51.779999
  C10       31.860001       30.350000       49.419998
  H5        31.850000       29.790001       50.340000
  C11       33.080002       30.240000       48.700001
  H6        33.840000       29.530001       48.980000
  C12       33.080002       30.730000       47.389999
  H7        34.000000       30.549999       46.740002
  C13       31.930000       31.309999       46.830002
  H8        31.950001       31.820000       45.900002
  C6        29.129999       32.220001       45.900002
  C1        28.610001       31.129999       45.130001
  H1        28.620001       30.080000       45.430000
  C2        28.410000       31.410000       43.750000
  H2        28.080000       30.559999       43.130001
  C3        28.680000       32.639999       43.160000
  H3        28.389999       32.930000       42.200001
  C4        29.139999       33.669998       43.959999
  H4        29.650000       34.529999       43.520000
  C5        29.410000       33.459999       45.330002
  H5        30.170000       34.099998       45.709999
  C1        26.030001       27.209999       47.290001
  C2        24.780001       27.590000       47.750000
  N1        26.930000       28.129999       47.770000
  C3c       26.270000       29.260000       48.330002
  N2        24.930000       28.860001       48.360001
  C4        24.000000       29.790001       48.820000
  C5c       24.549999       30.990000       49.119999
  C6        23.799999       31.959999       49.650002
  H1        24.299999       32.860001       49.970001
  C7        22.420000       31.770000       49.750000
  H2        21.760000       32.590000       49.840000
  C8        21.809999       30.570000       49.349998
  H3        20.820000       30.309999       49.380001
  C9        22.650000       29.540001       48.980000
  H4        22.240000       28.530001       49.160000
  C10       23.620001       26.750000       47.430000
  H5        22.670000       27.209999       47.500000
  C11       23.820000       25.530001       46.759998
  H6        22.959999       24.840000       46.540001
  C12       25.080000       25.260000       46.310001
  H7        25.309999       24.350000       45.820000
  C13       26.180000       26.059999       46.520000
  H8        27.110001       25.660000       46.259998
  C6        28.260000       27.760000       48.279999
  C1        28.420000       27.639999       49.660000
  H1        27.590000       27.639999       50.380001
  C2        29.690001       27.170000       50.119999
  H2        29.780001       27.100000       51.220001
  C3        30.740000       26.990000       49.279999
  H3        31.690001       26.709999       49.630001
  C4        30.540001       27.160000       47.910000
  H4        31.360001       26.920000       47.209999
  C5        29.290001       27.549999       47.380001
  H5        29.170000       27.860001       46.320000
