206
 generated by VMD
 Ir       19.597162      -77.456680       76.165932
 C        15.837423      -79.600082       76.731239
 C        16.618425      -80.518890       75.979942
 N        16.497156      -78.384155       76.762451
 C        17.728708      -78.320267       76.048950
 N        17.782402      -79.709671       75.526268
 C        18.923937      -80.018379       74.746658
 C        19.806522      -78.923203       74.618011
 C        20.750866      -78.959778       73.613785
 H        21.342270      -78.073425       73.376465
 C        20.872044      -80.045578       72.775070
 H        21.423576      -79.944809       71.872040
 C        20.002947      -81.158676       73.031761
 H        20.063116      -82.027603       72.303238
 C        19.009069      -81.125694       73.960266
 H        18.281021      -81.917274       73.941765
 C        16.276358      -81.864899       75.964996
 H        16.763536      -82.604774       75.331398
 C        15.306128      -82.264862       76.903824
 H        15.337906      -83.308701       77.236191
 C        14.547432      -81.411407       77.643616
 H        13.870949      -81.805077       78.386040
 C        14.825556      -80.035965       77.489014
 H        14.290777      -79.364273       78.113403
 C        15.797642      -77.143837       77.122993
 C        15.069820      -76.347496       76.238113
 H        15.208494      -76.554581       75.187881
 C        14.363613      -75.245712       76.703346
 H        13.986261      -74.623978       75.907829
 C        14.359396      -74.849091       78.033035
 H        13.945606      -73.848724       78.302559
 C        15.171129      -75.560730       78.964676
 H        15.300852      -75.167831       79.966568
 C        15.849655      -76.691940       78.491196
 H        16.408491      -77.475365       79.035675
 C        21.712000      -79.688339       79.193466
 C        22.651981      -78.813705       78.663986
 N        20.552488      -79.710983       78.351074
 C        20.765888      -78.732025       77.341080
 N        22.068142      -78.262329       77.502396
 C        22.583946      -77.249008       76.640274
 C        21.544388      -76.626236       75.893570
 C        21.842253      -75.421814       75.166290
 H        21.061886      -75.013077       74.555992
 C        23.114891      -74.916931       75.252869
 H        23.333044      -74.029755       74.712921
 C        24.078566      -75.551872       75.982437
 H        25.020142      -75.107117       76.194641
 C        23.823181      -76.764961       76.597824
 H        24.678612      -77.297287       76.899429
 C        23.914043      -78.677017       79.239769
 H        24.732939      -78.073715       78.738945
 C        24.294668      -79.516235       80.303596
 H        25.079010      -79.213463       80.956848
 C        23.357944      -80.498566       80.842644
 H        23.681252      -81.222244       81.564766
 C        22.012104      -80.528229       80.287544
 H        21.229380      -81.219894       80.690971
 C        19.834381      -80.924072       78.068695
 C        20.489050      -81.930405       77.326263
 H        21.501688      -81.671761       77.029343
 C        19.845570      -83.186584       77.129166
 H        20.408119      -84.036987       76.782967
 C        18.603588      -83.520447       77.713043
 H        18.209471      -84.505302       77.736176
 C        18.048437      -82.546448       78.527931
 H        17.155172      -82.636398       79.010834
 C        18.642326      -81.282364       78.705589
 H        18.156502      -80.782227       79.608498
 C        18.376816      -74.382553       79.157440
 C        18.000694      -73.897331       77.922531
 N        18.972775      -75.600540       78.895279
 C        19.048487      -75.955566       77.528740
 N        18.427834      -74.876328       76.948624
 C        18.481426      -74.812088       75.469742
 C        18.729424      -76.046509       74.869408
 C        18.461784      -76.226196       73.544846
 H        18.638157      -77.241577       73.082687
 C        17.952051      -75.214539       72.772552
 H        17.515026      -75.497437       71.827789
 C        17.768177      -73.957184       73.306076
 H        17.571669      -73.121552       72.619858
 C        18.036816      -73.740166       74.663879
 H        17.753088      -72.822388       75.046371
 C        17.278048      -72.640579       77.901245
 H        17.269669      -71.990311       77.050552
 C        17.062963      -71.919380       79.047104
 H        16.644693      -70.983009       78.880188
 C        17.532291      -72.429764       80.301476
 H        17.592903      -71.858078       81.248993
 C        18.085123      -73.715874       80.342789
 H        18.545395      -74.139481       81.208069
 C        19.549772      -76.308464       79.959152
 C        20.733492      -75.830704       80.575310
 H        21.047070      -74.823593       80.391182
 C        21.440802      -76.516434       81.583260
 H        22.369783      -76.253983       82.015717
 C        20.883678      -77.710037       82.050415
 H        21.428850      -78.226318       82.815689
 C        19.712109      -78.139709       81.427994
 H        19.245989      -78.987289       81.870743
 C        18.986734      -77.522903       80.350594
 H        18.200474      -77.934784       79.765839
 Ir       19.597164      -77.456680       91.387329
 C        19.579126      -78.614296       87.155334
 C        19.826761      -79.796005       87.837715
 N        19.528263      -77.489731       88.092819
 C        19.761921      -78.045227       89.389893
 N        19.907120      -79.411629       89.157562
 C        20.266314      -80.125153       90.378693
 C        20.445238      -79.410599       91.535233
 C        20.961231      -80.052422       92.653046
 H        20.922327      -79.535248       93.595612
 C        21.244066      -81.389389       92.642273
 H        21.500795      -81.869606       93.556206
 C        21.068460      -82.072357       91.495270
 H        21.353134      -83.115005       91.337288
 C        20.566534      -81.510971       90.313950
 H        20.657290      -81.943443       89.355919
 C        19.875256      -81.077042       87.115204
 H        19.781231      -82.044708       87.501175
 C        19.778749      -81.032822       85.702431
 H        20.007429      -82.003014       85.145813
 C        19.545328      -79.826675       85.091492
 H        19.359900      -79.873505       84.084549
 C        19.455334      -78.627502       85.711624
 H        19.205860      -77.740112       85.176453
 C        19.623940      -76.042442       87.784744
 C        18.461145      -75.237823       87.652809
 H        17.440393      -75.685349       87.728912
 C        18.565712      -73.936325       87.216408
 H        17.630083      -73.485100       86.854889
 C        19.801674      -73.321655       86.973137
 H        19.788494      -72.282806       86.766174
 C        20.959486      -74.098267       87.118896
 H        21.928919      -73.635651       86.979233
 C        20.867537      -75.478035       87.537537
 H        21.836008      -76.113129       87.668373
 C        15.742708      -79.044968       92.327713
 C        16.222443      -78.636383       93.554214
 N        16.795664      -79.015518       91.402496
 C        17.846334      -78.352463       91.985977
 N        17.507736      -78.198334       93.375511
 C        18.573570      -77.786530       94.198685
 C        19.600704      -77.062744       93.478027
 C        20.603405      -76.549667       94.333740
 H        21.252153      -75.808411       93.875610
 C        20.680260      -76.701576       95.711639
 H        21.629421      -76.318512       96.167435
 C        19.596621      -77.324837       96.360153
 H        19.621267      -77.736725       97.348709
 C        18.549650      -77.810593       95.628525
 H        17.587999      -77.766251       96.067917
 C        15.307968      -78.466278       94.588043
 H        15.559309      -77.939919       95.493515
 C        13.930706      -78.800964       94.487900
 H        13.202091      -78.410614       95.178436
 C        13.486687      -79.258392       93.242981
 H        12.368126      -79.420166       93.088249
 C        14.369223      -79.387558       92.158112
 H        14.089071      -79.870834       91.256241
 C        16.556566      -79.233276       89.984467
 C        16.287949      -78.029312       89.256660
 H        16.082497      -77.052689       89.700050
 C        15.910900      -78.219002       87.898476
 H        15.629824      -77.307198       87.345840
 C        15.808508      -79.464035       87.287491
 H        15.701748      -79.630798       86.262512
 C        16.121534      -80.590485       88.026169
 H        15.770807      -81.576157       87.711929
 C        16.458223      -80.491241       89.393898
 H        16.205614      -81.361160       89.951599
 C        18.169249      -73.444946       90.717033
 C        19.538328      -73.351562       90.528900
 N        17.935509      -74.626450       91.377510
 C        19.099821      -75.444725       91.407417
 N        20.098028      -74.590927       90.926682
 C        21.376839      -75.125702       90.785072
 C        21.440289      -76.443115       91.089867
 C        22.614553      -77.079765       91.080902
 H        22.633055      -78.099197       91.431366
 C        23.744940      -76.407669       90.610779
 H        24.595140      -76.936554       90.273827
 C        23.685465      -75.068741       90.191429
 H        24.437857      -74.471115       89.837395
 C        22.490702      -74.408348       90.390968
 H        22.591534      -73.318497       90.541504
 C        20.086613      -72.151543       89.886307
 H        21.053574      -72.240387       89.466675
 C        19.224934      -71.084335       89.576660
 H        19.617891      -70.131889       89.126633
 C        17.887188      -71.283997       89.759903
 H        17.181864      -70.516937       89.572174
 C        17.325550      -72.425163       90.285629
 H        16.307257      -72.385155       90.517960
 C        16.947626      -74.757843       92.460434
 C        17.408850      -74.703178       93.775223
 H        18.427443      -74.405624       94.060242
 C        16.415981      -74.719711       94.804474
 H        16.822947      -74.686630       95.832230
 C        15.102499      -74.928101       94.536446
 H        14.385315      -75.007286       95.299850
 C        14.694979      -75.015106       93.205223
 H        13.617371      -75.085022       92.973129
 C        15.613691      -74.931053       92.135452
 H        15.326422      -75.177429       91.091003
