206
 generated by VMD
  IR        27.760000       43.400002       53.299999
  C1        29.860001       47.279999       54.099998
  C2        30.549999       46.250000       54.770000
  N1        28.700001       46.639999       53.560001
  C3a       28.660000       45.230000       53.790001
  N2        29.809999       45.060001       54.590000
  C4        29.680000       44.000000       55.450001
  C5a       28.680000       43.009998       55.160000
  C6        28.540001       41.849998       55.970001
  H1        27.660000       41.220001       55.810001
  C7        29.459999       41.619999       56.980000
  H2        29.440001       40.599998       57.430000
  C8        30.530001       42.570000       57.259998
  H3        31.299999       42.250000       57.910000
  C9        30.610001       43.720001       56.520000
  H4        31.139999       44.520000       56.889999
  C10       31.820000       46.639999       55.310001
  H5        32.430000       45.869999       55.779999
  C11       32.299999       47.939999       55.220001
  H6        33.279999       48.060001       55.650002
  C12       31.570000       48.950001       54.590000
  H7        31.940001       49.970001       54.610001
  C13       30.350000       48.590000       54.009998
  H8        29.940001       49.330002       53.410000
  C6        27.510000       47.349998       53.139999
  C1        26.500000       47.689999       54.040001
  H1        26.540001       47.320000       55.049999
  C2        25.420000       48.419998       53.560001
  H2        24.570000       48.520000       54.209999
  C3        25.340000       48.860001       52.220001
  H3        24.459999       49.320000       51.790001
  C4        26.469999       48.599998       51.340000
  H4        26.350000       48.889999       50.259998
  C5        27.469999       47.810001       51.830002
  H5        28.320000       47.619999       51.220001
  C1        30.940001       41.330002       51.169998
  C2        29.809999       40.490002       51.060001
  N1        30.620001       42.330002       52.020000
  C3b       29.299999       42.259998       52.430000
  N2        28.850000       41.110001       51.849998
  C4        27.639999       40.590000       52.419998
  C5b       26.860001       41.509998       53.130001
  C6        25.750000       41.020000       53.849998
  H1        24.980000       41.650002       54.299999
  C7        25.320000       39.650002       53.759998
  H2        24.580000       39.119999       54.360001
  C8        26.170000       38.810001       53.049999
  H3        25.830000       37.830002       52.849998
  C9        27.250000       39.299999       52.330002
  H4        27.540001       38.810001       51.490002
  C10       29.760000       39.580002       49.889999
  H5        29.000000       38.880001       49.580002
  C11       30.830000       39.500000       49.020000
  H6        30.950001       38.680000       48.299999
  C12       31.920000       40.380001       49.189999
  H7        32.779999       40.230000       48.509998
  C13       31.990000       41.250000       50.330002
  H8        32.830002       41.889999       50.509998
  C6        31.670000       43.080002       52.740002
  C1        31.959999       44.340000       52.209999
  H1        31.389999       44.810001       51.430000
  C2        33.139999       44.959999       52.630001
  H2        33.369999       45.959999       52.369999
  C3        33.959999       44.340000       53.570000
  H3        34.980000       44.590000       53.540001
  C4        33.619999       43.160000       54.160000
  H4        34.110001       42.689999       54.980000
  C5        32.400002       42.529999       53.759998
  H5        31.969999       41.840000       54.349998
  C1        25.700001       44.840000       49.759998
  C2        24.809999       45.070000       50.810001
  N1        26.799999       44.200001       50.349998
  C3c       26.680000       44.040001       51.660000
  N2        25.370001       44.529999       51.900002
  C4        24.930000       44.400002       53.240002
  C5c       25.990000       44.200001       54.230000
  C6        25.700001       44.419998       55.580002
  H1        26.510000       44.660000       56.279999
  C7        24.379999       44.580002       56.040001
  H2        24.280001       44.419998       57.090000
  C8        23.340000       44.680000       55.130001
  H3        22.420000       44.980000       55.540001
  C9        23.610001       44.549999       53.759998
  H4        22.770000       44.400002       53.119999
  C10       23.600000       45.770000       50.520000
  H5        23.049999       45.970001       51.450001
  C11       23.270000       46.330002       49.299999
  H6        22.360001       46.889999       49.209999
  C12       24.230000       46.180000       48.259998
  H7        24.170000       46.759998       47.400002
  C13       25.400000       45.380001       48.480000
  H8        26.219999       45.110001       47.660000
  C6        27.870001       43.820000       49.549999
  C1        28.879999       44.709999       49.340000
  H1        28.910000       45.619999       49.919998
  C2        29.969999       44.380001       48.619999
  H2        30.879999       44.939999       48.779999
  C3        30.000000       43.169998       47.919998
  H3        30.680000       43.139999       47.099998
  C4        28.910000       42.270000       47.990002
  H4        28.709999       41.610001       47.150002
  C5        27.830000       42.570000       48.849998
  H5        27.150000       41.820000       49.090000
  IR        40.520000       48.680000       53.310001
  C1        37.270000       48.130001       56.099998
  C2        37.230000       46.950001       55.290001
  N1        38.230000       49.020000       55.560001
  C3a       38.810001       48.450001       54.470001
  N2        38.130001       47.240002       54.209999
  C4        38.509998       46.540001       53.049999
  C5a       39.439999       47.259998       52.250000
  C6        39.650002       46.799999       50.939999
  H1        40.430000       47.189999       50.290001
  C7        38.950001       45.689999       50.439999
  H2        39.150002       45.400002       49.400002
  C8        38.130001       44.919998       51.310001
  H3        37.630001       44.180000       50.860001
  C9        37.880001       45.389999       52.590000
  H4        37.200001       44.740002       53.110001
  C10       36.419998       45.860001       55.619999
  H5        36.619999       44.840000       55.290001
  C11       35.529999       46.009998       56.700001
  H6        34.900002       45.139999       56.910000
  C12       35.439999       47.200001       57.450001
  H7        34.549999       47.299999       58.070000
  C13       36.400002       48.220001       57.160000
  H8        36.480000       49.040001       57.810001
  C6        38.410000       50.400002       55.889999
  C1        37.470001       51.320000       55.349998
  H1        36.939999       51.020000       54.520000
  C2        37.369999       52.669998       55.860001
  H2        36.770000       53.360001       55.290001
  C3        38.209999       53.080002       56.950001
  H3        38.520000       54.130001       56.939999
  C4        39.110001       52.070000       57.540001
  H4        39.849998       52.310001       58.259998
  C5        39.230000       50.799999       57.000000
  H5        40.070000       50.099998       57.299999
  C1        43.009998       45.310001       54.509998
  C2        43.840000       45.970001       53.740002
  N1        41.830002       45.950001       54.599998
  C3b       41.779999       47.119999       53.849998
  N2        43.080002       47.139999       53.340000
  C4        43.279999       48.139999       52.369999
  C5b       42.049999       48.599998       51.840000
  C6        42.110001       49.279999       50.570000
  H1        41.259998       49.639999       50.090000
  C7        43.330002       49.450001       49.910000
  H2        43.369999       49.900002       48.910000
  C8        44.480000       49.009998       50.540001
  H3        45.360001       49.029999       49.900002
  C9        44.459999       48.369999       51.700001
  H4        45.389999       48.230000       52.240002
  C10       45.150002       45.470001       53.680000
  H5        45.810001       45.830002       52.930000
  C11       45.529999       44.310001       54.349998
  H6        46.520000       43.970001       54.369999
  C12       44.730000       43.630001       55.209999
  H7        45.209999       42.869999       55.810001
  C13       43.439999       44.090000       55.290001
  H8        42.779999       43.560001       55.980000
  C6        40.759998       45.349998       55.279999
  C1        40.150002       44.259998       54.720001
  H1        40.200001       44.150002       53.680000
  C2        39.430000       43.349998       55.480000
  H2        39.040001       42.459999       55.020000
  C3        39.189999       43.500000       56.799999
  H3        38.770000       42.650002       57.380001
  C4        39.720001       44.700001       57.360001
  H4        39.400002       44.869999       58.320000
  C5        40.520000       45.590000       56.669998
  H5        41.110001       46.400002       57.130001
  C1        42.630001       52.000000       55.139999
  C2        41.650002       52.590000       54.459999
  N1        42.509998       50.680000       54.939999
  C3c       41.410000       50.369999       54.119999
  N2        40.889999       51.590000       53.799999
  C4        39.849998       51.580002       52.830002
  C5c       39.400002       50.240002       52.430000
  C6        38.330002       50.200001       51.439999
  H1        38.209999       49.310001       50.970001
  C7        37.840000       51.369999       50.810001
  H2        36.930000       51.369999       50.250000
  C8        38.369999       52.599998       51.230000
  H3        37.939999       53.490002       50.820000
  C9        39.389999       52.730000       52.160000
  H4        39.880001       53.650002       52.230000
  C10       41.540001       53.990002       54.529999
  H5        40.630001       54.459999       54.009998
  C11       42.439999       54.779999       55.270000
  H6        42.419998       55.869999       55.169998
  C12       43.529999       54.259998       55.959999
  H7        44.450001       54.779999       56.200001
  C13       43.599998       52.840000       55.900002
  H8        44.360001       52.430000       56.470001
  C6        43.430000       49.799999       55.610001
  C1        43.040001       48.919998       56.599998
  H1        41.990002       48.959999       56.830002
  C2        43.860001       48.189999       57.349998
  H2        43.529999       47.529999       58.119999
  C3        45.230000       48.389999       57.189999
  H3        45.910000       47.709999       57.599998
  C4        45.730000       49.259998       56.220001
  H4        46.770000       49.320000       55.959999
  C5        44.779999       49.959999       55.380001
  H5        45.169998       50.330002       54.459999
