206
 generated by VMD
 Ir       72.046425      -27.222223      101.159607
 C        69.027725      -29.716011      102.774704
 C        69.583893      -30.390099      101.706589
 N        69.323822      -28.328833      102.608994
 C        70.214859      -28.118509      101.602364
 N        70.277779      -29.356571      100.985718
 C        70.830856      -29.362682       99.684570
 C        72.048828      -28.721390       99.667831
 C        72.858643      -28.901402       98.526512
 H        73.658577      -28.170059       98.365784
 C        72.408958      -29.605949       97.420486
 H        73.013947      -29.727915       96.533691
 C        71.203682      -30.310278       97.409569
 H        70.898529      -30.878510       96.540031
 C        70.336899      -30.188026       98.555145
 H        69.317383      -30.447037       98.475082
 C        69.394989      -31.709869      101.590744
 H        70.046783      -32.236473      100.913658
 C        68.729645      -32.391266      102.585091
 H        68.821869      -33.410755      102.647835
 C        68.204124      -31.734882      103.682312
 H        67.633408      -32.263477      104.422493
 C        68.334641      -30.396791      103.805511
 H        68.081062      -29.838821      104.669792
 C        68.453903      -27.360950      103.066093
 C        67.707558      -26.553833      102.174942
 H        67.747314      -26.853741      101.105286
 C        66.839714      -25.550240      102.627533
 H        66.126167      -25.031313      101.952652
 C        66.752380      -25.366804      104.016678
 H        66.195023      -24.597034      104.511963
 C        67.478592      -26.187273      104.903717
 H        67.364883      -26.020901      105.990685
 C        68.297607      -27.173166      104.413689
 H        68.690460      -27.936493      105.068146
 C        74.630257      -29.877373      103.537193
 C        75.411598      -29.411793      102.505859
 N        73.360809      -29.263784      103.378372
 C        73.343643      -28.401047      102.264915
 N        74.644241      -28.526743      101.756439
 C        74.945969      -27.484829      100.811203
 C        73.939041      -26.579626      100.487915
 C        74.198181      -25.442074       99.659470
 H        73.485214      -24.644320       99.462868
 C        75.477440      -25.228355       99.101585
 H        75.735931      -24.222507       98.826004
 C        76.521408      -26.179508       99.344147
 H        77.519379      -25.912086       99.015602
 C        76.262070      -27.226698      100.244949
 H        77.147049      -27.785021      100.354446
 C        76.671570      -29.898977      102.397598
 H        77.339813      -29.720968      101.564789
 C        77.148468      -30.910433      103.276474
 H        78.069366      -31.551655      103.211800
 C        76.361221      -31.348379      104.368645
 H        76.817719      -32.021652      105.100151
 C        75.073738      -30.860886      104.488892
 H        74.542526      -31.159077      105.430695
 C        72.342484      -29.316360      104.422623
 C        71.915955      -30.602629      104.728699
 H        71.926910      -31.319294      103.937576
 C        71.068207      -30.780972      105.808838
 H        70.609123      -31.779358      105.874168
 C        70.670593      -29.700060      106.579391
 H        70.063713      -29.823421      107.518257
 C        71.160248      -28.458199      106.327560
 H        70.598404      -27.543398      106.616806
 C        72.013939      -28.262466      105.210495
 H        72.407852      -27.338900      104.855598
 C        71.493217      -24.145645      104.067459
 C        70.433304      -24.082584      103.260254
 N        72.504684      -24.946754      103.421806
 C        71.922356      -25.534231      102.317101
 N        70.702477      -24.894245      102.146179
 C        70.158043      -25.064966      100.767105
 C        70.988678      -25.867310       99.940063
 C        70.826836      -25.852322       98.566429
 H        71.779297      -26.087029       98.121292
 C        69.808662      -25.088711       98.003929
 H        69.461502      -25.143314       97.058090
 C        69.053650      -24.229221       98.786064
 H        68.552048      -23.405354       98.272697
 C        69.201080      -24.194836      100.167107
 H        68.741043      -23.437494      100.785980
 C        69.272476      -23.443260      103.775848
 H        68.367737      -23.297611      103.205902
 C        69.267776      -22.797117      105.008881
 H        68.517944      -21.989450      105.228271
 C        70.407791      -22.873837      105.833374
 H        70.529846      -22.326420      106.742241
 C        71.542564      -23.543907      105.350578
 H        72.429169      -23.599508      105.960037
 C        73.877686      -24.538052      103.474823
 C        74.336670      -23.377834      102.762344
 H        73.730812      -22.519203      102.476181
 C        75.717194      -23.208233      102.655121
 H        76.087044      -22.212009      102.376648
 C        76.608566      -24.136742      103.206238
 H        77.627861      -24.005968      103.047020
 C        76.122452      -25.274603      103.905914
 H        76.786079      -25.970520      104.353897
 C        74.744736      -25.438618      104.102921
 H        74.272293      -26.228674      104.724854
 Ir       72.046425      -27.222223      113.267738
 C        69.577133      -23.954121      111.671547
 C        70.146645      -24.579453      110.574356
 N        70.174072      -24.591707      112.816345
 C        71.002892      -25.652754      112.400848
 N        71.014336      -25.616024      111.057190
 C        72.146667      -26.269630      110.459839
 C        72.831039      -27.153133      111.294189
 C        73.860100      -27.930958      110.730072
 H        74.222824      -28.789919      111.234360
 C        74.188324      -27.766588      109.367439
 H        74.937561      -28.328285      108.789719
 C        73.538620      -26.851719      108.553444
 H        73.438507      -26.953510      107.524841
 C        72.498642      -26.109915      109.093414
 H        72.249817      -25.225483      108.532730
 C        69.746857      -24.195250      109.287674
 H        69.950241      -24.846382      108.460831
 C        68.725060      -23.240059      109.020782
 H        68.559662      -22.898409      108.014542
 C        68.240891      -22.565042      110.195740
 H        67.621002      -21.709217      110.036057
 C        68.640442      -22.948936      111.506912
 H        68.176987      -22.412401      112.349014
 C        70.100319      -23.992775      114.175873
 C        71.128258      -23.027935      114.549271
 H        72.020233      -22.883783      113.972198
 C        70.967155      -22.305092      115.763496
 H        71.760399      -21.625948      116.072891
 C        69.902092      -22.507029      116.645851
 H        69.953423      -22.297482      117.684868
 C        68.923500      -23.400133      116.308777
 H        68.127022      -23.592735      116.989464
 C        69.042549      -24.140678      115.090286
 H        68.215042      -24.739086      114.783623
 C        69.451935      -30.507053      111.920410
 C        70.295441      -31.071955      112.911514
 N        69.800491      -29.155586      111.784225
 C        70.864075      -28.824577      112.631424
 N        71.210342      -30.066128      113.291451
 C        72.439423      -30.059618      114.017769
 C        73.220474      -28.886068      113.802277
 C        74.562057      -28.861526      114.235458
 H        75.108414      -27.973673      113.955978
 C        75.092834      -29.910547      114.996933
 H        75.994675      -29.672062      115.525253
 C        74.325966      -31.088133      115.253441
 H        74.703598      -31.778490      116.012985
 C        73.020462      -31.128193      114.669724
 H        72.494675      -32.048340      114.880402
 C        70.034195      -32.389587      113.289001
 H        70.512497      -32.833069      114.164803
 C        69.014008      -33.226784      112.754837
 H        69.042290      -34.297523      112.980927
 C        68.223610      -32.585800      111.791862
 H        67.400108      -33.060913      111.332603
 C        68.432358      -31.322510      111.336975
 H        67.852997      -30.900146      110.513542
 C        68.806404      -28.171808      111.313095
 C        67.627548      -27.906376      111.963898
 H        67.523544      -28.040287      113.005737
 C        66.545837      -27.210461      111.324051
 H        65.715744      -26.769251      111.886177
 C        66.637451      -26.933062      109.949554
 H        65.867607      -26.389305      109.445297
 C        67.834702      -27.243828      109.258667
 H        67.947968      -27.245304      108.124710
 C        68.982277      -27.791622      109.970772
 H        69.891815      -28.036263      109.427353
 C        71.001183      -26.653933      117.439636
 C        71.943573      -25.673531      117.232216
 N        70.932426      -27.463428      116.342690
 C        71.817505      -26.993500      115.349052
 N        72.525993      -25.965956      115.939049
 C        73.467758      -25.354437      115.205490
 C        73.534798      -25.782888      113.884567
 C        74.453850      -25.235641      113.008698
 H        74.566933      -25.468782      111.947067
 C        75.268463      -24.161816      113.415398
 H        75.860939      -23.493484      112.771652
 C        75.254517      -23.702309      114.740517
 H        75.950851      -22.972864      115.093262
 C        74.398582      -24.293962      115.670647
 H        74.565155      -24.067333      116.698303
 C        72.066772      -24.722115      118.258484
 H        72.570511      -23.783649      118.071854
 C        71.324387      -24.769726      119.468651
 H        71.413177      -23.933498      120.210228
 C        70.517792      -25.884584      119.715820
 H        70.190308      -26.133400      120.765129
 C        70.312943      -26.768618      118.675667
 H        69.506569      -27.487537      118.754532
 C        70.166458      -28.732304      116.453369
 C        70.881393      -29.912958      116.789566
 H        71.839249      -29.863276      117.267723
 C        70.195618      -31.143936      116.749474
 H        70.664406      -32.091694      116.998688
 C        68.843063      -31.166008      116.508041
 H        68.414444      -32.146057      116.267212
 C        68.137299      -30.053049      116.127884
 H        67.083542      -30.112070      115.930641
 C        68.802193      -28.850323      116.045639
 H        68.269745      -27.992619      115.719376
