206
 generated by VMD
 Ir      -83.251282      -11.075815       62.659016
 C       -79.754074       -8.458870       62.694183
 C       -79.867973       -8.721907       61.326435
 N       -80.689445       -9.194701       63.448849
 C       -81.449593      -10.013922       62.628574
 N       -80.872467       -9.783958       61.347546
 C       -81.589523      -10.515566       60.306210
 C       -82.830666      -10.946290       60.653545
 C       -83.620285      -11.481519       59.625233
 H       -84.609337      -11.816342       59.838963
 C       -83.145294      -11.728020       58.371593
 H       -83.630707      -12.470716       57.851429
 C       -81.847275      -11.353889       57.996628
 H       -81.417328      -11.670242       57.053940
 C       -81.111923      -10.710485       58.995712
 H       -80.147209      -10.325738       58.738220
 C       -79.178314       -7.953873       60.390972
 H       -79.309662       -8.215765       59.354122
 C       -78.494370       -6.757482       60.781322
 H       -78.124771       -6.079783       60.023613
 C       -78.391090       -6.544369       62.120880
 H       -77.703979       -5.778978       62.531929
 C       -78.980698       -7.347922       63.074436
 H       -78.756439       -7.241365       64.099495
 C       -80.465858       -9.527986       64.852249
 C       -79.376053      -10.441766       65.123222
 H       -78.745804      -10.772012       64.338928
 C       -78.885475      -10.539364       66.441368
 H       -77.980637      -11.039310       66.613205
 C       -79.358994       -9.704356       67.382980
 H       -79.093231       -9.795284       68.376770
 C       -80.370682       -8.747322       67.140762
 H       -80.797287       -8.186361       67.915054
 C       -80.955177       -8.665787       65.879372
 H       -81.894318       -8.096499       65.668610
 C       -86.100159       -7.926206       62.809143
 C       -86.851265       -8.968367       62.529255
 N       -84.750519       -8.308112       62.742630
 C       -84.625519       -9.586749       62.448418
 N       -85.971054      -10.039692       62.257229
 C       -86.191780      -11.463009       62.264412
 C       -85.016418      -12.269759       62.427109
 C       -85.105415      -13.601556       62.648239
 H       -84.202118      -14.264060       62.498409
 C       -86.357986      -14.230869       62.901066
 H       -86.333176      -15.315297       63.066898
 C       -87.528412      -13.501786       62.647030
 H       -88.465820      -14.031924       62.346474
 C       -87.455772      -12.099545       62.378254
 H       -88.332390      -11.662861       61.981461
 C       -88.273529       -8.964183       62.742233
 H       -88.782913       -9.924255       62.878555
 C       -88.909180       -7.770870       63.028851
 H       -89.979156       -7.615890       63.115131
 C       -88.067139       -6.652739       63.253437
 H       -88.440186       -5.820021       63.668175
 C       -86.697693       -6.724566       63.244011
 H       -86.041245       -5.914817       63.414242
 C       -83.657730       -7.425273       62.445137
 C       -83.179710       -7.348948       61.101089
 H       -83.290955       -8.188809       60.399120
 C       -82.403259       -6.220871       60.779419
 H       -82.107559       -5.902623       59.824127
 C       -82.043274       -5.303934       61.705177
 H       -81.261513       -4.567472       61.436516
 C       -82.513702       -5.439616       63.034420
 H       -82.139717       -4.869933       63.853325
 C       -83.311569       -6.509994       63.410973
 H       -83.846878       -6.408291       64.315910
 C       -83.183708      -11.677818       66.984406
 C       -82.260513      -12.571669       66.502495
 N       -83.873199      -11.054858       65.896324
 C       -83.354965      -11.539335       64.632797
 N       -82.416565      -12.504105       65.044037
 C       -81.918472      -13.388483       64.123833
 C       -82.065750      -12.903770       62.827892
 C       -81.580414      -13.686091       61.802704
 H       -81.742203      -13.440419       60.836231
 C       -80.973991      -14.964215       62.063950
 H       -80.832001      -15.637730       61.216705
 C       -80.742737      -15.424538       63.352444
 H       -80.145004      -16.331017       63.551205
 C       -81.207001      -14.610605       64.356277
 H       -80.986206      -14.873484       65.327431
 C       -81.329483      -13.216335       67.328682
 H       -80.633865      -13.996407       67.057404
 C       -81.244736      -12.724202       68.688354
 H       -80.302460      -12.822511       69.308960
 C       -82.164810      -11.799846       69.157639
 H       -81.991379      -11.395957       70.207397
 C       -83.220383      -11.351520       68.325256
 H       -84.086151      -10.794387       68.768158
 C       -85.218918      -10.696238       66.105469
 C       -86.214966      -11.535349       65.622169
 H       -85.878769      -12.406900       65.080811
 C       -87.523987      -11.206129       65.880188
 H       -88.321396      -11.692499       65.300377
 C       -87.838455      -10.007843       66.622231
 H       -88.933495       -9.793507       66.687340
 C       -86.823700       -9.177059       67.074203
 H       -87.038193       -8.363757       67.789909
 C       -85.502823       -9.475772       66.821541
 H       -84.694077       -8.747598       66.951126
 Ir      -83.251282      -11.075814       74.255005
 C       -84.663193      -13.953585       77.286903
 C       -83.366341      -13.568838       77.712990
 N       -84.793884      -13.336308       75.927315
 C       -83.712593      -12.584375       75.635406
 N       -82.766556      -12.761970       76.643311
 C       -81.685867      -11.886866       76.640762
 C       -81.786194      -10.829669       75.788963
 C       -80.770859       -9.908509       75.818176
 H       -80.985504       -9.054282       75.255386
 C       -79.558556      -10.066765       76.574402
 H       -78.815659       -9.305874       76.458038
 C       -79.391083      -11.267103       77.271286
 H       -78.422546      -11.636696       77.567825
 C       -80.456406      -12.192682       77.321960
 H       -80.209816      -13.190602       77.680214
 C       -82.911263      -14.039186       79.048386
 H       -81.927963      -13.728712       79.415573
 C       -83.733170      -14.877666       79.725677
 H       -83.459702      -15.128901       80.737946
 C       -85.069435      -15.183640       79.274277
 H       -85.657272      -15.859641       79.926788
 C       -85.479797      -14.744351       78.072800
 H       -86.475693      -15.075899       77.722855
 C       -85.813103      -13.695640       75.021667
 C       -87.090836      -13.140126       75.097725
 H       -87.358215      -12.766112       76.061478
 C       -87.971741      -13.459558       74.069290
 H       -89.011116      -13.102120       74.129585
 C       -87.604950      -14.377758       73.034988
 H       -88.221863      -14.367181       72.156242
 C       -86.351517      -14.905528       73.004105
 H       -85.980942      -15.498099       72.179214
 C       -85.436691      -14.532858       73.971588
 H       -84.404068      -14.727777       73.803391
 C       -85.503998       -7.785275       76.016632
 C       -84.788094       -7.254111       74.990593
 N       -85.053085       -9.148249       76.153313
 C       -84.161926       -9.450277       75.153305
 N       -84.006035       -8.274408       74.477188
 C       -83.172043       -8.273580       73.260361
 C       -82.488068       -9.477429       73.094803
 C       -81.392426       -9.624714       72.328972
 H       -80.936462      -10.558937       72.140778
 C       -80.890244       -8.560966       71.618027
 H       -79.957520       -8.664366       71.187057
 C       -81.599236       -7.365443       71.662323
 H       -81.440308       -6.734314       70.740143
 C       -82.714561       -7.189862       72.459946
 H       -83.217667       -6.242339       72.415329
 C       -84.932144       -5.913395       74.749283
 H       -84.100616       -5.409936       74.278549
 C       -85.986938       -5.199783       75.372963
 H       -86.200165       -4.307828       74.909554
 C       -86.707443       -5.731499       76.412354
 H       -87.248764       -5.071796       77.008911
 C       -86.493744       -7.050588       76.731003
 H       -87.082397       -7.638384       77.461746
 C       -85.378090       -9.935186       77.378548
 C       -84.427505      -10.270327       78.284180
 H       -83.468178       -9.831196       78.251663
 C       -84.779404      -11.115516       79.377945
 H       -84.055649      -11.369633       80.193665
 C       -86.059280      -11.646088       79.632919
 H       -86.330200      -12.193431       80.587288
 C       -87.066406      -11.332575       78.676941
 H       -87.886887      -11.966427       78.764297
 C       -86.734200      -10.459089       77.614975
 H       -87.503311      -10.231018       76.954697
 C       -86.063538      -11.738437       71.018600
 C       -85.095840      -12.674988       70.737427
 N       -85.819267      -11.073288       72.178482
 C       -84.555710      -11.494501       72.731918
 N       -84.160812      -12.565235       71.850739
 C       -82.972961      -13.226634       72.240845
 C       -82.155785      -12.598228       73.200180
 C       -80.836349      -13.079390       73.448532
 H       -80.145660      -12.450431       74.124664
 C       -80.373909      -14.190063       72.701294
 H       -79.459717      -14.800946       72.924179
 C       -81.225769      -14.851186       71.781044
 H       -80.968338      -15.632874       71.088943
 C       -82.499542      -14.387783       71.532745
 H       -83.160118      -15.017846       70.964279
 C       -85.285019      -13.547606       69.573021
 H       -84.397263      -14.014323       69.163910
 C       -86.496445      -13.510824       68.871948
 H       -86.734879      -14.350646       68.320724
 C       -87.448380      -12.544870       69.212181
 H       -88.356049      -12.548620       68.741531
 C       -87.182526      -11.655638       70.261505
 H       -87.964050      -10.916611       70.396637
 C       -86.348534       -9.730797       72.313354
 C       -85.763802       -8.691477       71.540047
 H       -84.767189       -8.822068       71.122520
 C       -86.293465       -7.428864       71.663986
 H       -85.660309       -6.657987       71.322998
 C       -87.313675       -7.211133       72.571045
 H       -87.779922       -6.213687       72.608582
 C       -87.907990       -8.151157       73.360123
 H       -88.679871       -7.937373       74.113174
 C       -87.380707       -9.453711       73.226227
 H       -87.806038      -10.230150       73.810890
