206
 generated by VMD
 Ir       54.642906      -31.884428      -13.897369
 C        52.476112      -28.733982      -16.000555
 C        51.491673      -29.624735      -15.632537
 N        53.641872      -29.032467      -15.292591
 C        53.529026      -30.265144      -14.577138
 N        52.110985      -30.507160      -14.711245
 C        51.670578      -31.615124      -13.957682
 C        52.707970      -32.451920      -13.439035
 C        52.297443      -33.559887      -12.712070
 H        53.088219      -34.207886      -12.320065
 C        50.912079      -33.760983      -12.418443
 H        50.745636      -34.395565      -11.567674
 C        49.957901      -32.844467      -12.873685
 H        48.926819      -32.886227      -12.467826
 C        50.288040      -31.730314      -13.600712
 H        49.557384      -30.913223      -13.774789
 C        50.136024      -29.512222      -16.117668
 H        49.329365      -30.213440      -16.046244
 C        49.824333      -28.479168      -16.979147
 H        48.775841      -28.350281      -17.299704
 C        50.789062      -27.619045      -17.429464
 H        50.465168      -26.741432      -17.973785
 C        52.131687      -27.691175      -16.989052
 H        52.836967      -26.870493      -17.249554
 C        54.648193      -28.060617      -14.974284
 C        54.287842      -27.076088      -14.040551
 H        53.562439      -27.328770      -13.261235
 C        55.198158      -26.091026      -13.724824
 H        54.709084      -25.343876      -13.131211
 C        56.426731      -26.022940      -14.329941
 H        56.958809      -25.121696      -14.243585
 C        56.747139      -26.929325      -15.353662
 H        57.714355      -26.829567      -15.876383
 C        55.823830      -27.969667      -15.623832
 H        56.115181      -28.684200      -16.289156
 C        55.736435      -31.163397       -9.736239
 C        56.301712      -32.307236      -10.003619
 N        54.955521      -30.765789      -10.808986
 C        55.040855      -31.639561      -11.871175
 N        55.857395      -32.646389      -11.329913
 C        56.245415      -33.755531      -12.187441
 C        55.496056      -33.757771      -13.420263
 C        55.790955      -34.736115      -14.367352
 H        55.102695      -34.797401      -15.230742
 C        56.780174      -35.684101      -14.098340
 H        56.766472      -36.531746      -14.790516
 C        57.531776      -35.652908      -12.878044
 H        58.263287      -36.426994      -12.748124
 C        57.230453      -34.677185      -11.938161
 H        57.863960      -34.697403      -11.121238
 C        57.143982      -32.942528       -8.982255
 H        57.494164      -33.954735       -9.175425
 C        57.302162      -32.329514       -7.736748
 H        58.026215      -32.856567       -7.148986
 C        56.599548      -31.191755       -7.428138
 H        57.038071      -30.641781       -6.589614
 C        55.889221      -30.571461       -8.436637
 H        55.489220      -29.560097       -8.254310
 C        53.806751      -29.898666      -10.670687
 C        52.517426      -30.344172      -10.900831
 H        52.254211      -31.319557      -10.519731
 C        51.427521      -29.506739      -11.012239
 H        50.381821      -29.918455      -10.833355
 C        51.602791      -28.102654      -11.040945
 H        50.705704      -27.391813      -10.875595
 C        52.962135      -27.669420      -10.882541
 H        53.138157      -26.657520      -10.699848
 C        54.041016      -28.519226      -10.618080
 H        54.910191      -27.986771      -10.198166
 C        58.611130      -30.739388      -15.515697
 C        57.878120      -31.045185      -16.624876
 N        57.821430      -30.999300      -14.357413
 C        56.535858      -31.478058      -14.703664
 N        56.583069      -31.476303      -16.064352
 C        55.445435      -31.749689      -16.755760
 C        54.457649      -32.339916      -15.925278
 C        53.270981      -32.796654      -16.506330
 H        52.680508      -33.480755      -15.981505
 C        53.041409      -32.690323      -17.922272
 H        52.160423      -33.052650      -18.310333
 C        54.030350      -32.084362      -18.676262
 H        53.811836      -32.008133      -19.688755
 C        55.231853      -31.645985      -18.198856
 H        55.804268      -30.938177      -18.743975
 C        58.446960      -31.037651      -17.910938
 H        58.047527      -31.597275      -18.780750
 C        59.743561      -30.517365      -18.033573
 H        60.268181      -30.564365      -19.038446
 C        60.390305      -30.071220      -16.870914
 H        61.482758      -29.826277      -16.891998
 C        59.906380      -30.300707      -15.579688
 H        60.450562      -29.849014      -14.757838
 C        58.105598      -30.574978      -13.030538
 C        57.461746      -29.432079      -12.595753
 H        56.569786      -29.097921      -13.116466
 C        57.926895      -28.839403      -11.366372
 H        57.334206      -28.001740      -10.949314
 C        58.965313      -29.418476      -10.651063
 H        59.480103      -28.928183       -9.817098
 C        59.568428      -30.606062      -11.116569
 H        60.211830      -31.112976      -10.408846
 C        59.141090      -31.175972      -12.318519
 H        59.673431      -32.070595      -12.758248
 Ir       54.642906      -31.884430        0.600826
 C        56.846550      -35.402851        2.083660
 C        57.723190      -34.589096        1.534390
 N        55.592644      -34.741535        1.863224
 C        55.722469      -33.545776        1.257080
 N        57.023598      -33.517437        1.004181
 C        57.527016      -32.398983        0.246203
 C        56.643883      -31.348511        0.081321
 C        57.089188      -30.175718       -0.561457
 H        56.525131      -29.260653       -0.503268
 C        58.320137      -30.044491       -1.163910
 H        58.551369      -29.063856       -1.490704
 C        59.162071      -31.162409       -1.090426
 H        60.215897      -31.132084       -1.470742
 C        58.762367      -32.323868       -0.381378
 H        59.323204      -33.233589       -0.563504
 C        59.111847      -34.889996        1.725717
 H        59.839294      -34.398048        1.204370
 C        59.531555      -35.958191        2.573187
 H        60.542862      -36.201729        2.566220
 C        58.565079      -36.726318        3.171946
 H        58.898590      -37.428654        3.907541
 C        57.223091      -36.499050        2.882634
 H        56.483589      -37.149597        3.194935
 C        54.397552      -35.429436        2.039728
 C        53.620331      -35.106987        3.196989
 H        53.894539      -34.334019        3.850927
 C        52.575813      -35.986309        3.572712
 H        52.063862      -35.678757        4.471500
 C        52.314728      -37.139824        2.768080
 H        51.614029      -37.801907        3.244278
 C        53.059441      -37.399971        1.589342
 H        53.039291      -38.377571        1.130553
 C        54.024635      -36.517086        1.199700
 H        54.552444      -36.667614        0.243532
 C        54.464279      -29.739735        4.280387
 C        53.622696      -29.029125        3.425240
 N        55.084343      -30.645584        3.503049
 C        54.737923      -30.585728        2.166407
 N        53.882172      -29.550253        2.107475
 C        53.480740      -29.170265        0.814316
 C        53.700523      -30.155533       -0.202121
 C        53.502312      -29.851065       -1.537715
 H        53.543297      -30.731226       -2.183500
 C        53.066940      -28.544651       -1.861349
 H        53.022751      -28.272900       -2.933682
 C        52.770294      -27.556660       -0.916218
 H        52.240158      -26.672962       -1.195914
 C        53.011215      -27.855883        0.407195
 H        52.835388      -27.078308        1.127099
 C        52.902443      -27.972239        4.014831
 H        52.319328      -27.246199        3.465065
 C        53.026794      -27.668018        5.402809
 H        52.369316      -27.040871        5.912522
 C        53.864296      -28.416283        6.178176
 H        53.972324      -28.262695        7.247026
 C        54.563889      -29.482822        5.610490
 H        55.158455      -30.107220        6.293438
 C        56.380363      -31.193926        3.936234
 C        56.429871      -32.304817        4.698707
 H        55.613190      -32.417995        5.480771
 C        57.681236      -32.967812        4.811020
 H        57.713776      -33.489422        5.734905
 C        58.799232      -32.494431        4.156875
 H        59.686516      -33.170235        4.070747
 C        58.799438      -31.401054        3.314893
 H        59.849518      -31.061291        3.186044
 C        57.553799      -30.728409        3.193976
 H        57.372570      -30.019989        2.403851
 C        50.744194      -33.685902        1.424942
 C        51.232811      -34.315163        0.289387
 N        51.652367      -32.599930        1.678112
 C        52.728958      -32.618393        0.781945
 N        52.407074      -33.657791       -0.121070
 C        53.293968      -33.767200       -1.245369
 C        54.430290      -32.919758       -1.247252
 C        55.188240      -32.684387       -2.396085
 H        55.926826      -31.832338       -2.378545
 C        54.816902      -33.414886       -3.520087
 H        55.205246      -33.000576       -4.377255
 C        53.710094      -34.266739       -3.515127
 H        53.363602      -34.849228       -4.340506
 C        52.905754      -34.442421       -2.388332
 H        51.959290      -34.925888       -2.549159
 C        50.581947      -35.454628       -0.201122
 H        51.029205      -36.148178       -0.901873
 C        49.458466      -35.967453        0.416768
 H        49.010098      -36.803562       -0.086901
 C        49.014301      -35.342594        1.542101
 H        48.197548      -35.652134        2.173690
 C        49.602058      -34.149635        2.097074
 H        48.930161      -33.468048        2.530438
 C        51.267609      -31.368807        2.418983
 C        50.678543      -30.317291        1.742215
 H        51.035912      -30.274723        0.714902
 C        50.026695      -29.340326        2.438731
 H        49.534393      -28.582716        1.810508
 C        49.904320      -29.364843        3.805231
 H        49.566017      -28.549408        4.447890
 C        50.470852      -30.450554        4.486756
 H        50.278198      -30.502035        5.578791
 C        51.188839      -31.440735        3.819420
 H        51.883072      -32.129955        4.298491
