206
 generated by VMD
  IR        16.190001       37.799999       27.190001
  C1        17.200001       36.160000       23.260000
  C2        15.860000       35.840000       23.450001
  N1        17.610001       36.790001       24.459999
  C3a       16.610001       36.849998       25.410000
  N2        15.480000       36.270000       24.740000
  C4        14.220000       36.430000       25.350000
  C5a       14.260000       37.270000       26.459999
  C6        13.040000       37.500000       27.180000
  H1        12.890000       38.290001       27.930000
  C7        11.800000       36.950001       26.740000
  H2        11.230000       36.770000       27.610001
  C8        11.800000       36.029999       25.660000
  H3        10.960000       35.360001       25.530001
  C9        12.990000       35.709999       25.040001
  H4        13.150000       34.770000       24.500000
  C10       15.040000       35.369999       22.340000
  H5        14.160000       34.830002       22.639999
  C11       15.580000       35.250000       21.040001
  H6        14.990000       34.950001       20.180000
  C12       16.969999       35.500000       20.920000
  H7        17.500000       34.990002       20.150000
  C13       17.770000       35.900002       22.000000
  H8        18.790001       36.049999       21.860001
  C6        18.940001       36.959999       24.840000
  C1        19.370001       35.910000       25.610001
  H1        18.600000       35.259998       26.090000
  C2        20.740000       35.720001       25.790001
  H2        21.240000       34.950001       26.340000
  C3        21.590000       36.590000       25.160000
  H3        22.639999       36.410000       25.559999
  C4        21.160000       37.689999       24.400000
  H4        21.840000       38.220001       23.700001
  C5        19.790001       37.930000       24.209999
  H5        19.379999       38.779999       23.650000
  C1        14.970000       41.759998       25.709999
  C2        14.760000       41.820000       27.070000
  N1        15.550000       40.540001       25.410000
  C3b       15.700000       39.770000       26.570000
  N2        15.220000       40.590000       27.559999
  C4        15.290000       40.119999       28.860001
  C5b       15.390000       38.700001       28.950001
  C6        15.360000       38.130001       30.250000
  H1        15.160000       37.020000       30.370001
  C7        15.330000       38.919998       31.400000
  H2        15.620000       38.520000       32.299999
  C8        15.340000       40.270000       31.309999
  H3        14.980000       40.750000       32.130001
  C9        15.290000       40.880001       29.990000
  H4        15.110000       41.919998       29.990000
  C10       14.250000       43.000000       27.719999
  H5        13.850000       43.000000       28.670000
  C11       13.990000       44.080002       26.950001
  H6        13.590000       45.000000       27.360001
  C12       14.320000       44.090000       25.570000
  H7        14.240000       45.060001       25.120001
  C13       14.780000       42.930000       25.000000
  H8        14.880000       42.910000       23.930000
  C6        15.630000       40.070000       24.100000
  C1        14.630000       39.220001       23.610001
  H1        13.800000       39.009998       24.260000
  C2        14.820000       38.639999       22.400000
  H2        14.150000       37.860001       21.990000
  C3        15.950000       38.930000       21.690001
  H3        16.040001       38.400002       20.790001
  C4        16.799999       39.900002       22.070000
  H4        17.500000       40.270000       21.330000
  C5        16.730000       40.490002       23.350000
  H5        17.620001       40.820000       23.850000
  C1        20.170000       38.250000       29.030001
  C2        19.879999       36.930000       29.120001
  N1        18.990000       38.919998       28.379999
  C3c       18.030001       37.980000       28.129999
  N2        18.510000       36.759998       28.559999
  C4        17.580000       35.660000       28.730000
  C5c       16.430000       35.830002       27.990000
  C6        15.570000       34.730000       27.870001
  H1        14.630000       34.849998       27.379999
  C7        15.730000       33.549999       28.620001
  H2        15.000000       32.779999       28.570000
  C8        16.830000       33.439999       29.420000
  H3        16.879999       32.590000       30.160000
  C9        17.719999       34.439999       29.490000
  H4        18.510000       34.490002       30.190001
  C10       20.959999       36.029999       29.530001
  H5        20.660000       35.040001       29.879999
  C11       22.260000       36.470001       29.790001
  H6        23.080000       35.830002       30.209999
  C12       22.440001       37.889999       29.639999
  H7        23.480000       38.119999       29.680000
  C13       21.469999       38.750000       29.260000
  H8        21.750000       39.799999       29.250000
  C6        18.959999       40.270000       27.969999
  C1        19.090000       40.570000       26.650000
  H1        19.219999       39.680000       26.040001
  C2        19.150000       41.889999       26.230000
  H2        19.309999       42.110001       25.170000
  C3        19.030001       42.930000       27.160000
  H3        19.230000       43.970001       26.809999
  C4        18.910000       42.660000       28.570000
  H4        19.000000       43.389999       29.270000
  C5        18.879999       41.299999       28.980000
  H5        18.580000       41.040001       30.020000
  IR         9.410000       44.599998       28.840000
  C1        10.400000       42.689999       25.070000
  C2        10.800000       41.779999       25.930000
  N1        10.050000       43.820000       25.700001
  C3a       10.060000       43.689999       27.120001
  N2        10.640000       42.380001       27.260000
  C4        10.920000       42.029999       28.580000
  C5a       10.310000       42.840000       29.559999
  C6        10.480000       42.400002       30.879999
  H1        10.390000       43.150002       31.670000
  C7        11.240000       41.320000       31.230000
  H2        11.290000       41.099998       32.279999
  C8        11.860000       40.549999       30.209999
  H3        12.550000       39.730000       30.549999
  C9        11.680000       40.900002       28.900000
  H4        11.990000       40.340000       28.000000
  C10       11.350000       40.529999       25.420000
  H5        11.760000       39.810001       26.030001
  C11       11.250000       40.230000       24.059999
  H6        11.360000       39.180000       23.860001
  C12       10.830000       41.220001       23.150000
  H7        10.730000       40.990002       22.070000
  C13       10.450000       42.480000       23.610001
  H8        10.600000       43.299999       22.930000
  C6         9.450000       44.880001       24.990000
  C1         8.080000       44.889999       24.920000
  H1         7.440000       44.299999       25.530001
  C2         7.450000       45.680000       23.959999
  H2         6.410000       45.529999       23.780001
  C3         8.190000       46.480000       23.100000
  H3         7.730000       47.090000       22.340000
  C4         9.580000       46.509998       23.209999
  H4        10.200000       46.900002       22.389999
  C5        10.240000       45.720001       24.209999
  H5        11.290000       45.590000       24.290001
  C1         5.650000       42.340000       29.250000
  C2         5.680000       43.200001       30.320000
  N1         6.800000       42.590000       28.469999
  C3b        7.580000       43.619999       29.020000
  N2         6.880000       43.880001       30.209999
  C4         7.390000       44.970001       31.010000
  C5b        8.780000       45.220001       30.750000
  C6         9.480000       46.169998       31.580000
  H1        10.590000       46.119999       31.670000
  C7         8.750000       46.910000       32.480000
  H2         9.250000       47.709999       33.000000
  C8         7.380000       46.689999       32.610001
  H3         6.870000       47.410000       33.250000
  C9         6.630000       45.700001       31.940001
  H4         5.520000       45.660000       31.969999
  C10        4.600000       43.119999       31.270000
  H5         4.670000       43.580002       32.220001
  C11        3.580000       42.189999       31.150000
  H6         3.010000       41.919998       31.990000
  C12        3.550000       41.320000       30.100000
  H7         2.870000       40.529999       29.959999
  C13        4.580000       41.400002       29.139999
  H8         4.490000       40.759998       28.260000
  C6         7.340000       41.529999       27.660000
  C1         7.990000       40.450001       28.260000
  H1         7.990000       40.450001       29.290001
  C2         8.480000       39.410000       27.459999
  H2         9.120000       38.689999       27.910000
  C3         8.370000       39.590000       26.059999
  H3         8.980000       38.970001       25.400000
  C4         7.630000       40.639999       25.480000
  H4         7.630000       40.669998       24.389999
  C5         7.090000       41.650002       26.290001
  H5         6.260000       42.189999       25.860001
  C1         8.290000       48.200001       26.700001
  C2         9.670000       48.220001       26.740000
  N1         7.840000       47.189999       27.570000
  C3c        8.900000       46.480000       28.129999
  N2        10.010000       47.180000       27.639999
  C4        11.240000       46.810001       28.200001
  C5c       11.280000       45.630001       28.900000
  C6        12.420000       45.330002       29.700001
  H1        12.460000       44.480000       30.250000
  C7        13.510000       46.259998       29.790001
  H2        14.310000       46.029999       30.500000
  C8        13.470000       47.439999       29.070000
  H3        14.300000       48.160000       29.090000
  C9        12.340000       47.750000       28.309999
  H4        12.110000       48.720001       27.969999
  C10       10.380000       49.119999       25.940001
  H5        11.410000       49.160000       25.809999
  C11        9.740000       49.970001       25.100000
  H6        10.370000       50.650002       24.559999
  C12        8.330000       50.000000       25.080000
  H7         7.760000       50.549999       24.360001
  C13        7.620000       49.070000       25.920000
  H8         6.530000       49.110001       26.030001
  C6         6.490000       47.200001       28.120001
  C1         5.510000       46.439999       27.510000
  H1         5.680000       46.169998       26.469999
  C2         4.250000       46.240002       28.129999
  H2         3.560000       45.439999       27.990000
  C3         4.070000       46.860001       29.360001
  H3         3.020000       46.900002       29.750000
  C4         5.030000       47.680000       29.969999
  H4         4.910000       48.060001       31.049999
  C5         6.280000       47.849998       29.340000
  H5         7.160000       48.160000       29.959999
