206
 generated by VMD
 Ir       50.970394       82.617355       77.401283
 C        49.117603       81.324051       81.144852
 C        48.935387       82.695824       81.064697
 N        49.860214       80.924644       79.968292
 C        50.196602       82.086121       79.245850
 N        49.555183       83.134552       79.900665
 C        49.624741       84.446396       79.218079
 C        50.645187       84.499008       78.286621
 C        51.172672       85.745682       77.784470
 H        52.206802       85.662399       77.306824
 C        50.556759       86.919464       78.189804
 H        50.957973       87.921768       77.824524
 C        49.422909       86.866013       79.102829
 H        49.015213       87.814781       79.289734
 C        48.967731       85.627151       79.615501
 H        47.943470       85.565811       79.952141
 C        48.161072       83.285080       82.080475
 H        47.880672       84.354538       82.129791
 C        47.820061       82.572723       83.147552
 H        47.077278       82.919006       83.860893
 C        47.971058       81.156967       83.237297
 H        47.592957       80.528732       83.964447
 C        48.596077       80.545105       82.142776
 H        48.849251       79.462761       82.185623
 C        50.396339       79.599083       79.691788
 C        49.862549       78.975327       78.576614
 H        49.174927       79.373901       77.873611
 C        50.198227       77.621254       78.330215
 H        50.172691       77.219437       77.311592
 C        50.952560       76.921196       79.254929
 H        51.208511       75.865280       79.344604
 C        51.495033       77.635223       80.290878
 H        52.152462       77.098160       80.990562
 C        51.309170       78.976158       80.505913
 H        52.010811       79.585037       81.077202
 C        47.326786       83.362305       75.066078
 C        48.293552       83.867195       74.281822
 N        47.911213       82.824661       76.182495
 C        49.293900       83.010529       76.217651
 N        49.493595       83.727127       75.054077
 C        50.849075       84.004509       74.742416
 C        51.761215       83.405693       75.581421
 C        53.118736       83.406525       75.280518
 H        53.902412       82.967972       75.904312
 C        53.611458       84.057129       74.205139
 H        54.644390       84.127365       74.020973
 C        52.698288       84.721283       73.391251
 H        53.099777       85.190926       72.440491
 C        51.309036       84.706070       73.616737
 H        50.734673       85.333405       72.944458
 C        48.000946       84.386383       72.998383
 H        48.800201       84.823441       72.379776
 C        46.703594       84.305336       72.574471
 H        46.652786       84.192123       71.524704
 C        45.644756       83.807007       73.349808
 H        44.631302       84.107590       73.191162
 C        45.950714       83.297546       74.648315
 H        45.157715       82.947601       75.311333
 C        47.244205       82.013382       77.111221
 C        47.013741       80.642685       76.833054
 H        47.024456       80.308952       75.837914
 C        46.410545       79.877289       77.887955
 H        46.353001       78.803009       77.769592
 C        46.067986       80.439865       79.102440
 H        45.458412       79.925835       79.881348
 C        46.221806       81.783722       79.299950
 H        46.176037       81.937332       80.356125
 C        46.778706       82.584854       78.289536
 H        46.660080       83.640762       78.396690
 C        52.183479       78.897522       75.628220
 C        52.978153       79.009155       76.756454
 N        51.489716       80.056671       75.514778
 C        51.765175       80.880257       76.517548
 N        52.773376       80.270630       77.265137
 C        53.512852       81.156723       78.188019
 C        52.911354       82.443802       78.315048
 C        53.507271       83.394806       79.130806
 H        53.188545       84.439331       79.243439
 C        54.687878       83.169540       79.928810
 H        54.890854       83.938347       80.652931
 C        55.230770       81.872330       79.793907
 H        56.087128       81.604584       80.342606
 C        54.666069       80.936111       78.980751
 H        55.094036       79.949524       79.072342
 C        53.662033       77.884087       77.254791
 H        54.504562       77.940277       77.971642
 C        53.575344       76.675064       76.486115
 H        54.362450       75.928619       76.668549
 C        52.759342       76.585205       75.336182
 H        52.868645       75.765625       74.613663
 C        52.000725       77.670135       74.963150
 H        51.172726       77.424088       74.382477
 C        51.013641       80.448181       74.237411
 C        49.638775       80.365051       74.062668
 H        49.029240       80.090591       74.939102
 C        49.082211       80.506035       72.792686
 H        47.999680       80.345688       72.548111
 C        49.959797       80.628639       71.717041
 H        49.583065       80.953979       70.699585
 C        51.305698       80.665466       71.887604
 H        51.993599       80.848167       71.054047
 C        51.883942       80.549011       73.142464
 H        52.911961       80.233643       73.364105
 Ir       50.970394       82.617355       92.118713
 C        50.379738       86.864357       91.274895
 C        49.631615       86.179756       90.309265
 N        51.083572       85.888580       91.990967
 C        50.681805       84.570328       91.625031
 N        49.757473       84.772484       90.575058
 C        49.169502       83.621063       90.034210
 C        49.350525       82.473465       90.773636
 C        48.571121       81.354889       90.573631
 H        48.548458       80.538208       91.260078
 C        47.596821       81.316238       89.570717
 H        47.076683       80.452171       89.348328
 C        47.442837       82.406723       88.678291
 H        46.986988       82.374969       87.642868
 C        48.178040       83.640762       88.982300
 H        48.092865       84.538658       88.358894
 C        48.970932       86.982559       89.367981
 H        48.187820       86.509415       88.695023
 C        48.961597       88.382011       89.362305
 H        48.632225       88.881165       88.555664
 C        49.644333       88.975922       90.397942
 H        49.538185       89.995682       90.484192
 C        50.345768       88.207375       91.347366
 H        50.890633       88.626640       92.186554
 C        52.390495       86.170280       92.542328
 C        53.414978       86.516571       91.583679
 H        53.165844       86.687973       90.525970
 C        54.651680       86.870178       92.184036
 H        55.535484       86.829605       91.652771
 C        54.827152       86.955704       93.585785
 H        55.780003       87.254784       93.981812
 C        53.770607       86.723801       94.432678
 H        53.926296       86.665527       95.506821
 C        52.544991       86.265533       93.909943
 H        51.629292       86.373764       94.439087
 C        47.341614       81.946808       94.260323
 C        47.878963       80.690399       94.190254
 N        48.424263       82.859573       93.992699
 C        49.552280       82.160599       93.583679
 N        49.277428       80.847672       93.738861
 C        50.320457       79.961166       93.340355
 C        51.194466       80.519745       92.364761
 C        52.240108       79.735565       91.891273
 H        52.996361       80.199066       91.253891
 C        52.433952       78.504440       92.414474
 H        53.116852       77.741035       92.023361
 C        51.572952       77.967628       93.417572
 H        51.741699       77.001404       93.811966
 C        50.459854       78.727280       93.840576
 H        49.753700       78.159973       94.467392
 C        47.080311       79.568909       94.467026
 H        47.587868       78.576584       94.405548
 C        45.745529       79.737640       94.837418
 H        45.153076       78.813568       94.824005
 C        45.167782       81.006104       94.862511
 H        44.099701       81.275421       94.998047
 C        46.016376       82.134995       94.636246
 H        45.495804       83.105537       94.670227
 C        48.453938       84.278320       94.484116
 C        48.754627       84.527679       95.835083
 H        48.673191       83.812088       96.574722
 C        48.715275       85.841782       96.289299
 H        49.120861       86.024063       97.225662
 C        48.283333       86.895523       95.481071
 H        48.424103       87.925835       95.773041
 C        47.927158       86.650398       94.156624
 H        47.887226       87.425850       93.379730
 C        48.001362       85.329742       93.629311
 H        48.011070       85.236389       92.586105
 C        54.632389       83.109276       94.502060
 C        54.984596       83.301712       93.183304
 N        53.268394       82.676453       94.417274
 C        52.775284       82.752518       93.139603
 N        53.878483       83.088661       92.369896
 C        53.628311       83.254745       90.971489
 C        52.398335       82.666901       90.622505
 C        52.127300       82.439728       89.250847
 H        51.373100       81.727280       88.899124
 C        53.016369       82.831070       88.276932
 H        52.787796       82.502647       87.278038
 C        54.286919       83.383163       88.573235
 H        54.841499       83.748993       87.759529
 C        54.571999       83.654312       89.910690
 H        55.483452       84.235008       90.201477
 C        56.297623       83.780167       92.852478
 H        56.727264       83.461800       91.894272
 C        57.154415       84.166855       93.900803
 H        58.010044       84.774567       93.633041
 C        56.812775       83.899361       95.212189
 H        57.507233       84.060455       96.032349
 C        55.534233       83.309692       95.531136
 H        55.288170       83.265213       96.580742
 C        52.562279       82.483856       95.678116
 C        52.309277       83.602448       96.500885
 H        52.578011       84.600334       96.289001
 C        51.472435       83.455734       97.609070
 H        51.049637       84.286133       98.111343
 C        50.879406       82.188110       97.864319
 H        50.501892       82.038574       98.859314
 C        51.183571       81.110748       97.115593
 H        50.682148       80.193237       97.355698
 C        52.038612       81.221313       95.994705
 H        52.209450       80.245697       95.497528
