#MolI,MolJ,Strength_I,Strength_J,Constraint_I,Constraint_J,Overlap,CT_Energy(eV),Coupling(meV)
126,176,0.094105278545,-0.087950074632,-0.999952347086,1.000023655022,0.000002340631,0.0459619,0.0057912
94,118,0.092573241464,-0.045423453485,-1.000063823622,0.999901717134,0.001203608655,-0.0611898,1.5496
142,143,0.034471175389,-0.080214011579,-1.000055229884,0.999906298266,0.138179899809,0.174169,145.367
15,60,0.070382206873,-0.039727836241,-0.999900509186,0.999923897102,0.018061441529,-0.0558025,20.02
83,136,0.036725829005,-0.044854344470,-1.000090674799,0.999900543963,0.067285371523,-0.154047,60.3084
100,140,0.033350524242,-0.088076339198,-1.000009942655,0.999920297414,0.179642606257,0.208903,189.731
71,167,0.028359100781,-0.075051099382,-1.000010952145,1.000037502681,0.128003182088,0.329824,123.185
143,175,0.076818951038,-0.079930634355,-1.000078220928,1.000042990165,0.001553620251,-0.0187388,3.22972
54,63,0.069852294013,-0.029457638768,-0.999900106080,1.000040167846,0.041863982958,-0.221559,39.4369
99,134,0.093962826460,-0.086406821686,-0.999950987008,1.000076977854,0.000008113535,0.0314612,0.0198578
88,149,0.037953963426,-0.033635139316,-1.000030599741,1.000073182420,0.119137694922,0.0753255,120.453
61,108,0.085836363780,-0.036207676367,-1.000071180373,0.999900695434,0.159910013435,-0.0727985,170.562
3,117,0.038582442439,-0.056828728846,-0.999902744229,0.999900459779,0.009582193824,0.0354049,10.2706
4,12,0.040341865363,-0.070422121506,-1.000098263480,0.999900122870,0.064404019811,-0.122176,67.1079
8,78,0.034742254136,-0.063447485194,-0.999949847456,0.999900721902,0.134725252924,-0.0260456,128.061
182,184,0.081104803455,-0.085459735902,-0.999947293789,1.000068043597,0.000389767904,-0.196292,0.934391
49,51,0.039397695062,-0.049657645049,-0.999951791597,0.999909341200,0.076886336155,-0.0371379,79.2597
133,173,0.042696560428,-0.032887085248,-0.999900495534,1.000069322327,0.043535112997,-0.0626193,41.5506
132,135,0.059155213564,-0.063582819827,-0.995863580001,0.996139408810,0.000073526157,0.179975,0.122568
18,56,0.089366764705,-0.094020981294,-1.000043363443,0.999960670120,0.000000864464,-0.054975,0.0021112
30,63,0.074160648310,-0.032651617208,-0.999900385598,1.000038148218,0.054512649627,-0.0759719,50.7082
10,57,0.037277089995,-0.082623055719,-0.999908898509,0.999900272092,0.019448276649,0.131598,20.8909
15,161,0.028804623653,-0.051289067832,-1.000009268496,0.999902148340,0.038075503487,0.191559,33.3741
29,165,0.034446392261,-0.055232445483,-0.999996757188,0.999900337402,0.113369294046,0.127825,114.143
14,63,0.038496976455,-0.093804972214,-1.000093319281,1.000043179352,0.065673987619,-0.0881168,66.5856
113,152,0.055410433639,-0.036156466305,-0.999901622997,1.000043607871,0.116838717032,-0.0254347,117.807
27,68,0.032394426629,-0.062480299592,-1.000078883050,0.999901280909,0.180531216740,0.153521,178.34
62,113,0.084871946952,-0.088993347604,-1.000099302606,1.000076205856,0.000096414999,0.104569,0.228074
132,173,0.052092708475,-0.034101223740,-0.999900571785,0.999909731340,0.099071222948,-0.129103,97.6611
42,49,0.029531312787,-0.084034034588,-0.999933801704,0.999900882424,0.104795519969,0.312004,101.802
50,93,0.081863163853,-0.090104188478,-0.999977147524,0.999905718482,0.000097758104,0.1774,0.228692
43,51,0.085625152022,-0.034818155894,-0.999901058552,0.999976494098,0.053753983839,-0.0369138,52.0987
19,114,0.094380537320,-0.086720059023,-0.999974819991,1.000074664171,0.000007267861,0.0152575,0.0177984
14,47,0.074905344037,-0.054617731152,-1.000062977688,0.999901665153,0.000446610182,0.0793317,0.890823
11,19,0.032715592212,-0.083278995227,-1.000004366700,0.999901762304,0.183161205487,0.242861,193.981
15,72,0.027979401873,-0.055475609234,-1.000075955937,0.999901474687,0.074370678504,0.263584,69.4346
102,110,0.049354578246,-0.033641538253,-0.999900120337,1.000055190515,0.115845399146,-0.0667083,110.997
148,189,0.096388994633,-0.041576633008,-1.000032950339,0.999936176867,0.046675044165,0.0984543,50.9462
8,18,0.036097437217,-0.082318408729,-0.999937008816,1.000047465848,0.097637818635,-0.0775626,93.4447
84,149,0.034133114721,-0.065768785558,-0.999930381091,0.999901129289,0.160703083797,0.0585388,158.026
126,143,0.047638368092,-0.047391340765,-0.999901164980,0.999284844650,0.001855671796,-0.118581,2.30657
98,132,0.092563601328,-0.081104720856,-1.000065820923,1.000028922669,0.000029526172,0.0531477,0.0688211
2,121,0.090773529164,-0.081988997718,-0.999906671818,0.999984967990,0.000033272639,-0.104743,0.0780962
52,92,0.037179945044,-0.042656370921,-0.999902090136,0.999900942300,0.013360222450,0.0159157,13.701
98,107,0.041067546090,-0.032354722402,-0.999953502407,0.999997824225,0.077634102924,-0.0415675,74.5484
101,109,0.083892836653,-0.075021723530,-0.999951146049,0.999959705332,0.000737978578,-0.0928369,1.75265
67,192,0.043153777208,-0.090828656636,-0.999937240078,0.999965152076,0.034013875648,-0.119096,38.1976
50,166,0.075536356215,-0.030480199888,-0.999900388469,1.000063127528,0.131700760089,-0.177869,123.635
28,165,0.070923000600,-0.035774661266,-0.999900770056,0.999955575343,0.096683537318,0.0616614,92.4656
54,94,0.079590792747,-0.032821296236,-0.999900518308,1.000098175011,0.172641450480,-0.283683,185.057
24,72,0.053526811863,-0.036044250890,-0.999900801919,1.000013551336,0.110072242492,0.074671,105.361
173,187,0.091049987968,-0.090820374954,-1.000095845925,1.000020629907,0.000057956932,-0.0420183,0.143406
103,134,0.068641860593,-0.045718525984,-0.999900261327,0.999904569964,0.004776912951,-0.0426211,6.49748
12,174,0.038957608280,-0.044330042875,-0.999917966194,0.999900194936,0.068718206631,-0.0415526,71.7533
13,24,0.054957851953,-0.036539127377,-0.999900244909,1.000079382245,0.022428262404,0.0372106,21.9423
44,46,0.027068803506,-0.057459274657,-1.000080017268,0.999900810414,0.036015383019,0.29796,29.8822
68,116,0.044480850843,-0.034463198623,-1.000056496022,1.000080594463,0.109163742172,-0.0941945,117.779
46,52,0.038177487761,-0.086399359380,-0.999980758702,0.999906047052,0.104209949880,-0.0778322,104.878
95,103,0.031061838611,-0.085693370496,-1.000060032837,0.999901099336,0.170245709979,0.28114,176.167
107,129,0.087311946382,-0.084950546133,-1.000095239631,0.999965735496,0.001041311654,0.0414712,2.3988
137,139,0.043016296367,-0.079888937797,-0.999945707407,1.000081496284,0.035026479843,-0.14611,37.7609
178,188,0.039578565835,-0.067710087846,-0.999950228976,0.999900021003,0.099325078555,0.0451966,110.921
64,106,0.087953285654,-0.034682435331,-0.999922375414,1.000099476734,0.122213846882,0.0319463,115.993
100,108,0.046964110249,-0.035355677893,-0.999901976079,1.000083513077,0.075175172961,-0.0224102,71.9842
30,38,0.072164696166,-0.034825817264,-0.999900323092,0.999940460060,0.156031718293,-0.078302,158.347
60,68,0.094285831853,-0.088773194798,-1.000094070620,1.000058501126,0.000001349089,0.038254,0.00334608
73,153,0.071063070075,-0.057670529066,-0.996221369762,0.997129692075,0.000043710596,-0.108444,0.0750889
20,174,0.041744705142,-0.076246746025,-0.999985657607,1.000056234239,0.022339739727,-0.0446724,24.0854
6,15,0.038885844612,-0.045444657054,-0.999904321395,0.999900322773,0.038858066816,0.00631493,41.2373
45,53,0.036628490706,-0.084814537456,-0.999945148730,0.999900098237,0.115935360644,0.10322,123.62
31,62,0.032092001294,-0.033419280123,-0.999920243193,1.000096106850,0.158541866400,0.00225577,145.582
34,163,0.033614919642,-0.042769660418,-1.000086525153,0.999901032097,0.051307748536,-0.0368441,44.7123
171,180,0.040546745786,-0.034140252076,-0.999938255427,1.000005307337,0.120201772545,-0.0989452,121.404
157,196,0.086849505842,-0.092518548260,-1.000094637995,1.000028710377,0.000005224297,0.122783,0.0127546
86,95,0.090677396966,-0.030202464048,-0.999928621287,0.999938938830,0.158084220838,-0.402775,168.643
46,103,0.035350302109,-0.084925819951,-0.999959368889,0.999920023584,0.041173557118,-0.0656733,38.5061
116,156,0.033323329054,-0.087951113763,-0.999949645371,0.999912426563,0.156578225837,0.164483,160.531
23,79,0.034822223213,-0.031451325103,-1.000073279442,1.000099107127,0.035173502993,-0.16195,29.9726
69,117,0.078521280451,-0.031560054270,-0.999904093745,0.999930315772,0.121052387656,-0.18415,117.276
141,143,0.081601302367,-0.038925774090,-1.000063565922,0.999902709075,0.117472196866,0.0169228,125.663
11,51,0.087399222454,-0.088057761922,-1.000069097804,1.000035813420,0.000003374654,-0.0960428,0.00786422
23,113,0.043106618135,-0.050976954407,-0.999904388558,0.999900106475,0.005048698447,0.151893,6.28087
139,187,0.050079773781,-0.074226921304,-0.999903905325,1.000078423604,0.000890568361,-0.0115536,2.16801
68,73,0.043575680420,-0.036118762829,-0.999902508942,0.999973419832,0.080972222741,0.0104222,79.9078
86,87,0.036687829488,-0.037672917026,-0.999996552880,0.999919159683,0.098653864512,-0.100195,96.7408
93,135,0.039315070016,-0.067646999737,-0.999917293888,1.000034983760,0.008145566261,0.239615,9.63348
125,175,0.037047536881,-0.034472399236,-0.999946167211,1.000053383805,0.165785601550,-0.0173859,165.648
144,176,0.041337780820,-0.073488086451,-1.000066038615,0.999966140180,0.036917191029,0.171712,45.3902
105,111,0.085683943817,-0.092271845350,-0.999934904140,0.999922176176,0.000002161800,0.0229001,0.00521909
91,107,0.084029406266,-0.032576649312,-0.999900502897,1.000007963470,0.128192366994,-0.128239,124.977
32,188,0.093820360517,-0.093777739323,-0.999984597884,0.999964077650,0.000068064163,-0.0180515,0.173726
46,87,0.034987569629,-0.033413694933,-0.999975020951,1.000024241593,0.178714236549,-0.00064833,172.414
10,66,0.039212986238,-0.040621743384,-1.000010243863,0.999946919949,0.072558981846,0.0177714,79.3574
70,116,0.079441687887,-0.095154936287,-1.000081301925,1.000005224626,0.000017468958,-0.230691,0.0403418
70,165,0.057762058066,-0.079399284832,-0.999901328783,0.999916146185,0.000156286542,0.00811515,0.693123
145,147,0.084089180922,-0.082310193987,-1.000077957318,1.000094649627,0.000098729131,0.0433667,0.222178
92,187,0.086378157149,-0.034838645664,-1.000008096936,1.000003671936,0.052501090915,-0.0453699,51.3183
64,137,0.083854957756,-0.040261224739,-1.000057298419,1.000060685675,0.087333861733,-0.0587762,99.3426
53,78,0.089032081237,-0.084869476759,-0.999935466342,1.000090401930,0.000002921968,-0.103122,0.00691314
110,185,0.036682554023,-0.088871305254,-1.000094447936,0.999910760830,0.066109502304,-0.05092,64.6965
177,185,0.031145463315,-0.040689169768,-1.000099560933,0.999900065511,0.011458297241,0.125661,10.2229
22,98,0.096826936816,-0.085612290849,-1.000022754981,1.000041377067,0.000006893885,-0.0358606,0.0170668
13,72,0.030945027586,-0.078895241872,-1.000090624098,0.999901540869,0.023949266002,0.216484,22.8481
54,112,0.049470302717,-0.032367791751,-0.999901200830,1.000050375296,0.124516961731,-0.141196,119.09
111,191,0.050896869158,-0.050891551056,-0.999900049762,0.999900486527,0.000556013810,0.155166,0.761962
22,51,0.096114760907,-0.088504196943,-0.999920929297,1.000076093247,0.000010731209,0.0149698,0.0271499
152,185,0.035953257907,-0.082418976312,-0.999914890958,0.999900017482,0.096043022593,0.105862,100.451
52,118,0.087626178251,-0.035802668466,-0.999901326367,1.000069192192,0.121940588664,0.0384587,119.148
119,120,0.068854892223,-0.038778429300,-0.999900213846,0.999971042653,0.080582212661,-0.0813201,88.8691
22,116,0.067296974389,-0.084283895206,-1.000029167792,1.000000341303,0.002397726344,-0.0390953,4.28834
63,174,0.092701091459,-0.085219115317,-0.999912543970,1.000039796978,0.000030667542,0.136266,0.0737075
16,179,0.037252162100,-0.045933896225,-1.000098677847,0.999900251926,0.090739246996,0.0135044,93.0131
147,193,0.093035280096,-0.081328168790,-0.999947868339,1.000068848974,0.000038114844,-0.0612732,0.0903457
97,110,0.038559472048,-0.046229659096,-1.000067179701,0.999901449191,0.047538509524,0.146803,53.0991
98,194,0.084952490401,-0.088346764800,-1.000055760419,1.000092530504,0.000003138650,0.106794,0.00732847
47,104,0.081683719790,-0.040197298312,-1.000099450521,1.000098285706,0.098537682521,-0.122246,115.62
69,141,0.097128231433,-0.090575853169,-0.999968223044,1.000008723891,0.000027207494,-0.0338576,0.0695478
11,68,0.038153749954,-0.031189118285,-0.999903370047,1.000061279704,0.019822894944,0.0189073,15.0231
61,63,0.081721383973,-0.068435052496,-0.999909716805,0.999900113425,0.000918444117,0.0929965,1.83466
131,166,0.041753580370,-0.059636735844,-0.999954519948,0.999900318650,0.029403285125,-0.152092,31.0479
183,185,0.056349271353,-0.033957679669,-0.999901827700,1.000045152890,0.121272176095,0.0105193,113.113
89,137,0.028428026254,-0.084599511101,-0.999962027337,0.999993719082,0.054759330756,0.109644,45.6826
59,174,0.087651403903,-0.095141622873,-1.000067493172,0.999951088608,0.000002579119,-0.0516675,0.00638978
2,138,0.084006691799,-0.079024347543,-1.000024518975,0.999900249972,0.000440384498,-0.0582703,0.999438
131,178,0.090614320016,-0.080587976424,-0.999900200095,1.000057619960,0.000037588894,0.0525302,0.0677796
150,197,0.039135207091,-0.075308091675,-0.999904055245,0.999984772865,0.004253160321,0.102916,7.15299
