206
 generated by VMD
 Ir       64.304825      -92.259491       55.795856
 C        63.386471      -90.975220       51.738586
 C        62.251163      -91.613106       52.170177
 N        64.367485      -91.183762       52.724998
 C        63.885605      -91.919388       53.790291
 N        62.572018      -92.201271       53.413445
 C        61.822205      -92.980690       54.341286
 C        62.315014      -92.949211       55.663765
 C        61.513367      -93.465607       56.691772
 H        61.850052      -93.399910       57.711834
 C        60.280037      -94.057823       56.419582
 H        59.697586      -94.476089       57.225494
 C        59.813869      -94.140190       55.097763
 H        58.875603      -94.616592       54.874836
 C        60.591946      -93.608673       54.065781
 H        60.304958      -93.797813       53.036186
 C        61.091660      -91.556610       51.361874
 H        60.161552      -91.960312       51.718987
 C        61.105705      -90.877335       50.139542
 H        60.211296      -90.844528       49.530640
 C        62.272617      -90.240463       49.717979
 H        62.284386      -89.702171       48.777813
 C        63.418129      -90.282852       50.511951
 H        64.305832      -89.761246       50.200653
 C        65.739746      -90.756454       52.552658
 C        66.540833      -91.398758       51.598869
 H        66.200806      -92.313690       51.141827
 C        67.797638      -90.874725       51.271561
 H        68.413239      -91.375359       50.547607
 C        68.267349      -89.722496       51.912365
 H        69.253159      -89.342957       51.686455
 C        67.472916      -89.094299       52.873688
 H        67.870377      -88.261978       53.430618
 C        66.213913      -89.611778       53.188660
 H        65.656433      -89.179649       54.011757
 C        63.325947      -88.365997       57.339203
 C        63.717339      -89.078156       58.447376
 N        63.156193      -89.278114       56.286003
 C        63.533333      -90.559250       56.673512
 N        63.825016      -90.424438       58.021900
 C        64.154305      -91.638474       58.696648
 C        64.448669      -92.725464       57.848656
 C        64.839928      -93.947609       58.427006
 H        65.070511      -94.786156       57.795132
 C        64.945755      -94.092339       59.814255
 H        65.242294      -95.041946       60.229954
 C        64.648499      -93.012901       60.650650
 H        64.736465      -93.123962       61.718597
 C        64.249863      -91.796295       60.094994
 H        63.909859      -91.014641       60.756737
 C        64.047852      -88.373100       59.621330
 H        64.391228      -88.889336       60.501667
 C        64.002541      -86.979591       59.655556
 H        64.268776      -86.449417       60.545635
 C        63.615635      -86.269463       58.513092
 H        63.617775      -85.191345       58.525497
 C        63.266655      -86.958382       57.359097
 H        62.888561      -86.410904       56.501534
 C        62.294289      -88.997086       55.170906
 C        62.792618      -88.314384       54.058395
 H        63.825291      -88.003815       54.046837
 C        61.945854      -87.981461       53.000542
 H        62.356369      -87.538483       52.100681
 C        60.580780      -88.294449       53.062077
 H        59.930023      -88.014900       52.248833
 C        60.069099      -88.954468       54.189003
 H        59.009857      -89.081116       54.302872
 C        60.928516      -89.324181       55.233189
 H        60.539951      -89.900192       56.050457
 C        68.463478      -91.101929       55.513309
 C        68.365974      -92.281975       54.823692
 N        67.241806      -90.915527       56.170700
 C        66.342255      -91.928497       55.891220
 N        67.087196      -92.800476       55.101135
 C        66.495697      -94.085045       54.930500
 C        65.118286      -94.138519       55.196732
 C        64.477020      -95.376167       55.197624
 H        63.414452      -95.434784       55.388695
 C        65.186668      -96.558319       54.946194
 H        64.683350      -97.511360       54.959984
 C        66.558945      -96.511398       54.685513
 H        67.105087      -97.420937       54.478241
 C        67.214920      -95.268211       54.668716
 H        68.278282      -95.249886       54.520958
 C        69.425499      -92.675446       53.988171
 H        69.319450      -93.546654       53.366676
 C        70.566254      -91.879280       53.874569
 H        71.409660      -92.213676       53.287254
 C        70.650406      -90.676552       54.578602
 H        71.493126      -90.014816       54.463112
 C        69.595337      -90.290642       55.409317
 H        69.666794      -89.371590       55.965134
 C        67.146790      -90.015411       57.289124
 C        67.563354      -90.437347       58.546757
 H        67.724655      -91.484222       58.740536
 C        67.741173      -89.505592       59.576523
 H        68.097649      -89.819275       60.545761
 C        67.473724      -88.143333       59.350220
 H        67.604980      -87.427765       60.135857
 C        67.015289      -87.733475       58.093655
 H        66.638611      -86.729858       57.955910
 C        66.854385      -88.666245       57.060333
 H        66.476547      -88.343994       56.099457
 Ir       64.304825      -92.259491       66.557175
 C        61.909256      -94.650154       63.771954
 C        62.826637      -95.532890       64.282433
 N        62.214088      -93.375488       64.296463
 C        63.286713      -93.431442       65.169189
 N        63.661968      -94.783722       65.146538
 C        64.709869      -95.148994       66.045975
 C        64.928864      -94.219269       67.075409
 C        65.747063      -94.592484       68.149406
 H        65.846786      -93.935837       68.998550
 C        66.387978      -95.834496       68.178322
 H        67.070190      -96.066193       68.987022
 C        66.211578      -96.732506       67.117584
 H        66.750786      -97.666679       67.109177
 C        65.382423      -96.386482       66.055428
 H        65.373817      -97.013443       65.181450
 C        62.762177      -96.882141       63.910435
 H        63.440987      -97.615715       64.340057
 C        61.775887      -97.341080       63.032761
 H        61.776382      -98.364876       62.708359
 C        60.823112      -96.441193       62.545799
 H        59.992489      -96.793297       61.956322
 C        60.887573      -95.091949       62.917801
 H        60.126465      -94.414253       62.562370
 C        61.626434      -92.155296       63.768364
 C        61.626213      -91.937546       62.384785
 H        62.113697      -92.634094       61.725636
 C        60.935333      -90.840256       61.850433
 H        60.952293      -90.670273       60.786896
 C        60.229294      -89.974823       62.686821
 H        59.650959      -89.174767       62.266415
 C        60.229507      -90.192581       64.070396
 H        59.667183      -89.535301       64.722076
 C        60.933556      -91.269211       64.605247
 H        61.016384      -91.386826       65.678749
 C        61.787296      -92.765167       70.101410
 C        62.948257      -92.194542       70.569557
 N        61.873329      -92.814957       68.698273
 C        63.107719      -92.331764       68.247955
 N        63.739227      -91.925034       69.420586
 C        64.987823      -91.249817       69.264084
 C        65.564240      -91.373245       67.993607
 C        66.811028      -90.772614       67.765450
 H        67.305191      -90.889893       66.804642
 C        67.466759      -90.043007       68.764694
 H        68.433914      -89.604004       68.573654
 C        66.876358      -89.905472       70.020844
 H        67.405334      -89.400085       70.818436
 C        65.639801      -90.498550       70.267395
 H        65.146042      -90.269440       71.198303
 C        63.090405      -91.994186       71.946999
 H        64.041374      -91.685486       72.362312
 C        62.063438      -92.329697       72.835686
 H        62.173187      -92.144531       73.894821
 C        60.887798      -92.900322       72.353951
 H        60.075573      -93.130157       73.025352
 C        60.751602      -93.128891       70.984795
 H        59.842934      -93.572098       70.612122
 C        60.678406      -92.934273       67.884056
 C        60.528732      -94.008568       67.000549
 H        61.346001      -94.700523       66.868393
 C        59.326454      -94.198883       66.312057
 H        59.217415      -95.023247       65.634903
 C        58.256947      -93.313889       66.510628
 H        57.322567      -93.465935       65.989075
 C        58.389706      -92.238579       67.397697
 H        57.563644      -91.585899       67.583519
 C        59.596420      -92.055824       68.081390
 H        59.667969      -91.262161       68.813766
 C        63.545692      -88.174423       65.213272
 C        64.469597      -88.649483       64.318161
 N        63.292191      -89.183189       66.149605
 C        64.005501      -90.332611       65.850060
 N        64.729340      -89.996078       64.700012
 C        65.566177      -91.015121       64.163956
 C        65.779907      -92.092545       65.037155
 C        66.811424      -92.994682       64.747131
 H        67.024612      -93.805649       65.429543
 C        67.585289      -92.873795       63.587212
 H        68.392365      -93.567772       63.407177
 C        67.335701      -91.831131       62.693874
 H        67.862350      -91.785683       61.756866
 C        66.322479      -90.901794       62.978851
 H        66.024612      -90.218788       62.211266
 C        64.967819      -87.790421       63.323536
 H        65.775955      -88.091072       62.671284
 C        64.529633      -86.468376       63.252254
 H        65.022614      -85.768921       62.587170
 C        63.556519      -86.005394       64.141632
 H        63.158436      -84.998741       64.041733
 C        63.063431      -86.857910       65.130714
 H        62.299877      -86.494286       65.808411
 C        62.820854      -88.856743       67.468498
 C        63.717041      -88.312614       68.399338
 H        64.744057      -88.122528       68.114182
 C        63.285549      -88.010880       69.689903
 H        63.982719      -87.630486       70.423569
 C        61.953415      -88.245697       70.054436
 H        61.634666      -88.077057       71.075981
 C        61.057911      -88.775719       69.122849
 H        60.022049      -88.945152       69.388123
 C        61.482067      -89.077454       67.825485
 H        60.791557      -89.471954       67.099358
