206
 generated by VMD
  IR        51.509998       47.080002        2.710000
  C1        50.910000       42.680000        3.240000
  C2        50.040001       43.270000        4.040000
  N1        51.730000       43.759998        2.710000
  C3a       51.320000       45.020000        3.140000
  N2        50.250000       44.680000        3.970000
  C4        49.689999       45.799999        4.700000
  C5a       49.869999       47.029999        4.050000
  C6        48.900002       48.070000        4.250000
  H1        49.160000       49.090000        3.950000
  C7        47.799999       47.830002        5.090000
  H2        47.040001       48.590000        5.110000
  C8        47.700001       46.630001        5.810000
  H3        46.820000       46.330002        6.360000
  C9        48.709999       45.680000        5.630000
  H4        48.779999       44.880001        6.350000
  C10       49.049999       42.439999        4.620000
  H5        48.299999       42.959999        5.290000
  C11       48.849998       41.160000        4.260000
  H6        47.930000       40.660000        4.450000
  C12       49.759998       40.560001        3.420000
  H7        49.660000       39.480000        3.160000
  C13       50.810001       41.360001        2.910000
  H8        51.740002       40.950001        2.550000
  C6        52.700001       43.470001        1.680000
  C1        52.330002       43.040001        0.410000
  H1        51.290001       42.849998        0.220000
  C2        53.240002       42.919998       -0.630000
  H2        52.990002       42.340000       -1.530000
  C3        54.529999       43.270000       -0.400000
  H3        55.130001       43.189999       -1.290000
  C4        54.919998       43.619999        0.870000
  H4        56.029999       43.610001        1.000000
  C5        54.080002       43.709999        1.980000
  H5        54.419998       43.490002        3.040000
  C1        48.320000       47.919998       -0.150000
  C2        49.189999       48.889999       -0.310000
  N1        48.939999       47.000000        0.730000
  C3b       50.160000       47.439999        1.240000
  N2        50.209999       48.709999        0.670000
  C4        51.160000       49.660000        1.340000
  C5b       51.599998       49.200001        2.600000
  C6        52.150002       50.200001        3.450000
  H1        52.410000       49.990002        4.460000
  C7        52.349998       51.529999        3.010000
  H2        52.779999       52.290001        3.640000
  C8        51.930000       51.939999        1.760000
  H3        51.950001       53.000000        1.530000
  C9        51.439999       50.980000        0.850000
  H4        51.410000       51.060001       -0.250000
  C10       48.849998       49.950001       -1.200000
  H5        49.639999       50.529999       -1.650000
  C11       47.520000       49.990002       -1.740000
  H6        47.180000       50.869999       -2.390000
  C12       46.680000       48.900002       -1.620000
  H7        45.639999       48.900002       -1.990000
  C13       47.070000       47.860001       -0.780000
  H8        46.250000       47.320000       -0.350000
  C6        48.330002       45.689999        0.950000
  C1        48.419998       44.709999        0.000000
  H1        49.139999       44.889999       -0.820000
  C2        47.720001       43.549999        0.020000
  H2        47.930000       42.790001       -0.720000
  C3        46.840000       43.330002        1.060000
  H3        46.330002       42.369999        1.180000
  C4        46.700001       44.340000        2.030000
  H4        46.230000       44.150002        2.950000
  C5        47.380001       45.520000        2.010000
  H5        47.389999       46.180000        2.910000
  C1        55.330002       47.200001        0.480000
  C2        55.709999       47.139999        1.770000
  N1        53.910000       47.189999        0.400000
  C3c       53.349998       47.090000        1.760000
  N2        54.480000       47.169998        2.560000
  C4        54.150002       47.549999        3.910000
  C5c       52.880001       47.160000        4.320000
  C6        52.669998       47.330002        5.710000
  H1        51.779999       46.980000        6.060000
  C7        53.570000       47.939999        6.550000
  H2        53.509998       47.830002        7.660000
  C8        54.740002       48.439999        6.030000
  H3        55.180000       49.310001        6.550000
  C9        54.980000       48.220001        4.710000
  H4        55.770000       48.779999        4.310000
  C10       57.060001       46.980000        2.080000
  H5        57.310001       47.000000        3.120000
  C11       58.040001       47.290001        1.090000
  H6        59.110001       47.560001        1.310000
  C12       57.590000       47.450001       -0.300000
  H7        58.290001       47.509998       -1.160000
  C13       56.240002       47.320000       -0.560000
  H8        55.990002       47.540001       -1.590000
  C6        53.200001       47.320000       -0.830000
  C1        52.119999       46.520000       -1.120000
  H1        51.910000       45.849998       -0.340000
  C2        51.250000       46.799999       -2.230000
  H2        50.610001       46.020000       -2.650000
  C3        51.619999       47.950001       -2.970000
  H3        51.049999       48.209999       -3.890000
  C4        52.639999       48.779999       -2.610000
  H4        53.110001       49.470001       -3.370000
  C5        53.419998       48.480000       -1.560000
  H5        54.230000       49.160000       -1.380000
  IR        49.060001       54.180000        9.170000
  C1        51.090000       55.279999        5.490000
  C2        51.599998       56.119999        6.420000
  N1        50.020000       54.660000        6.080000
  C3a       49.830002       54.930000        7.400000
  N2        50.849998       55.860001        7.650000
  C4        51.080002       56.290001        8.940000
  C5a       50.470001       55.570000        9.930000
  C6        50.669998       55.950001       11.290000
  H1        50.040001       55.470001       12.080000
  C7        51.459999       57.070000       11.670000
  H2        51.570000       57.189999       12.690000
  C8        52.099998       57.770000       10.650000
  H3        52.540001       58.759998       10.800000
  C9        51.889999       57.389999        9.300000
  H4        52.310001       58.049999        8.620000
  C10       52.849998       56.779999        6.100000
  H5        53.240002       57.560001        6.660000
  C11       53.439999       56.520000        4.860000
  H6        54.049999       57.279999        4.380000
  C12       52.919998       55.560001        3.990000
  H7        53.570000       55.110001        3.280000
  C13       51.689999       54.990002        4.310000
  H8        50.990002       54.660000        3.500000
  C6        49.119999       53.910000        5.210000
  C1        47.759998       54.110001        5.330000
  H1        47.389999       54.939999        5.930000
  C2        46.779999       53.270000        4.760000
  H2        45.709999       53.470001        4.990000
  C3        47.240002       52.139999        3.990000
  H3        46.639999       51.250000        3.760000
  C4        48.590000       52.020000        3.780000
  H4        49.070000       51.400002        3.020000
  C5        49.529999       52.810001        4.450000
  H5        50.610001       52.470001        4.620000
  C1        51.980000       51.090000       10.020000
  C2        51.230000       51.119999       11.130000
  N1        51.480000       52.049999        9.180000
  C3b       50.360001       52.639999        9.650000
  N2        50.150002       51.990002       10.850000
  C4        49.070000       52.549999       11.680000
  C5b       48.500000       53.700001       11.190000
  C6        47.500000       54.279999       11.970000
  H1        47.099998       55.290001       11.810000
  C7        47.099998       53.660000       13.180000
  H2        46.189999       54.110001       13.640000
  C8        47.680000       52.480000       13.590000
  H3        47.259998       51.820000       14.360000
  C9        48.669998       51.880001       12.830000
  H4        49.139999       51.119999       13.380000
  C10       51.470001       50.299999       12.220000
  H5        51.060001       50.439999       13.220000
  C11       52.490002       49.340000       12.070000
  H6        52.740002       48.740002       12.990000
  C12       53.330002       49.330002       10.920000
  H7        54.189999       48.740002       10.920000
  C13       53.049999       50.160000        9.870000
  H8        53.709999       50.189999        8.950000
  C6        52.400002       52.669998        8.260000
  C1        52.689999       52.020000        7.080000
  H1        52.230000       51.110001        6.810000
  C2        53.830002       52.349998        6.330000
  H2        54.169998       51.560001        5.620000
  C3        54.660000       53.380001        6.790000
  H3        55.500000       53.549999        6.210000
  C4        54.389999       54.009998        7.990000
  H4        55.160000       54.750000        8.280000
  C5        53.270000       53.730000        8.740000
  H5        53.080002       54.340000        9.610000
  C1        45.610001       51.779999        8.260000
  C2        45.180000       53.080002        8.140000
  N1        46.970001       51.919998        8.520000
  C3c       47.389999       53.169998        8.580000
  N2        46.299999       53.919998        8.360000
  C4        46.430000       55.320000        8.430000
  C5c       47.590000       55.700001        9.060000
  C6        47.669998       56.959999        9.650000
  H1        48.439999       57.320000       10.340000
  C7        46.610001       57.810001        9.480000
  H2        46.900002       58.840000        9.740000
  C8        45.419998       57.470001        8.790000
  H3        44.509998       57.880001        8.940000
  C9        45.389999       56.200001        8.220000
  H4        44.590000       56.009998        7.520000
  C10       43.790001       53.349998        7.950000
  H5        43.439999       54.340000        8.050000
  C11       42.830002       52.340000        7.910000
  H6        41.820000       52.509998        8.160000
  C12       43.310001       51.000000        8.110000
  H7        42.560001       50.310001        8.220000
  C13       44.680000       50.720001        8.200000
  H8        45.070000       49.750000        8.270000
  C6        47.880001       50.810001        8.440000
  C1        48.880001       50.759998        7.490000
  H1        49.080002       51.669998        6.930000
  C2        49.779999       49.689999        7.480000
  H2        50.480000       49.610001        6.640000
  C3        49.770000       48.680000        8.470000
  H3        50.320000       47.770000        8.320000
  C4        48.759998       48.779999        9.440000
  H4        48.889999       48.000000       10.210000
  C5        47.860001       49.849998        9.440000
  H5        47.029999       49.849998       10.170000
