206
 generated by VMD
 Ir      -14.958650       -7.691071       62.561012
 C       -15.763800       -6.715412       66.697601
 C       -14.442563       -6.990227       66.635086
 N       -16.290192       -7.179381       65.536453
 C       -15.337935       -7.602620       64.588951
 N       -14.152249       -7.613342       65.373131
 C       -12.943403       -7.972758       64.650757
 C       -13.120737       -8.291092       63.333900
 C       -12.013411       -8.728668       62.597931
 H       -12.069847       -9.056583       61.573288
 C       -10.715370       -8.763191       63.143551
 H        -9.916930       -8.922220       62.406597
 C       -10.512444       -8.431740       64.510139
 H        -9.557519       -8.145927       64.864296
 C       -11.610643       -8.123619       65.267517
 H       -11.409800       -8.223420       66.348763
 C       -13.648489       -6.705200       67.870567
 H       -12.660869       -6.964580       67.959595
 C       -14.246700       -5.952630       68.892860
 H       -13.731588       -5.849530       69.815155
 C       -15.613192       -5.615170       68.881699
 H       -16.065390       -5.210938       69.771927
 C       -16.413019       -5.964648       67.772758
 H       -17.391870       -5.642035       67.688683
 C       -17.701090       -7.384166       65.399612
 C       -18.159098       -8.631616       65.399323
 H       -17.471443       -9.498322       65.475151
 C       -19.456194       -9.012320       65.004982
 H       -19.667660      -10.060442       64.768929
 C       -20.379353       -7.988705       64.675148
 H       -21.397669       -8.211911       64.441666
 C       -19.887669       -6.671462       64.714096
 H       -20.578979       -5.864377       64.456795
 C       -18.611229       -6.364127       65.051956
 H       -18.536701       -5.380494       65.526306
 C       -13.094905       -3.822018       61.671131
 C       -12.764352       -4.563276       60.574467
 N       -13.810116       -4.619873       62.565392
 C       -13.985466       -5.899411       62.110378
 N       -13.361069       -5.922349       60.831863
 C       -13.455601       -7.103382       60.045845
 C       -14.292995       -8.070006       60.564892
 C       -14.605707       -9.201552       59.755432
 H       -15.147102      -10.044025       60.123581
 C       -14.054005       -9.337840       58.457764
 H       -14.220541      -10.327442       57.939827
 C       -13.233141       -8.291878       57.944397
 H       -12.838567       -8.231393       56.997425
 C       -12.847713       -7.214612       58.772976
 H       -11.899288       -6.699034       58.627468
 C       -12.163130       -3.912157       59.514149
 H       -12.034440       -4.355192       58.541237
 C       -11.755480       -2.549000       59.600315
 H       -11.238889       -2.006518       58.825367
 C       -12.107801       -1.754051       60.675922
 H       -11.971912       -0.699919       60.625526
 C       -12.782831       -2.391464       61.752510
 H       -12.921334       -1.825533       62.687996
 C       -13.956877       -4.157240       63.986847
 C       -12.869166       -3.870877       64.684761
 H       -11.955540       -4.158221       64.332596
 C       -12.857986       -3.238768       65.923920
 H       -11.875057       -3.112848       66.392311
 C       -14.084919       -2.894237       66.484566
 H       -14.018871       -2.265033       67.360435
 C       -15.246716       -3.139438       65.735504
 H       -16.228331       -2.714863       65.909485
 C       -15.145142       -3.800769       64.528473
 H       -15.959957       -3.791815       63.897758
 C       -18.805586       -7.090539       60.774811
 C       -18.708279       -8.461432       60.963703
 N       -17.633572       -6.613805       61.153893
 C       -16.787260       -7.494298       61.690636
 N       -17.522009       -8.655260       61.560604
 C       -17.064636       -9.795367       62.426323
 C       -15.729599       -9.635985       62.853489
 C       -15.109015      -10.691924       63.546646
 H       -14.090586      -10.463926       63.678261
 C       -15.814695      -11.844011       63.817585
 H       -15.393547      -12.678629       64.359940
 C       -17.108229      -12.017100       63.350552
 H       -17.669428      -12.919195       63.525429
 C       -17.741789      -11.011868       62.641251
 H       -18.839745      -11.120584       62.601547
 C       -19.831408       -9.296089       60.585503
 H       -19.922312      -10.328738       60.625179
 C       -20.974499       -8.735972       59.980354
 H       -21.842318       -9.347503       59.693436
 C       -21.094429       -7.325134       59.907188
 H       -21.860090       -6.915288       59.260052
 C       -19.993372       -6.522684       60.230839
 H       -20.045809       -5.416080       60.166996
 C       -17.352842       -5.221387       60.989990
 C       -17.936785       -4.200325       61.789330
 H       -18.740810       -4.379542       62.533928
 C       -17.552116       -2.846085       61.686577
 H       -18.176395       -2.177526       62.151230
 C       -16.546600       -2.548096       60.784832
 H       -16.280502       -1.529705       60.556198
 C       -15.976799       -3.495201       60.055710
 H       -15.404634       -3.156130       59.255547
 C       -16.318989       -4.827369       60.185074
 H       -15.894815       -5.505472       59.570538
 Ir      -14.958651       -7.691071       75.173447
 C       -18.195772       -8.345292       78.095871
 C       -17.382328       -9.469101       78.202942
 N       -17.602751       -7.474658       77.114578
 C       -16.450348       -8.038742       76.622055
 N       -16.291477       -9.262980       77.353905
 C       -15.264517      -10.100307       76.897461
 C       -14.619230       -9.742069       75.742920
 C       -13.624178      -10.602060       75.228447
 H       -13.336998      -10.425239       74.157249
 C       -13.211494      -11.694996       75.833244
 H       -12.556170      -12.371881       75.258286
 C       -13.719513      -12.053235       77.088074
 H       -13.015386      -12.518578       77.785538
 C       -14.788280      -11.288095       77.550880
 H       -15.268919      -11.489975       78.496994
 C       -17.785410      -10.537137       79.025932
 H       -17.403879      -11.508240       78.876625
 C       -18.906788      -10.415145       79.798096
 H       -19.058933      -11.215278       80.531876
 C       -19.669733       -9.271659       79.774460
 H       -20.540083       -9.271306       80.423386
 C       -19.303156       -8.191095       78.916679
 H       -19.935083       -7.335738       78.967987
 C       -18.431654       -6.546406       76.401443
 C       -19.214613       -7.000281       75.303322
 H       -19.124191       -8.062072       75.010025
 C       -19.974648       -6.025487       74.580673
 H       -20.572111       -6.488944       73.821960
 C       -19.851141       -4.665393       74.886276
 H       -20.425793       -3.946523       74.316711
 C       -18.972485       -4.217449       75.870346
 H       -19.058252       -3.188454       76.089470
 C       -18.248037       -5.146330       76.675629
 H       -17.663963       -4.824265       77.486565
 C       -11.354012       -6.669733       77.579514
 C       -10.950627       -6.617535       76.298401
 N       -12.753078       -7.147763       77.579041
 C       -13.262806       -7.291946       76.242523
 N       -12.094436       -7.037515       75.507751
 C       -12.203894       -7.458437       74.148849
 C       -13.517433       -7.587381       73.658340
 C       -13.665531       -7.850217       72.267563
 H       -14.567586       -7.914669       71.739319
 C       -12.550409       -7.979357       71.436157
 H       -12.614943       -8.139643       70.405655
 C       -11.260141       -7.927984       72.009369
 H       -10.350158       -7.937292       71.424866
 C       -11.133097       -7.715853       73.378113
 H       -10.144355       -7.804068       73.702942
 C        -9.720507       -6.095909       75.919861
 H        -9.396810       -6.155922       74.900391
 C        -8.816197       -5.632450       76.902733
 H        -8.089339       -4.930155       76.602806
 C        -9.225615       -5.721647       78.242966
 H        -8.458756       -5.563599       79.007126
 C       -10.514697       -6.183612       78.549637
 H       -11.000710       -5.967319       79.537018
 C       -13.321621       -7.878221       78.645477
 C       -12.792503       -9.068956       79.141754
 H       -12.105473       -9.579978       78.472549
 C       -13.330595       -9.681309       80.302139
 H       -12.942667      -10.549313       80.703491
 C       -14.425553       -9.083841       80.953369
 H       -14.744225       -9.473618       81.932053
 C       -15.008749       -7.896091       80.429413
 H       -15.793989       -7.395791       80.944870
 C       -14.475266       -7.305222       79.309242
 H       -15.035480       -6.631085       78.719925
 C       -16.161865       -3.759727       73.870804
 C       -16.898382       -4.607972       73.082054
 N       -15.339791       -4.455344       74.695007
 C       -15.477695       -5.881658       74.392166
 N       -16.445953       -5.946621       73.361206
 C       -16.759985       -7.184997       72.807846
 C       -16.386639       -8.222515       73.703827
 C       -16.834482       -9.521810       73.418396
 H       -16.726048      -10.184122       74.253189
 C       -17.557642       -9.797292       72.238419
 H       -17.789251      -10.919411       72.114700
 C       -17.910973       -8.747245       71.348938
 H       -18.558254       -8.942839       70.488899
 C       -17.500431       -7.446773       71.685440
 H       -17.925694       -6.708185       71.063950
 C       -17.829330       -4.094909       72.237366
 H       -18.011992       -4.650743       71.317703
 C       -18.089886       -2.697228       72.238029
 H       -18.599977       -2.165625       71.461433
 C       -17.403341       -1.812610       73.095184
 H       -17.528227       -0.735855       73.096619
 C       -16.310280       -2.338755       73.819679
 H       -15.879045       -1.677264       74.585556
 C       -14.296597       -3.855833       75.572517
 C       -13.009038       -3.599046       75.081444
 H       -12.760562       -3.323210       74.046280
 C       -12.032326       -3.332441       76.066917
 H       -10.999693       -3.417551       75.789192
 C       -12.262234       -3.202083       77.415710
 H       -11.439746       -3.245051       78.103729
 C       -13.566221       -3.431416       77.827560
 H       -13.928568       -3.269990       78.832123
 C       -14.562326       -3.706389       76.902542
 H       -15.568586       -3.991140       77.211975
