206
 generated by VMD
 Ir        0.093704        0.641930       -7.936429
 C         3.502274       -2.130802       -7.728271
 C         3.364845       -1.649359       -6.457395
 N         2.515453       -1.500054       -8.515512
 C         1.732956       -0.639625       -7.765939
 N         2.261356       -0.752892       -6.481041
 C         1.527191       -0.097715       -5.449800
 C         0.639603        0.889090       -5.903008
 C         0.060532        1.748610       -4.967112
 H        -0.554420        2.571371       -5.298008
 C         0.297501        1.588882       -3.596111
 H        -0.208652        2.233529       -2.883629
 C         1.135921        0.571385       -3.136596
 H         1.292278        0.421332       -2.077381
 C         1.749626       -0.276738       -4.064096
 H         2.247898       -1.158252       -3.708060
 C         4.230003       -2.115220       -5.451724
 H         4.243088       -1.672364       -4.463436
 C         5.180466       -3.109882       -5.735390
 H         5.835892       -3.474850       -4.954289
 C         5.290955       -3.612373       -7.033309
 H         5.986263       -4.411430       -7.244615
 C         4.456627       -3.113186       -8.032770
 H         4.555244       -3.497290       -9.037528
 C         2.437550       -1.701687       -9.944942
 C         2.777699       -0.667619      -10.822212
 H         3.002838        0.313762      -10.427242
 C         2.809692       -0.881546      -12.199936
 H         3.032364       -0.065866      -12.867903
 C         2.485229       -2.143570      -12.721302
 H         2.482773       -2.309273      -13.784241
 C         2.147797       -3.187284      -11.854013
 H         1.887592       -4.160771      -12.246086
 C         2.126446       -2.966344      -10.470167
 H         1.990616       -3.803082       -9.798364
 C        -3.162270       -1.994253       -6.672167
 C        -3.788216       -0.854867       -7.101692
 N        -1.770947       -1.761967       -6.759768
 C        -1.494167       -0.498126       -7.235057
 N        -2.758121        0.065959       -7.431832
 C        -2.753696        1.473654       -7.729280
 C        -1.470337        2.047124       -7.775177
 C        -1.367767        3.443394       -7.854595
 H        -0.390179        3.905505       -7.845732
 C        -2.498535        4.258299       -7.917019
 H        -2.382408        5.336194       -7.965557
 C        -3.770306        3.687461       -7.910601
 H        -4.646210        4.318156       -7.976317
 C        -3.899574        2.296454       -7.823471
 H        -4.879486        1.866800       -7.914439
 C        -5.196270       -0.811751       -7.104497
 H        -5.737350        0.015394       -7.519788
 C        -5.942001       -1.901886       -6.633748
 H        -7.024906       -1.838632       -6.587856
 C        -5.295959       -3.049169       -6.181118
 H        -5.857311       -3.832354       -5.696560
 C        -3.899204       -3.106317       -6.207903
 H        -3.393242       -3.997477       -5.870514
 C        -0.791897       -2.678622       -6.219302
 C        -0.593021       -2.767303       -4.847157
 H        -1.176388       -2.162114       -4.167573
 C         0.405228       -3.611163       -4.341787
 H         0.571476       -3.681404       -3.276878
 C         1.196243       -4.363708       -5.213379
 H         1.974411       -5.015461       -4.823158
 C         0.989006       -4.272393       -6.590340
 H         1.618835       -4.837243       -7.266251
 C         0.004101       -3.431166       -7.099561
 H        -0.084080       -3.246037       -8.154147
 C        -0.318871        0.394890      -12.258461
 C         0.369164        1.561296      -12.047037
 N        -0.716934       -0.086647      -10.999147
 C        -0.248295        0.721017       -9.979416
 N         0.411766        1.744516      -10.649462
 C         1.149406        2.638994       -9.821032
 C         1.481693        2.110023       -8.568248
 C         2.443127        2.760659       -7.784079
 H         2.800842        2.293098       -6.874341
 C         2.995117        3.972721       -8.204801
 H         3.673584        4.498851       -7.537357
 C         2.601311        4.541163       -9.412230
 H         2.988136        5.514675       -9.697260
 C         1.676559        3.885264      -10.221437
 H         1.252331        4.392296      -11.077156
 C         0.939178        2.229621      -13.149683
 H         1.488087        3.149592      -13.018347
 C         0.823330        1.706981      -14.439423
 H         1.217392        2.247258      -15.285656
 C         0.137897        0.496720      -14.637808
 H         0.059681        0.069658      -15.628971
 C        -0.435909       -0.149677      -13.537348
 H        -0.942062       -1.087193      -13.690229
 C        -1.818996       -1.016226      -10.860435
 C        -3.099739       -0.531978      -10.593805
 H        -3.259029        0.524885      -10.466265
 C        -4.177849       -1.415071      -10.533609
 H        -5.171181       -1.044866      -10.309231
 C        -3.983578       -2.779781      -10.744854
 H        -4.823414       -3.465557      -10.720583
 C        -2.697842       -3.264030      -11.020153
 H        -2.545437       -4.307732      -11.232424
 C        -1.616356       -2.383569      -11.066866
 H        -0.625309       -2.763421      -11.292561
 Ir        0.093704        0.641930        7.294094
 C         2.735561        2.614882       10.141653
 C         2.598614        3.513941        9.105146
 N         2.113087        1.417784        9.737202
 C         1.541931        1.548594        8.473845
 N         1.869362        2.849261        8.096937
 C         1.282745        3.307213        6.893909
 C         0.109127        2.624122        6.564519
 C        -0.755878        3.196105        5.616629
 H        -1.727806        2.745406        5.437947
 C        -0.413208        4.375751        4.960038
 H        -1.101357        4.830177        4.263944
 C         0.811295        5.012357        5.237946
 H         1.081055        5.913098        4.700927
 C         1.664806        4.471948        6.202299
 H         2.651886        4.877044        6.308932
 C         3.109364        4.812802        9.260676
 H         2.977428        5.551344        8.480902
 C         3.744133        5.195946       10.445271
 H         4.180122        6.191359       10.523155
 C         3.860458        4.289874       11.492984
 H         4.276791        4.602010       12.436457
 C         3.349709        2.991010       11.337452
 H         3.397991        2.316499       12.172923
 C         2.457527        0.155627       10.339300
 C         3.230370       -0.758302        9.618787
 H         3.591866       -0.511827        8.626885
 C         3.579895       -1.986251       10.189199
 H         4.095451       -2.722120        9.597507
 C         3.183949       -2.298520       11.495882
 H         3.495544       -3.230888       11.940616
 C         2.411098       -1.384588       12.216392
 H         2.081955       -1.629313       13.215380
 C         2.053207       -0.154008       11.641165
 H         1.462730        0.552052       12.201271
 C        -3.526974        1.726210        9.502258
 C        -3.978786        0.947486        8.469131
 N        -2.129726        1.840095        9.360380
 C        -1.680244        1.137590        8.257586
 N        -2.837692        0.594839        7.706739
 C        -2.651737       -0.133069        6.486875
 C        -1.384884        0.029095        5.912251
 C        -1.184410       -0.409379        4.596899
 H        -0.261848       -0.154218        4.089484
 C        -2.199100       -1.057383        3.885918
 H        -2.026131       -1.384484        2.866270
 C        -3.446629       -1.268663        4.483208
 H        -4.238674       -1.730762        3.923457
 C        -3.669903       -0.812646        5.785432
 H        -4.559357       -1.138851        6.300366
 C        -5.360222        0.685389        8.377806
 H        -5.776295        0.129424        7.549863
 C        -6.255211        1.213413        9.328012
 H        -7.323032        1.045131        9.221053
 C        -5.777126        2.006166       10.364723
 H        -6.457096        2.430687       11.092546
 C        -4.406334        2.261248       10.449923
 H        -4.040089        2.893522       11.260723
 C        -1.360764        2.824911       10.079913
 C        -1.176197        4.091400        9.516932
 H        -1.559925        4.305494        8.534531
 C        -0.503628        5.077981       10.238674
 H        -0.337475        6.042753        9.792012
 C        -0.010643        4.798076       11.514727
 H         0.512115        5.573310       12.069472
 C        -0.186848        3.528958       12.082524
 H         0.215218        3.312228       13.052406
 C        -0.859421        2.542377       11.360783
 H        -0.993454        1.553043       11.779776
 C         0.357929       -3.623283        8.242321
 C         1.389484       -3.404949        7.359188
 N        -0.272202       -2.383951        8.456528
 C         0.321819       -1.377982        7.725394
 N         1.365353       -2.020933        7.056842
 C         2.225410       -1.177243        6.294220
 C         1.671738        0.073514        5.987062
 C         2.306316        0.862858        5.025426
 H         1.811943        1.756653        4.648559
 C         3.491016        0.449680        4.403518
 H         3.949844        1.065372        3.652250
 C         4.056004       -0.787046        4.740263
 H         4.904007       -1.151079        4.189934
 C         3.432484       -1.588671        5.696729
 H         3.957035       -2.456155        6.056349
 C         2.180836       -4.489925        6.949319
 H         2.916725       -4.390845        6.161381
 C         1.949230       -5.769559        7.462149
 H         2.547527       -6.611576        7.125773
 C         0.913349       -5.980880        8.377411
 H         0.712852       -6.968449        8.746610
 C         0.112976       -4.900285        8.759008
 H        -0.702118       -5.059867        9.443665
 C        -1.453133       -2.225131        9.265222
 C        -2.663700       -2.773148        8.845333
 H        -2.724968       -3.293181        7.898547
 C        -3.815220       -2.629240        9.636339
 H        -4.749565       -3.047483        9.306217
 C        -3.745537       -1.930302       10.853355
 H        -4.640221       -1.789041       11.446045
 C        -2.534966       -1.382286       11.273242
 H        -2.467621       -0.874531       12.223532
 C        -1.383446       -1.526193       10.482238
 H        -0.463444       -1.058830       10.781026
