206
 generated by VMD
 Ir       75.158478       24.587791      106.173172
 C        73.415405       20.768501      105.177711
 C        73.463760       21.447987      103.949806
 N        73.680878       21.745174      106.166779
 C        73.957672       22.944633      105.700203
 N        73.847656       22.799389      104.318253
 C        74.149719       23.967857      103.483307
 C        75.024460       24.868519      104.083504
 C        75.413216       25.936890      103.303925
 H        76.044464       26.727772      103.725632
 C        74.990662       26.117809      101.975159
 H        75.466255       26.824753      101.224335
 C        74.101196       25.223751      101.418999
 H        73.556366       25.421329      100.512344
 C        73.693726       24.127102      102.205650
 H        72.912308       23.506653      101.785370
 C        73.315300       20.733753      102.849243
 H        73.468643       21.245880      101.965385
 C        72.976318       19.399021      102.836197
 H        72.868958       18.852062      101.919563
 C        72.888298       18.740841      104.072617
 H        72.675018       17.687805      104.104767
 C        73.148666       19.396835      105.264755
 H        73.286079       18.776882      106.175728
 C        73.446892       21.432430      107.550079
 C        74.565781       21.303318      108.411362
 H        75.581207       21.684753      108.042023
 C        74.358963       20.751476      109.673859
 H        75.125465       20.746193      110.380569
 C        73.061447       20.399441      110.064812
 H        72.975220       19.732323      110.874016
 C        71.929428       20.570782      109.224594
 H        70.932358       20.436531      109.612946
 C        72.120270       21.115463      107.975990
 H        71.481125       21.064926      107.156754
 C        78.953514       22.514587      105.916237
 C        79.283989       23.802258      106.312714
 N        77.618591       22.525364      105.565865
 C        76.981598       23.764088      105.723358
 N        78.097946       24.595345      106.119568
 C        77.807411       25.967014      106.254906
 C        76.429413       26.262012      106.390182
 C        76.099075       27.626701      106.533691
 H        75.049576       27.783928      106.817657
 C        77.085968       28.690163      106.497551
 H        76.768295       29.683559      106.349037
 C        78.389984       28.368183      106.284813
 H        79.154312       29.115051      106.203583
 C        78.740295       27.045544      106.164391
 H        79.796082       26.799946      106.166000
 C        80.492462       24.128822      106.885826
 H        80.725769       25.178513      107.119751
 C        81.468506       23.153389      107.038368
 H        82.423859       23.397152      107.543808
 C        81.290474       21.823483      106.565239
 H        82.082855       21.042202      106.527328
 C        80.014740       21.525940      105.958466
 H        79.890900       20.512997      105.567177
 C        77.169403       21.477242      104.710014
 C        76.929291       20.227638      105.214539
 H        76.817657       20.010056      106.283875
 C        76.896858       19.120354      104.404739
 H        76.555222       18.155239      104.816742
 C        76.986504       19.186100      103.037468
 H        77.016731       18.274929      102.357719
 C        77.109070       20.458122      102.481194
 H        77.269447       20.611977      101.399109
 C        77.119156       21.621784      103.315926
 H        76.805855       22.539539      102.989479
 C        74.738258       24.275188      110.516472
 C        73.580093       24.789360      109.988472
 N        75.651520       24.241867      109.405411
 C        75.086365       24.675835      108.258949
 N        73.833778       25.087597      108.627548
 C        73.220474       25.942635      107.765137
 C        73.350388       25.618671      106.444809
 C        72.636070       26.277966      105.437195
 H        72.613663       25.964989      104.436668
 C        71.756027       27.289135      105.795044
 H        71.221352       27.851776      105.102692
 C        71.594269       27.627052      107.143509
 H        71.111664       28.531887      107.364113
 C        72.275612       26.947380      108.095467
 H        72.127396       27.289761      109.073120
 C        72.366348       25.048271      110.697266
 H        71.397354       24.988529      110.184647
 C        72.339859       24.600716      112.033936
 H        71.720444       25.075565      112.775116
 C        73.449425       23.888947      112.548073
 H        73.492157       23.578239      113.653488
 C        74.634468       23.749950      111.875275
 H        75.561508       23.653961      112.417664
 C        76.995178       24.515953      109.588821
 C        77.899963       23.485817      109.616745
 H        77.499954       22.535114      109.450745
 C        79.240501       23.702782      109.846283
 H        79.997787       22.947739      109.990257
 C        79.707520       25.014729      109.937363
 H        80.742752       25.252708      109.725586
 C        78.839752       26.065430      109.948250
 H        79.152458       27.027119      110.408112
 C        77.444687       25.848091      109.770920
 H        76.800064       26.700451      109.720421
 Ir       75.158478       24.587788      120.662430
 C        79.479362       24.135117      120.104378
 C        79.259277       25.462032      119.822662
 N        78.260422       23.536079      120.422417
 C        77.266083       24.557381      120.574776
 N        77.893944       25.713490      120.043640
 C        77.005890       26.808659      119.895752
 C        75.664131       26.434837      119.771072
 C        74.739624       27.343655      119.262016
 H        74.076286       27.016537      118.517052
 C        75.139435       28.660618      118.968826
 H        74.419815       29.333416      118.595474
 C        76.499367       28.998432      119.139038
 H        76.888283       29.843624      118.683632
 C        77.431969       28.089989      119.614418
 H        78.382172       28.407608      119.864082
 C        80.275726       26.345188      119.482849
 H        80.204597       27.393658      119.358551
 C        81.581955       25.788116      119.410568
 H        82.389381       26.397293      119.005630
 C        81.831566       24.462135      119.604385
 H        82.872322       24.020050      119.487381
 C        80.767700       23.670612      119.987259
 H        80.905380       22.681782      120.413223
 C        78.018509       22.219116      120.652603
 C        77.507607       21.413620      119.642082
 H        77.467400       21.751865      118.596954
 C        77.245514       20.061024      119.902649
 H        77.083267       19.442989      119.037369
 C        77.449348       19.521275      121.168953
 H        77.153473       18.474289      121.317894
 C        77.891052       20.298306      122.221909
 H        78.024475       20.030762      123.230835
 C        78.226051       21.657692      121.955185
 H        78.551773       22.346241      122.771461
 C        74.782043       26.139080      124.656761
 C        73.521278       26.072735      124.222412
 N        75.599487       25.993378      123.521446
 C        74.875648       25.678436      122.382027
 N        73.598099       25.658062      122.822998
 C        72.563660       25.377636      121.876534
 C        73.064934       24.965855      120.650421
 C        72.395676       24.906193      119.431931
 H        72.778961       24.662060      118.422775
 C        71.106110       25.562992      119.438057
 H        70.583702       25.718334      118.506630
 C        70.585472       26.059990      120.642647
 H        69.632957       26.531841      120.603027
 C        71.303993       25.914146      121.876656
 H        70.772629       26.124874      122.784523
 C        72.416107       26.173870      125.068382
 H        71.543327       26.600964      124.608002
 C        72.651352       26.212223      126.467377
 H        71.800629       26.434765      127.114555
 C        73.957169       26.285370      126.906693
 H        74.211288       26.101368      127.975227
 C        75.028442       26.220791      125.975784
 H        76.026672       26.127216      126.291840
 C        77.001762       26.425247      123.500969
 C        78.041100       25.494282      123.461372
 H        77.914604       24.452969      123.657005
 C        79.398590       25.878231      123.328651
 H        80.099289       25.107273      123.060982
 C        79.807419       27.176781      123.381844
 H        80.891678       27.396908      123.454811
 C        78.764229       28.149986      123.438789
 H        78.962982       29.203205      123.397224
 C        77.408203       27.724533      123.494209
 H        76.586952       28.450928      123.405815
 C        73.406136       20.561260      121.586441
 C        73.231773       20.798183      120.205116
 N        74.107056       21.769211      121.993866
 C        74.408470       22.663883      120.995415
 N        73.787949       22.093658      119.872070
 C        74.344894       22.501865      118.650558
 C        75.177956       23.663197      118.768562
 C        75.868652       24.098572      117.585434
 H        76.550392       24.900333      117.674980
 C        75.830109       23.314007      116.409569
 H        76.565338       23.440430      115.607841
 C        75.010330       22.187565      116.324829
 H        74.896866       21.711872      115.365959
 C        74.281479       21.746143      117.439346
 H        73.554176       20.981682      117.208618
 C        72.547302       19.899010      119.407196
 H        72.265533       20.174271      118.404274
 C        72.061935       18.705784      120.025604
 H        71.380760       18.087383      119.397842
 C        72.371429       18.440392      121.367828
 H        71.939529       17.614643      121.985329
 C        73.008072       19.346363      122.207779
 H        73.241226       19.163109      123.223778
 C        74.052238       22.105637      123.421455
 C        75.228348       22.141106      124.102341
 H        76.197266       22.121098      123.616447
 C        75.197090       22.131176      125.508018
 H        76.157143       21.874332      125.890297
 C        73.978470       22.220215      126.231583
 H        74.076340       22.326759      127.313286
 C        72.813599       22.291084      125.524872
 H        71.821434       22.183632      126.033470
 C        72.851006       22.195049      124.107628
 H        71.895691       22.206192      123.575325
