206
 generated by VMD
  IR         0.340000       -0.545000       39.389999
  C1         1.110000       -2.375000       35.500000
  C2        -0.160000       -2.865000       35.970001
  N1         1.560000       -1.555000       36.540001
  C3a        0.640000       -1.565000       37.590000
  N2        -0.370000       -2.415000       37.279999
  C4        -1.330000       -2.725000       38.310001
  C5a       -1.350000       -1.805000       39.340000
  C6        -2.420000       -1.805000       40.139999
  H1        -2.510000       -1.035000       40.919998
  C7        -3.500000       -2.715000       40.110001
  H2        -4.380000       -2.535000       40.730000
  C8        -3.420000       -3.755000       39.130001
  H3        -4.230000       -4.355000       38.869999
  C9        -2.330000       -3.785000       38.250000
  H4        -2.490000       -4.435000       37.439999
  C10       -0.900000       -3.645000       35.189999
  H5        -1.960000       -3.935000       35.389999
  C11       -0.450000       -3.995000       33.849998
  H6        -1.030000       -4.675000       33.220001
  C12        0.770000       -3.505000       33.369999
  H7         1.090000       -3.605000       32.380001
  C13        1.530000       -2.705000       34.180000
  H8         2.510000       -2.395000       33.910000
  C6         2.410000       -0.415000       36.150002
  C1         3.800000       -0.705000       35.950001
  H1         4.150000       -1.705000       35.720001
  C2         4.720000        0.365000       35.740002
  H2         5.740000        0.065000       35.369999
  C3         4.260000        1.675000       35.810001
  H3         4.920000        2.475000       35.820000
  C4         2.890000        1.905000       36.029999
  H4         2.490000        2.875000       35.970001
  C5         1.970000        0.875000       36.180000
  H5         1.010000        1.095000       36.650002
  C1        -2.290000        2.785000       38.410000
  C2        -1.990000        2.905000       39.810001
  N1        -1.760000        1.635000       37.959999
  C3b       -1.050000        0.945000       38.980000
  N2        -1.330000        1.735000       40.139999
  C4        -1.060000        1.115000       41.389999
  C5b       -0.020000        0.175000       41.320000
  C6         0.590000       -0.325000       42.459999
  H1         1.570000       -0.715000       42.459999
  C7         0.120000        0.105000       43.730000
  H2         0.570000       -0.285000       44.650002
  C8        -0.970000        0.965000       43.830002
  H3        -1.530000        0.855000       44.770000
  C9        -1.530000        1.525000       42.660000
  H4        -2.350000        2.185000       42.750000
  C10       -2.400000        3.985000       40.490002
  H5        -1.920000        4.055000       41.439999
  C11       -3.160000        4.955000       39.880001
  H6        -3.440000        5.875000       40.349998
  C12       -3.450000        4.835000       38.529999
  H7        -3.910000        5.545000       37.919998
  C13       -3.050000        3.775000       37.750000
  H8        -3.310000        3.685000       36.709999
  C6        -2.170000        0.895000       36.790001
  C1        -3.280000        0.015000       36.910000
  H1        -4.070000        0.225000       37.630001
  C2        -3.560000       -0.835000       35.919998
  H2        -4.290000       -1.615000       36.110001
  C3        -2.750000       -0.865000       34.799999
  H3        -3.150000       -1.265000       33.900002
  C4        -1.630000       -0.025000       34.680000
  H4        -0.940000       -0.175000       33.820000
  C5        -1.390000        0.955000       35.660000
  H5        -0.840000        1.815000       35.369999
  C1         4.170000        1.535000       39.509998
  C2         4.480000        0.175000       39.450001
  N1         2.770000        1.695000       39.470001
  C3c        2.170000        0.435000       39.619999
  N2         3.260000       -0.475000       39.520000
  C4         3.020000       -1.855000       39.599998
  C5c        1.660000       -2.035000       40.080002
  C6         1.270000       -3.175000       40.820000
  H1         0.270000       -3.085000       41.279999
  C7         2.230000       -4.155000       41.080002
  H2         2.020000       -4.815000       41.889999
  C8         3.490000       -4.055000       40.610001
  H3         4.160000       -4.865000       40.799999
  C9         3.880000       -2.915000       39.869999
  H4         4.920000       -2.855000       39.639999
  C10        5.790000       -0.215000       39.130001
  H5         6.130000       -1.235000       39.150002
  C11        6.850000        0.675000       38.930000
  H6         7.760000        0.385000       38.380001
  C12        6.570000        2.055000       38.970001
  H7         7.360000        2.815000       38.970001
  C13        5.240000        2.425000       39.320000
  H8         5.140000        3.525000       39.250000
  C6         2.110000        2.935000       39.869999
  C1         2.030000        3.255000       41.189999
  H1         2.410000        2.675000       41.910000
  C2         1.390000        4.355000       41.619999
  H2         1.460000        4.535000       42.680000
  C3         0.790000        5.275000       40.680000
  H3         0.330000        6.105000       41.130001
  C4         0.900000        5.005000       39.310001
  H4         0.270000        5.595000       38.610001
  C5         1.560000        3.825000       38.939999
  H5         1.830000        3.795000       37.910000
  IR         3.050000       10.230000       36.990002
  C1         6.540000       10.510000       39.480000
  C2         6.480000        9.270000       39.020000
  N1         5.320000       11.080000       39.020000
  C3a        4.510000       10.220000       38.389999
  N2         5.190000        9.100000       38.459999
  C4         4.570000        7.920000       37.910000
  C5a        3.550000        8.180000       37.040001
  C6         3.040000        7.160000       36.230000
  H1         2.230000        7.340000       35.580002
  C7         3.630000        5.940000       36.240002
  H2         3.240000        5.190000       35.560001
  C8         4.610000        5.600000       37.150002
  H3         5.080000        4.660000       37.279999
  C9         5.100000        6.600000       37.950001
  H4         5.860000        6.330000       38.639999
  C10        7.620000        8.440000       39.189999
  H5         7.680000        7.550000       38.619999
  C11        8.760000        8.930000       39.779999
  H6         9.580000        8.260000       39.900002
  C12        8.860000       10.250000       40.130001
  H7         9.870000       10.760000       40.310001
  C13        7.740000       11.120000       39.959999
  H8         7.830000       12.210000       40.020000
  C6         4.750000       12.120000       39.910000
  C1         4.570000       13.440000       39.459999
  H1         5.150000       13.790000       38.619999
  C2         3.810000       14.360000       40.169998
  H2         3.490000       15.320000       39.799999
  C3         3.360000       13.930000       41.439999
  H3         2.720000       14.620000       41.950001
  C4         3.520000       12.700000       41.939999
  H4         3.350000       12.540000       43.040001
  C5         4.210000       11.770000       41.220001
  H5         4.700000       10.940000       41.730000
  C1         5.550000       10.730000       33.349998
  C2         4.220000       10.820000       32.959999
  N1         5.440000       10.490000       34.709999
  C3b        4.160000       10.430000       35.189999
  N2         3.400000       10.670000       34.060001
  C4         2.040000       10.480000       34.200001
  C5b        1.620000        9.980000       35.470001
  C6         0.240000        9.720000       35.669998
  H1        -0.130000        9.260000       36.480000
  C7        -0.720000       10.020000       34.680000
  H2        -1.730000        9.970000       34.910000
  C8        -0.250000       10.420000       33.430000
  H3        -0.930000       10.870000       32.799999
  C9         1.090000       10.670000       33.189999
  H4         1.360000       11.360000       32.340000
  C10        4.010000       10.790000       31.510000
  H5         2.990000       11.110000       31.200001
  C11        5.030000       10.640000       30.590000
  H6         4.820000       10.800000       29.570000
  C12        6.320000       10.590000       31.020000
  H7         7.150000       10.450000       30.320000
  C13        6.610000       10.620000       32.360001
  H8         7.670000       10.490000       32.689999
  C6         6.660000       10.230000       35.509998
  C1         7.320000       11.370000       35.820000
  H1         6.790000       12.200000       36.180000
  C2         8.670000       11.300000       35.980000
  H2         9.180000       12.200000       36.279999
  C3         9.350000       10.100000       35.930000
  H3        10.370000        9.970000       36.220001
  C4         8.640000        8.900000       35.669998
  H4         9.250000        8.020000       35.509998
  C5         7.270000        8.960000       35.500000
  H5         6.700000        8.130000       35.080002
  C1         1.690000       14.370000       37.439999
  C2         0.900000       13.700000       38.279999
  N1         2.500000       13.460000       36.720001
  C3c        2.300000       12.150000       37.180000
  N2         1.210000       12.360000       38.060001
  C4         0.990000       11.280000       38.869999
  C5c        1.700000       10.120000       38.610001
  C6         1.400000        8.970000       39.290001
  H1         1.840000        8.000000       38.990002
  C7         0.460000        8.940000       40.290001
  H2         0.520000        8.200000       41.070000
  C8        -0.290000       10.080000       40.540001
  H3        -1.010000       10.160000       41.310001
  C9        -0.070000       11.240000       39.759998
  H4        -0.840000       11.960000       39.759998
  C10       -0.030000       14.410000       39.070000
  H5        -0.690000       14.020000       39.820000
  C11        0.100000       15.810000       39.060001
  H6        -0.650000       16.360001       39.619999
  C12        0.910000       16.510000       38.189999
  H7         0.880000       17.610001       38.080002
  C13        1.740000       15.790000       37.380001
  H8         2.730000       16.070000       36.980000
  C6         2.990000       13.710000       35.290001
  C1         2.060000       13.740000       34.240002
  H1         0.980000       13.850000       34.439999
  C2         2.490000       13.950000       32.939999
  H2         1.720000       14.280000       32.240002
  C3         3.860000       14.040000       32.650002
  H3         4.130000       14.020000       31.639999
  C4         4.800000       13.930000       33.680000
  H4         5.820000       13.680000       33.500000
  C5         4.350000       13.820000       35.000000
  H5         5.100000       13.810000       35.730000
