206
 generated by VMD
 Ir       30.084372      121.806404       -8.526510
 C        30.953384      119.339134       -5.095239
 C        30.827934      118.419769       -6.149199
 N        30.457693      120.566292       -5.596229
 C        30.098782      120.542793       -6.862575
 N        30.328026      119.223747       -7.250611
 C        30.070400      118.870163       -8.651432
 C        30.180031      119.947350       -9.525648
 C        30.038929      119.649933      -10.864279
 H        30.041904      120.451881      -11.611712
 C        29.823719      118.347275      -11.347677
 H        29.948685      118.017433      -12.427164
 C        29.690842      117.306061      -10.454355
 H        29.294043      116.343475      -10.726135
 C        29.831161      117.596130       -9.081884
 H        29.611197      116.783722       -8.400841
 C        31.292683      117.199272       -5.954799
 H        31.286148      116.585770       -6.785806
 C        31.758644      116.735352       -4.744736
 H        32.132427      115.736534       -4.628325
 C        31.838512      117.653412       -3.686207
 H        32.242912      117.345039       -2.739228
 C        31.481375      118.982086       -3.848671
 H        31.779755      119.697693       -3.053711
 C        30.201931      121.649635       -4.686810
 C        31.036070      122.794495       -4.749411
 H        31.715240      122.921188       -5.663569
 C        30.955772      123.719681       -3.710772
 H        31.460995      124.629555       -3.773003
 C        30.026886      123.518417       -2.682684
 H        30.186844      124.050461       -1.789019
 C        29.155014      122.398254       -2.639218
 H        28.350517      122.356461       -1.922253
 C        29.223866      121.478058       -3.659312
 H        28.872700      120.498840       -3.655882
 C        34.368023      122.424637       -8.712534
 C        33.855103      123.218887       -9.727713
 N        33.335438      121.632675       -8.252695
 C        32.103043      121.852341       -8.883522
 N        32.483055      122.815544       -9.894478
 C        31.462925      123.172600      -10.797831
 C        30.153988      122.872559      -10.349659
 C        29.103899      123.220947      -11.226038
 H        28.113178      123.138542      -10.758617
 C        29.324371      123.806091      -12.535692
 H        28.540745      123.804321      -13.239775
 C        30.601381      124.003189      -12.959719
 H        30.823853      124.389450      -13.934353
 C        31.640450      123.693146      -12.116621
 H        32.636017      124.012909      -12.402271
 C        34.559341      124.249397      -10.308733
 H        34.127224      124.803551      -11.155600
 C        35.868443      124.495644       -9.917555
 H        36.424133      125.353874      -10.344461
 C        36.542130      123.676704       -8.969040
 H        37.626911      123.733688       -8.724693
 C        35.772835      122.598938       -8.393894
 H        36.300869      121.951569       -7.689196
 C        33.698154      120.441727       -7.557782
 C        34.108177      120.500137       -6.253112
 H        33.953445      121.368446       -5.600895
 C        34.835102      119.485641       -5.682778
 H        35.020741      119.494766       -4.594958
 C        35.107456      118.303741       -6.323663
 H        35.754288      117.477318       -5.885660
 C        34.598209      118.162094       -7.613278
 H        34.830151      117.284042       -8.242186
 C        33.817543      119.204971       -8.208229
 H        33.110077      119.025925       -8.925474
 C        29.166405      125.486511       -6.346461
 C        28.029394      124.722809       -6.438437
 N        30.120155      124.806396       -7.181562
 C        29.617149      123.679230       -7.728002
 N        28.305380      123.663086       -7.336337
 C        27.480810      122.878494       -8.081648
 C        27.993843      121.656807       -8.412384
 C        27.220551      120.656815       -9.014242
 H        27.548309      119.670944       -9.156124
 C        25.881798      120.913177       -9.273121
 H        25.253975      120.237457       -9.753792
 C        25.330246      122.152199       -8.927685
 H        24.397732      122.401436       -9.338291
 C        26.097584      123.085220       -8.316893
 H        25.618530      123.996529       -8.129721
 C        26.775303      124.988899       -5.806733
 H        26.107761      124.164871       -5.522728
 C        26.771259      126.071411       -4.903489
 H        25.875874      126.633514       -4.701449
 C        27.980598      126.756271       -4.637875
 H        27.996962      127.689423       -3.967597
 C        29.138651      126.541954       -5.337367
 H        29.853207      127.339149       -5.466551
 C        31.030777      125.521782       -7.938654
 C        32.333656      125.616753       -7.521428
 H        32.563457      125.088371       -6.649994
 C        33.265434      126.358391       -8.213221
 H        34.275734      126.572937       -7.900860
 C        32.902912      126.932854       -9.432304
 H        33.650539      127.172935      -10.178370
 C        31.612085      126.891190       -9.867205
 H        31.254427      127.655388      -10.589828
 C        30.627104      126.176872       -9.129332
 H        29.638498      126.110977       -9.532961
 Ir       30.084370      121.806404        4.357410
 C        32.584965      120.743011        0.897928
 C        32.653473      119.673424        1.712902
 N        31.817835      121.790268        1.598543
 C        31.423397      121.318634        2.781120
 N        31.901855      119.979996        2.837842
 C        31.417549      119.160942        4.031408
 C        30.813190      119.984619        5.000379
 C        30.728317      119.422028        6.312173
 H        30.628967      120.013214        7.218610
 C        31.125290      118.082321        6.496797
 H        30.942518      117.765640        7.493396
 C        31.647833      117.237396        5.515396
 H        32.233116      116.320976        5.707815
 C        31.852085      117.847473        4.269889
 H        32.508022      117.319687        3.549692
 C        33.311760      118.523460        1.188365
 H        33.393631      117.561096        1.707834
 C        33.770157      118.447830       -0.147242
 H        34.157566      117.518486       -0.553223
 C        33.687962      119.589378       -0.946885
 H        33.834629      119.484070       -2.030211
 C        33.123753      120.792656       -0.497225
 H        32.733681      121.560532       -1.213885
 C        31.907421      123.188751        1.272481
 C        30.743702      123.897858        0.897468
 H        29.962290      123.354530        0.388860
 C        30.773857      125.294441        0.853298
 H        30.033424      125.885048        0.420928
 C        31.986408      125.944633        1.140996
 H        31.954910      127.038673        1.183242
 C        33.104328      125.179604        1.502784
 H        34.052341      125.723763        1.725833
 C        33.085056      123.825287        1.580041
 H        34.065907      123.359009        1.448102
 C        26.486107      119.661110        2.956417
 C        26.215935      120.024780        4.282215
 N        27.894527      120.005203        2.703340
 C        28.478128      120.590668        3.854831
 N        27.397823      120.594826        4.788171
 C        27.828922      121.065010        6.070621
 C        28.927490      121.905418        6.107475
 C        29.170937      122.561073        7.278181
 H        29.704979      123.498260        7.204828
 C        28.545738      122.337128        8.462021
 H        28.947815      122.802689        9.388191
 C        27.549053      121.346992        8.501333
 H        27.161236      120.908249        9.431177
 C        27.168163      120.739426        7.308357
 H        26.441265      119.974289        7.367401
 C        24.861050      119.994987        4.699464
 H        24.620426      120.411270        5.700517
 C        23.881748      119.361420        3.942064
 H        23.067932      118.970657        4.488332
 C        24.200409      118.850388        2.685796
 H        23.315752      118.420807        2.099075
 C        25.492184      119.096878        2.160572
 H        25.688744      118.909874        1.113817
 C        28.613159      119.228783        1.705917
 C        28.866346      119.800743        0.565544
 H        28.604908      120.858101        0.470378
 C        29.477030      119.217392       -0.534214
 H        29.416386      119.746017       -1.425328
 C        29.817394      117.838860       -0.465727
 H        30.308636      117.346588       -1.264754
 C        29.477755      117.184967        0.708017
 H        29.949760      116.207413        0.825412
 C        28.881586      117.809280        1.811113
 H        28.905617      117.332901        2.789569
 C        28.741768      125.945221        4.162933
 C        30.001774      126.034973        4.501199
 N        28.451023      124.632591        3.711076
 C        29.509983      123.806648        4.058248
 N        30.513113      124.755699        4.465215
 C        31.788298      124.208076        4.860208
 C        31.729992      122.824547        5.196161
 C        32.889900      122.167694        5.635639
 H        32.765118      121.162346        5.963676
 C        34.066883      122.839737        5.749967
 H        34.929214      122.267769        6.112379
 C        34.161022      124.163651        5.360504
 H        35.146812      124.590744        5.358022
 C        33.048222      124.806854        4.883686
 H        33.250782      125.755211        4.527317
 C        30.479105      127.240143        5.010828
 H        31.564108      127.351746        5.272968
 C        29.649248      128.309845        5.289352
 H        30.081978      129.101105        5.979764
 C        28.294449      128.218781        4.989978
 H        27.636114      128.941772        5.392076
 C        27.832199      127.007324        4.432050
 H        26.803963      126.806313        4.600938
 C        27.587708      124.379105        2.578060
 C        27.601368      125.246010        1.496309
 H        28.295715      126.095451        1.443031
 C        26.583271      125.235931        0.595874
 H        26.785788      125.758736       -0.319964
 C        25.479309      124.479233        0.813510
 H        24.722614      124.545731        0.113084
 C        25.458584      123.593681        1.885135
 H        24.655724      122.785210        2.027553
 C        26.461601      123.610046        2.833868
 H        26.413754      123.076202        3.691780
