206
 generated by VMD
  IR        51.459999       32.430000       16.490000
  C1        47.669998       34.070000       15.240000
  C2        47.340000       32.799999       15.740000
  N1        49.080002       34.080002       15.120000
  C3a       49.680000       32.990002       15.550000
  N2        48.630001       32.169998       15.960000
  C4        48.970001       30.870001       16.549999
  C5a       50.230000       30.840000       17.139999
  C6        50.560001       29.670000       17.790001
  H1        51.560001       29.540001       18.219999
  C7        49.689999       28.570000       17.889999
  H2        49.810001       27.700001       18.610001
  C8        48.459999       28.620001       17.270000
  H3        47.849998       27.750000       17.100000
  C9        48.110001       29.809999       16.600000
  H4        47.189999       29.780001       16.030001
  C10       46.070000       32.560001       16.010000
  H5        45.880001       31.660000       16.480000
  C11       45.040001       33.419998       15.700000
  H6        44.020000       33.189999       15.940000
  C12       45.380001       34.669998       15.160000
  H7        44.610001       35.389999       14.950000
  C13       46.700001       35.040001       14.960000
  H8        46.910000       36.110001       14.750000
  C6        49.720001       35.139999       14.390000
  C1        50.500000       36.080002       15.110000
  H1        50.790001       35.830002       16.190001
  C2        50.900002       37.240002       14.450000
  H2        51.570000       37.900002       14.900000
  C3        50.570000       37.410000       13.100000
  H3        50.619999       38.389999       12.720000
  C4        49.830002       36.450001       12.360000
  H4        49.730000       36.540001       11.290000
  C5        49.430000       35.299999       13.000000
  H5        48.680000       34.639999       12.710000
  C1        50.849998       34.730000       20.110001
  C2        52.099998       34.150002       20.270000
  N1        50.270000       34.150002       19.000000
  C3b       51.070000       33.200001       18.350000
  N2        52.209999       33.150002       19.240000
  C4        53.180000       32.180000       18.920000
  C5b       53.110001       31.700001       17.590000
  C6        54.070000       30.730000       17.230000
  H1        54.090000       30.530001       16.150000
  C7        55.049999       30.200001       18.160000
  H2        55.560001       29.309999       17.920000
  C8        55.029999       30.629999       19.450001
  H3        55.700001       30.240000       20.190001
  C9        54.119999       31.590000       19.820000
  H4        54.230000       32.040001       20.799999
  C10       53.029999       34.599998       21.180000
  H5        53.980000       34.060001       21.309999
  C11       52.709999       35.650002       22.030001
  H6        53.470001       36.049999       22.730000
  C12       51.419998       36.250000       22.040001
  H7        51.060001       36.990002       22.790001
  C13       50.470001       35.740002       21.080000
  H8        49.470001       36.180000       21.110001
  C6        48.849998       34.230000       18.900000
  C1        48.250000       35.389999       18.490000
  H1        48.779999       36.209999       17.990000
  C2        46.930000       35.650002       18.760000
  H2        46.439999       36.520000       18.290001
  C3        46.090000       34.740002       19.350000
  H3        45.009998       34.959999       19.629999
  C4        46.639999       33.500000       19.670000
  H4        46.070000       32.730000       20.219999
  C5        48.009998       33.209999       19.370001
  H5        48.349998       32.259998       19.200001
  C1        54.020000       35.360001       14.490000
  C2        53.720001       34.349998       13.610000
  N1        53.500000       34.900002       15.750000
  C3c       52.889999       33.700001       15.650000
  N2        53.090000       33.320000       14.350000
  C4        52.950001       31.990000       14.100000
  C5c       51.880001       31.400000       14.710000
  C6        51.480000       30.090000       14.420000
  H1        50.590000       29.660000       14.770000
  C7        52.189999       29.370001       13.470000
  H2        51.980000       28.379999       13.230000
  C8        53.279999       29.959999       12.820000
  H3        53.930000       29.330000       12.290000
  C9        53.619999       31.240000       13.100000
  H4        54.470001       31.590000       12.600000
  C10       54.049999       34.310001       12.220000
  H5        53.410000       33.770000       11.510000
  C11       54.619999       35.490002       11.700000
  H6        55.279999       35.470001       10.850000
  C12       54.759998       36.619999       12.540000
  H7        55.290001       37.570000       12.170000
  C13       54.529999       36.590000       13.890000
  H8        55.070000       37.250000       14.550000
  C6        54.169998       35.169998       16.930000
  C1        53.709999       36.160000       17.760000
  H1        52.830002       36.630001       17.450001
  C2        54.369999       36.500000       18.920000
  H2        54.139999       37.330002       19.570000
  C3        55.470001       35.740002       19.320000
  H3        55.770000       35.700001       20.360001
  C4        55.980000       34.770000       18.510000
  H4        57.040001       34.459999       18.629999
  C5        55.340000       34.450001       17.280001
  H5        55.730000       33.639999       16.700001
  IR        46.189999       41.590000        9.120000
  C1        45.970001       39.840000       13.150000
  C2        44.689999       39.919998       12.740000
  N1        46.810001       40.480000       12.120000
  C3a       46.029999       40.889999       11.120000
  N2        44.709999       40.500000       11.480000
  C4        43.650002       40.700001       10.400000
  C5a       44.139999       41.500000        9.350000
  C6        43.139999       42.110001        8.530000
  H1        43.310001       43.000000        7.930000
  C7        41.790001       41.770000        8.750000
  H2        41.160000       42.230000        8.030000
  C8        41.310001       40.910000        9.740000
  H3        40.270000       40.880001       10.110000
  C9        42.290001       40.430000       10.620000
  H4        41.939999       39.980000       11.570000
  C10       43.720001       39.299999       13.580000
  H5        42.650002       39.230000       13.350000
  C11       44.070000       38.540001       14.720000
  H6        43.320000       37.980000       15.270000
  C12       45.410000       38.500000       15.110000
  H7        45.720001       37.750000       15.850000
  C13       46.430000       39.139999       14.390000
  H8        47.500000       38.820000       14.480000
  C6        48.130001       40.990002       12.380000
  C1        49.230000       40.500000       11.640000
  H1        49.189999       39.480000       11.290000
  C2        50.450001       41.180000       11.690000
  H2        51.349998       40.799999       11.330000
  C3        50.549999       42.310001       12.520000
  H3        51.490002       42.869999       12.470000
  C4        49.419998       42.740002       13.230000
  H4        49.529999       43.639999       13.880000
  C5        48.220001       42.110001       13.170000
  H5        47.590000       42.270000       14.050000
  C1        45.930000       37.740002        6.970000
  C2        45.779999       38.730000        5.990000
  N1        45.930000       38.430000        8.270000
  C3b       45.799999       39.830002        8.090000
  N2        45.730000       39.959999        6.670000
  C4        45.490002       41.320000        6.290000
  C5b       45.889999       42.310001        7.170000
  C6        45.910000       43.590000        6.700000
  H1        46.599998       44.270000        7.180000
  C7        45.410000       44.009998        5.510000
  H2        45.320000       45.099998        5.310000
  C8        44.820000       43.049999        4.670000
  H3        44.169998       43.299999        3.820000
  C9        44.889999       41.709999        5.040000
  H4        44.410000       41.009998        4.410000
  C10       45.970001       38.340000        4.640000
  H5        45.990002       39.139999        3.870000
  C11       46.009998       37.000000        4.270000
  H6        45.680000       36.790001        3.290000
  C12       45.990002       36.009998        5.250000
  H7        46.110001       34.939999        4.860000
  C13       46.049999       36.400002        6.610000
  H8        46.259998       35.660000        7.370000
  C6        45.459999       37.689999        9.430000
  C1        46.349998       37.290001       10.290000
  H1        47.380001       37.619999       10.130000
  C2        46.119999       36.520000       11.420000
  H2        46.959999       36.119999       11.880000
  C3        44.799999       36.049999       11.660000
  H3        44.560001       35.480000       12.520000
  C4        43.849998       36.389999       10.710000
  H4        42.820000       36.220001       11.030000
  C5        44.110001       37.189999        9.590000
  H5        43.290001       37.660000        9.050000
  C1        50.240002       42.849998        8.130000
  C2        49.820000       43.759998        8.970000
  N1        49.369999       41.730000        8.150000
  C3c       48.209999       42.090000        8.820000
  N2        48.580002       43.349998        9.410000
  C4        47.580002       43.990002       10.230000
  C5c       46.259998       43.509998        9.990000
  C6        45.180000       44.070000       10.690000
  H1        44.209999       43.740002       10.400000
  C7        45.380001       45.070000       11.590000
  H2        44.490002       45.470001       12.090000
  C8        46.660000       45.500000       11.890000
  H3        46.750000       46.200001       12.700000
  C9        47.730000       44.930000       11.250000
  H4        48.639999       45.250000       11.620000
  C10       50.520000       44.959999        9.070000
  H5        50.200001       45.740002        9.810000
  C11       51.570000       45.279999        8.230000
  H6        51.849998       46.380001        8.190000
  C12       52.000000       44.349998        7.290000
  H7        52.650002       44.669998        6.520000
  C13       51.310001       43.119999        7.230000
  H8        51.360001       42.630001        6.290000
  C6        49.860001       40.369999        8.090000
  C1        51.049999       40.040001        8.720000
  H1        51.610001       40.770000        9.320000
  C2        51.700001       38.889999        8.400000
  H2        52.470001       38.599998        9.090000
  C3        51.270000       38.119999        7.370000
  H3        51.830002       37.279999        7.150000
  C4        50.070000       38.430000        6.740000
  H4        49.540001       37.730000        6.000000
  C5        49.410000       39.610001        7.020000
  H5        48.610001       39.930000        6.490000
