206
 generated by VMD
  IR        15.510000       34.139999       58.029999
  C1        13.600000       34.080002       54.029999
  C2        14.300000       32.889999       54.160000
  N1        13.880000       34.779999       55.259998
  C3a       14.600000       34.049999       56.209999
  N2        14.790000       32.810001       55.500000
  C4        14.950000       31.650000       56.439999
  C5a       15.580000       32.020000       57.669998
  C6        15.780000       31.000000       58.610001
  H1        16.219999       31.420000       59.439999
  C7        15.500000       29.670000       58.380001
  H2        15.730000       28.900000       59.130001
  C8        14.830000       29.330000       57.180000
  H3        14.510000       28.270000       56.869999
  C9        14.590000       30.309999       56.209999
  H4        14.220000       30.110001       55.189999
  C10       14.600000       32.220001       52.990002
  H5        15.500000       31.490000       52.980000
  C11       14.060000       32.520000       51.799999
  H6        14.350000       32.080002       50.880001
  C12       13.240000       33.650002       51.689999
  H7        12.850000       33.880001       50.720001
  C13       13.040000       34.520000       52.799999
  H8        12.150000       35.169998       52.830002
  C6        13.120000       35.889999       55.660000
  C1        11.730000       35.980000       55.580002
  H1        11.250000       35.110001       55.410000
  C2        11.070000       37.230000       55.700001
  H2        10.070000       37.410000       55.330002
  C3        11.820000       38.380001       55.910000
  H3        11.380000       39.299999       56.180000
  C4        13.230000       38.279999       55.990002
  H4        13.860000       39.169998       55.990002
  C5        13.820000       37.060001       55.889999
  H5        14.850000       37.070000       55.570000
  C1        12.520000       32.570000       60.880001
  C2        13.620000       32.790001       61.619999
  N1        12.800000       33.099998       59.610001
  C3b       14.120000       33.570000       59.500000
  N2        14.600000       33.430000       60.799999
  C4        15.910000       33.869999       61.020000
  C5b       16.690001       33.990002       59.779999
  C6        18.030001       34.369999       59.930000
  H1        18.670000       34.459999       59.060001
  C7        18.530001       34.689999       61.209999
  H2        19.570000       34.880001       61.360001
  C8        17.719999       34.689999       62.340000
  H3        18.040001       34.980000       63.380001
  C9        16.389999       34.250000       62.259998
  H4        15.740000       34.250000       63.160000
  C10       13.590000       32.340000       62.959999
  H5        14.210000       32.790001       63.680000
  C11       12.600000       31.480000       63.389999
  H6        12.640000       30.980000       64.389999
  C12       11.550000       31.139999       62.480000
  H7        11.040000       30.190001       62.669998
  C13       11.490000       31.709999       61.220001
  H8        10.690000       31.440001       60.520000
  C6        11.890000       33.119999       58.490002
  C1        12.020000       32.139999       57.560001
  H1        12.790000       31.350000       57.580002
  C2        11.000000       31.950001       56.639999
  H2        10.950000       31.010000       56.130001
  C3         9.900000       32.779999       56.610001
  H3         9.140000       32.680000       55.810001
  C4         9.750000       33.810001       57.560001
  H4         8.900000       34.509998       57.680000
  C5        10.790000       33.930000       58.529999
  H5        10.510000       34.279999       59.549999
  C1        15.220000       38.299999       58.619999
  C2        16.379999       38.189999       57.980000
  N1        14.740000       37.029999       58.889999
  C3c       15.610000       36.130001       58.570000
  N2        16.670000       36.830002       57.910000
  C4        17.610001       36.080002       57.169998
  C5c       17.230000       34.750000       56.910000
  C6        17.959999       33.980000       56.060001
  H1        17.670000       32.910000       55.720001
  C7        19.129999       34.459999       55.459999
  H2        19.639999       33.880001       54.709999
  C8        19.590000       35.770000       55.740002
  H3        20.330000       36.200001       55.110001
  C9        18.780001       36.630001       56.590000
  H4        19.350000       37.540001       56.840000
  C10       16.969999       39.290001       57.439999
  H5        18.030001       39.279999       57.119999
  C11       16.330000       40.540001       57.570000
  H6        16.820000       41.459999       57.410000
  C12       15.120000       40.709999       58.169998
  H7        14.740000       41.580002       58.639999
  C13       14.520000       39.509998       58.730000
  H8        13.550000       39.549999       59.119999
  C6        13.540000       36.869999       59.689999
  C1        13.640000       36.770000       61.080002
  H1        14.640000       36.860001       61.509998
  C2        12.530000       36.889999       61.889999
  H2        12.670000       36.830002       62.959999
  C3        11.290000       37.099998       61.299999
  H3        10.400000       37.209999       61.910000
  C4        11.160000       37.290001       59.930000
  H4        10.240000       37.520000       59.490002
  C5        12.270000       37.169998       59.119999
  H5        12.230000       36.939999       58.150002
  IR        26.570000       31.299999       48.540001
  C1        25.190001       33.070000       44.770000
  C2        25.700001       34.139999       45.490002
  N1        25.230000       31.850000       45.580002
  C3a       25.790001       32.230000       46.840000
  N2        26.059999       33.590000       46.700001
  C4        26.540001       34.169998       47.950001
  C5a       26.629999       33.369999       49.060001
  C6        26.910000       33.950001       50.290001
  H1        27.160000       33.299999       51.110001
  C7        27.150000       35.290001       50.410000
  H2        27.500000       35.669998       51.340000
  C8        27.049999       36.060001       49.310001
  H3        27.120001       37.150002       49.299999
  C9        26.760000       35.570000       48.029999
  H4        26.430000       36.160000       47.220001
  C10       25.809999       35.470001       44.869999
  H5        26.400000       36.279999       45.169998
  C11       25.270000       35.630001       43.570000
  H6        25.190001       36.700001       43.180000
  C12       24.770000       34.529999       42.919998
  H7        24.510000       34.680000       41.939999
  C13       24.680000       33.279999       43.430000
  H8        24.340000       32.459999       42.840000
  C6        24.500000       30.580000       45.349998
  C1        25.120001       29.480000       44.700001
  H1        26.160000       29.559999       44.299999
  C2        24.379999       28.370001       44.360001
  H2        24.840000       27.709999       43.610001
  C3        23.030001       28.230000       44.709999
  H3        22.580000       27.290001       44.520000
  C4        22.410000       29.299999       45.369999
  H4        21.379999       29.200001       45.689999
  C5        23.160000       30.490000       45.700001
  H5        22.639999       31.370001       46.259998
  C1        30.740000       31.400000       47.610001
  C2        30.719999       30.969999       48.919998
  N1        29.459999       31.860001       47.270000
  C3b       28.600000       31.480000       48.270000
  N2        29.420000       31.000000       49.349998
  C4        28.740000       30.820000       50.570000
  C5b       27.320000       30.590000       50.400002
  C6        26.670000       30.290001       51.619999
  H1        25.670000       29.879999       51.509998
  C7        27.250000       30.230000       52.880001
  H2        26.520000       30.100000       53.720001
  C8        28.650000       30.360001       52.959999
  H3        29.200001       30.590000       53.849998
  C9        29.379999       30.600000       51.830002
  H4        30.350000       30.180000       51.779999
  C10       31.860001       30.350000       49.419998
  H5        31.850000       29.790001       50.340000
  C11       33.080002       30.240000       48.700001
  H6        33.840000       29.530001       48.980000
  C12       33.080002       30.730000       47.389999
  H7        34.000000       30.549999       46.740002
  C13       31.930000       31.309999       46.830002
  H8        31.950001       31.820000       45.900002
  C6        29.129999       32.220001       45.900002
  C1        28.610001       31.129999       45.130001
  H1        28.620001       30.080000       45.430000
  C2        28.410000       31.410000       43.750000
  H2        28.080000       30.559999       43.130001
  C3        28.680000       32.639999       43.160000
  H3        28.389999       32.930000       42.200001
  C4        29.139999       33.669998       43.959999
  H4        29.650000       34.529999       43.520000
  C5        29.410000       33.459999       45.330002
  H5        30.170000       34.099998       45.709999
  C1        26.030001       27.209999       47.290001
  C2        24.780001       27.590000       47.750000
  N1        26.930000       28.129999       47.770000
  C3c       26.270000       29.260000       48.330002
  N2        24.930000       28.860001       48.360001
  C4        24.000000       29.790001       48.820000
  C5c       24.549999       30.990000       49.119999
  C6        23.799999       31.959999       49.650002
  H1        24.299999       32.860001       49.970001
  C7        22.420000       31.770000       49.750000
  H2        21.760000       32.590000       49.840000
  C8        21.809999       30.570000       49.349998
  H3        20.820000       30.309999       49.380001
  C9        22.650000       29.540001       48.980000
  H4        22.240000       28.530001       49.160000
  C10       23.620001       26.750000       47.430000
  H5        22.670000       27.209999       47.500000
  C11       23.820000       25.530001       46.759998
  H6        22.959999       24.840000       46.540001
  C12       25.080000       25.260000       46.310001
  H7        25.309999       24.350000       45.820000
  C13       26.180000       26.059999       46.520000
  H8        27.110001       25.660000       46.259998
  C6        28.260000       27.760000       48.279999
  C1        28.420000       27.639999       49.660000
  H1        27.590000       27.639999       50.380001
  C2        29.690001       27.170000       50.119999
  H2        29.780001       27.100000       51.220001
  C3        30.740000       26.990000       49.279999
  H3        31.690001       26.709999       49.630001
  C4        30.540001       27.160000       47.910000
  H4        31.360001       26.920000       47.209999
  C5        29.290001       27.549999       47.380001
  H5        29.170000       27.860001       46.320000
