206
 generated by VMD
 Ir       58.642410       90.486565      -34.081242
 C        62.872490       89.774826      -33.316837
 C        62.246033       88.616547      -32.915764
 N        61.867569       90.698547      -33.650997
 C        60.601307       90.149841      -33.475483
 N        60.853600       88.871384      -32.999870
 C        59.708755       88.075775      -32.763580
 C        58.574638       88.459534      -33.499798
 C        57.473103       87.585327      -33.527798
 H        56.625790       87.812561      -34.159878
 C        57.463593       86.404373      -32.789593
 H        56.614082       85.736916      -32.851395
 C        58.566704       86.057938      -32.005985
 H        58.555962       85.144669      -31.426662
 C        59.692482       86.888680      -31.989090
 H        60.494301       86.691376      -31.294281
 C        63.026138       87.488449      -32.605721
 H        62.558929       86.556755      -32.329556
 C        64.412613       87.538452      -32.719189
 H        64.999107       86.651123      -32.495438
 C        65.047615       88.715302      -33.129307
 H        66.119926       88.750839      -33.259678
 C        64.274788       89.843414      -33.432480
 H        64.757545       90.735260      -33.797928
 C        62.138451       92.109421      -33.835831
 C        61.817871       93.008133      -32.811993
 H        61.495819       92.640358      -31.859409
 C        61.935837       94.388153      -33.038815
 H        61.589661       95.073174      -32.279140
 C        62.389374       94.870705      -34.261658
 H        62.466469       95.937050      -34.430660
 C        62.731300       93.970726      -35.278969
 H        63.032005       94.339767      -36.238079
 C        62.606071       92.590714      -35.059017
 H        62.952240       91.905685      -35.818687
 C        58.840481       89.413383      -38.310265
 C        57.495445       89.465263      -38.036797
 N        59.526535       89.606461      -37.099709
 C        58.640415       89.811417      -36.045105
 N        57.387688       89.704361      -36.641190
 C        56.266911       89.961441      -35.789616
 C        56.585670       90.570557      -34.568851
 C        55.565037       91.182076      -33.823296
 H        55.809616       91.679230      -32.902634
 C        54.247910       91.185730      -34.263824
 H        53.484550       91.707321      -33.703262
 C        53.911659       90.530792      -35.451508
 H        52.886177       90.516815      -35.807598
 C        54.910072       89.910614      -36.202667
 H        54.619419       89.266083      -37.016304
 C        56.571228       89.347153      -39.097160
 H        55.513275       89.464203      -38.938297
 C        57.013855       89.177170      -40.410397
 H        56.303154       89.074020      -41.216225
 C        58.387054       89.122772      -40.684555
 H        58.739853       88.978149      -41.698811
 C        59.304001       89.240875      -39.631058
 H        60.359375       89.189484      -39.845436
 C        60.940834       89.344223      -36.965927
 C        61.366592       88.201035      -36.280766
 H        60.635685       87.595009      -35.783676
 C        62.722115       87.864319      -36.244953
 H        63.040390       86.988983      -35.708130
 C        63.659142       88.670792      -36.887436
 H        64.714684       88.398956      -36.868996
 C        63.248787       89.823898      -37.559784
 H        63.986313       90.485832      -37.991062
 C        61.892807       90.159355      -37.609673
 H        61.574532       91.034698      -38.146496
 C        58.830284       94.810532      -34.673332
 C        58.644241       94.660225      -33.311352
 N        58.786362       93.522278      -35.238468
 C        58.616283       92.547775      -34.272022
 N        58.546764       93.269028      -33.077091
 C        58.576294       92.479393      -31.885075
 C        58.272682       91.126297      -32.087917
 C        57.952503       90.339508      -30.977127
 H        57.588440       89.328903      -31.130535
 C        58.009239       90.857315      -29.682850
 H        57.739513       90.232536      -28.843918
 C        58.395607       92.183006      -29.480244
 H        58.497219       92.568840      -28.481041
 C        58.675728       92.994675      -30.577751
 H        59.107197       93.960556      -30.408327
 C        58.668015       95.812439      -32.491875
 H        58.425095       95.748566      -31.448318
 C        58.909348       97.071503      -33.038620
 H        58.903755       97.946877      -32.406498
 C        59.114098       97.198181      -34.420403
 H        59.289963       98.170975      -34.854156
 C        59.070293       96.058411      -35.233238
 H        59.216782       96.159607      -36.291210
 C        58.560783       93.291069      -36.645260
 C        57.249786       93.130959      -37.106842
 H        56.429226       93.135590      -36.412899
 C        57.014442       92.855179      -38.459602
 H        56.002068       92.749390      -38.815002
 C        58.087498       92.709755      -39.348030
 H        57.901115       92.498871      -40.388554
 C        59.404030       92.850021      -38.877747
 H        60.230022       92.744919      -39.562870
 C        59.633835       93.145638      -37.533688
 H        60.642860       93.292366      -37.174740
 Ir       58.642410       90.486565      -23.930958
 C        61.009949       87.056915      -22.592789
 C        61.934525       87.926849      -23.105591
 N        59.759796       87.704781      -22.652777
 C        59.857216       88.952827      -23.236477
 N        61.219604       89.091949      -23.499195
 C        61.596359       90.308487      -24.160183
 C        60.524971       91.026077      -24.715233
 C        60.807049       92.046402      -25.625492
 H        59.994946       92.554077      -26.134663
 C        62.120461       92.374008      -25.967426
 H        62.315117       93.157837      -26.683197
 C        63.188553       91.689957      -25.379757
 H        64.202316       91.907677      -25.666595
 C        62.927826       90.668381      -24.462975
 H        63.748680       90.245102      -23.904823
 C        63.287140       87.509346      -23.183205
 H        64.035698       88.139000      -23.626160
 C        63.666069       86.234352      -22.768845
 H        64.684547       85.902832      -22.885914
 C        62.705193       85.357018      -22.261299
 H        62.975311       84.338684      -22.008442
 C        61.374386       85.774521      -22.163086
 H        60.633301       85.087708      -21.786289
 C        58.547058       87.110580      -22.155294
 C        57.735062       86.366241      -23.014080
 H        58.063049       86.183205      -24.031193
 C        56.521061       85.848885      -22.558949
 H        55.868057       85.327820      -23.251106
 C        56.124596       86.056030      -21.236334
 H        55.194786       85.646042      -20.878185
 C        56.943001       86.790451      -20.369768
 H        56.635498       86.962311      -19.345215
 C        58.157867       87.317734      -20.825815
 H        58.792526       87.878464      -20.157921
 C        58.992805       93.451462      -20.748585
 C        58.432529       94.140350      -21.786478
 N        59.299042       92.161621      -21.218412
 C        58.924774       91.991516      -22.540604
 N        58.403400       93.244476      -22.891541
 C        57.897194       93.347420      -24.219681
 C        57.672249       92.118851      -24.855309
 C        56.931412       92.103241      -26.051561
 H        56.701218       91.171341      -26.536001
 C        56.462395       93.290054      -26.632679
 H        55.931610       93.249718      -27.570732
 C        56.735939       94.512314      -26.019375
 H        56.388031       95.428757      -26.466576
 C        57.457611       94.550285      -24.817398
 H        57.772560       95.505478      -24.437241
 C        58.045975       95.481979      -21.595692
 H        57.544548       96.039711      -22.360943
 C        58.252541       96.102448      -20.358091
 H        57.972149       97.137482      -20.221447
 C        58.832897       95.393715      -19.297768
 H        59.027145       95.877327      -18.352945
 C        59.198097       94.053345      -19.495073
 H        59.615997       93.498299      -18.670525
 C        60.225838       91.298065      -20.524845
 C        61.570221       91.274529      -20.928688
 H        61.904449       91.896782      -21.733976
 C        62.478668       90.450661      -20.259386
 H        63.513397       90.432648      -20.568420
 C        62.049545       89.649078      -19.193455
 H        62.761276       89.042351      -18.650850
 C        60.713295       89.682533      -18.783665
 H        60.393356       89.124847      -17.920692
 C        59.804852       90.506401      -19.452965
 H        58.781761       90.566620      -19.112570
 C        54.585720       89.232254      -22.898388
 C        54.799644       88.714127      -24.158817
 N        55.755554       89.900986      -22.520369
 C        56.737564       89.795235      -23.501728
 N        56.132675       89.020638      -24.492393
 C        57.010376       88.556503      -25.523518
 C        58.253113       89.208351      -25.586746
 C        59.127983       88.874435      -26.629436
 H        60.073406       89.387726      -26.727425
 C        58.790924       87.908508      -27.583263
 H        59.463276       87.712875      -28.411552
 C        57.569130       87.246742      -27.498516
 H        57.286598       86.516708      -28.247932
 C        56.677124       87.550896      -26.466808
 H        55.809319       86.943283      -26.334488
 C        53.733421       88.090736      -24.821281
 H        53.833687       87.745522      -25.844887
 C        52.481903       87.984215      -24.209927
 H        51.670944       87.473572      -24.720306
 C        52.282112       88.493683      -22.920769
 H        51.315033       88.429977      -22.450352
 C        53.347466       89.107162      -22.257389
 H        53.210899       89.444977      -21.239044
 C        55.736862       90.923294      -21.510307
 C        55.274864       92.202240      -21.851294
 H        54.978172       92.416985      -22.862408
 C        55.210419       93.196053      -20.865606
 H        54.866837       94.189667      -21.128071
 C        55.608368       92.919586      -19.553928
 H        55.604141       93.703323      -18.821308
 C        56.063095       91.640640      -19.219809
 H        56.380684       91.423370      -18.216251
 C        56.126678       90.636917      -20.204580
 H        56.492889       89.660614      -19.951504
