206
 generated by VMD
 Ir       53.358929       35.383400        6.382199
 C        56.722290       37.296181        8.494813
 C        56.825432       37.609455        7.220599
 N        55.579414       36.429905        8.534633
 C        54.984982       36.279846        7.335370
 N        55.811440       36.950500        6.544875
 C        55.544365       36.919712        5.128323
 C        54.312996       36.405502        4.767871
 C        53.932396       36.430954        3.410891
 H        52.910233       36.265739        3.116291
 C        54.762497       36.816788        2.382565
 H        54.289314       36.900597        1.438649
 C        56.050812       37.224953        2.753573
 H        56.775150       37.640411        2.006021
 C        56.426933       37.280071        4.119952
 H        57.485924       37.352993        4.340220
 C        57.792171       38.606014        6.863129
 H        58.035049       38.785477        5.887523
 C        58.530914       39.315655        7.856137
 H        59.303234       39.929543        7.526343
 C        58.324722       38.988014        9.172470
 H        58.782692       39.623421        9.901934
 C        57.473080       37.936977        9.498553
 H        57.411655       37.567989       10.461714
 C        55.325954       35.656303        9.661533
 C        54.236633       36.055267       10.499092
 H        53.603745       36.851700       10.243267
 C        54.143295       35.492970       11.795437
 H        53.308861       35.872894       12.364537
 C        55.115402       34.527294       12.206156
 H        55.028728       34.302170       13.253967
 C        56.147324       34.102234       11.330852
 H        57.011917       33.579517       11.712751
 C        56.196472       34.603004       10.062107
 H        56.944511       34.218933        9.349066
 C        50.412216       38.349648        7.212292
 C        49.692421       37.295254        6.651354
 N        51.707767       38.024387        7.054021
 C        51.921261       36.825439        6.400459
 N        50.680458       36.404404        6.098567
 C        50.611557       35.257812        5.287163
 C        51.813858       34.480778        5.233314
 C        51.933807       33.422691        4.349084
 H        52.826843       32.819664        4.528643
 C        50.830589       33.129913        3.513505
 H        50.973999       32.360432        2.730539
 C        49.605911       33.804688        3.560806
 H        48.742882       33.407726        3.073157
 C        49.511253       34.882698        4.413999
 H        48.589317       35.433895        4.409591
 C        48.291916       37.443501        6.649152
 H        47.606728       36.785522        6.132444
 C        47.663414       38.598984        7.200830
 H        46.642921       38.653885        7.403265
 C        48.435955       39.585411        7.741793
 H        48.018429       40.469040        8.213575
 C        49.823940       39.438046        7.773022
 H        50.395287       40.219345        8.295454
 C        52.719025       39.094559        7.044257
 C        53.302078       39.491879        8.193206
 H        52.638969       39.512421        9.115845
 C        54.481918       40.276703        8.092559
 H        54.566410       40.885399        8.958035
 C        55.012333       40.610878        6.864191
 H        56.057117       41.009247        6.830724
 C        54.498558       40.184555        5.656427
 H        54.906754       40.836952        4.854900
 C        53.317936       39.398846        5.742982
 H        52.963234       38.824081        4.904629
 C        52.121307       33.120239        9.913601
 C        53.260021       32.494286        9.428090
 N        51.766708       34.092083        8.914616
 C        52.717693       34.134575        7.886842
 N        53.604244       33.076866        8.194554
 C        54.589729       32.811443        7.184123
 C        54.631508       33.703079        6.082922
 C        55.296684       33.395954        4.894262
 H        55.095985       34.042351        3.992215
 C        56.003342       32.197815        4.894372
 H        56.220680       31.894741        3.936192
 C        55.980995       31.326984        5.986094
 H        56.490635       30.390741        6.051756
 C        55.252422       31.598055        7.145062
 H        55.110054       30.775171        7.821816
 C        53.885956       31.506927       10.200053
 H        54.898148       31.162270       10.030400
 C        53.393795       31.135555       11.435717
 H        53.919624       30.324493       11.904201
 C        52.287811       31.782310       11.896812
 H        51.820755       31.657581       12.860193
 C        51.563503       32.785183       11.157744
 H        50.520851       32.784111       11.286861
 C        50.382126       34.601837        8.725703
 C        49.497948       33.903919        7.924555
 H        50.028946       33.389996        7.125294
 C        48.159363       34.161476        8.004309
 H        47.531033       33.510815        7.377538
 C        47.635700       35.081779        8.877077
 H        46.617577       35.476501        8.880724
 C        48.530205       35.762417        9.714210
 H        48.079735       36.430168       10.478071
 C        49.907108       35.567272        9.628417
 H        50.654484       36.252487       10.026423
 Ir       53.358925       35.383396       18.998600
 C        56.599262       33.063641       17.224718
 C        56.751198       34.284702       16.650246
 N        55.559315       33.156460       18.092873
 C        54.998920       34.358742       18.169504
 N        55.661980       35.056278       17.166460
 C        54.993488       36.187241       16.664623
 C        53.912300       36.701332       17.402281
 C        53.298069       37.894440       17.042543
 H        52.461971       38.237167       17.663734
 C        53.715477       38.516602       15.887602
 H        53.200729       39.375443       15.536139
 C        54.737164       37.995457       15.096931
 H        54.889626       38.423065       14.174706
 C        55.335987       36.821388       15.456337
 H        55.860176       36.172417       14.758153
 C        57.900536       34.565472       15.866154
 H        57.981522       35.629539       15.603479
 C        58.853584       33.577396       15.576849
 H        59.792686       33.818321       15.034031
 C        58.614380       32.315872       16.073566
 H        59.444244       31.723068       16.156666
 C        57.489456       32.018707       16.892801
 H        57.172272       31.014046       17.065577
 C        55.398090       32.118580       19.060867
 C        56.208092       32.179611       20.211117
 H        56.812817       33.080967       20.348097
 C        55.970192       31.333635       21.284908
 H        56.564796       31.514982       22.162893
 C        54.978832       30.352232       21.245436
 H        54.985310       29.582420       21.974440
 C        54.082703       30.348324       20.138988
 H        53.150745       29.779472       20.219408
 C        54.354774       31.206024       19.055464
 H        53.733280       31.067165       18.247276
 C        55.284172       38.010899       21.905880
 C        53.966835       38.312710       22.031349
 N        55.385609       37.092529       20.857832
 C        54.180168       36.801250       20.332973
 N        53.273247       37.587555       21.065180
 C        51.919903       37.482891       20.636230
 C        51.745667       36.567692       19.610439
 C        50.448044       36.412338       19.110598
 H        50.294655       36.013969       18.143555
 C        49.340595       37.132347       19.623960
 H        48.291985       37.102180       19.265619
 C        49.515800       37.970505       20.704189
 H        48.727005       38.591263       21.220201
 C        50.806236       38.146660       21.224417
 H        50.866791       38.988514       21.814093
 C        53.548088       39.246239       23.010981
 H        52.495995       39.338341       23.198654
 C        54.461819       39.837227       23.838455
 H        54.251942       40.666737       24.522026
 C        55.809654       39.564419       23.659801
 H        56.471970       39.715004       24.450787
 C        56.226433       38.660774       22.678415
 H        57.249279       38.608513       22.518255
 C        56.672409       36.642971       20.303360
 C        57.124218       37.362717       19.232643
 H        56.531578       37.884552       18.530527
 C        58.460598       37.197975       18.856277
 H        58.726131       37.729347       18.034790
 C        59.267525       36.290306       19.414488
 H        60.232357       36.053982       18.921385
 C        58.776054       35.592247       20.557014
 H        59.440613       35.001564       21.202669
 C        57.461586       35.791275       20.979687
 H        57.077896       35.450050       21.923586
 C        51.729744       32.513565       21.873096
 C        51.103832       32.223171       20.712749
 N        52.586952       33.670383       21.632330
 C        52.545403       33.981270       20.309561
 N        51.714874       33.078320       19.716934
 C        51.333221       33.333755       18.345625
 C        52.195122       34.124565       17.680460
 C        52.186188       34.192863       16.292995
 H        52.953712       34.662270       15.731251
 C        51.251419       33.455101       15.553926
 H        51.222908       33.407127       14.430277
 C        50.335480       32.688004       16.170948
 H        49.573265       32.125229       15.652575
 C        50.363312       32.661316       17.561850
 H        49.435024       32.218525       18.074121
 C        50.210846       31.226255       20.640383
 H        49.547363       31.042261       19.794786
 C        49.830460       30.433874       21.761335
 H        49.297867       29.509951       21.501122
 C        50.599899       30.693245       22.915628
 H        50.834141       30.004358       23.740410
 C        51.483448       31.783335       23.046553
 H        51.946106       32.047279       23.940912
 C        53.044991       34.548744       22.736860
 C        52.088333       35.356110       23.371178
 H        50.999565       35.343842       23.191347
 C        52.508266       36.218338       24.414978
 H        51.906693       37.014603       24.803141
 C        53.874756       36.336754       24.721704
 H        54.092072       36.750374       25.705519
 C        54.826172       35.544899       24.015751
 H        55.904343       35.805313       24.159359
 C        54.398048       34.656311       23.045015
 H        55.153015       34.080956       22.485474
