206
 generated by VMD
  IR        17.709999       53.389999        8.950000
  C1        14.010000       55.630001        9.940000
  C2        13.840000       55.259998        8.630000
  N1        15.360000       55.259998       10.290000
  C3a       16.049999       54.619999        9.290000
  N2        15.110000       54.700001        8.200000
  C4        15.480000       54.110001        6.980000
  C5a       16.709999       53.380001        7.060000
  C6        17.120001       52.660000        5.910000
  H1        17.920000       51.970001        5.900000
  C7        16.280001       52.590000        4.810000
  H2        16.450001       51.730000        4.200000
  C8        15.080000       53.290001        4.770000
  H3        14.420000       53.080002        3.950000
  C9        14.670000       54.130001        5.820000
  H4        14.020000       54.950001        5.740000
  C10       12.550000       55.299999        8.050000
  H5        12.320000       55.230000        7.040000
  C11       11.410000       55.540001        8.840000
  H6        10.520000       55.000000        8.530000
  C12       11.620000       55.799999       10.210000
  H7        10.700000       55.860001       10.740000
  C13       12.910000       55.930000       10.770000
  H8        13.030000       56.480000       11.670000
  C6        15.970000       55.820000       11.470000
  C1        16.030001       55.119999       12.750000
  H1        15.470000       54.259998       13.090000
  C2        16.940001       55.529999       13.730000
  H2        16.900000       55.090000       14.630000
  C3        17.780001       56.619999       13.560000
  H3        18.420000       56.880001       14.360000
  C4        17.690001       57.349998       12.340000
  H4        18.180000       58.299999       12.420000
  C5        16.870001       56.930000       11.320000
  H5        16.930000       57.480000       10.410000
  C1        15.840000       49.490002        9.080000
  C2        17.260000       49.209999        8.840000
  N1        15.770000       50.849998        9.390000
  C3b       16.930000       51.470001        9.270000
  N2        17.799999       50.470001        8.880000
  C4        19.110001       50.849998        8.470000
  C5b       19.230000       52.139999        8.080000
  C6        20.299999       52.580002        7.280000
  H1        20.450001       53.650002        7.000000
  C7        21.280001       51.610001        7.020000
  H2        22.219999       51.980000        6.570000
  C8        21.240000       50.250000        7.430000
  H3        22.129999       49.599998        7.310000
  C9        20.139999       49.860001        8.150000
  H4        20.280001       48.970001        8.760000
  C10       17.639999       47.910000        8.510000
  H5        18.600000       47.700001        8.170000
  C11       16.709999       46.919998        8.570000
  H6        17.010000       45.900002        8.490000
  C12       15.340000       47.150002        8.770000
  H7        14.670000       46.330002        8.840000
  C13       14.910000       48.500000        8.990000
  H8        13.980000       48.669998        9.440000
  C6        14.530000       51.490002        9.820000
  C1        14.450000       52.020000       11.130000
  H1        15.270000       52.150002       11.780000
  C2        13.250000       52.360001       11.640000
  H2        13.250000       52.779999       12.670000
  C3        12.130000       52.410000       10.800000
  H3        11.270000       52.910000       11.170000
  C4        12.190000       52.060001        9.480000
  H4        11.300000       51.959999        8.830000
  C5        13.430000       51.619999        8.950000
  H5        13.510000       51.020000        8.030000
  C1        20.150000       53.630001       12.520000
  C2        20.420000       54.820000       11.850000
  N1        19.240000       52.880001       11.740000
  C3c       18.940001       53.580002       10.630000
  N2        19.670000       54.750000       10.710000
  C4        19.680000       55.560001        9.490000
  C5c       18.790001       55.189999        8.520000
  C6        18.559999       56.060001        7.480000
  H1        18.139999       55.730000        6.490000
  C7        19.129999       57.290001        7.480000
  H2        18.709999       58.020000        6.750000
  C8        20.040001       57.750000        8.500000
  H3        20.420000       58.709999        8.400000
  C9        20.360001       56.790001        9.480000
  H4        21.370001       56.950001        9.880000
  C10       21.340000       55.759998       12.400000
  H5        21.370001       56.750000       12.050000
  C11       21.840000       55.439999       13.670000
  H6        22.410000       56.119999       14.340000
  C12       21.549999       54.180000       14.280000
  H7        22.080000       53.900002       15.180000
  C13       20.760000       53.250000       13.660000
  H8        20.639999       52.320000       14.200000
  C6        18.969999       51.500000       12.110000
  C1        17.840000       51.279999       12.930000
  H1        17.400000       52.099998       13.460000
  C2        17.530001       50.000000       13.180000
  H2        16.570000       49.790001       13.560000
  C3        18.240000       48.919998       12.740000
  H3        17.680000       47.990002       12.710000
  C4        19.430000       49.139999       12.080000
  H4        19.620001       48.380001       11.320000
  C5        19.840000       50.430000       11.720000
  H5        20.809999       50.540001       11.140000
  IR        17.170000       40.900002        1.740000
  C1        14.770000       43.439999        4.360000
  C2        14.480000       42.130001        4.710000
  N1        15.680000       43.299999        3.280000
  C3a       15.920000       41.970001        2.960000
  N2        15.140000       41.250000        3.800000
  C4        15.150000       39.869999        3.610000
  C5a       15.690000       39.500000        2.370000
  C6        15.580000       38.160000        2.040000
  H1        15.980000       37.790001        1.110000
  C7        15.060000       37.169998        2.900000
  H2        15.020000       36.139999        2.640000
  C8        14.480000       37.570000        4.090000
  H3        14.160000       36.799999        4.860000
  C9        14.530000       38.869999        4.450000
  H4        14.350000       39.099998        5.510000
  C10       13.580000       41.900002        5.780000
  H5        13.390000       40.869999        6.070000
  C11       13.250000       42.990002        6.610000
  H6        12.880000       42.759998        7.590000
  C12       13.600000       44.299999        6.340000
  H7        13.550000       45.119999        7.100000
  C13       14.310000       44.549999        5.160000
  H8        14.590000       45.570000        4.960000
  C6        16.020000       44.400002        2.420000
  C1        15.140000       44.810001        1.420000
  H1        14.220000       44.369999        1.430000
  C2        15.390000       46.020000        0.740000
  H2        14.730000       46.349998       -0.080000
  C3        16.559999       46.750000        1.050000
  H3        16.830000       47.700001        0.520000
  C4        17.469999       46.259998        2.010000
  H4        18.389999       46.700001        2.240000
  C5        17.180000       45.099998        2.760000
  H5        17.680000       44.810001        3.670000
  C1        19.639999       38.990002        4.760000
  C2        19.940001       38.270000        3.620000
  N1        18.690001       40.000000        4.480000
  C3b       18.379999       39.930000        3.140000
  N2        19.209999       38.939999        2.580000
  C4        19.080000       38.630001        1.130000
  C5b       18.170000       39.450001        0.440000
  C6        18.059999       39.380001       -0.970000
  H1        17.389999       40.020000       -1.430000
  C7        18.900000       38.540001       -1.710000
  H2        19.020000       38.720001       -2.770000
  C8        19.799999       37.720001       -1.070000
  H3        20.540001       37.230000       -1.790000
  C9        19.940001       37.730000        0.330000
  H4        20.430000       36.959999        0.880000
  C10       20.959999       37.250000        3.730000
  H5        20.990000       36.369999        3.070000
  C11       21.469999       36.869999        4.920000
  H6        21.900000       35.880001        4.980000
  C12       21.180000       37.570000        6.110000
  H7        21.770000       37.320000        6.980000
  C13       20.180000       38.630001        6.040000
  H8        19.709999       39.160000        6.890000
  C6        17.820000       40.470001        5.480000
  C1        17.900000       41.830002        5.880000
  H1        18.450001       42.549999        5.320000
  C2        17.230000       42.240002        6.960000
  H2        16.920000       43.279999        7.000000
  C3        16.510000       41.270000        7.740000
  H3        15.740000       41.540001        8.470000
  C4        16.459999       39.900002        7.330000
  H4        16.010000       39.099998        8.000000
  C5        17.090000       39.560001        6.190000
  H5        16.770000       38.630001        5.700000
  C1        19.780001       43.630001       -0.350000
  C2        18.520000       43.950001       -0.870000
  N1        19.650000       42.599998        0.620000
  C3c       18.309999       42.240002        0.710000
  N2        17.639999       43.020000       -0.190000
  C4        16.309999       42.560001       -0.530000
  C5c       15.790000       41.520000        0.230000
  C6        14.540000       40.990002        0.000000
  H1        14.380000       39.939999        0.240000
  C7        13.590000       41.590000       -0.840000
  H2        12.570000       41.110001       -0.890000
  C8        14.020000       42.770000       -1.530000
  H3        13.350000       43.139999       -2.320000
  C9        15.390000       43.240002       -1.390000
  H4        15.650000       44.200001       -1.780000
  C10       18.410000       44.919998       -1.850000
  H5        17.530001       45.259998       -2.350000
  C11       19.500000       45.540001       -2.390000
  H6        19.410000       46.130001       -3.230000
  C12       20.790001       45.330002       -1.860000
  H7        21.580000       46.110001       -2.050000
  C13       20.930000       44.330002       -0.830000
  H8        21.930000       43.980000       -0.550000
  C6        20.650000       42.080002        1.470000
  C1        20.760000       42.500000        2.800000
  H1        19.820000       42.889999        3.250000
  C2        21.910000       42.150002        3.450000
  H2        21.879999       42.520000        4.480000
  C3        22.959999       41.330002        3.010000
  H3        23.889999       41.220001        3.530000
  C4        22.809999       40.930000        1.700000
  H4        23.690001       40.700001        1.140000
  C5        21.680000       41.250000        0.950000
  H5        21.620001       40.889999       -0.080000
