206
 generated by VMD
  IR         5.860000       40.759998       36.880001
  C1        10.140000       40.130001       37.299999
  C2         9.940000       39.869999       35.930000
  N1         8.960000       40.660000       37.810001
  C3a        7.920000       40.689999       36.900002
  N2         8.560000       40.290001       35.750000
  C4         7.740000       40.209999       34.619999
  C5a        6.350000       40.020000       34.990002
  C6         5.470000       39.480000       34.099998
  H1         4.480000       39.119999       34.380001
  C7         5.820000       39.299999       32.770000
  H2         5.070000       39.299999       31.959999
  C8         7.150000       39.480000       32.380001
  H3         7.490000       39.119999       31.400000
  C9         8.150000       39.980000       33.259998
  H4         9.080000       40.349998       32.919998
  C10       10.960000       39.220001       35.180000
  H5        10.870000       39.080002       34.090000
  C11       12.120000       38.900002       35.799999
  H6        12.990000       38.669998       35.180000
  C12       12.380000       39.130001       37.139999
  H7        13.190000       38.650002       37.650002
  C13       11.320000       39.770000       37.880001
  H8        11.450000       39.869999       38.939999
  C6         8.860000       41.110001       39.189999
  C1         9.060000       42.470001       39.430000
  H1         8.820000       43.090000       38.610001
  C2         9.280000       42.939999       40.740002
  H2         9.380000       43.980000       40.830002
  C3         9.070000       42.110001       41.840000
  H3         8.670000       42.560001       42.759998
  C4         8.880000       40.730000       41.619999
  H4         9.010000       39.950001       42.380001
  C5         8.790000       40.259998       40.320000
  H5         8.490000       39.290001       40.279999
  C1         4.850000       44.660000       35.070000
  C2         3.720000       43.849998       34.860001
  N1         5.860000       43.770000       35.680000
  C3b        5.380000       42.500000       35.830002
  N2         4.070000       42.549999       35.389999
  C4         3.290000       41.360001       35.599998
  C5b        3.800000       40.500000       36.590000
  C6         2.950000       39.560001       37.169998
  H1         3.230000       38.869999       37.959999
  C7         1.690000       39.349998       36.660000
  H2         0.980000       38.619999       37.060001
  C8         1.200000       40.110001       35.650002
  H3         0.190000       39.919998       35.160000
  C9         1.960000       41.150002       35.130001
  H4         1.560000       41.660000       34.299999
  C10        2.580000       44.400002       34.220001
  H5         1.680000       43.880001       33.849998
  C11        2.630000       45.689999       33.689999
  H6         1.900000       46.150002       33.009998
  C12        3.760000       46.470001       33.939999
  H7         3.880000       47.540001       33.700001
  C13        4.840000       45.970001       34.660000
  H8         5.580000       46.680000       35.009998
  C6         7.280000       43.970001       35.549999
  C1         8.010000       43.389999       34.549999
  H1         7.410000       42.669998       33.970001
  C2         9.360000       43.610001       34.459999
  H2         9.890000       42.959999       33.820000
  C3        10.050000       44.369999       35.439999
  H3        11.150000       44.470001       35.500000
  C4         9.330000       45.020000       36.439999
  H4         9.740000       45.919998       36.889999
  C5         7.920000       44.770000       36.540001
  H5         7.390000       45.270000       37.270000
  C1         5.510000       41.900002       41.009998
  C2         5.620000       40.509998       41.009998
  N1         5.340000       42.299999       39.730000
  C3c        5.360000       41.259998       38.840000
  N2         5.500000       40.070000       39.660000
  C4         5.540000       38.830002       39.000000
  C5c        6.050000       38.880001       37.740002
  C6         6.280000       37.680000       37.110001
  H1         6.800000       37.770000       36.209999
  C7         6.150000       36.480000       37.759998
  H2         6.770000       35.619999       37.480000
  C8         5.550000       36.419998       39.009998
  H3         4.960000       35.549999       39.240002
  C9         5.210000       37.619999       39.669998
  H4         4.720000       37.570000       40.610001
  C10        5.770000       39.720001       42.209999
  H5         6.100000       38.660000       42.279999
  C11        5.720000       40.459999       43.389999
  H6         5.530000       39.939999       44.349998
  C12        5.710000       41.849998       43.340000
  H7         5.640000       42.320000       44.320000
  C13        5.500000       42.590000       42.200001
  H8         5.310000       43.680000       42.250000
  C6         4.990000       43.709999       39.410000
  C1         5.950000       44.730000       39.630001
  H1         7.000000       44.410000       39.939999
  C2         5.650000       46.040001       39.279999
  H2         6.420000       46.790001       39.500000
  C3         4.470000       46.349998       38.619999
  H3         4.280000       47.360001       38.290001
  C4         3.500000       45.419998       38.349998
  H4         2.540000       45.599998       37.910000
  C5         3.780000       44.139999       38.779999
  H5         3.010000       43.349998       38.770000
  IR        19.180000       43.840000       37.619999
  C1        21.600000       45.180000       34.279999
  C2        22.400000       44.250000       34.900002
  N1        20.410000       45.250000       34.970001
  C3a       20.459999       44.470001       36.119999
  N2        21.670000       43.849998       36.090000
  C4        21.980000       43.049999       37.220001
  C5a       20.840000       42.639999       37.930000
  C6        20.950001       41.480000       38.709999
  H1        20.040001       40.990002       38.959999
  C7        22.180000       40.869999       38.889999
  H2        22.290001       40.040001       39.570000
  C8        23.320000       41.330002       38.290001
  H3        24.230000       40.939999       38.689999
  C9        23.200001       42.389999       37.430000
  H4        24.120001       42.930000       37.209999
  C10       23.580000       43.869999       34.320000
  H5        24.040001       42.959999       34.709999
  C11       24.040001       44.419998       33.119999
  H6        25.080000       44.310001       32.849998
  C12       23.219999       45.330002       32.450001
  H7        23.590000       45.790001       31.629999
  C13       22.000000       45.700001       33.060001
  H8        21.340000       46.380001       32.500000
  C6        19.709999       46.509998       34.790001
  C1        20.200001       47.549999       35.570000
  H1        21.139999       47.509998       36.169998
  C2        19.709999       48.860001       35.320000
  H2        20.209999       49.689999       35.650002
  C3        18.590000       49.060001       34.439999
  H3        18.430000       50.180000       34.099998
  C4        18.030001       47.980000       33.740002
  H4        17.389999       48.119999       32.869999
  C5        18.639999       46.700001       33.889999
  H5        18.250000       45.830002       33.430000
  C1        17.469999       40.200001       36.000000
  C2        16.969999       40.200001       37.240002
  N1        18.170000       41.360001       35.680000
  C3b       18.160000       42.160000       36.750000
  N2        17.379999       41.470001       37.700001
  C4        17.230000       42.029999       39.009998
  C5b       18.250000       42.980000       39.320000
  C6        18.180000       43.580002       40.549999
  H1        19.040001       43.950001       41.040001
  C7        17.059999       43.380001       41.490002
  H2        17.120001       43.660000       42.549999
  C8        16.110001       42.410000       41.090000
  H3        15.190000       42.369999       41.639999
  C9        16.240000       41.759998       39.869999
  H4        15.590000       40.939999       39.529999
  C10       16.260000       39.060001       37.680000
  H5        16.070000       38.990002       38.770000
  C11       15.970000       37.980000       36.840000
  H6        15.220000       37.230000       37.099998
  C12       16.420000       37.980000       35.549999
  H7        16.500000       37.119999       34.990002
  C13       17.200001       39.060001       35.150002
  H8        17.820000       38.959999       34.259998
  C6        18.850000       41.610001       34.439999
  C1        18.459999       42.799999       33.720001
  H1        17.670000       43.459999       34.130001
  C2        19.200001       43.180000       32.580002
  H2        18.930000       44.029999       32.029999
  C3        20.340000       42.490002       32.169998
  H3        21.010000       42.869999       31.480000
  C4        20.709999       41.299999       32.860001
  H4        21.309999       40.500000       32.410000
  C5        19.959999       40.889999       33.970001
  H5        20.180000       40.040001       34.570000
  C1        15.680000       46.279999       38.480000
  C2        16.730000       47.020000       38.930000
  N1        16.200001       45.270000       37.599998
  C3c       17.620001       45.209999       37.730000
  N2        17.930000       46.360001       38.459999
  C4        19.290001       46.599998       38.650002
  C5c       20.070000       45.430000       38.750000
  C6        21.360001       45.580002       39.279999
  H1        21.959999       44.700001       39.360001
  C7        21.879999       46.869999       39.610001
  H2        22.799999       46.889999       40.160000
  C8        21.180000       48.020000       39.439999
  H3        21.600000       49.029999       39.689999
  C9        19.860001       47.889999       38.939999
  H4        19.360001       48.770000       38.650002
  C10       16.420000       48.080002       39.759998
  H5        17.270000       48.650002       40.209999
  C11       15.130000       48.480000       40.060001
  H6        14.820000       49.490002       40.430000
  C12       14.060000       47.669998       39.669998
  H7        13.100000       47.720001       40.220001
  C13       14.310000       46.590000       38.900002
  H8        13.510000       46.040001       38.419998
  C6        15.350000       44.660000       36.619999
  C1        15.440000       45.099998       35.320000
  H1        16.170000       45.790001       35.040001
  C2        14.590000       44.570000       34.349998
  H2        14.630000       44.889999       33.349998
  C3        13.750000       43.459999       34.770000
  H3        13.350000       42.790001       33.990002
  C4        13.720000       42.990002       36.070000
  H4        12.930000       42.320000       36.340000
  C5        14.510000       43.580002       37.090000
  H5        14.430000       43.169998       38.000000
