206
 generated by VMD
 Ir       69.536812      -25.784832      -35.769066
 C        72.294922      -29.142778      -35.699635
 C        71.603531      -29.277199      -36.875481
 N        71.683792      -28.099510      -34.978031
 C        70.638489      -27.541327      -35.686390
 N        70.571457      -28.308399      -36.841599
 C        69.474434      -28.033068      -37.707817
 C        68.832123      -26.807070      -37.482033
 C        67.796463      -26.420849      -38.336456
 H        67.270859      -25.494442      -38.173359
 C        67.393738      -27.240448      -39.396534
 H        66.556877      -26.938784      -40.023956
 C        68.028305      -28.466446      -39.615982
 H        67.728882      -29.081734      -40.455189
 C        69.050125      -28.872843      -38.762680
 H        69.412048      -29.879963      -38.841560
 C        72.050217      -30.225370      -37.813686
 H        71.594597      -30.294369      -38.796307
 C        73.171318      -31.028946      -37.549450
 H        73.502167      -31.745525      -38.281879
 C        73.859665      -30.874166      -36.345741
 H        74.726585      -31.481215      -36.123585
 C        73.420715      -29.925997      -35.413872
 H        73.989960      -29.766830      -34.513466
 C        71.838089      -27.997620      -33.542618
 C        71.156479      -28.904032      -32.717682
 H        70.447220      -29.598221      -33.141899
 C        71.381332      -28.882130      -31.338165
 H        70.893890      -29.608932      -30.702274
 C        72.272430      -27.963814      -30.770779
 H        72.413940      -27.927164      -29.698242
 C        72.947708      -27.057583      -31.603455
 H        73.598587      -26.303947      -31.171604
 C        72.722748      -27.069489      -32.983105
 H        73.210190      -26.342686      -33.618999
 C        72.126244      -23.309582      -38.257515
 C        70.944489      -22.602009      -38.185444
 N        71.906967      -24.533226      -37.609821
 C        70.628387      -24.630814      -37.103535
 N        70.032562      -23.432777      -37.483936
 C        68.674767      -23.252583      -37.074406
 C        68.240143      -24.153927      -36.089878
 C        67.002853      -23.919395      -35.470043
 H        66.663101      -24.572411      -34.685352
 C        66.206970      -22.823336      -35.826439
 H        65.240936      -22.687702      -35.348850
 C        66.629257      -21.952349      -36.826012
 H        66.002518      -21.123709      -37.133678
 C        67.853661      -22.167244      -37.461601
 H        68.077728      -21.617111      -38.355995
 C        70.901764      -21.289646      -38.711163
 H        70.029320      -20.677893      -38.592808
 C        72.033615      -20.734848      -39.301914
 H        71.994370      -19.720446      -39.681320
 C        73.217010      -21.462601      -39.387779
 H        74.084564      -21.049408      -39.875137
 C        73.265839      -22.754784      -38.854603
 H        74.204346      -23.294193      -38.860703
 C        72.823822      -25.644897      -37.752846
 C        72.867950      -26.351437      -38.961712
 H        72.116852      -26.170656      -39.721165
 C        73.883331      -27.283138      -39.189621
 H        73.963699      -27.765732      -40.149017
 C        74.847183      -27.538292      -38.201908
 H        75.649345      -28.221844      -38.390305
 C        74.780075      -26.851749      -36.973755
 H        75.517220      -27.042707      -36.215569
 C        73.765984      -25.910233      -36.760059
 H        73.685379      -25.407640      -35.800945
 C        70.752625      -23.967960      -32.011276
 C        69.975502      -25.031769      -31.634453
 N        70.705795      -23.868074      -33.410145
 C        69.933342      -24.884563      -33.943123
 N        69.441475      -25.574854      -32.839100
 C        68.400833      -26.510815      -33.115578
 C        68.170761      -26.752682      -34.485676
 C        67.080765      -27.560472      -34.854012
 H        66.902740      -27.787090      -35.892204
 C        66.224808      -28.106941      -33.894737
 H        65.360718      -28.671333      -34.208141
 C        66.470459      -27.875074      -32.537167
 H        65.812050      -28.292290      -31.794384
 C        67.559296      -27.087099      -32.154488
 H        67.722519      -26.920471      -31.102779
 C        69.879440      -25.373791      -30.268036
 H        69.382477      -26.265093      -29.943676
 C        70.548767      -24.612553      -29.308548
 H        70.476303      -24.878750      -28.260553
 C        71.333275      -23.518749      -29.692127
 H        71.848885      -22.922371      -28.951939
 C        71.443756      -23.206543      -31.056725
 H        72.066757      -22.383419      -31.353432
 C        70.868217      -22.595161      -34.064140
 C        69.826057      -21.665997      -33.995220
 H        68.927612      -21.898491      -33.435089
 C        69.946724      -20.433620      -34.652863
 H        69.148987      -19.711704      -34.585331
 C        71.108154      -20.130230      -35.365353
 H        71.189972      -19.186359      -35.881020
 C        72.148911      -21.059216      -35.420204
 H        73.004761      -20.858162      -36.048138
 C        72.035980      -22.291592      -34.768898
 H        72.821152      -23.023869      -34.851761
 Ir       69.536812      -25.784832      -23.630819
 C        67.165009      -26.133709      -27.316647
 C        67.526855      -27.425350      -27.001009
 N        67.724487      -25.303387      -26.333466
 C        68.435402      -26.022087      -25.386328
 N        68.295517      -27.339838      -25.809727
 C        68.878624      -28.331570      -24.971308
 C        69.809952      -27.837753      -24.039116
 C        70.612320      -28.748957      -23.343334
 H        71.404213      -28.380913      -22.707687
 C        70.471069      -30.123438      -23.531612
 H        71.140701      -30.818840      -23.029507
 C        69.505997      -30.616894      -24.410324
 H        69.345047      -31.680340      -24.512182
 C        68.712997      -29.725868      -25.126232
 H        67.893913      -30.113365      -25.700375
 C        67.051559      -28.472197      -27.802448
 H        67.414368      -29.486418      -27.675058
 C        66.188293      -28.217041      -28.872520
 H        65.802002      -29.039761      -29.454773
 C        65.824806      -26.905222      -29.174366
 H        65.226700      -26.694267      -30.046873
 C        66.331055      -25.858376      -28.398266
 H        66.074440      -24.844879      -28.664303
 C        67.446503      -23.885792      -26.294132
 C        68.469414      -22.956532      -26.481270
 H        69.465355      -23.298691      -26.732912
 C        68.196930      -21.588566      -26.419430
 H        69.001366      -20.870716      -26.526138
 C        66.893684      -21.139862      -26.164265
 H        66.693710      -20.080761      -26.077009
 C        65.865845      -22.069487      -25.998936
 H        64.848885      -21.738594      -25.820311
 C        66.138321      -23.437452      -26.060776
 H        65.333778      -24.145302      -25.954208
 C        66.518326      -26.657265      -20.608803
 C        67.652382      -26.364321      -19.902546
 N        66.874954      -26.702286      -21.972687
 C        68.225433      -26.419296      -22.154387
 N        68.691383      -26.255787      -20.859259
 C        70.112976      -26.147701      -20.733135
 C        70.783279      -25.866798      -21.934914
 C        72.176262      -25.660177      -21.891090
 H        72.726326      -25.496540      -22.797756
 C        72.873474      -25.725182      -20.676563
 H        73.927109      -25.502728      -20.652557
 C        72.198341      -26.016445      -19.496452
 H        72.737534      -26.057068      -18.553837
 C        70.818268      -26.242702      -19.524529
 H        70.353600      -26.675932      -18.655621
 C        67.568413      -26.225697      -18.505575
 H        68.416443      -25.907825      -17.927649
 C        66.353416      -26.400375      -17.842720
 H        66.302628      -26.345900      -16.768265
 C        65.200584      -26.713860      -18.571903
 H        64.271645      -26.927444      -18.064800
 C        65.284332      -26.832489      -19.969154
 H        64.391418      -27.040737      -20.538750
 C        66.061646      -27.424976      -22.918598
 C        65.824722      -28.785116      -22.718628
 H        66.342751      -29.318193      -21.928135
 C        64.928093      -29.477089      -23.545319
 H        64.707794      -30.506922      -23.340834
 C        64.277527      -28.809109      -24.592390
 H        63.570484      -29.335857      -25.203316
 C        64.529922      -27.448967      -24.805031
 H        64.097458      -26.955885      -25.664654
 C        65.411079      -26.756994      -23.965668
 H        65.591064      -25.706985      -24.124687
 C        69.514725      -21.493042      -22.821213
 C        70.551102      -21.643742      -23.717997
 N        68.942474      -22.757000      -22.620377
 C        69.588791      -23.739918      -23.346354
 N        70.605759      -23.047495      -24.014292
 C        71.478638      -23.848993      -24.826618
 C        71.121208      -25.204565      -24.915880
 C        71.812073      -26.029499      -25.824224
 H        71.541847      -27.073853      -25.901688
 C        72.831169      -25.529037      -26.631615
 H        73.335121      -26.183094      -27.326273
 C        73.195053      -24.183283      -26.534477
 H        73.976852      -23.782988      -27.158142
 C        72.525879      -23.348171      -25.631207
 H        72.884521      -22.342178      -25.508900
 C        71.264679      -20.500851      -24.109280
 H        72.043854      -20.552473      -24.862421
 C        70.967682      -19.246532      -23.572275
 H        71.546616      -18.383776      -23.859674
 C        69.928741      -19.115467      -22.647068
 H        69.715363      -18.161459      -22.197357
 C        69.202255      -20.238722      -22.271538
 H        68.436699      -20.146927      -21.517557
 C        67.757645      -22.979498      -21.825977
 C        67.845673      -22.869059      -20.439922
 H        68.812515      -22.791149      -19.953667
 C        66.688675      -22.941401      -19.658894
 H        66.737701      -22.756042      -18.604599
 C        65.443855      -23.144178      -20.263641
 H        64.553101      -23.185982      -19.662560
 C        65.363785      -23.274616      -21.655754
 H        64.410995      -23.472143      -22.124863
 C        66.520676      -23.192272      -22.436924
 H        66.471420      -23.357635      -23.491497
