206
 generated by VMD
  IR        47.180000        7.960000       61.360001
  C1        43.650002        6.990000       63.759998
  C2        44.689999        6.780000       64.610001
  N1        44.139999        7.480000       62.580002
  C3a       45.540001        7.590000       62.630001
  N2        45.880001        7.080000       63.919998
  C4        47.189999        7.210000       64.239998
  C5a       48.130001        7.330000       63.180000
  C6        49.450001        7.440000       63.459999
  H1        50.209999        7.410000       62.680000
  C7        49.930000        7.610000       64.769997
  H2        50.970001        7.830000       65.010002
  C8        49.029999        7.520000       65.830002
  H3        49.389999        7.400000       66.820000
  C9        47.689999        7.320000       65.580002
  H4        47.060001        7.680000       66.430000
  C10       44.419998        6.280000       65.900002
  H5        45.189999        6.040000       66.660004
  C11       43.099998        6.020000       66.309998
  H6        42.880001        5.700000       67.300003
  C12       42.000000        6.310000       65.430000
  H7        41.049999        6.090000       65.870003
  C13       42.270000        6.760000       64.190002
  H8        41.419998        7.100000       63.619999
  C6        43.330002        7.910000       61.459999
  C1        43.200001        7.090000       60.290001
  H1        43.619999        6.100000       60.290001
  C2        42.279999        7.460000       59.270000
  H2        42.180000        6.900000       58.380001
  C3        41.389999        8.510000       59.470001
  H3        40.560001        8.680000       58.779999
  C4        41.509998        9.300000       60.630001
  H4        40.869999       10.180000       60.730000
  C5        42.540001        9.040000       61.590000
  H5        42.790001        9.840000       62.270000
  C1        48.090000       12.030000       62.680000
  C2        48.910000       11.840000       61.599998
  N1        47.330002       10.850000       62.910000
  C3b       47.650002        9.930000       61.869999
  N2        48.580002       10.570000       61.049999
  C4        49.180000        9.720000       60.020000
  C5b       49.000000        8.400000       60.330002
  C6        49.740002        7.450000       59.590000
  H1        49.580002        6.430000       59.880001
  C7        50.689999        7.780000       58.619999
  H2        51.020000        7.030000       57.910000
  C8        50.939999        9.170000       58.310001
  H3        51.740002        9.320000       57.610001
  C9        50.110001       10.140000       59.000000
  H4        49.959999       11.180000       58.810001
  C10       49.860001       12.770000       61.270000
  H5        50.669998       12.330000       60.669998
  C11       49.980000       13.910000       61.970001
  H6        50.689999       14.640000       61.669998
  C12       49.209999       14.210000       63.090000
  H7        49.480000       15.050000       63.779999
  C13       48.200001       13.290000       63.430000
  H8        47.439999       13.570000       64.110001
  C6        46.619999       10.580000       64.180000
  C1        47.470001       10.560000       65.269997
  H1        48.540001       10.540000       65.040001
  C2        46.970001       10.620000       66.559998
  H2        47.549999       11.030000       67.320000
  C3        45.580002       10.590000       66.769997
  H3        45.169998       10.760000       67.769997
  C4        44.720001       10.530000       65.660004
  H4        43.650002       10.710000       65.790001
  C5        45.259998       10.530000       64.309998
  H5        44.709999       10.500000       63.360001
  C1        45.290001        8.800000       57.439999
  C2        45.610001        7.490000       57.360001
  N1        45.770000        9.260000       58.619999
  C3c       46.340000        8.270000       59.470001
  N2        46.290001        7.140000       58.630001
  C4        46.700001        5.930000       59.220001
  C5c       46.910000        6.020000       60.570000
  C6        47.099998        4.840000       61.349998
  H1        47.320000        4.860000       62.400002
  C7        47.139999        3.620000       60.660000
  H2        47.240002        2.700000       61.180000
  C8        47.029999        3.590000       59.279999
  H3        47.130001        2.650000       58.779999
  C9        46.840000        4.740000       58.549999
  H4        46.830002        4.670000       57.480000
  C10       45.200001        6.770000       56.169998
  H5        45.529999        5.790000       56.060001
  C11       44.360001        7.320000       55.279999
  H6        44.049999        6.740000       54.410000
  C12       43.919998        8.640000       55.430000
  H7        43.490002        9.190000       54.580002
  C13       44.419998        9.370000       56.500000
  H8        44.000000       10.370000       56.639999
  C6        45.810001       10.670000       58.980000
  C1        44.779999       11.160000       59.849998
  H1        44.430000       10.410000       60.509998
  C2        44.740002       12.550000       60.119999
  H2        43.959999       13.010000       60.720001
  C3        45.759998       13.370000       59.540001
  H3        45.680000       14.450000       59.770000
  C4        46.840000       12.840000       58.790001
  H4        47.709999       13.420000       58.549999
  C5        46.779999       11.500000       58.430000
  H5        47.389999       11.140000       57.660000
  IR        38.480000       16.750000       55.349998
  C1        42.610001       17.740000       54.320000
  C2        41.930000       17.639999       53.099998
  N1        41.700001       17.350000       55.310001
  C3a       40.389999       17.160000       54.779999
  N2        40.549999       17.360001       53.389999
  C4        39.389999       17.260000       52.610001
  C5a       38.209999       17.260000       53.320000
  C6        37.000000       17.510000       52.709999
  H1        36.110001       17.719999       53.259998
  C7        36.910000       17.719999       51.330002
  H2        36.000000       17.809999       50.849998
  C8        38.060001       17.600000       50.509998
  H3        38.080002       17.379999       49.400002
  C9        39.360001       17.469999       51.180000
  H4        40.299999       17.400000       50.619999
  C10       42.709999       17.830000       51.950001
  H5        42.189999       17.969999       50.950001
  C11       44.070000       18.160000       51.939999
  H6        44.599998       18.090000       51.090000
  C12       44.639999       18.330000       53.180000
  H7        45.599998       18.700001       53.189999
  C13       43.900002       18.120001       54.360001
  H8        44.299999       18.250000       55.360001
  C6        42.150002       16.680000       56.509998
  C1        42.810001       15.410000       56.310001
  H1        43.070000       15.060000       55.299999
  C2        43.310001       14.840000       57.509998
  H2        43.509998       13.830000       57.580002
  C3        43.240002       15.500000       58.759998
  H3        43.660000       15.030000       59.630001
  C4        42.700001       16.760000       58.849998
  H4        42.529999       17.219999       59.820000
  C5        42.090000       17.340000       57.720001
  H5        41.950001       18.389999       57.630001
  C1        36.849998       20.680000       55.029999
  C2        35.740002       19.920000       55.279999
  N1        37.980000       19.879999       55.430000
  C3b       37.570000       18.590000       55.740002
  N2        36.220001       18.590000       55.709999
  C4        35.610001       17.330000       55.980000
  C5b       36.450001       16.219999       55.680000
  C6        35.950001       14.940000       55.889999
  H1        36.630001       14.090000       55.799999
  C7        34.720001       14.790000       56.430000
  H2        34.160000       13.850000       56.500000
  C8        33.900002       15.910000       56.759998
  H3        32.939999       15.770000       57.180000
  C9        34.369999       17.209999       56.470001
  H4        33.599998       17.990000       56.580002
  C10       34.459999       20.450001       55.049999
  H5        33.599998       19.780001       55.290001
  C11       34.320000       21.760000       54.590000
  H6        33.310001       22.010000       54.240002
  C12       35.439999       22.530001       54.279999
  H7        35.480000       23.520000       53.779999
  C13       36.730000       21.990000       54.580002
  H8        37.570000       22.650000       54.310001
  C6        39.299999       20.459999       55.849998
  C1        39.419998       21.030001       57.130001
  H1        38.610001       21.340000       57.689999
  C2        40.630001       21.620001       57.480000
  H2        40.759998       21.860001       58.480000
  C3        41.680000       21.760000       56.570000
  H3        42.669998       22.049999       56.889999
  C4        41.549999       21.250000       55.279999
  H4        42.400002       21.030001       54.619999
  C5        40.349998       20.590000       54.889999
  H5        40.400002       19.980000       54.040001
  C1        39.340000       15.270000       59.400002
  C2        39.770000       14.300000       58.520000
  N1        38.669998       16.209999       58.549999
  C3c       38.820000       15.910000       57.220001
  N2        39.459999       14.680000       57.220001
  C4        39.759998       14.140000       55.930000
  C5c       39.000000       14.790000       54.939999
  C6        38.910000       14.190000       53.660000
  H1        38.119999       14.430000       52.939999
  C7        39.590000       13.030000       53.369999
  H2        39.360001       12.580000       52.419998
  C8        40.330002       12.310000       54.340000
  H3        40.900002       11.500000       53.990002
  C9        40.470001       12.890000       55.599998
  H4        41.169998       12.460000       56.360001
  C10       40.529999       13.180000       59.000000
  H5        40.430000       12.230000       58.459999
  C11       40.930000       13.170000       60.349998
  H6        41.720001       12.480000       60.619999
  C12       40.430000       14.110000       61.230000
  H7        40.610001       14.050000       62.299999
  C13       39.570000       15.170000       60.759998
  H8        39.340000       15.940000       61.480000
  C6        38.180000       17.430000       59.180000
  C1        39.110001       18.350000       59.709999
  H1        40.160000       18.250000       59.689999
  C2        38.660000       19.600000       60.139999
  H2        39.320000       20.410000       60.310001
  C3        37.279999       19.920000       60.009998
  H3        36.930000       20.740000       60.610001
  C4        36.389999       19.010000       59.570000
  H4        35.369999       19.330000       59.480000
  C5        36.810001       17.730000       59.139999
  H5        35.959999       17.090000       58.830002
