206
 generated by VMD
 Ir       35.888985       33.292557       42.490265
 C        32.457085       33.477325       45.195839
 C        32.478317       34.671997       44.557396
 N        33.556450       32.746986       44.658337
 C        34.338821       33.557579       43.850906
 N        33.617188       34.748642       43.846058
 C        34.273781       35.768784       43.111893
 C        35.270271       35.288021       42.201256
 C        35.755184       36.167873       41.280159
 H        36.711536       35.907181       41.026520
 C        35.332203       37.550579       41.243969
 H        35.303085       38.002171       40.272209
 C        34.405205       38.052837       42.144199
 H        34.172218       39.102795       42.266693
 C        33.881714       37.193283       43.089779
 H        33.441536       37.647579       43.922878
 C        31.357559       35.445534       44.743507
 H        31.411636       36.496899       44.479877
 C        30.238640       35.029179       45.453415
 H        29.539679       35.800922       45.656311
 C        30.220226       33.726254       45.973656
 H        29.276501       33.376579       46.434639
 C        31.338360       32.968830       45.908920
 H        31.475405       32.022728       46.349728
 C        33.686729       31.345562       44.988083
 C        32.868813       30.424585       44.389076
 H        32.097122       30.751785       43.726700
 C        32.921478       29.056990       44.760433
 H        32.222794       28.292225       44.309692
 C        33.843948       28.708082       45.760143
 H        33.929688       27.684973       46.016457
 C        34.700150       29.658514       46.329704
 H        35.406708       29.335091       47.074196
 C        34.653915       30.986113       45.899536
 H        35.280014       31.696150       46.309837
 C        33.577675       32.847553       38.754921
 C        34.947929       32.859509       38.388367
 N        33.652557       32.894653       40.149185
 C        34.906879       33.067368       40.675728
 N        35.704025       32.996765       39.617340
 C        37.020756       32.742817       39.852562
 C        37.412148       33.301376       41.015244
 C        38.681610       33.739178       41.296837
 H        39.049194       33.939339       42.233063
 C        39.684959       33.550758       40.334351
 H        40.486824       34.213840       40.505066
 C        39.361809       32.858864       39.140594
 H        40.096554       32.415298       38.538181
 C        38.029079       32.480164       38.971714
 H        37.861595       31.826859       38.195545
 C        35.236649       32.632500       37.042332
 H        36.155231       33.042660       36.826515
 C        34.226147       32.343189       36.077663
 H        34.504639       32.088306       35.057236
 C        32.892708       32.326454       36.555222
 H        32.166199       32.487091       35.812130
 C        32.584957       32.581123       37.917767
 H        31.534595       32.724403       38.108334
 C        32.545605       33.418213       40.891102
 C        32.177639       34.712173       40.606728
 H        32.727821       35.376091       39.934853
 C        30.890419       35.101418       41.020676
 H        30.500761       36.056870       40.709099
 C        30.005455       34.179390       41.624004
 H        29.051289       34.488232       42.078079
 C        30.410769       32.887222       41.863640
 H        29.770359       32.202221       42.369942
 C        31.682693       32.473495       41.527580
 H        31.973015       31.467915       41.524010
 C        37.296616       29.273352       43.560150
 C        37.992271       30.132624       44.454697
 N        36.687080       30.150623       42.599232
 C        36.838326       31.480373       42.944176
 N        37.657921       31.480520       44.064201
 C        37.700729       32.738815       44.767246
 C        37.234421       33.833191       44.019520
 C        37.603878       35.128513       44.328445
 H        36.810772       35.860664       44.301407
 C        38.423084       35.312943       45.442127
 H        38.538757       36.328259       45.860996
 C        38.890251       34.217964       46.203957
 H        39.277351       34.411358       47.131615
 C        38.510849       32.936771       45.896236
 H        38.519814       32.209164       46.701538
 C        38.456230       29.564005       45.657368
 H        38.997337       30.051533       46.481758
 C        38.421692       28.180294       45.912811
 H        39.062958       27.966921       46.736855
 C        37.806671       27.292166       45.026318
 H        37.503311       26.339705       45.309319
 C        37.263313       27.867552       43.835861
 H        36.689522       27.353748       43.132885
 C        36.058945       29.646595       41.332741
 C        34.719185       29.244610       41.212936
 H        34.003735       29.462292       41.967682
 C        34.284843       28.681076       40.003029
 H        33.166611       28.362671       39.901634
 C        35.129669       28.413857       38.905045
 H        34.777946       28.124546       37.900261
 C        36.452637       28.877333       39.078114
 H        37.188225       28.730297       38.325130
 C        36.874077       29.478283       40.240761
 H        37.922077       29.789728       40.175957
 Ir       35.888985       33.292557       51.374664
 C        35.224068       29.261532       49.833321
 C        36.572388       29.543932       49.600101
 N        34.740303       30.433064       50.444210
 C        35.640648       31.415554       50.587013
 N        36.840408       30.911291       50.052971
 C        37.866997       31.796883       49.801094
 C        37.556034       33.107529       50.123741
 C        38.487537       34.159691       49.955612
 H        38.050980       35.148560       49.861023
 C        39.743988       33.785172       49.529976
 H        40.488178       34.573841       49.411728
 C        40.145683       32.488052       49.216564
 H        41.161137       32.256218       48.946373
 C        39.199081       31.453613       49.301273
 H        39.523602       30.430910       49.365803
 C        37.431877       28.523642       49.072006
 H        38.439034       28.778976       48.830055
 C        36.834885       27.219950       48.975117
 H        37.446495       26.375574       48.653923
 C        35.478676       26.914864       49.243309
 H        35.087875       25.953268       49.077454
 C        34.673622       27.988491       49.678169
 H        33.597290       27.767797       49.606728
 C        33.325298       30.551861       50.733940
 C        32.822189       30.258469       52.014252
 H        33.422684       29.882902       52.826813
 C        31.452686       30.337868       52.228642
 H        31.062641       30.077320       53.226929
 C        30.567652       30.554039       51.185577
 H        29.542952       30.403179       51.468475
 C        31.069458       30.841263       49.883812
 H        30.271748       30.818811       49.123116
 C        32.409157       30.818382       49.673634
 H        32.735928       30.932659       48.623367
 C        38.761681       32.737572       54.622200
 C        38.668179       34.120087       54.402863
 N        37.922195       32.128853       53.669029
 C        37.294243       33.139648       52.899246
 N        37.708477       34.346802       53.449875
 C        36.965805       35.516991       52.934902
 C        36.171394       35.336147       51.734779
 C        35.457176       36.429520       51.193546
 H        35.114746       36.374245       50.176842
 C        35.326897       37.569996       52.015587
 H        34.588650       38.319672       51.737785
 C        36.043179       37.749641       53.248779
 H        35.963631       38.507233       53.916782
 C        36.889107       36.711399       53.649605
 H        37.498726       36.838928       54.447479
 C        39.447174       34.962646       55.185265
 H        39.624535       36.039879       54.971947
 C        40.368275       34.416519       56.162521
 H        41.124504       35.105064       56.571075
 C        40.391907       33.034008       56.386108
 H        41.237328       32.668602       56.943115
 C        39.611195       32.192642       55.575500
 H        39.633835       31.093910       55.782814
 C        38.063473       30.818201       53.356720
 C        39.137932       30.473354       52.574722
 H        39.893951       31.111979       52.321762
 C        39.157871       29.191967       52.079590
 H        40.045723       28.760334       51.688164
 C        38.100067       28.314335       52.312439
 H        38.516678       27.297014       52.243958
 C        36.984344       28.638885       53.074821
 H        36.182083       28.054197       53.226524
 C        37.020432       29.958479       53.667423
 H        36.351418       30.030083       54.526604
 C        32.309544       33.588779       53.796143
 C        31.889095       33.843369       52.485336
 N        33.688648       33.396538       53.739471
 C        34.118988       33.564560       52.415733
 N        33.051788       33.881813       51.671665
 C        33.440208       34.277695       50.317596
 C        34.691845       33.871147       49.812904
 C        34.997322       34.071011       48.413033
 H        35.536751       33.298882       47.893669
 C        34.089989       34.784489       47.661839
 H        34.386475       34.934387       46.607834
 C        32.952053       35.372337       48.224014
 H        32.268436       35.849388       47.527176
 C        32.659859       35.085106       49.513016
 H        32.005226       35.627579       50.114746
 C        30.538631       33.795624       52.189751
 H        30.197098       33.753880       51.187752
 C        29.659748       33.633987       53.222000
 H        28.593899       33.908234       52.993637
 C        30.021505       33.343174       54.556114
 H        29.304592       33.158466       55.286812
 C        31.401913       33.390923       54.849876
 H        31.735146       33.417343       55.880096
 C        34.453735       33.315086       54.951538
 C        34.659389       32.079819       55.531906
 H        34.057526       31.189877       55.190498
 C        35.583855       32.005539       56.564400
 H        35.701347       31.052076       57.013176
 C        36.213722       33.180061       57.036705
 H        37.050140       33.061813       57.774895
 C        35.997673       34.422691       56.450188
 H        36.521744       35.275818       56.830223
 C        35.108772       34.471695       55.343552
 H        35.067383       35.271935       54.663841
