206
 generated by VMD
 Ir      100.974930       66.021057        1.408615
 C        97.703491       68.128616        3.454102
 C        97.112915       67.089699        2.792458
 N        99.106979       68.092224        3.113785
 C        99.378548       67.012985        2.280190
 N        98.162430       66.369385        2.179467
 C        98.195015       65.152931        1.485358
 C        99.340912       64.913330        0.771212
 C        99.423416       63.940342       -0.246675
 H       100.230995       63.969448       -0.998715
 C        98.321945       63.137264       -0.419680
 H        98.402084       62.149464       -0.909195
 C        97.126488       63.318832        0.285806
 H        96.255081       62.689087       -0.044447
 C        97.089066       64.329254        1.222049
 H        96.459290       64.026695        2.015479
 C        95.722549       66.791611        3.082194
 H        95.066971       66.135742        2.500270
 C        95.146713       67.432236        4.139461
 H        94.153099       67.164658        4.494478
 C        95.785042       68.443619        4.839346
 H        95.332611       68.923096        5.681428
 C        97.040710       68.868561        4.458687
 H        97.113983       69.883102        4.734073
 C       100.029068       69.214249        3.434414
 C       100.841888       69.246964        4.555995
 H       101.112823       68.338760        5.038774
 C       101.467972       70.486374        4.802504
 H       101.808746       70.575012        5.779699
 C       101.304108       71.637161        4.044251
 H       101.743790       72.552368        4.389469
 C       100.410912       71.586395        2.926344
 H       100.055725       72.406921        2.347044
 C        99.851273       70.362495        2.576665
 H        99.250717       70.364517        1.751119
 C       101.732445       62.862148        4.247707
 C       102.636375       62.619209        3.231833
 N       100.871696       63.954720        3.907128
 C       101.277222       64.426392        2.686486
 N       102.255585       63.505661        2.253412
 C       102.580017       63.555199        0.885057
 C       102.381210       64.866684        0.369814
 C       102.978233       65.168976       -0.869290
 H       103.006912       66.252960       -1.173379
 C       103.801987       64.253067       -1.558237
 H       104.201691       64.415527       -2.520907
 C       104.007690       62.998741       -0.992151
 H       104.749054       62.335068       -1.318205
 C       103.405136       62.639725        0.173798
 H       103.682419       61.693306        0.553142
 C       103.643867       61.627289        3.466878
 H       104.262154       61.365761        2.697513
 C       103.633667       60.898117        4.612614
 H       104.330109       60.129322        4.855359
 C       102.729187       61.145355        5.637501
 H       102.749222       60.436089        6.453856
 C       101.725906       62.148849        5.497049
 H       101.104248       62.480862        6.321371
 C        99.654526       64.448837        4.639827
 C        99.711227       65.536674        5.511663
 H       100.549110       66.216400        5.571957
 C        98.618164       65.720345        6.344473
 H        98.634972       66.719376        6.723642
 C        97.452087       64.964966        6.244627
 H        96.599236       64.955231        6.918084
 C        97.383453       64.036255        5.240742
 H        96.544838       63.417641        5.029235
 C        98.462540       63.761841        4.472512
 H        98.453659       62.778774        3.964183
 C       104.301315       68.525505        2.549274
 C       103.701706       69.228806        1.544865
 N       103.588379       67.384804        2.738553
 C       102.494736       67.296082        1.948186
 N       102.500275       68.460190        1.205073
 C       101.376785       68.647545        0.248003
 C       100.769165       67.419785       -0.136066
 C        99.988342       67.271439       -1.289327
 H        99.477768       66.397438       -1.458829
 C        99.884354       68.344894       -2.206756
 H        99.338432       68.276871       -3.106507
 C       100.537704       69.516373       -1.915093
 H       100.306145       70.329178       -2.549697
 C       101.225098       69.703812       -0.708540
 H       101.603806       70.738174       -0.512610
 C       104.261292       70.464195        1.079150
 H       103.821121       71.025558        0.252028
 C       105.429688       70.946838        1.630883
 H       105.724854       71.921219        1.228964
 C       105.953049       70.304108        2.734878
 H       106.876099       70.720985        3.203042
 C       105.383667       69.144821        3.197006
 H       105.887299       68.566711        3.969435
 C       103.921051       66.373680        3.684684
 C       103.410004       66.311691        4.992045
 H       102.638901       67.029114        5.312847
 C       103.893127       65.372375        5.935376
 H       103.336365       65.277863        6.844928
 C       104.938889       64.459801        5.546930
 H       105.380493       63.831802        6.350423
 C       105.439133       64.517044        4.252258
 H       106.413193       64.083771        4.052567
 C       104.943840       65.451195        3.343930
 H       105.225769       65.332489        2.341619
 Ir      100.974930       66.021065       13.978973
 C        97.250076       68.194977       13.291165
 C        96.925552       67.337723       14.334429
 N        98.557098       67.877869       12.890118
 C        99.126389       66.922684       13.735353
 N        98.083054       66.565071       14.574023
 C        98.347702       65.284882       15.322474
 C        99.730225       64.901840       15.323613
 C       100.148781       63.788490       16.013084
 H       101.081238       63.390461       15.838417
 C        99.246964       63.095970       16.831453
 H        99.576675       62.196365       17.335934
 C        97.878052       63.417553       16.771687
 H        97.192886       63.013557       17.488022
 C        97.433479       64.456116       16.016411
 H        96.376472       64.536949       15.935201
 C        95.565262       67.359818       14.950480
 H        95.301086       66.620911       15.663668
 C        94.727875       68.359543       14.555733
 H        93.785141       68.294838       15.061265
 C        95.079849       69.224945       13.554649
 H        94.344627       69.962799       13.290989
 C        96.314850       69.146133       12.858091
 H        96.538498       69.834358       11.989055
 C        99.125931       68.642715       11.783849
 C        99.947441       69.715302       12.110777
 H       100.367729       69.861977       13.098472
 C       100.374039       70.510666       11.036710
 H       101.035751       71.340393       11.192211
 C        99.860474       70.302177        9.773190
 H       100.147095       71.032921        9.020889
 C        99.068077       69.224861        9.461401
 H        98.460327       69.183044        8.589740
 C        98.765213       68.332359       10.478412
 H        98.540306       67.321678       10.225165
 C       102.415680       68.397324       17.439281
 C       103.315620       67.399094       17.304605
 N       101.420807       68.172798       16.508904
 C       101.650955       66.972305       15.697271
 N       102.915413       66.598122       16.152922
 C       103.496429       65.363609       15.501080
 C       102.741821       64.900963       14.410473
 C       103.216171       63.797173       13.700875
 H       102.812462       63.510750       12.769709
 C       104.421577       63.195129       14.139462
 H       104.682404       62.265800       13.644258
 C       105.108978       63.592812       15.345664
 H       105.992188       63.167511       15.646953
 C       104.640625       64.716415       15.957429
 H       104.830322       64.804611       16.947754
 C       104.455719       67.392776       18.154217
 H       105.117630       66.493439       17.979988
 C       104.701378       68.364098       19.048805
 H       105.607941       68.277916       19.622591
 C       103.684036       69.310692       19.300739
 H       103.913895       70.138931       19.962994
 C       102.523178       69.289917       18.462769
 H       101.749451       69.917038       18.826448
 C       100.419388       69.217148       16.337999
 C       100.742401       70.385117       15.645816
 H       101.748596       70.732124       15.575460
 C        99.721893       71.289803       15.296223
 H        99.980537       72.271027       14.999748
 C        98.391602       71.067818       15.586658
 H        97.564941       71.773842       15.343653
 C        98.077759       69.895119       16.292759
 H        97.064453       69.636574       16.642263
 C        99.085022       68.971489       16.694941
 H        98.909065       68.200768       17.439806
 C       103.065117       68.370056       11.101553
 C       102.430023       67.399971       10.348903
 N       102.902107       68.030334       12.451706
 C       102.145035       66.878052       12.543939
 N       101.846481       66.505798       11.205249
 C       100.941399       65.428833       11.097178
 C       100.475586       64.827316       12.320532
 C        99.833054       63.604996       12.342233
 H        99.336288       63.188465       13.253623
 C        99.545189       62.961395       11.155718
 H        99.009277       62.095898       11.235789
 C        99.901154       63.607628        9.926504
 H        99.928955       62.981998        8.983786
 C       100.682373       64.793831        9.930530
 H       100.647469       65.375008        9.030078
 C       102.642715       67.475723        9.005574
 H       102.438477       66.592422        8.415512
 C       103.273636       68.522430        8.356794
 H       103.289047       68.668579        7.289554
 C       103.787506       69.559158        9.125722
 H       104.046677       70.458763        8.657384
 C       103.810837       69.455444       10.541242
 H       104.019897       70.301300       11.216013
 C       103.745285       68.536026       13.405189
 C       104.819748       67.777046       13.855063
 H       105.164970       66.934166       13.290551
 C       105.753250       68.323151       14.805920
 H       106.591240       67.739609       15.190953
 C       105.549515       69.661819       15.187189
 H       106.323746       70.116051       15.794841
 C       104.461807       70.401863       14.789906
 H       104.272186       71.486893       15.104320
 C       103.554161       69.832077       13.907393
 H       102.748596       70.407471       13.483856
