206
 generated by VMD
  IR        32.740002        6.920000       16.520000
  C1        28.850000        8.820000       15.950000
  C2        28.930000        8.510000       17.309999
  N1        30.070000        8.350000       15.430000
  C3a       30.879999        7.760000       16.320000
  N2        30.200001        7.820000       17.549999
  C4        30.660000        7.040000       18.590000
  C5a       31.770000        6.280000       18.260000
  C6        32.400002        5.430000       19.200001
  H1        32.980000        4.620000       18.770000
  C7        31.889999        5.470000       20.480000
  H2        32.369999        4.840000       21.230000
  C8        30.799999        6.230000       20.900000
  H3        30.490000        6.260000       21.930000
  C9        30.120001        7.010000       19.950001
  H4        29.490000        7.820000       20.270000
  C10       27.889999        8.940000       18.200001
  H5        27.930000        8.630000       19.219999
  C11       26.910000        9.810000       17.610001
  H6        26.129999       10.240000       18.240000
  C12       26.840000       10.160000       16.240000
  H7        26.049999       10.740000       15.860000
  C13       27.850000        9.630000       15.410000
  H8        27.600000        9.700000       14.340000
  C6        30.299999        8.400000       14.000000
  C1        31.020000        9.460000       13.420000
  H1        31.389999       10.310000       13.970000
  C2        31.170000        9.490000       12.040000
  H2        31.709999       10.340000       11.590000
  C3        30.510000        8.590000       11.220000
  H3        30.570000        8.850000       10.180000
  C4        29.770000        7.520000       11.800000
  H4        29.160000        6.990000       11.050000
  C5        29.660000        7.450000       13.150000
  H5        28.980000        6.670000       13.540000
  C1        34.880001        9.640000       19.190001
  C2        35.650002        8.470000       19.110001
  N1        33.730000        9.410000       18.410000
  C3b       33.820000        8.120000       17.830000
  N2        35.060001        7.620000       18.209999
  C4        35.439999        6.380000       17.500000
  C5b       34.400002        5.670000       16.780001
  C6        34.709999        4.470000       16.100000
  H1        33.910000        3.810000       15.820000
  C7        36.080002        4.180000       15.920000
  H2        36.349998        3.410000       15.200000
  C8        37.139999        4.910000       16.559999
  H3        38.139999        4.800000       16.440001
  C9        36.770000        5.980000       17.379999
  H4        37.470001        6.450000       17.940001
  C10       36.830002        8.410000       19.840000
  H5        37.410000        7.480000       20.030001
  C11       37.220001        9.510000       20.700001
  H6        38.020000        9.310000       21.430000
  C12       36.450001       10.680000       20.709999
  H7        36.650002       11.360000       21.520000
  C13       35.250000       10.720000       19.980000
  H8        34.660000       11.670000       19.990000
  C6        32.619999       10.170000       18.570000
  C1        31.860001        9.940000       19.690001
  H1        32.139999        9.330000       20.459999
  C2        30.629999       10.550000       19.740000
  H2        30.090000       10.640000       20.650000
  C3        30.160000       11.310000       18.670000
  H3        29.440001       12.030000       19.090000
  C4        30.889999       11.540000       17.510000
  H4        30.570000       12.040000       16.700001
  C5        32.220001       10.970000       17.510000
  H5        32.869999       11.470000       16.790001
  C1        34.560001        8.190000       12.800000
  C2        33.750000        7.100000       12.460000
  N1        34.450001        8.350000       14.180000
  C3c       33.610001        7.350000       14.690000
  N2        33.230000        6.570000       13.670000
  C4        32.520000        5.380000       14.140000
  C5c       31.930000        5.390000       15.420000
  C6        31.049999        4.310000       15.810000
  H1        30.170000        4.550000       16.379999
  C7        30.940001        3.240000       14.950000
  H2        30.280001        2.430000       15.310000
  C8        31.700001        3.140000       13.780000
  H3        31.480000        2.290000       13.140000
  C9        32.439999        4.210000       13.410000
  H4        33.220001        4.190000       12.720000
  C10       33.439999        6.880000       11.130000
  H5        32.660000        6.220000       10.850000
  C11       34.049999        7.660000       10.190000
  H6        34.020000        7.260000        9.140000
  C12       34.849998        8.790000       10.470000
  H7        35.230000        9.390000        9.710000
  C13       35.160000        9.010000       11.830000
  H8        35.950001        9.700000       12.100000
  C6        35.320000        9.260000       14.870000
  C1        34.919998       10.570000       15.040000
  H1        34.040001       10.970000       14.460000
  C2        35.669998       11.360000       15.900000
  H2        35.360001       12.370000       15.990000
  C3        36.840000       10.840000       16.500000
  H3        37.340000       11.460000       17.290001
  C4        37.240002        9.520000       16.320000
  H4        38.119999        9.170000       16.820000
  C5        36.419998        8.700000       15.500000
  H5        36.459999        7.650000       15.500000
  IR        24.530001       18.900000       21.490000
  C1        25.600000       18.750000       25.719999
  C2        24.230000       18.420000       25.690001
  N1        26.020000       19.010000       24.450001
  C3a       24.969999       18.879999       23.549999
  N2        23.879999       18.500000       24.320000
  C4        22.709999       18.080000       23.580000
  C5a       22.620001       18.650000       22.309999
  C6        21.440001       18.559999       21.559999
  H1        21.379999       19.010000       20.610001
  C7        20.340000       17.889999       22.129999
  H2        19.469999       17.680000       21.520000
  C8        20.459999       17.200001       23.340000
  H3        19.480000       16.940001       23.709999
  C9        21.650000       17.250000       24.090000
  H4        21.830000       16.360001       24.730000
  C10       23.590000       18.080000       26.930000
  H5        22.520000       17.840000       26.870001
  C11       24.309999       18.070000       28.110001
  H6        23.860001       17.840000       29.070000
  C12       25.610001       18.469999       28.139999
  H7        26.100000       18.770000       29.100000
  C13       26.270000       18.860001       26.980000
  H8        27.110001       19.530001       27.090000
  C6        27.270000       19.690001       24.190001
  C1        28.400000       19.100000       23.610001
  H1        28.420000       18.080000       23.430000
  C2        29.520000       19.870001       23.200001
  H2        30.270000       19.430000       22.590000
  C3        29.580000       21.230000       23.389999
  H3        30.500000       21.850000       23.170000
  C4        28.510000       21.820000       24.110001
  H4        28.530001       22.950001       24.120001
  C5        27.389999       21.070000       24.570000
  H5        26.590000       21.600000       25.049999
  C1        24.940001       14.560000       20.950001
  C2        24.420000       15.000000       19.780001
  N1        25.000000       15.660000       21.809999
  C3b       24.570000       16.840000       21.190001
  N2        24.129999       16.450001       19.950001
  C4        23.610001       17.459999       19.059999
  C5b       23.690001       18.790001       19.490000
  C6        23.379999       19.820000       18.600000
  H1        23.350000       20.760000       19.040001
  C7        22.840000       19.450001       17.340000
  H2        22.510000       20.280001       16.700001
  C8        22.809999       18.139999       16.910000
  H3        22.299999       17.940001       15.950000
  C9        23.150000       17.129999       17.770000
  H4        22.719999       16.100000       17.549999
  C10       24.379999       14.040000       18.690001
  H5        23.850000       14.330000       17.799999
  C11       24.809999       12.700000       18.820000
  H6        24.879999       12.080000       17.990000
  C12       25.270000       12.330000       20.070000
  H7        25.530001       11.320000       20.209999
  C13       25.320000       13.240000       21.120001
  H8        25.650000       12.870000       22.040001
  C6        25.010000       15.460000       23.250000
  C1        26.180000       15.770000       23.879999
  H1        26.830000       16.450001       23.340000
  C2        26.440001       15.360000       25.219999
  H2        27.350000       15.640000       25.719999
  C3        25.459999       14.670000       25.920000
  H3        25.719999       14.330000       26.889999
  C4        24.299999       14.280000       25.209999
  H4        23.780001       13.460000       25.770000
  C5        24.040001       14.680000       23.900000
  H5        23.090000       14.400000       23.450001
  C1        28.549999       19.750000       20.100000
  C2        28.010000       21.020000       20.270000
  N1        27.500000       18.799999       20.290001
  C3c       26.309999       19.469999       20.670000
  N2        26.580000       20.870001       20.540001
  C4        25.480000       21.740000       21.020000
  C5c       24.370001       21.010000       21.469999
  C6        23.219999       21.740000       21.830000
  H1        22.219999       21.250000       21.930000
  C7        23.190001       23.170000       21.709999
  H2        22.330000       23.850000       21.990000
  C8        24.389999       23.840000       21.330000
  H3        24.530001       24.879999       21.440001
  C9        25.500000       23.110001       20.940001
  H4        26.320000       23.660000       20.490000
  C10       28.820000       22.120001       20.230000
  H5        28.350000       23.100000       20.260000
  C11       30.190001       21.980000       20.070000
  H6        30.879999       22.709999       20.379999
  C12       30.780001       20.700001       19.850000
  H7        31.830000       20.760000       19.950001
  C13       29.959999       19.580000       19.889999
  H8        30.330000       18.549999       19.799999
  C6        27.450001       17.459999       19.719999
  C1        27.100000       17.309999       18.350000
  H1        26.740000       18.139999       17.799999
  C2        27.290001       16.070000       17.799999
  H2        26.830000       15.880000       16.820000
  C3        27.770000       14.940000       18.530001
  H3        28.260000       14.100000       17.980000
  C4        27.930000       15.060000       19.879999
  H4        27.709999       14.320000       20.600000
  C5        27.860001       16.320000       20.480000
  H5        28.250000       16.440001       21.459999
