206
 generated by VMD
 Ir       26.202862      103.013351      -50.762421
 C        22.933422      105.867828      -50.811325
 C        22.496555      104.785736      -50.014259
 N        24.145908      105.537903      -51.345947
 C        24.548302      104.252563      -50.849949
 N        23.534843      103.825912      -50.012413
 C        23.604919      102.506248      -49.469658
 C        24.673550      101.790710      -49.979584
 C        24.747982      100.370255      -49.689457
 H        25.622982       99.879280      -50.039776
 C        23.758104       99.738159      -48.942131
 H        23.945934       98.788406      -48.464973
 C        22.637066      100.460129      -48.442802
 H        22.076626       99.985359      -47.628922
 C        22.567753      101.861526      -48.684860
 H        21.704704      102.422165      -48.408047
 C        21.284204      104.941345      -49.236710
 H        20.938784      104.251282      -48.474937
 C        20.620129      106.137733      -49.228317
 H        20.071054      106.475586      -48.374283
 C        21.067547      107.207123      -50.000336
 H        20.625343      108.203705      -49.851402
 C        22.198162      107.026382      -50.804104
 H        22.542767      107.858498      -51.409607
 C        24.648636      106.180847      -52.461464
 C        25.545113      107.263649      -52.190044
 H        25.378059      107.806374      -51.289242
 C        26.399981      107.732071      -53.274979
 H        27.147118      108.505432      -53.141556
 C        26.384705      107.136459      -54.533077
 H        26.957567      107.522705      -55.377136
 C        25.526638      106.081917      -54.722485
 H        25.540295      105.634422      -55.694012
 C        24.635660      105.638985      -53.717216
 H        24.081785      104.748344      -53.867809
 C        27.750309      103.826660      -46.785194
 C        28.614264      102.867844      -47.232464
 N        26.701590      103.908829      -47.683155
 C        26.862915      103.119843      -48.818302
 N        28.070456      102.488167      -48.529621
 C        28.468575      101.591095      -49.551857
 C        27.617706      101.458267      -50.662254
 C        27.738274      100.327347      -51.510479
 H        26.893841      100.007202      -52.171570
 C        28.827019       99.414566      -51.314362
 H        28.877781       98.428551      -51.748184
 C        29.786119       99.635986      -50.336403
 H        30.680738       99.065063      -50.152565
 C        29.578657      100.770111      -49.433956
 H        30.327154      100.973343      -48.727875
 C        29.683620      102.434753      -46.413433
 H        30.487051      101.693863      -46.636780
 C        29.826193      102.919434      -45.125507
 H        30.720537      102.569229      -44.542065
 C        28.929544      103.891037      -44.725857
 H        29.187578      104.322327      -43.777222
 C        27.861946      104.349396      -45.528812
 H        27.189789      105.150177      -45.314430
 C        25.767487      104.969299      -47.450233
 C        24.617538      104.757942      -46.637611
 H        24.355497      103.758720      -46.419220
 C        23.710732      105.790001      -46.462551
 H        22.793598      105.642166      -46.055222
 C        24.018158      107.115234      -46.906013
 H        23.381519      107.944557      -46.783951
 C        25.132847      107.291832      -47.697456
 H        25.299908      108.291260      -47.955566
 C        26.003710      106.215797      -48.023426
 H        26.380829      106.210449      -48.995667
 C        29.248175      105.525604      -52.655872
 C        28.753534      104.690140      -53.745800
 N        28.440813      105.237213      -51.479652
 C        27.577345      104.167046      -51.774544
 N        27.846058      103.846252      -53.128685
 C        26.976723      102.754311      -53.643780
 C        25.867159      102.558655      -52.804268
 C        24.761372      101.960472      -53.360523
 H        23.987728      101.707703      -52.735474
 C        24.816578      101.557800      -54.718136
 H        23.873146      101.240654      -55.180256
 C        25.965569      101.652031      -55.446041
 H        25.859325      101.309250      -56.525539
 C        27.074043      102.237579      -54.901321
 H        28.079763      101.942337      -55.175476
 C        29.120281      104.897232      -55.057102
 H        28.508842      104.497917      -55.880505
 C        29.995123      105.876602      -55.336166
 H        30.587284      105.696861      -56.231953
 C        30.517111      106.715271      -54.304054
 H        31.222269      107.492340      -54.470501
 C        30.173326      106.571289      -52.926487
 H        30.529184      107.198746      -52.135178
 C        28.903576      105.715118      -50.222286
 C        29.798056      105.026260      -49.467319
 H        30.218744      104.080574      -49.781017
 C        30.382915      105.504089      -48.285404
 H        31.114168      105.037239      -47.768280
 C        29.992525      106.803696      -47.840843
 H        30.313597      107.124054      -46.799362
 C        29.063921      107.546364      -48.602043
 H        28.847431      108.574142      -48.408615
 C        28.554314      107.021072      -49.835762
 H        28.236282      107.762665      -50.531380
 Ir       26.202864      103.013351      -35.109505
 C        29.548605      105.877518      -35.896835
 C        29.619970      104.892288      -36.838081
 N        28.457645      105.476196      -35.009789
 C        27.856457      104.326797      -35.451420
 N        28.546101      103.957527      -36.576290
 C        28.047606      102.941254      -37.313099
 C        27.050346      102.100861      -36.816093
 C        26.480663      101.046753      -37.554077
 H        25.832088      100.332283      -37.044292
 C        26.972530      100.709618      -38.794922
 H        26.620663       99.860374      -39.325096
 C        28.035603      101.448792      -39.339077
 H        28.400574      101.361420      -40.423683
 C        28.528145      102.585266      -38.622623
 H        29.237663      103.261551      -39.041702
 C        30.606134      104.977806      -37.889114
 H        30.940809      104.194092      -38.547585
 C        31.501734      106.079956      -37.847092
 H        32.311089      106.168396      -38.578552
 C        31.441023      107.115723      -36.880707
 H        32.233406      107.841751      -36.858242
 C        30.475294      107.036484      -35.823120
 H        30.244265      107.842178      -35.173214
 C        28.500507      105.799622      -33.637871
 C        29.557947      105.287590      -32.873840
 H        30.007914      104.341827      -33.171967
 C        29.738153      105.768990      -31.547539
 H        30.461306      105.349319      -30.867296
 C        28.908163      106.743439      -31.022793
 H        28.925329      106.934601      -29.962717
 C        27.852743      107.274536      -31.841892
 H        27.103117      107.863091      -31.335176
 C        27.671602      106.831039      -33.140583
 H        26.956953      107.342361      -33.797874
 C        22.947678      104.549896      -37.586071
 C        22.368088      103.654465      -36.706024
 N        24.309795      104.541039      -37.353996
 C        24.629295      103.726051      -36.256996
 N        23.415205      103.158203      -35.909672
 C        23.496838      101.860458      -35.240879
 C        24.783024      101.497246      -34.829159
 C        24.960424      100.180664      -34.334068
 H        25.907513       99.840149      -33.939629
 C        23.893520       99.224274      -34.393654
 H        23.999828       98.211563      -34.013905
 C        22.636208       99.612885      -34.904472
 H        21.766575       98.956169      -34.691505
 C        22.414181      100.913490      -35.245121
 H        21.468674      101.193680      -35.495132
 C        20.990089      103.504639      -36.568680
 H        20.600178      102.852554      -35.780869
 C        20.173307      104.294647      -37.372959
 H        19.081882      104.343758      -37.343296
 C        20.731014      105.183929      -38.346725
 H        20.022514      105.865860      -38.912060
 C        22.112381      105.289429      -38.452072
 H        22.640738      105.877991      -39.198696
 C        25.240376      104.968124      -38.376011
 C        25.247147      104.309189      -39.611633
 H        24.704086      103.399628      -39.808327
 C        26.120281      104.669968      -40.635098
 H        26.062832      104.092834      -41.550591
 C        26.995548      105.714935      -40.413868
 H        27.834574      105.736923      -41.143631
 C        27.045094      106.351593      -39.149387
 H        27.896042      106.963341      -38.910110
 C        26.119110      106.032013      -38.122684
 H        26.337385      106.384277      -37.157459
 C        25.100693      104.877792      -31.263260
 C        26.057201      103.952301      -30.902063
 N        24.735956      104.722534      -32.677746
 C        25.509304      103.704048      -33.288811
 N        26.301613      103.239197      -32.109596
 C        27.071747      102.131607      -32.381172
 C        27.518284      102.047737      -33.753933
 C        28.578510      101.189644      -34.101048
 H        29.194248      101.288147      -35.001358
 C        29.150606      100.402924      -33.132088
 H        30.019268       99.820068      -33.374611
 C        28.708187      100.433105      -31.812258
 H        29.301361       99.858551      -31.036037
 C        27.691853      101.357452      -31.406109
 H        27.293888      101.267868      -30.369432
 C        26.681574      104.072571      -29.622728
 H        27.751310      103.710297      -29.574533
 C        26.221970      104.979355      -28.677467
 H        26.554672      105.024605      -27.652695
 C        25.283022      105.952316      -29.077885
 H        24.954582      106.650505      -28.341644
 C        24.702805      105.892075      -30.369324
 H        24.249027      106.775650      -30.732052
 C        23.745625      105.522041      -33.316219
 C        24.004213      106.310898      -34.466454
 H        25.046993      106.591003      -34.659969
 C        22.947931      106.952423      -35.129333
 H        23.211781      107.753128      -35.788616
 C        21.625973      106.836716      -34.634926
 H        20.883169      107.486877      -35.078133
 C        21.387981      105.984680      -33.549385
 H        20.428196      105.808304      -33.042732
 C        22.404430      105.355942      -32.927124
 H        22.117405      104.529961      -32.262909
