206
 generated by VMD
  IR        57.630001       43.580002       35.549999
  C1        56.860001       47.869999       35.020000
  C2        57.380001       47.450001       33.840000
  N1        56.950001       46.770000       35.959999
  C3a       57.549999       45.650002       35.419998
  N2        57.910000       46.139999       34.080002
  C4        58.830002       45.189999       33.430000
  C5a       58.759998       43.880001       33.820000
  C6        59.500000       42.959999       33.130001
  H1        59.189999       41.959999       33.389999
  C7        60.340000       43.320000       32.070000
  H2        60.669998       42.630001       31.360001
  C8        60.430000       44.669998       31.709999
  H3        60.830002       45.080002       30.820000
  C9        59.580002       45.549999       32.369999
  H4        59.540001       46.580002       32.040001
  C10       57.259998       48.270000       32.669998
  H5        57.849998       48.070000       31.790001
  C11       56.560001       49.419998       32.810001
  H6        56.400002       50.029999       31.920000
  C12       56.040001       49.860001       33.990002
  H7        55.259998       50.610001       33.869999
  C13       56.169998       49.090000       35.110001
  H8        55.660000       49.459999       36.020000
  C6        56.680000       46.849998       37.330002
  C1        57.740002       46.759998       38.240002
  H1        58.779999       47.099998       38.029999
  C2        57.490002       46.500000       39.599998
  H2        58.209999       46.419998       40.389999
  C3        56.209999       46.419998       40.049999
  H3        56.060001       46.419998       41.209999
  C4        55.070000       46.470001       39.180000
  H4        54.209999       46.000000       39.570000
  C5        55.369999       46.770000       37.810001
  H5        54.540001       47.080002       37.250000
  C1        54.029999       42.599998       33.470001
  C2        54.689999       41.450001       33.560001
  N1        54.889999       43.660000       33.910000
  C3b       56.139999       43.180000       34.220001
  N2        55.990002       41.810001       33.990002
  C4        57.130001       40.930000       34.270000
  C5b       57.770000       41.490002       35.410000
  C6        58.700001       40.610001       35.980000
  H1        59.500000       41.029999       36.490002
  C7        58.889999       39.310001       35.410000
  H2        59.660000       38.750000       35.939999
  C8        58.220001       38.840000       34.250000
  H3        58.220001       37.810001       33.970001
  C9        57.369999       39.730000       33.669998
  H4        57.119999       39.520000       32.590000
  C10       54.040001       40.230000       33.509998
  H5        54.599998       39.320000       33.580002
  C11       52.650002       40.180000       33.259998
  H6        52.279999       39.200001       32.990002
  C12       51.950001       41.360001       33.060001
  H7        50.830002       41.310001       33.090000
  C13       52.650002       42.580002       33.189999
  H8        52.000000       43.439999       32.990002
  C6        54.610001       44.980000       33.470001
  C1        54.919998       45.330002       32.150002
  H1        55.529999       44.740002       31.500000
  C2        54.369999       46.450001       31.510000
  H2        54.099998       46.480000       30.430000
  C3        53.509998       47.290001       32.240002
  H3        52.939999       48.130001       31.830000
  C4        53.270000       46.990002       33.599998
  H4        52.580002       47.599998       34.169998
  C5        53.730000       45.869999       34.209999
  H5        53.520000       45.770000       35.349998
  C1        55.730000       43.080002       39.470001
  C2        57.060001       43.139999       39.770000
  N1        55.680000       43.029999       38.070000
  C3c       56.840000       43.220001       37.439999
  N2        57.730000       43.259998       38.560001
  C4        59.080002       43.560001       38.259998
  C5c       59.320000       43.779999       36.889999
  C6        60.570000       44.299999       36.500000
  H1        60.720001       44.599998       35.509998
  C7        61.599998       44.410000       37.349998
  H2        62.580002       44.570000       36.970001
  C8        61.459999       44.049999       38.709999
  H3        62.200001       43.939999       39.459999
  C9        60.180000       43.660000       39.180000
  H4        60.099998       43.230000       40.139999
  C10       57.430000       43.049999       41.169998
  H5        58.450001       43.340000       41.380001
  C11       56.450001       42.970001       42.169998
  H6        56.669998       43.169998       43.209999
  C12       55.060001       42.840000       41.840000
  H7        54.410000       42.560001       42.630001
  C13       54.740002       42.900002       40.470001
  H8        53.700001       42.709999       40.119999
  C6        54.450001       42.490002       37.430000
  C1        54.169998       41.099998       37.439999
  H1        54.919998       40.480000       37.950001
  C2        52.900002       40.709999       37.110001
  H2        52.759998       39.570000       37.240002
  C3        51.880001       41.590000       36.630001
  H3        50.910000       41.299999       36.230000
  C4        52.230000       42.959999       36.570000
  H4        51.639999       43.660000       36.009998
  C5        53.480000       43.389999       36.950001
  H5        53.639999       44.419998       37.099998
  IR        54.980000       39.630001       25.780001
  C1        53.680000       43.590000       27.090000
  C2        53.049999       43.400002       25.920000
  N1        54.340000       42.470001       27.430000
  C3a       54.250000       41.490002       26.440001
  N2        53.470001       42.090000       25.520000
  C4        53.049999       41.310001       24.379999
  C5a       53.830002       40.189999       24.070000
  C6        53.560001       39.580002       22.830000
  H1        54.290001       38.849998       22.520000
  C7        52.509998       39.900002       21.940001
  H2        52.430000       39.439999       20.940001
  C8        51.759998       41.070000       22.240000
  H3        50.970001       41.180000       21.580000
  C9        51.980000       41.759998       23.430000
  H4        51.480000       42.709999       23.570000
  C10       52.459999       44.549999       25.340000
  H5        52.349998       44.599998       24.250000
  C11       52.330002       45.740002       26.080000
  H6        52.020000       46.639999       25.620001
  C12       52.820000       45.840000       27.370001
  H7        52.630001       46.700001       27.990000
  C13       53.570000       44.759998       27.860001
  H8        54.029999       44.889999       28.790001
  C6        55.540001       42.500000       28.240000
  C1        56.770000       42.840000       27.700001
  H1        56.849998       43.259998       26.780001
  C2        57.970001       42.779999       28.430000
  H2        58.820000       43.259998       28.049999
  C3        57.900002       42.340000       29.799999
  H3        58.860001       42.110001       30.209999
  C4        56.669998       41.830002       30.240000
  H4        56.599998       41.410000       31.270000
  C5        55.500000       41.950001       29.490000
  H5        54.610001       41.480000       29.809999
  C1        51.799999       37.029999       26.940001
  C2        52.770000       36.209999       26.620001
  N1        52.270000       38.320000       26.750000
  C3b       53.480000       38.349998       26.260000
  N2        53.779999       37.070000       26.100000
  C4        54.919998       36.790001       25.260000
  C5b       55.560001       37.919998       24.719999
  C6        56.380001       37.730000       23.660000
  H1        56.980000       38.570000       23.250000
  C7        56.540001       36.459999       23.100000
  H2        57.009998       36.450001       22.129999
  C8        56.009998       35.310001       23.680000
  H3        55.849998       34.439999       23.080000
  C9        55.209999       35.439999       24.760000
  H4        54.590000       34.639999       25.000000
  C10       52.730000       34.840000       26.969999
  H5        53.630001       34.169998       26.900000
  C11       51.660000       34.320000       27.680000
  H6        51.520000       33.290001       28.040001
  C12       50.639999       35.200001       28.070000
  H7        49.840000       34.799999       28.500000
  C13       50.730000       36.529999       27.790001
  H8        50.270000       37.220001       28.450001
  C6        51.549999       39.459999       27.240000
  C1        51.740002       39.910000       28.580000
  H1        52.169998       39.259998       29.350000
  C2        51.270000       41.180000       28.980000
  H2        51.160000       41.410000       30.070000
  C3        50.560001       42.000000       28.049999
  H3        50.240002       43.000000       28.360001
  C4        50.290001       41.560001       26.750000
  H4        49.580002       42.130001       26.110001
  C5        50.869999       40.290001       26.350000
  H5        50.689999       39.919998       25.379999
  C1        57.959999       38.889999       28.860001
  C2        58.639999       39.619999       27.889999
  N1        56.669998       38.630001       28.360001
  C3c       56.500000       39.180000       27.120001
  N2        57.700001       39.790001       26.840000
  C4        57.849998       40.400002       25.510000
  C5c       56.590000       40.770000       24.969999
  C6        56.509998       41.799999       24.030001
  H1        55.630001       41.980000       23.480000
  C7        57.680000       42.369999       23.639999
  H2        57.639999       43.299999       23.040001
  C8        58.919998       41.980000       24.120001
  H3        59.770000       42.369999       23.610001
  C9        59.040001       40.959999       24.980000
  H4        59.930000       40.430000       25.170000
  C10       60.040001       39.900002       28.100000
  H5        60.660000       40.439999       27.420000
  C11       60.619999       39.419998       29.260000
  H6        61.669998       39.610001       29.309999
  C12       59.919998       38.750000       30.240000
  H7        60.220001       38.689999       31.350000
  C13       58.610001       38.459999       30.040001
  H8        58.099998       37.840000       30.790001
  C6        55.730000       37.619999       28.910000
  C1        54.700001       37.980000       29.820000
  H1        54.630001       39.060001       30.000000
  C2        53.889999       37.020000       30.440001
  H2        52.950001       37.290001       30.820000
  C3        54.200001       35.630001       30.200001
  H3        53.520000       34.900002       30.600000
  C4        55.150002       35.230000       29.309999
  H4        54.990002       34.250000       28.860001
  C5        55.939999       36.240002       28.670000
  H5        56.759998       35.880001       28.080000
