206
 generated by VMD
 Ir       24.215618      -85.209106      -72.640869
 C        27.699913      -82.616928      -72.447739
 C        28.228928      -83.869522      -72.585342
 N        26.286936      -82.756653      -72.294861
 C        25.943811      -84.090439      -72.489746
 N        27.160233      -84.810005      -72.555595
 C        27.033501      -86.206650      -73.021439
 C        25.676937      -86.707932      -73.028229
 C        25.492022      -88.000381      -73.510101
 H        24.467712      -88.233444      -73.690575
 C        26.619347      -88.796463      -73.837494
 H        26.547752      -89.825104      -74.019928
 C        27.909811      -88.333878      -73.673752
 H        28.760418      -88.992744      -73.795235
 C        28.142393      -86.994644      -73.297897
 H        29.155518      -86.724533      -73.235336
 C        29.535604      -84.011925      -72.645477
 H        30.034582      -84.948753      -72.598732
 C        30.384439      -82.911095      -72.693878
 H        31.465677      -83.051224      -72.800613
 C        29.914278      -81.648758      -72.544388
 H        30.589121      -80.863068      -72.768616
 C        28.506189      -81.436287      -72.359329
 H        28.167912      -80.447983      -72.024338
 C        25.434132      -81.694107      -71.786804
 C        24.647177      -81.004669      -72.677811
 H        24.802601      -81.314911      -73.756042
 C        23.875988      -79.923912      -72.235367
 H        23.230524      -79.457550      -72.937637
 C        23.871288      -79.558273      -70.838524
 H        22.971096      -79.074158      -70.412735
 C        24.698353      -80.308411      -69.944962
 H        24.558554      -80.195190      -68.900436
 C        25.420191      -81.389160      -70.395432
 H        25.839083      -82.043831      -69.670624
 C        23.453791      -84.916092      -76.795158
 C        22.475874      -85.826851      -76.389816
 N        24.389317      -84.698929      -75.758904
 C        23.871384      -85.296677      -74.632202
 N        22.716019      -86.024719      -75.003273
 C        22.098293      -86.811020      -74.010330
 C        22.648603      -86.635193      -72.724075
 C        22.218880      -87.435150      -71.641289
 H        22.265648      -87.031708      -70.622498
 C        21.263548      -88.455063      -71.872002
 H        21.094070      -89.126663      -71.080597
 C        20.800034      -88.664642      -73.131302
 H        20.497303      -89.627396      -73.325378
 C        21.172314      -87.825104      -74.172440
 H        20.893415      -88.092224      -75.196777
 C        21.512848      -86.279099      -77.257309
 H        20.639456      -86.774673      -76.809448
 C        21.439278      -85.830322      -78.546875
 H        20.828814      -86.387154      -79.215225
 C        22.317759      -84.854958      -79.025963
 H        22.024513      -84.345978      -79.900063
 C        23.347837      -84.436478      -78.134735
 H        24.136314      -83.826324      -78.558891
 C        25.839056      -84.616623      -76.013031
 C        26.514072      -85.812698      -76.238327
 H        26.023367      -86.769745      -76.087097
 C        27.858955      -85.743416      -76.408569
 H        28.496361      -86.595764      -76.527374
 C        28.581312      -84.518646      -76.302567
 H        29.593222      -84.615753      -75.983810
 C        27.878397      -83.277046      -76.279152
 H        28.426811      -82.410553      -76.473625
 C        26.498737      -83.384644      -76.082024
 H        25.788893      -82.656494      -76.326988
 C        21.421270      -82.176262      -71.285431
 C        21.840958      -82.683716      -70.130249
 N        21.796946      -83.009796      -72.285233
 C        22.673714      -84.024643      -71.883255
 N        22.784739      -83.761559      -70.512650
 C        23.581829      -84.674583      -69.808220
 C        24.450947      -85.464996      -70.602936
 C        25.148090      -86.519531      -69.969116
 H        25.714489      -87.181831      -70.522697
 C        25.150627      -86.697929      -68.616684
 H        25.710299      -87.418739      -68.071884
 C        24.322655      -85.864014      -67.825760
 H        24.313644      -86.168243      -66.775543
 C        23.578102      -84.862083      -68.417343
 H        22.796986      -84.483818      -67.913986
 C        21.563999      -81.985611      -68.927948
 H        21.978340      -82.303757      -67.926483
 C        20.758209      -80.807625      -68.957153
 H        20.466000      -80.312630      -68.034340
 C        20.356222      -80.288795      -70.158791
 H        19.631247      -79.512703      -70.124344
 C        20.711040      -80.957687      -71.341492
 H        20.400042      -80.544434      -72.293182
 C        21.147923      -82.922707      -73.525299
 C        20.306633      -83.953247      -73.958450
 H        19.988327      -84.734871      -73.248566
 C        19.921068      -84.002098      -75.323059
 H        19.607311      -84.974846      -75.698189
 C        20.337112      -83.102867      -76.259697
 H        20.156582      -83.140457      -77.328110
 C        21.270161      -82.150230      -75.830048
 H        21.771824      -81.477356      -76.483780
 C        21.592270      -82.031570      -74.511276
 H        22.273510      -81.248642      -74.277298
 Ir       24.215618      -85.209106      -56.971008
 C        27.047029      -82.369507      -58.802616
 C        26.787010      -81.905472      -57.517715
 N        26.185390      -83.519920      -58.986534
 C        25.491196      -83.805420      -57.772995
 N        25.876781      -82.783211      -56.843796
 C        25.354599      -82.875610      -55.504475
 C        24.245794      -83.755386      -55.477287
 C        23.448076      -83.735748      -54.312401
 H        22.533890      -84.366905      -54.173817
 C        23.816666      -83.009323      -53.216705
 H        23.066387      -82.844765      -52.405159
 C        25.013268      -82.278885      -53.160904
 H        25.228008      -81.657562      -52.302452
 C        25.753738      -82.131348      -54.347553
 H        26.566988      -81.443787      -54.301933
 C        27.503172      -80.740891      -57.062805
 H        27.753721      -80.595169      -56.051025
 C        28.382961      -80.102669      -57.860832
 H        29.055374      -79.260689      -57.572685
 C        28.646378      -80.613106      -59.166576
 H        29.357096      -80.163559      -59.797520
 C        27.987602      -81.729012      -59.600609
 H        28.148304      -82.050003      -60.586880
 C        25.985092      -84.167694      -60.306713
 C        24.687796      -84.221451      -60.863785
 H        23.979744      -83.416519      -60.684483
 C        24.368153      -85.157928      -61.886791
 H        23.401472      -85.212685      -62.296585
 C        25.387430      -86.010788      -62.297264
 H        25.347397      -86.864296      -62.922108
 C        26.689320      -85.946289      -61.830544
 H        27.465683      -86.415733      -62.429108
 C        26.974443      -85.053955      -60.844421
 H        27.921242      -85.215057      -60.436966
 C        27.043606      -87.449417      -54.366684
 C        25.737547      -87.768082      -53.999443
 N        26.876591      -86.485565      -55.455860
 C        25.467278      -86.277161      -55.698566
 N        24.826778      -87.154266      -54.938931
 C        23.481834      -87.435379      -55.141407
 C        22.874823      -86.500229      -55.955303
 C        21.471794      -86.590775      -56.236568
 H        20.970602      -85.805344      -56.829361
 C        20.768572      -87.762802      -55.900352
 H        19.843885      -88.015228      -56.381329
 C        21.397987      -88.724899      -55.099594
 H        20.889736      -89.567741      -54.778519
 C        22.765089      -88.555176      -54.722195
 H        23.395044      -89.391457      -54.422207
 C        25.599892      -88.460922      -52.843712
 H        24.657288      -88.862289      -52.592911
 C        26.692886      -88.755928      -51.965515
 H        26.383400      -89.206223      -50.998844
 C        27.996803      -88.467110      -52.381790
 H        28.873941      -88.528305      -51.795547
 C        28.086102      -87.799568      -53.613827
 H        29.081400      -87.574097      -53.939316
 C        27.968140      -85.750343      -56.061150
 C        28.741049      -84.876732      -55.270508
 H        28.556444      -84.709641      -54.199715
 C        29.751343      -84.124313      -55.874561
 H        30.412148      -83.592789      -55.266438
 C        29.958124      -84.220215      -57.205818
 H        30.784147      -83.602600      -57.611694
 C        29.305279      -85.224976      -57.987141
 H        29.645205      -85.543686      -58.954079
 C        28.270542      -85.939072      -57.419617
 H        27.814936      -86.724152      -57.919083
 C        22.768608      -88.168625      -59.780533
 C        21.850964      -87.120766      -59.931625
 N        23.820724      -87.767342      -58.900177
 C        23.683426      -86.434937      -58.554993
 N        22.457321      -86.015350      -59.238087
 C        22.075203      -84.645271      -59.007111
 C        22.690125      -84.038605      -57.930855
 C        22.272511      -82.777649      -57.544212
 H        22.600685      -82.286827      -56.635754
 C        21.229160      -82.141190      -58.291840
 H        21.004408      -81.151878      -58.031746
 C        20.665514      -82.710175      -59.434059
 H        20.126049      -82.130493      -60.165051
 C        21.095039      -83.982513      -59.769424
 H        20.933168      -84.298950      -60.827995
 C        20.732983      -87.258499      -60.718678
 H        19.950256      -86.566505      -60.640717
 C        20.491718      -88.495430      -61.227795
 H        19.617468      -88.686783      -61.831757
 C        21.383251      -89.548470      -61.102993
 H        21.140049      -90.560165      -61.475849
 C        22.516167      -89.413651      -60.345413
 H        23.326454      -90.049118      -60.530354
 C        25.078882      -88.506134      -58.786892
 C        25.578003      -89.027237      -57.559566
 H        24.894020      -89.314522      -56.781792
 C        26.920740      -89.433304      -57.405731
 H        27.277897      -89.717682      -56.426411
 C        27.824152      -89.290695      -58.410919
 H        28.813297      -89.741531      -58.387730
 C        27.414795      -88.706604      -59.629517
 H        28.116531      -88.323578      -60.329700
 C        26.050550      -88.385269      -59.775707
 H        25.787178      -87.927246      -60.646599
