206
 generated by VMD
 Ir       57.750999       41.359688      -44.712692
 C        60.232437       41.025314      -48.260918
 C        60.852619       40.238899      -47.276119
 N        59.159988       41.720955      -47.569229
 C        59.138329       41.358818      -46.233685
 N        60.172783       40.431618      -46.131748
 C        60.229115       39.694843      -44.850620
 C        58.999863       39.754417      -44.174236
 C        58.781517       38.921249      -43.064167
 H        57.787895       38.954697      -42.605267
 C        59.722969       37.991089      -42.696640
 H        59.489254       37.313644      -41.929081
 C        60.950958       37.949974      -43.218891
 H        61.449593       37.013119      -43.087082
 C        61.253464       38.848003      -44.221199
 H        62.251732       38.774025      -44.539619
 C        61.844994       39.414982      -47.631310
 H        62.193375       38.660759      -46.925068
 C        62.305077       39.300201      -48.973003
 H        63.170670       38.722336      -49.186108
 C        61.663559       40.055901      -49.958839
 H        62.066658       40.231438      -50.916645
 C        60.588848       40.946312      -49.589577
 H        59.788342       41.092888      -50.283195
 C        58.363159       42.862709      -48.019302
 C        57.048355       42.654541      -48.354797
 H        56.402092       41.896385      -47.893005
 C        56.249382       43.674896      -48.925949
 H        55.244896       43.494022      -49.223251
 C        56.860214       44.825172      -49.280571
 H        56.343285       45.613693      -49.848911
 C        58.156158       45.058990      -49.027458
 H        58.500301       46.071686      -49.269165
 C        58.927418       44.071144      -48.366997
 H        60.020920       44.347443      -48.099209
 C        55.179703       38.131351      -46.123493
 C        54.742104       38.411320      -44.833832
 N        56.081688       39.126247      -46.420807
 C        56.354797       39.968620      -45.363956
 N        55.468903       39.564167      -44.372948
 C        55.496220       40.265686      -43.150730
 C        56.592121       41.089985      -42.964104
 C        56.870987       41.687592      -41.718952
 H        57.719467       42.404053      -41.539597
 C        55.980148       41.547333      -40.640888
 H        56.203590       42.121269      -39.771595
 C        54.793991       40.787895      -40.795143
 H        54.198479       40.564159      -39.946671
 C        54.637047       40.110550      -41.994717
 H        53.610931       39.690636      -42.191563
 C        53.604752       37.689102      -44.395267
 H        53.240189       38.021858      -43.375385
 C        53.034454       36.695251      -45.167809
 H        52.210114       36.199654      -44.672081
 C        53.459980       36.466751      -46.479950
 H        52.734634       36.033630      -47.171021
 C        54.574097       37.141586      -46.965584
 H        54.953514       37.038879      -47.969421
 C        57.042297       38.900200      -47.534245
 C        58.112633       38.063675      -47.288464
 H        58.277428       37.813309      -46.157463
 C        58.909752       37.651688      -48.401730
 H        59.739666       37.056152      -48.129025
 C        58.639076       38.072960      -49.716255
 H        59.122768       37.614067      -50.608471
 C        57.532677       38.889557      -49.979401
 H        57.139278       39.279762      -50.934380
 C        56.808666       39.311508      -48.833645
 H        55.875656       39.802475      -49.094673
 C        55.556324       44.952892      -45.810234
 C        56.929192       45.316788      -45.785511
 N        55.535896       43.657871      -45.410110
 C        56.732887       43.160202      -45.079300
 N        57.579765       44.248383      -45.173485
 C        58.663982       44.192482      -44.228897
 C        58.957092       42.863312      -43.772820
 C        60.024300       42.691086      -42.889702
 H        60.471367       41.721058      -42.739418
 C        60.737663       43.814850      -42.448151
 H        61.511086       43.719078      -41.641464
 C        60.483986       45.108234      -42.945038
 H        61.187645       45.863899      -42.682678
 C        59.400635       45.287163      -43.790813
 H        59.155083       46.096275      -44.382114
 C        57.289268       46.556755      -46.240501
 H        58.271675       46.824722      -46.043335
 C        56.343056       47.483486      -46.697842
 H        56.575783       48.497810      -47.009422
 C        54.956055       47.186909      -46.689865
 H        54.239075       47.812035      -47.173450
 C        54.581139       45.913769      -46.200531
 H        53.534397       45.832363      -45.971603
 C        54.394257       42.927982      -45.138050
 C        53.696678       42.330845      -46.170624
 H        54.055973       42.452301      -47.228714
 C        52.507545       41.612556      -45.939919
 H        52.060280       40.946785      -46.619034
 C        51.961540       41.706589      -44.626282
 H        50.997643       41.336159      -44.387375
 C        52.554314       42.543739      -43.628487
 H        52.008846       42.878952      -42.719368
 C        53.808670       43.035248      -43.884064
 H        54.408733       43.423752      -43.054375
 Ir       57.750999       41.359688      -32.186073
 C        62.061790       41.297665      -31.497950
 C        61.503220       40.856773      -30.281267
 N        61.053673       41.591125      -32.366554
 C        59.816559       41.375725      -31.772797
 N        60.104668       40.907890      -30.498619
 C        58.976379       40.393646      -29.753359
 C        57.756538       40.954384      -30.132130
 C        56.604408       40.768219      -29.356924
 H        55.694061       41.211807      -29.645180
 C        56.714386       40.010536      -28.174713
 H        55.817245       39.730118      -27.636570
 C        57.894909       39.332657      -27.856197
 H        57.855453       38.993416      -26.832354
 C        59.052292       39.479774      -28.643555
 H        59.739807       38.607468      -28.621090
 C        62.399399       40.465588      -29.229298
 H        61.929008       40.138924      -28.292221
 C        63.767586       40.514481      -29.420570
 H        64.478310       40.248466      -28.645264
 C        64.296204       41.019417      -30.567963
 H        65.361443       41.358475      -30.612843
 C        63.479744       41.462070      -31.602734
 H        63.891144       42.198494      -32.277290
 C        61.287239       42.371040      -33.562248
 C        61.220818       41.875389      -34.870422
 H        61.096581       40.860439      -35.036674
 C        61.262367       42.734375      -35.999947
 H        61.013275       42.357159      -36.961124
 C        61.416389       44.094727      -35.877399
 H        61.558128       44.787865      -36.759823
 C        61.635048       44.595280      -34.568573
 H        61.615486       45.723133      -34.498104
 C        61.638741       43.756229      -33.417709
 H        61.745811       44.219055      -32.455612
 C        57.558212       37.067734      -33.101089
 C        56.264343       37.463753      -33.056549
 N        58.335670       38.168957      -32.732224
 C        57.558254       39.309853      -32.496277
 N        56.258690       38.885193      -32.614983
 C        55.203354       39.849297      -32.416584
 C        55.586563       41.181389      -32.219364
 C        54.613617       42.182598      -32.211578
 H        54.975151       43.116997      -31.939026
 C        53.255501       41.769691      -32.245235
 H        52.510620       42.569939      -32.134975
 C        52.891418       40.461624      -32.486698
 H        51.815033       40.220600      -32.416016
 C        53.848038       39.482800      -32.532330
 H        53.509468       38.421097      -32.303520
 C        55.279129       36.503693      -33.524456
 H        54.243195       36.749397      -33.370937
 C        55.611954       35.203331      -33.966820
 H        54.897865       34.591129      -34.406689
 C        56.953255       34.872177      -33.919472
 H        57.217339       33.886810      -34.177578
 C        57.907333       35.783218      -33.480335
 H        58.894318       35.441433      -33.444984
 C        59.667927       37.970444      -32.185055
 C        60.698814       38.375053      -32.982212
 H        60.438107       39.105915      -33.740086
 C        62.044937       37.987679      -32.719189
 H        62.854660       38.341133      -33.332314
 C        62.322350       37.219875      -31.596682
 H        63.326576       36.902267      -31.475204
 C        61.224579       36.736351      -30.846416
 H        61.559586       35.876587      -30.210041
 C        59.906311       37.113758      -31.098289
 H        59.126671       36.757034      -30.428726
 C        58.037132       42.535477      -36.351486
 C        57.938454       43.757084      -35.694717
 N        57.827156       41.502823      -35.386795
 C        57.683670       42.073296      -34.097076
 N        57.625702       43.490685      -34.290611
 C        57.603119       44.267845      -33.028542
 C        57.600937       43.449547      -31.889301
 C        57.452969       44.083092      -30.639606
 H        57.165226       43.512981      -29.721848
 C        57.284569       45.505852      -30.552465
 H        57.179474       46.113274      -29.603573
 C        57.388542       46.271713      -31.750778
 H        57.511147       47.319672      -31.757172
 C        57.493156       45.634895      -32.975777
 H        57.386497       46.250088      -33.863224
 C        58.186356       44.919621      -36.369072
 H        57.996258       45.857918      -35.853649
 C        58.585762       44.892086      -37.696407
 H        59.119492       45.676048      -38.149879
 C        58.658638       43.664604      -38.419506
 H        59.163689       43.810238      -39.335922
 C        58.407433       42.481316      -37.737503
 H        58.504536       41.485008      -38.188995
 C        57.327625       40.163216      -35.667759
 C        55.936535       39.985107      -35.902370
 H        55.262398       40.782898      -35.728954
 C        55.547028       38.764793      -36.387459
 H        54.471725       38.537823      -36.369701
 C        56.443565       37.677811      -36.621750
 H        56.159714       36.880684      -37.351276
 C        57.742142       37.810493      -36.223503
 H        58.340057       37.054985      -35.792099
 C        58.224350       39.060555      -35.826859
 H        59.274239       39.212032      -35.785828
