206
 generated by VMD
  IR         6.350000       19.299999       16.680000
  C1         6.310000       23.180000       18.680000
  C2         6.010000       23.500000       17.410000
  N1         6.530000       21.830000       18.770000
  C3a        6.330000       21.170000       17.600000
  N2         6.030000       22.230000       16.760000
  C4         5.540000       21.889999       15.430000
  C5a        5.800000       20.559999       15.100000
  C6         5.180000       20.120001       13.950000
  H1         5.270000       19.110001       13.680000
  C7         4.230000       20.850000       13.160000
  H2         3.830000       20.320000       12.300000
  C8         3.980000       22.190001       13.520000
  H3         3.350000       22.780001       12.920000
  C9         4.640000       22.719999       14.640000
  H4         4.520000       23.740000       14.800000
  C10        5.720000       24.820000       17.070000
  H5         5.610000       24.990000       16.010000
  C11        5.700000       25.799999       18.080000
  H6         5.330000       26.730000       17.850000
  C12        5.960000       25.480000       19.420000
  H7         5.520000       26.129999       20.170000
  C13        6.290000       24.160000       19.690001
  H8         6.490000       23.850000       20.719999
  C6         7.080000       21.290001       19.900000
  C1         6.290000       20.840000       20.969999
  H1         5.210000       21.020000       20.910000
  C2         6.900000       20.190001       22.070000
  H2         6.390000       20.000000       23.030001
  C3         8.250000       19.959999       22.000000
  H3         8.710000       19.520000       22.870001
  C4         9.060000       20.389999       20.990000
  H4         9.980000       19.950001       20.920000
  C5         8.400000       21.070000       19.950001
  H5         9.020000       21.500000       19.110001
  C1         2.130000       18.219999       16.020000
  C2         2.910000       17.270000       15.340000
  N1         3.060000       18.980000       16.799999
  C3b        4.350000       18.620001       16.590000
  N2         4.250000       17.480000       15.730000
  C4         5.500000       16.809999       15.350000
  C5b        6.610000       17.650000       15.410000
  C6         7.850000       17.059999       15.040000
  H1         8.680000       17.650000       14.740000
  C7         7.940000       15.740000       14.700000
  H2         8.890000       15.350000       14.350000
  C8         6.850000       14.910000       14.760000
  H3         7.000000       13.830000       14.620000
  C9         5.630000       15.430000       15.030000
  H4         4.790000       14.710000       15.040000
  C10        2.190000       16.330000       14.520000
  H5         2.720000       15.630000       13.890000
  C11        0.810000       16.410000       14.460000
  H6         0.280000       16.090000       13.660000
  C12        0.100000       17.270000       15.240000
  H7        -1.020000       17.200001       15.160000
  C13        0.780000       18.240000       15.970000
  H8         0.320000       19.219999       16.170000
  C6         2.580000       20.260000       17.360001
  C1         1.840000       21.120001       16.549999
  H1         1.370000       20.790001       15.610000
  C2         1.810000       22.480000       16.850000
  H2         1.080000       23.160000       16.379999
  C3         2.480000       23.030001       17.920000
  H3         2.130000       24.070000       18.170000
  C4         3.170000       22.150000       18.760000
  H4         3.600000       22.500000       19.650000
  C5         3.210000       20.780001       18.459999
  H5         3.860000       20.020000       19.000000
  C1         8.150000       16.730000       19.809999
  C2         9.180000       17.430000       19.360001
  N1         6.960000       17.170000       19.070000
  C3c        7.280000       18.030001       18.070000
  N2         8.640000       18.200001       18.290001
  C4         9.280000       18.980000       17.280001
  C5c        8.420000       19.709999       16.430000
  C6         8.950000       20.469999       15.360000
  H1         8.270000       21.230000       14.930000
  C7        10.340000       20.450001       15.090000
  H2        10.740000       21.150000       14.420000
  C8        11.190000       19.660000       15.870000
  H3        12.280000       19.570000       15.770000
  C9        10.660000       18.889999       16.959999
  H4        11.330000       18.250000       17.490000
  C10       10.300000       17.400000       20.049999
  H5        11.030000       18.110001       19.709999
  C11       10.530000       16.680000       21.190001
  H6        11.480000       16.459999       21.530001
  C12        9.500000       15.910000       21.660000
  H7         9.680000       15.110000       22.350000
  C13        8.310000       15.970000       20.920000
  H8         7.620000       15.240000       21.129999
  C6         5.680000       16.520000       19.230000
  C1         5.520000       15.280000       18.629999
  H1         6.190000       14.830000       17.889999
  C2         4.350000       14.600000       18.799999
  H2         4.330000       13.580000       18.450001
  C3         3.260000       15.190000       19.469999
  H3         2.400000       14.700000       19.799999
  C4         3.400000       16.480000       19.980000
  H4         2.580000       17.000000       20.420000
  C5         4.620000       17.100000       19.940001
  H5         4.610000       18.190001       20.100000
  IR        19.650000       12.180000       15.330000
  C1        20.809999        9.930000       18.820000
  C2        21.000000       11.260000       19.139999
  N1        20.400000        9.870000       17.469999
  C3a       20.280001       11.140000       17.000000
  N2        20.650000       11.990000       18.020000
  C4        20.280001       13.420000       17.900000
  C5a       19.860001       13.820000       16.670000
  C6        19.680000       15.190000       16.370001
  H1        19.520000       15.530000       15.390000
  C7        19.809999       16.139999       17.389999
  H2        19.590000       17.170000       17.290001
  C8        20.230000       15.740000       18.670000
  H3        20.760000       16.520000       19.260000
  C9        20.420000       14.380000       18.930000
  H4        20.430000       14.030000       19.920000
  C10       21.830000       11.560000       20.290001
  H5        22.090000       12.590000       20.430000
  C11       22.250000       10.580000       21.120001
  H6        22.730000       10.910000       22.040001
  C12       21.940001        9.190000       20.809999
  H7        22.219999        8.330000       21.389999
  C13       21.230000        8.890000       19.629999
  H8        21.170000        7.840000       19.309999
  C6        20.420000        8.610000       16.620001
  C1        19.330000        7.730000       16.719999
  H1        18.549999        7.880000       17.469999
  C2        19.230000        6.520000       16.049999
  H2        18.490000        5.800000       16.260000
  C3        20.240000        6.180000       15.230000
  H3        20.059999        5.500000       14.440000
  C4        21.400000        6.990000       15.080000
  H4        22.160000        6.790000       14.360000
  C5        21.520000        8.170000       15.840000
  H5        22.480000        8.700000       15.820000
  C1        15.380000       12.540000       16.299999
  C2        15.550000       13.440000       15.260000
  N1        16.650000       11.890000       16.530001
  C3b       17.590000       12.360000       15.670000
  N2        16.959999       13.310000       14.890000
  C4        17.650000       13.830000       13.790000
  C5b       19.020000       13.430000       13.760000
  C6        19.790001       13.740000       12.690000
  H1        20.700001       13.150000       12.590000
  C7        19.299999       14.510000       11.610000
  H2        19.950001       14.750000       10.800000
  C8        17.980000       14.940000       11.610000
  H3        17.639999       15.590000       10.840000
  C9        17.150000       14.630000       12.690000
  H4        16.160000       15.040000       12.890000
  C10       14.410000       14.110000       14.750000
  H5        14.490000       14.830000       13.980000
  C11       13.160000       13.840000       15.260000
  H6        12.250000       14.380000       14.880000
  C12       13.050000       12.970000       16.370001
  H7        12.210000       12.700000       16.959999
  C13       14.160000       12.350000       16.879999
  H8        14.150000       11.780000       17.790001
  C6        16.969999       11.550000       17.850000
  C1        17.160000       10.200000       18.200001
  H1        16.750000        9.480000       17.540001
  C2        17.549999        9.840000       19.430000
  H2        17.820000        8.820000       19.650000
  C3        17.889999       10.800000       20.379999
  H3        18.340000       10.540000       21.309999
  C4        17.750000       12.160000       20.080000
  H4        17.910000       12.970000       20.760000
  C5        17.240000       12.450000       18.799999
  H5        16.930000       13.470000       18.770000
  C1        19.600000        8.780000       12.490000
  C2        20.900000        9.130000       12.630000
  N1        18.840000        9.730000       13.210000
  C3c       19.690001       10.620000       13.910000
  N2        20.959999       10.320000       13.400000
  C4        21.990000       11.140000       13.950000
  C5c       21.680000       12.180000       14.810000
  C6        22.700001       13.010000       15.330000
  H1        22.590000       13.990000       15.690000
  C7        24.080000       12.790000       15.060000
  H2        24.910000       13.320000       15.540000
  C8        24.360001       11.770000       14.150000
  H3        25.379999       11.470000       13.950000
  C9        23.350000       10.950000       13.650000
  H4        23.750000       10.200000       13.070000
  C10       21.930000        8.330000       12.040000
  H5        22.969999        8.610000       12.210000
  C11       21.549999        7.180000       11.390000
  H6        22.290001        6.690000       10.660000
  C12       20.190001        6.740000       11.450000
  H7        20.059999        5.640000       11.340000
  C13       19.180000        7.560000       11.910000
  H8        18.190001        7.240000       11.960000
  C6        17.379999        9.760000       13.350000
  C1        16.740000       10.500000       12.400000
  H1        17.230000       11.140000       11.730000
  C2        15.390000       10.680000       12.490000
  H2        14.900000       11.460000       11.900000
  C3        14.650000       10.100000       13.520000
  H3        13.770000       10.650000       13.780000
  C4        15.230000        9.280000       14.410000
  H4        14.650000        8.670000       15.020000
  C5        16.620001        9.190000       14.330000
  H5        17.080000        8.370000       14.860000
