206
 generated by VMD
 Ir       33.182037      -39.335831       -2.684887
 C        35.007710      -42.737629       -4.722206
 C        33.705730      -42.878159       -5.022869
 N        35.171432      -41.651276       -3.902429
 C        34.018135      -40.975014       -3.663510
 N        33.113316      -41.767941       -4.350363
 C        31.764406      -41.236927       -4.502263
 C        31.512100      -40.187088       -3.619327
 C        30.336466      -39.506561       -3.854416
 H        30.117100      -38.658600       -3.276536
 C        29.444252      -39.701775       -4.961369
 H        28.578537      -39.045731       -4.986814
 C        29.726803      -40.765152       -5.842897
 H        29.054867      -40.987968       -6.619979
 C        30.871914      -41.543903       -5.612317
 H        30.978939      -42.386520       -6.211439
 C        33.288765      -43.905022       -5.867729
 H        32.217190      -44.002983       -5.949756
 C        34.251949      -44.759567       -6.435997
 H        33.954670      -45.404846       -7.177576
 C        35.620510      -44.600159       -6.176697
 H        36.305607      -44.965546       -6.935469
 C        35.970894      -43.592175       -5.290474
 H        37.025551      -43.413265       -5.060932
 C        36.362869      -41.434784       -3.266341
 C        37.385460      -40.665203       -3.843879
 H        37.233261      -40.314171       -4.871504
 C        38.556358      -40.380051       -3.100722
 H        39.480457      -39.971840       -3.544807
 C        38.602394      -40.814426       -1.800916
 H        39.523590      -40.643623       -1.267693
 C        37.641975      -41.575813       -1.201761
 H        37.663059      -41.622108       -0.180826
 C        36.525650      -41.863819       -2.008276
 H        35.719624      -42.535530       -1.591114
 C        32.238487      -36.391994       -5.823989
 C        31.662447      -35.922592       -4.631873
 N        33.056488      -37.500950       -5.434134
 C        32.963837      -37.792404       -4.113427
 N        32.147358      -36.740158       -3.588686
 C        31.895281      -36.739433       -2.142222
 C        32.006927      -38.003868       -1.567741
 C        31.760662      -38.068947       -0.168558
 H        31.502254      -38.980835        0.309662
 C        31.484613      -36.947693        0.561290
 H        31.227064      -37.052227        1.610023
 C        31.493637      -35.701508       -0.011026
 H        31.411415      -34.820156        0.640861
 C        31.644821      -35.584152       -1.350829
 H        31.619064      -34.552940       -1.750870
 C        30.828678      -34.754055       -4.749144
 H        30.272278      -34.387062       -3.898534
 C        30.657110      -34.173275       -5.993193
 H        29.832108      -33.641014       -6.236858
 C        31.342037      -34.596371       -7.090446
 H        31.177290      -34.006058       -8.033892
 C        32.081760      -35.772476       -7.014381
 H        32.203594      -36.419357       -7.896821
 C        33.522697      -38.402878       -6.507251
 C        32.621593      -38.811817       -7.489127
 H        31.662285      -38.299061       -7.662928
 C        32.860832      -39.996658       -8.181525
 H        32.306732      -40.251625       -9.100312
 C        33.956085      -40.797768       -7.947111
 H        34.133835      -41.549461       -8.765621
 C        34.883980      -40.347595       -7.002411
 H        35.789505      -40.859108       -6.868681
 C        34.645950      -39.158657       -6.296530
 H        35.266846      -38.795403       -5.416626
 C        36.549129      -37.919605       -0.175154
 C        36.152412      -39.022861        0.440348
 N        35.700058      -37.745880       -1.360983
 C        34.693005      -38.655102       -1.395131
 N        35.011848      -39.446846       -0.300425
 C        34.023346      -40.436562       -0.015080
 C        33.078442      -40.674255       -1.037654
 C        32.022377      -41.594429       -0.834151
 H        31.508684      -41.943520       -1.750203
 C        31.863518      -42.232826        0.419888
 H        31.198170      -43.038742        0.501790
 C        32.740440      -41.937515        1.468125
 H        32.730278      -42.372612        2.476484
 C        33.816845      -41.008530        1.267540
 H        34.424309      -40.760513        2.109488
 C        36.928936      -39.525009        1.376431
 H        36.617786      -40.495495        1.713996
 C        38.112762      -38.998802        1.815248
 H        38.535316      -39.253208        2.722566
 C        38.532345      -37.833832        1.230871
 H        39.267395      -37.213490        1.703498
 C        37.699257      -37.325089        0.223673
 H        37.884911      -36.355854       -0.057778
 C        35.786179      -36.568718       -2.193669
 C        35.228157      -35.399994       -1.697781
 H        34.562683      -35.319481       -0.831953
 C        35.334148      -34.248299       -2.420664
 H        35.026878      -33.339607       -1.927543
 C        35.891014      -34.254009       -3.714869
 H        36.172729      -33.416130       -4.269114
 C        36.355717      -35.457375       -4.243801
 H        36.707657      -35.528801       -5.247514
 C        36.385666      -36.579773       -3.460397
 H        36.498386      -37.536018       -3.995832
 Ir       33.182034      -39.335831       12.461296
 C        36.843948      -37.899666       14.226526
 C        37.121651      -39.161892       13.739632
 N        35.469627      -37.653267       14.015036
 C        34.938644      -38.716286       13.354545
 N        35.947899      -39.640282       13.188957
 C        35.739147      -40.726372       12.202532
 C        34.464211      -40.880791       11.755324
 C        34.093632      -42.003654       10.979987
 H        33.090656      -42.227890       10.767010
 C        35.079823      -42.902550       10.556645
 H        34.919609      -43.706787        9.888186
 C        36.404560      -42.748127       10.999397
 H        37.001045      -43.685928       11.045540
 C        36.735664      -41.638802       11.782379
 H        37.737236      -41.334953       11.867451
 C        38.319679      -39.818108       14.224936
 H        38.436222      -40.848885       13.956577
 C        39.220604      -39.152344       14.980447
 H        40.160782      -39.669823       15.164809
 C        38.945950      -37.780586       15.389282
 H        39.581821      -37.154549       15.987729
 C        37.727474      -37.181007       15.012025
 H        37.448204      -36.226990       15.481450
 C        34.677586      -36.551865       14.700665
 C        34.728554      -35.261600       14.148289
 H        35.407967      -35.025711       13.326002
 C        34.104263      -34.147644       14.689000
 H        34.285568      -33.163628       14.358942
 C        33.381195      -34.324577       15.808807
 H        32.608799      -33.640125       16.040819
 C        33.288872      -35.586166       16.460014
 H        32.639870      -35.768539       17.285568
 C        34.005638      -36.683113       15.942946
 H        34.038857      -37.603455       16.538567
 C        33.797493      -37.637924        8.456083
 C        32.737129      -38.511616        8.274981
 N        34.153717      -37.664268        9.856337
 C        33.351234      -38.522274       10.537473
 N        32.484871      -39.062477        9.607204
 C        31.421593      -39.846573       10.066700
 C        31.516193      -40.140514       11.460419
 C        30.497917      -40.777229       12.086206
 H        30.494644      -40.686562       13.171550
 C        29.351320      -41.224808       11.390227
 H        28.585526      -41.743179       11.920376
 C        29.229507      -40.980911       10.028988
 H        28.408512      -41.393497        9.493505
 C        30.253027      -40.315880        9.349621
 H        30.357189      -40.210102        8.269732
 C        32.111397      -38.564262        7.004437
 H        31.320457      -39.236782        6.804855
 C        32.532497      -37.736267        5.988266
 H        32.059788      -37.782856        4.969212
 C        33.666035      -36.917343        6.201713
 H        34.199036      -36.282860        5.538437
 C        34.287308      -36.894623        7.422410
 H        35.216881      -36.387383        7.600468
 C        35.507912      -37.515549       10.179506
 C        35.928242      -36.415031       10.949767
 H        35.268936      -35.586765       10.987031
 C        37.199135      -36.281715       11.351828
 H        37.482384      -35.509899       12.048797
 C        38.131683      -37.288540       11.114429
 H        39.104282      -37.271706       11.548908
 C        37.764671      -38.421463       10.378918
 H        38.420460      -39.211090       10.078035
 C        36.437485      -38.436432        9.908845
 H        36.340340      -39.189377        9.159819
 C        30.492435      -36.314728       14.268814
 C        30.719309      -37.236847       15.233349
 N        31.109886      -36.793571       13.090696
 C        31.836452      -37.979385       13.356321
 N        31.440899      -38.314293       14.658001
 C        32.035152      -39.523342       15.127961
 C        32.823620      -40.293915       14.290207
 C        33.386787      -41.507065       14.749359
 H        33.695484      -42.319130       14.159995
 C        33.235558      -41.964417       16.088634
 H        33.756573      -42.823402       16.525536
 C        32.394089      -41.197315       16.895102
 H        32.287659      -41.414230       17.949623
 C        31.851208      -39.997704       16.438246
 H        31.336498      -39.525276       17.193748
 C        30.246248      -37.017677       16.566456
 H        30.485516      -37.755371       17.332912
 C        29.617352      -35.824471       16.831308
 H        28.969019      -35.741730       17.776516
 C        29.588753      -34.794685       15.838571
 H        29.515247      -33.763550       16.251314
 C        29.933062      -35.040932       14.525209
 H        29.918530      -34.291569       13.801853
 C        31.133339      -36.130959       11.782076
 C        30.105700      -36.481293       10.956898
 H        29.449947      -37.276794       11.146034
 C        30.081688      -36.002838        9.678814
 H        29.422718      -36.459236        8.934461
 C        31.073837      -35.142242        9.209856
 H        31.240517      -35.211807        8.155401
 C        32.040367      -34.693054       10.025303
 H        32.628021      -33.881531        9.748382
 C        32.073696      -35.269741       11.295314
 H        32.672226      -34.763916       12.037474
