206
 generated by VMD
  IR         7.830000       60.080002        2.760000
  C1         5.590000       59.209999        6.470000
  C2         5.170000       58.220001        5.550000
  N1         6.500000       60.080002        5.800000
  C3a        6.650000       59.689999        4.420000
  N2         5.930000       58.470001        4.360000
  C4         6.260000       57.669998        3.230000
  C5a        6.790000       58.380001        2.150000
  C6         6.700000       57.740002        0.890000
  H1         6.870000       58.369999        0.040000
  C7         6.170000       56.450001        0.740000
  H2         5.960000       56.220001       -0.260000
  C8         5.710000       55.759998        1.830000
  H3         5.510000       54.689999        1.690000
  C9         5.710000       56.400002        3.060000
  H4         5.340000       55.779999        3.840000
  C10        4.210000       57.169998        6.010000
  H5         3.730000       56.570000        5.260000
  C11        3.830000       57.150002        7.340000
  H6         3.340000       56.299999        7.750000
  C12        4.140000       58.200001        8.180000
  H7         3.730000       58.310001        9.170000
  C13        5.070000       59.259998        7.740000
  H8         5.200000       60.180000        8.330000
  C6         7.140000       61.200001        6.440000
  C1         6.830000       62.500000        5.950000
  H1         6.080000       62.490002        5.170000
  C2         7.330000       63.639999        6.540000
  H2         6.730000       64.510002        6.440000
  C3         8.220000       63.509998        7.560000
  H3         8.720000       64.379997        7.980000
  C4         8.540000       62.230000        8.090000
  H4         9.380000       62.110001        8.720000
  C5         7.930000       61.070000        7.570000
  H5         7.840000       60.139999        7.990000
  C1        10.840000       56.959999        3.120000
  C2        10.910000       57.450001        1.860000
  N1         9.860000       57.750000        3.760000
  C3b        9.420000       58.750000        2.990000
  N2        10.120000       58.570000        1.790000
  C4         9.990000       59.540001        0.750000
  C5b        8.770000       60.209999        0.850000
  C6         8.370000       61.090000       -0.180000
  H1         7.330000       61.480000       -0.340000
  C7         9.200000       61.330002       -1.290000
  H2         8.850000       61.919998       -2.110000
  C8        10.450000       60.720001       -1.350000
  H3        11.220000       60.830002       -2.140000
  C9        10.830000       59.740002       -0.430000
  H4        11.830000       59.340000       -0.540000
  C10       11.700000       56.779999        0.850000
  H5        11.950000       57.169998       -0.120000
  C11       12.320000       55.639999        1.180000
  H6        12.990000       55.139999        0.480000
  C12       12.300000       55.160000        2.510000
  H7        12.810000       54.220001        2.840000
  C13       11.590000       55.849998        3.510000
  H8        11.550000       55.509998        4.550000
  C6         9.460000       57.520000        5.140000
  C1         8.540000       56.439999        5.450000
  H1         8.320000       55.750000        4.690000
  C2         8.060000       56.299999        6.750000
  H2         7.240000       55.639999        6.940000
  C3         8.540000       57.099998        7.800000
  H3         8.220000       56.970001        8.860000
  C4         9.480000       58.090000        7.550000
  H4         9.950000       58.520000        8.400000
  C5         9.930000       58.340000        6.180000
  H5        10.690000       59.049999        5.890000
  C1         9.500000       63.860001        4.070000
  C2         8.370000       64.190002        3.400000
  N1         9.710000       62.480000        3.860000
  C3c        8.720000       61.939999        3.080000
  N2         7.900000       63.040001        2.780000
  C4         6.700000       62.810001        2.050000
  C5c        6.300000       61.439999        2.140000
  C6         5.200000       61.020000        1.440000
  H1         4.710000       60.080002        1.600000
  C7         4.600000       61.900002        0.540000
  H2         3.800000       61.560001       -0.130000
  C8         5.010000       63.240002        0.390000
  H3         4.690000       63.849998       -0.470000
  C9         6.120000       63.660000        1.180000
  H4         6.400000       64.730003        1.030000
  C10        7.880000       65.529999        3.440000
  H5         6.880000       65.720001        3.200000
  C11        8.480000       66.419998        4.350000
  H6         7.990000       67.320000        4.650000
  C12        9.670000       66.029999        4.990000
  H7        10.300000       66.750000        5.360000
  C13       10.130000       64.760002        4.840000
  H8        10.970000       64.480003        5.370000
  C6        10.950000       61.810001        4.260000
  C1        11.770000       61.340000        3.180000
  H1        11.550000       61.480000        2.170000
  C2        13.050000       60.779999        3.450000
  H2        13.800000       60.720001        2.710000
  C3        13.400000       60.570000        4.760000
  H3        14.280000       59.990002        4.870000
  C4        12.580000       60.980000        5.790000
  H4        12.940000       60.700001        6.770000
  C5        11.370000       61.639999        5.550000
  H5        11.200000       62.450001        6.250000
  IR        17.709999       53.389999        8.950000
  C1        14.010000       55.630001        9.940000
  C2        13.840000       55.259998        8.630000
  N1        15.360000       55.259998       10.290000
  C3a       16.049999       54.619999        9.290000
  N2        15.110000       54.700001        8.200000
  C4        15.480000       54.110001        6.980000
  C5a       16.709999       53.380001        7.060000
  C6        17.120001       52.660000        5.910000
  H1        17.920000       51.970001        5.900000
  C7        16.280001       52.590000        4.810000
  H2        16.450001       51.730000        4.200000
  C8        15.080000       53.290001        4.770000
  H3        14.420000       53.080002        3.950000
  C9        14.670000       54.130001        5.820000
  H4        14.020000       54.950001        5.740000
  C10       12.550000       55.299999        8.050000
  H5        12.320000       55.230000        7.040000
  C11       11.410000       55.540001        8.840000
  H6        10.520000       55.000000        8.530000
  C12       11.620000       55.799999       10.210000
  H7        10.700000       55.860001       10.740000
  C13       12.910000       55.930000       10.770000
  H8        13.030000       56.480000       11.670000
  C6        15.970000       55.820000       11.470000
  C1        16.030001       55.119999       12.750000
  H1        15.470000       54.259998       13.090000
  C2        16.940001       55.529999       13.730000
  H2        16.900000       55.090000       14.630000
  C3        17.780001       56.619999       13.560000
  H3        18.420000       56.880001       14.360000
  C4        17.690001       57.349998       12.340000
  H4        18.180000       58.299999       12.420000
  C5        16.870001       56.930000       11.320000
  H5        16.930000       57.480000       10.410000
  C1        15.840000       49.490002        9.080000
  C2        17.260000       49.209999        8.840000
  N1        15.770000       50.849998        9.390000
  C3b       16.930000       51.470001        9.270000
  N2        17.799999       50.470001        8.880000
  C4        19.110001       50.849998        8.470000
  C5b       19.230000       52.139999        8.080000
  C6        20.299999       52.580002        7.280000
  H1        20.450001       53.650002        7.000000
  C7        21.280001       51.610001        7.020000
  H2        22.219999       51.980000        6.570000
  C8        21.240000       50.250000        7.430000
  H3        22.129999       49.599998        7.310000
  C9        20.139999       49.860001        8.150000
  H4        20.280001       48.970001        8.760000
  C10       17.639999       47.910000        8.510000
  H5        18.600000       47.700001        8.170000
  C11       16.709999       46.919998        8.570000
  H6        17.010000       45.900002        8.490000
  C12       15.340000       47.150002        8.770000
  H7        14.670000       46.330002        8.840000
  C13       14.910000       48.500000        8.990000
  H8        13.980000       48.669998        9.440000
  C6        14.530000       51.490002        9.820000
  C1        14.450000       52.020000       11.130000
  H1        15.270000       52.150002       11.780000
  C2        13.250000       52.360001       11.640000
  H2        13.250000       52.779999       12.670000
  C3        12.130000       52.410000       10.800000
  H3        11.270000       52.910000       11.170000
  C4        12.190000       52.060001        9.480000
  H4        11.300000       51.959999        8.830000
  C5        13.430000       51.619999        8.950000
  H5        13.510000       51.020000        8.030000
  C1        20.150000       53.630001       12.520000
  C2        20.420000       54.820000       11.850000
  N1        19.240000       52.880001       11.740000
  C3c       18.940001       53.580002       10.630000
  N2        19.670000       54.750000       10.710000
  C4        19.680000       55.560001        9.490000
  C5c       18.790001       55.189999        8.520000
  C6        18.559999       56.060001        7.480000
  H1        18.139999       55.730000        6.490000
  C7        19.129999       57.290001        7.480000
  H2        18.709999       58.020000        6.750000
  C8        20.040001       57.750000        8.500000
  H3        20.420000       58.709999        8.400000
  C9        20.360001       56.790001        9.480000
  H4        21.370001       56.950001        9.880000
  C10       21.340000       55.759998       12.400000
  H5        21.370001       56.750000       12.050000
  C11       21.840000       55.439999       13.670000
  H6        22.410000       56.119999       14.340000
  C12       21.549999       54.180000       14.280000
  H7        22.080000       53.900002       15.180000
  C13       20.760000       53.250000       13.660000
  H8        20.639999       52.320000       14.200000
  C6        18.969999       51.500000       12.110000
  C1        17.840000       51.279999       12.930000
  H1        17.400000       52.099998       13.460000
  C2        17.530001       50.000000       13.180000
  H2        16.570000       49.790001       13.560000
  C3        18.240000       48.919998       12.740000
  H3        17.680000       47.990002       12.710000
  C4        19.430000       49.139999       12.080000
  H4        19.620001       48.380001       11.320000
  C5        19.840000       50.430000       11.720000
  H5        20.809999       50.540001       11.140000
