206
 generated by VMD
 Ir      -17.380392      -28.471354       80.337532
 C       -16.410284      -28.801708       76.166977
 C       -16.059702      -27.505817       76.461517
 N       -16.704981      -29.471756       77.360794
 C       -16.627239      -28.627907       78.466263
 N       -16.185804      -27.409023       77.923721
 C       -16.287176      -26.292250       78.731140
 C       -17.028681      -26.426979       79.925049
 C       -17.061998      -25.339531       80.779480
 H       -17.670412      -25.396179       81.635765
 C       -16.403889      -24.087036       80.431412
 H       -16.311188      -23.334684       81.173012
 C       -15.764107      -24.031601       79.224678
 H       -15.501583      -23.149237       78.735481
 C       -15.680975      -25.098404       78.408875
 H       -15.013987      -25.152023       77.567062
 C       -15.747728      -26.600948       75.425369
 H       -15.340714      -25.598854       75.622971
 C       -15.930758      -26.991642       74.052948
 H       -15.620537      -26.330372       73.226944
 C       -16.282501      -28.316528       73.790932
 H       -16.093117      -28.739618       72.799507
 C       -16.493649      -29.222057       74.842377
 H       -16.650707      -30.257435       74.630173
 C       -16.963602      -30.889336       77.369949
 C       -18.243044      -31.356771       76.996819
 H       -18.807671      -30.699995       76.353897
 C       -18.603228      -32.698128       77.168686
 H       -19.617390      -33.056610       76.856018
 C       -17.691978      -33.529427       77.794441
 H       -18.114998      -34.465393       78.110229
 C       -16.405609      -33.052654       78.148468
 H       -15.567526      -33.755898       78.360046
 C       -16.042130      -31.721626       77.967514
 H       -14.939178      -31.509989       78.094040
 C       -13.754297      -28.381050       82.628685
 C       -14.671728      -27.804747       83.457115
 N       -14.406448      -28.710892       81.435204
 C       -15.716796      -28.462223       81.557892
 N       -15.889760      -27.961588       82.797340
 C       -17.194590      -27.694351       83.198105
 C       -18.180283      -27.913696       82.220352
 C       -19.576313      -27.848660       82.520622
 H       -20.285255      -28.321268       81.864998
 C       -19.963728      -27.581961       83.882088
 H       -21.001825      -27.750755       84.192665
 C       -18.968147      -27.393589       84.832581
 H       -19.317455      -26.980494       85.766357
 C       -17.639946      -27.409313       84.484688
 H       -16.947329      -27.410837       85.331970
 C       -14.291039      -26.987480       84.460526
 H       -15.110806      -26.678947       85.078339
 C       -12.932545      -26.696875       84.645035
 H       -12.762157      -26.189440       85.583054
 C       -11.961027      -27.331169       83.902115
 H       -10.942406      -27.189596       84.319809
 C       -12.370368      -28.188414       82.889709
 H       -11.628766      -28.685856       82.282104
 C       -13.717457      -28.607464       80.180771
 C       -13.453245      -27.345964       79.657593
 H       -13.493729      -26.504318       80.326469
 C       -12.773205      -27.202559       78.398514
 H       -12.638545      -26.290539       77.851257
 C       -12.176170      -28.326359       77.866898
 H       -11.548998      -28.192390       76.929550
 C       -12.299145      -29.567867       78.440598
 H       -12.011171      -30.439827       77.851898
 C       -13.134880      -29.722589       79.601028
 H       -13.393963      -30.676235       80.051399
 C       -18.572166      -32.597439       81.071823
 C       -19.547810      -32.010952       80.271667
 N       -17.678789      -31.579641       81.306915
 C       -18.078953      -30.361191       80.767799
 N       -19.241669      -30.688929       80.102158
 C       -19.752748      -29.739901       79.223618
 C       -19.211914      -28.460594       79.374878
 C       -19.759464      -27.417988       78.596893
 H       -19.840292      -26.509678       79.142365
 C       -20.682276      -27.667974       77.621735
 H       -20.910172      -26.919167       76.842285
 C       -21.247679      -28.927620       77.450226
 H       -21.983028      -29.233948       76.662117
 C       -20.725632      -29.959574       78.239868
 H       -21.101418      -30.914663       77.956161
 C       -20.576885      -32.852802       79.853470
 H       -21.513657      -32.417435       79.679367
 C       -20.430225      -34.251381       79.977036
 H       -20.868950      -34.850189       79.221619
 C       -19.344627      -34.781197       80.708649
 H       -19.267143      -35.791969       80.729652
 C       -18.462803      -33.901451       81.327545
 H       -17.608185      -34.294308       81.874802
 C       -16.646395      -31.690449       82.302551
 C       -16.886248      -31.137861       83.579773
 H       -17.839106      -30.710939       83.772652
 C       -15.929319      -30.968491       84.548851
 H       -16.134291      -30.401087       85.348625
 C       -14.624899      -31.353022       84.237206
 H       -13.932549      -31.068001       84.967896
 C       -14.286585      -31.886936       82.952454
 H       -13.234365      -31.756802       82.690933
 C       -15.293362      -32.006004       81.974182
 H       -15.014279      -32.279510       80.999397
 Ir      -17.380394      -28.471352       90.661423
 C       -14.295499      -31.393990       89.488129
 C       -14.073771      -30.249355       88.730141
 N       -15.505367      -31.136850       90.242981
 C       -15.944126      -29.798241       90.015587
 N       -15.033620      -29.237803       89.059608
 C       -15.221642      -27.856140       88.698135
 C       -16.517855      -27.429649       89.075150
 C       -16.962322      -26.200546       88.540871
 H       -17.972298      -25.762642       88.744576
 C       -16.125025      -25.401991       87.816071
 H       -16.562721      -24.554659       87.233788
 C       -14.777980      -25.724249       87.592201
 H       -14.172435      -25.100651       86.949127
 C       -14.335955      -27.008602       87.957230
 H       -13.355687      -27.269903       87.630127
 C       -12.927503      -30.229284       87.857353
 H       -12.409275      -29.341640       87.630997
 C       -12.103931      -31.292231       87.756981
 H       -11.143638      -31.340576       87.191650
 C       -12.342811      -32.445213       88.562256
 H       -11.695972      -33.273666       88.538567
 C       -13.415637      -32.466934       89.408524
 H       -13.609772      -33.348637       89.943787
 C       -16.216562      -32.195923       91.001373
 C       -17.552368      -32.511467       90.666328
 H       -17.891441      -32.439545       89.636154
 C       -18.396772      -33.193817       91.586700
 H       -19.395721      -33.420063       91.349396
 C       -17.844284      -33.521965       92.820343
 H       -18.310942      -33.889767       93.696388
 C       -16.522301      -33.296047       93.164169
 H       -16.110359      -33.865280       93.993423
 C       -15.732763      -32.632038       92.277756
 H       -14.823614      -32.348892       92.703987
 C       -14.913158      -25.846699       93.273499
 C       -16.123713      -25.211105       93.003723
 N       -15.008184      -27.109104       92.538315
 C       -16.285019      -27.175665       91.864693
 N       -16.977787      -26.124464       92.278992
 C       -18.347404      -26.035606       92.066498
 C       -18.788202      -26.959846       91.140823
 C       -20.166931      -26.986532       90.748138
 H       -20.507607      -27.677599       89.957024
 C       -21.115112      -26.252621       91.485382
 H       -22.157761      -26.501930       91.456551
 C       -20.665850      -25.337387       92.446381
 H       -21.331127      -24.733633       92.960846
 C       -19.270948      -25.234043       92.735794
 H       -18.899218      -24.828861       93.675934
 C       -16.201921      -23.908289       93.366005
 H       -17.135429      -23.418659       93.329544
 C       -15.091005      -23.164406       93.881180
 H       -15.291441      -22.078068       93.993874
 C       -13.903934      -23.838657       94.186371
 H       -12.982882      -23.400215       94.462479
 C       -13.896436      -25.200123       93.843079
 H       -12.990522      -25.723467       94.072929
 C       -13.913233      -28.046410       92.393600
 C       -12.730846      -27.639620       91.743851
 H       -12.589064      -26.633694       91.323593
 C       -11.704174      -28.567589       91.552765
 H       -10.780381      -28.228558       91.205391
 C       -11.864385      -29.843700       91.965164
 H       -11.003175      -30.519167       91.790344
 C       -12.978037      -30.226212       92.777351
 H       -13.003070      -31.117914       93.374298
 C       -14.023140      -29.339211       92.931267
 H       -14.817031      -29.540728       93.565720
 C       -20.347046      -30.156290       93.327126
 C       -20.876429      -30.429794       92.059113
 N       -19.043695      -29.584747       93.194412
 C       -18.648075      -29.580276       91.868973
 N       -19.793043      -30.149860       91.154404
 C       -19.635927      -30.226006       89.724014
 C       -18.617647      -29.453150       89.204117
 C       -18.491764      -29.347080       87.830498
 H       -17.813627      -28.659561       87.339233
 C       -19.413746      -30.062859       86.999710
 H       -19.231291      -30.036852       85.968719
 C       -20.388508      -30.916330       87.516937
 H       -20.864866      -31.679771       86.923943
 C       -20.495026      -30.972425       88.895813
 H       -20.999613      -31.874119       89.319183
 C       -22.130919      -30.970591       91.910477
 H       -22.599575      -30.954351       90.973618
 C       -22.880066      -31.097305       93.037468
 H       -23.885860      -31.487526       92.995026
 C       -22.382515      -30.843464       94.305267
 H       -23.026768      -30.898464       95.201706
 C       -21.122372      -30.332321       94.467651
 H       -20.635441      -30.469482       95.383446
 C       -18.110466      -29.480389       94.316811
 C       -17.533291      -28.252811       94.749146
 H       -18.067251      -27.330673       94.608276
 C       -16.403563      -28.209309       95.593735
 H       -15.937297      -27.257519       95.803947
 C       -15.771013      -29.344734       95.990715
 H       -15.010236      -29.359219       96.767380
 C       -16.243361      -30.594280       95.533310
 H       -15.643148      -31.470070       95.579514
 C       -17.418816      -30.605160       94.756149
 H       -17.716362      -31.513245       94.403366
