206
 generated by VMD
  IR        11.580000       28.840000       23.480000
  C1         8.600000       27.170000       26.350000
  C2         7.870000       27.969999       25.510000
  N1         9.990000       27.400000       25.990000
  C3a       10.100000       28.230000       24.860001
  N2         8.820000       28.480000       24.559999
  C4         8.610000       28.910000       23.200001
  C5a        9.760000       29.500000       22.650000
  C6         9.580000       30.320000       21.530001
  H1        10.540000       30.820000       21.240000
  C7         8.320000       30.549999       20.959999
  H2         8.120000       31.379999       20.340000
  C8         7.220000       29.809999       21.400000
  H3         6.290000       30.030001       20.969999
  C9         7.380000       28.969999       22.520000
  H4         6.450000       28.540001       22.879999
  C10        6.560000       28.129999       25.700001
  H5         5.970000       28.799999       25.150000
  C11        5.870000       27.400000       26.719999
  H6         4.790000       27.420000       26.719999
  C12        6.580000       26.530001       27.530001
  H7         6.210000       25.590000       27.850000
  C13        7.980000       26.549999       27.440001
  H8         8.590000       25.990000       28.170000
  C6        11.050000       27.180000       26.889999
  C1        11.780000       25.959999       26.840000
  H1        11.730000       25.360001       25.969999
  C2        12.680000       25.650000       27.850000
  H2        13.400000       24.889999       27.570000
  C3        12.750000       26.459999       29.020000
  H3        13.700000       26.410000       29.590000
  C4        12.040000       27.650000       29.040001
  H4        12.220000       28.290001       29.830000
  C5        11.240000       27.990000       28.010000
  H5        10.680000       28.879999       28.110001
  C1        10.530000       26.190001       20.190001
  C2        11.400000       27.150000       19.660000
  N1        10.590000       26.379999       21.610001
  C3b       11.430000       27.410000       22.010000
  N2        11.960000       27.809999       20.799999
  C4        12.980000       28.799999       20.889999
  C5b       12.860000       29.559999       21.990000
  C6        13.710000       30.690001       22.059999
  H1        13.570000       31.320000       22.910000
  C7        14.680000       30.980000       21.100000
  H2        15.250000       31.940001       21.160000
  C8        14.760000       30.170000       20.000000
  H3        15.710000       30.200001       19.360001
  C9        13.880000       29.080000       19.889999
  H4        14.150000       28.420000       19.049999
  C10       11.420000       27.250000       18.219999
  H5        12.110000       27.870001       17.670000
  C11       10.630000       26.389999       17.459999
  H6        10.770000       26.379999       16.410000
  C12        9.760000       25.420000       18.049999
  H7         8.870000       25.070000       17.660000
  C13        9.720000       25.280001       19.420000
  H8         9.270000       24.459999       19.950001
  C6        10.020000       25.430000       22.510000
  C1        10.790000       24.610001       23.260000
  H1        11.860000       24.690001       23.270000
  C2        10.130000       23.719999       24.129999
  H2        10.790000       23.129999       24.790001
  C3         8.740000       23.620001       24.190001
  H3         8.320000       22.889999       24.809999
  C4         8.050000       24.520000       23.480000
  H4         6.970000       24.480000       23.549999
  C5         8.680000       25.350000       22.559999
  H5         7.960000       25.700001       21.799999
  C1        14.990000       27.389999       25.780001
  C2        14.560000       28.549999       26.450001
  N1        14.200000       27.309999       24.570000
  C3c       13.320000       28.340000       24.430000
  N2        13.490000       29.049999       25.670000
  C4        12.700000       30.190001       25.820000
  C5c       11.930000       30.510000       24.730000
  C6        11.380000       31.780001       24.670000
  H1        10.970000       32.189999       23.719999
  C7        11.390000       32.610001       25.820000
  H2        10.590000       33.389999       25.820000
  C8        12.150000       32.279999       26.920000
  H3        12.480000       33.080002       27.590000
  C9        12.810000       31.080000       26.889999
  H4        13.440000       30.790001       27.799999
  C10       15.360000       28.950001       27.590000
  H5        15.260000       29.990000       27.969999
  C11       16.469999       28.200001       28.080000
  H6        16.940001       28.490000       28.990000
  C12       16.840000       27.049999       27.379999
  H7        17.490000       26.379999       27.889999
  C13       16.190001       26.680000       26.200001
  H8        16.750000       26.040001       25.510000
  C6        14.530000       26.350000       23.650000
  C1        15.110000       26.780001       22.440001
  H1        15.260000       27.820000       22.250000
  C2        15.470000       25.809999       21.549999
  H2        15.450000       26.100000       20.510000
  C3        15.320000       24.420000       21.840000
  H3        15.190000       23.879999       20.860001
  C4        14.780000       24.049999       23.080000
  H4        14.560000       23.049999       23.320000
  C5        14.380000       25.059999       23.969999
  H5        13.900000       24.650000       24.850000
  IR         6.960000       36.580002       17.969999
  C1         7.610000       40.849998       17.080000
  C2         6.420000       40.810001       17.799999
  N1         8.100000       39.500000       16.980000
  C3a        7.240000       38.639999       17.620001
  N2         6.220000       39.480000       18.180000
  C4         5.130000       38.799999       18.740000
  C5a        5.080000       37.439999       18.580000
  C6         3.960000       36.740002       19.080000
  H1         3.820000       35.700001       18.680000
  C7         2.990000       37.299999       19.770000
  H2         2.090000       36.689999       19.959999
  C8         3.040000       38.660000       20.100000
  H3         2.640000       38.939999       21.080000
  C9         4.070000       39.389999       19.510000
  H4         4.190000       40.450001       19.680000
  C10        5.670000       41.990002       17.959999
  H5         4.640000       41.950001       18.180000
  C11        6.170000       43.180000       17.510000
  H6         5.610000       44.070000       17.820000
  C12        7.390000       43.250000       16.879999
  H7         7.700000       44.240002       16.559999
  C13        8.150000       42.060001       16.670000
  H8         9.090000       42.200001       16.190001
  C6         8.960000       39.139999       15.890000
  C1         8.400000       38.869999       14.610000
  H1         7.300000       38.910000       14.510000
  C2         9.290000       38.450001       13.570000
  H2         8.770000       38.340000       12.640000
  C3        10.640000       38.209999       13.850000
  H3        11.290000       37.880001       13.050000
  C4        11.150000       38.340000       15.140000
  H4        12.200000       38.250000       15.200000
  C5        10.330000       38.830002       16.200001
  H5        10.730000       39.029999       17.150000
  C1         7.880000       36.099998       22.299999
  C2         7.550000       34.869999       21.870001
  N1         7.670000       37.029999       21.170000
  C3b        7.300000       36.330002       19.969999
  N2         7.160000       35.029999       20.480000
  C4         6.450000       34.169998       19.590000
  C5b        6.440000       34.570000       18.240000
  C6         5.880000       33.660000       17.299999
  H1         5.850000       33.779999       16.260000
  C7         5.360000       32.430000       17.709999
  H2         4.970000       31.719999       17.049999
  C8         5.320000       32.130001       19.090000
  H3         5.010000       31.170000       19.480000
  C9         5.830000       33.049999       20.000000
  H4         5.650000       32.770000       20.990000
  C10        7.740000       33.730000       22.639999
  H5         7.380000       32.779999       22.299999
  C11        8.260000       33.840000       23.950001
  H6         8.730000       32.990002       24.360001
  C12        8.570000       35.130001       24.410000
  H7         8.770000       35.240002       25.480000
  C13        8.430000       36.230000       23.549999
  H8         8.960000       37.200001       23.740000
  C6         7.330000       38.389999       21.340000
  C1         6.220000       38.830002       22.059999
  H1         5.450000       38.080002       22.219999
  C2         6.010000       40.209999       22.309999
  H2         5.210000       40.560001       22.860001
  C3         6.930000       41.150002       21.809999
  H3         6.850000       42.200001       22.129999
  C4         8.040000       40.720001       21.030001
  H4         8.780000       41.410000       20.700001
  C5         8.240000       39.380001       20.799999
  H5         8.840000       39.040001       20.000000
  C1        10.610000       35.080002       16.230000
  C2         9.740000       35.139999       15.170000
  N1        10.000000       35.459999       17.379999
  C3c        8.590000       35.730000       17.090000
  N2         8.450000       35.500000       15.700000
  C4         7.190000       35.619999       15.120000
  C5c        6.350000       36.410000       15.950000
  C6         5.120000       36.830002       15.420000
  H1         4.670000       37.610001       16.000000
  C7         4.700000       36.410000       14.140000
  H2         3.640000       36.779999       13.880000
  C8         5.550000       35.610001       13.330000
  H3         5.270000       35.369999       12.300000
  C9         6.800000       35.250000       13.860000
  H4         7.430000       34.790001       13.150000
  C10       10.190000       34.860001       13.920000
  H5         9.470000       34.419998       13.230000
  C11       11.570000       34.590000       13.710000
  H6        11.980000       34.119999       12.840000
  C12       12.500000       34.599998       14.770000
  H7        13.550000       34.349998       14.670000
  C13       11.980000       34.700001       16.080000
  H8        12.720000       34.849998       16.879999
  C6        10.600000       35.369999       18.740000
  C1        10.500000       34.189999       19.490000
  H1        10.470000       33.169998       19.080000
  C2        10.820000       34.320000       20.860001
  H2        10.490000       33.549999       21.530001
  C3        11.310000       35.450001       21.469999
  H3        11.290000       35.529999       22.540001
  C4        11.420000       36.570000       20.660000
  H4        11.880000       37.500000       20.959999
  C5        11.110000       36.500000       19.309999
  H5        11.090000       37.389999       18.680000
