206
 generated by VMD
  IR        59.180000       61.660000       48.439999
  C1        59.250000       58.759998       51.750000
  C2        58.040001       59.380001       51.900002
  N1        59.990002       59.349998       50.650002
  C3a       59.180000       60.380001       50.070000
  N2        58.060001       60.410000       50.869999
  C4        57.349998       61.630001       50.759998
  C5a       57.599998       62.389999       49.580002
  C6        57.000000       63.660000       49.430000
  H1        57.560001       64.430000       48.869999
  C7        56.189999       64.169998       50.500000
  H2        55.689999       65.150002       50.490002
  C8        55.849998       63.430000       51.630001
  H3        55.189999       63.790001       52.430000
  C9        56.490002       62.160000       51.820000
  H4        56.580002       61.680000       52.779999
  C10       57.060001       59.009998       52.919998
  H5        56.250000       59.759998       53.220001
  C11       57.520000       58.040001       53.830002
  H6        56.950001       57.730000       54.700001
  C12       58.709999       57.330002       53.590000
  H7        58.950001       56.540001       54.340000
  C13       59.520000       57.680000       52.529999
  H8        60.299999       56.970001       52.259998
  C6        61.419998       59.130001       50.419998
  C1        62.380001       59.849998       51.099998
  H1        62.029999       60.279999       51.959999
  C2        63.669998       59.500000       50.790001
  H2        64.510002       59.970001       51.320000
  C3        63.980000       58.529999       49.849998
  H3        65.029999       58.410000       49.590000
  C4        63.060001       57.709999       49.259998
  H4        63.380001       56.980000       48.450001
  C5        61.750000       58.040001       49.549999
  H5        61.070000       57.349998       49.160000
  C1        56.849998       59.419998       45.580002
  C2        56.880001       60.660000       45.060001
  N1        57.330002       59.480000       46.919998
  C3b       57.750000       60.779999       47.180000
  N2        57.450001       61.450001       46.000000
  C4        57.919998       62.820000       45.970001
  C5b       58.849998       63.130001       46.970001
  C6        59.540001       64.349998       46.820000
  H1        60.240002       64.720001       47.560001
  C7        59.340000       65.269997       45.799999
  H2        59.849998       66.160004       45.840000
  C8        58.330002       64.959999       44.880001
  H3        58.029999       65.680000       44.070000
  C9        57.610001       63.790001       44.930000
  H4        56.720001       63.750000       44.320000
  C10       56.480000       60.790001       43.730000
  H5        56.480000       61.799999       43.259998
  C11       56.060001       59.730000       42.980000
  H6        55.830002       59.869999       41.919998
  C12       56.049999       58.459999       43.570000
  H7        55.860001       57.619999       42.910000
  C13       56.470001       58.250000       44.889999
  H8        56.610001       57.259998       45.330002
  C6        56.750000       58.700001       47.950001
  C1        55.389999       58.639999       48.040001
  H1        54.750000       59.410000       47.560001
  C2        54.770000       57.540001       48.630001
  H2        53.669998       57.610001       48.790001
  C3        55.540001       56.490002       49.090000
  H3        55.099998       55.509998       49.070000
  C4        56.930000       56.610001       49.110001
  H4        57.459999       55.669998       49.340000
  C5        57.529999       57.700001       48.509998
  H5        58.619999       57.619999       48.310001
  C1        62.869999       60.320000       46.439999
  C2        63.330002       61.389999       47.230000
  N1        61.439999       60.139999       46.619999
  C3c       60.950001       61.139999       47.470001
  N2        62.119999       61.880001       47.880001
  C4        61.930000       62.830002       49.029999
  C5c       60.619999       62.860001       49.560001
  C6        60.369999       63.560001       50.740002
  H1        59.360001       63.630001       51.180000
  C7        61.389999       64.260002       51.290001
  H2        61.250000       64.919998       52.169998
  C8        62.689999       64.269997       50.830002
  H3        63.509998       64.790001       51.250000
  C9        63.000000       63.560001       49.680000
  H4        63.990002       63.529999       49.240002
  C10       64.559998       61.880001       47.009998
  H5        64.870003       62.790001       47.490002
  C11       65.419998       61.310001       46.139999
  H6        66.349998       61.849998       45.910000
  C12       65.040001       60.180000       45.439999
  H7        65.660004       59.840000       44.639999
  C13       63.740002       59.660000       45.560001
  H8        63.450001       58.700001       45.169998
  C6        60.680000       59.290001       45.740002
  C1        60.549999       59.720001       44.419998
  H1        60.700001       60.740002       44.139999
  C2        60.049999       58.880001       43.419998
  H2        59.990002       59.130001       42.369999
  C3        59.700001       57.549999       43.709999
  H3        59.220001       57.000000       42.939999
  C4        59.720001       57.130001       45.070000
  H4        59.549999       56.049999       45.330002
  C5        60.209999       58.029999       45.990002
  H5        60.459999       57.779999       46.959999
  IR        45.349998       57.040001       45.270000
  C1        44.349998       55.270000       49.160000
  C2        43.169998       55.580002       48.549999
  N1        45.380001       55.599998       48.220001
  C3a       44.830002       56.130001       47.070000
  N2        43.480000       56.020000       47.259998
  C4        42.650002       56.610001       46.259998
  C5a       43.270000       57.360001       45.259998
  C6        42.520000       58.040001       44.279999
  H1        42.930000       58.560001       43.470001
  C7        41.150002       58.029999       44.310001
  H2        40.580002       58.619999       43.529999
  C8        40.480000       57.279999       45.259998
  H3        39.340000       57.419998       45.349998
  C9        41.200001       56.549999       46.200001
  H4        40.750000       55.709999       46.759998
  C10       41.970001       55.119999       49.150002
  H5        41.119999       55.759998       49.040001
  C11       42.020000       54.220001       50.209999
  H6        41.150002       53.680000       50.330002
  C12       43.200001       53.770000       50.750000
  H7        43.250000       52.910000       51.349998
  C13       44.360001       54.349998       50.230000
  H8        45.270000       54.189999       50.830002
  C6        46.759998       55.730000       48.680000
  C1        47.360001       56.980000       48.810001
  H1        46.700001       57.849998       48.779999
  C2        48.689999       57.029999       49.119999
  H2        49.060001       57.990002       49.439999
  C3        49.500000       55.900002       49.169998
  H3        50.540001       55.959999       49.340000
  C4        48.900002       54.639999       49.090000
  H4        49.500000       53.770000       49.310001
  C5        47.509998       54.590000       48.860001
  H5        47.099998       53.580002       48.759998
  C1        45.419998       53.669998       42.490002
  C2        45.549999       54.770000       41.709999
  N1        45.060001       54.169998       43.759998
  C3b       45.139999       55.560001       43.820000
  N2        45.520000       55.919998       42.580002
  C4        45.799999       57.220001       42.330002
  C5b       45.430000       58.029999       43.419998
  C6        45.349998       59.410000       43.200001
  H1        45.090000       60.060001       44.049999
  C7        45.590000       59.950001       41.910000
  H2        45.639999       61.009998       41.730000
  C8        46.029999       59.230000       40.889999
  H3        46.000000       59.610001       39.849998
  C9        46.169998       57.799999       41.080002
  H4        46.709999       57.160000       40.340000
  C10       45.540001       54.669998       40.340000
  H5        45.360001       55.570000       39.669998
  C11       45.419998       53.439999       39.700001
  H6        45.529999       53.209999       38.610001
  C12       45.320000       52.340000       40.500000
  H7        45.410000       51.369999       40.060001
  C13       45.270000       52.480000       41.860001
  H8        44.779999       51.720001       42.450001
  C6        44.340000       53.330002       44.669998
  C1        44.880001       53.009998       45.919998
  H1        45.869999       53.389999       46.189999
  C2        44.049999       52.560001       46.910000
  H2        44.480000       52.330002       47.950001
  C3        42.689999       52.470001       46.730000
  H3        41.939999       52.459999       47.540001
  C4        42.150002       52.669998       45.459999
  H4        41.060001       52.619999       45.299999
  C5        42.959999       53.189999       44.419998
  H5        42.549999       53.669998       43.509998
  C1        49.650002       56.790001       45.770000
  C2        49.410000       58.090000       46.020000
  N1        48.450001       56.160000       45.330002
  C3c       47.410000       57.020000       45.369999
  N2        48.020000       58.270000       45.750000
  C4        47.070000       59.240002       46.279999
  C5c       45.790001       58.799999       46.380001
  C6        44.860001       59.590000       47.099998
  H1        43.869999       59.160000       47.119999
  C7        45.130001       60.810001       47.599998
  H2        44.410000       61.500000       47.919998
  C8        46.410000       61.279999       47.439999
  H3        46.740002       62.080002       48.080002
  C9        47.380001       60.540001       46.790001
  H4        48.299999       60.950001       46.439999
  C10       50.450001       58.970001       46.500000
  H5        50.020000       59.910000       46.889999
  C11       51.740002       58.509998       46.610001
  H6        52.570000       59.080002       46.970001
  C12       51.990002       57.209999       46.290001
  H7        53.020000       56.970001       45.970001
  C13       51.000000       56.299999       45.910000
  H8        51.200001       55.349998       45.490002
  C6        48.459999       54.910000       44.669998
  C1        48.500000       53.700001       45.369999
  H1        48.349998       53.590000       46.470001
  C2        48.650002       52.520000       44.689999
  H2        48.840000       51.639999       45.220001
  C3        48.910000       52.500000       43.340000
  H3        49.180000       51.570000       42.820000
  C4        48.939999       53.650002       42.570000
  H4        49.299999       53.639999       41.560001
  C5        48.720001       54.880001       43.290001
  H5        48.959999       55.810001       42.810001
