206
 generated by VMD
 Ir       41.447716      -39.227016       31.261955
 C        44.654358      -40.585300       28.613201
 C        43.689842      -41.571518       28.538528
 N        44.217045      -39.645103       29.564716
 C        42.968178      -39.989883       30.082748
 N        42.667183      -41.189034       29.429802
 C        41.410439      -41.786839       29.782253
 C        40.797108      -41.196842       30.900436
 C        39.743401      -41.879921       31.526941
 H        39.313850      -41.476631       32.431900
 C        39.278740      -43.110786       31.029900
 H        38.465050      -43.620102       31.526810
 C        39.854637      -43.658577       29.891277
 H        39.513184      -44.606209       29.499096
 C        40.907349      -42.996605       29.252377
 H        41.218693      -43.329834       28.277994
 C        43.930931      -42.677666       27.691698
 H        43.267632      -43.519688       27.686129
 C        45.090935      -42.755810       26.932760
 H        45.261482      -43.603043       26.280064
 C        46.049717      -41.734344       27.012432
 H        46.975197      -41.817219       26.457886
 C        45.831429      -40.649090       27.852654
 H        46.549385      -39.849060       27.876913
 C        45.117283      -38.678822       30.146414
 C        46.169792      -39.134628       30.966816
 H        46.268936      -40.182316       31.185505
 C        47.093613      -38.224052       31.488167
 H        47.898514      -38.567593       32.113159
 C        46.982155      -36.857452       31.187366
 H        47.703983      -36.160057       31.579659
 C        45.936211      -36.401646       30.374500
 H        45.837074      -35.353958       30.155811
 C        45.007141      -37.319401       29.857723
 H        44.196831      -36.968895       29.237448
 C        38.700638      -37.799042       28.164463
 C        38.034126      -37.577988       29.342260
 N        39.913734      -38.438976       28.486763
 C        40.037666      -38.649189       29.851147
 N        38.847839      -38.130539       30.370783
 C        38.644226      -38.330692       31.768595
 C        39.778061      -38.763245       32.478333
 C        39.689003      -38.898373       33.869164
 H        40.551964      -39.191242       34.443550
 C        38.488922      -38.621830       34.543648
 H        38.443279      -38.767445       35.618088
 C        37.367233      -38.210381       33.836594
 H        36.447159      -37.992634       34.346634
 C        37.438900      -38.061325       32.447655
 H        36.534103      -37.840019       31.909723
 C        36.837841      -36.848820       29.310404
 H        36.317028      -36.573872       30.215309
 C        36.320366      -36.375954       28.103291
 H        35.436394      -35.756691       28.104338
 C        36.996700      -36.632038       26.903667
 H        36.571800      -36.309258       25.960762
 C        38.192825      -37.347061       26.935665
 H        38.710190      -37.536953       26.007240
 C        40.855721      -38.877811       27.480091
 C        40.542637      -39.962334       26.665236
 H        39.647148      -40.547379       26.862022
 C        41.391220      -40.309795       25.607321
 H        41.104202      -41.084084       24.915657
 C        42.560772      -39.579910       25.383915
 H        43.218689      -39.854218       24.571756
 C        42.892410      -38.502350       26.209133
 H        43.810570      -37.959946       26.058905
 C        42.031845      -38.147926       27.264225
 H        42.284203      -37.324036       27.906504
 C        42.997021      -35.347145       32.591187
 C        43.665886      -36.273457       33.348000
 N        42.128937      -36.055676       31.729441
 C        42.241135      -37.421204       31.923481
 N        43.214401      -37.540215       32.919067
 C        43.579453      -38.868992       33.264156
 C        42.611130      -39.824356       32.927502
 C        42.680984      -41.088230       33.516602
 H        41.868587      -41.782101       33.375675
 C        43.740089      -41.438087       34.357788
 H        43.765083      -42.411331       34.826797
 C        44.758392      -40.516682       34.611084
 H        45.646927      -40.823048       35.149918
 C        44.675953      -39.225174       34.072754
 H        45.530151      -38.565685       34.163979
 C        44.578506      -35.827278       34.330124
 H        45.082558      -36.521023       34.978546
 C        44.812042      -34.461540       34.511269
 H        45.505047      -34.128700       35.260307
 C        44.128716      -33.528053       33.727264
 H        44.323914      -32.473190       33.835701
 C        43.212009      -33.974442       32.761974
 H        42.652565      -33.239784       32.201622
 C        41.127167      -35.408436       30.917873
 C        39.899288      -35.074688       31.497202
 H        39.680607      -35.341888       32.510208
 C        38.913303      -34.441803       30.724937
 H        37.961662      -34.195347       31.156372
 C        39.160774      -34.163765       29.368488
 H        38.378868      -33.749306       28.749987
 C        40.395386      -34.511658       28.796555
 H        40.576614      -34.308193       27.749866
 C        41.375797      -35.123440       29.573677
 H        42.350754      -35.327259       29.148453
 Ir       41.447716      -39.227013       43.306412
 C        44.210930      -36.285553       41.561440
 C        44.730721      -37.513714       41.214554
 N        43.054657      -36.532639       42.317139
 C        42.808075      -37.887672       42.465706
 N        43.853008      -38.483990       41.767265
 C        43.822052      -39.904999       41.688122
 C        42.960262      -40.525200       42.611633
 C        43.041100      -41.912041       42.779953
 H        42.464775      -42.386108       43.560795
 C        43.925457      -42.679333       42.022472
 H        44.021118      -43.747910       42.204403
 C        44.737328      -42.073490       41.062881
 H        45.376457      -42.667999       40.426273
 C        44.685707      -40.693394       40.895634
 H        45.217682      -40.254787       40.073853
 C        45.873459      -37.556187       40.404335
 H        46.394066      -38.488903       40.215912
 C        46.447647      -36.377888       39.917183
 H        47.304619      -36.432262       39.263165
 C        45.905212      -35.142975       40.270538
 H        46.391045      -34.229176       39.966507
 C        44.788757      -35.100502       41.110909
 H        44.400841      -34.139076       41.409199
 C        42.191589      -35.457783       42.750961
 C        42.018707      -35.190437       44.108727
 H        42.593407      -35.742775       44.841492
 C        41.165627      -34.164753       44.520588
 H        41.003830      -33.986206       45.576874
 C        40.473450      -33.399445       43.571854
 H        39.782902      -32.632675       43.895119
 C        40.663406      -33.652435       42.212471
 H        40.150566      -33.056816       41.465591
 C        41.516479      -34.678120       41.800613
 H        41.672874      -34.849701       40.749043
 C        38.916344      -40.134029       39.875015
 C        38.386124      -40.857597       40.907501
 N        40.117252      -39.559174       40.340584
 C        40.355362      -39.887966       41.671783
 N        39.294998      -40.723583       41.985741
 C        39.391541      -41.378685       43.254601
 C        40.338066      -40.817879       44.127586
 C        40.442207      -41.345928       45.429634
 H        41.190956      -40.976345       46.103561
 C        39.615417      -42.399113       45.845108
 H        39.665211      -42.748154       46.862900
 C        38.691376      -42.952526       44.965797
 H        38.043922      -43.762314       45.291298
 C        38.587555      -42.452755       43.663471
 H        38.033539      -43.024696       42.939217
 C        37.156368      -41.513340       40.719105
 H        36.664909      -42.015045       41.532101
 C        36.491287      -41.445091       39.494724
 H        35.576660      -41.991451       39.336777
 C        37.048073      -40.713917       38.439087
 H        36.583385      -40.716583       37.464531
 C        38.267006      -40.044247       38.636909
 H        38.683159      -39.451595       37.836487
 C        41.137703      -39.142185       39.411438
 C        41.680428      -40.074776       38.527237
 H        41.424171      -41.125256       38.617920
 C        42.571663      -39.665611       37.524998
 H        42.931900      -40.382786       36.813103
 C        42.938568      -38.316681       37.417469
 H        43.597572      -38.004261       36.630890
 C        42.408985      -37.384087       38.316757
 H        42.759163      -36.361458       38.290131
 C        41.504608      -37.793251       39.303917
 H        41.088882      -37.069332       39.984581
 C        38.421379      -36.742180       45.240906
 C        39.423653      -36.817909       46.184673
 N        38.849396      -37.454407       44.111778
 C        40.099655      -38.014748       44.295570
 N        40.447792      -37.634796       45.597198
 C        41.709778      -38.127228       46.075867
 C        42.463692      -38.837524       45.126984
 C        43.783669      -39.207504       45.448990
 H        44.372520      -39.752197       44.723557
 C        44.351494      -38.880894       46.678543
 H        45.369270      -39.168392       46.892509
 C        43.597733      -38.184738       47.627289
 H        44.027817      -37.920578       48.578945
 C        42.280243      -37.814972       47.329651
 H        41.692070      -37.362732       48.107552
 C        39.243172      -36.146164       47.403149
 H        40.027054      -36.116379       48.152584
 C        38.061066      -35.455254       47.677292
 H        37.925652      -34.971291       48.630997
 C        37.045971      -35.407803       46.718163
 H        36.115532      -34.911415       46.932144
 C        37.226128      -36.051262       45.499969
 H        36.421921      -36.060375       44.781517
 C        38.108959      -37.507103       42.873482
 C        36.934929      -38.255516       42.822235
 H        36.671886      -38.924324       43.635124
 C        36.127785      -38.210945       41.681862
 H        35.175701      -38.702679       41.675945
 C        36.505501      -37.431892       40.583321
 H        35.876625      -37.387966       39.712059
 C        37.696926      -36.697407       40.632675
 H        38.014400      -36.126503       39.772339
 C        38.498657      -36.735012       41.777756
 H        39.439919      -36.229355       41.793106
