206
 generated by VMD
 Ir       54.866299      105.864670       83.943115
 C        51.034863      105.393738       82.165894
 C        50.706242      105.633835       83.488640
 N        52.378883      105.172173       82.083916
 C        52.944996      105.482712       83.243607
 N        51.941021      105.845093       84.095673
 C        52.320065      105.826569       85.522408
 C        53.645267      106.073486       85.721092
 C        54.053593      106.355453       87.008400
 H        55.112751      106.542389       87.222031
 C        53.122917      106.431732       88.070389
 H        53.385239      107.053040       88.903687
 C        51.761459      106.163101       87.901947
 H        51.158684      106.117096       88.769958
 C        51.402718      105.800964       86.600006
 H        50.361187      105.577705       86.467430
 C        49.303703      105.836426       83.804321
 H        49.036819      106.204575       84.846542
 C        48.340916      105.730743       82.795563
 H        47.354973      105.954155       83.096573
 C        48.736000      105.480820       81.505783
 H        48.029343      105.549438       80.724228
 C        50.073681      105.261444       81.212723
 H        50.203812      104.891220       80.196846
 C        53.031376      104.526527       80.964233
 C        53.097729      105.381126       79.835007
 H        52.834324      106.417580       79.995270
 C        53.602699      104.801254       78.668320
 H        53.604134      105.374985       77.798714
 C        54.177509      103.541183       78.717644
 H        54.551975      103.061340       77.777153
 C        54.115982      102.769051       79.855637
 H        54.131496      101.669991       79.587990
 C        53.471603      103.210945       80.971069
 H        53.069427      102.368561       81.531113
 C        54.983768      110.119843       83.080551
 C        56.211838      109.833603       83.431564
 N        54.145638      109.004120       83.394562
 C        54.912827      107.986755       83.941360
 N        56.173847      108.522293       84.015617
 C        57.177307      107.684021       84.709724
 C        56.721149      106.368362       84.891754
 C        57.535759      105.452972       85.628166
 H        57.199028      104.461700       85.544662
 C        58.740158      105.904312       86.149521
 H        59.101948      105.366135       87.043655
 C        59.226616      107.229691       86.030632
 H        59.961761      107.612000       86.707024
 C        58.439850      108.101334       85.279678
 H        58.852909      109.045807       84.928337
 C        57.242435      110.657867       83.152344
 H        58.239395      110.354942       83.296936
 C        57.005066      111.824219       82.497841
 H        57.805386      112.420845       82.056908
 C        55.744057      112.239059       82.130203
 H        55.575169      113.182358       81.665573
 C        54.707310      111.320335       82.502899
 H        53.678120      111.672134       82.589554
 C        52.706413      109.080612       83.661713
 C        51.831673      108.802475       82.618225
 H        52.028648      108.441856       81.646393
 C        50.488220      108.963608       82.869156
 H        49.868713      108.823456       82.098465
 C        49.993313      109.376274       84.165985
 H        48.955948      109.684547       84.347191
 C        50.897354      109.603363       85.171600
 H        50.562653      109.549606       86.170288
 C        52.302353      109.454224       84.933624
 H        53.061043      109.855949       85.665405
 C        57.149094      104.671280       80.380157
 C        57.071083      103.547043       81.143112
 N        56.578594      105.767410       81.141037
 C        56.103237      105.297104       82.359940
 N        56.482101      103.906479       82.365005
 C        55.814701      103.094315       83.323219
 C        55.010231      103.759491       84.251534
 C        54.282619      103.076042       85.229935
 H        53.734901      103.526993       86.001465
 C        54.426601      101.715202       85.335220
 H        53.981487      101.220016       86.109528
 C        55.260616      101.020905       84.447876
 H        55.375080       99.963409       84.636292
 C        55.965630      101.660721       83.447433
 H        56.822823      101.061546       83.033180
 C        57.384712      102.332901       80.561661
 H        57.047901      101.378708       81.053680
 C        57.902901      102.252487       79.286499
 H        58.280754      101.314957       78.931007
 C        58.077820      103.374107       78.551880
 H        58.327698      103.229126       77.507263
 C        57.659199      104.605377       79.052811
 H        57.860146      105.465103       78.406143
 C        56.607517      107.144394       80.685837
 C        55.356121      107.767899       80.403442
 H        54.461327      107.416580       80.950180
 C        55.312557      108.945801       79.658913
 H        54.416660      109.364563       79.235809
 C        56.528374      109.444473       79.249016
 H        56.620842      110.362778       78.692902
 C        57.745644      108.789551       79.560532
 H        58.687565      109.119164       79.203552
 C        57.862240      107.655167       80.334595
 H        58.736256      107.275345       80.825554
 Ir       54.866295      105.864670       93.748848
 C        53.155746      108.953064       91.212723
 C        52.259224      108.725998       92.200439
 N        54.321632      108.305679       91.630096
 C        54.158142      107.560486       92.787537
 N        52.853142      107.947304       93.210190
 C        52.480083      107.513199       94.488464
 C        53.073570      106.217041       94.798828
 C        52.587616      105.606018       95.966866
 H        52.997620      104.623123       96.249023
 C        51.631775      106.186546       96.805054
 H        51.308815      105.722763       97.718613
 C        51.079082      107.463181       96.473358
 H        50.393860      108.035538       97.091087
 C        51.482834      108.071922       95.258026
 H        51.174084      109.074013       95.001923
 C        50.931332      109.158188       92.003174
 H        50.191792      108.981400       92.762131
 C        50.613087      109.887573       90.871887
 H        49.617119      110.268051       90.681641
 C        51.532909      110.112137       89.860703
 H        51.295681      110.667007       88.969162
 C        52.789841      109.541748       89.959663
 H        53.454258      109.640984       89.104561
 C        55.603455      108.432724       90.903595
 C        56.294640      109.665703       90.993637
 H        56.271866      110.210114       91.863121
 C        57.261791      109.967819       90.025429
 H        57.772095      110.956039       89.927917
 C        57.573772      109.019928       89.004753
 H        58.551945      109.242523       88.482132
 C        56.892334      107.847580       88.943474
 H        57.124874      107.040955       88.246429
 C        55.946358      107.552673       89.889343
 H        55.354706      106.675812       89.668289
 C        57.066055      107.820724       96.977081
 C        57.467896      106.493149       97.015259
 N        56.021172      107.882690       96.056381
 C        55.820358      106.674561       95.427902
 N        56.652130      105.824516       96.076355
 C        56.175117      104.469688       95.930771
 C        55.326187      104.198746       94.873795
 C        54.923721      102.836388       94.666679
 H        54.218224      102.628494       93.873230
 C        55.423500      101.790779       95.398407
 H        55.204746      100.779640       95.174240
 C        56.370274      102.051682       96.370392
 H        56.966679      101.204361       96.814636
 C        56.691105      103.351318       96.699158
 H        57.419525      103.537292       97.458061
 C        58.491669      106.045486       97.845444
 H        59.069576      105.221619       97.599762
 C        59.147678      107.000549       98.676041
 H        59.860935      106.650520       99.409012
 C        58.708214      108.354965       98.691376
 H        58.982735      109.123962       99.337746
 C        57.662125      108.737183       97.850296
 H        57.329704      109.834290       97.888664
 C        55.002953      108.874878       96.238861
 C        54.810894      109.868561       95.289856
 H        55.365955      109.672089       94.379074
 C        53.929241      110.909058       95.581482
 H        53.556301      111.478874       94.749596
 C        53.272312      110.994606       96.816315
 H        52.584080      111.881744       97.018120
 C        53.443096      109.952499       97.787735
 H        52.584999      109.710480       98.529686
 C        54.303429      108.924103       97.439545
 H        54.522964      108.175079       98.193649
 C        58.177124      104.137016       91.600601
 C        57.118889      103.847549       90.844864
 N        57.690514      104.942245       92.633568
 C        56.383030      105.180496       92.549751
 N        56.009750      104.452408       91.447235
 C        54.590260      104.404549       91.218857
 C        53.784927      104.827362       92.283035
 C        52.407543      104.592873       92.235756
 H        51.771912      104.571190       93.098373
 C        51.823822      103.967102       91.096542
 H        50.889725      103.489151       91.144775
 C        52.644714      103.619446       90.035522
 H        52.244564      103.185104       89.105026
 C        54.006733      103.861237       90.079552
 H        54.568661      103.841797       89.165192
 C        57.242413      103.004265       89.719597
 H        56.478310      102.898468       89.001938
 C        58.477062      102.358276       89.446556
 H        58.510651      101.702286       88.582703
 C        59.557091      102.696297       90.269890
 H        60.578297      102.400238       90.130989
 C        59.441326      103.607422       91.357246
 H        60.322292      103.926132       91.878418
 C        58.622200      105.848007       93.342621
 C        58.815758      107.122772       92.925491
 H        58.273148      107.484367       92.058182
 C        59.815460      107.923927       93.508720
 H        60.119549      108.754425       92.954819
 C        60.671459      107.348328       94.505585
 H        61.472607      107.984772       94.887947
 C        60.475014      106.044434       94.901657
 H        61.188492      105.587616       95.578094
 C        59.431831      105.316147       94.318588
 H        59.236683      104.359001       94.657562
