206
 generated by VMD
 Ir       42.216194      -41.919594      112.045547
 C        44.428703      -44.015846      115.181252
 C        43.877609      -45.020878      114.411438
 N        44.111588      -42.793526      114.565887
 C        43.356724      -42.978901      113.414841
 N        43.233257      -44.364822      113.329544
 C        42.559689      -44.847366      112.169220
 C        41.715157      -43.913940      111.562180
 C        40.909264      -44.339417      110.497429
 H        40.125103      -43.702484      110.129028
 C        41.022781      -45.627918      109.971619
 H        40.433727      -45.911839      109.118378
 C        41.921165      -46.540329      110.539169
 H        42.032997      -47.531532      110.133820
 C        42.681240      -46.150005      111.649368
 H        43.448906      -46.815178      112.023300
 C        44.027237      -46.356606      114.798790
 H        43.521049      -47.148964      114.271790
 C        44.756653      -46.680298      115.950699
 H        44.855286      -47.712086      116.255478
 C        45.315826      -45.661125      116.726395
 H        45.870388      -45.900280      117.626541
 C        45.145561      -44.332401      116.350227
 H        45.506744      -43.546551      116.990067
 C        44.404724      -41.519703      115.180099
 C        43.794830      -41.190166      116.397942
 H        43.070824      -41.859417      116.842484
 C        44.107826      -39.979965      117.035782
 H        43.613441      -39.729172      117.961456
 C        45.026520      -39.106346      116.461494
 H        45.239754      -38.157974      116.948029
 C        45.628387      -39.421745      115.237701
 H        46.307961      -38.731255      114.769180
 C        45.315384      -40.631947      114.599854
 H        45.736996      -40.854408      113.638115
 C        44.808990      -41.700123      108.535812
 C        43.589088      -41.267643      108.084824
 N        44.644714      -42.092369      109.873482
 C        43.330589      -41.947395      110.293442
 N        42.682705      -41.454086      109.165710
 C        41.280056      -41.246040      109.300926
 C        40.843132      -41.135723      110.638016
 C        39.557369      -40.637691      110.884354
 H        39.220341      -40.507175      111.899872
 C        38.699432      -40.292267      109.839737
 H        37.744873      -39.830292      110.057648
 C        39.111439      -40.459064      108.519653
 H        38.445034      -40.240692      107.704109
 C        40.397549      -40.942993      108.255951
 H        40.665092      -41.179466      107.233658
 C        43.483334      -40.705063      106.793686
 H        42.555634      -40.315327      106.434830
 C        44.621281      -40.603203      105.988708
 H        44.550240      -40.110573      105.021774
 C        45.853371      -41.071060      106.440010
 H        46.718880      -41.053154      105.786118
 C        45.951088      -41.619499      107.725189
 H        46.891632      -42.030563      108.049690
 C        45.719429      -42.636864      110.656998
 C        45.681488      -43.986420      111.029366
 H        44.957722      -44.643822      110.578827
 C        46.606812      -44.473709      111.948563
 H        46.554001      -45.498089      112.273621
 C        47.594864      -43.625683      112.478554
 H        48.270348      -43.985649      113.231117
 C        47.657913      -42.290405      112.072037
 H        48.427742      -41.640320      112.459923
 C        46.720360      -41.796017      111.152603
 H        46.794098      -40.778824      110.799072
 C        42.886986      -37.788181      113.277191
 C        42.136246      -38.314484      114.298309
 N        43.037731      -38.787960      112.312454
 C        42.400127      -39.945496      112.673233
 N        41.826580      -39.651337      113.909164
 C        40.989769      -40.680737      114.456497
 C        40.791016      -41.785618      113.612617
 C        39.811256      -42.730438      113.949203
 H        39.589901      -43.530834      113.254250
 C        39.071095      -42.612892      115.124756
 H        38.297962      -43.346256      115.349129
 C        39.301994      -41.550438      115.992447
 H        38.738014      -41.462170      116.911491
 C        40.269226      -40.584339      115.672897
 H        40.550674      -39.875843      116.421173
 C        41.888134      -37.519154      115.429245
 H        41.369339      -37.904892      116.286835
 C        42.379143      -36.204662      115.504196
 H        42.168358      -35.593945      116.364891
 C        43.138584      -35.678448      114.454361
 H        43.474670      -34.660759      114.486801
 C        43.390549      -36.480824      113.335075
 H        43.973854      -36.066803      112.524796
 C        43.617477      -38.523666      111.017441
 C        42.796852      -38.213757      109.938965
 H        41.716675      -38.225559      110.057617
 C        43.355164      -37.871479      108.706879
 H        42.717819      -37.617867      107.868675
 C        44.746330      -37.846210      108.553513
 H        45.184986      -37.573700      107.602348
 C        45.575012      -38.156120      109.637924
 H        46.650772      -38.094753      109.542160
 C        45.004448      -38.505444      110.869804
 H        45.649925      -38.716629      111.713814
 Ir       42.216198      -41.919594      123.086403
 C        43.368305      -38.640312      120.506439
 C        42.055267      -38.900341      120.165237
 N        43.791504      -39.671288      121.365791
 C        42.755802      -40.545441      121.643417
 N        41.709587      -40.092941      120.854889
 C        40.565620      -40.939442      120.807068
 C        40.508175      -41.905449      121.830597
 C        39.390369      -42.730446      121.916016
 H        39.358994      -43.520470      122.650848
 C        38.325169      -42.596390      121.018250
 H        37.502163      -43.280594      121.074112
 C        38.390652      -41.644520      120.000671
 H        37.554234      -41.531563      119.315079
 C        39.504890      -40.826668      119.886337
 H        39.607803      -40.199749      119.020439
 C        41.348618      -37.974689      119.387543
 H        40.302364      -38.093391      119.206818
 C        41.971130      -36.789005      118.962875
 H        41.381496      -36.032562      118.464958
 C        43.304451      -36.536064      119.310242
 H        43.776981      -35.604309      119.022057
 C        43.999161      -37.468811      120.070419
 H        45.014988      -37.257851      120.360046
 C        45.174759      -40.091064      121.375130
 C        45.611153      -41.020630      120.427032
 H        44.943062      -41.353710      119.647552
 C        46.907242      -41.531990      120.504303
 H        47.228928      -42.298050      119.813522
 C        47.766930      -41.113789      121.529648
 H        48.735703      -41.582008      121.646935
 C        47.338943      -40.170128      122.466301
 H        47.990227      -39.865242      123.268661
 C        46.034801      -39.658760      122.383118
 H        45.678780      -38.991432      123.154366
 C        39.742805      -39.426262      125.707802
 C        39.814400      -40.633904      126.353233
 N        40.479088      -39.550900      124.520638
 C        41.026451      -40.810936      124.383896
 N        40.579613      -41.500164      125.514999
 C        40.732914      -42.914776      125.475319
 C        41.430470      -43.413933      124.357704
 C        41.609596      -44.800484      124.249123
 H        42.074356      -45.213753      123.363739
 C        41.128548      -45.680969      125.224182
 H        41.267677      -46.742210      125.102470
 C        40.439369      -45.181858      126.330406
 H        40.081131      -45.858070      127.087776
 C        40.219292      -43.809357      126.444038
 H        39.540394      -43.473804      127.198624
 C        39.105640      -40.785011      127.570496
 H        39.255863      -41.646378      128.193390
 C        38.298164      -39.749855      128.061035
 H        37.745987      -39.894951      128.980896
 C        38.215271      -38.549400      127.363441
 H        37.480373      -37.804802      127.653976
 C        38.951790      -38.377007      126.192833
 H        38.897766      -37.430702      125.675453
 C        40.393845      -38.549286      123.488602
 C        41.414543      -37.611065      123.366447
 H        42.339546      -37.731655      123.897789
 C        41.231590      -36.488503      122.551720
 H        42.069660      -35.840080      122.340324
 C        40.023773      -36.297066      121.864830
 H        39.894154      -35.442841      121.230789
 C        39.003052      -37.249432      121.987015
 H        38.090916      -37.136024      121.421280
 C        39.190174      -38.379086      122.796066
 H        38.398994      -39.105671      122.893036
 C        46.048187      -42.133614      125.167336
 C        46.167854      -43.034534      124.126694
 N        44.722717      -41.657448      125.130043
 C        43.993267      -42.217297      124.113243
 N        44.897060      -43.090294      123.508575
 C        44.389256      -43.848763      122.409775
 C        43.212357      -43.331787      121.849640
 C        42.793697      -43.800903      120.595833
 H        41.904667      -43.404430      120.133728
 C        43.514870      -44.793953      119.918800
 H        43.189285      -45.135246      118.943550
 C        44.662727      -45.332024      120.501541
 H        45.197056      -46.133324      120.011124
 C        45.097794      -44.877094      121.749924
 H        45.858940      -45.421680      122.267792
 C        47.420879      -43.631516      123.874237
 H        47.570053      -44.277428      123.029816
 C        48.525253      -43.320389      124.684944
 H        49.466522      -43.831707      124.518898
 C        48.389183      -42.405281      125.731018
 H        49.225586      -42.178963      126.362617
 C        47.144531      -41.808350      125.972084
 H        47.053116      -41.120186      126.788589
 C        44.191547      -40.748802      126.122627
 C        44.153919      -41.134224      127.456848
 H        44.379848      -42.159279      127.723534
 C        43.765846      -40.218800      128.440521
 H        43.807343      -40.491989      129.481400
 C        43.387020      -38.925007      128.077911
 H        43.129387      -38.201332      128.833496
 C        43.388222      -38.546635      126.725700
 H        43.031998      -37.577969      126.433647
 C        43.804668      -39.455006      125.754097
 H        43.804096      -39.181911      124.708191
