206
 generated by VMD
  IR        47.790001       22.010000       60.369999
  C1        49.549999       18.280001       59.419998
  C2        50.150002       19.209999       58.590000
  N1        48.790001       18.940001       60.330002
  C3a       48.970001       20.320000       60.189999
  N2        49.779999       20.500000       59.090000
  C4        50.130001       21.780001       58.689999
  C5a       49.009998       22.600000       58.730000
  C6        48.869999       23.709999       57.849998
  H1        48.270000       24.590000       58.090000
  C7        49.959999       23.990000       57.000000
  H2        49.750000       24.650000       56.209999
  C8        51.189999       23.230000       57.070000
  H3        51.959999       23.290001       56.360001
  C9        51.250000       22.110001       57.880001
  H4        52.200001       21.650000       58.169998
  C10       50.889999       18.790001       57.509998
  H5        51.630001       19.420000       57.080002
  C11       50.939999       17.440001       57.189999
  H6        51.320000       17.080000       56.279999
  C12       50.349998       16.510000       58.040001
  H7        50.200001       15.560000       57.630001
  C13       49.560001       16.920000       59.070000
  H8        49.090000       16.170000       59.660000
  C6        47.939999       18.350000       61.340000
  C1        48.290001       18.090000       62.610001
  H1        49.240002       18.379999       62.930000
  C2        47.540001       17.219999       63.430000
  H2        47.799999       16.959999       64.440002
  C3        46.320000       16.709999       63.000000
  H3        45.709999       16.150000       63.660000
  C4        45.889999       16.990000       61.639999
  H4        44.830002       16.719999       61.389999
  C5        46.700001       17.820000       60.840000
  H5        46.419998       18.049999       59.860001
  C1        50.310001       24.190001       63.080002
  C2        49.310001       25.139999       62.669998
  N1        50.139999       23.090000       62.279999
  C3b       49.080002       23.270000       61.450001
  N2        48.590000       24.549999       61.689999
  C4        47.459999       24.990000       60.830002
  C5b       46.820000       23.900000       60.230000
  C6        45.619999       24.200001       59.560001
  H1        45.310001       23.570000       58.750000
  C7        45.130001       25.469999       59.520000
  H2        44.230000       25.559999       59.049999
  C8        45.689999       26.530001       60.209999
  H3        45.290001       27.490000       60.130001
  C9        46.930000       26.299999       60.810001
  H4        47.520000       27.090000       61.200001
  C10       49.340000       26.430000       63.189999
  H5        48.580002       27.200001       62.990002
  C11       50.410000       26.799999       64.080002
  H6        50.500000       27.809999       64.419998
  C12       51.290001       25.870001       64.540001
  H7        51.950001       26.090000       65.349998
  C13       51.290001       24.530001       64.059998
  H8        52.110001       23.940001       64.279999
  C6        51.310001       22.320000       61.840000
  C1        52.380001       22.940001       61.270000
  H1        52.230000       23.719999       60.540001
  C2        53.660000       22.360001       61.360001
  H2        54.490002       22.780001       60.900002
  C3        53.840000       21.120001       61.939999
  H3        54.840000       20.639999       61.970001
  C4        52.779999       20.490000       62.520000
  H4        52.919998       19.510000       63.000000
  C5        51.529999       21.080000       62.410000
  H5        50.639999       20.500000       62.549999
  C1        44.779999       20.920000       63.340000
  C2        44.200001       20.600000       62.180000
  N1        45.939999       21.590000       63.080002
  C3c       46.259998       21.549999       61.750000
  N2        45.130001       20.990000       61.180000
  C4        45.139999       20.770000       59.750000
  C5c       46.310001       21.150000       59.080002
  C6        46.360001       20.860001       57.680000
  H1        47.139999       21.059999       56.980000
  C7        45.310001       20.250000       56.990002
  H2        45.439999       20.209999       55.900002
  C8        44.160000       20.049999       57.630001
  H3        43.320000       19.900000       56.950001
  C9        44.029999       20.350000       58.990002
  H4        43.080002       20.420000       59.430000
  C10       42.889999       20.070000       62.169998
  H5        42.369999       19.820000       61.209999
  C11       42.160000       19.959999       63.340000
  H6        41.230000       19.430000       63.330002
  C12       42.889999       20.150000       64.550003
  H7        42.450001       19.760000       65.459999
  C13       44.139999       20.650000       64.580002
  H8        44.560001       20.830000       65.489998
  C6        46.849998       22.070000       64.110001
  C1        48.090000       21.459999       64.269997
  H1        48.580002       20.930000       63.480000
  C2        48.869999       21.870001       65.370003
  H2        49.790001       21.389999       65.480003
  C3        48.560001       22.900000       66.239998
  H3        49.189999       23.330000       66.989998
  C4        47.279999       23.490000       66.110001
  H4        46.950001       24.190001       66.930000
  C5        46.459999       23.080000       65.029999
  H5        45.610001       23.740000       64.779999
  IR        38.480000       16.750000       55.349998
  C1        42.610001       17.740000       54.320000
  C2        41.930000       17.639999       53.099998
  N1        41.700001       17.350000       55.310001
  C3a       40.389999       17.160000       54.779999
  N2        40.549999       17.360001       53.389999
  C4        39.389999       17.260000       52.610001
  C5a       38.209999       17.260000       53.320000
  C6        37.000000       17.510000       52.709999
  H1        36.110001       17.719999       53.259998
  C7        36.910000       17.719999       51.330002
  H2        36.000000       17.809999       50.849998
  C8        38.060001       17.600000       50.509998
  H3        38.080002       17.379999       49.400002
  C9        39.360001       17.469999       51.180000
  H4        40.299999       17.400000       50.619999
  C10       42.709999       17.830000       51.950001
  H5        42.189999       17.969999       50.950001
  C11       44.070000       18.160000       51.939999
  H6        44.599998       18.090000       51.090000
  C12       44.639999       18.330000       53.180000
  H7        45.599998       18.700001       53.189999
  C13       43.900002       18.120001       54.360001
  H8        44.299999       18.250000       55.360001
  C6        42.150002       16.680000       56.509998
  C1        42.810001       15.410000       56.310001
  H1        43.070000       15.060000       55.299999
  C2        43.310001       14.840000       57.509998
  H2        43.509998       13.830000       57.580002
  C3        43.240002       15.500000       58.759998
  H3        43.660000       15.030000       59.630001
  C4        42.700001       16.760000       58.849998
  H4        42.529999       17.219999       59.820000
  C5        42.090000       17.340000       57.720001
  H5        41.950001       18.389999       57.630001
  C1        36.849998       20.680000       55.029999
  C2        35.740002       19.920000       55.279999
  N1        37.980000       19.879999       55.430000
  C3b       37.570000       18.590000       55.740002
  N2        36.220001       18.590000       55.709999
  C4        35.610001       17.330000       55.980000
  C5b       36.450001       16.219999       55.680000
  C6        35.950001       14.940000       55.889999
  H1        36.630001       14.090000       55.799999
  C7        34.720001       14.790000       56.430000
  H2        34.160000       13.850000       56.500000
  C8        33.900002       15.910000       56.759998
  H3        32.939999       15.770000       57.180000
  C9        34.369999       17.209999       56.470001
  H4        33.599998       17.990000       56.580002
  C10       34.459999       20.450001       55.049999
  H5        33.599998       19.780001       55.290001
  C11       34.320000       21.760000       54.590000
  H6        33.310001       22.010000       54.240002
  C12       35.439999       22.530001       54.279999
  H7        35.480000       23.520000       53.779999
  C13       36.730000       21.990000       54.580002
  H8        37.570000       22.650000       54.310001
  C6        39.299999       20.459999       55.849998
  C1        39.419998       21.030001       57.130001
  H1        38.610001       21.340000       57.689999
  C2        40.630001       21.620001       57.480000
  H2        40.759998       21.860001       58.480000
  C3        41.680000       21.760000       56.570000
  H3        42.669998       22.049999       56.889999
  C4        41.549999       21.250000       55.279999
  H4        42.400002       21.030001       54.619999
  C5        40.349998       20.590000       54.889999
  H5        40.400002       19.980000       54.040001
  C1        39.340000       15.270000       59.400002
  C2        39.770000       14.300000       58.520000
  N1        38.669998       16.209999       58.549999
  C3c       38.820000       15.910000       57.220001
  N2        39.459999       14.680000       57.220001
  C4        39.759998       14.140000       55.930000
  C5c       39.000000       14.790000       54.939999
  C6        38.910000       14.190000       53.660000
  H1        38.119999       14.430000       52.939999
  C7        39.590000       13.030000       53.369999
  H2        39.360001       12.580000       52.419998
  C8        40.330002       12.310000       54.340000
  H3        40.900002       11.500000       53.990002
  C9        40.470001       12.890000       55.599998
  H4        41.169998       12.460000       56.360001
  C10       40.529999       13.180000       59.000000
  H5        40.430000       12.230000       58.459999
  C11       40.930000       13.170000       60.349998
  H6        41.720001       12.480000       60.619999
  C12       40.430000       14.110000       61.230000
  H7        40.610001       14.050000       62.299999
  C13       39.570000       15.170000       60.759998
  H8        39.340000       15.940000       61.480000
  C6        38.180000       17.430000       59.180000
  C1        39.110001       18.350000       59.709999
  H1        40.160000       18.250000       59.689999
  C2        38.660000       19.600000       60.139999
  H2        39.320000       20.410000       60.310001
  C3        37.279999       19.920000       60.009998
  H3        36.930000       20.740000       60.610001
  C4        36.389999       19.010000       59.570000
  H4        35.369999       19.330000       59.480000
  C5        36.810001       17.730000       59.139999
  H5        35.959999       17.090000       58.830002
