206
 generated by VMD
 Ir       -0.391930       -0.919277       -7.960697
 C        -0.815361        3.091759       -9.532188
 C        -2.111382        2.679245       -9.290779
 N         0.020691        1.972565       -9.362114
 C        -0.701839        0.869699       -8.943146
 N        -2.018784        1.301613       -8.957687
 C        -2.999222        0.290718       -8.747108
 C        -2.498611       -0.905922       -8.197990
 C        -3.390404       -1.927097       -7.882835
 H        -3.018803       -2.875256       -7.525063
 C        -4.766472       -1.769951       -8.083672
 H        -5.423691       -2.592335       -7.882793
 C        -5.256615       -0.586655       -8.636284
 H        -6.327717       -0.461197       -8.775532
 C        -4.382141        0.434826       -8.975929
 H        -4.751495        1.278400       -9.528530
 C        -3.147404        3.621372       -9.297268
 H        -4.137718        3.351704       -9.000694
 C        -2.867546        4.976015       -9.542889
 H        -3.655651        5.706638       -9.429382
 C        -1.550636        5.384182       -9.790962
 H        -1.322273        6.433226       -9.938816
 C        -0.533451        4.437712       -9.795704
 H         0.481716        4.759203       -9.958122
 C         1.236675        1.846777      -10.133640
 C         1.173359        1.310261      -11.422649
 H         0.217537        1.073429      -11.864471
 C         2.351578        1.062717      -12.128223
 H         2.312042        0.588829      -13.098465
 C         3.593102        1.351686      -11.544788
 H         4.506912        1.069601      -12.051624
 C         3.657413        1.906216      -10.264408
 H         4.611256        2.107021       -9.805321
 C         2.469265        2.153763       -9.559978
 H         2.523254        2.506210       -8.540291
 C        -1.308666        0.242043       -3.835522
 C        -0.877094       -1.055698       -3.736977
 N        -1.263348        0.587784       -5.193981
 C        -0.811119       -0.455971       -5.976322
 N        -0.603539       -1.497166       -5.066963
 C        -0.437271       -2.790359       -5.638111
 C        -0.376301       -2.824074       -7.045216
 C        -0.223351       -4.067257       -7.675697
 H        -0.250290       -4.128094       -8.755638
 C        -0.116375       -5.253723       -6.942047
 H        -0.016926       -6.194481       -7.457302
 C        -0.175819       -5.215343       -5.548206
 H        -0.079697       -6.126629       -4.982941
 C        -0.361088       -3.994843       -4.899246
 H        -0.581879       -4.014431       -3.853413
 C        -0.873058       -1.664127       -2.457642
 H        -0.397991       -2.613773       -2.299595
 C        -1.364014       -0.978523       -1.338219
 H        -1.374115       -1.470711       -0.373981
 C        -1.831249        0.324196       -1.476807
 H        -2.348808        0.803699       -0.651512
 C        -1.788692        0.945663       -2.723595
 H        -2.130913        1.966095       -2.811340
 C        -1.892879        1.792168       -5.672264
 C        -1.107742        2.910826       -5.935249
 H        -0.037193        2.836967       -5.966400
 C        -1.717262        4.151770       -6.149590
 H        -1.123718        4.985064       -6.497189
 C        -3.112949        4.278399       -6.092003
 H        -3.575535        5.228363       -6.271118
 C        -3.897560        3.146389       -5.833649
 H        -4.973969        3.225227       -5.839115
 C        -3.287010        1.901100       -5.628258
 H        -3.894482        1.034000       -5.422302
 C         3.971821       -0.923737       -8.094292
 C         3.587276       -1.470844       -9.303299
 N         2.789604       -0.725887       -7.353870
 C         1.670296       -1.125061       -8.037395
 N         2.181061       -1.608170       -9.241692
 C         1.219681       -2.128998      -10.160919
 C        -0.098045       -1.723251       -9.905804
 C        -1.071152       -1.912098      -10.898170
 H        -2.086342       -1.589535      -10.735550
 C        -0.749954       -2.525009      -12.117092
 H        -1.507706       -2.649632      -12.881214
 C         0.554817       -2.962433      -12.347137
 H         0.800907       -3.481354      -13.262703
 C         1.539921       -2.782284      -11.371525
 H         2.478203       -3.284664      -11.478020
 C         4.566090       -1.719242      -10.288399
 H         4.295815       -2.072647      -11.265415
 C         5.915432       -1.425507      -10.030163
 H         6.664928       -1.677715      -10.771542
 C         6.287991       -0.869709       -8.804401
 H         7.319103       -0.660748       -8.597435
 C         5.310699       -0.616653       -7.832561
 H         5.615276       -0.204544       -6.891281
 C         2.794140       -0.239704       -5.991302
 C         3.445728       -0.968201       -5.003960
 H         3.813705       -1.961826       -5.228012
 C         3.569187       -0.445034       -3.712738
 H         4.137703       -0.973469       -2.966183
 C         3.010757        0.797609       -3.407959
 H         3.139778        1.226780       -2.428078
 C         2.318939        1.517094       -4.395546
 H         1.827782        2.438667       -4.150661
 C         2.225780        1.002939       -5.687664
 H         1.690117        1.540697       -6.457325
 Ir       -0.391930       -0.919277        6.936409
 C         0.566444       -2.093723       11.036484
 C         0.996292       -3.160160       10.273758
 N        -0.005764       -1.156273       10.146782
 C         0.054062       -1.598373        8.837257
 N         0.699265       -2.828407        8.916290
 C         1.055332       -3.418324        7.656685
 C         0.820900       -2.606869        6.542877
 C         1.355961       -2.986553        5.302330
 H         1.204067       -2.361805        4.433933
 C         2.106571       -4.159687        5.164684
 H         2.509434       -4.422707        4.198753
 C         2.311729       -4.984497        6.270447
 H         2.848209       -5.912323        6.156731
 C         1.776707       -4.627167        7.510670
 H         1.776455       -5.358414        8.301544
 C         1.606754       -4.250626       10.918053
 H         1.879097       -5.141689       10.387352
 C         1.778927       -4.247643       12.310978
 H         2.277168       -5.076591       12.793053
 C         1.340134       -3.163193       13.063931
 H         1.448677       -3.155762       14.134476
 C         0.729172       -2.081734       12.423958
 H         0.390179       -1.249695       13.009182
 C        -0.760731       -0.005287       10.585251
 C        -2.119381       -0.127453       10.846123
 H        -2.620174       -1.060257       10.649208
 C        -2.878609        0.988461       11.234070
 H        -3.921127        0.876247       11.459370
 C        -2.267239        2.240215       11.344704
 H        -2.854855        3.102766       11.640694
 C        -0.906574        2.376053       11.066246
 H        -0.442493        3.356432       11.057037
 C        -0.150394        1.250816       10.704826
 H         0.916336        1.353382       10.531693
 C         3.020844        1.685835        6.231171
 C         2.255898        1.803543        5.091515
 N         2.435104        0.694023        7.036598
 C         1.285366        0.195137        6.442699
 N         1.214001        0.847326        5.223785
 C         0.230160        0.348543        4.324799
 C        -0.719757       -0.519611        4.883076
 C        -1.806896       -0.948563        4.094772
 H        -2.528065       -1.635307        4.501839
 C        -1.947704       -0.505333        2.779358
 H        -2.850006       -0.744923        2.222088
 C        -0.987820        0.340464        2.221909
 H        -1.082142        0.667770        1.202805
 C         0.091972        0.747375        2.986538
 H         0.880085        1.314274        2.522423
 C         2.597157        2.770241        4.136093
 H         1.947884        2.995613        3.303894
 C         3.714359        3.592525        4.312195
 H         3.959892        4.336803        3.576691
 C         4.497154        3.461143        5.471706
 H         5.352837        4.099894        5.628647
 C         4.144405        2.512142        6.439568
 H         4.736130        2.419964        7.334587
 C         3.232971       -0.064880        7.977280
 C         3.854748       -1.243206        7.559143
 H         3.771412       -1.564293        6.532032
 C         4.595554       -2.001793        8.470764
 H         5.093864       -2.895393        8.146065
 C         4.712601       -1.582047        9.800289
 H         5.264442       -2.190594       10.516769
 C         4.103237       -0.394711       10.215477
 H         4.176144       -0.082638       11.245766
 C         3.362926        0.372879        9.299541
 H         2.964951        1.320518        9.609528
 C        -3.260006        2.229149        7.894531
 C        -3.948502        1.057720        8.104832
 N        -1.993271        1.880621        7.382263
 C        -1.859585        0.509338        7.269966
 N        -3.084927        0.009514        7.684818
 C        -3.306030       -1.382542        7.418922
 C        -2.149532       -2.109352        7.077667
 C        -2.275658       -3.469406        6.773617
 H        -1.416698       -4.045326        6.481377
 C        -3.524899       -4.106670        6.783081
 H        -3.598549       -5.159004        6.547981
 C        -4.669937       -3.375198        7.112213
 H        -5.636158       -3.855320        7.111412
 C        -4.564178       -2.024151        7.418297
 H        -5.464886       -1.446007        7.548203
 C        -5.250164        1.105942        8.658318
 H        -5.757492        0.210869        8.956409
 C        -5.838894        2.339579        8.963985
 H        -6.824623        2.367672        9.395905
 C        -5.137417        3.520336        8.728294
 H        -5.584293        4.478252        8.938271
 C        -3.838303        3.471792        8.197021
 H        -3.312431        4.392296        8.000473
 C        -1.188171        2.844458        6.682663
 C        -1.444828        3.095789        5.324181
 H        -2.085583        2.431702        4.768379
 C        -0.795525        4.143761        4.666420
 H        -1.039711        4.363621        3.637569
 C         0.141792        4.922714        5.356976
 H         0.632992        5.740215        4.848831
 C         0.410439        4.662697        6.698700
 H         1.135353        5.273689        7.222897
 C        -0.249336        3.628071        7.359955
 H        -0.026043        3.412556        8.395473
