206
 generated by VMD
 Ir       58.769165      -24.516033      -85.814636
 C        56.130051      -26.699818      -83.131233
 C        55.359776      -26.212902      -84.171890
 N        57.447365      -26.431339      -83.498657
 C        57.514305      -25.768118      -84.755386
 N        56.221336      -25.658535      -85.168579
 C        55.886147      -24.984650      -86.377602
 C        56.954266      -24.186760      -86.850998
 C        56.687981      -23.282923      -87.865913
 H        57.457161      -22.713148      -88.255051
 C        55.458832      -23.278984      -88.602173
 H        55.259838      -22.706924      -89.503967
 C        54.438095      -24.162750      -88.186050
 H        53.554344      -24.350098      -88.791527
 C        54.632408      -24.991423      -87.037827
 H        53.792915      -25.623859      -86.747337
 C        53.969696      -26.283846      -84.122406
 H        53.358055      -25.577591      -84.700760
 C        53.413204      -27.006283      -83.082306
 H        52.330269      -27.138874      -83.025040
 C        54.151485      -27.499451      -81.997635
 H        53.664421      -28.029638      -81.134224
 C        55.571266      -27.356930      -81.997185
 H        56.152191      -27.514782      -81.079247
 C        58.650734      -26.844931      -82.766640
 C        59.689747      -27.669571      -83.328079
 H        59.699818      -27.760284      -84.367439
 C        60.807144      -27.971359      -82.544968
 H        61.389294      -28.837147      -82.837746
 C        60.961239      -27.503948      -81.210068
 H        61.982681      -27.361380      -80.842575
 C        59.931274      -26.724960      -80.750778
 H        60.115486      -26.170940      -79.854263
 C        58.784710      -26.384691      -81.465553
 H        58.091026      -25.578854      -81.164680
 C        59.822121      -26.881958      -89.345444
 C        60.057346      -25.586014      -89.712875
 N        59.305084      -26.828804      -87.984726
 C        59.279339      -25.548714      -87.519424
 N        59.664543      -24.708267      -88.612755
 C        59.936760      -23.361103      -88.350723
 C        59.732090      -23.018095      -87.012573
 C        60.131065      -21.770138      -86.615692
 H        59.946461      -21.359280      -85.635017
 C        60.782181      -20.891991      -87.496719
 H        61.018902      -19.884697      -87.176987
 C        60.848305      -21.172432      -88.872169
 H        61.457260      -20.594757      -89.569786
 C        60.456562      -22.461536      -89.276466
 H        60.346764      -22.597900      -90.341286
 C        60.543884      -25.343987      -90.987946
 H        60.982361      -24.376186      -91.170151
 C        60.790718      -26.386265      -91.883560
 H        61.446533      -26.116325      -92.756683
 C        60.521011      -27.644650      -91.515411
 H        60.853386      -28.373768      -92.149849
 C        59.998741      -27.927826      -90.222183
 H        59.980240      -28.945591      -89.959869
 C        59.130043      -27.976986      -87.164040
 C        57.871067      -28.240959      -86.737656
 H        57.064720      -27.735970      -87.252121
 C        57.577507      -29.378479      -86.037956
 H        56.600319      -29.541313      -85.587746
 C        58.629513      -30.276161      -85.775558
 H        58.506233      -31.156101      -85.219948
 C        59.934471      -30.027405      -86.261559
 H        60.749622      -30.688976      -85.908340
 C        60.161377      -28.895264      -86.955948
 H        61.085449      -28.795090      -87.515022
 C        62.344948      -25.094810      -83.265472
 C        61.526474      -24.211048      -82.587570
 N        61.678307      -25.286808      -84.484001
 C        60.482254      -24.595722      -84.616913
 N        60.331551      -23.945946      -83.364082
 C        59.086796      -23.255638      -83.148521
 C        58.276073      -23.117603      -84.315857
 C        57.099800      -22.426426      -84.200348
 H        56.419750      -22.219383      -85.069748
 C        56.663536      -21.800877      -82.997238
 H        55.742943      -21.290365      -83.019150
 C        57.525352      -21.878090      -81.861359
 H        57.100182      -21.474449      -80.913467
 C        58.673019      -22.613998      -81.985855
 H        59.256516      -22.838053      -81.102707
 C        62.005238      -23.701572      -81.371910
 H        61.514908      -22.836611      -80.944336
 C        63.189938      -24.103580      -80.749512
 H        63.300201      -24.028034      -79.683899
 C        63.938278      -25.013317      -81.486633
 H        64.941696      -25.292955      -81.208130
 C        63.583954      -25.511164      -82.766953
 H        64.248764      -26.129303      -83.409782
 C        62.429199      -25.904217      -85.627625
 C        62.891148      -27.247555      -85.653015
 H        62.947792      -27.881359      -84.736237
 C        63.537216      -27.681629      -86.796814
 H        64.073059      -28.651081      -86.815346
 C        63.641628      -26.877918      -87.892731
 H        63.880348      -27.243172      -88.938919
 C        63.193573      -25.518488      -87.902672
 H        63.145641      -25.018879      -88.902618
 C        62.616985      -25.034304      -86.739868
 H        62.208584      -23.971806      -86.722260
 Ir       58.769165      -24.516033      -73.549980
 C        56.201920      -27.905930      -74.520996
 C        55.358086      -26.940842      -74.022659
 N        57.517109      -27.357338      -74.461655
 C        57.524944      -26.120140      -73.900787
 N        56.172405      -25.879711      -73.573013
 C        56.020344      -24.942886      -72.498520
 C        57.084473      -24.061600      -72.372223
 C        56.971336      -23.046993      -71.408340
 H        57.479584      -22.029957      -71.512390
 C        55.939194      -23.008419      -70.483246
 H        55.723175      -22.127274      -69.985733
 C        54.913116      -23.944229      -70.526001
 H        54.321388      -24.142590      -69.623390
 C        54.972580      -24.938286      -71.521446
 H        54.139648      -25.638859      -71.669838
 C        53.975540      -27.165607      -73.921371
 H        53.386120      -26.294632      -74.110275
 C        53.487808      -28.473465      -74.193619
 H        52.432858      -28.648994      -74.167542
 C        54.360523      -29.379524      -74.721664
 H        54.059689      -30.346592      -75.070923
 C        55.714619      -29.147633      -74.890327
 H        56.388111      -29.953426      -75.049103
 C        58.578007      -27.940538      -75.181923
 C        59.009007      -27.546478      -76.491676
 H        58.529755      -26.819630      -77.082199
 C        60.120777      -28.225296      -77.009041
 H        60.736626      -27.873940      -77.792862
 C        60.774101      -29.226639      -76.262802
 H        61.684677      -29.702450      -76.727188
 C        60.344734      -29.565258      -74.989426
 H        61.127121      -29.993290      -74.358742
 C        59.235710      -28.915955      -74.467438
 H        58.965050      -29.286846      -73.494514
 C        57.203247      -21.641827      -76.397690
 C        58.241875      -21.008141      -75.825249
 N        57.165371      -22.960016      -75.835426
 C        58.008076      -23.076630      -74.809929
 N        58.714886      -21.876163      -74.834442
 C        59.767448      -21.696720      -73.925598
 C        59.838364      -22.762518      -72.984833
 C        60.776779      -22.778038      -71.954910
 H        60.707077      -23.559505      -71.191856
 C        61.660473      -21.695534      -71.799431
 H        62.207237      -21.615482      -70.899796
 C        61.733116      -20.675339      -72.792267
 H        62.403000      -19.848667      -72.585449
 C        60.810707      -20.664276      -73.795280
 H        60.684090      -19.745031      -74.340668
 C        58.557911      -19.676432      -76.271988
 H        59.374474      -19.194866      -75.759903
 C        57.918449      -19.038313      -77.268784
 H        58.155746      -17.964136      -77.495804
 C        56.769276      -19.667542      -77.811890
 H        55.918312      -19.121361      -78.166641
 C        56.523277      -21.032349      -77.423447
 H        55.921959      -21.537178      -78.082275
 C        56.500793      -24.030161      -76.561462
 C        57.190010      -24.755737      -77.515366
 H        57.979126      -24.296942      -78.105698
 C        56.429787      -25.756098      -78.128342
 H        56.770947      -26.216972      -79.002296
 C        55.104881      -26.056805      -77.832352
 H        54.620758      -26.837048      -78.372391
 C        54.483418      -25.299000      -76.842804
 H        53.448936      -25.297348      -76.606277
 C        55.156128      -24.264668      -76.220451
 H        54.530548      -23.681419      -75.629028
 C        62.278965      -25.730747      -75.865028
 C        62.249435      -26.505821      -74.760590
 N        61.247475      -24.798031      -75.721283
 C        60.548904      -25.076796      -74.489700
 N        61.252312      -26.066555      -73.893982
 C        61.054314      -26.091137      -72.505508
 C        59.723434      -25.765709      -72.102196
 C        59.354900      -26.240261      -70.824356
 H        58.511078      -25.796635      -70.345535
 C        60.146893      -27.043880      -70.001465
 H        59.743057      -27.165237      -68.978584
 C        61.408470      -27.382736      -70.384354
 H        62.112236      -27.874298      -69.788055
 C        61.859295      -26.883997      -71.621658
 H        62.937592      -26.969730      -71.901894
 C        63.104069      -27.679106      -74.712639
 H        63.051357      -28.400623      -73.901443
 C        64.043076      -27.981606      -75.774734
 H        64.780319      -28.738064      -75.591599
 C        64.027710      -27.149300      -76.876434
 H        64.777084      -27.383759      -77.650940
 C        63.173168      -26.013573      -76.904648
 H        63.182545      -25.365425      -77.769127
 C        61.448288      -23.471752      -76.263916
 C        60.840412      -23.086800      -77.403214
 H        60.002220      -23.683708      -77.795181
 C        61.204845      -21.969830      -78.081573
 H        60.965878      -21.807468      -79.109253
 C        62.140114      -21.149220      -77.487282
 H        62.501598      -20.270977      -77.935860
 C        62.765621      -21.483189      -76.357460
 H        63.696918      -21.001669      -76.043716
 C        62.472889      -22.689621      -75.773743
 H        63.014889      -23.006721      -74.940811
