,['distance'],['q'],"['q[0]', 'q[1]', 'q[2]', 'q[3]']","['distance', 'q']","['distance', 'q[0]', 'q[1]', 'q[2]', 'q[3]']","['distance', 'q', 'rmsd_id_1', 'rmsd_id_2']","['distance', 'q', 'rmsd_id_1_H', 'rmsd_id_2_H']","['distance', 'q[0]', 'q[1]', 'q[2]', 'q[3]', 'rmsd_id_1', 'rmsd_id_2']","['distance', 'q[0]', 'q[1]', 'q[2]', 'q[3]', 'rmsd_id_1_H', 'rmsd_id_2_H']"
<1meV,0.07744440309672301,0.1458559298415276,0.08576090193766021,0.07287415194756601,0.057285041212386915,0.06097888839845192,0.06429066640145623,0.05135407426621823,0.047878167537626665
<10meV,0.7004014437363077,0.9463424488869592,0.7517658869011251,0.5388627248279512,0.5095639343913932,0.47257928470246024,0.48189490520372497,0.44032512468574353,0.46563462552726986
>10meV,18.709231691818367,27.831021077597935,19.63433892412084,19.654461657970494,16.11850399379014,18.814921954212085,19.08665154051711,16.23799014082113,16.415424169964865
All,23.29459503142978,29.43301827247217,21.119089429014807,18.114648420565796,14.940108645813407,16.735778972847605,17.511909484171508,15.13654533390561,15.340047252645574
