206
 generated by VMD
 Ir       76.876190       99.435181      -50.215828
 C        73.526672       96.667694      -50.728691
 C        74.622505       96.017563      -51.170605
 N        73.952728       97.948868      -50.382175
 C        75.328720       98.073364      -50.532623
 N        75.718025       96.825294      -50.999153
 C        77.121407       96.527512      -50.855106
 C        77.898544       97.658463      -50.656128
 C        79.239891       97.501869      -50.507927
 H        79.860916       98.233330      -50.086620
 C        79.854691       96.267197      -50.565353
 H        81.010330       96.130989      -50.465050
 C        79.128098       95.123039      -50.740425
 H        79.513596       94.154533      -50.726624
 C        77.776192       95.229149      -50.919285
 H        77.233765       94.320511      -51.173767
 C        74.481934       94.780167      -51.824516
 H        75.387131       94.348793      -52.052177
 C        73.248993       94.143654      -51.995739
 H        73.178879       93.142464      -52.475746
 C        72.142258       94.881485      -51.616192
 H        71.175430       94.386909      -51.506088
 C        72.287079       96.091858      -50.919250
 H        71.295090       96.482330      -50.790047
 C        73.020065       98.964302      -50.049980
 C        72.535263       99.051834      -48.755104
 H        72.366180       98.131554      -48.140457
 C        71.649353      100.075066      -48.471413
 H        71.492645      100.404083      -47.452301
 C        71.113098      100.851501      -49.506531
 H        70.426750      101.626610      -49.196152
 C        71.508110      100.698425      -50.877861
 H        71.349403      101.510498      -51.553696
 C        72.500748       99.768372      -51.097298
 H        72.892456       99.623840      -52.109715
 C        77.716125       99.262032      -45.934059
 C        78.707428      100.081543      -46.372368
 N        77.003250       98.735184      -47.052071
 C        77.439720       99.259338      -48.241592
 N        78.559448      100.055168      -47.784882
 C        79.225700      100.668922      -48.829254
 C        78.602798      100.706238      -50.085239
 C        79.291748      101.366852      -51.155869
 H        78.934212      101.191002      -52.132668
 C        80.470619      102.098312      -50.926666
 H        81.018036      102.486809      -51.794022
 C        81.035812      102.074821      -49.653984
 H        81.994949      102.608521      -49.571445
 C        80.495544      101.317474      -48.612278
 H        81.125397      100.923096      -47.827515
 C        79.455490      100.813812      -45.428604
 H        80.317902      101.417633      -45.780491
 C        79.254959      100.657478      -44.045326
 H        79.903793      101.127075      -43.358971
 C        78.150703       99.898026      -43.627884
 H        77.960175      100.003555      -42.522690
 C        77.413864       99.174171      -44.569798
 H        76.695374       98.440582      -44.229923
 C        76.237793       97.569473      -47.002144
 C        76.672859       96.410881      -47.612206
 H        77.760971       96.463829      -47.800110
 C        75.814209       95.294975      -47.710045
 H        76.088074       94.339546      -48.051155
 C        74.489380       95.410927      -47.288177
 H        73.799133       94.551605      -47.357689
 C        74.015839       96.611588      -46.636284
 H        72.975113       96.721519      -46.341484
 C        74.940353       97.631386      -46.500717
 H        74.755798       98.388702      -45.746723
 C        74.419235      103.011215      -49.856705
 C        74.348305      102.664627      -51.199036
 N        75.171799      102.056793      -49.268394
 C        75.765747      101.193718      -50.184929
 N        75.213547      101.565125      -51.389153
 C        75.409012      100.658691      -52.449326
 C        76.516541       99.868790      -52.273727
 C        77.120293       99.235771      -53.376755
 H        77.987244       98.606834      -53.285500
 C        76.608612       99.437119      -54.647598
 H        77.140015       99.054123      -55.530731
 C        75.465881      100.157318      -54.833290
 H        75.018509      100.347366      -55.794556
 C        74.886002      100.787323      -53.753090
 H        73.991913      101.432472      -53.861702
 C        73.595680      103.491547      -52.125351
 H        73.534256      103.272461      -53.132935
 C        72.928940      104.586388      -51.604515
 H        72.450264      105.376839      -52.134571
 C        72.909897      104.835632      -50.247047
 H        72.457306      105.779030      -49.902847
 C        73.595078      104.060364      -49.362988
 H        73.590332      104.211586      -48.240440
 C        75.398636      102.003883      -47.811188
 C        76.577087      102.537781      -47.276096
 H        77.498428      102.714340      -47.825401
 C        76.675308      102.599594      -45.885223
 H        77.119003      103.533470      -45.579590
 C        75.827576      101.948486      -45.029991
 H        76.087730      101.831146      -43.967422
 C        74.723221      101.302269      -45.503487
 H        74.353943      100.505730      -44.886677
 C        74.479889      101.420090      -46.885773
 H        73.440170      101.257637      -47.140884
 Ir       76.876190       99.435188      -35.596821
 C        79.854568       98.297691      -38.526520
 C        78.623108       98.279243      -39.246281
 N        79.600838       98.624992      -37.236328
 C        78.240952       99.005203      -37.100536
 N        77.661972       98.757111      -38.351830
 C        76.264328       99.074127      -38.509941
 C        75.651535       99.567184      -37.310318
 C        74.280029       99.980370      -37.361816
 H        73.753571      100.428215      -36.587177
 C        73.514549       99.829010      -38.571167
 H        72.487640       99.914795      -38.574066
 C        74.167656       99.232658      -39.653717
 H        73.610992       98.930664      -40.471657
 C        75.518028       98.884941      -39.663605
 H        75.932419       98.719406      -40.610107
 C        78.638214       97.784889      -40.492348
 H        77.704620       97.762329      -41.053513
 C        79.821045       97.409271      -41.142281
 H        79.815887       97.264069      -42.232182
 C        81.051010       97.449341      -40.457596
 H        81.964127       97.243164      -41.000092
 C        81.087494       97.914886      -39.123154
 H        82.060104       98.187950      -38.694366
 C        80.462578       98.122589      -36.177422
 C        80.422592       96.785851      -35.802151
 H        79.805534       96.133057      -36.334793
 C        81.377907       96.266556      -34.962921
 H        81.406143       95.237923      -34.942352
 C        82.373077       97.118263      -34.437927
 H        83.232719       96.653496      -33.968658
 C        82.482712       98.504326      -34.703114
 H        83.429199       99.049446      -34.595890
 C        81.447906       98.978539      -35.558167
 H        81.166405      100.014900      -35.699951
 C        77.034012      103.862183      -35.660629
 C        76.405289      103.483398      -34.507271
 N        77.208725      102.611588      -36.381798
 C        76.816528      101.503868      -35.616528
 N        76.177765      102.031128      -34.523006
 C        75.227692      101.126991      -33.842133
 C        75.166748       99.832550      -34.449089
 C        74.069931       99.003944      -34.194321
 H        74.011620       98.001587      -34.578617
 C        73.035896       99.377838      -33.357967
 H        72.036522       98.877792      -33.403786
 C        73.117271      100.582809      -32.630280
 H        72.390182      100.895416      -31.916126
 C        74.198425      101.466072      -32.930519
 H        74.461548      102.074463      -32.105030
 C        75.882874      104.437790      -33.628746
 H        75.240372      104.223526      -32.761124
 C        76.172287      105.820297      -33.832561
 H        75.750183      106.528900      -33.092697
 C        76.876251      106.271179      -35.013126
 H        77.277542      107.240974      -35.045601
 C        77.228287      105.254265      -35.925735
 H        77.505356      105.558548      -36.933174
 C        77.429367      102.551620      -37.768097
 C        78.782440      102.371368      -38.230804
 H        79.543907      102.187271      -37.524494
 C        78.975052      102.173218      -39.575623
 H        79.949440      101.766472      -39.848087
 C        77.856400      102.166130      -40.489922
 H        78.051018      101.668900      -41.460381
 C        76.541519      102.440712      -40.039139
 H        75.596970      102.439774      -40.632118
 C        76.376030      102.622650      -38.676968
 H        75.344376      102.736824      -38.294418
 C        79.221252       98.674347      -31.981194
 C        79.074203       97.461586      -32.653858
 N        78.496124       99.610107      -32.704781
 C        77.832748       99.017792      -33.771175
 N        78.121010       97.721832      -33.732647
 C        77.276794       96.811157      -34.525658
 C        76.516182       97.353233      -35.567303
 C        75.676529       96.511642      -36.377804
 H        75.010422       96.950493      -37.145020
 C        75.617767       95.109924      -36.241333
 H        75.032715       94.507553      -36.926727
 C        76.404984       94.559433      -35.214565
 H        76.380661       93.536270      -35.008774
 C        77.154587       95.404030      -34.358440
 H        77.667313       95.027084      -33.483784
 C        79.787086       96.335876      -32.180801
 H        79.852898       95.553314      -32.911057
 C        80.495461       96.392899      -30.953018
 H        81.127487       95.608398      -30.622570
 C        80.527069       97.633301      -30.246971
 H        80.951996       97.592850      -29.289471
 C        79.875229       98.798073      -30.727077
 H        79.864670       99.804047      -30.266323
 C        78.799896      100.984932      -32.529076
 C        79.851814      101.455231      -33.313473
 H        80.731277      100.855583      -33.646584
 C        80.120613      102.827545      -33.454266
 H        81.077744      103.230667      -33.899693
 C        79.358765      103.728378      -32.718220
 H        79.612411      104.748596      -32.841579
 C        78.260727      103.276070      -32.006283
 H        77.572998      103.867432      -31.392855
 C        78.025574      101.929001      -31.859924
 H        77.619316      101.681152      -30.920498
