206
 generated by VMD
 Ir       90.081909       -6.249162       30.035669
 C        88.635025       -9.249285       27.176611
 C        87.464325       -8.633580       27.652809
 N        89.700165       -8.599603       27.750628
 C        89.255959       -7.612848       28.620049
 N        87.884552       -7.596298       28.502251
 C        87.203033       -6.929325       29.571724
 C        88.056839       -6.512151       30.594604
 C        87.420486       -6.094810       31.806000
 H        88.137802       -5.918411       32.616512
 C        86.038666       -6.177999       32.021286
 H        85.619949       -5.931286       32.907684
 C        85.146027       -6.576033       31.013428
 H        84.142914       -6.846658       31.148407
 C        85.759453       -6.896075       29.771904
 H        85.132355       -7.236369       28.997400
 C        86.203079       -8.952291       27.068785
 H        85.371880       -8.250849       27.214996
 C        86.163521       -9.966086       26.141607
 H        85.314606      -10.075518       25.537975
 C        87.318115      -10.724955       25.792868
 H        87.242020      -11.450091       25.015831
 C        88.596436      -10.283016       26.250698
 H        89.389236      -10.529413       25.558632
 C        91.043686       -8.803850       27.303368
 C        91.581268       -7.929764       26.441059
 H        90.895844       -7.604566       25.606413
 C        92.973038       -7.791963       26.288374
 H        93.367188       -7.021961       25.633898
 C        93.773163       -8.649458       27.026066
 H        94.767410       -8.694582       26.664764
 C        93.229439       -9.713313       27.748192
 H        93.829933      -10.453520       28.273077
 C        91.879440       -9.757423       27.922733
 H        91.452011      -10.497520       28.599537
 C        88.721619       -2.648937       28.049994
 C        89.220886       -2.197455       29.250996
 N        88.848106       -3.997047       28.051071
 C        89.370148       -4.489745       29.215944
 N        89.573654       -3.380244       29.945732
 C        89.953506       -3.547595       31.287043
 C        90.520737       -4.844382       31.603092
 C        91.015839       -5.052401       32.848164
 H        91.443146       -5.989108       33.095924
 C        90.930962       -4.059339       33.859509
 H        91.178421       -4.270484       34.927773
 C        90.278336       -2.854652       33.579865
 H        89.849213       -2.323630       34.370033
 C        89.786102       -2.589209       32.289028
 H        89.227371       -1.732249       32.149277
 C        89.179993       -0.747331       29.527521
 H        89.586670       -0.378722       30.441713
 C        88.669006        0.180738       28.575327
 H        88.737801        1.250475       28.781311
 C        88.274170       -0.368836       27.329905
 H        87.944130        0.221476       26.450356
 C        88.291458       -1.776701       27.104921
 H        88.028786       -2.191175       26.148777
 C        88.172028       -4.789837       26.981022
 C        86.806183       -4.723446       26.854004
 H        86.213234       -4.122219       27.610537
 C        86.207077       -5.007056       25.686939
 H        85.132675       -5.163999       25.612644
 C        86.981003       -5.154881       24.507708
 H        86.422119       -5.151850       23.558632
 C        88.404541       -5.205737       24.677511
 H        89.038528       -5.416607       23.875828
 C        89.030701       -5.095989       25.929661
 H        89.998184       -5.582586       26.061604
 C        94.347321       -6.172610       29.101583
 C        94.282829       -7.184718       29.958075
 N        93.051445       -5.656053       28.901390
 C        92.102020       -6.264121       29.684862
 N        92.888039       -7.272307       30.271910
 C        92.098160       -8.274707       30.885252
 C        90.761826       -7.868282       31.193325
 C        90.022644       -8.875083       31.856771
 H        89.098953       -8.646976       32.360332
 C        90.421814      -10.253153       31.968494
 H        89.965179      -11.056240       32.623421
 C        91.675552      -10.593350       31.502337
 H        92.142303      -11.510492       31.554241
 C        92.529922       -9.620485       31.006762
 H        93.553337       -9.791278       31.014051
 C        95.516296       -7.835264       30.307438
 H        95.551140       -8.832947       30.683487
 C        96.716064       -7.348886       29.786871
 H        97.585983       -7.766130       30.137383
 C        96.758804       -6.311646       28.868774
 H        97.600204       -5.789371       28.554310
 C        95.581810       -5.706964       28.544073
 H        95.647781       -4.959230       27.788603
 C        92.826187       -4.307038       28.357687
 C        92.445374       -4.080674       26.998589
 H        92.475952       -4.846109       26.295689
 C        91.948677       -2.913845       26.478006
 H        91.889343       -2.877358       25.359724
 C        91.789352       -1.828627       27.259430
 H        91.603027       -0.795047       26.932022
 C        92.121452       -1.956899       28.620552
 H        92.115631       -1.071418       29.141312
 C        92.695114       -3.138893       29.159718
 H        92.956070       -3.222040       30.179665
 Ir       90.081909       -6.249163       39.200371
 C        92.180435       -7.949811       35.782127
 C        92.824219       -6.707911       36.050140
 N        91.174957       -8.069061       36.723129
 C        91.122299       -6.906908       37.529121
 N        92.177414       -6.100748       37.099190
 C        92.226257       -4.781487       37.774368
 C        91.123520       -4.522311       38.587563
 C        90.965836       -3.323836       39.255539
 H        89.976074       -2.990795       39.408066
 C        91.924194       -2.360624       39.160828
 H        91.657883       -1.355838       39.388824
 C        93.083664       -2.584328       38.389153
 H        93.792206       -1.822019       38.164314
 C        93.236755       -3.813504       37.715141
 H        94.140152       -4.085460       37.168388
 C        93.883850       -6.356634       35.246361
 H        94.340668       -5.364258       35.202641
 C        94.317627       -7.231721       34.247631
 H        95.252701       -6.988931       33.726009
 C        93.653870       -8.419803       34.052444
 H        94.194763       -9.126704       33.409157
 C        92.572487       -8.824102       34.827660
 H        91.912384       -9.632593       34.604248
 C        90.405685       -9.265945       36.785606
 C        90.571152      -10.303612       37.696579
 H        91.578476      -10.304626       38.178120
 C        89.746796      -11.422709       37.604095
 H        89.980682      -12.208358       38.324272
 C        88.739899      -11.510137       36.677265
 H        88.273476      -12.443442       36.394615
 C        88.450462      -10.425014       35.818054
 H        87.673798      -10.573895       35.012123
 C        89.281815       -9.325056       35.919739
 H        89.132858       -8.554575       35.212093
 C        93.066910       -6.330267       42.445847
 C        92.061523       -5.563871       42.957623
 N        92.627869       -6.728301       41.092804
 C        91.420486       -6.192602       40.810745
 N        91.003220       -5.506543       41.979767
 C        89.593033       -5.376365       41.943108
 C        89.059578       -5.120095       40.697182
 C        87.763275       -4.499084       40.562477
 H        87.437897       -4.370071       39.523926
 C        86.967163       -4.221671       41.745598
 H        85.967453       -3.786931       41.769440
 C        87.508820       -4.647402       43.002281
 H        87.091583       -4.257952       43.923668
 C        88.774445       -5.223344       43.080170
 H        89.093521       -5.434488       44.093925
 C        92.217072       -4.942503       44.251884
 H        91.593979       -4.117518       44.605522
 C        93.337692       -5.250205       45.030922
 H        93.266014       -4.907470       46.059608
 C        94.376160       -6.072434       44.562599
 H        95.359772       -6.181086       44.946922
 C        94.307709       -6.511191       43.234184
 H        95.213333       -7.054308       42.838982
 C        93.442398       -7.273693       40.099026
 C        93.457199       -8.608969       39.755196
 H        92.612122       -9.198211       39.965729
 C        94.439926       -9.102559       38.817314
 H        94.616867      -10.168375       38.802124
 C        95.503479       -8.267290       38.365433
 H        96.356247       -8.674826       37.933823
 C        95.555557       -6.933234       38.797157
 H        96.206970       -6.242238       38.282585
 C        94.550606       -6.443620       39.689323
 H        94.827271       -5.487991       40.151955
 C        87.724991       -9.825613       40.280991
 C        87.131325       -9.254758       39.137585
 N        88.680328       -8.828203       40.727226
 C        88.781921       -7.769435       39.787392
 N        87.729431       -8.027117       38.899727
 C        87.358215       -6.905303       38.048645
 C        88.450638       -6.003491       37.832863
 C        88.368759       -5.153209       36.751007
 H        89.154419       -4.474622       36.412849
 C        87.219673       -4.954363       36.017136
 H        87.152214       -4.223754       35.251461
 C        86.202515       -5.883693       36.216225
 H        85.269699       -5.942489       35.683975
 C        86.246735       -6.786999       37.281631
 H        85.509109       -7.524546       37.286594
 C        86.065445       -9.936730       38.529556
 H        85.651123       -9.605171       37.588806
 C        85.548340      -11.093057       39.038994
 H        84.536041      -11.409067       38.782104
 C        86.129929      -11.626424       40.150017
 H        85.521942      -12.344938       40.672112
 C        87.163307      -10.999489       40.863937
 H        87.798889      -11.529195       41.517502
 C        89.041199       -8.710873       42.142677
 C        88.099213       -8.644331       43.117584
 H        87.084991       -8.435202       42.759087
 C        88.469429       -8.651393       44.462753
 H        87.667267       -8.687715       45.291138
 C        89.832535       -8.742547       44.833862
 H        90.219650       -8.307342       45.705841
 C        90.786560       -8.980141       43.841743
 H        91.784332       -8.788522       44.046516
 C        90.390533       -8.933208       42.512207
 H        91.126099       -9.048796       41.711906
