206
 generated by VMD
  IR        35.990002       17.959999       16.520000
  C1        40.189999       17.280001       17.389999
  C2        39.470001       16.549999       18.350000
  N1        39.189999       18.059999       16.680000
  C3a       37.930000       17.799999       17.190001
  N2        38.169998       16.850000       18.180000
  C4        36.959999       16.209999       18.740000
  C5a       35.860001       16.360001       17.879999
  C6        34.689999       15.620000       18.120001
  H1        33.880001       15.720000       17.389999
  C7        34.650002       14.690000       19.129999
  H2        33.799999       14.080000       19.219999
  C8        35.610001       14.570000       20.049999
  H3        35.610001       13.630000       20.559999
  C9        36.720001       15.380000       19.930000
  H4        37.400002       15.250000       20.719999
  C10       40.119999       15.670000       19.120001
  H5        39.549999       14.960000       19.719999
  C11       41.520000       15.440000       19.010000
  H6        42.009998       14.820000       19.719999
  C12       42.230000       16.139999       18.030001
  H7        43.279999       16.230000       18.020000
  C13       41.540001       17.090000       17.190001
  H8        41.869999       17.209999       16.180000
  C6        39.380001       19.190001       15.770000
  C1        39.150002       19.000000       14.430000
  H1        38.410000       18.299999       14.020000
  C2        39.439999       20.000000       13.470000
  H2        39.299999       19.830000       12.430000
  C3        40.099998       21.100000       13.890000
  H3        40.480000       21.860001       13.190000
  C4        40.400002       21.309999       15.180000
  H4        40.840000       22.290001       15.400000
  C5        40.020000       20.350000       16.150000
  H5        40.230000       20.610001       17.260000
  C1        36.000000       14.720000       13.600000
  C2        34.669998       15.110000       13.710000
  N1        36.709999       15.660000       14.310000
  C3b       35.919998       16.570000       14.980000
  N2        34.630001       16.270000       14.560000
  C4        33.580002       17.059999       15.070000
  C5b       33.910000       17.860001       16.150000
  C6        32.930000       18.540001       16.900000
  H1        33.160000       19.240000       17.750000
  C7        31.580000       18.510000       16.510000
  H2        30.920000       19.139999       17.059999
  C8        31.190001       17.780001       15.360000
  H3        30.160000       17.639999       15.150000
  C9        32.169998       17.020000       14.740000
  H4        31.910000       16.620001       13.720000
  C10       33.759998       14.460000       12.840000
  H5        32.709999       14.880000       12.910000
  C11       34.160000       13.430000       12.010000
  H6        33.340000       13.000000       11.450000
  C12       35.509998       13.090000       11.880000
  H7        35.820000       12.630000       10.940000
  C13       36.450001       13.690000       12.710000
  H8        37.509998       13.500000       12.660000
  C6        38.090000       15.320000       14.750000
  C1        38.220001       14.470000       15.830000
  H1        37.230000       14.300000       16.430000
  C2        39.520000       13.950000       16.120001
  H2        39.549999       13.350000       16.990000
  C3        40.650002       14.280000       15.350000
  H3        41.619999       13.740000       15.440000
  C4        40.520000       15.110000       14.230000
  H4        41.270000       15.440000       13.490000
  C5        39.220001       15.640000       14.020000
  H5        39.130001       16.139999       13.060000
  C1        36.419998       21.530001       14.070000
  C2        36.970001       21.850000       15.340000
  N1        35.939999       20.270000       14.210000
  C3c       36.070000       19.760000       15.440000
  N2        36.580002       20.809999       16.180000
  C4        36.139999       20.790001       17.549999
  C5c       35.730000       19.490000       18.000000
  C6        35.330002       19.350000       19.330000
  H1        35.290001       18.379999       19.799999
  C7        35.299999       20.480000       20.160000
  H2        34.860001       20.420000       21.190001
  C8        35.759998       21.740000       19.730000
  H3        35.860001       22.490000       20.480000
  C9        36.119999       21.889999       18.400000
  H4        36.630001       22.660000       17.940001
  C10       37.630001       23.040001       15.490000
  H5        37.860001       23.290001       16.469999
  C11       37.750000       23.959999       14.440000
  H6        38.209999       24.940001       14.530000
  C12       37.169998       23.709999       13.170000
  H7        37.380001       24.320000       12.320000
  C13       36.470001       22.490000       13.020000
  H8        35.840000       22.459999       12.150000
  C6        35.180000       19.600000       13.270000
  C1        35.799999       18.950001       12.220000
  H1        36.919998       18.980000       12.130000
  C2        35.060001       18.290001       11.220000
  H2        35.450001       17.590000       10.540000
  C3        33.650002       18.500000       11.240000
  H3        33.020000       18.180000       10.450000
  C4        33.040001       19.389999       12.180000
  H4        32.020000       19.809999       12.040000
  C5        33.810001       19.820000       13.230000
  H5        33.320000       20.250000       14.110000
  IR        37.799999       15.180000        4.290000
  C1        33.540001       15.370000        3.780000
  C2        33.740002       14.080000        4.210000
  N1        34.740002       16.080000        3.910000
  C3a       35.779999       15.270000        4.360000
  N2        35.160000       14.030000        4.590000
  C4        35.990002       12.940000        4.770000
  C5a       37.360001       13.120000        4.480000
  C6        38.209999       12.060000        4.740000
  H1        39.220001       12.150000        4.460000
  C7        37.700001       10.790000        5.240000
  H2        38.389999       10.060000        5.580000
  C8        36.349998       10.690000        5.430000
  H3        35.830002        9.790000        5.510000
  C9        35.520000       11.730000        5.230000
  H4        34.500000       11.750000        5.570000
  C10       32.689999       13.140000        4.150000
  H5        32.770000       12.140000        4.600000
  C11       31.450001       13.490000        3.510000
  H6        30.590000       12.800000        3.520000
  C12       31.280001       14.810000        3.090000
  H7        30.270000       15.200000        2.930000
  C13       32.310001       15.750000        3.250000
  H8        32.130001       16.780001        3.030000
  C6        34.790001       17.500000        3.670000
  C1        34.860001       17.969999        2.340000
  H1        34.470001       17.299999        1.590000
  C2        35.099998       19.320000        2.060000
  H2        35.139999       19.680000        1.000000
  C3        35.349998       20.160000        3.130000
  H3        35.759998       21.110001        2.840000
  C4        35.259998       19.680000        4.460000
  H4        35.150002       20.379999        5.320000
  C5        35.009998       18.340000        4.740000
  H5        34.759998       18.120001        5.820000
  C1        38.720001       15.120000        8.480000
  C2        39.830002       14.580000        7.900000
  N1        37.810001       15.420000        7.460000
  C3b       38.380001       15.190000        6.270000
  N2        39.619999       14.730000        6.530000
  C4        40.450001       14.490000        5.440000
  C5b       39.860001       14.690000        4.180000
  C6        40.619999       14.650000        2.970000
  H1        40.230000       15.110000        2.080000
  C7        42.040001       14.430000        3.070000
  H2        42.680000       14.620000        2.200000
  C8        42.599998       14.260000        4.330000
  H3        43.610001       13.880000        4.320000
  C9        41.820000       14.250000        5.460000
  H4        42.380001       14.270000        6.400000
  C10       40.669998       13.790000        8.600000
  H5        41.540001       13.510000        8.040000
  C11       40.389999       13.490000        9.940000
  H6        41.230000       13.010000       10.420000
  C12       39.340000       14.090000       10.600000
  H7        39.389999       13.950000       11.700000
  C13       38.500000       14.920000        9.870000
  H8        37.660000       15.390000       10.360000
  C6        36.400002       15.270000        7.680000
  C1        35.860001       13.990000        7.750000
  H1        36.529999       13.170000        7.940000
  C2        34.450001       13.800000        7.960000
  H2        33.919998       12.870000        7.900000
  C3        33.709999       14.900000        8.340000
  H3        32.619999       14.730000        8.610000
  C4        34.250000       16.160000        8.420000
  H4        33.570000       17.010000        8.490000
  C5        35.619999       16.360001        8.030000
  H5        36.099998       17.330000        7.940000
  C1        38.759998       19.340000        3.420000
  C2        38.360001       18.740000        2.230000
  N1        38.709999       18.320000        4.340000
  C3c       38.380001       17.090000        3.780000
  N2        38.139999       17.410000        2.460000
  C4        37.520000       16.440001        1.680000
  C5c       37.520000       15.160000        2.240000
  C6        37.009998       14.100000        1.460000
  H1        37.580002       13.210000        1.570000
  C7        36.400002       14.330000        0.260000
  H2        35.770000       13.560000       -0.220000
  C8        36.389999       15.590000       -0.330000
  H3        35.889999       15.880000       -1.290000
  C9        36.919998       16.639999        0.430000
  H4        36.750000       17.590000       -0.020000
  C10       38.290001       19.580000        1.120000
  H5        38.459999       19.150000        0.180000
  C11       38.310001       20.980000        1.300000
  H6        37.730000       21.559999        0.630000
  C12       38.610001       21.520000        2.570000
  H7        38.570000       22.530001        2.650000
  C13       38.919998       20.650000        3.610000
  H8        39.130001       21.049999        4.600000
  C6        39.290001       18.450001        5.650000
  C1        40.590000       17.940001        5.860000
  H1        41.110001       17.530001        5.030000
  C2        41.180000       17.790001        7.090000
  H2        42.020000       17.250000        7.170000
  C3        40.430000       18.150000        8.210000
  H3        40.889999       17.879999        9.110000
  C4        39.090000       18.639999        8.090000
  H4        38.490002       18.490000        8.990000
  C5        38.509998       18.740000        6.810000
  H5        37.490002       18.980000        6.740000
