206
 generated by VMD
 Ir       23.970003      -73.858116       -1.502578
 C        20.326986      -72.774132       -3.622959
 C        20.652620      -71.663620       -2.887816
 N        21.190351      -73.814430       -3.225866
 C        22.102970      -73.365685       -2.273422
 N        21.720261      -72.051132       -2.036589
 C        22.407715      -71.374367       -1.001026
 C        23.618711      -71.980049       -0.611484
 C        24.464321      -71.283783        0.272067
 H        25.372379      -71.748268        0.615839
 C        24.140041      -70.007950        0.732478
 H        24.821331      -69.471329        1.363417
 C        22.928400      -69.416275        0.341124
 H        22.723803      -68.391273        0.601141
 C        22.057190      -70.110336       -0.495100
 H        21.054293      -69.732918       -0.628338
 C        19.993988      -70.442261       -3.157227
 H        20.306732      -69.535080       -2.666820
 C        19.039364      -70.353394       -4.167968
 H        18.632822      -69.399597       -4.444932
 C        18.703022      -71.491920       -4.903375
 H        18.005280      -71.431587       -5.729459
 C        19.345490      -72.707230       -4.619746
 H        19.021957      -73.588608       -5.140435
 C        20.796848      -75.189987       -3.376850
 C        20.204651      -75.837418       -2.297851
 H        20.359262      -75.459846       -1.297838
 C        19.392969      -76.959976       -2.490306
 H        18.931810      -77.448364       -1.639415
 C        19.179588      -77.455162       -3.774423
 H        18.497150      -78.281288       -3.931884
 C        19.798758      -76.835754       -4.867109
 H        19.589573      -77.167450       -5.871313
 C        20.626589      -75.723083       -4.659122
 H        21.121449      -75.272606       -5.504808
 C        26.574411      -71.910538       -4.412458
 C        27.438738      -72.566460       -3.565753
 N        25.269369      -72.080315       -3.903986
 C        25.276030      -72.850243       -2.753129
 N        26.623116      -73.138626       -2.547727
 C        26.911037      -73.948112       -1.411926
 C        25.823629      -74.097504       -0.531003
 C        26.056440      -74.630333        0.748059
 H        25.250088      -74.650070        1.464371
 C        27.323673      -75.086014        1.116673
 H        27.469742      -75.518600        2.092701
 C        28.384312      -75.004745        0.220213
 H        29.362211      -75.377487        0.491847
 C        28.176336      -74.445824       -1.048744
 H        28.953341      -74.550262       -1.787834
 C        28.803150      -72.567543       -3.877798
 H        29.505257      -73.080910       -3.248033
 C        29.288458      -71.928635       -5.018448
 H        30.346624      -71.881638       -5.206797
 C        28.388493      -71.276840       -5.875786
 H        28.750782      -70.778847       -6.765814
 C        27.034145      -71.261749       -5.565287
 H        26.346823      -70.732452       -6.213155
 C        24.205179      -71.202385       -4.298624
 C        24.141142      -69.923500       -3.733502
 H        24.794556      -69.659943       -2.912655
 C        23.198689      -69.005737       -4.203596
 H        23.151440      -68.017525       -3.770120
 C        22.322945      -69.360809       -5.231311
 H        21.550322      -68.669952       -5.552499
 C        22.379591      -70.647659       -5.787382
 H        21.644136      -70.962860       -6.510746
 C        23.322044      -71.565422       -5.317287
 H        23.347767      -72.563522       -5.721800
 C        25.132713      -77.907570       -2.559471
 C        24.437864      -78.020660       -1.381254
 N        24.981171      -76.568077       -2.984787
 C        24.229088      -75.828735       -2.086374
 N        23.856813      -76.762436       -1.134992
 C        22.925575      -76.287109       -0.173295
 C        22.916111      -74.904144        0.008694
 C        22.047291      -74.352707        0.966807
 H        22.098293      -73.307373        1.199328
 C        21.136179      -75.170792        1.657252
 H        20.454744      -74.724319        2.366625
 C        21.103291      -76.544151        1.415982
 H        20.365492      -77.158951        1.907580
 C        22.005043      -77.105186        0.520506
 H        22.036074      -78.175781        0.399039
 C        24.516954      -79.224686       -0.652790
 H        24.017321      -79.324615        0.298676
 C        25.294874      -80.277710       -1.121164
 H        25.410494      -81.180382       -0.528530
 C        25.989742      -80.160782       -2.329134
 H        26.590227      -80.975616       -2.699613
 C        25.891167      -78.970764       -3.052698
 H        26.372715      -78.902985       -4.025125
 C        25.581100      -76.047302       -4.191053
 C        26.979034      -76.059357       -4.319643
 H        27.586693      -76.488098       -3.537830
 C        27.578089      -75.464127       -5.438989
 H        28.651609      -75.406403       -5.494869
 C        26.790012      -74.878822       -6.429218
 H        27.253845      -74.384392       -7.272603
 C        25.392078      -74.866776       -6.300630
 H        24.781637      -74.397919       -7.060460
 C        24.793671      -75.447990       -5.179473
 H        23.723251      -75.393341       -5.055305
 Ir       23.970003      -73.858116        9.491341
 C        20.799274      -70.920967        8.934805
 C        21.278881      -70.691429       10.191463
 N        21.403246      -72.114380        8.454931
 C        22.316280      -72.589798        9.378752
 N        22.190786      -71.738335       10.456648
 C        22.937321      -72.112915       11.598433
 C        24.142204      -72.770309       11.285559
 C        25.045292      -73.011108       12.330427
 H        26.047720      -73.356415       12.104820
 C        24.711477      -72.724724       13.657888
 H        25.400188      -72.981201       14.458632
 C        23.469118      -72.163483       13.954962
 H        23.144600      -72.052673       14.980785
 C        22.593443      -71.840546       12.927441
 H        21.622498      -71.425171       13.152027
 C        20.886719      -69.534531       10.878471
 H        21.178261      -69.366562       11.905256
 C        20.043224      -68.603310       10.268997
 H        19.763985      -67.695038       10.796225
 C        19.570377      -68.835045        8.971725
 H        18.939758      -68.114799        8.482990
 C        19.947758      -70.007889        8.302816
 H        19.570791      -70.189865        7.304430
 C        20.658834      -72.974373        7.587252
 C        19.673189      -73.805389        8.128105
 H        19.533234      -73.844017        9.195211
 C        18.866709      -74.581314        7.294779
 H        18.127003      -75.230453        7.721442
 C        19.047915      -74.530342        5.896541
 H        18.469772      -75.184814        5.257152
 C        20.033562      -73.699333        5.355690
 H        20.162710      -73.638718        4.288053
 C        20.840040      -72.923401        6.189013
 H        21.616121      -72.306122        5.775055
 C        27.023962      -71.611549        7.366446
 C        27.718231      -72.610901        8.004017
 N        25.697248      -71.679688        7.814094
 C        25.509489      -72.701294        8.717241
 N        26.775091      -73.268250        8.842928
 C        26.876833      -74.403587        9.694553
 C        25.652910      -75.044525        9.953987
 C        25.669518      -76.266968       10.626266
 H        24.750917      -76.820007       10.759405
 C        26.870972      -76.830338       11.078409
 H        26.864914      -77.757469       11.627495
 C        28.084076      -76.171265       10.848200
 H        29.008194      -76.595634       11.207243
 C        28.086308      -74.948822       10.169207
 H        28.992031      -74.377373       10.119106
 C        29.070284      -72.832031        7.687069
 H        29.621059      -73.642670        8.130478
 C        29.705168      -72.037888        6.727875
 H        30.735588      -72.229355        6.461654
 C        28.988647      -71.008591        6.087441
 H        29.477726      -70.385582        5.344700
 C        27.650074      -70.803391        6.412421
 H        27.104782      -70.019135        5.895022
 C        24.699427      -70.695435        7.456752
 C        24.281937      -69.763222        8.400410
 H        24.692244      -69.783157        9.402981
 C        23.333231      -68.790771        8.061729
 H        22.905037      -68.177536        8.826380
 C        22.816147      -68.748619        6.759483
 H        22.096493      -67.989334        6.497575
 C        23.230961      -69.686874        5.808321
 H        22.813267      -69.674896        4.814799
 C        24.172279      -70.667282        6.156050
 H        24.503788      -71.386566        5.417987
 C        23.057522      -76.238403        5.977015
 C        22.046387      -76.527634        6.863440
 N        23.984489      -75.439148        6.642002
 C        23.599627      -75.182983        7.945365
 N        22.406883      -75.902512        8.083752
 C        21.895515      -75.994431        9.419399
 C        22.623276      -75.250092       10.359518
 C        22.288168      -75.359581       11.713148
 H        22.925823      -74.914436       12.459972
 C        21.202957      -76.133469       12.123531
 H        21.005947      -76.232269       13.179478
 C        20.452946      -76.847862       11.180548
 H        19.622433      -77.457741       11.501324
 C        20.811687      -76.790291        9.833666
 H        20.265799      -77.403008        9.135824
 C        20.967871      -77.313972        6.428599
 H        20.078384      -77.436470        7.030771
 C        20.957077      -77.868759        5.146964
 H        20.130394      -78.474030        4.823021
 C        22.016682      -77.605354        4.277392
 H        22.096388      -78.130157        3.339137
 C        23.050705      -76.755295        4.676751
 H        23.758251      -76.415787        3.951277
 C        25.325813      -75.251236        6.145972
 C        26.361511      -76.040695        6.639409
 H        26.160505      -76.766991        7.416001
 C        27.650494      -75.911041        6.115664
 H        28.460564      -76.513428        6.512154
 C        27.901752      -74.983948        5.092789
 H        28.901485      -74.898239        4.680863
 C        26.866055      -74.194489        4.599354
 H        27.052290      -73.480286        3.811108
 C        25.577070      -74.324142        5.123097
 H        24.764324      -73.727798        4.719100
