206
 generated by VMD
  IR        51.939999       58.509998       35.980000
  C1        52.590000       58.099998       40.320000
  C2        51.750000       57.070000       39.919998
  N1        52.910000       58.740002       39.169998
  C3a       52.209999       58.259998       38.040001
  N2        51.580002       57.139999       38.549999
  C4        50.430000       56.669998       37.750000
  C5a       50.580002       56.900002       36.340000
  C6        49.689999       56.290001       35.459999
  H1        49.700001       56.509998       34.389999
  C7        48.610001       55.549999       35.980000
  H2        47.810001       55.369999       35.250000
  C8        48.389999       55.410000       37.349998
  H3        47.529999       54.860001       37.709999
  C9        49.320000       55.950001       38.230000
  H4        49.349998       55.759998       39.290001
  C10       51.380001       56.160000       40.880001
  H5        50.869999       55.270000       40.599998
  C11       51.790001       56.380001       42.250000
  H6        51.660000       55.720001       43.099998
  C12       52.500000       57.529999       42.650002
  H7        52.639999       57.799999       43.680000
  C13       52.970001       58.369999       41.650002
  H8        53.580002       59.230000       41.910000
  C6        53.830002       59.759998       39.029999
  C1        55.040001       59.529999       38.419998
  H1        55.230000       58.759998       37.720001
  C2        56.070000       60.490002       38.529999
  H2        56.860001       60.439999       37.869999
  C3        55.939999       61.630001       39.330002
  H3        56.779999       62.299999       39.439999
  C4        54.759998       61.810001       40.060001
  H4        54.750000       62.540001       40.799999
  C5        53.689999       60.900002       39.759998
  H5        52.779999       61.000000       40.279999
  C1        54.520000       55.349998       34.340000
  C2        53.790001       55.799999       33.279999
  N1        54.160000       56.119999       35.470001
  C3b       53.230000       57.060001       35.169998
  N2        53.029999       56.900002       33.720001
  C4        52.349998       57.910000       33.070000
  C5b       51.430000       58.549999       33.930000
  C6        50.439999       59.380001       33.360001
  H1        49.540001       59.490002       33.980000
  C7        50.389999       59.630001       31.990000
  H2        49.650002       60.290001       31.570000
  C8        51.320000       58.990002       31.170000
  H3        51.509998       59.470001       30.230000
  C9        52.290001       58.139999       31.740000
  H4        53.060001       57.970001       31.120001
  C10       53.799999       55.139999       32.040001
  H5        53.139999       55.450001       31.240000
  C11       54.630001       54.029999       31.910000
  H6        54.549999       53.310001       31.110001
  C12       55.380001       53.570000       32.990002
  H7        55.889999       52.619999       32.889999
  C13       55.389999       54.270000       34.180000
  H8        56.029999       54.099998       35.009998
  C6        54.439999       55.669998       36.799999
  C1        53.520000       54.830002       37.400002
  H1        52.680000       54.500000       36.779999
  C2        53.770000       54.450001       38.759998
  H2        53.139999       53.779999       39.320000
  C3        54.959999       54.849998       39.439999
  H3        55.209999       54.549999       40.439999
  C4        55.860001       55.650002       38.830002
  H4        56.810001       55.910000       39.240002
  C5        55.570000       56.020000       37.480000
  H5        56.349998       56.549999       36.939999
  C1        54.320000       62.169998       35.889999
  C2        53.270000       62.450001       36.779999
  N1        53.980000       60.910000       35.240002
  C3c       52.799999       60.410000       35.680000
  N2        52.270000       61.410000       36.549999
  C4        50.889999       61.250000       36.880001
  C5c       50.439999       59.939999       36.549999
  C6        49.060001       59.750000       36.630001
  H1        48.689999       58.770000       36.360001
  C7        48.110001       60.770000       36.980000
  H2        47.040001       60.500000       37.080002
  C8        48.660000       61.950001       37.439999
  H3        48.060001       62.630001       37.970001
  C9        50.009998       62.230000       37.340000
  H4        50.320000       63.230000       37.570000
  C10       53.400002       63.560001       37.660000
  H5        52.720001       63.759998       38.509998
  C11       54.520000       64.360001       37.619999
  H6        54.779999       65.059998       38.419998
  C12       55.509998       64.099998       36.660000
  H7        56.340000       64.760002       36.580002
  C13       55.400002       62.990002       35.840000
  H8        56.139999       62.750000       35.099998
  C6        54.779999       60.369999       34.189999
  C1        55.939999       59.660000       34.470001
  H1        55.959999       58.980000       35.320000
  C2        56.910000       59.480000       33.470001
  H2        57.880001       59.400002       33.830002
  C3        56.700001       59.959999       32.180000
  H3        57.560001       60.090000       31.540001
  C4        55.540001       60.660000       31.889999
  H4        55.389999       61.380001       31.110001
  C5        54.599998       60.860001       32.900002
  H5        53.660000       61.220001       32.540001
  IR        46.040001       47.230000       37.590000
  C1        48.790001       50.709999       37.119999
  C2        48.910000       50.270000       38.410000
  N1        47.709999       49.939999       36.560001
  C3a       47.259998       48.939999       37.520000
  N2        48.009998       49.240002       38.630001
  C4        47.320000       48.759998       39.820000
  C5a       46.310001       47.849998       39.580002
  C6        45.520000       47.430000       40.689999
  H1        44.790001       46.650002       40.610001
  C7        45.720001       48.000000       41.939999
  H2        45.070000       47.700001       42.650002
  C8        46.650002       49.000000       42.180000
  H3        46.509998       49.619999       43.040001
  C9        47.459999       49.369999       41.139999
  H4        48.439999       49.790001       41.430000
  C10       49.970001       50.740002       39.169998
  H5        50.270000       50.299999       40.080002
  C11       50.889999       51.669998       38.700001
  H6        51.650002       52.110001       39.299999
  C12       50.689999       52.200001       37.410000
  H7        51.400002       52.959999       37.049999
  C13       49.650002       51.680000       36.590000
  H8        49.590000       51.869999       35.520000
  C6        47.270000       50.130001       35.200001
  C1        47.689999       49.189999       34.250000
  H1        48.430000       48.500000       34.549999
  C2        47.000000       49.070000       33.020000
  H2        47.369999       48.430000       32.230000
  C3        45.840000       49.790001       32.790001
  H3        45.279999       49.650002       31.809999
  C4        45.299999       50.599998       33.799999
  H4        44.279999       50.970001       33.689999
  C5        46.070000       50.820000       35.000000
  H5        45.740002       51.470001       35.799999
  C1        49.119999       44.509998       38.720001
  C2        47.970001       43.740002       38.880001
  N1        48.779999       45.709999       38.150002
  C3b       47.439999       45.759998       38.009998
  N2        46.930000       44.560001       38.430000
  C4        45.509998       44.540001       38.590000
  C5b       44.799999       45.610001       38.090000
  C6        43.389999       45.639999       38.160000
  H1        42.720001       46.200001       37.560001
  C7        42.700001       44.580002       38.750000
  H2        41.680000       44.470001       38.689999
  C8        43.369999       43.520000       39.220001
  H3        42.660000       42.669998       39.369999
  C9        44.790001       43.509998       39.209999
  H4        45.320000       42.639999       39.480000
  C10       47.950001       42.459999       39.369999
  H5        47.240002       41.730000       39.080002
  C11       49.189999       42.020000       39.889999
  H6        49.380001       41.029999       40.330002
  C12       50.349998       42.730000       39.720001
  H7        51.320000       42.360001       40.090000
  C13       50.349998       43.970001       39.150002
  H8        51.220001       44.590000       38.990002
  C6        49.720001       46.730000       37.779999
  C1        50.570000       47.340000       38.779999
  H1        50.340000       47.299999       39.840000
  C2        51.580002       48.259998       38.369999
  H2        52.330002       48.520000       39.080002
  C3        51.820000       48.529999       37.040001
  H3        52.750000       49.169998       36.849998
  C4        50.950001       47.950001       36.110001
  H4        50.939999       48.500000       35.160000
  C5        49.910000       47.049999       36.430000
  H5        49.189999       46.700001       35.730000
  C1        44.759998       45.980000       33.590000
  C2        43.869999       46.860001       33.980000
  N1        45.730000       45.959999       34.529999
  C3c       45.459999       46.820000       35.610001
  N2        44.279999       47.410000       35.240002
  C4        43.709999       48.389999       36.110001
  C5c       44.349998       48.470001       37.360001
  C6        43.939999       49.520000       38.259998
  H1        44.400002       49.669998       39.169998
  C7        42.880001       50.400002       37.970001
  H2        42.689999       51.200001       38.660000
  C8        42.310001       50.290001       36.689999
  H3        41.419998       50.919998       36.509998
  C9        42.720001       49.310001       35.779999
  H4        42.480000       49.450001       34.740002
  C10       42.860001       47.220001       33.060001
  H5        42.290001       48.150002       33.060001
  C11       42.669998       46.570000       31.850000
  H6        41.660000       46.669998       31.389999
  C12       43.630001       45.599998       31.459999
  H7        43.540001       45.119999       30.500000
  C13       44.639999       45.320000       32.320000
  H8        45.419998       44.669998       31.920000
  C6        46.849998       45.090000       34.400002
  C1        46.849998       43.970001       35.270000
  H1        45.919998       43.930000       35.919998
  C2        47.990002       43.130001       35.270000
  H2        48.049999       42.270000       35.919998
  C3        49.090000       43.509998       34.529999
  H3        49.910000       42.830002       34.500000
  C4        49.130001       44.720001       33.830002
  H4        50.040001       45.320000       33.759998
  C5        47.950001       45.500000       33.709999
  H5        47.889999       46.279999       33.000000
