206
 generated by VMD
 Ir       38.979000        4.596150       79.732689
 C        35.050087        3.360295       80.983574
 C        35.932526        2.825454       81.929169
 N        35.756737        3.966384       79.960289
 C        37.124756        3.971221       80.356018
 N        37.152336        3.169032       81.518051
 C        38.443359        2.885379       82.072037
 C        39.536148        3.189370       81.224922
 C        40.867458        2.661954       81.423019
 H        41.748329        2.726348       80.681183
 C        41.119495        1.994716       82.628738
 H        42.149311        1.693294       82.821678
 C        40.056591        1.704864       83.473206
 H        40.056763        1.055144       84.309662
 C        38.739990        2.083192       83.211426
 H        37.911900        1.876576       83.865021
 C        35.353294        2.057614       83.035522
 H        35.886433        2.037795       83.884972
 C        34.025787        1.831080       83.121048
 H        33.742111        1.144326       83.804344
 C        33.116951        2.451175       82.219437
 H        32.092232        2.314750       82.087021
 C        33.699188        3.169856       81.148788
 H        33.022224        3.693515       80.498245
 C        35.311142        3.832948       78.601082
 C        35.391273        2.561574       78.003265
 H        35.578323        1.711320       78.556236
 C        35.384106        2.456422       76.606880
 H        35.854568        1.576427       76.235031
 C        35.196583        3.601365       75.809860
 H        34.749535        3.513577       74.790962
 C        35.137600        4.830447       76.420486
 H        34.872509        5.665619       75.774887
 C        35.133606        4.949605       77.803490
 H        35.126175        5.943273       78.192039
 C        39.536400        7.951528       82.300735
 C        40.716934        7.853362       81.542320
 N        38.773224        6.810115       82.056526
 C        39.380264        6.024272       81.161346
 N        40.597164        6.603133       80.954033
 C        41.537888        5.840180       80.207947
 C        40.965996        5.067002       79.255775
 C        41.899719        4.311460       78.545700
 H        41.458874        3.591332       77.958099
 C        43.241745        4.335692       78.751823
 H        43.875404        3.644792       78.172836
 C        43.811760        5.228871       79.681725
 H        44.833897        5.190478       80.021820
 C        42.910934        5.935258       80.424988
 H        43.246555        6.515580       81.193092
 C        41.711559        8.837203       81.555649
 H        42.771484        8.560704       81.390991
 C        41.511612        9.962306       82.399139
 H        42.319611       10.685939       82.579681
 C        40.382053       10.103032       83.167038
 H        40.261612       10.754329       84.001251
 C        39.359169        9.146533       83.056480
 H        38.337456        9.409831       83.317398
 C        37.862488        6.260056       83.039688
 C        36.521370        6.739120       82.963516
 H        36.222893        7.489039       82.278946
 C        35.638691        6.266641       83.922287
 H        34.632477        6.576678       83.890495
 C        36.099373        5.470916       84.983932
 H        35.357647        5.116559       85.709717
 C        37.431633        5.090980       85.074097
 H        37.845524        4.810683       86.056709
 C        38.342484        5.499623       84.092278
 H        39.432999        5.388103       84.171844
 C        37.927734        7.057935       76.185654
 C        38.106464        5.766357       75.686172
 N        38.117996        6.951369       77.611221
 C        38.443604        5.654380       78.021957
 N        38.401909        4.964034       76.811470
 C        38.885567        3.608064       76.953995
 C        38.794678        3.054629       78.258469
 C        38.757214        1.691251       78.409454
 H        38.403240        1.240048       79.330605
 C        38.956039        0.924403       77.314270
 H        39.147629       -0.119649       77.563568
 C        39.148418        1.400260       76.023285
 H        39.243195        0.657514       75.241783
 C        39.150024        2.805392       75.803955
 H        39.530399        3.320970       74.958031
 C        38.040142        5.611776       74.302338
 H        38.528603        4.772861       73.786652
 C        37.619919        6.699750       73.482872
 H        37.546768        6.625567       72.375595
 C        37.510883        8.062034       73.975807
 H        37.198936        8.890471       73.369690
 C        37.699768        8.195739       75.385010
 H        37.510159        9.147786       75.874451
 C        38.079330        7.998897       78.463150
 C        36.935520        8.301778       79.181046
 H        36.300919        7.490054       79.391235
 C        36.905563        9.434020       80.017242
 H        35.932217        9.886951       80.137451
 C        37.955399       10.354830       80.090393
 H        38.050568       11.076431       80.863205
 C        39.045647       10.128181       79.213074
 H        39.865242       10.729530       79.173828
 C        39.126038        8.974793       78.379929
 H        39.744221        8.945723       77.497879
 Ir       38.979000        4.596152       90.937912
 C        38.494072        7.807015       88.038597
 C        37.314751        7.862891       88.811508
 N        39.300785        6.865041       88.561569
 C        38.775402        6.260297       89.711502
 N        37.541615        6.925220       89.837418
 C        36.794975        6.638455       90.981659
 C        37.079033        5.370694       91.494972
 C        36.271500        4.835177       92.511879
 H        36.487816        3.870582       92.935745
 C        35.159348        5.602715       93.009781
 H        34.539680        5.107205       93.755020
 C        34.872368        6.806506       92.461853
 H        34.055801        7.319093       92.894714
 C        35.682304        7.314008       91.473389
 H        35.470646        8.228503       90.985741
 C        36.172455        8.487018       88.355301
 H        35.200939        8.582900       88.854858
 C        36.264462        9.275062       87.183327
 H        35.615990       10.087056       87.109535
 C        37.470184        9.283561       86.485641
 H        37.639404        9.947423       85.634789
 C        38.613644        8.538226       86.836464
 H        39.414349        8.425784       86.095970
 C        40.652802        6.691585       88.052002
 C        41.640610        7.462209       88.699524
 H        41.432899        8.057208       89.570000
 C        42.903439        7.409020       88.203415
 H        43.645668        8.188548       88.318001
 C        43.259544        6.522843       87.188385
 H        44.348190        6.381698       87.126465
 C        42.320370        5.766223       86.522446
 H        42.622269        5.319104       85.578758
 C        41.004154        5.819011       86.980469
 H        40.336929        4.996520       86.803207
 C        40.682121        6.611026       94.479645
 C        40.628342        5.326972       94.794456
 N        40.054108        6.732942       93.218513
 C        39.552795        5.525945       92.747086
 N        39.934925        4.609012       93.710068
 C        39.401222        3.263690       93.569115
 C        38.861412        3.010657       92.282852
 C        38.601830        1.699008       91.941101
 H        38.308578        1.392497       90.961029
 C        38.691460        0.739249       92.886528
 H        38.268833       -0.216981       92.753815
 C        39.033123        1.034842       94.203262
 H        38.962372        0.207076       94.912552
 C        39.421684        2.311070       94.527397
 H        39.739689        2.519124       95.563103
 C        41.120560        5.007474       96.111481
 H        41.214195        3.920060       96.270081
 C        41.715092        5.949546       96.974976
 H        42.475807        5.574847       97.666725
 C        41.716629        7.289901       96.635635
 H        41.904449        8.004764       97.436188
 C        41.200451        7.610065       95.391586
 H        40.995945        8.632569       95.108109
 C        39.511112        7.966496       92.847969
 C        38.262764        8.303050       93.396935
 H        37.587158        7.584254       93.716133
 C        37.810249        9.574309       93.266785
 H        36.789314        9.753966       93.656166
 C        38.531601       10.494328       92.537323
 H        38.175999       11.475350       92.366302
 C        39.768818       10.129355       91.975380
 H        40.251328       10.952672       91.508224
 C        40.289921        8.829680       92.085831
 H        41.270531        8.487330       91.694298
 C        42.648396        2.950517       89.346039
 C        41.712578        2.742459       88.362350
 N        42.024044        3.575143       90.393242
 C        40.719349        3.748620       90.153702
 N        40.523903        3.220431       88.904938
 C        39.154934        2.918489       88.497925
 C        38.173466        3.449115       89.356102
 C        36.824551        3.141246       89.068100
 H        36.093124        3.698003       89.677887
 C        36.442520        2.296281       87.987083
 H        35.389519        2.215482       87.757164
 C        37.436356        1.723502       87.156662
 H        37.177200        1.353827       86.223984
 C        38.755386        2.017232       87.447311
 H        39.451775        1.805263       86.659775
 C        42.151642        2.546262       87.021515
 H        41.478031        2.283114       86.172394
 C        43.498329        2.664384       86.687027
 H        43.845486        2.732959       85.684944
 C        44.422989        2.886445       87.657333
 H        45.415565        3.160657       87.407944
 C        44.039078        2.940692       88.938110
 H        44.911613        2.764239       89.646942
 C        42.539570        3.482314       91.748718
 C        43.188324        4.564057       92.421814
 H        43.330711        5.556931       91.967484
 C        43.649292        4.456548       93.725250
 H        44.159046        5.345160       94.177711
 C        43.504341        3.260564       94.387535
 H        43.785088        3.186061       95.457451
 C        42.905998        2.185966       93.717216
 H        42.880295        1.250457       94.246338
 C        42.384666        2.272189       92.411972
 H        42.068840        1.418328       91.878983
