206
 generated by VMD
 Ir        1.207607       -0.003803       -7.441650
 C        -0.033123        0.047337      -11.631554
 C         1.033424       -0.820904      -11.604416
 N        -0.143406        0.603443      -10.339739
 C         0.805840        0.085590       -9.475245
 N         1.534473       -0.794590      -10.279593
 C         2.509075       -1.587223       -9.596081
 C         2.353996       -1.607883       -8.200687
 C         3.018764       -2.605648       -7.467932
 H         2.869850       -2.671047       -6.404896
 C         3.843914       -3.532803       -8.096277
 H         4.356529       -4.272766       -7.502743
 C         4.038616       -3.476086       -9.486158
 H         4.723030       -4.147907       -9.974865
 C         3.375381       -2.494976      -10.229885
 H         3.660645       -2.368542      -11.257084
 C         1.348858       -1.546101      -12.774887
 H         2.159481       -2.250713      -12.794981
 C         0.582066       -1.394691      -13.932684
 H         0.815960       -1.972561      -14.809473
 C        -0.508911       -0.512547      -13.929653
 H        -1.111889       -0.405247      -14.815205
 C        -0.810589        0.207073      -12.785259
 H        -1.669201        0.858974      -12.783028
 C        -1.063313        1.668926      -10.044090
 C        -0.886265        2.919086      -10.659195
 H         0.074810        3.156982      -11.104548
 C        -1.931461        3.842785      -10.694607
 H        -1.789665        4.790752      -11.202295
 C        -3.163986        3.538509      -10.113573
 H        -3.989708        4.229145      -10.201998
 C        -3.334591        2.307796       -9.472378
 H        -4.287693        2.072689       -9.011915
 C        -2.291321        1.386883       -9.423241
 H        -2.377262        0.494492       -8.809765
 C        -1.962345       -2.672813       -6.149216
 C        -1.326141       -2.280602       -4.996304
 N        -1.194641       -2.188736       -7.232454
 C        -0.118172       -1.456196       -6.771595
 N        -0.179520       -1.562870       -5.396587
 C         1.006691       -1.149059       -4.709961
 C         1.870762       -0.351242       -5.471981
 C         3.116207        0.012497       -4.919834
 H         3.790634        0.624729       -5.481365
 C         3.492676       -0.421623       -3.642765
 H         4.468994       -0.163422       -3.259827
 C         2.630531       -1.222229       -2.894474
 H         2.915985       -1.559570       -1.904720
 C         1.382011       -1.588715       -3.424644
 H         0.770458       -2.292503       -2.879410
 C        -1.904705       -2.614761       -3.749508
 H        -1.498276       -2.233864       -2.830414
 C        -3.093128       -3.357826       -3.699528
 H        -3.520039       -3.631310       -2.742416
 C        -3.714432       -3.750080       -4.886761
 H        -4.607944       -4.360081       -4.851624
 C        -3.159134       -3.396477       -6.111633
 H        -3.667263       -3.658092       -7.025501
 C        -1.169384       -2.880703       -8.494020
 C        -0.276302       -3.943279       -8.670208
 H         0.271446       -4.330738       -7.822889
 C        -0.099010       -4.510464       -9.935816
 H         0.617287       -5.301174      -10.075451
 C        -0.813644       -4.009541      -11.033484
 H        -0.666824       -4.446053      -12.009445
 C        -1.706718       -2.946964      -10.857294
 H        -2.202637       -2.512371      -11.714207
 C        -1.894306       -2.393639       -9.590313
 H        -2.662430       -1.650063       -9.441080
 C        -1.038715        3.591808       -6.687660
 C         0.184490        4.032135       -7.130119
 N        -0.926544        2.216434       -6.407177
 C         0.333736        1.744377       -6.753822
 N         1.013706        2.889317       -7.138727
 C         2.395073        2.716854       -7.412725
 C         2.744019        1.415600       -7.813305
 C         4.036171        1.192978       -8.315395
 H         4.337753        0.191395       -8.594112
 C         4.968307        2.230026       -8.410004
 H         5.921730        2.046329       -8.872765
 C         4.633781        3.517460       -7.968180
 H         5.371460        4.296696       -7.972118
 C         3.350769        3.748402       -7.459223
 H         3.158962        4.683643       -6.955006
 C         0.339905        5.371292       -7.518705
 H         1.281479        5.731297       -7.896910
 C        -0.748089        6.256260       -7.464848
 H        -0.603210        7.293270       -7.706148
 C        -1.990723        5.793747       -7.027887
 H        -2.842121        6.456768       -7.005054
 C        -2.135078        4.460125       -6.646160
 H        -3.114235        4.097256       -6.360035
 C        -1.763493        1.588058       -5.406300
 C        -1.280346        1.467361       -4.097824
 H        -0.238262        1.658794       -3.896042
 C        -2.131004        1.060894       -3.071102
 H        -1.758305        1.014782       -2.055443
 C        -3.477028        0.764042       -3.337749
 H        -4.134209        0.465466       -2.538898
 C        -3.959408        0.876415       -4.651711
 H        -5.000717        0.676655       -4.858974
 C        -3.108746        1.282879       -5.678429
 H        -3.482975        1.381702       -6.683159
 Ir        1.207603       -0.003803        7.983963
 C        -0.937187       -3.759892        8.517731
 C         0.075294       -3.814526        9.435390
 N        -0.736149       -2.610874        7.731342
 C         0.375420       -1.900566        8.157936
 N         0.875835       -2.672215        9.199001
 C         1.990437       -2.125259        9.892254
 C         2.101093       -0.737007        9.751076
 C         2.889893       -0.038872       10.679699
 H         2.969147        1.041611       10.618477
 C         3.565372       -0.706291       11.696445
 H         4.097019       -0.139774       12.442440
 C         3.501022       -2.098469       11.795387
 H         4.016445       -2.619114       12.585114
 C         2.721966       -2.809368       10.869267
 H         2.842285       -3.871708       10.803272
 C         0.116901       -4.878559       10.363785
 H         0.856049       -4.902790       11.142296
 C        -0.866474       -5.876915       10.319542
 H        -0.803181       -6.705441       11.021061
 C        -1.886547       -5.811207        9.384007
 H        -2.647778       -6.584942        9.339832
 C        -1.931229       -4.749924        8.477592
 H        -2.740562       -4.681232        7.767616
 C        -1.289383       -2.481853        6.418644
 C        -0.582024       -2.999004        5.333660
 H         0.396027       -3.442741        5.487957
 C        -1.129215       -2.936512        4.049881
 H        -0.536453       -3.250919        3.206272
 C        -2.382999       -2.365200        3.845612
 H        -2.809452       -2.327381        2.853237
 C        -3.091133       -1.839725        4.936085
 H        -4.037926       -1.340527        4.774899
 C        -2.553841       -1.902218        6.218468
 H        -3.095154       -1.482433        7.055172
 C        -1.682533        2.342670       10.234272
 C        -0.658394        3.224224        9.987484
 N        -1.283577        1.091255        9.765026
 C        -0.022530        1.137600        9.196674
 N         0.367538        2.466236        9.367481
 C         1.688995        2.770664        8.944534
 C         2.256577        1.829411        8.064476
 C         3.449596        2.169659        7.405056
 H         3.890091        1.478241        6.711365
 C         4.073486        3.395702        7.636738
 H         4.986305        3.639057        7.103405
 C         3.532921        4.312016        8.540207
 H         4.047447        5.235748        8.759701
 C         2.349426        3.993958        9.203739
 H         2.032558        4.613384       10.024048
 C        -0.804260        4.561497       10.380070
 H        -0.053307        5.307194       10.137173
 C        -1.965916        4.997814       11.031830
 H        -2.066349        6.038200       11.316277
 C        -3.000351        4.102398       11.279987
 H        -3.890572        4.424816       11.796257
 C        -2.862064        2.776203       10.869522
 H        -3.689445        2.091419       11.009228
 C        -1.904003       -0.124611       10.229485
 C        -1.286423       -0.880795       11.227016
 H        -0.319241       -0.594864       11.603043
 C        -1.933426       -2.008961       11.736950
 H        -1.469063       -2.585064       12.530785
 C        -3.188103       -2.380943       11.250732
 H        -3.651608       -3.292976       11.604092
 C        -3.817123       -1.608105       10.262779
 H        -4.826324       -1.832924        9.970421
 C        -3.169357       -0.488266        9.747364
 H        -3.646545        0.097843        8.973007
 C        -0.380772        0.993420        4.041180
 C         0.595112        0.055542        3.778439
 N        -0.340336        1.272240        5.410423
 C         0.628597        0.523949        6.062286
 N         1.206696       -0.223316        5.035061
 C         2.250233       -1.116104        5.442684
 C         2.693054       -0.903973        6.750740
 C         3.906925       -1.475048        7.167866
 H         4.306786       -1.221676        8.133789
 C         4.632973       -2.308132        6.309891
 H         5.586018       -2.715626        6.642689
 C         4.155819       -2.578472        5.030693
 H         4.700638       -3.255985        4.385212
 C         2.964066       -1.996323        4.599850
 H         2.516880       -2.346706        3.683414
 C         0.749645       -0.406307        2.459110
 H         1.532013       -1.105618        2.208202
 C        -0.054607        0.080837        1.424522
 H         0.108284       -0.242016        0.405880
 C        -1.043091        1.029827        1.705090
 H        -1.658722        1.436764        0.909863
 C        -1.206753        1.483349        3.017551
 H        -1.963154        2.224213        3.227238
 C        -0.942474        2.451664        5.960506
 C        -0.169941        3.605515        6.140274
 H         0.889439        3.577393        5.930237
 C        -0.766975        4.784824        6.581852
 H        -0.160538        5.661308        6.721855
 C        -2.142979        4.826885        6.817539
 H        -2.612259        5.748108        7.140068
 C        -2.924259        3.678570        6.628139
 H        -3.996414        3.739841        6.713123
 C        -2.321556        2.490978        6.218170
 H        -2.918480        1.600628        6.082321
