206
 generated by VMD
 Ir        8.860349      -43.272514      133.441971
 C         5.051189      -45.051994      132.290375
 C         4.699568      -44.059135      133.170319
 N         6.449280      -45.126411      132.293228
 C         7.027150      -44.168373      133.115417
 N         5.922299      -43.505241      133.660370
 C         6.219752      -42.346039      134.440155
 C         7.581678      -42.087059      134.635559
 C         7.960966      -41.146629      135.607285
 H         9.012850      -40.965527      135.799744
 C         7.008304      -40.479126      136.380966
 H         7.325496      -39.781395      137.133270
 C         5.656134      -40.719479      136.159912
 H         4.903962      -40.262199      136.774475
 C         5.266702      -41.621525      135.173218
 H         4.235677      -41.617649      134.861038
 C         3.330832      -43.736118      133.309326
 H         2.988419      -43.109344      134.106201
 C         2.363416      -44.379185      132.536560
 H         1.314553      -44.125900      132.660797
 C         2.744769      -45.367363      131.628433
 H         1.999107      -45.890915      131.038544
 C         4.093805      -45.717148      131.520966
 H         4.386863      -46.455608      130.791870
 C         7.182314      -46.122940      131.559601
 C         7.738831      -47.206032      132.240036
 H         7.619028      -47.292187      133.309448
 C         8.452044      -48.177010      131.525238
 H         8.997090      -48.940239      132.051559
 C         8.608818      -48.059082      130.138153
 H         9.143672      -48.822182      129.596191
 C         8.042379      -46.970184      129.465958
 H         8.142183      -46.884033      128.396744
 C         7.329088      -46.005013      130.172607
 H         6.864050      -45.191803      129.646759
 C         8.494341      -39.874783      130.717621
 C         9.769230      -39.775436      131.224060
 N         7.938878      -41.072708      131.195786
 C         8.827182      -41.714291      132.061920
 N         9.947206      -40.898239      132.059204
 C        10.986006      -41.269028      132.976532
 C        10.565630      -42.147919      133.987396
 C        11.416037      -42.374760      135.074112
 H        11.064087      -42.953529      135.919617
 C        12.696527      -41.818008      135.119537
 H        13.344526      -42.016647      135.954773
 C        13.136602      -40.998363      134.077026
 H        14.156471      -40.624035      134.058441
 C        12.286341      -40.723877      133.005478
 H        12.688076      -40.234589      132.137314
 C        10.575769      -38.668327      130.857330
 H        11.579241      -38.565315      131.216400
 C        10.067585      -37.684990      130.001938
 H        10.724226      -36.902222      129.646698
 C         8.762985      -37.775070      129.526001
 H         8.347235      -36.978043      128.925262
 C         7.976314      -38.879845      129.878601
 H         6.962776      -38.938675      129.512711
 C         6.931208      -41.747124      130.396622
 C         7.289407      -42.271076      129.157959
 H         8.295935      -42.146248      128.789307
 C         6.321470      -42.854782      128.330643
 H         6.602258      -43.259323      127.363731
 C         4.987522      -42.925041      128.761795
 H         4.241473      -43.391586      128.131287
 C         4.629323      -42.401096      130.000458
 H         3.622762      -42.503826      130.365662
 C         5.605149      -41.801094      130.816101
 H         5.303997      -41.325596      131.744934
 C        11.531773      -46.124054      131.482071
 C        11.293567      -46.668427      132.719452
 N        10.881195      -44.880131      131.424683
 C        10.222530      -44.613029      132.615906
 N        10.520201      -45.709057      133.418533
 C        10.123163      -45.614220      134.779114
 C         9.135571      -44.651985      135.036163
 C         8.577808      -44.587269      136.321503
 H         7.759605      -43.915581      136.513794
 C         9.027538      -45.418514      137.339233
 H         8.637129      -45.293015      138.346375
 C        10.035307      -46.355194      137.100616
 H        10.382870      -47.004814      137.891693
 C        10.593103      -46.442001      135.818741
 H        11.451771      -47.078869      135.674927
 C        11.796490      -47.946365      133.023499
 H        11.495049      -48.462425      133.922058
 C        12.587629      -48.629944      132.090912
 H        12.959785      -49.621811      132.315186
 C        12.855823      -48.049534      130.852127
 H        13.529265      -48.536945      130.161545
 C        12.312778      -46.805294      130.535629
 H        12.483381      -46.389103      129.549850
 C        11.231808      -43.897812      130.439026
 C        12.383673      -43.128494      130.628922
 H        12.962361      -43.238876      131.537018
 C        12.784304      -42.218254      129.645020
 H        13.685655      -41.647652      129.782425
 C        12.033071      -42.077324      128.471222
 H        12.326012      -41.351051      127.729942
 C        10.891184      -42.860588      128.278900
 H        10.302595      -42.730461      127.381378
 C        10.490552      -43.770832      129.262787
 H         9.609077      -44.375130      129.112366
 Ir        8.860349      -43.272511      144.971954
 C        12.565916      -41.501411      143.441406
 C        12.868175      -41.910999      144.724945
 N        11.194045      -41.768536      143.251877
 C        10.614723      -42.336014      144.373901
 N        11.663481      -42.390606      145.286896
 C        11.335634      -42.918282      146.562347
 C        10.175678      -43.692490      146.572479
 C         9.926206      -44.515694      147.677094
 H         9.066227      -45.167843      147.683350
 C        10.796758      -44.522846      148.778992
 H        10.584690      -45.171356      149.611450
 C        11.916937      -43.695198      148.792572
 H        12.555261      -43.648590      149.661926
 C        12.186465      -42.880135      147.693542
 H        12.957082      -42.131584      147.754547
 C        14.202529      -41.802284      145.175018
 H        14.501583      -42.205650      146.122620
 C        15.194649      -41.270039      144.344299
 H        16.217876      -41.234417      144.677521
 C        14.862304      -40.830215      143.051788
 H        15.616261      -40.394691      142.415009
 C        13.537981      -40.961021      142.605042
 H        13.298347      -40.662205      141.596283
 C        10.502401      -41.412498      142.034760
 C        10.020952      -40.110344      141.885162
 H        10.068766      -39.416168      142.703949
 C         9.469236      -39.710121      140.659790
 H         9.058247      -38.717239      140.557953
 C         9.399048      -40.606262      139.592163
 H         8.999920      -40.294720      138.637268
 C         9.870553      -41.916565      139.747681
 H         9.782797      -42.618881      138.935059
 C        10.412270      -42.316788      140.973145
 H        10.763429      -43.334099      141.092957
 C         9.463251      -47.172318      143.176987
 C         8.177769      -47.207756      143.656555
 N        10.067986      -45.994171      143.670197
 C         9.154657      -45.228935      144.373871
 N         8.005021      -46.015976      144.417603
 C         6.993535      -45.555542      145.314819
 C         7.248895      -44.294937      145.875427
 C         6.408510      -43.825348      146.887268
 H         6.633280      -42.891323      147.386139
 C         5.312566      -44.569839      147.317657
 H         4.682164      -44.201138      148.116974
 C         5.028909      -45.803673      146.725983
 H         4.131439      -46.342216      146.995453
 C         5.877515      -46.305840      145.737259
 H         5.693818      -47.294640      145.350708
 C         7.333991      -48.266289      143.264557
 H         6.296611      -48.282890      143.544159
 C         7.795795      -49.269630      142.403320
 H         7.153341      -50.093521      142.149216
 C         9.101189      -49.203960      141.914307
 H         9.474752      -49.965729      141.237885
 C         9.934945      -48.159374      142.304047
 H        10.941362      -48.104286      141.923676
 C        11.471170      -45.972496      143.997467
 C        11.863203      -46.435524      145.256836
 H        11.168962      -47.002377      145.863800
 C        13.157750      -46.165249      145.727264
 H        13.447183      -46.503567      146.714569
 C        14.050242      -45.445900      144.936066
 H        15.053660      -45.248711      145.289459
 C        13.658111      -45.002613      143.666214
 H        14.322686      -44.364193      143.094482
 C        12.373486      -45.278690      143.187561
 H        12.094019      -44.969894      142.196625
 C         6.518598      -41.722378      141.655060
 C         6.636912      -40.671391      142.525925
 N         7.014873      -42.872864      142.310394
 C         7.487044      -42.564030      143.583893
 N         7.198215      -41.200592      143.708038
 C         7.440455      -40.641834      144.989838
 C         8.288293      -41.404251      145.807373
 C         8.630384      -40.893135      147.073059
 H         9.186973      -41.504272      147.761047
 C         8.154457      -39.645149      147.502258
 H         8.493429      -39.244072      148.441162
 C         7.306652      -38.904816      146.688171
 H         6.909964      -37.958977      147.037216
 C         6.934718      -39.404331      145.439087
 H         6.179279      -38.892147      144.872620
 C         6.282784      -39.372375      142.094940
 H         6.468797      -38.517559      142.724274
 C         5.810486      -39.162731      140.808105
 H         5.567237      -38.166077      140.468689
 C         5.682128      -40.241615      139.932648
 H         5.222845      -40.113724      138.961823
 C         6.036145      -41.524338      140.352051
 H         5.949618      -42.355843      139.668304
 C         6.600939      -44.187126      141.900055
 C         5.415945      -44.725979      142.430359
 H         4.915681      -44.223610      143.243713
 C         4.923206      -45.938538      141.936035
 H         4.057588      -46.387802      142.399475
 C         5.591419      -46.605728      140.906982
 H         5.177391      -47.509621      140.486694
 C         6.786613      -46.078987      140.397491
 H         7.319363      -46.618622      139.634949
 C         7.291395      -44.872944      140.896362
 H         8.217819      -44.473766      140.517151
