206
 generated by VMD
 Ir      -32.365982      106.250031     -112.656876
 C       -34.247017      103.307953     -110.133621
 C       -34.890213      103.148514     -111.352539
 N       -33.396111      104.432205     -110.270004
 C       -33.491859      105.037064     -111.450851
 N       -34.401489      104.232758     -112.099365
 C       -34.397415      104.435394     -113.512276
 C       -33.521503      105.293762     -114.138840
 C       -33.425758      105.587799     -115.489761
 H       -32.712807      106.276749     -115.977257
 C       -34.442230      105.060936     -116.289322
 H       -34.576355      105.316673     -117.374542
 C       -35.398773      104.200745     -115.766647
 H       -36.101082      103.618668     -116.350906
 C       -35.385799      103.917831     -114.384804
 H       -36.226906      103.356186     -114.045532
 C       -35.622757      102.030579     -111.579529
 H       -35.946022      101.826363     -112.552208
 C       -35.836143      101.031540     -110.563766
 H       -36.500847      100.226120     -110.627548
 C       -35.193291      101.240974     -109.345459
 H       -35.275757      100.551193     -108.464661
 C       -34.417885      102.338623     -109.164848
 H       -34.227104      102.602554     -108.142380
 C       -33.076984      105.109909     -109.016617
 C       -31.892860      104.696716     -108.306526
 H       -31.413616      103.775833     -108.638145
 C       -31.312584      105.521866     -107.406631
 H       -30.311176      105.252892     -107.066422
 C       -31.937494      106.721603     -107.090073
 H       -31.491505      107.155098     -106.246521
 C       -33.191048      107.066063     -107.657486
 H       -33.857040      107.887115     -107.209015
 C       -33.766762      106.279785     -108.652084
 H       -34.615509      106.656357     -109.273392
 C       -29.091661      103.524124     -113.311569
 C       -28.677788      104.772308     -113.699051
 N       -30.454281      103.658325     -113.025467
 C       -30.883591      104.921577     -113.344994
 N       -29.785606      105.553055     -113.839615
 C       -30.105408      106.843910     -114.414978
 C       -31.271975      107.431313     -113.981987
 C       -31.730125      108.641182     -114.559235
 H       -32.649117      109.099167     -114.216003
 C       -31.006107      109.253082     -115.623749
 H       -31.486092      109.962021     -116.260864
 C       -29.831121      108.716949     -115.959259
 H       -29.065073      109.164368     -116.598228
 C       -29.378738      107.496658     -115.412964
 H       -28.442165      107.309212     -115.724564
 C       -27.303967      104.988205     -113.985588
 H       -26.970924      106.001625     -113.901001
 C       -26.370239      103.955917     -113.870056
 H       -25.337986      104.271805     -113.968353
 C       -26.821985      102.708160     -113.427208
 H       -26.083958      101.884018     -113.355011
 C       -28.206085      102.431702     -113.179749
 H       -28.592682      101.453064     -112.846107
 C       -31.303169      102.524628     -112.844269
 C       -31.644482      101.828064     -113.993492
 H       -31.961887      102.475876     -114.811531
 C       -31.554586      100.466225     -114.181679
 H       -31.770760       99.943314     -115.105759
 C       -31.247131       99.721664     -113.093376
 H       -31.004238       98.710495     -113.315056
 C       -31.062809      100.368240     -111.856094
 H       -30.797829       99.860703     -110.988289
 C       -31.076878      101.720505     -111.675568
 H       -30.758862      102.263840     -110.774101
 C       -30.226326      108.790955     -109.733688
 C       -31.519112      109.211899     -109.754196
 N       -30.118221      107.719788     -110.691864
 C       -31.383142      107.453598     -111.300323
 N       -32.249519      108.465187     -110.697769
 C       -33.378632      108.788940     -111.391228
 C       -33.828354      107.765793     -112.200310
 C       -35.023129      107.887878     -112.991318
 H       -35.193375      107.186523     -113.812195
 C       -35.724266      109.143387     -112.976562
 H       -36.699768      109.170547     -113.476013
 C       -35.285168      110.155975     -112.207169
 H       -35.744354      111.112633     -112.230545
 C       -34.137634      109.984032     -111.377655
 H       -34.027481      110.803398     -110.685478
 C       -31.936434      110.190674     -108.817162
 H       -32.981697      110.354462     -108.742264
 C       -31.004238      110.688385     -107.901634
 H       -31.312912      111.534225     -107.263138
 C       -29.677174      110.228455     -107.819458
 H       -28.927418      110.691376     -107.190994
 C       -29.274696      109.289238     -108.783203
 H       -28.253107      108.895760     -108.818344
 C       -28.881439      107.093651     -111.060272
 C       -28.692711      105.790268     -110.617813
 H       -29.528309      105.280319     -110.145134
 C       -27.408119      105.289337     -110.591461
 H       -27.146935      104.326065     -110.183319
 C       -26.289146      106.122223     -110.986580
 H       -25.274332      105.869576     -110.951584
 C       -26.519781      107.444901     -111.463264
 H       -25.692083      108.129196     -111.579659
 C       -27.843510      107.845695     -111.477692
 H       -27.974951      108.869949     -111.878830
 Ir      -32.365982      106.250031     -101.294884
 C       -36.576172      107.321304     -101.294739
 C       -36.016800      108.154030     -102.202621
 N       -35.536446      106.716446     -100.638596
 C       -34.292248      106.989105     -101.117157
 N       -34.575600      107.904633     -102.141518
 C       -33.562748      108.331345     -102.974548
 C       -32.396179      107.620018     -102.913536
 C       -31.307224      107.997162     -103.753738
 H       -30.307392      107.526093     -103.581032
 C       -31.366520      109.105911     -104.642593
 H       -30.529245      109.224350     -105.235748
 C       -32.573750      109.796814     -104.715004
 H       -32.663170      110.780518     -105.184624
 C       -33.649101      109.419815     -103.870918
 H       -34.452011      110.073830     -103.915756
 C       -36.908249      108.796341     -103.147751
 H       -36.613579      109.570770     -103.770279
 C       -38.276901      108.528053     -103.057762
 H       -38.997982      109.279373     -103.367050
 C       -38.778149      107.575485     -102.168793
 H       -39.711403      107.116364     -102.386391
 C       -37.897034      107.022873     -101.242264
 H       -38.262711      106.702774     -100.232895
 C       -35.854530      105.979218      -99.420105
 C       -35.090355      106.198364      -98.292274
 H       -34.391869      107.033493      -98.270630
 C       -35.106743      105.372261      -97.148514
 H       -34.387291      105.587326      -96.327576
 C       -35.995483      104.235886      -97.162529
 H       -35.898952      103.354439      -96.515442
 C       -36.834023      104.096870      -98.238876
 H       -37.727230      103.470169      -98.281509
 C       -36.710449      104.873543      -99.395645
 H       -37.084175      104.518356     -100.417938
 C       -33.020355      103.119171     -104.221741
 C       -31.686028      103.159744     -104.105911
 N       -33.518250      104.086121     -103.388496
 C       -32.567406      104.691856     -102.645264
 N       -31.412079      104.044884     -103.036720
 C       -30.165806      104.620056     -102.502975
 C       -30.325073      105.777969     -101.780930
 C       -29.161501      106.372009     -101.293053
 H       -29.113953      107.387558     -100.878174
 C       -27.905336      105.757713     -101.523682
 H       -27.064293      106.220505     -100.957397
 C       -27.820648      104.569656     -102.215233
 H       -26.939077      103.915634     -102.214119
 C       -28.961742      103.955765     -102.703827
 H       -28.704124      103.189209     -103.372437
 C       -30.844284      102.336441     -104.835114
 H       -29.772018      102.482208     -104.964348
 C       -31.464315      101.362160     -105.641861
 H       -30.777523      100.758698     -106.299927
 C       -32.877464      101.340317     -105.817169
 H       -33.291191      100.738251     -106.561501
 C       -33.664886      102.174179     -105.072556
 H       -34.789833      102.194870     -105.202774
 C       -34.773544      104.693100     -103.753220
 C       -35.941353      104.039078     -103.425385
 H       -35.947655      103.135651     -102.880966
 C       -37.152943      104.352966     -104.061401
 H       -37.933273      103.558258     -104.003868
 C       -37.161133      105.371170     -105.022964
 H       -38.077301      105.529312     -105.477402
 C       -35.985420      106.004913     -105.377747
 H       -36.111069      106.733978     -106.200714
 C       -34.783890      105.740723     -104.759827
 H       -33.935341      106.353348     -105.023964
 C       -31.468988      103.898903      -97.808029
 C       -31.373890      105.204834      -97.389938
 N       -31.903357      104.019714      -99.124664
 C       -32.063503      105.263672      -99.536270
 N       -31.731428      106.028961      -98.486008
 C       -31.742985      107.426994      -98.650887
 C       -31.758442      107.790604      -99.975441
 C       -31.290241      109.049347     -100.347519
 H       -31.063662      109.398460     -101.360138
 C       -30.929724      109.914215      -99.348999
 H       -30.850403      110.940018      -99.741455
 C       -30.952410      109.591019      -97.969566
 H       -30.382048      110.013809      -97.252182
 C       -31.427349      108.321564      -97.650772
 H       -31.649260      108.142860      -96.609177
 C       -30.866575      105.494400      -96.086143
 H       -30.615925      106.489243      -95.841034
 C       -30.428268      104.498047      -95.215256
 H       -29.720280      104.682259      -94.456100
 C       -30.477457      103.151413      -95.715416
 H       -30.012247      102.472046      -95.104874
 C       -31.062393      102.852127      -96.953018
 H       -31.184021      101.876724      -97.315926
 C       -32.407738      102.897003      -99.867424
 C       -33.723534      102.832909     -100.279236
 H       -34.316391      103.739998     -100.193176
 C       -34.162148      101.750328     -101.047760
 H       -35.235847      101.660469     -101.250458
 C       -33.285057      100.740570     -101.507553
 H       -33.677116       99.822906     -101.904144
 C       -31.947269      100.854797     -101.097328
 H       -31.332058      100.073044     -101.575424
 C       -31.517395      101.937378     -100.323944
 H       -30.476135      101.949081      -99.953201
