206
 generated by VMD
 Ir       37.722363       50.699093      139.635193
 C        36.162884       52.555054      143.407181
 C        37.267517       53.307449      142.960419
 N        36.108879       51.436867      142.516373
 C        37.083618       51.484165      141.472229
 N        37.803444       52.642479      141.834961
 C        39.110863       52.578300      141.426727
 C        39.453339       51.641457      140.392685
 C        40.775002       51.573483      139.873199
 H        41.021725       50.734138      139.216278
 C        41.710594       52.505943      140.291016
 H        42.651199       52.549084      139.693771
 C        41.379585       53.515133      141.289902
 H        42.070984       54.303452      141.425262
 C        40.123718       53.523842      141.836914
 H        39.969311       54.003334      142.733612
 C        37.456421       54.550892      143.649445
 H        38.253311       55.207359      143.303162
 C        36.643959       54.949554      144.702759
 H        36.901165       55.920254      145.091721
 C        35.585049       54.158474      145.153107
 H        35.023132       54.464668      146.029572
 C        35.344524       52.963081      144.469299
 H        34.449333       52.508087      144.728760
 C        35.406784       50.205223      142.810852
 C        36.001091       49.176128      143.541229
 H        37.044598       49.238937      143.797638
 C        35.234238       48.053040      143.824615
 H        35.748344       47.198479      144.225143
 C        33.878933       47.945972      143.440826
 H        33.296547       47.039200      143.538254
 C        33.252750       49.089890      142.794113
 H        32.198174       48.952183      142.428314
 C        34.063950       50.136848      142.462387
 H        33.633018       50.996971      142.009430
 C        36.990597       54.001053      136.897369
 C        37.403976       52.925179      136.081146
 N        37.153500       53.619804      138.183075
 C        37.578552       52.306664      138.284973
 N        37.749794       51.928665      136.985275
 C        38.553703       50.753151      136.808395
 C        38.660416       49.917732      137.926239
 C        39.568947       48.840172      137.862762
 H        39.620033       48.032669      138.596008
 C        40.268883       48.495739      136.653900
 H        41.087128       47.789944      136.509567
 C        40.115391       49.396072      135.606033
 H        40.504448       49.117348      134.664246
 C        39.207893       50.443695      135.667969
 H        38.771431       50.763451      134.809448
 C        36.937843       52.931568      134.673248
 H        37.094574       52.216324      133.881042
 C        36.222187       54.004467      134.178345
 H        36.074387       54.174965      133.103973
 C        35.837875       55.037941      135.059052
 H        35.326218       55.905575      134.600876
 C        36.300568       55.053989      136.418121
 H        36.066299       55.852795      137.092377
 C        37.299904       54.621399      139.259521
 C        36.150375       54.832901      140.025330
 H        35.260822       54.234917      139.952469
 C        36.115036       55.972286      140.833878
 H        35.336258       56.139988      141.530914
 C        37.212212       56.829067      140.884064
 H        37.013527       57.831650      141.127258
 C        38.368965       56.562714      140.215408
 H        39.294521       57.080853      140.306366
 C        38.427856       55.384026      139.407623
 H        39.315880       54.997528      139.140900
 C        34.051498       48.553963      138.756577
 C        34.827404       47.651436      139.485229
 N        34.859188       49.691444      138.610046
 C        36.041100       49.581573      139.199188
 N        36.013847       48.243767      139.671783
 C        37.215057       47.812653      140.286041
 C        38.112564       48.882996      140.724854
 C        39.122787       48.579941      141.642792
 H        39.543724       49.373543      142.272644
 C        39.461819       47.252571      141.963333
 H        40.426903       47.162663      142.409012
 C        38.685600       46.208374      141.487061
 H        38.891655       45.271580      141.916534
 C        37.609520       46.485901      140.631638
 H        37.189560       45.656792      140.108276
 C        34.239616       46.400452      139.842651
 H        34.920708       45.839134      140.497192
 C        32.926098       46.036446      139.612244
 H        32.571918       45.093544      139.980072
 C        32.111725       47.003883      138.959137
 H        31.077114       46.908119      138.959320
 C        32.698174       48.221130      138.477783
 H        32.138073       49.056259      137.840179
 C        34.368137       50.782902      137.905121
 C        33.665131       51.735909      138.578812
 H        33.641464       51.709564      139.657776
 C        33.212158       52.844238      137.960892
 H        33.003242       53.717854      138.561249
 C        33.300423       52.949028      136.569397
 H        32.612003       53.629585      136.123734
 C        33.895348       51.916794      135.805496
 H        33.570030       51.758003      134.780731
 C        34.480995       50.820301      136.476852
 H        35.119938       50.188000      135.952972
 Ir       37.722366       50.699093      149.746918
 C        36.053169       49.210316      153.413116
 C        37.341248       48.792023      153.447662
 N        35.828297       49.778725      152.148163
 C        36.936302       49.727535      151.354492
 N        37.864677       49.065788      152.178940
 C        39.070259       48.750149      151.527191
 C        39.305878       49.481262      150.329147
 C        40.522240       49.335297      149.697266
 H        40.608376       49.802040      148.668808
 C        41.577850       48.618530      150.313416
 H        42.529503       48.889454      149.969528
 C        41.425064       47.980339      151.513535
 H        42.145397       47.343422      151.911469
 C        40.170578       47.949123      152.058487
 H        40.067188       47.741882      153.094757
 C        37.896378       48.387558      154.668457
 H        38.962372       48.127804      154.783264
 C        37.104866       48.252903      155.780380
 H        37.352066       47.626297      156.634125
 C        35.715599       48.548950      155.717285
 H        35.095413       48.691120      156.626923
 C        35.272751       49.076900      154.508453
 H        34.359928       49.634842      154.542389
 C        34.523685       49.898663      151.670563
 C        33.881344       51.151382      151.623749
 H        34.288452       51.948078      152.184326
 C        32.628769       51.299942      151.014343
 H        32.030655       52.229561      151.045334
 C        31.943356       50.203903      150.438232
 H        30.919001       50.395561      150.117188
 C        32.605129       48.956131      150.401978
 H        32.156826       48.230537      149.795074
 C        33.831036       48.855621      151.033295
 H        34.368202       47.928474      150.913528
 C        40.004982       53.754021      151.874359
 C        40.293163       53.933624      150.525696
 N        39.019966       52.696381      151.908295
 C        38.734539       52.283573      150.589966
 N        39.468231       53.030933      149.798431
 C        39.442738       52.731544      148.397156
 C        38.730164       51.522087      148.059586
 C        38.661293       51.106724      146.741211
 H        38.012894       50.285904      146.487549
 C        39.211449       51.879616      145.720398
 H        39.032303       51.584808      144.710876
 C        40.014095       52.974251      146.013214
 H        40.487171       53.628159      145.305603
 C        40.051788       53.408958      147.324249
 H        40.666996       54.314575      147.465607
 C        41.314972       54.904446      150.256805
 H        41.454430       55.271378      149.256531
 C        41.959206       55.633911      151.308350
 H        42.773048       56.278542      151.008636
 C        41.589249       55.412525      152.635376
 H        42.260513       55.776337      153.412582
 C        40.579220       54.500355      152.940643
 H        40.211540       54.554550      153.976379
 C        38.361717       52.308495      153.162750
 C        38.962196       51.484749      154.189774
 H        39.668915       50.722160      153.906387
 C        38.497406       51.600853      155.514725
 H        38.878731       51.030960      156.329773
 C        37.487885       52.529488      155.873199
 H        37.042217       52.354744      156.827682
 C        36.926186       53.351997      154.896118
 H        36.327267       54.209366      155.162231
 C        37.366714       53.214073      153.589478
 H        36.924763       53.850128      152.811142
 C        34.051514       52.552151      148.274536
 C        34.033386       51.339272      147.689911
 N        35.321857       52.696129      148.857361
 C        36.072357       51.531918      148.814362
 N        35.322327       50.715878      148.011017
 C        35.706909       49.380219      147.939575
 C        36.909500       49.063923      148.659729
 C        37.292320       47.695225      148.644897
 H        38.105156       47.341564      149.246338
 C        36.571991       46.733887      147.959076
 H        36.973259       45.715141      147.970612
 C        35.397453       47.039581      147.268921
 H        34.826385       46.239258      146.863617
 C        34.970284       48.407043      147.278122
 H        34.017719       48.618580      146.813721
 C        32.876678       51.043022      147.027069
 H        32.949593       50.347740      146.180328
 C        31.777948       51.932182      146.925232
 H        30.882011       51.542397      146.502075
 C        31.852892       53.184990      147.550812
 H        31.139454       54.011009      147.376465
 C        33.016129       53.446350      148.311844
 H        33.023743       54.315548      148.948181
 C        35.874809       54.038429      149.037872
 C        36.685753       54.487518      148.058807
 H        37.044495       53.868294      147.288315
 C        37.247345       55.740608      148.226379
 H        37.951080       55.984604      147.461639
 C        37.055519       56.568283      149.340942
 H        37.405029       57.616806      149.447906
 C        36.254604       56.069290      150.323013
 H        36.326038       56.510715      151.331696
 C        35.716579       54.856117      150.174164
 H        34.779068       54.723160      150.766785
