206
 generated by VMD
 Ir       22.839714      -89.865112      -62.610878
 C        22.601093      -87.660530      -58.769875
 C        23.896152      -88.128899      -58.857986
 N        21.975218      -88.093918      -59.923721
 C        22.827425      -88.965195      -60.716698
 N        23.963152      -88.926132      -60.057991
 C        24.974419      -89.671608      -60.590260
 C        24.794628      -90.145874      -61.918282
 C        25.831142      -90.906967      -62.535511
 H        25.596197      -91.261795      -63.551140
 C        26.975708      -91.304428      -61.828056
 H        27.780428      -91.860168      -62.322407
 C        27.152649      -90.909180      -60.515778
 H        28.020744      -91.188950      -60.043938
 C        26.213980      -90.106964      -59.919403
 H        26.450581      -89.843872      -58.894657
 C        24.823299      -87.672928      -57.948322
 H        25.957668      -87.831345      -58.025818
 C        24.452873      -86.777145      -56.908390
 H        25.156574      -86.348740      -56.334301
 C        23.088650      -86.406937      -56.753342
 H        22.734543      -85.877548      -55.903671
 C        22.101297      -86.796219      -57.770840
 H        21.060946      -86.625626      -57.511101
 C        20.496540      -88.026535      -60.063629
 C        19.770811      -89.027054      -59.413868
 H        20.184013      -89.648865      -58.648285
 C        18.370487      -89.073380      -59.626106
 H        17.856239      -90.000160      -59.435516
 C        17.736469      -88.059395      -60.376404
 H        16.622562      -87.970421      -60.354210
 C        18.506287      -87.131546      -61.063267
 H        17.995461      -86.330032      -61.582527
 C        19.886036      -87.126183      -60.908463
 H        20.532774      -86.334778      -61.377289
 C        24.250668      -86.668556      -65.311005
 C        24.341656      -87.814636      -66.098412
 N        23.795441      -87.101395      -64.066116
 C        23.652891      -88.492867      -64.011551
 N        23.925568      -88.891640      -65.254303
 C        23.775845      -90.330048      -65.407448
 C        23.233267      -91.015488      -64.308037
 C        23.079624      -92.387436      -64.482811
 H        22.783062      -92.867050      -63.539986
 C        23.179276      -93.039124      -65.726944
 H        22.874273      -93.996765      -65.895752
 C        23.584911      -92.359886      -66.852966
 H        23.793310      -92.866776      -67.833641
 C        23.872110      -90.988014      -66.670265
 H        24.242397      -90.470642      -67.542801
 C        24.897324      -87.719933      -67.461960
 H        25.084682      -88.638832      -68.054184
 C        25.330284      -86.488869      -67.932739
 H        25.793106      -86.477394      -68.855438
 C        25.224697      -85.333374      -67.113731
 H        25.597687      -84.380714      -67.522903
 C        24.642042      -85.367897      -65.786926
 H        24.570507      -84.442642      -65.228546
 C        23.402874      -86.107681      -62.980148
 C        22.306810      -85.312828      -63.251915
 H        21.603357      -85.595375      -63.992809
 C        22.081142      -84.147690      -62.478603
 H        21.232504      -83.527176      -62.618896
 C        23.006645      -83.742554      -61.465923
 H        22.722607      -83.074028      -60.622185
 C        24.108570      -84.597435      -61.217865
 H        24.774670      -84.324539      -60.402729
 C        24.305853      -85.749947      -61.979576
 H        25.077488      -86.478256      -61.703461
 C        18.633373      -89.652344      -63.557507
 C        18.692034      -90.578125      -62.561264
 N        19.933283      -89.449432      -64.011215
 C        20.879353      -90.024231      -63.165367
 N        20.098774      -90.775513      -62.257584
 C        20.763783      -91.445625      -61.168179
 C        22.185751      -91.467827      -61.397114
 C        22.932892      -92.349197      -60.583431
 H        23.851990      -92.617645      -60.895348
 C        22.271255      -93.122765      -59.636204
 H        22.849953      -93.794876      -59.022873
 C        20.881660      -93.021538      -59.396877
 H        20.452587      -93.816391      -58.848602
 C        20.083927      -92.187714      -60.153290
 H        19.085228      -91.928612      -59.888031
 C        17.486465      -91.173355      -62.035625
 H        17.414045      -91.599457      -61.033680
 C        16.254299      -90.751015      -62.553596
 H        15.249437      -91.127579      -62.266281
 C        16.199039      -89.787331      -63.531075
 H        15.276621      -89.611847      -64.022247
 C        17.398924      -89.286888      -64.088051
 H        17.414968      -88.377792      -64.728287
 C        20.251211      -88.962318      -65.452835
 C        20.323032      -89.927620      -66.458084
 H        19.877661      -90.854401      -66.279984
 C        20.778467      -89.586365      -67.757858
 H        20.408300      -90.023575      -68.678467
 C        21.241678      -88.270462      -68.005730
 H        21.669422      -88.069176      -68.953743
 C        21.105473      -87.349495      -66.963211
 H        21.441490      -86.403725      -67.127861
 C        20.536999      -87.633636      -65.726349
 H        20.513603      -86.848038      -64.958511
 Ir       22.839714      -89.865112      -51.960217
 C        23.352089      -88.730499      -47.788776
 C        22.086014      -89.352844      -47.821083
 N        23.902412      -88.822693      -49.013618
 C        23.106457      -89.525360      -49.928391
 N        21.990007      -89.849319      -49.135422
 C        21.029991      -90.676033      -49.721867
 C        21.021355      -90.571526      -51.114849
 C        19.983469      -91.167007      -51.850513
 H        19.971619      -91.117012      -52.924881
 C        18.940742      -91.876564      -51.155418
 H        18.136656      -92.263695      -51.778698
 C        18.942070      -91.920883      -49.802742
 H        18.157368      -92.478142      -49.366169
 C        19.973183      -91.337967      -49.104450
 H        19.992085      -91.308853      -48.047237
 C        21.147602      -89.149246      -46.830917
 H        20.135006      -89.563248      -46.754410
 C        21.554287      -88.478653      -45.652824
 H        21.063782      -88.736679      -44.770710
 C        22.843945      -87.954376      -45.602535
 H        23.253471      -87.517166      -44.689060
 C        23.781544      -88.009209      -46.653252
 H        24.664700      -87.361443      -46.602879
 C        25.274815      -88.392685      -49.235672
 C        26.252647      -89.392815      -49.055458
 H        26.002083      -90.420891      -48.867928
 C        27.555084      -89.023140      -49.158913
 H        28.382593      -89.536911      -48.686718
 C        27.927650      -87.744766      -49.570419
 H        28.975361      -87.706474      -49.901684
 C        27.002403      -86.738350      -49.740871
 H        27.380131      -85.720146      -49.787567
 C        25.654171      -87.070114      -49.609734
 H        24.903149      -86.486755      -50.108479
 C        24.236893      -94.052246      -52.101669
 C        23.929274      -93.739243      -53.349949
 N        23.851511      -92.943993      -51.312397
 C        23.249266      -91.936356      -52.055614
 N        23.318039      -92.398148      -53.357971
 C        22.608143      -91.617546      -54.358620
 C        22.253292      -90.321930      -53.905445
 C        21.848551      -89.399292      -54.848591
 H        21.675083      -88.368835      -54.628212
 C        21.628616      -89.804115      -56.117741
 H        21.087234      -89.217232      -56.805542
 C        21.792301      -91.131432      -56.504196
 H        21.475863      -91.375534      -57.520847
 C        22.319889      -92.031868      -55.612194
 H        22.492725      -93.068375      -55.948174
 C        24.141947      -94.796432      -54.307045
 H        24.034653      -94.446060      -55.347298
 C        24.728662      -96.037064      -53.985802
 H        25.296497      -96.535065      -54.777740
 C        24.998367      -96.350212      -52.666374
 H        25.163376      -97.400726      -52.428909
 C        24.750507      -95.356201      -51.735195
 H        24.760035      -95.557945      -50.673637
 C        23.579208      -93.139999      -49.955479
 C        22.327152      -93.687302      -49.630192
 H        21.503031      -93.590607      -50.251862
 C        22.109520      -94.120293      -48.364109
 H        21.080162      -94.471359      -48.155849
 C        23.077349      -93.949074      -47.398247
 H        22.914745      -94.220200      -46.389210
 C        24.316191      -93.376419      -47.740356
 H        24.993139      -93.375496      -46.921429
 C        24.599325      -92.918091      -49.037533
 H        25.563972      -92.487625      -49.378490
 C        26.412342      -87.975105      -53.499958
 C        25.629452      -86.938599      -53.053379
 N        25.731846      -89.142235      -53.273392
 C        24.528324      -88.912148      -52.736458
 N        24.458971      -87.549461      -52.614487
 C        23.144924      -86.948555      -52.406914
 C        22.132801      -87.878555      -52.103569
 C        20.817829      -87.381851      -51.957142
 H        20.094025      -88.122421      -51.577057
 C        20.489071      -86.008835      -52.144855
 H        19.488705      -85.689621      -51.888783
 C        21.502003      -85.085037      -52.499775
 H        21.343945      -84.070206      -52.362572
 C        22.785202      -85.575378      -52.653275
 H        23.558718      -84.832596      -52.647072
 C        26.245628      -85.693680      -52.737812
 H        25.687241      -84.770721      -52.454338
 C        27.630386      -85.551865      -52.779617
 H        28.143541      -84.721405      -52.359619
 C        28.406826      -86.582092      -53.205734
 H        29.457607      -86.560730      -53.071594
 C        27.831676      -87.712936      -53.631306
 H        28.537033      -88.325180      -54.281334
 C        25.996857      -90.339005      -54.053917
 C        26.689728      -91.478951      -53.539562
 H        27.060308      -91.541641      -52.504559
 C        26.907822      -92.618820      -54.298588
 H        27.470898      -93.464516      -53.827473
 C        26.468441      -92.647163      -55.600945
 H        26.554577      -93.581833      -56.190918
 C        25.825331      -91.516716      -56.121132
 H        25.565197      -91.555237      -57.163555
 C        25.545385      -90.360985      -55.366924
 H        25.189835      -89.474335      -55.814503
