206
 generated by VMD
  IR        32.919998       44.060001       17.240000
  C1        32.000000       39.820000       16.320000
  C2        32.490002       39.830002       17.610001
  N1        32.020000       41.139999       15.910000
  C3a       32.650002       42.009998       16.889999
  N2        32.880001       41.189999       17.889999
  C4        33.480000       41.750000       18.980000
  C5a       33.509998       43.169998       19.040001
  C6        34.099998       43.810001       20.170000
  H1        34.110001       44.910000       20.120001
  C7        34.759998       43.080002       21.170000
  H2        35.180000       43.580002       22.049999
  C8        34.799999       41.700001       21.110001
  H3        35.259998       41.200001       21.879999
  C9        34.169998       41.049999       20.080000
  H4        34.250000       39.970001       20.129999
  C10       32.389999       38.680000       18.360001
  H5        32.580002       38.610001       19.490000
  C11       31.840000       37.490002       17.809999
  H6        31.650000       36.700001       18.400000
  C12       31.459999       37.459999       16.440001
  H7        31.200001       36.560001       15.940000
  C13       31.459999       38.700001       15.650000
  H8        31.320000       38.580002       14.580000
  C6        31.830000       41.500000       14.480000
  C1        32.939999       41.330002       13.650000
  H1        33.790001       40.740002       13.920000
  C2        32.840000       41.779999       12.310000
  H2        33.750000       41.980000       11.770000
  C3        31.610001       42.270000       11.820000
  H3        31.469999       42.410000       10.720000
  C4        30.559999       42.490002       12.700000
  H4        29.610001       42.810001       12.290000
  C5        30.680000       42.110001       14.030000
  H5        29.820000       42.189999       14.750000
  C1        29.129999       45.340000       19.110001
  C2        29.980000       46.419998       19.340000
  N1        29.900000       44.389999       18.440001
  C3b       31.230000       44.799999       18.290001
  N2        31.240000       46.040001       18.780001
  C4        32.549999       46.660000       18.660000
  C5b       33.509998       45.939999       17.930000
  C6        34.750000       46.560001       17.809999
  H1        35.480000       45.880001       17.350000
  C7        34.990002       47.910000       18.129999
  H2        35.830002       48.419998       17.860001
  C8        34.020000       48.680000       18.730000
  H3        34.209999       49.720001       19.110001
  C9        32.790001       48.029999       18.980000
  H4        32.049999       48.619999       19.500000
  C10       29.500000       47.570000       20.129999
  H5        30.200001       48.380001       20.420000
  C11       28.209999       47.549999       20.639999
  H6        27.940001       48.330002       21.260000
  C12       27.360001       46.439999       20.389999
  H7        26.350000       46.459999       20.830000
  C13       27.770000       45.310001       19.580000
  H8        27.059999       44.509998       19.410000
  C6        29.270000       43.130001       17.860001
  C1        28.370001       43.320000       16.830000
  H1        28.370001       44.220001       16.270000
  C2        27.490000       42.270000       16.469999
  H2        26.809999       42.349998       15.660000
  C3        27.469999       41.040001       17.200001
  H3        27.080000       40.090000       16.770000
  C4        28.420000       40.889999       18.240000
  H4        28.450001       39.930000       18.750000
  C5        29.290001       41.930000       18.570000
  H5        30.110001       41.770000       19.280001
  C1        32.189999       45.590000       13.270000
  C2        33.380001       44.939999       13.150000
  N1        31.930000       45.730000       14.630000
  C3c       32.790001       44.959999       15.410000
  N2        33.740002       44.480000       14.480000
  C4        34.750000       43.560001       14.940000
  C5c       34.779999       43.540001       16.379999
  C6        35.910000       42.930000       16.969999
  H1        36.119999       43.150002       17.930000
  C7        36.900002       42.400002       16.150000
  H2        37.759998       41.939999       16.610001
  C8        36.799999       42.380001       14.740000
  H3        37.700001       42.189999       14.220000
  C9        35.730000       42.959999       14.090000
  H4        35.509998       42.799999       13.060000
  C10       34.040001       44.840000       11.870000
  H5        34.750000       44.049999       11.620000
  C11       33.410000       45.400002       10.750000
  H6        33.799999       45.419998        9.710000
  C12       32.189999       46.020000       10.870000
  H7        31.820000       46.580002       10.050000
  C13       31.610001       46.180000       12.150000
  H8        30.549999       46.490002       12.280000
  C6        31.040001       46.869999       15.200000
  C1        31.650000       48.099998       15.450000
  H1        32.560001       48.299999       14.980000
  C2        30.950001       49.130001       16.129999
  H2        31.059999       50.189999       15.930000
  C3        29.650000       48.869999       16.629999
  H3        29.190001       49.619999       17.219999
  C4        29.090000       47.630001       16.309999
  H4        28.160000       47.430000       16.670000
  C5        29.709999       46.660000       15.530000
  H5        29.200001       45.700001       15.370000
  IR        36.209999       34.110001       15.340000
  C1        36.450001       29.770000       15.100000
  C2        36.959999       30.209999       13.860000
  N1        36.189999       30.850000       15.860000
  C3a       36.529999       32.060001       15.240000
  N2        37.020000       31.610001       14.000000
  C4        37.570000       32.580002       13.160000
  C5a       37.040001       33.849998       13.400000
  C6        37.320000       34.900002       12.510000
  H1        36.939999       35.889999       12.690000
  C7        38.150002       34.650002       11.360000
  H2        38.279999       35.490002       10.680000
  C8        38.610001       33.400002       11.120000
  H3        39.230000       33.299999       10.270000
  C9        38.330002       32.389999       12.010000
  H4        38.630001       31.389999       11.840000
  C10       37.020000       29.379999       12.760000
  H5        37.380001       29.610001       11.750000
  C11       36.770000       28.000000       12.950000
  H6        37.259998       27.340000       12.310000
  C12       36.360001       27.570000       14.210000
  H7        36.250000       26.510000       14.450000
  C13       36.139999       28.410000       15.320000
  H8        35.590000       28.010000       16.180000
  C6        35.790001       30.690001       17.250000
  C1        36.849998       30.670000       18.180000
  H1        37.869999       30.860001       17.900000
  C2        36.540001       30.430000       19.480000
  H2        37.220001       30.010000       20.209999
  C3        35.220001       30.350000       19.920000
  H3        35.139999       30.469999       21.010000
  C4        34.160000       30.350000       19.040001
  H4        33.200001       30.010000       19.420000
  C5        34.439999       30.559999       17.690001
  H5        33.689999       30.969999       17.040001
  C1        40.220001       35.320000       16.740000
  C2        39.520000       36.439999       16.660000
  N1        39.389999       34.299999       16.219999
  C3b       38.169998       34.779999       15.760000
  N2        38.209999       36.130001       16.059999
  C4        37.119999       36.939999       15.540000
  C5b       36.009998       36.169998       15.110000
  C6        34.820000       36.830002       14.880000
  H1        33.900002       36.330002       14.670000
  C7        34.799999       38.180000       14.890000
  H2        34.000000       38.730000       14.480000
  C8        35.950001       38.930000       15.120000
  H3        35.849998       40.009998       14.990000
  C9        37.110001       38.290001       15.480000
  H4        38.000000       38.900002       15.710000
  C10       40.240002       37.630001       17.040001
  H5        39.580002       38.509998       17.120001
  C11       41.549999       37.619999       17.559999
  H6        41.810001       38.419998       18.260000
  C12       42.270000       36.439999       17.590000
  H7        43.349998       36.520000       17.709999
  C13       41.599998       35.299999       17.180000
  H8        42.119999       34.369999       17.000000
  C6        39.980000       33.139999       15.710000
  C1        40.529999       33.220001       14.420000
  H1        40.200001       33.910000       13.720000
  C2        41.320000       32.209999       13.980000
  H2        41.660000       32.299999       12.930000
  C3        41.509998       31.090000       14.760000
  H3        42.070000       30.260000       14.420000
  C4        40.930000       31.020000       16.040001
  H4        41.220001       30.139999       16.559999
  C5        40.110001       32.040001       16.549999
  H5        39.650002       32.060001       17.559999
  C1        34.139999       34.349998       19.129999
  C2        33.250000       33.740002       18.280001
  N1        35.279999       34.619999       18.420000
  C3c       35.160000       34.250000       17.139999
  N2        33.900002       33.720001       17.049999
  C4        33.320000       33.560001       15.720000
  C5c       34.240002       33.740002       14.670000
  C6        33.740002       33.669998       13.350000
  H1        34.520000       33.669998       12.570000
  C7        32.360001       33.470001       13.060000
  H2        32.080002       33.299999       12.030000
  C8        31.430000       33.340000       14.120000
  H3        30.500000       32.919998       13.940000
  C9        31.920000       33.419998       15.410000
  H4        31.260000       33.049999       16.170000
  C10       32.200001       32.950001       18.830000
  H5        31.379999       32.490002       18.230000
  C11       32.130001       32.709999       20.200001
  H6        31.500000       31.969999       20.629999
  C12       33.020000       33.299999       21.040001
  H7        33.099998       32.990002       22.049999
  C13       33.930000       34.150002       20.549999
  H8        34.349998       34.830002       21.360001
  C6        36.189999       35.680000       18.820000
  C1        37.470001       35.439999       19.410000
  H1        37.869999       34.430000       19.590000
  C2        38.330002       36.470001       19.760000
  H2        39.310001       36.200001       20.230000
  C3        37.930000       37.770000       19.559999
  H3        38.639999       38.599998       19.750000
  C4        36.660000       38.009998       19.020000
  H4        36.360001       39.040001       18.950001
  C5        35.779999       36.990002       18.610001
  H5        34.779999       37.189999       18.340000
