206
 generated by VMD
 Ir      120.671700       32.152836      -67.121185
 C       119.899918       29.004417      -64.239952
 C       120.855598       28.495277      -65.068840
 N       119.472733       30.233313      -64.791702
 C       120.172020       30.526258      -65.949707
 N       121.000427       29.417330      -66.132484
 C       121.702759       29.377899      -67.362724
 C       121.761581       30.604862      -68.047119
 C       122.444130       30.647743      -69.283157
 H       122.487190       31.574398      -69.830933
 C       123.047493       29.512810      -69.826462
 H       123.567581       29.581053      -70.769302
 C       122.968697       28.285847      -69.142899
 H       123.387741       27.395466      -69.587112
 C       122.296707       28.225143      -67.919937
 H       122.147507       27.254210      -67.466362
 C       121.481941       27.277311      -64.730675
 H       122.326324       26.910843      -65.293182
 C       121.112480       26.588144      -63.561638
 H       121.592239       25.659466      -63.307892
 C       120.126671       27.116943      -62.730339
 H       119.828629       26.600849      -61.831390
 C       119.520309       28.334911      -63.067665
 H       118.771988       28.755489      -62.409538
 C       118.197403       30.801149      -64.454025
 C       117.053909       30.334547      -65.108704
 H       117.135361       29.898439      -66.093071
 C       115.789078       30.534550      -64.544113
 H       114.917435       30.093859      -64.999229
 C       115.658989       31.257654      -63.355377
 H       114.670830       31.447735      -62.943920
 C       116.793839       31.770924      -62.733059
 H       116.695877       32.364861      -61.831871
 C       118.058014       31.547586      -63.281677
 H       118.938309       31.941610      -62.794201
 C       124.144775       33.691544      -65.027557
 C       124.155197       34.353058      -66.227058
 N       123.149429       32.702503      -65.111893
 C       122.489716       32.750351      -66.322006
 N       123.149780       33.751228      -67.023407
 C       122.633522       34.049042      -68.313095
 C       121.332184       33.583916      -68.546486
 C       120.649956       34.007126      -69.697510
 H       119.646858       33.677784      -69.882774
 C       121.269379       34.856148      -70.622482
 H       120.715363       35.186760      -71.490158
 C       122.581436       35.283791      -70.405838
 H       123.083565       35.876137      -71.159760
 C       123.263992       34.872246      -69.262802
 H       124.309372       35.088501      -69.178375
 C       124.982239       35.486328      -66.377373
 H       125.031601       36.027592      -67.312630
 C       125.747757       35.942738      -65.302673
 H       126.363037       36.833385      -65.415642
 C       125.716187       35.265884      -64.076385
 H       126.281219       35.621422      -63.232635
 C       124.920013       34.126457      -63.946289
 H       124.889999       33.612846      -62.994869
 C       123.069244       31.618216      -64.157333
 C       123.806198       30.450306      -64.354988
 H       124.296440       30.285114      -65.302032
 C       123.864624       29.472307      -63.364536
 H       124.471466       28.589462      -63.514343
 C       123.165855       29.640718      -62.171112
 H       123.242561       28.913237      -61.377396
 C       122.396584       30.796959      -61.966816
 H       121.837547       30.926506      -61.049709
 C       122.348488       31.786625      -62.964836
 H       121.771057       32.687294      -62.800282
 C       118.253448       35.621841      -66.024155
 C       117.554909       34.999611      -67.025238
 N       119.341408       34.799454      -65.714760
 C       119.374352       33.653950      -66.497856
 N       118.226044       33.780075      -67.276047
 C       117.878082       32.629059      -68.045654
 C       118.906250       31.692749      -68.218277
 C       118.635063       30.507380      -68.909622
 H       119.423386       29.794674      -69.091248
 C       117.354126       30.241142      -69.390045
 H       117.166153       29.310799      -69.918182
 C       116.325623       31.165787      -69.209442
 H       115.342896       30.984344      -69.641098
 C       116.588058       32.356667      -68.547974
 H       115.781136       33.055225      -68.400330
 C       116.468414       35.669495      -67.607468
 H       115.963867       35.245148      -68.461548
 C       116.058655       36.922935      -67.145859
 H       115.216904       37.417816      -67.597801
 C       116.755127       37.535980      -66.095673
 H       116.396713       38.449696      -65.664902
 C       117.862762       36.881435      -65.540222
 H       118.378311       37.340782      -64.709671
 C       120.363770       35.226280      -64.797699
 C       121.393761       36.051605      -65.251640
 H       121.528610       36.210701      -66.315872
 C       122.246376       36.682377      -64.344299
 H       123.062233       37.295212      -64.704445
 C       122.088501       36.495815      -62.970516
 H       122.769928       36.951393      -62.276245
 C       121.048111       35.668655      -62.507175
 H       120.883316       35.560543      -61.444839
 C       120.195496       35.037880      -63.414516
 H       119.349762       34.466202      -63.058113
 Ir      120.671692       32.152836      -55.462624
 C       118.304749       35.668510      -54.395424
 C       117.428368       34.619392      -54.261986
 N       119.524101       35.138702      -54.830158
 C       119.460686       33.763824      -54.988197
 N       118.135925       33.448906      -54.665001
 C       117.754791       32.093040      -54.883759
 C       118.816422       31.202755      -55.138012
 C       118.539314       29.830996      -55.212814
 H       119.328804       29.133631      -55.422058
 C       117.241455       29.343370      -55.053162
 H       117.052711       28.280010      -55.086922
 C       116.180740       30.227501      -54.820389
 H       115.183907       29.847359      -54.678879
 C       116.437851       31.599260      -54.746429
 H       115.595901       32.268879      -54.717674
 C       116.126968       34.875252      -53.780125
 H       115.455917       34.070683      -53.531208
 C       115.724075       36.179581      -53.481804
 H       114.727646       36.367180      -53.111885
 C       116.612106       37.236046      -53.654106
 H       116.294342       38.258347      -53.476238
 C       117.912186       36.984509      -54.104668
 H       118.598366       37.808182      -54.237370
 C       120.685059       35.954937      -55.066467
 C       120.712265       36.805702      -56.189125
 H       119.932701       36.724205      -56.929550
 C       121.749512       37.727028      -56.339706
 H       121.755417       38.385059      -57.193848
 C       122.770370       37.801270      -55.386841
 H       123.584534       38.503315      -55.516548
 C       122.754051       36.944355      -54.285240
 H       123.562401       36.978539      -53.562637
 C       121.716400       36.021187      -54.124844
 H       121.752075       35.319519      -53.307659
 C       121.785690       30.717661      -51.489185
 C       122.372635       29.815971      -52.356102
 N       121.087486       31.649731      -52.260590
 C       121.204330       31.373741      -53.610619
 N       121.976746       30.217594      -53.651852
 C       122.020233       29.560175      -54.923584
 C       121.635712       30.350765      -56.013729
 C       121.830383       29.851814      -57.310555
 H       121.576080       30.457022      -58.165161
 C       122.359970       28.573942      -57.527321
 H       122.532288       28.233650      -58.530663
 C       122.694199       27.771685      -56.431293
 H       123.121140       26.786869      -56.587372
 C       122.519577       28.260805      -55.135468
 H       122.655029       27.578798      -54.310406
 C       123.131195       28.757214      -51.829861
 H       123.727127       28.130856      -52.481979
 C       123.261314       28.592152      -50.450127
 H       123.905396       27.822037      -50.057987
 C       122.626068       29.482172      -49.577244
 H       122.621338       29.293587      -48.513046
 C       121.917725       30.562428      -50.107529
 H       121.508781       31.296915      -49.427322
 C       120.032852       32.451736      -51.696732
 C       118.755447       31.905134      -51.547253
 H       118.585930       30.862532      -51.800331
 C       117.704765       32.694187      -51.077290
 H       116.719223       32.258739      -50.966015
 C       117.921844       34.041512      -50.765209
 H       117.097801       34.667679      -50.448547
 C       119.199173       34.597946      -50.912849
 H       119.351677       35.643578      -50.731201
 C       120.259094       33.795391      -51.364586
 H       121.261475       34.196480      -51.400127
 C       124.154510       34.552841      -56.455574
 C       123.352875       34.623466      -57.575752
 N       123.587540       33.603043      -55.587971
 C       122.410446       33.091061      -56.110001
 N       122.302673       33.699108      -57.355019
 C       121.235962       33.232414      -58.169399
 C       120.195854       32.606258      -57.474979
 C       119.064941       32.191837      -58.190639
 H       118.232399       31.722221      -57.672035
 C       118.983101       32.368568      -59.576340
 H       118.135010       31.964069      -60.115341
 C       120.032944       32.973225      -60.264191
 H       119.967545       33.130482      -61.327011
 C       121.164612       33.401150      -59.566334
 H       122.028763       33.715324      -60.122868
 C       123.663834       35.548004      -58.591221
 H       123.032005       35.645184      -59.465103
 C       124.769592       36.398232      -58.467117
 H       125.022980       37.076565      -59.256142
 C       125.561920       36.331921      -57.315971
 H       126.397156       37.005859      -57.185310
 C       125.249374       35.409225      -56.310410
 H       125.852264       35.379013      -55.415035
 C       124.387283       32.918648      -54.613228
 C       125.002594       31.717484      -54.964775
 H       124.761658       31.239027      -55.899349
 C       125.947388       31.137447      -54.106956
 H       126.450073       30.229338      -54.398239
 C       126.266846       31.758579      -52.898018
 H       127.041046       31.362091      -52.267597
 C       125.620819       32.946243      -52.529926
 H       125.841019       33.411194      -51.578388
 C       124.676025       33.526276      -53.387741
 H       124.193665       34.446053      -53.103611
