206
 generated by VMD
  IR        47.160000       10.140000       36.110001
  C1        50.509998       12.720000       37.320000
  C2        51.080002       11.850000       36.490002
  N1        49.099998       12.410000       37.439999
  C3a       48.770000       11.310000       36.610001
  N2        50.020000       10.960000       36.130001
  C4        49.980000        9.750000       35.320000
  C5a       48.830002        8.970000       35.549999
  C6        48.900002        7.610000       35.310001
  H1        48.080002        6.970000       35.360001
  C7        50.060001        7.030000       34.810001
  H2        50.090000        6.010000       34.430000
  C8        51.200001        7.830000       34.580002
  H3        52.160000        7.320000       34.480000
  C9        51.119999        9.190000       34.799999
  H4        51.919998        9.870000       34.560001
  C10       52.380001       12.060000       35.990002
  H5        53.020000       11.210000       35.820000
  C11       53.110001       13.250000       36.340000
  H6        54.180000       13.280000       36.189999
  C12       52.450001       14.130000       37.200001
  H7        52.849998       15.130000       37.340000
  C13       51.200001       13.900000       37.770000
  H8        50.669998       14.750000       38.139999
  C6        48.459999       12.780000       38.680000
  C1        48.509998       11.840000       39.650002
  H1        49.150002       10.910000       39.529999
  C2        47.869999       11.950000       40.880001
  H2        47.720001       11.070000       41.490002
  C3        47.180000       13.130000       41.180000
  H3        46.939999       13.340000       42.270000
  C4        47.180000       14.160000       40.209999
  H4        46.549999       15.050000       40.430000
  C5        47.750000       13.960000       38.939999
  H5        47.650002       14.650000       38.169998
  C1        46.689999       11.320000       31.980000
  C2        45.799999       10.230000       32.150002
  N1        47.389999       11.430000       33.189999
  C3b       47.020000       10.460000       34.080002
  N2        46.099998        9.650000       33.340000
  C4        45.560001        8.550000       34.130001
  C5b       45.799999        8.580000       35.509998
  C6        45.180000        7.600000       36.290001
  H1        45.459999        7.400000       37.310001
  C7        44.400002        6.580000       35.700001
  H2        43.860001        5.870000       36.270000
  C8        44.160000        6.580000       34.360001
  H3        43.689999        5.740000       33.889999
  C9        44.730000        7.560000       33.580002
  H4        44.410000        7.580000       32.509998
  C10       44.810001        9.980000       31.209999
  H5        43.910000        9.530000       31.559999
  C11       44.810001       10.740000       30.090000
  H6        44.070000       10.530000       29.330000
  C12       45.810001       11.690000       29.820000
  H7        45.900002       12.210000       28.850000
  C13       46.790001       12.040000       30.780001
  H8        47.680000       12.590000       30.700001
  C6        48.480000       12.330000       33.410000
  C1        48.299999       13.530000       34.150002
  H1        47.349998       13.590000       34.700001
  C2        49.320000       14.470000       34.209999
  H2        49.049999       15.360000       34.790001
  C3        50.580002       14.270000       33.669998
  H3        51.439999       15.000000       33.810001
  C4        50.770000       13.120000       32.950001
  H4        51.630001       13.030000       32.380001
  C5        49.730000       12.140000       32.869999
  H5        49.869999       11.220000       32.419998
  C1        44.169998       12.780000       37.880001
  C2        44.599998       11.940000       38.869999
  N1        44.759998       12.350000       36.650002
  C3c       45.540001       11.190000       36.900002
  N2        45.310001       10.940000       38.259998
  C4        45.880001        9.750000       38.730000
  C5c       47.040001        9.310000       38.049999
  C6        47.840000        8.340000       38.570000
  H1        48.820000        8.250000       38.169998
  C7        47.369999        7.630000       39.740002
  H2        47.919998        6.850000       40.209999
  C8        46.180000        8.030000       40.419998
  H3        45.980000        7.790000       41.430000
  C9        45.490002        9.100000       39.930000
  H4        44.619999        9.480000       40.470001
  C10       44.150002       12.240000       40.130001
  H5        44.410000       11.630000       40.939999
  C11       43.250000       13.300000       40.389999
  H6        43.200001       13.800000       41.369999
  C12       42.759998       14.040000       39.349998
  H7        41.970001       14.750000       39.540001
  C13       43.250000       13.860000       38.070000
  H8        42.869999       14.450000       37.240002
  C6        44.220001       12.620000       35.389999
  C1        43.650002       11.600000       34.630001
  H1        43.720001       10.580000       34.930000
  C2        43.070000       11.830000       33.340000
  H2        42.529999       11.070000       32.790001
  C3        43.200001       13.170000       32.810001
  H3        42.820000       13.500000       31.840000
  C4        43.840000       14.220000       33.540001
  H4        44.200001       15.030000       32.970001
  C5        44.259998       13.940000       34.849998
  H5        44.889999       14.670000       35.310001
  IR        47.410000       12.690000       49.740002
  C1        45.919998        9.000000       48.090000
  C2        47.240002        8.960000       47.680000
  N1        45.680000       10.320000       48.560001
  C3a       46.750000       11.100000       48.590000
  N2        47.740002       10.270000       48.060001
  C4        48.990002       10.920000       47.880001
  C5a       49.200001       12.020000       48.820000
  C6        50.509998       12.460000       49.009998
  H1        50.730000       13.200000       49.740002
  C7        51.549999       11.950000       48.250000
  H2        52.509998       12.450000       48.349998
  C8        51.320000       10.960000       47.290001
  H3        52.110001       10.750000       46.540001
  C9        50.029999       10.400000       47.110001
  H4        49.919998        9.650000       46.369999
  C10       47.849998        7.740000       47.250000
  H5        48.830002        7.400000       47.560001
  C11       46.990002        6.680000       47.029999
  H6        47.439999        5.770000       46.599998
  C12       45.610001        6.750000       47.360001
  H7        45.070000        5.890000       47.099998
  C13       45.009998        7.890000       47.950001
  H8        44.020000        7.950000       48.200001
  C6        44.330002       10.730000       48.770000
  C1        43.820000       10.500000       50.060001
  H1        44.459999       10.360000       50.860001
  C2        42.490002       10.660000       50.270000
  H2        42.110001       10.700000       51.310001
  C3        41.619999       10.980000       49.270000
  H3        40.570000       11.170000       49.450001
  C4        42.049999       11.240000       47.970001
  H4        41.529999       11.870000       47.310001
  C5        43.439999       11.110000       47.720001
  H5        43.799999       11.330000       46.720001
  C1        48.480000       10.830000       53.509998
  C2        49.240002       11.960000       53.540001
  N1        47.820000       10.670000       52.299999
  C3b       48.110001       11.810000       51.470001
  N2        48.980000       12.620000       52.270000
  C4        49.070000       14.040000       51.889999
  C5b       48.490002       14.330000       50.630001
  C6        48.619999       15.690000       50.169998
  H1        48.160000       15.910000       49.270000
  C7        49.200001       16.700001       51.009998
  H2        49.549999       17.540001       50.380001
  C8        49.680000       16.410000       52.279999
  H3        50.000000       17.250000       52.869999
  C9        49.630001       15.080000       52.709999
  H4        50.310001       14.760000       53.459999
  C10       50.000000       12.260000       54.680000
  H5        50.730000       12.950000       54.529999
  C11       50.029999       11.360000       55.779999
  H6        50.570000       11.550000       56.669998
  C12       49.240002       10.190000       55.730000
  H7        49.389999        9.410000       56.470001
  C13       48.490002       10.040000       54.599998
  H8        47.680000        9.280000       54.759998
  C6        47.590000        9.290000       51.750000
  C1        46.389999        8.660000       52.070000
  H1        45.480000        9.170000       52.380001
  C2        46.240002        7.320000       51.650002
  H2        45.259998        6.850000       51.830002
  C3        47.250000        6.620000       50.930000
  H3        47.230000        5.540000       50.889999
  C4        48.400002        7.280000       50.570000
  H4        49.130001        6.750000       50.049999
  C5        48.599998        8.620000       51.029999
  H5        49.459999        9.160000       50.700001
  C1        43.459999       14.160000       50.790001
  C2        43.529999       14.260000       49.419998
  N1        44.669998       13.690000       51.310001
  C3c       45.619999       13.580000       50.240002
  N2        44.840000       13.910000       49.080002
  C4        45.590000       14.120000       47.860001
  C5c       46.910000       13.700000       47.919998
  C6        47.730000       13.910000       46.810001
  H1        48.730000       13.640000       46.910000
  C7        47.169998       14.450000       45.619999
  H2        47.869999       14.650000       44.810001
  C8        45.840000       14.880000       45.470001
  H3        45.490002       15.160000       44.480000
  C9        45.080002       14.740000       46.599998
  H4        44.080002       15.160000       46.480000
  C10       42.349998       14.470000       48.700001
  H5        42.340000       14.660000       47.650002
  C11       41.090000       14.590000       49.310001
  H6        40.189999       14.520000       48.740002
  C12       41.099998       14.640000       50.709999
  H7        40.209999       14.630000       51.340000
  C13       42.250000       14.380000       51.439999
  H8        42.139999       14.550000       52.490002
  C6        45.000000       13.830000       52.689999
  C1        45.750000       14.770000       53.340000
  H1        46.080002       15.650000       52.840000
  C2        46.130001       14.660000       54.700001
  H2        46.689999       15.410000       55.209999
  C3        45.910000       13.490000       55.360001
  H3        46.459999       13.350000       56.340000
  C4        45.360001       12.430000       54.650002
  H4        45.520000       11.410000       54.970001
  C5        44.849998       12.630000       53.340000
  H5        44.169998       11.930000       52.919998
