206
 generated by VMD
 Ir       58.473057       84.058609       85.534866
 C        57.770920       80.529846       88.065269
 C        56.997391       81.434029       88.669174
 N        58.472958       81.136604       86.963326
 C        58.010181       82.401886       86.774864
 N        57.110283       82.589722       87.758224
 C        56.854855       83.981071       87.997803
 C        57.642952       84.886856       87.307175
 C        57.560314       86.233154       87.585648
 H        58.436348       86.765045       87.336121
 C        56.657288       86.725662       88.519333
 H        56.486015       87.757996       88.663391
 C        55.732178       85.852203       89.102814
 H        54.999184       86.234467       89.713959
 C        55.831459       84.476273       88.929428
 H        55.177692       83.773804       89.366837
 C        56.221344       81.074158       89.709724
 H        55.647175       81.805733       90.138245
 C        56.218704       79.776627       90.303467
 H        55.557755       79.512985       91.103607
 C        57.094650       78.798492       89.734795
 H        57.209896       77.792511       90.132278
 C        57.832375       79.164505       88.563126
 H        58.310177       78.358170       88.036499
 C        59.674095       80.664978       86.308014
 C        59.581894       80.189301       85.004814
 H        58.588615       79.834045       84.666161
 C        60.788651       79.840912       84.279648
 H        60.827911       79.770103       83.154449
 C        62.062538       79.873856       84.936844
 H        63.002258       79.636452       84.426094
 C        62.075890       80.220505       86.260880
 H        63.102783       80.227173       86.655792
 C        60.896217       80.591988       86.938797
 H        60.969467       80.881927       87.941422
 C        54.668404       84.720505       83.515259
 C        55.456535       85.675247       82.984009
 N        55.375916       83.939987       84.406792
 C        56.649147       84.461990       84.576836
 N        56.686874       85.586502       83.745117
 C        58.020378       86.185059       83.599884
 C        58.915138       85.910721       84.600647
 C        60.075615       86.747009       84.730637
 H        60.585793       86.652145       85.670700
 C        60.386105       87.714340       83.775238
 H        61.312973       88.319504       83.855179
 C        59.546669       87.915482       82.698441
 H        59.903168       88.523453       81.837120
 C        58.328949       87.192062       82.614105
 H        57.631653       87.439133       81.884567
 C        54.962250       86.382881       81.819305
 H        55.544514       87.224823       81.519135
 C        53.744644       86.155449       81.260109
 H        53.617928       86.182503       80.204025
 C        52.858467       85.273178       81.984322
 H        51.770741       85.306641       81.895828
 C        53.318932       84.530853       83.089417
 H        52.681343       83.762115       83.465607
 C        54.724014       82.880936       85.191536
 C        55.275105       81.594040       85.191490
 H        55.929676       81.208282       84.449051
 C        54.886909       80.710693       86.185730
 H        55.250664       79.655258       86.075089
 C        53.990406       81.091141       87.222855
 H        54.008629       80.458923       88.147392
 C        53.341740       82.308670       87.105568
 H        52.657013       82.570793       87.846474
 C        53.730270       83.211281       86.116714
 H        53.325787       84.210815       86.058189
 C        60.697166       82.649826       82.034531
 C        61.681801       83.073776       82.871597
 N        59.481552       82.764801       82.778091
 C        59.580730       83.181145       84.033005
 N        60.982639       83.271729       84.178070
 C        61.425140       83.618378       85.475037
 C        60.479996       83.985687       86.376297
 C        60.898750       84.525696       87.614502
 H        60.090115       84.775085       88.297226
 C        62.261009       84.716080       87.925301
 H        62.492302       85.348404       88.733002
 C        63.222946       84.279800       86.972443
 H        64.292755       84.483658       87.253433
 C        62.885681       83.722092       85.755348
 H        63.640640       83.268585       85.174866
 C        62.925064       83.368347       82.407547
 H        63.596390       83.968262       83.043152
 C        63.274742       83.160759       81.120407
 H        64.371582       83.354843       80.876724
 C        62.376610       82.585411       80.225060
 H        62.655067       82.357498       79.238434
 C        61.083092       82.344391       80.686478
 H        60.377266       81.793030       80.139481
 C        58.271439       82.831589       82.019951
 C        58.065186       83.851303       81.132637
 H        58.780746       84.692581       81.198433
 C        56.940559       83.968536       80.300018
 H        56.799042       84.828857       79.644867
 C        55.872166       83.095749       80.518150
 H        54.912949       83.588783       80.560745
 C        56.115097       81.965851       81.351471
 H        55.334869       81.244049       81.531326
 C        57.272373       81.880943       82.066238
 H        57.357101       80.926605       82.615387
 Ir       58.473057       84.058609       96.657204
 C        59.998436       81.739990      100.031357
 C        58.808559       81.184448       99.753014
 N        60.281067       82.677277       99.110916
 C        59.232109       82.854584       98.207123
 N        58.337074       81.941788       98.632011
 C        57.144936       81.747421       97.841171
 C        56.780891       82.800278       96.993904
 C        55.501801       82.704567       96.413071
 H        55.160545       83.604218       95.927200
 C        54.615162       81.607178       96.494377
 H        53.587906       81.654037       96.093689
 C        54.972763       80.569748       97.398392
 H        54.307346       79.779312       97.333282
 C        56.205956       80.595749       98.045822
 H        56.394783       79.858337       98.815674
 C        58.289406       80.306496      100.736206
 H        57.202736       80.187088      100.823288
 C        59.097862       79.860764      101.798431
 H        58.688072       79.319794      102.609055
 C        60.399673       80.305710      101.945084
 H        61.067348       79.891083      102.681549
 C        60.835960       81.318901      101.077835
 H        61.779793       81.726883      101.267914
 C        61.111626       83.824844       99.411369
 C        60.614155       84.917801      100.102798
 H        59.722794       84.881714      100.585876
 C        61.359413       86.089615      100.321777
 H        61.023666       86.778900      101.035538
 C        62.698837       86.140717       99.793839
 H        63.110359       87.127182       99.805054
 C        63.086205       85.093552       98.945312
 H        64.087524       85.139267       98.457993
 C        62.325134       83.934479       98.793320
 H        62.600922       83.203964       98.082191
 C        59.419258       81.696487       93.230377
 C        59.066643       82.851517       92.723160
 N        59.315792       81.801643       94.608551
 C        58.849094       82.958847       94.993500
 N        58.616913       83.592529       93.853973
 C        57.780937       84.765823       93.944191
 C        57.321346       85.077789       95.236298
 C        56.265831       85.918655       95.340836
 H        55.917732       86.270218       96.335289
 C        55.632683       86.414841       94.198456
 H        54.671967       86.870148       94.376251
 C        56.132843       86.214188       92.914185
 H        55.478592       86.294449       92.072746
 C        57.205017       85.408737       92.756088
 H        57.385548       85.027145       91.805412
 C        59.332230       83.182022       91.373627
 H        59.237015       84.229233       90.976028
 C        59.991165       82.291641       90.541519
 H        60.285652       82.434250       89.491257
 C        60.416439       81.072296       91.088562
 H        60.807777       80.409615       90.461983
 C        60.219131       80.800720       92.408676
 H        60.911846       80.171860       92.906662
 C        59.861710       80.801178       95.479843
 C        61.229549       80.862946       95.879089
 H        61.965912       81.452133       95.321487
 C        61.697762       80.068230       96.948204
 H        62.797676       79.900345       97.071091
 C        60.807274       79.163589       97.603989
 H        61.171844       78.586060       98.459595
 C        59.478603       79.022095       97.190331
 H        58.862381       78.184799       97.587585
 C        59.012253       79.922745       96.150787
 H        58.018700       79.849060       95.807831
 C        61.552620       87.127792       96.553223
 C        60.640312       87.586029       97.498703
 N        61.015984       85.955505       95.988022
 C        59.808891       85.643646       96.548981
 N        59.586761       86.634979       97.475479
 C        58.298916       86.615128       98.185806
 C        57.761051       85.302032       98.236679
 C        56.883987       84.947548       99.264297
 H        56.331066       84.051590       99.235352
 C        56.549141       85.920761      100.151215
 H        56.006020       85.631737      101.072075
 C        57.025574       87.219986      100.079514
 H        56.554634       87.933517      100.714951
 C        57.824081       87.610306       99.077301
 H        57.996670       88.610168       98.795197
 C        60.890602       88.858864       98.130966
 H        60.255188       89.310493       98.859444
 C        62.029045       89.546722       97.752533
 H        62.108261       90.506729       98.214279
 C        62.954620       89.053070       96.858719
 H        64.063873       89.358139       96.811844
 C        62.715233       87.869598       96.240417
 H        63.417526       87.545456       95.460213
 C        61.487740       85.322311       94.729965
 C        62.400291       84.233414       94.741806
 H        62.644211       83.875092       95.749680
 C        62.947151       83.711937       93.562347
 H        63.326820       82.733955       93.545242
 C        62.628632       84.384888       92.324814
 H        62.972061       83.926666       91.415222
 C        61.732254       85.407532       92.251770
 H        61.221039       85.517410       91.295166
 C        61.168133       85.896271       93.475159
 H        60.571381       86.782928       93.386726
