206
 generated by VMD
  IR        51.990002       28.940001       26.480000
  C1        49.259998       32.279999       25.620001
  C2        50.279999       32.570000       24.809999
  N1        49.560001       31.100000       26.389999
  C3a       50.720001       30.549999       25.940001
  N2        51.150002       31.389999       24.980000
  C4        52.549999       31.230000       24.709999
  C5a       53.250000       30.370001       25.540001
  C6        54.619999       30.270000       25.440001
  H1        55.080002       29.940001       26.330000
  C7        55.330002       30.980000       24.480000
  H2        56.360001       30.830000       24.299999
  C8        54.630001       31.719999       23.520000
  H3        55.150002       32.160000       22.750000
  C9        53.259998       31.930000       23.629999
  H4        52.689999       32.500000       22.950001
  C10       50.200001       33.619999       23.969999
  H5        51.009998       33.799999       23.370001
  C11       49.110001       34.540001       23.930000
  H6        49.060001       35.340000       23.219999
  C12       48.029999       34.310001       24.840000
  H7        47.169998       34.970001       24.930000
  C13       48.080002       33.130001       25.650000
  H8        47.169998       32.869999       26.160000
  C6        48.950001       30.670000       27.629999
  C1        48.139999       29.540001       27.620001
  H1        47.689999       29.250000       26.650000
  C2        47.630001       29.010000       28.870001
  H2        47.259998       27.950001       28.980000
  C3        47.860001       29.709999       30.100000
  H3        47.509998       29.340000       31.070000
  C4        48.549999       30.889999       30.030001
  H4        48.680000       31.330000       31.030001
  C5        49.070000       31.370001       28.809999
  H5        49.619999       32.259998       28.820000
  C1        52.020000       26.590000       22.809999
  C2        52.810001       25.870001       23.629999
  N1        51.520000       27.700001       23.459999
  C3b       52.090000       27.799999       24.719999
  N2        52.950001       26.700001       24.809999
  C4        53.509998       26.480000       26.150000
  C5b       53.529999       27.570000       26.980000
  C6        54.389999       27.540001       28.129999
  H1        54.560001       28.500000       28.580000
  C7        55.070000       26.379999       28.500000
  H2        55.689999       26.350000       29.420000
  C8        54.959999       25.240000       27.730000
  H3        55.320000       24.270000       28.139999
  C9        54.220001       25.280001       26.520000
  H4        54.250000       24.469999       25.870001
  C10       53.169998       24.530001       23.209999
  H5        53.910000       24.049999       23.809999
  C11       52.779999       23.980000       22.030001
  H6        52.520000       22.950001       21.969999
  C12       52.110001       24.860001       21.100000
  H7        52.099998       24.700001       20.020000
  C13       51.700001       26.150000       21.490000
  H8        51.049999       26.680000       20.830000
  C6        50.700001       28.700001       22.760000
  C1        49.470001       29.080000       23.309999
  H1        48.910000       28.510000       24.010000
  C2        48.880001       30.250000       22.860001
  H2        47.840000       30.450001       23.230000
  C3        49.509998       31.090000       21.900000
  H3        49.150002       32.150002       21.860001
  C4        50.639999       30.610001       21.260000
  H4        51.080002       31.209999       20.530001
  C5        51.250000       29.440001       21.709999
  H5        52.189999       29.090000       21.309999
  C1        49.730000       26.090000       28.920000
  C2        50.380001       26.840000       29.850000
  N1        50.020000       26.700001       27.660000
  C3c       50.759998       27.799999       27.680000
  N2        50.910000       28.000000       29.070000
  C4        51.599998       29.180000       29.430000
  C5c       52.180000       29.889999       28.430000
  C6        53.040001       30.959999       28.770000
  H1        53.450001       31.500000       27.920000
  C7        53.330002       31.290001       30.110001
  H2        54.160000       31.910000       30.290001
  C8        52.669998       30.549999       31.129999
  H3        52.959999       30.830000       32.180000
  C9        51.799999       29.510000       30.870001
  H4        51.220001       29.120001       31.660000
  C10       50.560001       26.389999       31.120001
  H5        51.320000       26.879999       31.750000
  C11       50.020000       25.230000       31.549999
  H6        50.160000       25.010000       32.660000
  C12       49.209999       24.469999       30.709999
  H7        48.730000       23.600000       31.049999
  C13       49.080002       24.900000       29.389999
  H8        48.389999       24.480000       28.719999
  C6        49.860001       25.879999       26.500000
  C1        50.599998       24.740000       26.350000
  H1        51.439999       24.620001       27.059999
  C2        50.470001       23.840000       25.280001
  H2        51.119999       22.969999       25.180000
  C3        49.669998       24.219999       24.200001
  H3        50.139999       24.070000       23.240000
  C4        48.810001       25.340000       24.389999
  H4        48.150002       25.660000       23.600000
  C5        48.939999       26.120001       25.500000
  H5        48.169998       26.910000       25.549999
  IR        54.980000       39.630001       25.780001
  C1        53.680000       43.590000       27.090000
  C2        53.049999       43.400002       25.920000
  N1        54.340000       42.470001       27.430000
  C3a       54.250000       41.490002       26.440001
  N2        53.470001       42.090000       25.520000
  C4        53.049999       41.310001       24.379999
  C5a       53.830002       40.189999       24.070000
  C6        53.560001       39.580002       22.830000
  H1        54.290001       38.849998       22.520000
  C7        52.509998       39.900002       21.940001
  H2        52.430000       39.439999       20.940001
  C8        51.759998       41.070000       22.240000
  H3        50.970001       41.180000       21.580000
  C9        51.980000       41.759998       23.430000
  H4        51.480000       42.709999       23.570000
  C10       52.459999       44.549999       25.340000
  H5        52.349998       44.599998       24.250000
  C11       52.330002       45.740002       26.080000
  H6        52.020000       46.639999       25.620001
  C12       52.820000       45.840000       27.370001
  H7        52.630001       46.700001       27.990000
  C13       53.570000       44.759998       27.860001
  H8        54.029999       44.889999       28.790001
  C6        55.540001       42.500000       28.240000
  C1        56.770000       42.840000       27.700001
  H1        56.849998       43.259998       26.780001
  C2        57.970001       42.779999       28.430000
  H2        58.820000       43.259998       28.049999
  C3        57.900002       42.340000       29.799999
  H3        58.860001       42.110001       30.209999
  C4        56.669998       41.830002       30.240000
  H4        56.599998       41.410000       31.270000
  C5        55.500000       41.950001       29.490000
  H5        54.610001       41.480000       29.809999
  C1        51.799999       37.029999       26.940001
  C2        52.770000       36.209999       26.620001
  N1        52.270000       38.320000       26.750000
  C3b       53.480000       38.349998       26.260000
  N2        53.779999       37.070000       26.100000
  C4        54.919998       36.790001       25.260000
  C5b       55.560001       37.919998       24.719999
  C6        56.380001       37.730000       23.660000
  H1        56.980000       38.570000       23.250000
  C7        56.540001       36.459999       23.100000
  H2        57.009998       36.450001       22.129999
  C8        56.009998       35.310001       23.680000
  H3        55.849998       34.439999       23.080000
  C9        55.209999       35.439999       24.760000
  H4        54.590000       34.639999       25.000000
  C10       52.730000       34.840000       26.969999
  H5        53.630001       34.169998       26.900000
  C11       51.660000       34.320000       27.680000
  H6        51.520000       33.290001       28.040001
  C12       50.639999       35.200001       28.070000
  H7        49.840000       34.799999       28.500000
  C13       50.730000       36.529999       27.790001
  H8        50.270000       37.220001       28.450001
  C6        51.549999       39.459999       27.240000
  C1        51.740002       39.910000       28.580000
  H1        52.169998       39.259998       29.350000
  C2        51.270000       41.180000       28.980000
  H2        51.160000       41.410000       30.070000
  C3        50.560001       42.000000       28.049999
  H3        50.240002       43.000000       28.360001
  C4        50.290001       41.560001       26.750000
  H4        49.580002       42.130001       26.110001
  C5        50.869999       40.290001       26.350000
  H5        50.689999       39.919998       25.379999
  C1        57.959999       38.889999       28.860001
  C2        58.639999       39.619999       27.889999
  N1        56.669998       38.630001       28.360001
  C3c       56.500000       39.180000       27.120001
  N2        57.700001       39.790001       26.840000
  C4        57.849998       40.400002       25.510000
  C5c       56.590000       40.770000       24.969999
  C6        56.509998       41.799999       24.030001
  H1        55.630001       41.980000       23.480000
  C7        57.680000       42.369999       23.639999
  H2        57.639999       43.299999       23.040001
  C8        58.919998       41.980000       24.120001
  H3        59.770000       42.369999       23.610001
  C9        59.040001       40.959999       24.980000
  H4        59.930000       40.430000       25.170000
  C10       60.040001       39.900002       28.100000
  H5        60.660000       40.439999       27.420000
  C11       60.619999       39.419998       29.260000
  H6        61.669998       39.610001       29.309999
  C12       59.919998       38.750000       30.240000
  H7        60.220001       38.689999       31.350000
  C13       58.610001       38.459999       30.040001
  H8        58.099998       37.840000       30.790001
  C6        55.730000       37.619999       28.910000
  C1        54.700001       37.980000       29.820000
  H1        54.630001       39.060001       30.000000
  C2        53.889999       37.020000       30.440001
  H2        52.950001       37.290001       30.820000
  C3        54.200001       35.630001       30.200001
  H3        53.520000       34.900002       30.600000
  C4        55.150002       35.230000       29.309999
  H4        54.990002       34.250000       28.860001
  C5        55.939999       36.240002       28.670000
  H5        56.759998       35.880001       28.080000
