206
 generated by VMD
  IR        31.930000        8.760000       50.189999
  C1        32.869999       11.690000       47.049999
  C2        32.200001       10.680000       46.419998
  N1        33.020000       11.290000       48.430000
  C3a       32.410000       10.060000       48.650002
  N2        31.840000        9.760000       47.430000
  C4        31.040001        8.610000       47.419998
  C5a       31.160000        7.800000       48.520000
  C6        30.719999        6.460000       48.540001
  H1        31.090000        5.750000       49.299999
  C7        30.040001        6.020000       47.430000
  H2        29.360001        5.150000       47.480000
  C8        29.870001        6.800000       46.279999
  H3        29.420000        6.280000       45.389999
  C9        30.379999        8.080000       46.299999
  H4        29.750000        8.700000       45.720001
  C10       31.770000       10.890000       45.049999
  H5        31.410000       10.120000       44.360001
  C11       31.879999       12.150000       44.540001
  H6        31.459999       12.410000       43.570000
  C12       32.509998       13.180000       45.220001
  H7        32.570000       14.170000       44.820000
  C13       33.090000       12.950000       46.450001
  H8        33.889999       13.630000       46.540001
  C6        33.919998       12.010000       49.369999
  C1        33.490002       12.990000       50.250000
  H1        32.470001       13.020000       50.549999
  C2        34.520000       13.710000       50.889999
  H2        34.189999       14.610000       51.290001
  C3        35.880001       13.530000       50.680000
  H3        36.570000       14.210000       51.139999
  C4        36.290001       12.550000       49.720001
  H4        37.270000       12.400000       49.330002
  C5        35.320000       11.740000       49.139999
  H5        35.660000       11.030000       48.490002
  C1        27.879999        9.920000       51.119999
  C2        28.120001        8.850000       51.959999
  N1        28.990000       10.130000       50.240002
  C3b       29.950001        9.210000       50.570000
  N2        29.330000        8.370000       51.520000
  C4        29.969999        7.140000       51.759998
  C5b       31.370001        7.250000       51.529999
  C6        32.189999        6.230000       52.049999
  H1        33.299999        6.420000       52.060001
  C7        31.680000        5.170000       52.830002
  H2        32.250000        4.350000       53.169998
  C8        30.309999        5.130000       53.070000
  H3        29.870001        4.510000       53.790001
  C9        29.469999        6.060000       52.540001
  H4        28.459999        5.980000       52.840000
  C10       27.150000        8.580000       52.980000
  H5        27.260000        7.740000       53.549999
  C11       26.000000        9.300000       53.040001
  H6        25.219999        9.150000       53.750000
  C12       25.760000       10.380000       52.200001
  H7        24.770000       10.810000       52.270000
  C13       26.700001       10.740000       51.189999
  H8        26.629999       11.660000       50.619999
  C6        29.090000       11.070000       49.070000
  C1        29.700001       12.320000       49.180000
  H1        30.309999       12.620000       50.020000
  C2        29.480000       13.210000       48.139999
  H2        30.219999       13.980000       48.180000
  C3        28.809999       12.860000       46.970001
  H3        28.490000       13.510000       46.160000
  C4        28.400000       11.560000       46.840000
  H4        27.910000       11.150000       45.990002
  C5        28.510000       10.690000       47.869999
  H5        27.840000        9.810000       47.830002
  C1        33.790001       10.680000       53.580002
  C2        34.840000       10.110000       52.919998
  N1        32.660000       10.400000       52.880001
  C3c       32.889999        9.710000       51.740002
  N2        34.259998        9.540000       51.700001
  C4        34.810001        8.820000       50.520000
  C5c       33.849998        7.980000       49.889999
  C6        34.189999        6.920000       49.040001
  H1        33.459999        6.420000       48.520000
  C7        35.549999        6.560000       48.880001
  H2        35.860001        5.750000       48.279999
  C8        36.500000        7.290000       49.549999
  H3        37.500000        7.080000       49.279999
  C9        36.169998        8.420000       50.310001
  H4        37.029999        9.020000       50.700001
  C10       36.169998       10.190000       53.450001
  H5        37.020000        9.710000       52.959999
  C11       36.400002       10.830000       54.650002
  H6        37.459999       10.870000       54.919998
  C12       35.360001       11.520000       55.240002
  H7        35.560001       12.070000       56.189999
  C13       34.099998       11.470000       54.700001
  H8        33.259998       11.890000       55.250000
  C6        31.350000       10.800000       53.270000
  C1        30.719999       11.980000       52.840000
  H1        31.209999       12.620000       52.090000
  C2        29.480000       12.400000       53.380001
  H2        28.990000       13.210000       52.880001
  C3        28.850000       11.600000       54.400002
  H3        27.950001       12.030000       54.889999
  C4        29.469999       10.430000       54.820000
  H4        29.190001       10.010000       55.779999
  C5        30.690001       10.040000       54.270000
  H5        31.020000        9.070000       54.490002
  IR        38.480000       16.750000       55.349998
  C1        42.610001       17.740000       54.320000
  C2        41.930000       17.639999       53.099998
  N1        41.700001       17.350000       55.310001
  C3a       40.389999       17.160000       54.779999
  N2        40.549999       17.360001       53.389999
  C4        39.389999       17.260000       52.610001
  C5a       38.209999       17.260000       53.320000
  C6        37.000000       17.510000       52.709999
  H1        36.110001       17.719999       53.259998
  C7        36.910000       17.719999       51.330002
  H2        36.000000       17.809999       50.849998
  C8        38.060001       17.600000       50.509998
  H3        38.080002       17.379999       49.400002
  C9        39.360001       17.469999       51.180000
  H4        40.299999       17.400000       50.619999
  C10       42.709999       17.830000       51.950001
  H5        42.189999       17.969999       50.950001
  C11       44.070000       18.160000       51.939999
  H6        44.599998       18.090000       51.090000
  C12       44.639999       18.330000       53.180000
  H7        45.599998       18.700001       53.189999
  C13       43.900002       18.120001       54.360001
  H8        44.299999       18.250000       55.360001
  C6        42.150002       16.680000       56.509998
  C1        42.810001       15.410000       56.310001
  H1        43.070000       15.060000       55.299999
  C2        43.310001       14.840000       57.509998
  H2        43.509998       13.830000       57.580002
  C3        43.240002       15.500000       58.759998
  H3        43.660000       15.030000       59.630001
  C4        42.700001       16.760000       58.849998
  H4        42.529999       17.219999       59.820000
  C5        42.090000       17.340000       57.720001
  H5        41.950001       18.389999       57.630001
  C1        36.849998       20.680000       55.029999
  C2        35.740002       19.920000       55.279999
  N1        37.980000       19.879999       55.430000
  C3b       37.570000       18.590000       55.740002
  N2        36.220001       18.590000       55.709999
  C4        35.610001       17.330000       55.980000
  C5b       36.450001       16.219999       55.680000
  C6        35.950001       14.940000       55.889999
  H1        36.630001       14.090000       55.799999
  C7        34.720001       14.790000       56.430000
  H2        34.160000       13.850000       56.500000
  C8        33.900002       15.910000       56.759998
  H3        32.939999       15.770000       57.180000
  C9        34.369999       17.209999       56.470001
  H4        33.599998       17.990000       56.580002
  C10       34.459999       20.450001       55.049999
  H5        33.599998       19.780001       55.290001
  C11       34.320000       21.760000       54.590000
  H6        33.310001       22.010000       54.240002
  C12       35.439999       22.530001       54.279999
  H7        35.480000       23.520000       53.779999
  C13       36.730000       21.990000       54.580002
  H8        37.570000       22.650000       54.310001
  C6        39.299999       20.459999       55.849998
  C1        39.419998       21.030001       57.130001
  H1        38.610001       21.340000       57.689999
  C2        40.630001       21.620001       57.480000
  H2        40.759998       21.860001       58.480000
  C3        41.680000       21.760000       56.570000
  H3        42.669998       22.049999       56.889999
  C4        41.549999       21.250000       55.279999
  H4        42.400002       21.030001       54.619999
  C5        40.349998       20.590000       54.889999
  H5        40.400002       19.980000       54.040001
  C1        39.340000       15.270000       59.400002
  C2        39.770000       14.300000       58.520000
  N1        38.669998       16.209999       58.549999
  C3c       38.820000       15.910000       57.220001
  N2        39.459999       14.680000       57.220001
  C4        39.759998       14.140000       55.930000
  C5c       39.000000       14.790000       54.939999
  C6        38.910000       14.190000       53.660000
  H1        38.119999       14.430000       52.939999
  C7        39.590000       13.030000       53.369999
  H2        39.360001       12.580000       52.419998
  C8        40.330002       12.310000       54.340000
  H3        40.900002       11.500000       53.990002
  C9        40.470001       12.890000       55.599998
  H4        41.169998       12.460000       56.360001
  C10       40.529999       13.180000       59.000000
  H5        40.430000       12.230000       58.459999
  C11       40.930000       13.170000       60.349998
  H6        41.720001       12.480000       60.619999
  C12       40.430000       14.110000       61.230000
  H7        40.610001       14.050000       62.299999
  C13       39.570000       15.170000       60.759998
  H8        39.340000       15.940000       61.480000
  C6        38.180000       17.430000       59.180000
  C1        39.110001       18.350000       59.709999
  H1        40.160000       18.250000       59.689999
  C2        38.660000       19.600000       60.139999
  H2        39.320000       20.410000       60.310001
  C3        37.279999       19.920000       60.009998
  H3        36.930000       20.740000       60.610001
  C4        36.389999       19.010000       59.570000
  H4        35.369999       19.330000       59.480000
  C5        36.810001       17.730000       59.139999
  H5        35.959999       17.090000       58.830002
