206
 generated by VMD
  IR         3.920000       26.860001       10.530000
  C1         5.990000       30.209999       12.320000
  C2         5.480000       29.500000       13.350000
  N1         5.360000       29.750000       11.210000
  C3a        4.560000       28.610001       11.420000
  N2         4.530000       28.549999       12.840000
  C4         3.800000       27.420000       13.390000
  C5a        3.210000       26.600000       12.470000
  C6         2.420000       25.540001       12.930000
  H1         1.870000       24.879999       12.280000
  C7         2.290000       25.240000       14.300000
  H2         1.820000       24.270000       14.510000
  C8         2.900000       26.080000       15.270000
  H3         3.090000       25.730000       16.250000
  C9         3.570000       27.190001       14.830000
  H4         3.700000       27.940001       15.630000
  C10        5.910000       29.920000       14.720000
  H5         5.510000       29.510000       15.570000
  C11        6.980000       30.820000       14.840000
  H6         7.210000       31.209999       15.800000
  C12        7.540000       31.480000       13.730000
  H7         8.220000       32.299999       13.890000
  C13        7.080000       31.180000       12.430000
  H8         7.540000       31.570000       11.590000
  C6         5.380000       30.500000        9.990000
  C1         4.270000       31.129999        9.620000
  H1         3.340000       31.059999       10.220000
  C2         4.040000       31.670000        8.340000
  H2         3.020000       31.920000        8.030000
  C3         5.100000       31.629999        7.400000
  H3         5.010000       32.090000        6.440000
  C4         6.280000       30.990000        7.820000
  H4         7.110000       30.940001        7.110000
  C5         6.430000       30.440001        9.050000
  H5         7.470000       30.469999        9.390000
  C1         7.070000       23.969999       11.510000
  C2         6.040000       23.160000       11.130000
  N1         6.650000       25.299999       11.460000
  C3b        5.350000       25.430000       11.050000
  N2         4.910000       24.100000       10.800000
  C4         3.610000       23.900000       10.260000
  C5b        2.960000       25.059999        9.890000
  C6         1.740000       24.950001        9.160000
  H1         1.120000       25.790001        8.940000
  C7         1.200000       23.680000        8.840000
  H2         0.160000       23.670000        8.400000
  C8         1.930000       22.510000        9.200000
  H3         1.690000       21.540001        8.960000
  C9         3.090000       22.610001       10.000000
  H4         3.380000       21.809999       10.680000
  C10        6.300000       21.809999       10.990000
  H5         5.620000       21.120001       10.520000
  C11        7.550000       21.240000       11.370000
  H6         7.790000       20.190001       11.330000
  C12        8.630000       22.030001       11.720000
  H7         9.600000       21.600000       11.800000
  C13        8.400000       23.430000       11.810000
  H8         9.190000       24.059999       12.250000
  C6         7.460000       26.340000       12.180000
  C1         7.710000       26.180000       13.470000
  H1         7.190000       25.480000       14.000000
  C2         8.610000       26.940001       14.210000
  H2         8.670000       26.709999       15.280000
  C3         9.290000       27.959999       13.550000
  H3        10.090000       28.410000       14.120000
  C4         9.080000       28.110001       12.170000
  H4         9.700000       28.670000       11.480000
  C5         8.140000       27.320000       11.540000
  H5         8.140000       27.290001       10.510000
  C1         4.740000       27.469999        6.370000
  C2         3.460000       27.969999        6.560000
  N1         5.080000       26.959999        7.540000
  C3c        4.220000       27.160000        8.540000
  N2         3.210000       27.820000        7.870000
  C4         2.250000       28.570000        8.750000
  C5c        2.270000       28.100000       10.080000
  C6         1.320000       28.600000       10.990000
  H1         1.390000       28.059999       11.890000
  C7         0.410000       29.549999       10.580000
  H2        -0.330000       29.980000       11.240000
  C8         0.360000       29.969999        9.260000
  H3        -0.360000       30.690001        8.910000
  C9         1.260000       29.480000        8.330000
  H4         1.340000       30.100000        7.420000
  C10        2.770000       28.559999        5.430000
  H5         1.810000       28.950001        5.380000
  C11        3.360000       28.570000        4.150000
  H6         2.860000       29.020000        3.280000
  C12        4.710000       28.160000        4.010000
  H7         5.080000       27.969999        3.010000
  C13        5.360000       27.549999        5.090000
  H8         6.410000       27.200001        5.010000
  C6         6.320000       26.260000        7.670000
  C1         7.590000       26.900000        7.670000
  H1         7.740000       27.980000        7.460000
  C2         8.790000       26.200001        7.920000
  H2         9.650000       26.709999        7.690000
  C3         8.680000       24.850000        8.200000
  H3         9.550000       24.219999        8.280000
  C4         7.500000       24.250000        8.230000
  H4         7.530000       23.209999        8.220000
  C5         6.320000       24.940001        8.030000
  H5         5.450000       24.430000        8.010000
  IR         8.920000       37.650002        7.680000
  C1         4.860000       37.169998        5.980000
  C2         4.880000       36.340000        7.070000
  N1         6.150000       37.730000        5.840000
  C3a        7.010000       37.250000        6.870000
  N2         6.190000       36.439999        7.580000
  C4         6.870000       35.680000        8.660000
  C5a        8.190000       36.080002        8.880000
  C6         8.990000       35.299999        9.720000
  H1        10.060000       35.570000        9.940000
  C7         8.500000       34.209999       10.460000
  H2         8.950000       33.869999       11.390000
  C8         7.200000       33.849998       10.180000
  H3         6.690000       33.099998       10.700000
  C9         6.420000       34.590000        9.300000
  H4         5.390000       34.490002        9.270000
  C10        3.690000       35.660000        7.410000
  H5         3.760000       34.939999        8.150000
  C11        2.500000       35.779999        6.670000
  H6         1.670000       35.220001        7.040000
  C12        2.540000       36.590000        5.500000
  H7         1.650000       37.000000        5.080000
  C13        3.750000       37.310001        5.200000
  H8         3.890000       37.939999        4.330000
  C6         6.410000       38.650002        4.760000
  C1         7.390000       38.330002        3.810000
  H1         7.860000       37.330002        3.960000
  C2         7.710000       39.209999        2.790000
  H2         8.500000       38.849998        2.120000
  C3         7.050000       40.470001        2.710000
  H3         7.290000       41.209999        2.020000
  C4         6.010000       40.720001        3.660000
  H4         5.820000       41.770000        3.730000
  C5         5.730000       39.810001        4.640000
  H5         4.900000       40.049999        5.290000
  C1         7.820000       40.509998       10.780000
  C2         9.170000       40.369999       10.900000
  N1         7.410000       39.570000        9.740000
  C3b        8.510000       38.950001        9.230000
  N2         9.570000       39.389999        9.880000
  C4        10.790000       38.869999        9.510000
  C5b       10.750000       37.799999        8.600000
  C6        11.950000       37.070000        8.320000
  H1        11.860000       36.080002        7.840000
  C7        13.160000       37.419998        8.900000
  H2        14.050000       37.000000        8.480000
  C8        13.140000       38.459999        9.880000
  H3        14.020000       38.720001       10.380000
  C9        11.990000       39.169998       10.160000
  H4        12.040000       40.200001       10.540000
  C10        9.860000       41.049999       11.960000
  H5        10.890000       40.830002       12.130000
  C11        9.180000       41.950001       12.820000
  H6         9.680000       42.270000       13.720000
  C12        7.810000       41.900002       12.810000
  H7         7.270000       42.520000       13.460000
  C13        7.110000       41.160000       11.810000
  H8         6.070000       40.930000       12.000000
  C6         6.070000       39.240002        9.480000
  C1         5.350000       40.099998        8.650000
  H1         5.850000       40.759998        7.910000
  C2         3.970000       40.090000        8.670000
  H2         3.420000       40.750000        7.990000
  C3         3.240000       39.259998        9.520000
  H3         2.180000       39.509998        9.590000
  C4         3.890000       38.380001       10.320000
  H4         3.390000       37.759998       10.980000
  C5         5.300000       38.380001       10.330000
  H5         5.820000       37.860001       11.140000
  C1        10.170000       40.520000        4.620000
  C2        10.700000       39.270000        4.130000
  N1         9.600000       40.209999        5.870000
  C3c        9.640000       38.869999        6.130000
  N2        10.370000       38.270000        5.140000
  C4        10.590000       36.869999        5.330000
  C5c        9.690000       36.240002        6.250000
  C6         9.560000       34.849998        6.260000
  H1         8.880000       34.330002        6.950000
  C7        10.490000       34.110001        5.550000
  H2        10.550000       33.070000        5.700000
  C8        11.440000       34.730000        4.790000
  H3        12.290000       34.119999        4.450000
  C9        11.570000       36.090000        4.640000
  H4        12.110000       36.509998        3.810000
  C10       11.440000       39.330002        2.960000
  H5        11.960000       38.490002        2.440000
  C11       11.690000       40.509998        2.280000
  H6        12.400000       40.490002        1.480000
  C12       11.050000       41.700001        2.690000
  H7        11.050000       42.619999        2.080000
  C13       10.290000       41.700001        3.870000
  H8        10.130000       42.590000        4.420000
  C6         9.260000       41.279999        6.800000
  C1        10.190000       41.570000        7.730000
  H1        11.130000       41.130001        7.670000
  C2        10.030000       42.669998        8.590000
  H2        10.450000       42.529999        9.560000
  C3         8.930000       43.439999        8.480000
  H3         8.750000       44.340000        9.080000
  C4         7.960000       43.139999        7.490000
  H4         7.070000       43.730000        7.350000
  C5         8.140000       42.080002        6.660000
  H5         7.490000       41.919998        5.850000
