206
 generated by VMD
 Ir       78.165436       58.607803     -110.866776
 C        77.818726       60.995964     -114.617813
 C        79.107018       60.540924     -114.544724
 N        77.217140       60.621887     -113.364388
 C        78.151840       59.824272     -112.580658
 N        79.287804       59.862255     -113.350563
 C        80.450523       59.634544     -112.502724
 C        80.169434       59.105270     -111.259079
 C        81.249725       58.966995     -110.339058
 H        81.138657       58.468906     -109.397110
 C        82.511414       59.440125     -110.673264
 H        83.197578       59.369415     -109.937881
 C        82.790985       60.080627     -111.870804
 H        83.652847       60.712303     -111.913094
 C        81.780731       60.165115     -112.791039
 H        82.105591       60.241203     -113.844406
 C        79.904648       60.638069     -115.674530
 H        80.818741       60.124107     -115.783951
 C        79.473541       61.215698     -116.863091
 H        80.101593       61.382690     -117.705032
 C        78.183731       61.781967     -116.890068
 H        77.854195       62.267700     -117.821075
 C        77.326218       61.631027     -115.764771
 H        76.256973       61.830200     -115.805489
 C        75.846237       60.945442     -113.055786
 C        74.899689       59.919746     -113.176186
 H        75.215103       59.025543     -113.639435
 C        73.647598       60.032211     -112.525787
 H        72.862633       59.306358     -112.691849
 C        73.389397       61.092247     -111.673401
 H        72.390991       61.143257     -111.130997
 C        74.390778       62.034378     -111.395157
 H        74.253098       62.717865     -110.556534
 C        75.616447       61.990219     -112.154816
 H        76.412758       62.712433     -112.029472
 C        79.361313       55.029488     -112.848480
 C        79.477158       54.678326     -111.505264
 N        78.793976       56.274673     -112.938728
 C        78.612907       56.760529     -111.694199
 N        79.003891       55.793571     -110.806152
 C        79.119415       56.239471     -109.453293
 C        78.609131       57.482925     -109.149277
 C        78.635559       57.972797     -107.825180
 H        78.021072       58.721252     -107.395386
 C        79.192352       57.197044     -106.807350
 H        79.099457       57.426971     -105.810051
 C        79.671509       55.976128     -107.077850
 H        79.790192       55.405350     -106.124313
 C        79.705582       55.501881     -108.415955
 H        79.982544       54.506325     -108.622986
 C        79.952484       53.475380     -111.051491
 H        79.632690       53.017994     -110.151703
 C        80.506027       52.653740     -112.061485
 H        80.941032       51.656086     -111.902565
 C        80.379852       52.944931     -113.394859
 H        80.775833       52.277817     -114.177704
 C        79.823532       54.116631     -113.819283
 H        79.697357       54.417702     -114.849014
 C        78.464409       56.930798     -114.172333
 C        79.496887       57.228973     -115.141716
 H        80.548721       57.266457     -114.876526
 C        79.128433       57.767693     -116.410034
 H        79.864182       57.767879     -117.180016
 C        77.809540       57.944263     -116.768799
 H        77.655457       58.244598     -117.862717
 C        76.846725       57.680984     -115.788040
 H        75.902855       58.203964     -115.989799
 C        77.124504       57.170979     -114.500900
 H        76.398712       57.075932     -113.729477
 C        74.114311       57.845634     -109.380684
 C        74.485901       58.968475     -108.815216
 N        75.083755       57.509232     -110.259262
 C        76.164047       58.410233     -110.250069
 N        75.763901       59.353973     -109.340874
 C        76.626251       60.466560     -109.094528
 C        77.896347       60.332672     -109.683960
 C        78.794418       61.459030     -109.610626
 H        79.719849       61.450195     -110.064178
 C        78.481087       62.637512     -108.907005
 H        79.173416       63.455643     -108.966568
 C        77.182861       62.720146     -108.374847
 H        76.982056       63.606758     -107.746361
 C        76.275543       61.659935     -108.471405
 H        75.230164       61.870781     -108.324783
 C        73.538857       59.639240     -108.009430
 H        73.531143       60.704582     -107.775368
 C        72.316597       59.087242     -107.657181
 H        71.826508       59.512325     -106.751205
 C        71.946220       57.856438     -108.259323
 H        70.978767       57.432343     -108.048897
 C        72.834152       57.261272     -109.093246
 H        72.451630       56.391762     -109.630402
 C        74.979294       56.320557     -111.036652
 C        75.836754       55.262260     -110.641617
 H        76.457039       55.528870     -109.728836
 C        75.863159       54.095383     -111.443428
 H        76.505409       53.263115     -111.197350
 C        75.161880       54.094391     -112.630951
 H        75.150078       53.183449     -113.183884
 C        74.476547       55.224648     -113.087616
 H        74.441345       55.493729     -114.145607
 C        74.328308       56.347916     -112.232346
 H        73.625229       57.104584     -112.454224
 Ir       78.165428       58.607803     -101.146317
 C        76.756760       57.376205      -97.260986
 C        77.231812       58.706123      -97.102722
 N        77.216576       57.007751      -98.462906
 C        77.771469       58.055061      -99.209991
 N        77.851303       59.080940      -98.292274
 C        78.397957       60.352558      -98.789124
 C        78.723419       60.380592     -100.164658
 C        79.003227       61.641647     -100.761932
 H        79.297806       61.752632     -101.807213
 C        78.892288       62.825569     -100.127640
 H        79.285873       63.759918     -100.533813
 C        78.477814       62.787712      -98.783401
 H        78.248917       63.717926      -98.213303
 C        78.226028       61.600082      -98.125938
 H        77.694870       61.623924      -97.188126
 C        76.920654       59.331188      -95.857780
 H        77.538834       60.065811      -95.488472
 C        76.148331       58.722984      -94.888855
 H        75.985901       59.202606      -93.906265
 C        75.684769       57.462112      -95.091843
 H        75.139252       56.971626      -94.325668
 C        75.964661       56.755280      -96.298889
 H        75.617599       55.773926      -96.393738
 C        77.363052       55.626572      -98.657043
 C        76.295883       54.724461      -98.760727
 H        75.317879       55.015282      -98.533722
 C        76.511696       53.349831      -98.933685
 H        75.722679       52.634903      -98.976601
 C        77.754143       52.798443      -98.987549
 H        77.909180       51.759720      -98.834198
 C        78.864075       53.639481      -98.967178
 H        79.841782       53.140030      -99.185417
 C        78.718445       55.033005      -98.798462
 H        79.587967       55.583279      -98.769943
 C        74.314751       59.814880     -102.708038
 C        75.105972       60.296974     -103.643219
 N        75.070198       59.327354     -101.645905
 C        76.409317       59.456680     -101.900749
 N        76.440567       60.049194     -103.153366
 C        77.710327       60.130470     -103.732681
 C        78.736900       59.439697     -103.004135
 C        80.081863       59.623863     -103.436623
 H        80.903519       59.399368     -102.865845
 C        80.436279       60.487564     -104.476097
 H        81.430161       60.621578     -104.881599
 C        79.406898       61.176178     -105.119278
 H        79.629349       61.648445     -106.101562
 C        78.063080       61.032707     -104.722031
 H        77.357452       61.647583     -105.170158
 C        74.611732       61.024376     -104.737526
 H        75.307541       61.426178     -105.510376
 C        73.233109       61.324577     -104.802277
 H        72.862045       61.826683     -105.687378
 C        72.353897       60.769058     -103.929245
 H        71.303734       61.041290     -103.941727
 C        72.919968       60.022026     -102.889297
 H        72.317184       59.524246     -102.207199
 C        74.545822       59.140846     -100.306702
 C        74.849419       60.231750      -99.499458
 H        75.486496       61.127258      -99.704147
 C        74.206726       60.186981      -98.213287
 H        74.247360       61.088852      -97.624481
 C        73.334091       59.160667      -97.843964
 H        72.999817       59.195068      -96.808022
 C        73.141479       58.037769      -98.678818
 H        72.507858       57.210999      -98.275482
 C        73.723328       58.006950      -99.940796
 H        73.808228       57.056046     -100.391991
 C        77.690071       54.575249     -102.813873
 C        78.955124       54.608788     -102.339096
 N        77.204880       55.839027     -102.664307
 C        78.086632       56.756142     -102.095444
 N        79.212074       55.982735     -101.938568
 C        80.335037       56.589455     -101.402420
 C        80.082100       57.805733     -100.709900
 C        81.138443       58.440125      -99.973755
 H        80.899757       59.092361      -99.106453
 C        82.406815       57.899673      -99.903496
 H        83.235870       58.507446      -99.557396
 C        82.610092       56.711739     -100.607475
 H        83.488792       56.180737     -100.553314
 C        81.602264       56.039925     -101.297272
 H        81.908936       55.132622     -101.798630
 C        79.739250       53.449688     -102.451569
 H        80.631432       53.335686     -101.895584
 C        79.262100       52.344269     -103.153610
 H        79.775192       51.356377     -103.239037
 C        77.937897       52.259842     -103.655045
 H        77.643967       51.659241     -104.451904
 C        77.161682       53.419678     -103.479050
 H        76.384811       53.424248     -104.194489
 C        75.954117       56.151833     -103.269241
 C        76.088196       56.661095     -104.606094
 H        77.055679       57.148438     -104.817253
 C        75.012970       56.978230     -105.376160
 H        75.124451       57.482494     -106.330826
 C        73.744202       56.770103     -104.826965
 H        72.900787       57.267204     -105.344696
 C        73.562820       56.190308     -103.573112
 H        72.632416       55.722977     -103.272369
 C        74.705963       55.937157     -102.738281
 H        74.696930       55.469952     -101.856613
