206
 generated by VMD
 Ir       69.984879       45.440620     -139.272949
 C        73.828651       47.230049     -138.581757
 C        73.149742       48.153770     -139.373657
 N        73.033554       46.119610     -138.444031
 C        71.792816       46.341347     -138.997925
 N        71.913376       47.633415     -139.535889
 C        70.676926       48.228699     -139.942993
 C        69.782753       47.246498     -140.300400
 C        68.689377       47.660614     -141.107025
 H        68.079880       46.795601     -141.505981
 C        68.447266       48.978203     -141.419983
 H        67.572517       49.380646     -141.945770
 C        69.265823       50.020554     -141.009064
 H        69.137985       50.977440     -141.440948
 C        70.388268       49.590485     -140.264893
 H        71.059570       50.288086     -139.818451
 C        73.788872       49.358074     -139.824051
 H        73.273048       49.997742     -140.475555
 C        75.104599       49.651505     -139.406845
 H        75.526627       50.676193     -139.536133
 C        75.770729       48.731064     -138.565674
 H        76.742447       48.948311     -138.120972
 C        75.124557       47.558105     -138.214630
 H        75.698532       46.867500     -137.715195
 C        73.400024       44.913750     -137.789520
 C        72.727570       44.628494     -136.580627
 H        72.167801       45.327927     -136.147095
 C        72.972000       43.394012     -135.935547
 H        72.599258       43.247559     -134.974854
 C        73.992256       42.536652     -136.482727
 H        74.172394       41.608559     -135.945801
 C        74.703033       42.869560     -137.621918
 H        75.313965       42.138332     -138.143616
 C        74.476074       44.088371     -138.222839
 H        75.181091       44.469761     -138.968826
 C        67.714554       47.356720     -136.095444
 C        66.791763       46.929691     -136.960144
 N        68.952728       47.087791     -136.635437
 C        68.827568       46.407692     -137.848907
 N        67.495361       46.374168     -138.035950
 C        66.981964       45.674751     -139.224991
 C        67.982422       44.839439     -139.795029
 C        67.563629       43.815414     -140.609009
 H        68.274529       43.122536     -141.013931
 C        66.229240       43.617210     -140.883118
 H        65.791550       42.909767     -141.554565
 C        65.284508       44.483780     -140.471237
 H        64.272018       44.396660     -140.719971
 C        65.675339       45.571053     -139.646393
 H        64.962051       46.276047     -139.437805
 C        65.367676       47.077873     -136.563873
 H        64.503677       47.166832     -137.252777
 C        65.002502       47.548920     -135.285034
 H        63.986290       47.794975     -135.108215
 C        66.008972       47.994987     -134.426270
 H        65.741508       48.332527     -133.444122
 C        67.378357       47.894104     -134.852051
 H        68.166161       48.383469     -134.274231
 C        70.252197       47.413292     -136.041855
 C        70.943703       48.551170     -136.522964
 H        70.752235       49.086037     -137.469086
 C        71.927948       49.095024     -135.747559
 H        72.206963       50.135201     -135.939362
 C        72.469467       48.469296     -134.623352
 H        73.288765       48.854404     -134.020233
 C        71.800056       47.315571     -134.167938
 H        72.324020       46.672806     -133.495850
 C        70.709961       46.831768     -134.911865
 H        70.158760       46.019691     -134.456665
 C        70.869431       41.559750     -137.526245
 C        71.549187       41.535156     -138.716690
 N        70.098625       42.735264     -137.544617
 C        70.283524       43.497772     -138.653946
 N        71.132721       42.750412     -139.388855
 C        71.479355       43.332481     -140.633026
 C        70.743355       44.488129     -140.998383
 C        70.727325       45.031746     -142.289398
 H        69.901230       45.649902     -142.583435
 C        71.582024       44.527344     -143.227875
 H        71.473404       44.748985     -144.263641
 C        72.351700       43.400124     -142.886139
 H        72.807739       42.867195     -143.690643
 C        72.337532       42.824799     -141.617096
 H        73.096375       42.029396     -141.357117
 C        72.333801       40.383896     -139.098343
 H        72.822983       40.353378     -140.063721
 C        72.317787       39.257225     -138.241745
 H        72.646515       38.288864     -138.634064
 C        71.671677       39.348343     -137.020630
 H        71.758774       38.496437     -136.338303
 C        70.938240       40.487213     -136.563965
 H        70.185257       40.406372     -135.748917
 C        68.829468       42.627998     -136.947006
 C        68.540504       43.528549     -135.910461
 H        69.277191       43.999046     -135.271545
 C        67.225914       43.493736     -135.400528
 H        66.857903       44.311089     -134.699738
 C        66.315414       42.542885     -135.853577
 H        65.335724       42.420036     -135.285400
 C        66.632217       41.686531     -136.928467
 H        65.881912       40.989113     -137.275635
 C        67.888680       41.714783     -137.503815
 H        68.015808       41.096008     -138.351379
 Ir       69.984879       45.440620     -126.224319
 C        65.799881       45.812534     -125.032417
 C        66.109337       44.609314     -124.549194
 N        66.871010       46.254257     -125.831589
 C        67.933243       45.411102     -125.810501
 N        67.482407       44.315418     -125.020050
 C        68.456635       43.168793     -124.922401
 C        69.761627       43.488213     -125.429428
 C        70.755463       42.464703     -125.418137
 H        71.751320       42.720787     -125.836685
 C        70.472122       41.204079     -124.883881
 H        71.214661       40.427444     -124.692314
 C        69.160080       40.960571     -124.367493
 H        68.934586       39.933609     -123.986061
 C        68.195320       41.974602     -124.386856
 H        67.198196       41.778305     -124.080215
 C        65.250000       43.959091     -123.758339
 H        65.308121       42.887383     -123.665802
 C        64.067261       44.550350     -123.322891
 H        63.207767       43.860214     -123.266418
 C        63.854210       45.851986     -123.698326
 H        63.000515       46.383553     -123.246628
 C        64.696114       46.454285     -124.669167
 H        64.418365       47.331524     -125.262543
 C        66.677818       47.285152     -126.945198
 C        65.955818       47.082039     -128.117874
 H        65.498810       46.075405     -128.321655
 C        65.587143       48.148384     -128.913910
 H        65.128975       48.050522     -129.854614
 C        65.876503       49.439980     -128.508667
 H        65.251297       50.244682     -128.892944
 C        66.670517       49.668152     -127.452972
 H        66.889282       50.652828     -127.090248
 C        67.121712       48.611290     -126.692993
 H        67.785439       48.870361     -125.857925
 C        71.709641       45.683968     -122.217751
 C        72.858086       45.556568     -123.011749
 N        70.580605       45.740761     -123.005760
 C        70.937141       45.721638     -124.388008
 N        72.304398       45.552399     -124.357040
 C        72.892532       45.296608     -125.643143
 C        72.008835       45.216797     -126.762436
 C        72.507339       45.084213     -128.057663
 H        71.744347       45.271049     -128.844635
 C        73.908226       44.936577     -128.240707
 H        74.267365       44.754059     -129.235809
 C        74.831520       44.953232     -127.102882
 H        75.861603       44.795753     -127.271835
 C        74.339874       45.199638     -125.817513
 H        74.992493       44.971706     -124.983345
 C        74.113815       45.458138     -122.474380
 H        74.977188       45.650513     -123.010353
 C        74.302460       45.499947     -121.100418
 H        75.307739       45.827553     -120.788353
 C        73.243408       45.744537     -120.270729
 H        73.392052       46.139488     -119.269722
 C        71.967979       45.763687     -120.885086
 H        71.122009       45.650864     -120.169197
 C        69.270302       46.041039     -122.539352
 C        68.701645       47.228310     -122.971001
 H        69.118057       47.912987     -123.712563
 C        67.392532       47.474548     -122.610321
 H        66.909073       48.419128     -122.772247
 C        66.647415       46.533333     -121.884155
 H        65.618477       46.687447     -121.793869
 C        67.214874       45.368126     -121.482712
 H        66.622955       44.520508     -121.293549
 C        68.576302       45.125160     -121.819885
 H        69.051636       44.171097     -121.651306
 C        70.926605       49.154343     -128.519531
 C        70.223946       48.325974     -129.371460
 N        70.899750       48.474491     -127.309738
 C        70.239601       47.237385     -127.293037
 N        69.708008       47.223824     -128.609634
 C        69.116348       45.988823     -129.017899
 C        69.309532       44.893951     -128.176147
 C        68.803917       43.627419     -128.584366
 H        68.703781       42.860809     -127.858841
 C        68.022583       43.465313     -129.771103
 H        67.322464       42.651787     -129.801102
 C        67.746796       44.632996     -130.549805
 H        67.153885       44.465599     -131.423370
 C        68.327957       45.902630     -130.195282
 H        68.324547       46.786522     -130.774780
 C        70.225616       48.600578     -130.753662
 H        69.631821       48.183571     -131.547897
 C        71.048660       49.577328     -131.228485
 H        70.766586       50.061615     -132.131805
 C        71.686203       50.424744     -130.323669
 H        72.528214       51.085632     -130.668991
 C        71.529854       50.222687     -128.951904
 H        71.951233       50.948906     -128.348862
 C        71.358665       49.018890     -126.122467
 C        72.574066       48.588463     -125.551117
 H        73.202332       47.942528     -126.110527
 C        72.874069       48.832581     -124.249039
 H        73.767479       48.334908     -123.866371
 C        72.116577       49.709808     -123.472580
 H        72.498871       50.095284     -122.560577
 C        70.923172       50.238297     -124.042732
 H        70.360970       51.038971     -123.588150
 C        70.501282       49.826492     -125.326683
 H        69.544167       50.105911     -125.707283
