206
 generated by VMD
  IR        36.320000       38.770000        5.570000
  C1        38.549999       35.070000        6.220000
  C2        39.169998       35.689999        5.170000
  N1        37.369999       35.790001        6.560000
  C3a       37.299999       36.959999        5.700000
  N2        38.380001       36.820000        4.800000
  C4        38.349998       37.650002        3.640000
  C5a       37.310001       38.610001        3.690000
  C6        37.020000       39.380001        2.530000
  H1        36.209999       40.099998        2.470000
  C7        37.650002       39.090000        1.310000
  H2        37.480000       39.779999        0.490000
  C8        38.540001       38.029999        1.190000
  H3        38.830002       37.610001        0.270000
  C9        38.910000       37.320000        2.330000
  H4        39.830002       36.810001        2.280000
  C10       40.459999       35.110001        4.760000
  H5        41.139999       35.639999        4.140000
  C11       41.110001       34.060001        5.450000
  H6        42.150002       33.750000        5.270000
  C12       40.439999       33.540001        6.550000
  H7        40.759998       32.680000        7.080000
  C13       39.160000       34.099998        6.880000
  H8        38.700001       33.689999        7.830000
  C6        36.270000       35.270000        7.260000
  C1        36.049999       35.650002        8.630000
  H1        36.630001       36.349998        9.160000
  C2        34.810001       35.290001        9.240000
  H2        34.389999       35.860001       10.040000
  C3        33.849998       34.650002        8.400000
  H3        32.959999       34.240002        8.840000
  C4        34.060001       34.250000        7.100000
  H4        33.360001       33.529999        6.650000
  C5        35.340000       34.540001        6.550000
  H5        35.610001       34.150002        5.580000
  C1        39.669998       41.529999        5.770000
  C2        38.619999       42.340000        5.630000
  N1        39.200001       40.220001        5.920000
  C3b       37.840000       40.180000        5.940000
  N2        37.459999       41.480000        5.770000
  C4        36.029999       41.709999        5.580000
  C5b       35.310001       40.570000        5.190000
  C6        34.130001       40.680000        4.490000
  H1        33.619999       39.810001        4.160000
  C7        33.619999       41.919998        4.180000
  H2        32.790001       41.970001        3.480000
  C8        34.189999       43.080002        4.610000
  H3        33.709999       44.009998        4.500000
  C9        35.439999       42.939999        5.300000
  H4        35.970001       43.849998        5.610000
  C10       38.759998       43.669998        5.280000
  H5        37.959999       44.259998        4.930000
  C11       40.060001       44.220001        5.170000
  H6        40.250000       45.270000        5.160000
  C12       41.169998       43.380001        5.320000
  H7        42.189999       43.730000        5.070000
  C13       40.939999       42.029999        5.580000
  H8        41.799999       41.380001        5.710000
  C6        40.009998       39.230000        6.540000
  C1        39.619999       38.630001        7.690000
  H1        38.910000       39.160000        8.270000
  C2        40.290001       37.529999        8.160000
  H2        40.150002       37.290001        9.180000
  C3        41.389999       37.000000        7.450000
  H3        41.840000       36.080002        7.750000
  C4        41.790001       37.630001        6.260000
  H4        42.730000       37.430000        5.690000
  C5        41.060001       38.709999        5.830000
  H5        41.480000       39.299999        5.070000
  C1        33.810001       38.750000        9.170000
  C2        33.000000       38.270000        8.260000
  N1        35.029999       39.169998        8.570000
  C3c       35.070000       38.779999        7.230000
  N2        33.730000       38.259998        7.050000
  C4        33.529999       37.730000        5.780000
  C5c       34.669998       37.630001        4.950000
  C6        34.700001       36.740002        3.900000
  H1        35.639999       36.810001        3.370000
  C7        33.610001       36.070000        3.500000
  H2        33.630001       35.450001        2.620000
  C8        32.439999       36.099998        4.250000
  H3        31.610001       35.509998        3.970000
  C9        32.400002       36.900002        5.420000
  H4        31.530001       36.910000        5.970000
  C10       31.750000       37.830002        8.690000
  H5        31.150000       37.330002        7.940000
  C11       31.290001       38.009998       10.020000
  H6        30.340000       37.669998       10.310000
  C12       32.119999       38.580002       10.990000
  H7        31.700001       38.720001       11.950000
  C13       33.380001       38.939999       10.550000
  H8        33.980000       39.310001       11.310000
  C6        36.029999       39.980000        9.270000
  C1        36.720001       39.410000       10.360000
  H1        36.410000       38.369999       10.670000
  C2        37.680000       40.189999       10.950000
  H2        38.310001       39.790001       11.740000
  C3        37.939999       41.509998       10.510000
  H3        38.549999       42.020000       11.250000
  C4        37.169998       42.119999        9.550000
  H4        36.990002       43.189999        9.570000
  C5        36.259998       41.340000        8.910000
  H5        35.560001       41.860001        8.330000
  IR        32.919998       44.060001       17.240000
  C1        32.000000       39.820000       16.320000
  C2        32.490002       39.830002       17.610001
  N1        32.020000       41.139999       15.910000
  C3a       32.650002       42.009998       16.889999
  N2        32.880001       41.189999       17.889999
  C4        33.480000       41.750000       18.980000
  C5a       33.509998       43.169998       19.040001
  C6        34.099998       43.810001       20.170000
  H1        34.110001       44.910000       20.120001
  C7        34.759998       43.080002       21.170000
  H2        35.180000       43.580002       22.049999
  C8        34.799999       41.700001       21.110001
  H3        35.259998       41.200001       21.879999
  C9        34.169998       41.049999       20.080000
  H4        34.250000       39.970001       20.129999
  C10       32.389999       38.680000       18.360001
  H5        32.580002       38.610001       19.490000
  C11       31.840000       37.490002       17.809999
  H6        31.650000       36.700001       18.400000
  C12       31.459999       37.459999       16.440001
  H7        31.200001       36.560001       15.940000
  C13       31.459999       38.700001       15.650000
  H8        31.320000       38.580002       14.580000
  C6        31.830000       41.500000       14.480000
  C1        32.939999       41.330002       13.650000
  H1        33.790001       40.740002       13.920000
  C2        32.840000       41.779999       12.310000
  H2        33.750000       41.980000       11.770000
  C3        31.610001       42.270000       11.820000
  H3        31.469999       42.410000       10.720000
  C4        30.559999       42.490002       12.700000
  H4        29.610001       42.810001       12.290000
  C5        30.680000       42.110001       14.030000
  H5        29.820000       42.189999       14.750000
  C1        29.129999       45.340000       19.110001
  C2        29.980000       46.419998       19.340000
  N1        29.900000       44.389999       18.440001
  C3b       31.230000       44.799999       18.290001
  N2        31.240000       46.040001       18.780001
  C4        32.549999       46.660000       18.660000
  C5b       33.509998       45.939999       17.930000
  C6        34.750000       46.560001       17.809999
  H1        35.480000       45.880001       17.350000
  C7        34.990002       47.910000       18.129999
  H2        35.830002       48.419998       17.860001
  C8        34.020000       48.680000       18.730000
  H3        34.209999       49.720001       19.110001
  C9        32.790001       48.029999       18.980000
  H4        32.049999       48.619999       19.500000
  C10       29.500000       47.570000       20.129999
  H5        30.200001       48.380001       20.420000
  C11       28.209999       47.549999       20.639999
  H6        27.940001       48.330002       21.260000
  C12       27.360001       46.439999       20.389999
  H7        26.350000       46.459999       20.830000
  C13       27.770000       45.310001       19.580000
  H8        27.059999       44.509998       19.410000
  C6        29.270000       43.130001       17.860001
  C1        28.370001       43.320000       16.830000
  H1        28.370001       44.220001       16.270000
  C2        27.490000       42.270000       16.469999
  H2        26.809999       42.349998       15.660000
  C3        27.469999       41.040001       17.200001
  H3        27.080000       40.090000       16.770000
  C4        28.420000       40.889999       18.240000
  H4        28.450001       39.930000       18.750000
  C5        29.290001       41.930000       18.570000
  H5        30.110001       41.770000       19.280001
  C1        32.189999       45.590000       13.270000
  C2        33.380001       44.939999       13.150000
  N1        31.930000       45.730000       14.630000
  C3c       32.790001       44.959999       15.410000
  N2        33.740002       44.480000       14.480000
  C4        34.750000       43.560001       14.940000
  C5c       34.779999       43.540001       16.379999
  C6        35.910000       42.930000       16.969999
  H1        36.119999       43.150002       17.930000
  C7        36.900002       42.400002       16.150000
  H2        37.759998       41.939999       16.610001
  C8        36.799999       42.380001       14.740000
  H3        37.700001       42.189999       14.220000
  C9        35.730000       42.959999       14.090000
  H4        35.509998       42.799999       13.060000
  C10       34.040001       44.840000       11.870000
  H5        34.750000       44.049999       11.620000
  C11       33.410000       45.400002       10.750000
  H6        33.799999       45.419998        9.710000
  C12       32.189999       46.020000       10.870000
  H7        31.820000       46.580002       10.050000
  C13       31.610001       46.180000       12.150000
  H8        30.549999       46.490002       12.280000
  C6        31.040001       46.869999       15.200000
  C1        31.650000       48.099998       15.450000
  H1        32.560001       48.299999       14.980000
  C2        30.950001       49.130001       16.129999
  H2        31.059999       50.189999       15.930000
  C3        29.650000       48.869999       16.629999
  H3        29.190001       49.619999       17.219999
  C4        29.090000       47.630001       16.309999
  H4        28.160000       47.430000       16.670000
  C5        29.709999       46.660000       15.530000
  H5        29.200001       45.700001       15.370000
