206
 generated by VMD
  IR        25.150000       42.200001       11.520000
  C1        22.549999       44.650002        9.130000
  C2        23.270000       43.910000        8.200000
  N1        23.139999       44.520000       10.370000
  C3a       24.180000       43.540001       10.280000
  N2        24.320000       43.290001        8.950000
  C4        25.430000       42.459999        8.600000
  C5a       25.900000       41.660000        9.650000
  C6        26.889999       40.720001        9.290000
  H1        27.209999       40.040001       10.080000
  C7        27.500000       40.720001        8.010000
  H2        28.379999       40.099998        7.750000
  C8        27.010000       41.540001        7.010000
  H3        27.580000       41.680000        6.050000
  C9        25.990000       42.430000        7.270000
  H4        25.480000       43.020000        6.480000
  C10       22.830000       43.889999        6.910000
  H5        23.270000       43.169998        6.180000
  C11       21.760000       44.720001        6.570000
  H6        21.290001       44.610001        5.630000
  C12       21.240000       45.590000        7.490000
  H7        20.379999       46.259998        7.230000
  C13       21.549999       45.500000        8.810000
  H8        20.950001       46.029999        9.500000
  C6        22.990000       45.540001       11.410000
  C1        22.030001       45.410000       12.450000
  H1        21.650000       44.400002       12.670000
  C2        21.750000       46.540001       13.210000
  H2        21.030001       46.459999       13.960000
  C3        22.219999       47.779999       12.900000
  H3        21.870001       48.630001       13.260000
  C4        23.170000       47.889999       11.890000
  H4        23.320000       48.869999       11.410000
  C5        23.639999       46.790001       11.140000
  H5        24.549999       46.869999       10.580000
  C1        22.629999       38.790001       10.580000
  C2        23.660000       38.209999       11.350000
  N1        22.760000       40.150002       10.650000
  C3b       23.920000       40.529999       11.380000
  N2        24.469999       39.299999       11.770000
  C4        25.770000       39.360001       12.370000
  C5b       26.190001       40.650002       12.560000
  C6        27.330000       40.790001       13.410000
  H1        27.570000       41.790001       13.770000
  C7        28.090000       39.730000       13.840000
  H2        28.969999       39.840000       14.430000
  C8        27.690001       38.450001       13.580000
  H3        28.360001       37.680000       13.920000
  C9        26.500000       38.230000       12.880000
  H4        26.230000       37.139999       12.810000
  C10       23.790001       36.860001       11.490000
  H5        24.400000       36.400002       12.300000
  C11       22.940001       36.029999       10.730000
  H6        23.059999       34.950001       10.840000
  C12       22.010000       36.580002        9.820000
  H7        21.629999       36.040001        9.010000
  C13       21.830000       37.950001        9.820000
  H8        20.950001       38.349998        9.400000
  C6        21.559999       40.990002       10.530000
  C1        20.719999       41.169998       11.660000
  H1        21.070000       40.970001       12.650000
  C2        19.510000       41.880001       11.540000
  H2        19.000000       41.840000       12.450000
  C3        19.080000       42.470001       10.360000
  H3        18.090000       42.889999       10.340000
  C4        19.920000       42.310001        9.240000
  H4        19.520000       42.500000        8.250000
  C5        21.139999       41.590000        9.310000
  H5        21.570000       41.450001        8.300000
  C1        23.969999       43.720001       15.440000
  C2        25.010000       44.549999       15.080000
  N1        23.850000       42.730000       14.440000
  C3c       24.700001       42.980000       13.370000
  N2        25.430000       44.090000       13.800000
  C4        26.309999       44.619999       12.820000
  C5c       26.590000       43.750000       11.770000
  C6        27.660000       44.029999       10.920000
  H1        27.790001       43.480000        9.970000
  C7        28.360001       45.189999       11.050000
  H2        28.990000       45.490002       10.250000
  C8        28.080000       46.099998       12.060000
  H3        28.320000       47.180000       12.010000
  C9        27.059999       45.770000       12.950000
  H4        26.850000       46.580002       13.710000
  C10       25.480000       45.500000       16.000000
  H5        26.389999       46.110001       15.890000
  C11       24.799999       45.650002       17.240000
  H6        25.170000       46.360001       17.990000
  C12       23.650000       44.939999       17.400000
  H7        22.969999       45.160000       18.240000
  C13       23.250000       43.950001       16.540001
  H8        22.280001       43.439999       16.799999
  C6        23.309999       41.480000       14.840000
  C1        24.219999       40.549999       15.450000
  H1        25.209999       40.610001       15.040000
  C2        23.719999       39.560001       16.340000
  H2        24.360001       38.759998       16.490000
  C3        22.420000       39.549999       16.680000
  H3        22.129999       38.860001       17.440001
  C4        21.480000       40.450001       16.129999
  H4        20.440001       40.290001       16.240000
  C5        21.920000       41.430000       15.180000
  H5        21.250000       42.049999       14.630000
  IR        26.590000       39.959999       25.010000
  C1        23.510000       40.110001       21.930000
  C2        22.870001       40.549999       23.100000
  N1        24.740000       39.660000       22.370001
  C3a       24.980000       39.900002       23.709999
  N2        23.799999       40.509998       24.150000
  C4        23.799999       40.779999       25.549999
  C5a       25.059999       40.740002       26.250000
  C6        25.150000       41.209999       27.590000
  H1        26.110001       41.169998       28.100000
  C7        23.990000       41.740002       28.209999
  H2        24.059999       41.950001       29.190001
  C8        22.770000       41.740002       27.490000
  H3        21.820000       42.049999       27.940001
  C9        22.709999       41.270000       26.200001
  H4        21.690001       41.099998       25.879999
  C10       21.570000       40.970001       23.040001
  H5        21.049999       41.160000       23.940001
  C11       20.860001       40.849998       21.840000
  H6        19.820000       40.619999       21.840000
  C12       21.540001       40.500000       20.670000
  H7        21.110001       40.930000       19.730000
  C13       22.879999       40.070000       20.700001
  H8        23.370001       39.959999       19.780001
  C6        25.410000       38.590000       21.660000
  C1        25.340000       37.360001       22.230000
  H1        24.910000       37.230000       23.219999
  C2        25.889999       36.250000       21.540001
  H2        26.059999       35.299999       22.049999
  C3        26.540001       36.400002       20.309999
  H3        27.180000       35.590000       19.950001
  C4        26.700001       37.700001       19.860001
  H4        27.430000       37.779999       19.080000
  C5        26.090000       38.820000       20.469999
  H5        26.139999       39.750000       19.910000
  C1        28.110001       43.950001       24.270000
  C2        28.950001       43.410000       25.190001
  N1        27.070000       43.020000       24.100000
  C3b       27.230000       41.910000       24.809999
  N2        28.379999       42.189999       25.590000
  C4        28.670000       41.290001       26.670000
  C5b       27.969999       40.090000       26.570000
  C6        28.160000       39.130001       27.690001
  H1        27.510000       38.270000       27.660000
  C7        29.000000       39.299999       28.760000
  H2        29.000000       38.639999       29.629999
  C8        29.600000       40.570000       28.799999
  H3        30.080000       40.820000       29.690001
  C9        29.480000       41.560001       27.770000
  H4        30.129999       42.389999       27.610001
  C10       30.209999       43.970001       25.360001
  H5        30.950001       43.570000       26.070000
  C11       30.620001       45.130001       24.650000
  H6        31.459999       45.660000       24.950001
  C12       29.690001       45.730000       23.750000
  H7        29.950001       46.590000       23.129999
  C13       28.430000       45.110001       23.590000
  H8        27.660000       45.509998       22.920000
  C6        25.969999       43.310001       23.240000
  C1        25.990000       43.189999       21.860001
  H1        26.959999       42.939999       21.309999
  C2        24.780001       43.470001       21.160000
  H2        24.860001       43.349998       20.090000
  C3        23.610001       43.830002       21.809999
  H3        22.650000       44.110001       21.320000
  C4        23.639999       43.840000       23.170000
  H4        22.660000       44.009998       23.530001
  C5        24.799999       43.610001       23.959999
  H5        24.750000       43.810001       24.980000
  C1        29.620001       38.000000       22.570000
  C2        28.889999       36.930000       23.139999
  N1        29.160000       39.169998       23.090000
  C3c       28.100000       38.959999       23.969999
  N2        28.000000       37.590000       23.980000
  C4        27.139999       37.080002       24.920000
  C5c       26.160000       37.930000       25.459999
  C6        25.129999       37.500000       26.360001
  H1        24.420000       38.209999       26.750000
  C7        25.139999       36.220001       26.650000
  H2        24.650000       35.860001       27.590000
  C8        26.040001       35.320000       26.150000
  H3        26.170000       34.490002       26.730000
  C9        27.049999       35.779999       25.290001
  H4        27.920000       35.139999       25.280001
  C10       29.180000       35.660000       22.680000
  H5        28.590000       34.779999       22.980000
  C11       30.160000       35.459999       21.660000
  H6        30.080000       34.590000       21.049999
  C12       30.879999       36.529999       21.100000
  H7        31.650000       36.330002       20.330000
  C13       30.620001       37.810001       21.590000
  H8        30.889999       38.590000       20.990000
  C6        29.850000       40.400002       22.719999
  C1        29.170000       41.320000       21.870001
  H1        28.209999       41.049999       21.490000
  C2        29.850000       42.520000       21.520000
  H2        29.360001       43.270000       21.010000
  C3        31.139999       42.790001       21.959999
  H3        31.809999       43.540001       21.520000
  C4        31.790001       41.779999       22.719999
  H4        32.820000       41.849998       23.040001
  C5        31.129999       40.630001       23.150000
  H5        31.590000       39.880001       23.780001
