206
 generated by VMD
 Ir       71.677948       10.636430       45.671413
 C        72.289413        9.513304       41.498131
 C        72.165024        8.316170       42.151352
 N        72.268906       10.535494       42.466484
 C        72.091629       10.006697       43.735443
 N        72.060875        8.631942       43.533684
 C        71.925682        7.842218       44.713497
 C        71.420341        8.544880       45.811630
 C        70.950760        7.813661       46.920326
 H        70.482941        8.323567       47.741085
 C        71.034225        6.413297       46.945065
 H        70.627922        5.877117       47.788704
 C        71.602394        5.729345       45.873432
 H        71.702675        4.643986       45.915154
 C        72.047249        6.434141       44.755234
 H        72.625015        5.917857       44.002815
 C        72.106644        7.121458       41.405060
 H        71.952103        6.176727       41.887451
 C        72.185547        7.162536       40.011795
 H        72.190674        6.239129       39.440311
 C        72.308380        8.381569       39.354324
 H        72.319473        8.423458       38.272186
 C        72.353195        9.569187       40.092533
 H        72.411865       10.519678       39.580551
 C        72.863770       11.823795       42.229599
 C        74.248093       11.952904       42.203499
 H        74.873734       11.074488       42.344090
 C        74.840820       13.204502       41.990036
 H        75.909592       13.300713       42.003227
 C        74.036545       14.329562       41.796997
 H        74.482971       15.301620       41.678684
 C        72.642822       14.200454       41.826515
 H        72.019943       15.082774       41.752083
 C        72.059479       12.948855       42.036568
 H        70.981277       12.851406       42.114532
 C        67.336990       11.094103       45.583763
 C        67.681305       11.379647       46.882652
 N        68.510544       10.719066       44.919060
 C        69.610779       10.752632       45.750847
 N        69.078644       11.145525       46.980225
 C        69.990913       11.086452       48.085297
 C        71.334183       10.895220       47.741234
 C        72.273880       10.737556       48.775402
 H        73.328171       10.689333       48.543793
 C        71.886642       10.718281       50.110725
 H        72.621048       10.502441       50.872730
 C        70.541626       10.890184       50.449951
 H        70.234909       10.867527       51.479813
 C        69.599335       11.083933       49.437943
 H        68.554947       11.124445       49.696800
 C        66.676872       11.816049       47.778519
 H        66.923874       12.132963       48.780342
 C        65.352814       11.928251       47.355576
 H        64.583794       12.228025       48.050156
 C        65.018944       11.628521       46.026859
 H        63.994984       11.679647       45.697781
 C        66.015732       11.211447       45.139244
 H        65.757042       11.038158       44.105247
 C        68.527725       10.260284       43.560890
 C        68.714890        8.904860       43.285416
 H        68.798325        8.196777       44.100620
 C        68.785507        8.464789       41.957161
 H        68.930298        7.419227       41.740749
 C        68.660423        9.389809       40.910217
 H        68.744759        9.059422       39.883266
 C        68.463852       10.745234       41.189110
 H        68.364914       11.450745       40.389816
 C        68.393234       11.185305       42.517361
 H        68.203369       12.226343       42.726860
 C        72.698936       14.864041       45.318878
 C        73.912865       14.214990       45.321621
 N        71.704109       13.895791       45.538460
 C        72.249519       12.625057       45.663223
 N        73.619675       12.844949       45.568874
 C        74.429825       11.743835       45.953720
 C        73.776970       10.504995       45.972454
 C        74.485275        9.381983       46.399117
 H        74.039948        8.398212       46.315536
 C        75.787750        9.484957       46.879791
 H        76.283997        8.615682       47.279171
 C        76.431717       10.716085       46.895134
 H        77.441696       10.795732       47.244293
 C        75.757202       11.849380       46.415062
 H        76.256287       12.804157       46.470905
 C        75.085335       14.952018       45.093159
 H        76.041359       14.453588       45.001045
 C        75.026459       16.340054       44.901863
 H        75.930405       16.888945       44.695709
 C        73.795120       16.991058       44.939034
 H        73.742874       18.062229       44.853821
 C        72.621262       16.252075       45.134415
 H        71.663895       16.749790       45.105705
 C        70.320496       14.239596       45.742188
 C        69.480164       14.366317       44.630123
 H        69.816147       14.063067       43.651524
 C        68.195938       14.899499       44.785278
 H        67.550575       15.009654       43.916954
 C        67.751160       15.296294       46.050079
 H        66.770027       15.750928       46.160942
 C        68.581207       15.159910       47.163139
 H        68.243683       15.485060       48.137489
 C        69.865440       14.626730       47.007988
 H        70.509048       14.497245       47.871475
 Ir       71.677948       10.636429       57.881229
 C        71.859901       12.633019       61.749176
 C        72.420906       13.528002       60.862785
 N        71.646957       11.431216       61.046028
 C        72.023666       11.554842       59.711037
 N        72.514069       12.856093       59.625877
 C        72.839378       13.306961       58.325104
 C        72.155411       12.616342       57.321251
 C        72.103180       13.180510       56.035606
 H        71.475883       12.723875       55.275551
 C        72.785675       14.359938       55.747074
 H        72.706772       14.808331       54.768646
 C        73.541824       15.004189       56.744610
 H        74.092140       15.904696       56.502235
 C        73.574585       14.471583       58.035248
 H        74.259995       14.882470       58.750229
 C        72.708534       14.830160       61.302963
 H        73.108337       15.565472       60.617134
 C        72.430099       15.220577       62.615616
 H        72.711227       16.218628       62.950066
 C        71.846115       14.318501       63.497330
 H        71.556091       14.635940       64.485268
 C        71.558487       13.016344       63.057152
 H        71.058685       12.344774       63.731308
 C        71.525284       10.172907       61.736000
 C        72.582542        9.260977       61.688240
 H        73.497475        9.506289       61.160965
 C        72.485100        8.036803       62.357040
 H        73.262192        7.301916       62.241013
 C        71.341171        7.726511       63.103271
 H        71.295036        6.797300       63.649750
 C        70.283913        8.638442       63.151031
 H        69.389153        8.395082       63.704552
 C        70.378052        9.865187       62.473137
 H        69.564072       10.569750       62.516930
 C        67.483780       11.707688       57.231293
 C        67.805450       10.923192       56.154724
 N        68.643631       11.828850       58.022163
 C        69.699371       11.125334       57.472446
 N        69.170120       10.574438       56.308784
 C        70.099762        9.843689       55.499920
 C        71.438545       10.011027       55.875519
 C        72.440186        9.569483       55.001240
 H        73.472122        9.828126       55.205902
 C        72.123505        8.913617       53.807693
 H        72.913376        8.584231       53.141197
 C        70.785019        8.697341       53.462173
 H        70.540817        8.229089       52.526600
 C        69.774361        9.156260       54.311623
 H        68.763046        8.826780       54.134460
 C        66.808243       10.653168       55.196556
 H        67.024582       10.092278       54.298615
 C        65.510437       11.179255       55.343628
 H        64.762978       11.004731       54.574966
 C        65.206528       11.977938       56.439781
 H        64.216667       12.401007       56.555893
 C        66.199554       12.240870       57.386444
 H        65.955986       12.877740       58.238716
 C        68.766113       12.820190       59.061943
 C        69.267181       14.085879       58.742638
 H        69.606079       14.294721       57.742775
 C        69.314514       15.078460       59.722000
 H        69.727226       16.042709       59.481613
 C        68.870163       14.805350       61.017242
 H        68.910934       15.585228       61.773636
 C        68.372375       13.537091       61.345634
 H        68.055588       13.325679       62.347755
 C        68.325058       12.544512       60.366272
 H        67.954773       11.555792       60.606331
 C        71.278488        6.375782       58.802269
 C        72.635910        6.597006       58.789993
 N        70.655838        7.612287       58.552757
 C        71.578979        8.619192       58.370171
 N        72.809219        7.979898       58.534904
 C        73.956467        8.825900       58.500572
 C        73.728134       10.072592       57.901474
 C        74.831261       10.862368       57.570011
 H        74.693962       11.752210       56.957935
 C        76.138916       10.453772       57.859974
 H        76.972473       11.069597       57.577232
 C        76.356812        9.221267       58.488899
 H        77.360733        8.860181       58.616432
 C        75.265518        8.419255       58.823616
 H        75.436935        7.555837       59.441780
 C        73.507584        5.515124       58.992783
 H        74.577812        5.615764       58.863579
 C        73.002869        4.235869       59.243507
 H        73.679008        3.396109       59.376686
 C        71.621422        4.021736       59.277527
 H        71.232391        3.034255       59.436684
 C        70.761070        5.099096       59.047333
 H        69.696930        4.937189       59.046883
 C        69.231293        7.767146       58.409615
 C        68.577065        7.211107       57.311928
 H        69.141251        6.687729       56.551430
 C        67.186432        7.351161       57.174294
 H        66.685371        6.926705       56.322426
 C        66.454216        8.054344       58.145828
 H        65.387794        8.192541       58.021965
 C        67.108444        8.610382       59.243507
 H        66.546677        9.121526       60.010681
 C        68.499069        8.470330       59.381149
 H        69.009247        8.943723       60.199516
