206
 generated by VMD
  IR        37.939999       56.630001       39.049999
  C1        34.959999       54.220001       37.020000
  C2        35.320000       55.040001       36.040001
  N1        35.610001       54.590000       38.169998
  C3a       36.500000       55.560001       37.959999
  N2        36.340000       55.900002       36.630001
  C4        37.169998       56.970001       36.160000
  C5a       37.689999       57.709999       37.220001
  C6        38.180000       58.990002       36.950001
  H1        38.470001       59.560001       37.820000
  C7        38.230000       59.540001       35.689999
  H2        38.639999       60.459999       35.450001
  C8        37.779999       58.740002       34.650002
  H3        38.139999       59.070000       33.750000
  C9        37.299999       57.470001       34.869999
  H4        36.910000       56.849998       34.070000
  C10       34.779999       54.990002       34.779999
  H5        34.730000       55.849998       34.189999
  C11       33.970001       53.919998       34.520000
  H6        33.470001       53.919998       33.580002
  C12       33.599998       53.029999       35.509998
  H7        33.060001       52.160000       35.209999
  C13       34.130001       53.139999       36.779999
  H8        33.900002       52.509998       37.650002
  C6        35.400002       53.860001       39.410000
  C1        36.360001       52.950001       39.820000
  H1        37.389999       53.290001       39.820000
  C2        36.080002       51.790001       40.520000
  H2        36.669998       50.910000       40.360001
  C3        34.759998       51.599998       40.919998
  H3        34.430000       50.770000       41.500000
  C4        33.779999       52.549999       40.619999
  H4        32.799999       52.380001       41.090000
  C5        34.080002       53.700001       39.869999
  H5        33.209999       54.259998       39.529999
  C1        41.590000       54.959999       37.540001
  C2        42.000000       56.080002       38.270000
  N1        40.150002       54.990002       37.520000
  C3b       39.709999       56.040001       38.250000
  N2        40.779999       56.700001       38.770000
  C4        40.570000       57.770000       39.709999
  C5b       39.209999       58.000000       39.990002
  C6        38.970001       59.029999       40.889999
  H1        37.959999       59.240002       41.270000
  C7        39.959999       59.860001       41.439999
  H2        39.599998       60.759998       41.849998
  C8        41.320000       59.580002       41.180000
  H3        42.090000       60.310001       41.509998
  C9        41.619999       58.470001       40.349998
  H4        42.540001       58.040001       40.450001
  C10       43.340000       56.470001       38.290001
  H5        43.730000       57.180000       39.029999
  C11       44.230000       55.860001       37.360001
  H6        45.110001       56.470001       37.139999
  C12       43.900002       54.700001       36.700001
  H7        44.630001       54.080002       36.290001
  C13       42.560001       54.180000       36.820000
  H8        42.430000       53.299999       36.250000
  C6        39.369999       53.869999       37.060001
  C1        39.369999       52.750000       37.939999
  H1        39.930000       52.730000       38.840000
  C2        38.820000       51.540001       37.590000
  H2        38.790001       50.709999       38.230000
  C3        38.209999       51.480000       36.320000
  H3        37.650002       50.599998       36.020000
  C4        38.250000       52.570000       35.400002
  H4        37.750000       52.630001       34.450001
  C5        38.910000       53.779999       35.750000
  H5        39.040001       54.490002       34.959999
  C1        38.160000       55.299999       43.220001
  C2        37.080002       56.150002       43.220001
  N1        38.630001       55.139999       41.910000
  C3c       37.849998       55.820000       40.980000
  N2        36.860001       56.450001       41.820000
  C4        35.889999       57.169998       41.119999
  C5c       36.250000       57.700001       39.840000
  C6        35.340000       58.560001       39.250000
  H1        35.529999       59.180000       38.349998
  C7        34.029999       58.709999       39.750000
  H2        33.389999       59.540001       39.480000
  C8        33.610001       58.040001       40.880001
  H3        32.570000       57.680000       40.959999
  C9        34.570000       57.340000       41.599998
  H4        34.349998       56.860001       42.549999
  C10       36.430000       56.410000       44.380001
  H5        35.639999       57.139999       44.410000
  C11       36.790001       55.820000       45.560001
  H6        36.060001       55.790001       46.299999
  C12       37.869999       54.889999       45.639999
  H7        38.380001       54.740002       46.599998
  C13       38.590000       54.660000       44.450001
  H8        39.310001       53.939999       44.450001
  C6        39.669998       54.080002       41.580002
  C1        40.939999       54.320000       41.220001
  H1        41.180000       55.330002       40.970001
  C2        41.840000       53.240002       41.029999
  H2        42.830002       53.480000       40.740002
  C3        41.410000       51.980000       41.189999
  H3        42.090000       51.180000       41.020000
  C4        40.110001       51.700001       41.590000
  H4        39.770000       50.630001       41.570000
  C5        39.169998       52.759998       41.820000
  H5        38.220001       52.619999       42.189999
  IR        45.349998       57.040001       45.270000
  C1        44.349998       55.270000       49.160000
  C2        43.169998       55.580002       48.549999
  N1        45.380001       55.599998       48.220001
  C3a       44.830002       56.130001       47.070000
  N2        43.480000       56.020000       47.259998
  C4        42.650002       56.610001       46.259998
  C5a       43.270000       57.360001       45.259998
  C6        42.520000       58.040001       44.279999
  H1        42.930000       58.560001       43.470001
  C7        41.150002       58.029999       44.310001
  H2        40.580002       58.619999       43.529999
  C8        40.480000       57.279999       45.259998
  H3        39.340000       57.419998       45.349998
  C9        41.200001       56.549999       46.200001
  H4        40.750000       55.709999       46.759998
  C10       41.970001       55.119999       49.150002
  H5        41.119999       55.759998       49.040001
  C11       42.020000       54.220001       50.209999
  H6        41.150002       53.680000       50.330002
  C12       43.200001       53.770000       50.750000
  H7        43.250000       52.910000       51.349998
  C13       44.360001       54.349998       50.230000
  H8        45.270000       54.189999       50.830002
  C6        46.759998       55.730000       48.680000
  C1        47.360001       56.980000       48.810001
  H1        46.700001       57.849998       48.779999
  C2        48.689999       57.029999       49.119999
  H2        49.060001       57.990002       49.439999
  C3        49.500000       55.900002       49.169998
  H3        50.540001       55.959999       49.340000
  C4        48.900002       54.639999       49.090000
  H4        49.500000       53.770000       49.310001
  C5        47.509998       54.590000       48.860001
  H5        47.099998       53.580002       48.759998
  C1        45.419998       53.669998       42.490002
  C2        45.549999       54.770000       41.709999
  N1        45.060001       54.169998       43.759998
  C3b       45.139999       55.560001       43.820000
  N2        45.520000       55.919998       42.580002
  C4        45.799999       57.220001       42.330002
  C5b       45.430000       58.029999       43.419998
  C6        45.349998       59.410000       43.200001
  H1        45.090000       60.060001       44.049999
  C7        45.590000       59.950001       41.910000
  H2        45.639999       61.009998       41.730000
  C8        46.029999       59.230000       40.889999
  H3        46.000000       59.610001       39.849998
  C9        46.169998       57.799999       41.080002
  H4        46.709999       57.160000       40.340000
  C10       45.540001       54.669998       40.340000
  H5        45.360001       55.570000       39.669998
  C11       45.419998       53.439999       39.700001
  H6        45.529999       53.209999       38.610001
  C12       45.320000       52.340000       40.500000
  H7        45.410000       51.369999       40.060001
  C13       45.270000       52.480000       41.860001
  H8        44.779999       51.720001       42.450001
  C6        44.340000       53.330002       44.669998
  C1        44.880001       53.009998       45.919998
  H1        45.869999       53.389999       46.189999
  C2        44.049999       52.560001       46.910000
  H2        44.480000       52.330002       47.950001
  C3        42.689999       52.470001       46.730000
  H3        41.939999       52.459999       47.540001
  C4        42.150002       52.669998       45.459999
  H4        41.060001       52.619999       45.299999
  C5        42.959999       53.189999       44.419998
  H5        42.549999       53.669998       43.509998
  C1        49.650002       56.790001       45.770000
  C2        49.410000       58.090000       46.020000
  N1        48.450001       56.160000       45.330002
  C3c       47.410000       57.020000       45.369999
  N2        48.020000       58.270000       45.750000
  C4        47.070000       59.240002       46.279999
  C5c       45.790001       58.799999       46.380001
  C6        44.860001       59.590000       47.099998
  H1        43.869999       59.160000       47.119999
  C7        45.130001       60.810001       47.599998
  H2        44.410000       61.500000       47.919998
  C8        46.410000       61.279999       47.439999
  H3        46.740002       62.080002       48.080002
  C9        47.380001       60.540001       46.790001
  H4        48.299999       60.950001       46.439999
  C10       50.450001       58.970001       46.500000
  H5        50.020000       59.910000       46.889999
  C11       51.740002       58.509998       46.610001
  H6        52.570000       59.080002       46.970001
  C12       51.990002       57.209999       46.290001
  H7        53.020000       56.970001       45.970001
  C13       51.000000       56.299999       45.910000
  H8        51.200001       55.349998       45.490002
  C6        48.459999       54.910000       44.669998
  C1        48.500000       53.700001       45.369999
  H1        48.349998       53.590000       46.470001
  C2        48.650002       52.520000       44.689999
  H2        48.840000       51.639999       45.220001
  C3        48.910000       52.500000       43.340000
  H3        49.180000       51.570000       42.820000
  C4        48.939999       53.650002       42.570000
  H4        49.299999       53.639999       41.560001
  C5        48.720001       54.880001       43.290001
  H5        48.959999       55.810001       42.810001
