206
 generated by VMD
  IR        42.970001       40.480000       27.510000
  C1        44.320000       36.470001       26.469999
  C2        43.299999       36.680000       25.610001
  N1        44.520000       37.660000       27.240000
  C3a       43.580002       38.630001       26.870001
  N2        42.750000       38.009998       25.920000
  C4        41.680000       38.750000       25.430000
  C5a       41.509998       39.980000       26.110001
  C6        40.389999       40.750000       25.870001
  H1        40.240002       41.619999       26.430000
  C7        39.500000       40.369999       24.840000
  H2        38.720001       41.099998       24.590000
  C8        39.639999       39.180000       24.129999
  H3        38.889999       38.880001       23.440001
  C9        40.740002       38.380001       24.450001
  H4        41.040001       37.639999       23.680000
  C10       43.009998       35.650002       24.700001
  H5        42.169998       35.799999       24.010000
  C11       43.650002       34.419998       24.740000
  H6        43.480000       33.830002       23.840000
  C12       44.580002       34.220001       25.709999
  H7        45.020000       33.259998       25.809999
  C13       44.990002       35.230000       26.600000
  H8        45.790001       34.959999       27.260000
  C6        45.529999       37.700001       28.330000
  C1        46.660000       38.310001       28.100000
  H1        46.759998       38.970001       27.240000
  C2        47.759998       38.160000       28.990000
  H2        48.650002       38.720001       28.820000
  C3        47.680000       37.340000       30.110001
  H3        48.590000       37.060001       30.610001
  C4        46.470001       36.680000       30.309999
  H4        46.119999       36.230000       31.219999
  C5        45.360001       36.889999       29.469999
  H5        44.490002       36.230000       29.660000
  C1        45.139999       42.840000       24.620001
  C2        44.290001       43.799999       25.280001
  N1        44.740002       41.610001       25.070000
  C3b       43.830002       41.669998       26.080000
  N2        43.570000       43.099998       26.200001
  C4        42.680000       43.439999       27.320000
  C5b       42.119999       42.310001       27.980000
  C6        41.099998       42.580002       28.900000
  H1        40.910000       41.860001       29.700001
  C7        40.630001       43.860001       29.209999
  H2        39.779999       43.919998       29.790001
  C8        41.250000       44.970001       28.520000
  H3        41.130001       45.970001       28.910000
  C9        42.240002       44.680000       27.559999
  H4        42.480000       45.410000       26.840000
  C10       44.389999       45.160000       24.920000
  H5        43.549999       45.770000       25.110001
  C11       45.349998       45.529999       24.010000
  H6        45.299999       46.529999       23.620001
  C12       46.209999       44.650002       23.379999
  H7        47.060001       44.939999       22.719999
  C13       46.130001       43.279999       23.740000
  H8        46.900002       42.650002       23.360001
  C6        45.209999       40.410000       24.420000
  C1        46.540001       39.959999       24.600000
  H1        47.290001       40.540001       25.180000
  C2        47.080002       38.810001       23.969999
  H2        48.040001       38.400002       24.330000
  C3        46.299999       38.020000       23.120001
  H3        46.650002       37.099998       22.709999
  C4        44.970001       38.369999       22.950001
  H4        44.299999       37.700001       22.330000
  C5        44.480000       39.590000       23.540001
  H5        43.490002       39.959999       23.330000
  C1        46.189999       40.970001       30.440001
  C2        45.259998       40.160000       31.150000
  N1        45.599998       41.400002       29.230000
  C3c       44.340000       40.830002       29.049999
  N2        44.080002       40.130001       30.240000
  C4        42.840000       39.529999       30.320000
  C5c       42.090000       39.500000       29.160000
  C6        40.799999       38.990002       29.200001
  H1        40.150002       39.119999       28.340000
  C7        40.200001       38.520000       30.379999
  H2        39.310001       37.950001       30.190001
  C8        40.930000       38.549999       31.520000
  H3        40.480000       38.060001       32.349998
  C9        42.230000       39.060001       31.590000
  H4        42.740002       39.119999       32.540001
  C10       45.529999       39.689999       32.459999
  H5        45.009998       38.840000       32.869999
  C11       46.700001       40.040001       33.099998
  H6        46.959999       39.509998       34.060001
  C12       47.610001       40.820000       32.389999
  H7        48.380001       41.209999       32.970001
  C13       47.380001       41.290001       31.059999
  H8        48.130001       41.779999       30.480000
  C6        45.990002       42.560001       28.610001
  C1        45.500000       43.669998       29.139999
  H1        44.790001       43.619999       29.940001
  C2        45.910000       44.950001       28.700001
  H2        45.470001       45.869999       29.030001
  C3        46.820000       45.070000       27.629999
  H3        46.919998       46.000000       27.090000
  C4        47.410000       43.930000       27.059999
  H4        48.160000       44.049999       26.320000
  C5        47.000000       42.650002       27.590000
  H5        47.430000       41.730000       27.160000
  IR        46.040001       47.230000       37.590000
  C1        48.790001       50.709999       37.119999
  C2        48.910000       50.270000       38.410000
  N1        47.709999       49.939999       36.560001
  C3a       47.259998       48.939999       37.520000
  N2        48.009998       49.240002       38.630001
  C4        47.320000       48.759998       39.820000
  C5a       46.310001       47.849998       39.580002
  C6        45.520000       47.430000       40.689999
  H1        44.790001       46.650002       40.610001
  C7        45.720001       48.000000       41.939999
  H2        45.070000       47.700001       42.650002
  C8        46.650002       49.000000       42.180000
  H3        46.509998       49.619999       43.040001
  C9        47.459999       49.369999       41.139999
  H4        48.439999       49.790001       41.430000
  C10       49.970001       50.740002       39.169998
  H5        50.270000       50.299999       40.080002
  C11       50.889999       51.669998       38.700001
  H6        51.650002       52.110001       39.299999
  C12       50.689999       52.200001       37.410000
  H7        51.400002       52.959999       37.049999
  C13       49.650002       51.680000       36.590000
  H8        49.590000       51.869999       35.520000
  C6        47.270000       50.130001       35.200001
  C1        47.689999       49.189999       34.250000
  H1        48.430000       48.500000       34.549999
  C2        47.000000       49.070000       33.020000
  H2        47.369999       48.430000       32.230000
  C3        45.840000       49.790001       32.790001
  H3        45.279999       49.650002       31.809999
  C4        45.299999       50.599998       33.799999
  H4        44.279999       50.970001       33.689999
  C5        46.070000       50.820000       35.000000
  H5        45.740002       51.470001       35.799999
  C1        49.119999       44.509998       38.720001
  C2        47.970001       43.740002       38.880001
  N1        48.779999       45.709999       38.150002
  C3b       47.439999       45.759998       38.009998
  N2        46.930000       44.560001       38.430000
  C4        45.509998       44.540001       38.590000
  C5b       44.799999       45.610001       38.090000
  C6        43.389999       45.639999       38.160000
  H1        42.720001       46.200001       37.560001
  C7        42.700001       44.580002       38.750000
  H2        41.680000       44.470001       38.689999
  C8        43.369999       43.520000       39.220001
  H3        42.660000       42.669998       39.369999
  C9        44.790001       43.509998       39.209999
  H4        45.320000       42.639999       39.480000
  C10       47.950001       42.459999       39.369999
  H5        47.240002       41.730000       39.080002
  C11       49.189999       42.020000       39.889999
  H6        49.380001       41.029999       40.330002
  C12       50.349998       42.730000       39.720001
  H7        51.320000       42.360001       40.090000
  C13       50.349998       43.970001       39.150002
  H8        51.220001       44.590000       38.990002
  C6        49.720001       46.730000       37.779999
  C1        50.570000       47.340000       38.779999
  H1        50.340000       47.299999       39.840000
  C2        51.580002       48.259998       38.369999
  H2        52.330002       48.520000       39.080002
  C3        51.820000       48.529999       37.040001
  H3        52.750000       49.169998       36.849998
  C4        50.950001       47.950001       36.110001
  H4        50.939999       48.500000       35.160000
  C5        49.910000       47.049999       36.430000
  H5        49.189999       46.700001       35.730000
  C1        44.759998       45.980000       33.590000
  C2        43.869999       46.860001       33.980000
  N1        45.730000       45.959999       34.529999
  C3c       45.459999       46.820000       35.610001
  N2        44.279999       47.410000       35.240002
  C4        43.709999       48.389999       36.110001
  C5c       44.349998       48.470001       37.360001
  C6        43.939999       49.520000       38.259998
  H1        44.400002       49.669998       39.169998
  C7        42.880001       50.400002       37.970001
  H2        42.689999       51.200001       38.660000
  C8        42.310001       50.290001       36.689999
  H3        41.419998       50.919998       36.509998
  C9        42.720001       49.310001       35.779999
  H4        42.480000       49.450001       34.740002
  C10       42.860001       47.220001       33.060001
  H5        42.290001       48.150002       33.060001
  C11       42.669998       46.570000       31.850000
  H6        41.660000       46.669998       31.389999
  C12       43.630001       45.599998       31.459999
  H7        43.540001       45.119999       30.500000
  C13       44.639999       45.320000       32.320000
  H8        45.419998       44.669998       31.920000
  C6        46.849998       45.090000       34.400002
  C1        46.849998       43.970001       35.270000
  H1        45.919998       43.930000       35.919998
  C2        47.990002       43.130001       35.270000
  H2        48.049999       42.270000       35.919998
  C3        49.090000       43.509998       34.529999
  H3        49.910000       42.830002       34.500000
  C4        49.130001       44.720001       33.830002
  H4        50.040001       45.320000       33.759998
  C5        47.950001       45.500000       33.709999
  H5        47.889999       46.279999       33.000000
