206
 generated by VMD
 Ir       76.732834      -77.164566       70.155602
 C        73.130020      -79.562096       70.919594
 C        74.087219      -80.470001       70.603905
 N        73.693604      -78.290970       70.860374
 C        74.971764      -78.338142       70.409286
 N        75.254875      -79.737534       70.324127
 C        76.620758      -80.084709       70.063843
 C        77.434204      -79.092697       69.538940
 C        78.620071      -79.449921       68.932114
 H        79.147614      -78.778351       68.284821
 C        79.153061      -80.728958       68.985764
 H        80.206635      -80.856796       68.812981
 C        78.432388      -81.740814       69.545288
 H        78.672546      -82.790222       69.391785
 C        77.173843      -81.433762       70.185272
 H        76.696884      -82.185204       70.798492
 C        73.812485      -81.790527       70.597321
 H        74.566483      -82.438843       70.319366
 C        72.560928      -82.303223       70.959335
 H        72.451477      -83.333633       71.196106
 C        71.564911      -81.465355       71.237762
 H        70.563690      -81.837471       71.474609
 C        71.809647      -80.064857       71.203079
 H        70.996628      -79.346550       71.376068
 C        72.934265      -77.102539       71.008873
 C        73.166733      -76.313049       72.100868
 H        73.706749      -76.842728       72.920700
 C        72.484245      -75.074448       72.225311
 H        72.643547      -74.334808       72.987976
 C        71.559479      -74.675392       71.284210
 H        71.159424      -73.636154       71.279839
 C        71.318756      -75.484894       70.173996
 H        70.691483      -75.235329       69.306046
 C        71.953201      -76.723549       70.016510
 H        71.736526      -77.343277       69.225067
 C        78.595154      -77.674393       74.043335
 C        79.499893      -76.922081       73.355896
 N        77.667999      -78.195343       73.092331
 C        77.849823      -77.603912       71.855331
 N        79.060287      -76.891747       72.006668
 C        79.506851      -76.179901       70.868744
 C        78.596741      -76.180695       69.789070
 C        78.992111      -75.578903       68.586563
 H        78.288544      -75.659515       67.742416
 C        80.281082      -75.016312       68.427307
 H        80.717529      -74.944656       67.480850
 C        81.124016      -74.945633       69.504654
 H        82.150604      -74.823524       69.322182
 C        80.687164      -75.477539       70.737061
 H        81.245575      -75.187256       71.625443
 C        80.547318      -76.270699       74.065186
 H        81.478409      -76.118591       73.673485
 C        80.520096      -76.241959       75.451492
 H        81.468597      -75.940575       75.942123
 C        79.506134      -76.974525       76.188736
 H        79.459602      -77.025528       77.243134
 C        78.572983      -77.705627       75.416336
 H        77.728661      -78.157661       75.900352
 C        76.786713      -79.357285       73.395370
 C        75.485809      -79.180046       73.724945
 H        74.983978      -78.180969       73.690041
 C        74.648346      -80.301926       74.051956
 H        73.584641      -80.293808       73.888649
 C        75.230659      -81.570648       73.852310
 H        74.562920      -82.382095       74.046959
 C        76.499146      -81.737869       73.427612
 H        76.767731      -82.706963       72.975388
 C        77.318611      -80.636131       73.229706
 H        78.354561      -80.733894       72.922073
 C        75.059074      -73.318558       71.083878
 C        74.599518      -73.628326       69.809692
 N        75.992424      -74.277084       71.438545
 C        76.119576      -75.235977       70.435318
 N        75.241081      -74.826797       69.451126
 C        75.277946      -75.475639       68.203316
 C        76.005196      -76.664261       68.201347
 C        76.187881      -77.362869       67.007919
 H        76.659180      -78.342094       67.144669
 C        75.711906      -76.842705       65.774200
 H        75.813690      -77.471703       64.837494
 C        75.119461      -75.613815       65.758652
 H        74.665672      -75.183945       64.910484
 C        74.815186      -74.935455       66.974556
 H        74.375290      -73.936165       66.834473
 C        73.538834      -72.849869       69.271317
 H        72.874031      -73.260460       68.486420
 C        73.145966      -71.661194       69.934113
 H        72.282997      -71.112579       69.635284
 C        73.741104      -71.301132       71.168442
 H        73.543259      -70.432030       71.775253
 C        74.629944      -72.199959       71.763214
 H        75.146210      -71.909790       72.703789
 C        76.977997      -74.006042       72.395874
 C        76.863892      -74.457413       73.733871
 H        75.912506      -74.849533       74.079872
 C        77.846024      -74.136353       74.659790
 H        77.735687      -74.637421       75.644356
 C        79.013763      -73.533783       74.259064
 H        79.851990      -73.412796       74.964859
 C        79.113823      -73.082443       72.938469
 H        79.910782      -72.400665       72.640915
 C        78.116402      -73.253471       71.931595
 H        78.131699      -72.802612       70.979385
 Ir       76.732834      -77.164566       81.674232
 C        77.213997      -81.292488       80.322693
 C        76.615440      -80.612701       79.254791
 N        77.268265      -80.383308       81.386063
 C        76.872955      -79.073708       80.983826
 N        76.478409      -79.233292       79.636032
 C        76.061531      -78.073502       78.968872
 C        76.353920      -76.893509       79.615875
 C        76.325935      -75.682983       78.958183
 H        76.743546      -74.792542       79.372208
 C        75.944153      -75.592545       77.615555
 H        75.825119      -74.682358       77.142273
 C        75.496872      -76.742798       76.918289
 H        74.836121      -76.763260       75.999657
 C        75.659119      -78.043060       77.580696
 H        75.364822      -78.983208       77.099419
 C        76.312569      -81.392303       78.128960
 H        76.023972      -80.872009       77.161484
 C        76.611252      -82.751610       77.981735
 H        76.195831      -83.281754       77.236969
 C        77.281586      -83.321251       79.038887
 H        77.624191      -84.280472       78.893600
 C        77.578789      -82.581696       80.200272
 H        78.112808      -82.981415       81.055817
 C        77.157509      -80.834717       82.755501
 C        75.920288      -81.497360       83.099983
 H        75.183212      -81.758095       82.326073
 C        75.900612      -81.998558       84.427887
 H        75.011124      -82.200668       84.910538
 C        77.019691      -81.927177       85.291344
 H        76.953903      -82.348160       86.277580
 C        78.202393      -81.384537       84.850822
 H        79.023125      -81.213577       85.542618
 C        78.260010      -80.773331       83.582558
 H        79.177719      -80.631134       83.065071
 C        80.172562      -75.526352       79.753632
 C        79.582718      -74.417938       80.297440
 N        79.612839      -76.658020       80.448570
 C        78.567032      -76.250717       81.266296
 N        78.552002      -74.900726       81.240173
 C        77.516510      -74.293365       82.009232
 C        76.383705      -75.135681       82.196182
 C        75.305313      -74.638367       82.918854
 H        74.495911      -75.320145       83.189110
 C        75.390594      -73.408676       83.473480
 H        74.563339      -72.850647       83.927734
 C        76.544983      -72.586334       83.309654
 H        76.590073      -71.626633       83.750717
 C        77.608307      -73.053619       82.505928
 H        78.362152      -72.281982       82.282990
 C        79.967056      -73.136841       79.869354
 H        79.455429      -72.278244       80.366493
 C        80.967773      -72.994095       78.907333
 H        81.048065      -71.983582       78.486023
 C        81.541824      -74.112488       78.304771
 H        82.235138      -74.150406       77.438995
 C        81.177460      -75.403610       78.800690
 H        81.667511      -76.242226       78.280426
 C        80.317345      -77.976807       80.588860
 C        81.367355      -78.095612       81.516800
 H        81.880249      -77.284973       81.898361
 C        82.051697      -79.304382       81.589355
 H        82.685287      -79.433868       82.399475
 C        81.803436      -80.354080       80.702400
 H        82.201965      -81.343468       80.872345
 C        80.803856      -80.225143       79.740471
 H        80.331421      -81.075607       79.230545
 C        80.039246      -79.026535       79.660568
 H        79.131607      -79.077812       79.140305
 C        77.068596      -78.027664       85.972473
 C        75.821701      -78.459694       85.573975
 N        77.569824      -77.355698       84.809616
 C        76.745239      -77.506332       83.723907
 N        75.627365      -78.148895       84.233780
 C        74.601311      -78.450027       83.283920
 C        74.780411      -77.688667       82.114113
 C        73.703171      -77.599930       81.198593
 H        73.621246      -76.809425       80.444611
 C        72.528717      -78.282349       81.415527
 H        71.724632      -78.053299       80.738136
 C        72.277588      -79.023865       82.596207
 H        71.396469      -79.595551       82.613411
 C        73.328430      -79.162643       83.501785
 H        73.253922      -79.863541       84.371094
 C        75.003326      -79.222038       86.474808
 H        73.914711      -79.124023       86.377823
 C        75.555214      -79.622055       87.706886
 H        75.040985      -80.413498       88.238190
 C        76.774689      -79.120087       88.117889
 H        77.164467      -79.300217       89.116150
 C        77.542419      -78.257874       87.251137
 H        78.541336      -78.026260       87.586884
 C        78.940323      -76.863144       84.876961
 C        79.999069      -77.791222       84.976578
 H        79.901794      -78.841431       84.998978
 C        81.313950      -77.338608       84.849472
 H        82.122711      -77.996910       84.667435
 C        81.548515      -75.957932       84.599594
 H        82.542892      -75.606232       84.805519
 C        80.536285      -75.069847       84.577682
 H        80.788139      -74.049179       84.363884
 C        79.194061      -75.492523       84.717262
 H        78.481506      -74.643860       84.701546
