206
 generated by VMD
 Ir       53.065681      -97.934914      -38.182503
 C        54.961105      -97.741035      -42.132423
 C        55.698555      -96.892120      -41.344643
 N        53.926651      -98.253967      -41.330044
 C        53.985504      -97.767883      -40.032021
 N        55.091209      -96.905136      -40.055782
 C        55.295940      -96.140335      -38.877068
 C        54.205025      -96.162857      -37.992146
 C        54.124420      -95.202316      -36.978268
 H        53.244850      -95.157242      -36.349190
 C        55.139118      -94.257889      -36.798447
 H        55.039722      -93.494614      -36.048813
 C        56.268932      -94.276764      -37.633644
 H        57.060612      -93.567688      -37.493477
 C        56.344467      -95.221855      -38.662872
 H        57.279278      -95.340637      -39.195427
 C        56.789967      -96.197357      -41.917469
 H        57.342545      -95.462898      -41.359947
 C        57.129429      -96.393738      -43.263687
 H        57.984341      -95.894066      -43.681236
 C        56.372414      -97.269424      -44.052422
 H        56.611702      -97.396011      -45.093201
 C        55.288830      -97.936035      -43.486408
 H        54.693443      -98.599548      -44.108231
 C        52.905617      -99.136818      -41.849823
 C        52.885956     -100.485275      -41.455124
 H        53.589790     -100.831863      -40.713577
 C        51.951645     -101.359573      -42.001442
 H        51.936378     -102.397827      -41.699776
 C        51.024109     -100.898117      -42.950981
 H        50.300415     -101.583435      -43.369919
 C        51.031807      -99.556000      -43.341599
 H        50.312569      -99.195343      -44.057373
 C        51.972561      -98.675354      -42.791016
 H        51.975861      -97.643448      -43.088615
 C        56.524002      -99.375931      -35.965950
 C        55.702190      -98.812622      -35.022861
 N        55.828640      -99.373138      -37.193535
 C        54.562668      -98.815445      -37.047997
 N        54.486675      -98.520859      -35.683319
 C        53.190884      -98.176804      -35.221756
 C        52.291840      -97.771637      -36.224384
 C        50.971375      -97.476959      -35.863091
 H        50.273064      -97.130379      -36.612976
 C        50.522316      -97.625519      -34.541435
 H        49.490993      -97.433273      -34.300575
 C        51.411674      -98.071518      -33.557201
 H        51.058880      -98.260353      -32.555565
 C        52.741596      -98.333084      -33.888256
 H        53.402863      -98.712784      -33.126907
 C        56.199760      -98.560928      -33.734303
 H        55.598503      -98.054489      -32.993011
 C        57.514748      -98.921097      -33.403732
 H        57.907955      -98.686737      -32.424061
 C        58.333324      -99.518898      -34.360954
 H        59.343662      -99.814148      -34.112068
 C        57.831390      -99.756516      -35.640408
 H        58.469238     -100.245300      -36.369476
 C        56.484489      -99.635834      -38.450302
 C        57.566330      -98.843124      -38.849590
 H        57.873913      -98.006233      -38.238350
 C        58.223579      -99.108582      -40.057465
 H        59.046352      -98.477280      -40.364380
 C        57.799217     -100.159019      -40.877884
 H        58.309338     -100.349144      -41.811386
 C        56.712082     -100.944000      -40.482094
 H        56.360085     -101.739471      -41.134716
 C        56.060123     -100.686272      -39.270721
 H        55.204674     -101.277550      -38.997421
 C        50.390469     -101.308899      -38.873581
 C        49.770111     -100.257782      -39.499931
 N        51.529984     -100.812729      -38.215446
 C        51.688675      -99.455490      -38.458176
 N        50.587692      -99.122894      -39.258682
 C        50.536003      -97.772491      -39.712585
 C        51.420891      -96.915024      -39.043083
 C        51.276833      -95.529312      -39.222355
 H        51.883705      -94.850334      -38.640896
 C        50.321495      -95.012932      -40.094360
 H        50.272621      -93.954269      -40.282585
 C        49.481453      -95.871780      -40.806129
 H        48.753490      -95.482971      -41.503693
 C        49.591003      -97.254730      -40.625717
 H        49.081654      -97.908318      -41.298531
 C        48.596794     -100.490921      -40.240383
 H        48.023430      -99.668915      -40.643787
 C        48.082939     -101.784294      -40.376572
 H        47.182358     -101.943001      -40.936546
 C        48.742168     -102.852249      -39.760468
 H        48.378841     -103.859741      -39.892975
 C        49.881676     -102.617722      -38.994423
 H        50.381676     -103.444702      -38.519653
 C        52.045273     -101.451874      -37.035080
 C        51.458900     -101.179253      -35.804283
 H        50.532028     -100.615540      -35.758114
 C        52.038872     -101.659988      -34.629074
 H        51.598946     -101.398682      -33.673103
 C        53.216957     -102.414734      -34.676888
 H        53.684338     -102.743912      -33.768044
 C        53.801247     -102.707764      -35.921051
 H        54.696815     -103.296867      -35.975945
 C        53.209312     -102.233376      -37.092186
 H        53.605972     -102.526413      -38.052803
 Ir       53.065681      -97.934914      -27.702169
 C        52.238976      -94.658203      -24.903677
 C        51.839138      -95.797989      -24.244940
 N        52.755825      -95.066032      -26.156492
 C        52.687153      -96.437592      -26.309855
 N        52.135601      -96.876984      -25.103987
 C        52.009293      -98.295486      -24.959736
 C        52.064331      -98.987488      -26.170403
 C        51.603661     -100.312332      -26.199451
 H        51.513428     -100.829086      -27.146509
 C        51.168011     -100.950729      -25.036795
 H        50.806557     -101.970093      -25.084122
 C        51.181770     -100.272003      -23.816576
 H        50.836231     -100.761345      -22.918056
 C        51.614147      -98.945755      -23.770279
 H        51.769714      -98.484482      -22.815960
 C        51.276913      -95.679375      -22.962194
 H        50.825298      -96.528793      -22.469624
 C        51.154556      -94.423752      -22.347673
 H        50.718517      -94.341827      -21.365145
 C        51.577393      -93.277618      -23.027164
 H        51.566284      -92.315369      -22.542877
 C        52.104179      -93.399811      -24.321369
 H        52.372406      -92.504257      -24.863346
 C        53.430695      -94.156166      -27.052925
 C        52.818020      -93.785248      -28.249775
 H        51.829407      -94.159798      -28.496273
 C        53.451481      -92.894424      -29.125643
 H        52.984077      -92.627884      -30.058485
 C        54.709354      -92.375885      -28.796894
 H        55.204803      -91.697556      -29.476299
 C        55.322956      -92.740448      -27.587439
 H        56.295464      -92.350449      -27.339603
 C        54.683277      -93.629898      -26.727676
 H        55.146088      -93.890091      -25.773888
 C        56.923782      -99.416199      -26.264305
 C        56.468822     -100.406189      -27.104973
 N        55.903603      -98.450104      -26.159967
 C        54.808014      -98.779572      -26.944912
 N        55.166004     -100.007370      -27.511429
 C        54.227005     -100.578049      -28.408598
 C        53.263863      -99.670120      -28.890060
 C        52.526134     -100.016998      -30.025766
 H        51.773735      -99.337349      -30.415737
 C        52.701866     -101.247238      -30.664927
 H        52.090820     -101.506424      -31.512953
 C        53.624756     -102.160133      -30.162140
 H        53.775063     -103.119385      -30.650244
 C        54.371914     -101.842789      -29.020189
 H        54.887814     -102.630310      -28.510921
 C        57.328529     -101.483170      -27.411434
 H        56.987816     -102.295486      -28.032606
 C        58.616737     -101.531509      -26.894733
 H        59.254269     -102.382156      -27.108389
 C        59.074005     -100.513367      -26.052540
 H        60.081699     -100.539017      -25.661510
 C        58.224655      -99.459579      -25.727232
 H        58.587692      -98.664093      -25.091288
 C        55.883766      -97.476044      -25.093882
 C        55.221104      -97.777710      -23.901585
 H        54.607552      -98.661545      -23.839935
 C        55.336773      -96.937820      -22.793795
 H        54.815742      -97.164963      -21.879501
 C        56.127998      -95.783569      -22.869776
 H        56.248131      -95.151443      -21.998859
 C        56.791809      -95.467827      -24.061312
 H        57.410652      -94.591721      -24.119457
 C        56.669693      -96.314072      -25.173365
 H        57.197174      -96.080582      -26.083395
 C        54.638905      -95.752655      -31.145828
 C        53.264561      -95.694954      -31.311825
 N        54.879913      -96.482254      -29.979082
 C        53.717468      -96.916763      -29.381313
 N        52.715202      -96.419418      -30.224417
 C        51.363792      -96.734085      -29.847624
 C        51.226601      -97.373375      -28.595392
 C        49.944977      -97.594238      -28.088482
 H        49.827267      -98.021286      -27.111147
 C        48.803078      -97.227150      -28.808144
 H        47.819603      -97.445580      -28.403719
 C        48.932446      -96.616013      -30.053562
 H        48.054039      -96.349716      -30.622847
 C        50.209007      -96.379684      -30.575815
 H        50.279266      -96.087860      -31.608528
 C        52.752777      -94.975525      -32.405941
 H        51.692497      -94.900497      -32.579948
 C        53.602913      -94.335587      -33.306297
 H        53.198402      -93.822632      -34.161552
 C        54.987839      -94.408737      -33.133301
 H        55.656025      -93.949005      -33.842293
 C        55.506298      -95.114105      -32.046764
 H        56.571621      -95.180008      -31.917377
 C        56.206657      -96.868378      -29.580770
 C        56.679794      -98.149231      -29.867243
 H        56.032455      -98.865463      -30.355566
 C        57.989494      -98.501678      -29.540174
 H        58.337563      -99.508194      -29.717543
 C        58.837791      -97.574661      -28.918865
 H        59.826756      -97.871292      -28.612175
 C        58.364883      -96.286072      -28.644239
 H        59.017967      -95.562111      -28.176094
 C        57.049667      -95.933624      -28.962969
 H        56.690105      -94.942566      -28.745235
