206
 generated by VMD
  IR        43.340000       42.630001       45.810001
  C1        45.610001       42.240002       49.590000
  C2        46.549999       42.080002       48.529999
  N1        44.310001       42.320000       48.919998
  C3a       44.360001       42.290001       47.599998
  N2        45.820000       42.189999       47.320000
  C4        46.259998       42.520000       45.980000
  C5a       45.270000       42.560001       45.020000
  C6        45.680000       42.770000       43.709999
  H1        45.040001       42.720001       42.880001
  C7        47.020000       42.970001       43.389999
  H2        47.459999       43.320000       42.459999
  C8        48.009998       42.980000       44.330002
  H3        49.009998       43.169998       44.070000
  C9        47.650002       42.700001       45.630001
  H4        48.230000       42.939999       46.450001
  C10       47.919998       41.919998       48.889999
  H5        48.619999       41.730000       48.099998
  C11       48.349998       41.860001       50.230000
  H6        49.349998       41.689999       50.400002
  C12       47.380001       41.990002       51.270000
  H7        47.660000       41.750000       52.250000
  C13       46.009998       42.189999       50.950001
  H8        45.259998       42.320000       51.689999
  C6        43.029999       42.250000       49.689999
  C1        42.160000       41.119999       49.680000
  H1        42.400002       40.209999       49.110001
  C2        40.959999       41.169998       50.349998
  H2        40.259998       40.349998       50.330002
  C3        40.580002       42.279999       51.150002
  H3        39.580002       42.490002       51.480000
  C4        41.490002       43.349998       51.240002
  H4        41.270000       44.209999       51.860001
  C5        42.689999       43.330002       50.500000
  H5        43.439999       44.139999       50.639999
  C1        43.709999       46.880001       45.130001
  C2        42.980000       46.490002       44.020000
  N1        44.020000       45.750000       45.860001
  C3b       43.470001       44.639999       45.380001
  N2        42.860001       45.049999       44.220001
  C4        42.200001       44.099998       43.529999
  C5b       42.549999       42.759998       43.840000
  C6        42.180000       41.669998       43.009998
  H1        42.779999       40.730000       43.119999
  C7        41.360001       41.900002       41.900002
  H2        41.000000       41.099998       41.320000
  C8        40.880001       43.220001       41.650002
  H3        40.360001       43.430000       40.669998
  C9        41.250000       44.290001       42.480000
  H4        40.919998       45.209999       42.160000
  C10       42.380001       47.490002       43.049999
  H5        42.029999       47.230000       42.040001
  C11       42.619999       48.840000       43.320000
  H6        42.509998       49.599998       42.470001
  C12       43.290001       49.200001       44.500000
  H7        43.119999       50.189999       44.930000
  C13       43.840000       48.240002       45.380001
  H8        44.230000       48.590000       46.320000
  C6        45.049999       45.880001       46.869999
  C1        46.380001       45.919998       46.490002
  H1        46.580002       45.730000       45.470001
  C2        47.459999       46.160000       47.310001
  H2        48.470001       46.110001       46.900002
  C3        47.160000       46.139999       48.660000
  H3        48.009998       46.099998       49.400002
  C4        45.820000       46.080002       49.139999
  H4        45.529999       46.029999       50.220001
  C5        44.740002       45.990002       48.240002
  H5        43.790001       45.599998       48.610001
  C1        39.330002       42.340000       47.400002
  C2        39.750000       41.040001       47.299999
  N1        40.270000       43.090000       46.669998
  C3c       41.299999       42.380001       46.189999
  N2        40.990002       41.110001       46.549999
  C4        41.950001       40.070000       46.250000
  C5c       43.200001       40.509998       45.750000
  C6        44.209999       39.610001       45.410000
  H1        45.139999       39.950001       44.880001
  C7        44.049999       38.259998       45.590000
  H2        44.810001       37.639999       45.119999
  C8        42.830002       37.770000       46.020000
  H3        42.689999       36.750000       46.189999
  C9        41.830002       38.619999       46.330002
  H4        40.889999       38.230000       46.570000
  C10       38.919998       40.000000       47.889999
  H5        39.270000       38.990002       47.799999
  C11       37.630001       40.330002       48.389999
  H6        37.240002       39.480000       48.950001
  C12       37.180000       41.630001       48.410000
  H7        36.209999       41.970001       48.720001
  C13       38.020000       42.650002       47.930000
  H8        37.639999       43.590000       47.660000
  C6        40.330002       44.529999       46.830002
  C1        41.200001       45.200001       47.730000
  H1        41.910000       44.560001       48.230000
  C2        41.360001       46.590000       47.660000
  H2        41.980000       47.060001       48.310001
  C3        40.639999       47.349998       46.680000
  H3        40.880001       48.410000       46.590000
  C4        39.759998       46.700001       45.790001
  H4        39.369999       47.180000       44.930000
  C5        39.599998       45.299999       45.910000
  H5        38.990002       44.740002       45.189999
  IR        36.860001       44.049999       37.910000
  C1        33.549999       41.599998       36.630001
  C2        32.980000       42.810001       37.110001
  N1        34.820000       41.650002       37.049999
  C3a       35.200001       42.889999       37.580002
  N2        34.000000       43.560001       37.689999
  C4        34.070000       44.930000       38.220001
  C5a       35.369999       45.410000       38.500000
  C6        35.529999       46.799999       38.759998
  H1        36.490002       47.250000       39.020000
  C7        34.540001       47.709999       38.669998
  H2        34.630001       48.730000       39.049999
  C8        33.270000       47.230000       38.299999
  H3        32.419998       47.919998       38.090000
  C9        33.029999       45.889999       38.070000
  H4        32.119999       45.599998       37.570000
  C10       31.590000       42.990002       36.840000
  H5        31.020000       43.570000       37.470001
  C11       30.850000       42.090000       36.099998
  H6        29.760000       42.220001       35.970001
  C12       31.440001       40.959999       35.630001
  H7        30.860001       40.240002       35.110001
  C13       32.820000       40.689999       35.869999
  H8        33.220001       39.790001       35.520000
  C6        35.459999       40.410000       37.189999
  C1        35.820000       39.580002       36.119999
  H1        35.480000       39.770000       35.150002
  C2        36.439999       38.340000       36.330002
  H2        36.689999       37.669998       35.540001
  C3        36.709999       37.849998       37.570000
  H3        36.910000       36.820000       37.730000
  C4        36.450001       38.650002       38.680000
  H4        36.849998       38.259998       39.650002
  C5        35.830002       39.910000       38.540001
  H5        35.650002       40.430000       39.410000
  C1        37.820000       45.660000       34.009998
  C2        38.570000       46.430000       34.770000
  N1        37.000000       44.860001       34.799999
  C3b       37.240002       45.080002       36.130001
  N2        38.230000       46.049999       36.119999
  C4        38.790001       46.330002       37.369999
  C5b       38.360001       45.450001       38.419998
  C6        38.750000       45.779999       39.750000
  H1        38.310001       45.389999       40.590000
  C7        39.459999       46.939999       40.070000
  H2        39.830002       47.209999       41.049999
  C8        39.810001       47.790001       39.020000
  H3        40.590000       48.560001       39.209999
  C9        39.439999       47.509998       37.689999
  H4        39.639999       48.230000       36.970001
  C10       39.349998       47.470001       34.240002
  H5        39.970001       48.110001       34.910000
  C11       39.270000       47.759998       32.860001
  H6        39.930000       48.520000       32.459999
  C12       38.599998       46.939999       32.009998
  H7        38.490002       47.189999       30.959999
  C13       37.880001       45.900002       32.610001
  H8        37.380001       45.200001       32.029999
  C6        35.779999       44.240002       34.320000
  C1        34.669998       45.009998       34.650002
  H1        34.590000       45.930000       35.279999
  C2        33.450001       44.540001       34.049999
  H2        32.599998       45.200001       34.110001
  C3        33.410000       43.439999       33.189999
  H3        32.410000       43.130001       32.889999
  C4        34.560001       42.650002       32.970001
  H4        34.430000       41.730000       32.349998
  C5        35.779999       43.040001       33.509998
  H5        36.520000       42.290001       33.580002
  C1        39.740002       40.779999       37.380001
  C2        39.320000       40.669998       38.660000
  N1        39.169998       41.919998       36.900002
  C3c       38.360001       42.610001       37.799999
  N2        38.500000       41.840000       38.930000
  C4        37.830002       42.250000       40.070000
  C5c       36.770000       43.169998       39.840000
  C6        35.900002       43.540001       40.919998
  H1        34.860001       43.869999       40.709999
  C7        36.049999       43.020000       42.189999
  H2        35.549999       43.490002       43.029999
  C8        37.110001       42.130001       42.369999
  H3        37.259998       41.619999       43.250000
  C9        37.950001       41.709999       41.340000
  H4        38.730000       41.020000       41.630001
  C10       39.830002       39.619999       39.439999
  H5        39.369999       39.340000       40.349998
  C11       40.840000       38.799999       38.939999
  H6        41.259998       37.900002       39.450001
  C12       41.299999       38.869999       37.599998
  H7        42.240002       38.560001       37.279999
  C13       40.730000       39.900002       36.830002
  H8        41.380001       40.130001       36.029999
  C6        39.599998       42.400002       35.630001
  C1        40.700001       43.320000       35.720001
  H1        40.770000       43.860001       36.680000
  C2        41.290001       43.860001       34.619999
  H2        42.029999       44.650002       34.700001
  C3        40.799999       43.470001       33.369999
  H3        41.099998       44.099998       32.509998
  C4        39.799999       42.509998       33.230000
  H4        39.639999       41.959999       32.310001
  C5        39.130001       42.009998       34.400002
  H5        38.450001       41.279999       34.419998
