206
 generated by VMD
 Ir       16.197081      -65.342354       -5.710048
 C        19.461340      -64.806183       -8.553431
 C        20.077866      -65.382843       -7.489730
 N        18.141386      -64.713005       -8.248725
 C        17.804840      -65.201859       -7.059960
 N        19.042412      -65.516945       -6.510930
 C        19.084103      -65.602814       -5.107831
 C        17.865629      -65.689484       -4.411261
 C        17.834450      -65.918839       -3.041359
 H        16.849350      -65.976616       -2.563198
 C        19.032082      -65.967300       -2.364211
 H        19.036249      -66.043564       -1.305784
 C        20.254187      -65.814957       -3.015248
 H        21.093248      -65.705673       -2.431610
 C        20.277157      -65.588806       -4.362293
 H        21.108528      -65.116653       -4.881227
 C        21.423567      -65.821136       -7.597379
 H        21.743526      -66.415665       -6.730221
 C        22.184122      -65.586037       -8.752623
 H        23.208225      -66.001495       -8.867560
 C        21.571085      -64.893738       -9.772572
 H        21.988958      -65.031601      -10.696355
 C        20.212296      -64.476860       -9.703262
 H        19.818283      -63.739189      -10.366886
 C        17.223997      -64.449356       -9.311311
 C        16.838900      -65.539825      -10.114735
 H        17.165285      -66.534149       -9.795861
 C        15.802961      -65.409302      -11.028567
 H        15.502445      -66.314484      -11.526183
 C        15.154143      -64.191879      -11.239395
 H        14.543913      -64.074196      -12.098389
 C        15.454806      -63.111053      -10.362639
 H        14.774994      -62.253387      -10.333214
 C        16.520393      -63.263710       -9.454391
 H        16.752380      -62.405983       -8.935552
 C        15.298355      -69.614288       -5.784000
 C        14.395727      -69.117020       -4.900717
 N        16.121307      -68.548569       -6.156957
 C        15.758512      -67.403168       -5.548816
 N        14.669821      -67.761436       -4.734386
 C        14.151326      -66.699890       -3.940166
 C        14.784842      -65.489609       -4.172711
 C        14.353254      -64.391312       -3.420873
 H        14.985617      -63.554325       -3.290584
 C        13.305476      -64.480446       -2.470811
 H        12.927060      -63.677322       -1.806967
 C        12.625503      -65.669678       -2.317631
 H        11.768785      -65.879120       -1.613382
 C        13.038006      -66.787613       -3.057203
 H        12.668339      -67.663086       -2.660985
 C        13.428604      -69.975708       -4.322935
 H        12.630564      -69.527725       -3.763432
 C        13.391859      -71.300613       -4.657863
 H        12.779339      -72.061157       -4.162083
 C        14.356709      -71.806793       -5.515674
 H        14.164341      -72.686653       -6.040891
 C        15.325790      -70.965240       -6.068904
 H        16.086569      -71.436066       -6.592494
 C        17.329679      -68.714615       -6.980160
 C        18.489227      -68.888351       -6.277402
 H        18.697023      -68.524902       -5.307236
 C        19.607368      -69.356323       -6.974150
 H        20.445042      -69.429779       -6.407925
 C        19.621964      -69.521713       -8.300434
 H        20.594345      -69.671310       -8.812291
 C        18.383068      -69.375824       -8.991845
 H        18.259964      -69.707504      -10.032151
 C        17.244677      -68.966019       -8.297419
 H        16.249491      -69.009254       -8.700329
 C        12.766731      -64.036316       -8.093294
 C        13.260757      -62.899128       -7.559223
 N        13.560480      -65.146271       -7.574660
 C        14.582848      -64.646500       -6.830956
 N        14.469809      -63.289154       -6.864690
 C        15.313985      -62.534180       -5.965369
 C        16.418600      -63.195492       -5.573979
 C        17.496899      -62.525852       -5.009482
 H        18.442430      -62.979824       -4.851761
 C        17.442743      -61.139931       -4.808023
 H        18.296410      -60.519203       -4.418591
 C        16.343264      -60.438278       -5.135019
 H        16.235895      -59.376080       -4.971889
 C        15.276638      -61.147175       -5.678961
 H        14.270747      -60.592896       -5.713004
 C        12.698080      -61.711349       -7.822032
 H        12.930181      -60.781525       -7.301779
 C        11.539648      -61.557610       -8.636586
 H        11.352875      -60.527229       -8.965883
 C        11.138153      -62.754059       -9.268259
 H        10.600691      -62.867661      -10.221113
 C        11.655048      -64.026070       -8.950590
 H        11.264355      -64.916977       -9.321064
 C        13.040833      -66.535736       -7.549535
 C        11.998511      -66.829041       -6.656821
 H        11.457169      -66.105515       -6.023294
 C        11.501326      -68.155334       -6.601628
 H        10.871830      -68.519318       -5.815591
 C        12.123985      -69.170837       -7.347591
 H        11.519459      -70.062790       -7.506233
 C        13.219724      -68.847900       -8.199459
 H        13.797775      -69.705963       -8.624289
 C        13.653325      -67.537315       -8.297198
 H        14.525544      -67.315369       -8.932866
 Ir       16.197081      -65.342346        4.603192
 C        19.587244      -63.390537        2.835220
 C        19.583963      -64.608749        2.291017
 N        18.523735      -63.356190        3.713837
 C        17.922203      -64.534004        3.844293
 N        18.478163      -65.328949        2.890945
 C        17.998501      -66.646324        2.914304
 C        17.296282      -66.978149        4.046288
 C        17.074959      -68.352959        4.290013
 H        16.598783      -68.520615        5.237454
 C        17.463446      -69.287094        3.375103
 H        17.433144      -70.357475        3.498291
 C        17.956991      -68.983490        2.142326
 H        18.043039      -69.658493        1.334579
 C        18.339964      -67.639725        1.912924
 H        18.730886      -67.326447        0.902805
 C        20.444397      -64.925430        1.256048
 H        20.631443      -65.946609        0.834134
 C        21.355484      -64.051033        0.730355
 H        21.854979      -64.120010       -0.176315
 C        21.270786      -62.736469        1.177730
 H        21.800146      -61.874916        0.771281
 C        20.464819      -62.423706        2.266720
 H        20.615932      -61.468918        2.652000
 C        18.038509      -62.174030        4.296294
 C        18.776320      -61.547173        5.371321
 H        19.302301      -62.171696        6.054481
 C        18.845427      -60.118069        5.483098
 H        19.660688      -59.658298        6.019904
 C        18.084274      -59.342587        4.618530
 H        18.027010      -58.280762        4.655210
 C        17.276480      -59.933029        3.672251
 H        16.446068      -59.448036        3.197067
 C        17.256172      -61.351082        3.417657
 H        16.813477      -61.618507        2.520993
 C        14.832199      -66.935654        0.948774
 C        14.285595      -67.657959        1.893656
 N        15.252269      -65.763840        1.561782
 C        15.030470      -65.787613        2.931466
 N        14.330673      -66.904739        3.087656
 C        13.885201      -67.182648        4.420070
 C        14.717758      -66.610046        5.425242
 C        14.482418      -66.943619        6.750926
 H        15.106627      -66.386047        7.407867
 C        13.537546      -67.928322        7.104599
 H        13.594462      -68.430038        8.069708
 C        12.732483      -68.492004        6.066797
 H        11.872557      -69.142639        6.353506
 C        12.908978      -68.105957        4.757975
 H        12.323315      -68.552551        3.955442
 C        13.704399      -68.831543        1.524441
 H        13.248916      -69.416100        2.228237
 C        13.900215      -69.402382        0.206299
 H        13.756815      -70.475288        0.043480
 C        14.519122      -68.616898       -0.712488
 H        14.877926      -69.126671       -1.622214
 C        14.922880      -67.324837       -0.429747
 H        15.355618      -66.703522       -1.167177
 C        15.442497      -64.553612        0.802456
 C        14.338821      -63.772335        0.800177
 H        13.328779      -64.123535        0.965634
 C        14.463343      -62.443226        0.348990
 H        13.578798      -61.995705       -0.050265
 C        15.690822      -61.903240        0.016864
 H        15.893057      -61.053844       -0.591926
 C        16.800833      -62.750198       -0.027187
 H        17.689774      -62.441158       -0.578983
 C        16.672340      -64.081093        0.374191
 H        17.504713      -64.831322        0.370895
 C        14.670420      -61.635288        6.089456
 C        15.490065      -62.096672        7.058532
 N        14.475748      -62.659733        5.158051
 C        15.206631      -63.777546        5.517355
 N        15.803885      -63.338768        6.716756
 C        16.742950      -64.292023        7.296467
 C        17.264940      -65.260422        6.420323
 C        18.180067      -66.093399        6.951445
 H        18.643167      -66.842270        6.343142
 C        18.599789      -65.965469        8.314702
 H        19.204966      -66.715302        8.733049
 C        18.007452      -65.077385        9.189307
 H        18.090570      -65.097977       10.231405
 C        17.004766      -64.275452        8.692381
 H        16.540758      -63.543007        9.289304
 C        15.866375      -61.324905        8.129077
 H        16.785816      -61.401943        8.588524
 C        15.322504      -60.072128        8.227823
 H        15.604631      -59.391407        8.997970
 C        14.465908      -59.575405        7.298572
 H        13.902237      -58.630276        7.526394
 C        14.115928      -60.376801        6.180813
 H        13.415916      -59.992485        5.453912
 C        13.223083      -62.687660        4.419777
 C        12.103529      -63.120892        5.098826
 H        12.235783      -63.957790        5.750754
 C        10.819976      -62.876114        4.602164
 H         9.943442      -63.035957        5.183746
 C        10.671591      -62.113499        3.496449
 H         9.705761      -61.776253        3.210030
 C        11.827442      -61.709896        2.769392
 H        11.899946      -61.316319        1.791824
 C        13.067235      -62.042484        3.220504
 H        13.903799      -61.493942        2.766668
