206
 generated by VMD
 Ir       65.084488      -98.666153      -73.488640
 C        61.163876      -97.037292      -73.677994
 C        61.622643      -96.822426      -74.965881
 N        62.216148      -97.421875      -72.898880
 C        63.263000      -97.678894      -73.673370
 N        62.892651      -97.392334      -74.956345
 C        64.023216      -97.222610      -75.890472
 C        65.118149      -97.951035      -75.533920
 C        66.122482      -98.088989      -76.469704
 H        67.031860      -98.650002      -76.223366
 C        65.996277      -97.534927      -77.764648
 H        66.545578      -98.010262      -78.553009
 C        64.895523      -96.765602      -78.152718
 H        64.940224      -96.283241      -79.093048
 C        63.939545      -96.580887      -77.149277
 H        63.099316      -95.977509      -77.435883
 C        60.664959      -96.345558      -75.947327
 H        60.979736      -96.330727      -77.039886
 C        59.349754      -96.070282      -75.559814
 H        58.704239      -95.789185      -76.345238
 C        58.964306      -96.297089      -74.262863
 H        57.941963      -96.232925      -74.006729
 C        59.888290      -96.727081      -73.322250
 H        59.482491      -96.677139      -72.312881
 C        62.220276      -97.370209      -71.451935
 C        61.421646      -98.398285      -70.890549
 H        61.074722      -99.166931      -71.567398
 C        61.268303      -98.353203      -69.502426
 H        60.633583      -99.049744      -69.058182
 C        62.031021      -97.471817      -68.752762
 H        61.884750      -97.410904      -67.643753
 C        62.819862      -96.516541      -69.352936
 H        62.924824      -95.612518      -68.680984
 C        62.865692      -96.392883      -70.708405
 H        63.067997      -95.359573      -70.984726
 C        63.711796     -102.655533      -74.520584
 C        64.940094     -102.839958      -74.107597
 N        63.492207     -101.252716      -74.693130
 C        64.639809     -100.556992      -74.344437
 N        65.546921     -101.540237      -74.039688
 C        66.924301     -101.069038      -73.771004
 C        66.971504      -99.678497      -73.580276
 C        68.243423      -99.051086      -73.400345
 H        68.156021      -98.054535      -73.080582
 C        69.385544      -99.838684      -73.437202
 H        70.310226      -99.320023      -73.746964
 C        69.396561     -101.236649      -73.667358
 H        70.277954     -101.733276      -74.014633
 C        68.147812     -101.840317      -73.804871
 H        68.052368     -102.922577      -73.729256
 C        65.396202     -104.058685      -73.752380
 H        66.327621     -104.176880      -73.277954
 C        64.566086     -105.130844      -73.832748
 H        64.799683     -106.087921      -73.363358
 C        63.273281     -105.049667      -74.301224
 H        62.657604     -105.912292      -74.406204
 C        62.888138     -103.724655      -74.693405
 H        62.055061     -103.585518      -75.384155
 C        62.506142     -100.659935      -75.601364
 C        61.278503     -100.277023      -75.074402
 H        60.948380     -100.253876      -74.072510
 C        60.338669      -99.802475      -75.960571
 H        59.437950      -99.588318      -75.586090
 C        60.613434      -99.675880      -77.376724
 H        59.838833      -99.474289      -78.127289
 C        61.853462     -100.034317      -77.839294
 H        62.185364      -99.628662      -78.754486
 C        62.846199     -100.542358      -76.939697
 H        63.773834     -101.053833      -77.327484
 C        65.064117      -99.347366      -69.145187
 C        65.701469      -98.156754      -69.313431
 N        64.813339      -99.908936      -70.459595
 C        65.257744      -99.029037      -71.440010
 N        65.871178      -97.960281      -70.692459
 C        66.091187      -96.755676      -71.416153
 C        65.852562      -96.802826      -72.791733
 C        66.008179      -95.682121      -73.612465
 H        65.927322      -95.682022      -74.657486
 C        66.489716      -94.519485      -73.064651
 H        66.704643      -93.727509      -73.672485
 C        66.781845      -94.450058      -71.695404
 H        67.220108      -93.524353      -71.352005
 C        66.605637      -95.527664      -70.849823
 H        67.169670      -95.448364      -69.879791
 C        65.882706      -97.344513      -68.209793
 H        66.121765      -96.254837      -68.356232
 C        65.563599      -97.769035      -66.937416
 H        65.863922      -97.178146      -66.095535
 C        65.019012      -98.991669      -66.745354
 H        64.639084      -99.196686      -65.751205
 C        64.705032      -99.792709      -67.841690
 H        64.291206     -100.776108      -67.597992
 C        64.259567     -101.234573      -70.659836
 C        62.976692     -101.322754      -71.277046
 H        62.675377     -100.519333      -71.974701
 C        62.242950     -102.505829      -71.201813
 H        61.202194     -102.592911      -71.459198
 C        62.841335     -103.543503      -70.523529
 H        62.382225     -104.513382      -70.425323
 C        64.121613     -103.406982      -69.931961
 H        64.575089     -104.169502      -69.352097
 C        64.919746     -102.286377      -70.014465
 H        65.974091     -102.209656      -69.836517
 Ir       65.084480      -98.666153      -58.990528
 C        69.333031      -97.835388      -59.076942
 C        69.029877      -97.992416      -57.691902
 N        68.190414      -97.974091      -59.791988
 C        67.142380      -98.400223      -58.936222
 N        67.687607      -98.377655      -57.645981
 C        66.834412      -98.788429      -56.558693
 C        65.502670      -99.123520      -56.973286
 C        64.581512      -99.611496      -55.989548
 H        63.623138      -99.962524      -56.179543
 C        64.962448      -99.687790      -54.603745
 H        64.263969      -99.827072      -53.859009
 C        66.243637      -99.230713      -54.281677
 H        66.490494      -99.087372      -53.287384
 C        67.190430      -98.817856      -55.218513
 H        68.177124      -98.777649      -54.872360
 C        69.991867      -97.694687      -56.806885
 H        69.774063      -97.807655      -55.745377
 C        71.296768      -97.361206      -57.192402
 H        72.103470      -97.385162      -56.445641
 C        71.622932      -97.230957      -58.556164
 H        72.653656      -97.062454      -58.838661
 C        70.633255      -97.483994      -59.533569
 H        70.955009      -97.636459      -60.571671
 C        68.035576      -97.270645      -61.055901
 C        67.837296      -95.896187      -61.085121
 H        67.861450      -95.366180      -60.185623
 C        67.908035      -95.204788      -62.269848
 H        67.991928      -94.185104      -62.157967
 C        68.129547      -95.912308      -63.470566
 H        68.402588      -95.336441      -64.347511
 C        68.290359      -97.314896      -63.572510
 H        68.809036      -97.786453      -64.416977
 C        68.181015      -97.968430      -62.312454
 H        68.014221      -99.027679      -62.158886
 C        64.894051     -103.036102      -59.693779
 C        63.653183     -102.518799      -59.942036
 N        65.637878     -101.903297      -59.166451
 C        64.897926     -100.713669      -59.227757
 N        63.623760     -101.100143      -59.557819
 C        62.552868     -100.153763      -59.181969
 C        63.057129      -98.972626      -58.550835
 C        62.193550      -98.173798      -57.795448
 H        62.513699      -97.246643      -57.355362
 C        60.852692      -98.469177      -57.642654
 H        60.249771      -98.035492      -56.806412
 C        60.280682      -99.542450      -58.356091
 H        59.241573      -99.779892      -58.339256
 C        61.162766     -100.403000      -59.077606
 H        60.688225     -100.863007      -59.904648
 C        62.582043     -103.353561      -60.275887
 H        61.528519     -103.043106      -60.348030
 C        62.819637     -104.733749      -60.550175
 H        61.937027     -105.341919      -60.830933
 C        64.125702     -105.322395      -60.349457
 H        64.345367     -106.263184      -60.760887
 C        65.111534     -104.440155      -59.858868
 H        66.013603     -104.880142      -59.438171
 C        66.807816     -102.044861      -58.401390
 C        68.075340     -101.866493      -59.063927
 H        68.086487     -101.536453      -60.065697
 C        69.206665     -101.866821      -58.286106
 H        70.096436     -101.455780      -58.764084
 C        69.121460     -102.058914      -56.856689
 H        70.002960     -101.706665      -56.285919
 C        67.881157     -102.330185      -56.227753
 H        67.677605     -102.469925      -55.140167
 C        66.756699     -102.309761      -57.034710
 H        65.770264     -102.418243      -56.545975
 C        64.077972      -97.237747      -63.002689
 C        64.565887      -96.151817      -62.276337
 N        64.045685      -98.310242      -62.123085
 C        64.425087      -97.924133      -60.844383
 N        64.692299      -96.624176      -60.897572
 C        64.773834      -95.891563      -59.621826
 C        64.981277      -96.626190      -58.449348
 C        65.073334      -95.964188      -57.175194
 H        65.151505      -96.549911      -56.239395
 C        65.042465      -94.563179      -57.023117
 H        65.196304      -94.104630      -56.053070
 C        64.864563      -93.821129      -58.204094
 H        64.776749      -92.781250      -58.177109
 C        64.677963      -94.483856      -59.442711
 H        64.412590      -93.950851      -60.345745
 C        64.788300      -94.930901      -62.953896
 H        65.428841      -94.267090      -62.407043
 C        64.362579      -94.761703      -64.296524
 H        64.608398      -93.903610      -64.868660
 C        63.770058      -95.875885      -64.964066
 H        63.358482      -95.666862      -65.905304
 C        63.591019      -97.133209      -64.332260
 H        63.168011      -98.055862      -64.772911
 C        64.015373      -99.623962      -62.658363
 C        65.264679     -100.152725      -62.978790
 H        66.149734      -99.565628      -63.319351
 C        65.442932     -101.514282      -63.278244
 H        66.384918     -101.929825      -63.744072
 C        64.318596     -102.330658      -63.334011
 H        64.501190     -103.342903      -63.583824
 C        63.089863     -101.833176      -62.934227
 H        62.129528     -102.359039      -62.919205
 C        62.928291     -100.493896      -62.666771
 H        61.984402     -100.126831      -62.955429
