206
 generated by VMD
  IR        60.500000       29.400000       44.529999
  C1        60.660000       32.099998       41.080002
  C2        61.889999       32.270000       41.720001
  N1        59.939999       31.190001       41.869999
  C3a       60.570000       30.799999       43.009998
  N2        61.799999       31.480000       42.869999
  C4        62.689999       31.350000       43.950001
  C5a       62.279999       30.469999       44.959999
  C6        63.049999       30.320000       46.189999
  H1        62.700001       29.830000       47.110001
  C7        64.349998       30.879999       46.209999
  H2        64.970001       30.540001       46.990002
  C8        64.760002       31.680000       45.139999
  H3        65.669998       32.310001       45.320000
  C9        63.959999       32.000000       44.020000
  H4        64.250000       32.840000       43.410000
  C10       62.750000       33.220001       41.220001
  H5        63.520000       33.650002       41.830002
  C11       62.480000       33.959999       40.060001
  H6        63.119999       34.770000       39.939999
  C12       61.330002       33.689999       39.320000
  H7        61.139999       34.270000       38.419998
  C13       60.360001       32.810001       39.869999
  H8        59.369999       32.630001       39.360001
  C6        58.529999       30.940001       41.720001
  C1        57.630001       31.490000       42.669998
  H1        57.910000       32.200001       43.410000
  C2        56.240002       31.270000       42.680000
  H2        55.700001       31.750000       43.500000
  C3        55.630001       30.549999       41.639999
  H3        54.650002       30.799999       41.340000
  C4        56.470001       29.969999       40.680000
  H4        56.080002       29.350000       39.919998
  C5        57.869999       30.180000       40.680000
  H5        58.439999       29.690001       39.980000
  C1        63.169998       26.370001       42.889999
  C2        62.770000       25.799999       44.070000
  N1        62.630001       27.680000       42.840000
  C3b       61.770000       27.940001       43.880001
  N2        61.880001       26.740000       44.669998
  C4        61.180000       26.770000       45.869999
  C5b       60.660000       28.080000       46.189999
  C6        60.110001       28.260000       47.439999
  H1        59.869999       29.230000       47.820000
  C7        60.070000       27.230000       48.450001
  H2        59.869999       27.459999       49.470001
  C8        60.529999       25.959999       48.099998
  H3        60.660000       25.230000       48.770000
  C9        61.060001       25.709999       46.790001
  H4        60.740002       24.799999       46.330002
  C10       63.169998       24.459999       44.349998
  H5        63.060001       24.080000       45.349998
  C11       63.889999       23.709999       43.430000
  H6        63.930000       22.650000       43.389999
  C12       64.309998       24.320000       42.240002
  H7        64.889999       23.660000       41.520000
  C13       63.889999       25.629999       41.889999
  H8        63.980000       26.000000       40.860001
  C6        62.950001       28.600000       41.790001
  C1        64.260002       29.080000       41.610001
  H1        65.029999       28.950001       42.349998
  C2        64.629997       29.590000       40.380001
  H2        65.730003       29.750000       40.150002
  C3        63.700001       29.680000       39.320000
  H3        64.010002       30.100000       38.360001
  C4        62.400002       29.150000       39.520000
  H4        61.660000       29.490000       38.820000
  C5        62.020000       28.639999       40.779999
  H5        61.080002       28.240000       40.930000
  C1        56.560001       27.379999       44.590000
  C2        56.290001       28.670000       45.099998
  N1        57.910000       27.309999       44.220001
  C3c       58.590000       28.559999       44.529999
  N2        57.560001       29.389999       45.090000
  C4        58.009998       30.610001       45.660000
  C5c       59.410000       30.840000       45.660000
  C6        59.849998       31.950001       46.320000
  H1        60.910000       32.119999       46.459999
  C7        59.040001       32.799999       47.099998
  H2        59.599998       33.480000       47.639999
  C8        57.669998       32.599998       47.090000
  H3        57.139999       33.360001       47.630001
  C9        57.220001       31.459999       46.419998
  H4        56.200001       31.139999       46.549999
  C10       54.930000       29.010000       45.360001
  H5        54.619999       30.070000       45.419998
  C11       53.860001       28.020000       45.259998
  H6        52.830002       28.290001       45.330002
  C12       54.180000       26.730000       44.889999
  H7        53.459999       26.020000       45.130001
  C13       55.490002       26.450001       44.439999
  H8        55.869999       25.469999       44.330002
  C6        58.509998       26.180000       43.610001
  C1        59.230000       26.270000       42.450001
  H1        59.470001       27.280001       42.070000
  C2        60.009998       25.320000       41.810001
  H2        60.360001       25.500000       40.779999
  C3        60.209999       24.150000       42.560001
  H3        61.009998       23.469999       42.349998
  C4        59.500000       23.990000       43.779999
  H4        59.590000       23.040001       44.290001
  C5        58.639999       24.969999       44.259998
  H5        58.279999       24.840000       45.220001
  IR        50.869999       22.870001       49.090000
  C1        54.060001       20.900000       46.990002
  C2        54.549999       22.180000       47.250000
  N1        52.820000       20.700001       47.529999
  C3a       52.490002       21.879999       48.230000
  N2        53.570000       22.670000       48.110001
  C4        53.450001       23.900000       48.840000
  C5a       52.230000       24.459999       48.840000
  C6        52.070000       25.799999       49.139999
  H1        51.000000       26.090000       49.150002
  C7        53.150002       26.610001       49.599998
  H2        52.959999       27.670000       49.919998
  C8        54.430000       26.040001       49.720001
  H3        55.220001       26.580000       50.150002
  C9        54.549999       24.709999       49.340000
  H4        55.340000       24.100000       49.820000
  C10       55.790001       22.530001       46.820000
  H5        56.139999       23.520000       46.830002
  C11       56.580002       21.639999       46.110001
  H6        57.570000       22.000000       45.790001
  C12       56.080002       20.389999       45.779999
  H7        56.740002       19.629999       45.419998
  C13       54.830002       20.020000       46.320000
  H8        54.389999       19.090000       46.000000
  C6        52.389999       19.420000       48.020000
  C1        51.330002       18.889999       47.250000
  H1        51.090000       19.450001       46.369999
  C2        51.009998       17.540001       47.450001
  H2        50.189999       17.090000       46.900002
  C3        51.490002       16.879999       48.590000
  H3        51.310001       15.860000       48.570000
  C4        52.560001       17.490000       49.349998
  H4        52.830002       17.160000       50.320000
  C5        53.000000       18.770000       49.020000
  H5        53.939999       19.100000       49.419998
  C1        52.720001       23.660000       52.970001
  C2        51.630001       24.480000       52.970001
  N1        52.549999       22.740000       51.939999
  C3b       51.520000       23.150000       51.090000
  N2        50.919998       24.170000       51.759998
  C4        49.630001       24.469999       51.310001
  C5b       49.380001       24.100000       49.980000
  C6        48.180000       24.540001       49.380001
  H1        47.950001       24.290001       48.349998
  C7        47.290001       25.270000       50.169998
  H2        46.330002       25.500000       49.689999
  C8        47.529999       25.540001       51.509998
  H3        46.849998       26.190001       52.020000
  C9        48.639999       25.090000       52.110001
  H4        48.910000       25.530001       53.040001
  C10       51.500000       25.450001       53.980000
  H5        50.939999       26.280001       53.720001
  C11       52.419998       25.629999       54.970001
  H6        52.299999       26.420000       55.669998
  C12       53.509998       24.760000       55.009998
  H7        54.320000       24.889999       55.700001
  C13       53.639999       23.799999       54.000000
  H8        54.430000       23.110001       54.139999
  C6        53.130001       21.389999       52.090000
  C1        52.220001       20.410000       52.320000
  H1        51.220001       20.559999       52.610001
  C2        52.560001       19.080000       52.389999
  H2        51.750000       18.379999       52.389999
  C3        53.830002       18.730000       52.400002
  H3        54.209999       17.719999       52.619999
  C4        54.820000       19.680000       52.200001
  H4        55.830002       19.420000       52.330002
  C5        54.480000       21.059999       52.009998
  H5        55.340000       21.750000       51.840000
  C1        47.709999       19.850000       49.020000
  C2        47.880001       20.299999       47.709999
  N1        48.619999       20.610001       49.810001
  C3c       49.290001       21.500000       49.029999
  N2        48.810001       21.370001       47.759998
  C4        49.009998       22.450001       46.820000
  C5c       50.200001       23.110001       47.060001
  C6        50.590000       24.020000       46.080002
  H1        51.590000       24.389999       46.150002
  C7        49.750000       24.350000       45.009998
  H2        50.200001       24.680000       44.099998
  C8        48.450001       23.709999       44.930000
  H3        47.750000       24.139999       44.220001
  C9        48.119999       22.750000       45.840000
  H4        47.340000       22.020000       45.590000
  C10       47.290001       19.559999       46.680000
  H5        47.389999       19.879999       45.630001
  C11       46.610001       18.430000       47.000000
  H6        46.209999       17.770000       46.240002
  C12       46.529999       17.969999       48.330002
  H7        45.910000       17.020000       48.500000
  C13       47.070000       18.680000       49.380001
  H8        46.680000       18.330000       50.310001
  C6        48.160000       21.020000       51.110001
  C1        47.099998       21.950001       51.180000
  H1        46.939999       22.600000       50.360001
  C2        46.430000       22.000000       52.410000
  H2        45.700001       22.790001       52.590000
  C3        46.750000       21.209999       53.540001
  H3        46.500000       21.370001       54.590000
  C4        47.770000       20.280001       53.389999
  H4        48.090000       19.530001       54.139999
  C5        48.439999       20.129999       52.150002
  H5        49.250000       19.480000       52.209999
