206
 generated by VMD
 Ir      131.216537      -19.794273      -84.895790
 C       128.605667      -17.649384      -87.688797
 C       129.607819      -18.198990      -88.491928
 N       128.937393      -17.998466      -86.370193
 C       130.109192      -18.674835      -86.235909
 N       130.489563      -18.802330      -87.590149
 C       131.737259      -19.409420      -87.813965
 C       132.373566      -19.907661      -86.669647
 C       133.720596      -20.463951      -86.735809
 H       134.371124      -20.673080      -85.874359
 C       134.246521      -20.730061      -88.022903
 H       135.090347      -21.359428      -88.038391
 C       133.537933      -20.298035      -89.147308
 H       134.109375      -20.287323      -90.112061
 C       132.319092      -19.584202      -89.106720
 H       132.010742      -19.051723      -89.991699
 C       129.596558      -17.895367      -89.833488
 H       130.485107      -17.971619      -90.428947
 C       128.586548      -17.131371      -90.435371
 H       128.833984      -16.820148      -91.395592
 C       127.494972      -16.709427      -89.678131
 H       126.718422      -16.122746      -90.163185
 C       127.533882      -16.893375      -88.270134
 H       126.723206      -16.486736      -87.599289
 C       128.320709      -17.414051      -85.207764
 C       129.046021      -16.453735      -84.454971
 H       129.964966      -16.023239      -84.771713
 C       128.590500      -15.855714      -83.265244
 H       129.289185      -15.155374      -82.800728
 C       127.290535      -16.109283      -82.798447
 H       126.766449      -15.352365      -82.283371
 C       126.531631      -17.060757      -83.492973
 H       125.579285      -17.355026      -83.145790
 C       126.997452      -17.672668      -84.681534
 H       126.417511      -18.398117      -85.120163
 C       129.875458      -23.800564      -85.968430
 C       130.736572      -24.047840      -84.931778
 N       129.934097      -22.413265      -86.255066
 C       130.695923      -21.715416      -85.348724
 N       131.218918      -22.770344      -84.518188
 C       132.130920      -22.352654      -83.556580
 C       132.540070      -20.976582      -83.723618
 C       133.574646      -20.518925      -82.937744
 H       134.054611      -19.581402      -83.120987
 C       134.291992      -21.348969      -82.000168
 H       135.228363      -21.046364      -81.594040
 C       133.844971      -22.658264      -81.818733
 H       134.358551      -23.335419      -81.292984
 C       132.734161      -23.162632      -82.574524
 H       132.022888      -23.736210      -82.020279
 C       130.843658      -25.381397      -84.437653
 H       131.663666      -25.634174      -83.789429
 C       130.050934      -26.406227      -84.936279
 H       129.808716      -27.305996      -84.427818
 C       129.194763      -26.137070      -86.012894
 H       128.564407      -27.008839      -86.377686
 C       129.010315      -24.817116      -86.501472
 H       128.154282      -24.561390      -87.139999
 C       129.241547      -21.831409      -87.365524
 C       129.567886      -22.169342      -88.691498
 H       130.462784      -22.709080      -88.946907
 C       128.638870      -21.954887      -89.691925
 H       128.789703      -22.439816      -90.707108
 C       127.389526      -21.358456      -89.409088
 H       126.675354      -21.184822      -90.217728
 C       127.074600      -21.067520      -88.057396
 H       126.268997      -20.370808      -87.920242
 C       128.028503      -21.276360      -87.038315
 H       127.802368      -21.079872      -86.050209
 C       129.668823      -19.254910      -80.782242
 C       130.326294      -18.035694      -81.062157
 N       129.717712      -20.070503      -81.920975
 C       130.467682      -19.417561      -82.985031
 N       130.847977      -18.152538      -82.420685
 C       131.764420      -17.395344      -83.196945
 C       132.234329      -17.990700      -84.395966
 C       133.209015      -17.318935      -85.074203
 H       133.694305      -17.773136      -85.928772
 C       133.864685      -16.160831      -84.609558
 H       134.675827      -15.912311      -85.199371
 C       133.400665      -15.557481      -83.452988
 H       133.899017      -14.631005      -83.244659
 C       132.407501      -16.248463      -82.755013
 H       132.154953      -15.940862      -81.754364
 C       130.227264      -16.991020      -80.096939
 H       130.406586      -15.939717      -80.390038
 C       129.608276      -17.209892      -78.791580
 H       129.417664      -16.408356      -78.113411
 C       129.096252      -18.457165      -78.499115
 H       128.956848      -18.640720      -77.485718
 C       129.015564      -19.424118      -79.526489
 H       128.827209      -20.448494      -79.347366
 C       129.099564      -21.342495      -82.015457
 C       128.255417      -21.672089      -83.040588
 H       128.180939      -20.970848      -83.891953
 C       127.700562      -22.896130      -83.378769
 H       126.884148      -22.943577      -84.118378
 C       128.219650      -23.976734      -82.647858
 H       128.126480      -24.988525      -82.985641
 C       129.108337      -23.710690      -81.571968
 H       129.415802      -24.547482      -80.958824
 C       129.496216      -22.416927      -81.246193
 H       130.254669      -22.322479      -80.550552
 Ir      131.216522      -19.794270      -72.398941
 C       129.821289      -23.215084      -74.594009
 C       130.473480      -22.430676      -75.545578
 N       129.908615      -22.684692      -73.336929
 C       130.702332      -21.522850      -73.443802
 N       131.078568      -21.475121      -74.732620
 C       131.973877      -20.389751      -75.016495
 C       131.720123      -19.241562      -74.368988
 C       132.225525      -18.042702      -74.836418
 H       131.971069      -17.202164      -74.159775
 C       133.145844      -17.978420      -75.924057
 H       133.603485      -16.994465      -76.214767
 C       133.527420      -19.168556      -76.568787
 H       134.276947      -19.164993      -77.302826
 C       132.937485      -20.336697      -76.104950
 H       133.498062      -21.284939      -76.219833
 C       130.519287      -22.836922      -76.840897
 H       130.837051      -22.213963      -77.624268
 C       129.914581      -24.016911      -77.243690
 H       129.989349      -24.274567      -78.311447
 C       129.200348      -24.770874      -76.325638
 H       128.908844      -25.770306      -76.568474
 C       129.249832      -24.375572      -74.972023
 H       128.628555      -24.898354      -74.263779
 C       129.972839      -23.502769      -72.157944
 C       128.827271      -23.346531      -71.345139
 H       128.050140      -22.748344      -71.773911
 C       128.640381      -24.284277      -70.320145
 H       127.788498      -24.196518      -69.653809
 C       129.711578      -25.099926      -69.929184
 H       129.429718      -25.843121      -69.264793
 C       130.867249      -25.195566      -70.795151
 H       131.784332      -25.620226      -70.476830
 C       130.955002      -24.383101      -71.923462
 H       131.678894      -24.637526      -72.674301
 C       135.549500      -20.178692      -72.821548
 C       135.388245      -18.888271      -72.410080
 N       134.350769      -20.844730      -72.585663
 C       133.332275      -19.927326      -72.316345
 N       133.983765      -18.746372      -72.142494
 C       133.236633      -17.774094      -71.469391
 C       131.847076      -17.940022      -71.568710
 C       131.016144      -16.902374      -71.092842
 H       129.936493      -16.980209      -71.160812
 C       131.632370      -15.798690      -70.500198
 H       130.942642      -15.069549      -70.055756
 C       133.007751      -15.709914      -70.337273
 H       133.410339      -14.790301      -69.966812
 C       133.809448      -16.705326      -70.738556
 H       134.846985      -16.492687      -70.837181
 C       136.487976      -18.012482      -72.448219
 H       136.246765      -17.011234      -72.545258
 C       137.724426      -18.379833      -72.889977
 H       138.501709      -17.658630      -72.954880
 C       137.912689      -19.711636      -73.260727
 H       138.826370      -20.058636      -73.701057
 C       136.815002      -20.579151      -73.227814
 H       137.042633      -21.593605      -73.424950
 C       134.389130      -22.287590      -72.272453
 C       134.127747      -22.587978      -70.975212
 H       134.126465      -21.902603      -70.177170
 C       134.023254      -23.879585      -70.516701
 H       133.635269      -24.004353      -69.526749
 C       134.344421      -24.882027      -71.308823
 H       134.457184      -25.931231      -70.993614
 C       134.651764      -24.651363      -72.641090
 H       135.024567      -25.433395      -73.236099
 C       134.654785      -23.318375      -73.169510
 H       134.897522      -23.229942      -74.254807
 C       129.578552      -20.520329      -68.411354
 C       128.502380      -20.243294      -69.255508
 N       130.744553      -20.402023      -69.221451
 C       130.402939      -20.041428      -70.487427
 N       129.048920      -19.879635      -70.513023
 C       128.455307      -19.098003      -71.574463
 C       129.173309      -19.219612      -72.748779
 C       128.565018      -18.685318      -73.882401
 H       129.007965      -18.940311      -74.820786
 C       127.382690      -17.940758      -73.797974
 H       126.738914      -17.920181      -74.649231
 C       126.784531      -17.740868      -72.490974
 H       126.000145      -16.992111      -72.435318
 C       127.335526      -18.350216      -71.403000
 H       126.717705      -18.516651      -70.511703
 C       127.213676      -20.524635      -68.790024
 H       126.331802      -20.315907      -69.417419
 C       127.074837      -21.078257      -67.558792
 H       126.111275      -21.400021      -67.182999
 C       128.194763      -21.414082      -66.771469
 H       127.971252      -21.852402      -65.735268
 C       129.480850      -21.129507      -67.175453
 H       130.157272      -21.200310      -66.352684
 C       131.899963      -19.804516      -68.606857
 C       131.835449      -18.439892      -68.250443
 H       131.156784      -17.812115      -68.766006
 C       132.788544      -18.022484      -67.311455
 H       132.897446      -16.958935      -67.096039
 C       133.775482      -18.855934      -66.732918
 H       134.710358      -18.583199      -66.240738
 C       133.753418      -20.198109      -67.087708
 H       134.394775      -20.998447      -66.668724
 C       132.770554      -20.698280      -67.978088
 H       132.937927      -21.690853      -68.240730
