206
 generated by VMD
 Ir       56.707275       47.382477       -1.567774
 C        59.021961       51.069328       -1.982190
 C        59.759674       50.260773       -1.139205
 N        57.801128       50.402176       -2.176028
 C        57.820705       49.128021       -1.615008
 N        59.071644       49.038086       -0.974721
 C        59.223534       47.946899        0.013986
 C        58.200447       47.016609       -0.049657
 C        58.186687       45.888519        0.783490
 H        57.645851       45.029953        0.454160
 C        59.272865       45.718811        1.677925
 H        59.214294       44.872589        2.329294
 C        60.299046       46.614826        1.815835
 H        61.012745       46.373245        2.564678
 C        60.272614       47.752274        1.014265
 H        61.189835       48.383068        0.930618
 C        60.920483       50.754601       -0.682197
 H        61.490837       50.169888        0.001761
 C        61.386150       51.992149       -1.004270
 H        62.330204       52.235767       -0.625451
 C        60.621899       52.819427       -1.810578
 H        60.946938       53.884895       -1.852092
 C        59.439232       52.329933       -2.334695
 H        58.844360       52.988228       -3.068501
 C        56.624916       51.217834       -2.211135
 C        56.064018       51.576271       -0.994987
 H        56.592110       51.466991       -0.011739
 C        54.820950       52.234711       -1.052745
 H        54.395378       52.566849       -0.150596
 C        54.040154       52.390652       -2.209959
 H        53.216377       53.006767       -2.253531
 C        54.661789       51.961113       -3.438560
 H        54.061935       51.933830       -4.273144
 C        55.928467       51.343216       -3.400773
 H        56.349579       51.019203       -4.266673
 C        59.238602       44.734024       -4.011707
 C        58.027901       44.033985       -3.799695
 N        59.077595       45.988655       -3.432677
 C        57.824226       46.105949       -2.763558
 N        57.268272       44.890003       -2.965013
 C        56.065853       44.616879       -2.146968
 C        55.693119       45.567825       -1.228018
 C        54.796753       45.244324       -0.195509
 H        54.669815       45.995651        0.588769
 C        54.233101       43.956726       -0.185997
 H        53.546684       43.739223        0.638944
 C        54.405769       43.027527       -1.217198
 H        54.057198       42.066818       -1.246192
 C        55.379143       43.404099       -2.161089
 H        55.539047       42.712036       -2.946316
 C        57.856453       42.744385       -4.306976
 H        56.892960       42.223999       -4.204108
 C        58.867683       42.114899       -5.015255
 H        58.536171       41.197067       -5.462784
 C        60.121170       42.767586       -5.117601
 H        60.966949       42.213692       -5.482493
 C        60.293602       44.088371       -4.630977
 H        61.240376       44.544609       -4.473260
 C        60.014481       47.137760       -3.657635
 C        59.640316       48.347549       -4.327865
 H        58.717812       48.515549       -4.912125
 C        60.656139       49.258972       -4.641569
 H        60.477436       50.093285       -5.322226
 C        62.005684       49.136547       -4.185998
 H        62.726223       49.941349       -4.239052
 C        62.287235       47.978516       -3.500145
 H        63.223068       47.793655       -2.979428
 C        61.331829       46.969765       -3.267539
 H        61.632942       45.984432       -2.813832
 C        53.384972       48.526661       -4.108824
 C        53.079262       49.057320       -2.872277
 N        54.618732       47.865738       -4.002000
 C        55.037132       47.901913       -2.697953
 N        54.050270       48.609383       -1.962773
 C        54.183132       48.528885       -0.582205
 C        55.512650       48.335350       -0.099375
 C        55.777527       48.806267        1.209739
 H        56.813683       48.794102        1.458590
 C        54.798630       49.329750        2.006437
 H        55.107128       49.977627        2.815067
 C        53.488270       49.258827        1.585222
 H        52.760204       49.747341        2.166836
 C        53.163364       48.880211        0.267350
 H        52.179878       48.683403       -0.033018
 C        51.917656       49.808212       -2.651080
 H        51.732395       50.125484       -1.600168
 C        51.030708       50.015297       -3.774885
 H        50.017120       50.292130       -3.569933
 C        51.311714       49.404171       -4.993680
 H        50.572502       49.198471       -5.794401
 C        52.491486       48.670761       -5.177943
 H        52.627098       48.046013       -6.080549
 C        55.232056       47.175537       -5.043563
 C        56.054832       47.951344       -5.885795
 H        56.091511       48.991898       -5.697906
 C        56.800213       47.339127       -6.953411
 H        57.520500       48.038948       -7.460202
 C        56.629818       45.984138       -7.186605
 H        57.337723       45.552345       -7.877200
 C        55.677448       45.196423       -6.426616
 H        55.260605       44.277969       -6.821058
 C        55.038933       45.802444       -5.300326
 H        54.487240       45.256813       -4.586653
 Ir       56.707275       47.382473       10.669218
 C        60.466309       48.459709        8.727695
 C        60.256607       47.112770        8.369241
 N        59.452644       48.862801        9.544334
 C        58.559067       47.822868        9.766709
 N        59.052887       46.758488        9.026004
 C        58.171879       45.616745        8.911367
 C        57.280807       45.491619        9.977316
 C        56.535904       44.319458       10.162100
 H        55.879963       44.231705       10.981028
 C        56.722248       43.263062        9.249361
 H        56.058594       42.407730        9.282112
 C        57.507439       43.425552        8.104078
 H        57.698174       42.463539        7.653478
 C        58.235008       44.610176        7.884025
 H        58.422249       44.844940        6.814481
 C        61.202106       46.495056        7.481965
 H        61.013317       45.441971        7.234028
 C        62.276268       47.214294        6.992301
 H        63.024143       46.779400        6.337665
 C        62.514893       48.487030        7.409562
 H        63.521885       48.957512        7.281851
 C        61.663750       49.121613        8.307430
 H        62.080509       49.918510        8.905650
 C        59.552986       50.068291       10.337570
 C        58.803535       51.232658       10.127877
 H        58.193306       51.315784        9.294861
 C        58.805359       52.302826       11.060687
 H        58.084663       53.078636       10.977466
 C        59.576492       52.278496       12.198255
 H        59.677284       53.158337       12.901760
 C        60.453217       51.174015       12.349501
 H        60.960430       51.124001       13.358278
 C        60.505070       50.102608       11.412539
 H        61.147377       49.271324       11.630958
 C        54.322403       48.060440        7.043198
 C        53.452065       47.514191        7.924687
 N        55.580257       48.052208        7.652235
 C        55.531857       47.549957        8.958799
 N        54.235329       47.134956        9.132239
 C        53.867302       46.553410       10.400688
 C        54.841137       46.550896       11.406590
 C        54.487663       46.177708       12.704619
 H        55.295692       46.089558       13.350695
 C        53.179260       45.661659       12.899244
 H        52.961494       45.280891       13.906713
 C        52.215599       45.712837       11.914034
 H        51.252106       45.216198       12.130198
 C        52.551781       46.114727       10.648821
 H        51.888962       45.749336        9.799496
 C        52.050018       47.533714        7.543647
 H        51.364609       46.986774        8.166676
 C        51.588242       48.045868        6.310010
 H        50.572266       48.154129        6.124866
 C        52.559555       48.527901        5.452577
 H        52.247452       48.849945        4.500645
 C        53.903957       48.521454        5.807043
 H        54.575592       48.873726        5.088010
 C        56.784653       48.074570        6.838212
 C        57.518501       49.223129        6.902870
 H        57.351181       49.829773        7.786321
 C        58.547497       49.508022        5.958781
 H        59.144371       50.398933        6.039487
 C        58.844971       48.572632        4.977428
 H        59.572773       48.853184        4.259311
 C        58.004372       47.439003        4.876979
 H        58.131531       46.970783        3.866535
 C        56.997894       47.154739        5.798872
 H        56.444794       46.223896        5.693878
 C        55.944160       51.342117       12.267291
 C        56.641312       50.724514       13.299733
 N        55.667549       50.352966       11.274236
 C        56.271126       49.123756       11.640502
 N        56.778458       49.306549       12.966776
 C        57.562317       48.154785       13.473044
 C        57.614281       47.092117       12.558965
 C        58.227425       45.899120       12.990018
 H        58.074020       44.931381       12.451453
 C        58.748749       45.780624       14.322077
 H        59.276009       44.880165       14.759767
 C        58.735634       46.936829       15.156529
 H        59.296227       47.012161       16.047239
 C        58.094475       48.089905       14.736492
 H        57.955307       48.874275       15.473242
 C        57.112034       51.464844       14.347607
 H        57.557739       50.935059       15.185982
 C        56.944229       52.840881       14.368951
 H        57.562786       53.484352       14.924315
 C        56.199173       53.509014       13.352395
 H        56.344028       54.553284       13.420353
 C        55.719368       52.759941       12.286054
 H        55.195065       53.193016       11.423817
 C        54.564499       50.386040       10.322826
 C        53.259476       50.045998       10.773590
 H        53.121647       49.635292       11.739678
 C        52.224968       50.312424        9.916256
 H        51.249298       49.865070       10.152981
 C        52.395470       50.861477        8.608712
 H        51.545341       51.402550        8.126307
 C        53.664143       51.013741        8.129347
 H        53.978310       50.839985        7.136619
 C        54.755600       50.865849        8.989198
 H        55.698528       51.247665        8.685889
