206
 generated by VMD
 Ir       54.343365      143.272919       55.747505
 C        51.069717      145.670837       57.424114
 C        50.926231      145.758301       56.078392
 N        52.314629      144.978119       57.692509
 C        53.000343      144.641235       56.542603
 N        52.136765      145.239777       55.512421
 C        52.838058      145.251923       54.216484
 C        53.798515      144.298553       54.012287
 C        54.357822      144.200943       52.768200
 H        54.925060      143.287231       52.684002
 C        54.002823      145.057770       51.720047
 H        54.184410      144.821487       50.719894
 C        53.047348      146.053192       51.957504
 H        52.514187      146.625580       51.244553
 C        52.432510      146.043518       53.204254
 H        51.610428      146.724243       53.383709
 C        49.696617      146.236359       55.516941
 H        49.636292      146.526123       54.480171
 C        48.705276      146.521439       56.393337
 H        47.739464      146.825806       55.987900
 C        48.836945      146.447754       57.747452
 H        47.886322      146.399261       58.275909
 C        50.013672      146.011414       58.285152
 H        50.035885      145.896744       59.385811
 C        52.909439      144.837585       58.950546
 C        54.085129      145.543762       59.231335
 H        54.346706      146.531769       58.787766
 C        54.886215      145.183441       60.330482
 H        55.795525      145.650116       60.653389
 C        54.475300      144.200653       61.174644
 H        55.063103      144.091949       62.180016
 C        53.301483      143.408936       60.941593
 H        53.322067      142.461823       61.405441
 C        52.499054      143.833069       59.831139
 H        51.525352      143.445145       59.836178
 C        51.695381      139.988647       55.077751
 C        52.797508      139.674561       54.404800
 N        51.807137      141.342285       55.538143
 C        52.972301      141.917450       55.090294
 N        53.564079      140.864777       54.387489
 C        54.886375      141.084595       53.791149
 C        55.575466      141.934280       54.699982
 C        56.947826      142.001923       54.423851
 H        57.444496      142.871094       54.696537
 C        57.492233      141.243866       53.337578
 H        58.562531      141.416046       53.227074
 C        56.721539      140.434448       52.462208
 H        57.167755      139.724747       51.801525
 C        55.382408      140.431686       52.702454
 H        54.740356      140.105804       51.833794
 C        53.124153      138.362869       54.111282
 H        54.016762      138.141693       53.562714
 C        52.228195      137.321045       54.441391
 H        52.442871      136.377655       53.957558
 C        51.022156      137.626801       55.053253
 H        50.440056      136.780670       55.503807
 C        50.769936      138.974747       55.392017
 H        49.781006      139.096252       55.849560
 C        50.615234      142.048889       55.845505
 C        49.817848      142.514709       54.792801
 H        50.132381      142.550262       53.771770
 C        48.476578      142.887848       54.960957
 H        47.681526      142.712830       54.201042
 C        47.920311      142.843384       56.251961
 H        46.866455      143.009064       56.498001
 C        48.750641      142.462738       57.330311
 H        48.333019      142.382980       58.326469
 C        50.023987      142.024384       57.173634
 H        50.625572      141.803284       58.144669
 C        55.842674      141.551422       59.491154
 C        56.727997      142.556641       59.229950
 N        55.033043      141.480713       58.349003
 C        55.207298      142.452332       57.452217
 N        56.332386      143.124878       58.026627
 C        56.739559      144.309982       57.369148
 C        55.950687      144.635498       56.249050
 C        56.119602      145.899719       55.650513
 H        55.453079      146.215118       54.909657
 C        57.125534      146.721970       55.978352
 H        57.361263      147.542450       55.344589
 C        58.047478      146.372467       56.991600
 H        58.962563      146.832947       57.261322
 C        57.831268      145.176086       57.721901
 H        58.596516      144.821808       58.355774
 C        57.800037      142.762772       60.185574
 H        58.323254      143.701813       60.071327
 C        57.876251      141.997437       61.358269
 H        58.484188      142.294662       62.202106
 C        56.981209      140.900482       61.589588
 H        57.239235      140.236481       62.375416
 C        55.972343      140.709900       60.625862
 H        55.297714      139.825287       60.675964
 C        54.290451      140.217224       58.091633
 C        54.960075      139.056549       57.627937
 H        56.042999      139.172882       57.483925
 C        54.286011      137.867432       57.702190
 H        54.956108      136.980453       57.385391
 C        52.915245      137.734558       58.087608
 H        52.310036      136.831757       58.027031
 C        52.267776      138.932190       58.474205
 H        51.198486      138.986938       58.547188
 C        52.935951      140.134384       58.465492
 H        52.504280      140.960052       58.956337
 Ir       54.343365      143.272919       68.322929
 C        56.964111      139.915955       67.944656
 C        57.068356      140.601471       66.680504
 N        56.508862      140.818939       68.918488
 C        56.020775      142.013763       68.271652
 N        56.528923      141.866837       66.941231
 C        56.403553      143.111908       66.269684
 C        55.183075      143.791321       66.462402
 C        54.797222      144.758728       65.546593
 H        53.923710      145.410461       65.701256
 C        55.657280      145.222931       64.518143
 H        55.325176      146.156372       64.067154
 C        56.960945      144.726959       64.474869
 H        57.634712      145.013672       63.713791
 C        57.338333      143.598206       65.286278
 H        58.254356      143.105560       64.954170
 C        57.508808      139.847809       65.631317
 H        57.627609      140.422852       64.688065
 C        57.653221      138.449615       65.675896
 H        57.969460      137.854080       64.764069
 C        57.480507      137.714432       66.853760
 H        57.848118      136.708054       67.021873
 C        57.161171      138.483658       67.976364
 H        56.981792      138.054749       68.999474
 C        57.061684      140.761444       70.243164
 C        58.409779      140.652649       70.389153
 H        59.017334      140.776947       69.515640
 C        58.944984      140.602737       71.652740
 H        60.027809      140.763382       71.864586
 C        58.123192      140.534027       72.776680
 H        58.701466      140.602570       73.739754
 C        56.699463      140.669678       72.623116
 H        56.027023      140.608093       73.469139
 C        56.187187      140.727173       71.355492
 H        55.112354      140.749237       71.236115
 C        55.838562      147.108032       69.848862
 C        54.567314      147.384583       69.464233
 N        56.113548      145.781128       69.555267
 C        55.051582      145.124481       68.948257
 N        54.065063      146.200348       68.962418
 C        52.801361      145.808014       68.376122
 C        52.643360      144.472565       68.059013
 C        51.410191      144.002655       67.500099
 H        51.223888      142.939850       67.362602
 C        50.347012      144.847214       67.262016
 H        49.406410      144.493637       66.900009
 C        50.538403      146.234131       67.494041
 H        49.994785      147.057800       66.997086
 C        51.720154      146.681213       68.089516
 H        51.707325      147.642319       68.613914
 C        54.113781      148.661819       69.516678
 H        53.073608      148.960815       69.372673
 C        54.894348      149.775970       69.882019
 H        54.481102      150.784607       69.979454
 C        56.206718      149.464966       70.261963
 H        56.866039      150.269165       70.369957
 C        56.644405      148.122864       70.269852
 H        57.534374      147.871490       70.815071
 C        57.497299      145.347168       69.737244
 C        58.275425      145.288269       68.570724
 H        58.140167      145.871033       67.709915
 C        59.444763      144.596985       68.635193
 H        59.842178      144.264954       67.714752
 C        59.846748      144.000458       69.846252
 H        60.898834      143.674622       69.908188
 C        59.100410      144.201080       71.039253
 H        59.553734      143.885406       71.980713
 C        57.897194      144.856140       70.986588
 H        57.299507      145.092880       71.853088
 C        52.639030      141.761963       72.024887
 C        52.228622      140.833893       71.065193
 N        53.169102      142.865082       71.341400
 C        53.287369      142.576538       69.956863
 N        52.654720      141.313766       69.805367
 C        52.633968      140.773712       68.495094
 C        53.284405      141.607758       67.517487
 C        53.395470      141.119476       66.236221
 H        53.741974      141.879730       65.523712
 C        52.935650      139.849701       65.839195
 H        53.098911      139.386169       64.876610
 C        52.208698      139.084930       66.809845
 H        51.887802      138.085907       66.473572
 C        52.086464      139.558350       68.123596
 H        51.328415      139.144394       68.760551
 C        51.425106      139.793488       71.427742
 H        51.094875      138.939423       70.840469
 C        50.958099      139.623199       72.741180
 H        50.217148      138.903229       73.046997
 C        51.392204      140.523376       73.708572
 H        50.949142      140.556366       74.698273
 C        52.252831      141.599640       73.391304
 H        52.584946      142.110504       74.234886
 C        53.414623      144.190826       71.964355
 C        52.452576      145.184357       71.838425
 H        51.435486      144.912384       71.592133
 C        52.698883      146.455658       72.313599
 H        51.967365      147.192108       72.195580
 C        53.895306      146.754120       72.935448
 H        54.267426      147.745789       72.879524
 C        54.748699      145.733856       73.285835
 H        55.650497      146.033844       73.871719
 C        54.537483      144.435684       72.761177
 H        55.201515      143.631500       73.062126
