206
 generated by VMD
  IR        31.930000        8.760000       50.189999
  C1        32.869999       11.690000       47.049999
  C2        32.200001       10.680000       46.419998
  N1        33.020000       11.290000       48.430000
  C3a       32.410000       10.060000       48.650002
  N2        31.840000        9.760000       47.430000
  C4        31.040001        8.610000       47.419998
  C5a       31.160000        7.800000       48.520000
  C6        30.719999        6.460000       48.540001
  H1        31.090000        5.750000       49.299999
  C7        30.040001        6.020000       47.430000
  H2        29.360001        5.150000       47.480000
  C8        29.870001        6.800000       46.279999
  H3        29.420000        6.280000       45.389999
  C9        30.379999        8.080000       46.299999
  H4        29.750000        8.700000       45.720001
  C10       31.770000       10.890000       45.049999
  H5        31.410000       10.120000       44.360001
  C11       31.879999       12.150000       44.540001
  H6        31.459999       12.410000       43.570000
  C12       32.509998       13.180000       45.220001
  H7        32.570000       14.170000       44.820000
  C13       33.090000       12.950000       46.450001
  H8        33.889999       13.630000       46.540001
  C6        33.919998       12.010000       49.369999
  C1        33.490002       12.990000       50.250000
  H1        32.470001       13.020000       50.549999
  C2        34.520000       13.710000       50.889999
  H2        34.189999       14.610000       51.290001
  C3        35.880001       13.530000       50.680000
  H3        36.570000       14.210000       51.139999
  C4        36.290001       12.550000       49.720001
  H4        37.270000       12.400000       49.330002
  C5        35.320000       11.740000       49.139999
  H5        35.660000       11.030000       48.490002
  C1        27.879999        9.920000       51.119999
  C2        28.120001        8.850000       51.959999
  N1        28.990000       10.130000       50.240002
  C3b       29.950001        9.210000       50.570000
  N2        29.330000        8.370000       51.520000
  C4        29.969999        7.140000       51.759998
  C5b       31.370001        7.250000       51.529999
  C6        32.189999        6.230000       52.049999
  H1        33.299999        6.420000       52.060001
  C7        31.680000        5.170000       52.830002
  H2        32.250000        4.350000       53.169998
  C8        30.309999        5.130000       53.070000
  H3        29.870001        4.510000       53.790001
  C9        29.469999        6.060000       52.540001
  H4        28.459999        5.980000       52.840000
  C10       27.150000        8.580000       52.980000
  H5        27.260000        7.740000       53.549999
  C11       26.000000        9.300000       53.040001
  H6        25.219999        9.150000       53.750000
  C12       25.760000       10.380000       52.200001
  H7        24.770000       10.810000       52.270000
  C13       26.700001       10.740000       51.189999
  H8        26.629999       11.660000       50.619999
  C6        29.090000       11.070000       49.070000
  C1        29.700001       12.320000       49.180000
  H1        30.309999       12.620000       50.020000
  C2        29.480000       13.210000       48.139999
  H2        30.219999       13.980000       48.180000
  C3        28.809999       12.860000       46.970001
  H3        28.490000       13.510000       46.160000
  C4        28.400000       11.560000       46.840000
  H4        27.910000       11.150000       45.990002
  C5        28.510000       10.690000       47.869999
  H5        27.840000        9.810000       47.830002
  C1        33.790001       10.680000       53.580002
  C2        34.840000       10.110000       52.919998
  N1        32.660000       10.400000       52.880001
  C3c       32.889999        9.710000       51.740002
  N2        34.259998        9.540000       51.700001
  C4        34.810001        8.820000       50.520000
  C5c       33.849998        7.980000       49.889999
  C6        34.189999        6.920000       49.040001
  H1        33.459999        6.420000       48.520000
  C7        35.549999        6.560000       48.880001
  H2        35.860001        5.750000       48.279999
  C8        36.500000        7.290000       49.549999
  H3        37.500000        7.080000       49.279999
  C9        36.169998        8.420000       50.310001
  H4        37.029999        9.020000       50.700001
  C10       36.169998       10.190000       53.450001
  H5        37.020000        9.710000       52.959999
  C11       36.400002       10.830000       54.650002
  H6        37.459999       10.870000       54.919998
  C12       35.360001       11.520000       55.240002
  H7        35.560001       12.070000       56.189999
  C13       34.099998       11.470000       54.700001
  H8        33.259998       11.890000       55.250000
  C6        31.350000       10.800000       53.270000
  C1        30.719999       11.980000       52.840000
  H1        31.209999       12.620000       52.090000
  C2        29.480000       12.400000       53.380001
  H2        28.990000       13.210000       52.880001
  C3        28.850000       11.600000       54.400002
  H3        27.950001       12.030000       54.889999
  C4        29.469999       10.430000       54.820000
  H4        29.190001       10.010000       55.779999
  C5        30.690001       10.040000       54.270000
  H5        31.020000        9.070000       54.490002
  IR        27.350000       15.820000       60.540001
  C1        29.719999       18.969999       58.599998
  C2        29.639999       19.360001       59.880001
  N1        29.170000       17.680000       58.529999
  C3a       28.610001       17.299999       59.790001
  N2        28.930000       18.330000       60.630001
  C4        28.270000       18.340000       61.900002
  C5a       27.389999       17.209999       62.119999
  C6        26.790001       17.110001       63.380001
  H1        26.230000       16.270000       63.669998
  C7        26.950001       18.059999       64.339996
  H2        26.260000       18.030001       65.199997
  C8        27.840000       19.139999       64.089996
  H3        27.850000       19.980000       64.790001
  C9        28.490000       19.230000       62.930000
  H4        29.340000       19.870001       63.009998
  C10       30.160000       20.559999       60.220001
  H5        29.920000       20.889999       61.240002
  C11       30.840000       21.389999       59.290001
  H6        31.340000       22.330000       59.660000
  C12       31.020000       20.910000       57.970001
  H7        31.510000       21.450001       57.230000
  C13       30.309999       19.750000       57.619999
  H8        30.219999       19.510000       56.570000
  C6        28.709999       17.100000       57.270000
  C1        29.440001       16.070000       56.639999
  H1        30.410000       15.810000       57.049999
  C2        29.049999       15.540000       55.410000
  H2        29.770000       14.920000       54.849998
  C3        27.910000       16.059999       54.790001
  H3        27.559999       15.590000       53.970001
  C4        27.180000       17.150000       55.320000
  H4        26.240000       17.500000       54.799999
  C5        27.540001       17.600000       56.639999
  H5        26.820000       18.270000       57.150002
  C1        29.959999       12.920000       62.490002
  C2        28.700001       12.670000       62.930000
  N1        29.889999       14.140000       61.720001
  C3b       28.600000       14.670000       61.779999
  N2        27.870001       13.720000       62.529999
  C4        26.469999       13.840000       62.529999
  C5b       25.889999       14.720000       61.549999
  C6        24.540001       14.890000       61.509998
  H1        24.139999       15.610000       60.779999
  C7        23.709999       14.180000       62.340000
  H2        22.740000       14.140000       62.029999
  C8        24.200001       13.290000       63.290001
  H3        23.570000       12.750000       63.889999
  C9        25.559999       13.110000       63.419998
  H4        25.920000       12.630000       64.339996
  C10       28.410000       11.410000       63.419998
  H5        27.400000       11.060000       63.549999
  C11       29.450001       10.470000       63.529999
  H6        29.320000        9.410000       63.840000
  C12       30.780001       10.750000       63.119999
  H7        31.540001       10.010000       63.270000
  C13       31.049999       11.990000       62.560001
  H8        31.950001       12.150000       62.020000
  C6        31.100000       15.080000       61.570000
  C1        31.139999       16.230000       62.380001
  H1        30.309999       16.520000       63.020000
  C2        32.160000       17.100000       62.220001
  H2        32.040001       17.900000       62.990002
  C3        33.169998       16.910000       61.220001
  H3        33.730000       17.750000       60.840000
  C4        33.070000       15.760000       60.400002
  H4        33.860001       15.450000       59.759998
  C5        32.029999       14.780000       60.599998
  H5        31.850000       13.840000       60.189999
  C1        26.500000       12.650000       57.709999
  C2        25.570000       13.620000       57.500000
  N1        27.389999       13.210000       58.689999
  C3c       26.990000       14.470000       59.070000
  N2        25.879999       14.760000       58.340000
  C4        25.360001       16.090000       58.299999
  C5c       25.879999       16.809999       59.320000
  C6        25.450001       18.129999       59.509998
  H1        25.930000       18.840000       60.279999
  C7        24.410000       18.680000       58.750000
  H2        24.129999       19.730000       58.889999
  C8        23.840000       17.900000       57.720001
  H3        22.950001       18.240000       57.220001
  C9        24.370001       16.639999       57.450001
  H4        24.110001       16.200001       56.500000
  C10       24.559999       13.320000       56.639999
  H5        23.709999       14.020000       56.470001
  C11       24.480000       12.100000       55.830002
  H6        23.730000       11.810000       55.099998
  C12       25.430000       11.200000       56.110001
  H7        25.270000       10.170000       55.799999
  C13       26.480000       11.390000       57.040001
  H8        27.150000       10.580000       57.209999
  C6        28.660000       12.670000       59.000000
  C1        28.660000       11.550000       59.840000
  H1        27.879999       11.500000       60.560001
  C2        29.559999       10.480000       59.700001
  H2        29.480000        9.560000       60.410000
  C3        30.469999       10.560000       58.639999
  H3        31.230000        9.750000       58.590000
  C4        30.540001       11.680000       57.840000
  H4        31.430000       11.920000       57.240002
  C5        29.610001       12.690000       58.040001
  H5        29.430000       13.450000       57.270000
