206
 generated by VMD
 Ir       78.611412       63.510735       71.807953
 C        75.120224       65.893936       70.599632
 C        75.097290       64.782181       69.806313
 N        76.314529       65.802094       71.407158
 C        76.996368       64.620926       71.136307
 N        76.181290       63.979465       70.226654
 C        76.585724       62.682449       69.884918
 C        77.857605       62.342289       70.268509
 C        78.556656       61.243881       69.725891
 H        79.654503       61.167877       69.812759
 C        77.855652       60.433945       68.865250
 H        78.166351       59.389988       68.677063
 C        76.550644       60.715832       68.444168
 H        76.137634       60.055309       67.632912
 C        75.945450       61.840309       68.962021
 H        74.909943       61.649208       69.056450
 C        73.914734       64.535728       69.002121
 H        73.828629       63.814651       68.182831
 C        72.819275       65.313751       69.235519
 H        71.860748       65.102898       68.764709
 C        72.843857       66.402840       70.091949
 H        71.972427       66.991974       70.284950
 C        74.014450       66.764244       70.725426
 H        73.966415       67.805466       70.880478
 C        76.818924       66.948975       72.208557
 C        76.554611       67.121590       73.557640
 H        76.293625       66.282204       74.156494
 C        76.924637       68.377533       74.081635
 H        76.451813       68.590500       74.981628
 C        77.483612       69.420517       73.356491
 H        77.622543       70.369461       73.836388
 C        77.689011       69.231133       71.952194
 H        77.954430       69.971649       71.233734
 C        77.440750       67.976532       71.406525
 H        77.636414       67.875366       70.409683
 C        76.732864       60.744373       74.533997
 C        78.060623       60.363388       74.537048
 N        76.509727       61.789879       73.581253
 C        77.722137       62.094555       73.020767
 N        78.606430       61.117256       73.526169
 C        79.828720       60.984764       72.841660
 C        80.203186       62.219135       72.240738
 C        81.541443       62.351936       71.822823
 H        81.892792       63.386559       71.550034
 C        82.508133       61.347191       72.042114
 H        83.497070       61.379108       71.676224
 C        82.107071       60.176086       72.677536
 H        82.779068       59.469528       73.059113
 C        80.812653       59.977524       73.046928
 H        80.627495       59.086662       73.584129
 C        78.470261       59.402676       75.518593
 H        79.423073       59.037800       75.478508
 C        77.553833       58.829754       76.341049
 H        77.770020       58.093750       77.080353
 C        76.219574       59.216187       76.343300
 H        75.565796       58.619667       76.965103
 C        75.744995       60.200706       75.427444
 H        74.756996       60.642677       75.496132
 C        75.201973       62.385353       73.136627
 C        74.715302       63.577400       73.674103
 H        75.307541       64.252411       74.275192
 C        73.386986       63.877201       73.413742
 H        73.223488       64.917068       73.598236
 C        72.593773       63.124634       72.550758
 H        71.524551       63.209930       72.376167
 C        73.184830       62.073166       71.902626
 H        72.708557       61.438950       71.194366
 C        74.447372       61.691963       72.203575
 H        74.712021       60.650951       71.936836
 C        80.285706       66.116081       74.815781
 C        80.683731       66.686745       73.641510
 N        79.549194       65.015701       74.512436
 C        79.376259       64.833130       73.183769
 N        80.040192       65.889954       72.592384
 C        79.996674       65.959511       71.106934
 C        79.740616       64.696976       70.503151
 C        80.037933       64.405319       69.165909
 H        79.727081       63.520786       68.748444
 C        80.745605       65.350342       68.384277
 H        81.025238       65.169586       67.383621
 C        81.094269       66.544624       68.964310
 H        81.482895       67.269272       68.300339
 C        80.698845       66.882767       70.265350
 H        80.917480       67.930786       70.590225
 C        81.527634       67.846062       73.638428
 H        81.889885       68.297928       72.712357
 C        81.965210       68.387329       74.829254
 H        82.557114       69.298370       74.695969
 C        81.449127       67.890366       76.009285
 H        81.774902       68.357483       76.968803
 C        80.608948       66.806091       75.996452
 H        80.327835       66.329971       76.933884
 C        78.981689       64.134399       75.476517
 C        77.676300       64.248062       75.983711
 H        76.993477       65.007454       75.572273
 C        77.219971       63.436371       77.050720
 H        76.170387       63.466125       77.259705
 C        78.118164       62.472454       77.635025
 H        77.767349       61.951439       78.551804
 C        79.406509       62.355835       77.128799
 H        80.167297       61.892357       77.747505
 C        79.828560       63.167080       76.076775
 H        80.738098       62.916019       75.620796
 Ir       78.611404       63.510735       85.147461
 C        76.337906       67.213348       84.495667
 C        76.857773       67.358490       85.722687
 N        76.901184       66.049866       83.947456
 C        77.706955       65.373260       84.916237
 N        77.701569       66.202278       86.003250
 C        78.217560       65.654022       87.220520
 C        78.720291       64.300781       87.095299
 C        79.326920       63.743000       88.225998
 H        79.820168       62.816036       88.198708
 C        79.381737       64.394257       89.418716
 H        79.652443       63.799061       90.307007
 C        78.896843       65.728676       89.490761
 H        78.795906       66.194229       90.475021
 C        78.380936       66.322968       88.415192
 H        78.373734       67.384369       88.524147
 C        76.510742       68.447815       86.443054
 H        76.838089       68.426071       87.491524
 C        75.670914       69.470001       85.927292
 H        75.503609       70.401047       86.540199
 C        75.226624       69.359772       84.587273
 H        74.615196       70.064743       84.130669
 C        75.461075       68.132820       83.945541
 H        74.916885       67.926697       83.034737
 C        76.289581       65.348305       82.820801
 C        76.870834       65.400162       81.536217
 H        77.708328       66.072418       81.383690
 C        76.275177       64.784531       80.435272
 H        76.629486       65.051132       79.425430
 C        75.064178       64.111153       80.620842
 H        74.705002       63.561737       79.856033
 C        74.380768       64.091949       81.859589
 H        73.427963       63.493835       81.964111
 C        75.072617       64.638870       82.998329
 H        74.654213       64.399475       83.995842
 C        82.831390       64.122055       84.229492
 C        82.739639       62.928947       84.871178
 N        81.521942       64.727303       84.301781
 C        80.670074       63.933529       85.071747
 N        81.453346       62.804085       85.401512
 C        80.784058       61.694885       85.945702
 C        79.348083       61.687233       85.850212
 C        78.642136       60.647198       86.372658
 H        77.544022       60.703472       86.324661
 C        79.277420       59.564476       86.925850
 H        78.698288       58.728943       86.997192
 C        80.662979       59.491180       87.023674
 H        81.126961       58.668766       87.419708
 C        81.436432       60.534164       86.562325
 H        82.481293       60.574947       86.898499
 C        83.746460       61.999920       84.684067
 H        83.629807       60.962116       84.946472
 C        84.866882       62.360825       83.914841
 H        85.697540       61.674873       83.639000
 C        84.987595       63.628994       83.288277
 H        85.884827       63.863846       82.752075
 C        83.941177       64.530357       83.417358
 H        83.876404       65.372475       82.774048
 C        81.326385       66.253998       84.267456
 C        81.105728       66.913422       85.490837
 H        80.970230       66.374939       86.425858
 C        80.869202       68.242615       85.476936
 H        80.783554       68.577332       86.538971
 C        80.788498       68.986534       84.253716
 H        80.238464       69.913498       84.211182
 C        80.977516       68.276772       83.043175
 H        81.109138       68.770813       82.111290
 C        81.302429       66.870926       83.036758
 H        81.579636       66.208344       82.282944
 C        78.530548       61.072411       81.565796
 C        77.373955       60.820114       82.235542
 N        79.160095       62.123833       82.316971
 C        78.410759       62.473999       83.416016
 N        77.292740       61.700615       83.384209
 C        76.182205       61.988205       84.235611
 C        76.576607       62.816299       85.229546
 C        75.655685       63.173950       86.223221
 H        75.881989       63.963047       87.031624
 C        74.379059       62.600792       86.281708
 H        73.665680       62.937340       87.042191
 C        73.996292       61.698097       85.265427
 H        73.083725       61.136486       85.363007
 C        74.869919       61.456989       84.207108
 H        74.447205       60.999405       83.326408
 C        76.600197       59.809525       81.756271
 H        75.678375       59.477394       82.286697
 C        76.849533       59.078438       80.509583
 H        76.261063       58.291412       80.047195
 C        78.013161       59.385612       79.924324
 H        78.420479       58.690819       79.193604
 C        78.919571       60.369896       80.385956
 H        79.836990       60.491150       79.859116
 C        80.243439       62.895393       81.835663
 C        81.502396       62.285847       81.894638
 H        81.659805       61.604267       82.694626
 C        82.490601       62.458549       80.910706
 H        83.503586       61.890739       81.002151
 C        82.154068       63.265518       79.818169
 H        82.970703       63.462276       79.089737
 C        80.949905       63.933788       79.766182
 H        80.790985       64.811050       79.122101
 C        80.025948       63.703262       80.775215
 H        78.969467       63.965874       80.641815
