206
 generated by VMD
  IR         9.050000       18.709999        6.880000
  C1         6.570000       17.469999       10.320000
  C2         5.790000       18.379999        9.610000
  N1         7.810000       17.500000        9.690000
  C3a        7.840000       18.320000        8.600000
  N2         6.600000       18.840000        8.530000
  C4         6.500000       19.950001        7.550000
  C5a        7.540000       20.110001        6.670000
  C6         7.490000       21.150000        5.730000
  H1         8.240000       21.270000        5.020000
  C7         6.410000       22.020000        5.660000
  H2         6.510000       23.040001        5.260000
  C8         5.320000       21.780001        6.490000
  H3         4.500000       22.440001        6.300000
  C9         5.360000       20.780001        7.450000
  H4         4.560000       20.690001        8.190000
  C10        4.410000       18.379999        9.900000
  H5         3.860000       18.980000        9.310000
  C11        3.810000       17.580000       10.910000
  H6         2.730000       17.629999       11.030000
  C12        4.600000       16.719999       11.560000
  H7         4.070000       15.910000       12.000000
  C13        6.000000       16.650000       11.300000
  H8         6.550000       15.880000       11.880000
  C6         8.970000       17.150000       10.380000
  C1         9.680000       18.129999       11.130000
  H1         9.530000       19.230000       10.890000
  C2        10.810000       17.700001       11.930000
  H2        11.460000       18.430000       12.460000
  C3        11.220000       16.389999       11.940000
  H3        12.080000       16.139999       12.460000
  C4        10.500000       15.500000       11.110000
  H4        10.800000       14.470000       11.040000
  C5         9.340000       15.790000       10.420000
  H5         8.580000       15.030000       10.400000
  C1         7.210000       16.100000        3.860000
  C2         8.330000       16.629999        3.230000
  N1         7.010000       16.760000        5.070000
  C3b        8.040000       17.690001        5.320000
  N2         8.860000       17.600000        4.100000
  C4         9.790000       18.580000        3.970000
  C5b       10.010000       19.370001        5.130000
  C6        11.050000       20.370001        5.090000
  H1        11.000000       21.299999        5.720000
  C7        11.930000       20.480000        3.960000
  H2        12.500000       21.389999        3.770000
  C8        11.800000       19.590000        2.840000
  H3        12.520000       19.520000        2.030000
  C9        10.710000       18.660000        2.890000
  H4        10.650000       18.030001        2.010000
  C10        8.730000       15.990000        2.030000
  H5         9.540000       16.340000        1.340000
  C11        8.130000       14.830000        1.540000
  H6         8.430000       14.500000        0.600000
  C12        7.060000       14.210000        2.280000
  H7         6.630000       13.240000        2.040000
  C13        6.580000       14.890000        3.450000
  H8         5.990000       14.280000        4.100000
  C6         5.730000       16.860001        5.580000
  C1         4.820000       17.830000        5.040000
  H1         5.080000       18.730000        4.570000
  C2         3.510000       17.910000        5.550000
  H2         2.900000       18.680000        5.230000
  C3         3.060000       17.049999        6.580000
  H3         2.060000       17.049999        6.980000
  C4         3.990000       16.100000        7.130000
  H4         3.750000       15.520000        7.900000
  C5         5.250000       16.040001        6.580000
  H5         6.030000       15.320000        6.960000
  C1        12.340000       16.040001        7.870000
  C2        12.650000       17.219999        8.570000
  N1        11.100000       16.260000        7.170000
  C3c       10.690000       17.510000        7.350000
  N2        11.640000       18.139999        8.120000
  C4        11.600000       19.629999        8.220000
  C5c       10.230000       20.040001        8.070000
  C6         9.870000       21.280001        8.670000
  H1         8.790000       21.570000        8.590000
  C7        10.800000       22.070000        9.410000
  H2        10.540000       22.950001        9.970000
  C8        12.120000       21.629999        9.400000
  H3        12.980000       22.180000        9.800000
  C9        12.510000       20.410000        8.760000
  H4        13.530000       20.049999        8.810000
  C10       13.740000       17.299999        9.490000
  H5        13.780000       18.080000       10.190000
  C11       14.470000       16.200001        9.800000
  H6        15.120000       16.260000       10.620000
  C12       14.170000       15.030000        9.110000
  H7        14.560000       14.110000        9.550000
  C13       13.160000       14.900000        8.150000
  H8        12.980000       13.920000        7.690000
  C6        10.330000       15.290000        6.460000
  C1        10.840000       14.670000        5.290000
  H1        11.750000       15.040000        4.820000
  C2        10.050000       13.710000        4.670000
  H2        10.260000       13.470000        3.590000
  C3         8.780000       13.360000        5.230000
  H3         8.040000       12.730000        4.730000
  C4         8.350000       13.900000        6.410000
  H4         7.550000       13.320000        6.880000
  C5         9.200000       14.810000        7.000000
  H5         8.840000       15.250000        7.860000
  IR         7.380000        9.630000       11.090000
  C1         5.050000        8.030000        7.690000
  C2         6.340000        8.190000        7.190000
  N1         5.010000        8.690000        8.950000
  C3a        6.270000        9.180000        9.360000
  N2         7.000000        8.880000        8.260000
  C4         8.250000        9.560000        8.260000
  C5a        8.740000        9.860000        9.600000
  C6        10.010000       10.400000        9.690000
  H1        10.300000       10.550000       10.720000
  C7        10.800000       10.750000        8.590000
  H2        11.850000       11.190000        8.760000
  C8        10.310000       10.560000        7.280000
  H3        10.790000       11.020000        6.420000
  C9         9.100000        9.940000        7.150000
  H4         8.620000       10.030000        6.200000
  C10        6.650000        7.700000        5.970000
  H5         7.510000        8.230000        5.520000
  C11        5.710000        6.910000        5.290000
  H6         6.050000        6.480000        4.370000
  C12        4.440000        6.650000        5.850000
  H7         3.680000        6.180000        5.280000
  C13        4.130000        7.260000        7.050000
  H8         3.300000        7.000000        7.690000
  C6         3.800000        8.980000        9.530000
  C1         3.300000        8.110000       10.520000
  H1         3.930000        7.400000       10.950000
  C2         2.010000        8.350000       10.920000
  H2         1.700000        7.710000       11.740000
  C3         1.220000        9.410000       10.440000
  H3         0.330000        9.550000       11.100000
  C4         1.760000       10.310000        9.530000
  H4         1.150000       11.180000        9.150000
  C5         3.070000       10.080000        9.070000
  H5         3.460000       10.890000        8.480000
  C1         8.940000        5.730000       12.110000
  C2         9.720000        6.640000       12.870000
  N1         8.240000        6.490000       11.270000
  C3b        8.450000        7.870000       11.440000
  N2         9.330000        7.940000       12.440000
  C4         9.820000        9.230000       12.700000
  C5b        8.860000       10.240000       12.490000
  C6         9.050000       11.500000       13.050000
  H1         8.450000       12.430000       12.820000
  C7        10.120000       11.750000       14.020000
  H2        10.020000       12.680000       14.600000
  C8        11.040000       10.770000       14.260000
  H3        11.810000       10.830000       15.030000
  C9        10.960000        9.530000       13.590000
  H4        11.780000        8.840000       13.640000
  C10       10.590000        6.170000       13.830000
  H5        11.140000        6.920000       14.400000
  C11       10.670000        4.790000       14.200000
  H6        11.320000        4.480000       15.010000
  C12        9.820000        3.930000       13.550000
  H7         9.550000        2.930000       13.840000
  C13        9.010000        4.330000       12.400000
  H8         8.590000        3.500000       11.870000
  C6         7.490000        5.950000       10.080000
  C1         6.160000        5.620000       10.210000
  H1         5.710000        5.620000       11.190000
  C2         5.530000        4.900000        9.220000
  H2         4.480000        4.730000        9.220000
  C3         6.250000        4.530000        8.040000
  H3         5.750000        4.120000        7.160000
  C4         7.610000        4.830000        7.940000
  H4         7.880000        5.120000        6.890000
  C5         8.210000        5.570000        8.960000
  H5         9.130000        6.040000        8.720000
  C1         4.510000        9.370000       14.440000
  C2         4.510000       10.680000       14.000000
  N1         5.540000        8.700000       13.700000
  C3c        6.060000        9.540000       12.700000
  N2         5.370000       10.770000       12.910000
  C4         5.350000       11.630000       11.810000
  C5c        6.520000       11.560000       11.020000
  C6         6.730000       12.470000       10.010000
  H1         7.500000       12.350000        9.290000
  C7         5.790000       13.490000        9.760000
  H2         6.100000       14.270000        9.090000
  C8         4.590000       13.580000       10.540000
  H3         3.940000       14.430000       10.580000
  C9         4.350000       12.640000       11.530000
  H4         3.320000       12.550000       11.870000
  C10        3.730000       11.670000       14.770000
  H5         3.690000       12.650000       14.340000
  C11        2.990000       11.210000       15.890000
  H6         2.390000       12.030000       16.379999
  C12        2.960000        9.830000       16.209999
  H7         2.210000        9.510000       16.879999
  C13        3.750000        8.930000       15.490000
  H8         3.890000        7.910000       15.780000
  C6         6.120000        7.550000       14.340000
  C1         7.250000        7.780000       15.140000
  H1         7.710000        8.740000       15.170000
  C2         7.700000        6.740000       15.890000
  H2         8.720000        6.760000       16.270000
  C3         7.020000        5.500000       15.790000
  H3         7.190000        4.880000       16.600000
  C4         5.980000        5.240000       14.920000
  H4         5.440000        4.290000       14.840000
  C5         5.540000        6.310000       14.160000
  H5         4.880000        6.200000       13.250000
