206
 generated by VMD
  IR         9.580000       55.799999       44.700001
  C1         7.560000       53.849998       41.330002
  C2         7.830000       52.840000       42.240002
  N1         8.210000       55.049999       41.820000
  C3a        8.690000       54.799999       43.090000
  N2         8.490000       53.480000       43.349998
  C4         9.030000       52.910000       44.570000
  C5a        9.820000       53.790001       45.330002
  C6        10.520000       53.299999       46.410000
  H1        11.300000       53.869999       46.990002
  C7        10.400000       52.000000       46.880001
  H2        11.070000       51.680000       47.570000
  C8         9.580000       51.119999       46.160000
  H3         9.520000       50.029999       46.419998
  C9         8.920000       51.560001       45.020000
  H4         8.010000       50.990002       44.720001
  C10        7.520000       51.560001       41.919998
  H5         7.700000       50.720001       42.560001
  C11        6.950000       51.230000       40.720001
  H6         6.540000       50.259998       40.540001
  C12        6.700000       52.240002       39.799999
  H7         6.260000       52.180000       38.810001
  C13        7.130000       53.560001       40.099998
  H8         7.070000       54.330002       39.450001
  C6         7.990000       56.320000       41.099998
  C1         8.860000       56.630001       40.040001
  H1         9.670000       56.040001       39.810001
  C2         8.860000       57.900002       39.470001
  H2         9.390000       58.060001       38.560001
  C3         7.990000       58.930000       39.919998
  H3         8.020000       59.919998       39.459999
  C4         7.080000       58.639999       40.990002
  H4         6.550000       59.419998       41.529999
  C5         7.110000       57.360001       41.560001
  H5         6.520000       57.180000       42.400002
  C1         6.170000       56.130001       47.490002
  C2         7.310000       56.509998       48.200001
  N1         6.660000       55.820000       46.220001
  C3b        8.060000       55.900002       46.070000
  N2         8.390000       56.360001       47.320000
  C4         9.830000       56.680000       47.480000
  C5b       10.630000       56.500000       46.380001
  C6        12.010000       56.759998       46.400002
  H1        12.560000       56.930000       45.410000
  C7        12.660000       57.040001       47.660000
  H2        13.600000       57.540001       47.730000
  C8        11.820000       57.220001       48.790001
  H3        12.390000       57.599998       49.709999
  C9        10.420000       57.150002       48.630001
  H4         9.800000       57.540001       49.360001
  C10        7.120000       56.799999       49.540001
  H5         7.900000       57.139999       50.240002
  C11        5.860000       56.720001       50.139999
  H6         5.810000       56.799999       51.160000
  C12        4.730000       56.330002       49.430000
  H7         3.760000       56.450001       49.889999
  C13        4.860000       56.000000       48.070000
  H8         3.980000       55.490002       47.619999
  C6         5.820000       55.459999       45.130001
  C1         5.740000       54.090000       44.650002
  H1         6.420000       53.369999       44.889999
  C2         4.750000       53.799999       43.770000
  H2         4.530000       52.830002       43.480000
  C3         3.860000       54.740002       43.299999
  H3         2.990000       54.430000       42.689999
  C4         3.970000       56.040001       43.709999
  H4         3.390000       56.700001       43.160000
  C5         4.950000       56.400002       44.630001
  H5         5.040000       57.400002       44.919998
  C1         9.680000       59.880001       43.279999
  C2        10.470000       59.209999       42.389999
  N1         9.190000       58.970001       44.270000
  C3c        9.750000       57.730000       44.080002
  N2        10.590000       57.919998       42.980000
  C4        11.580000       56.840000       42.750000
  C5c       11.330000       55.730000       43.520000
  C6        12.250000       54.669998       43.480000
  H1        12.140000       53.959999       44.259998
  C7        13.360000       54.700001       42.619999
  H2        14.090000       53.910000       42.619999
  C8        13.630000       55.830002       41.830002
  H3        14.300000       55.669998       40.970001
  C9        12.710000       56.849998       41.889999
  H4        12.760000       57.480000       41.049999
  C10       10.920000       59.820000       41.160000
  H5        11.400000       59.340000       40.410000
  C11       10.570000       61.119999       40.860001
  H6        10.910000       61.590000       39.910000
  C12        9.730000       61.799999       41.759998
  H7         9.460000       62.799999       41.480000
  C13        9.360000       61.230000       43.049999
  H8         9.040000       61.740002       43.910000
  C6         8.400000       59.349998       45.380001
  C1         7.020000       59.119999       45.389999
  H1         6.540000       58.730000       44.509998
  C2         6.260000       59.400002       46.540001
  H2         5.150000       59.209999       46.639999
  C3         6.950000       59.849998       47.680000
  H3         6.300000       60.290001       48.470001
  C4         8.380000       60.000000       47.669998
  H4         8.820000       60.509998       48.520000
  C5         9.120000       59.759998       46.520000
  H5        10.150000       59.830002       46.540001
  IR        13.830000       50.790001       56.680000
  C1        14.240000       53.869999       53.639999
  C2        12.970000       53.950001       54.099998
  N1        14.900000       53.040001       54.549999
  C3a       14.060000       52.480000       55.500000
  N2        12.840000       53.180000       55.270000
  C4        11.840000       52.980000       56.230000
  C5a       11.900000       51.630001       56.779999
  C6        10.810000       51.270000       57.590000
  H1        10.800000       50.259998       58.029999
  C7         9.750000       52.130001       57.889999
  H2         8.950000       51.849998       58.549999
  C8         9.730000       53.450001       57.340000
  H3         9.000000       54.220001       57.570000
  C9        10.770000       53.820000       56.450001
  H4        10.860000       54.830002       56.080002
  C10       12.020000       54.630001       53.310001
  H5        11.000000       54.700001       53.639999
  C11       12.430000       55.279999       52.160000
  H6        11.750000       55.840000       51.529999
  C12       13.730000       55.189999       51.689999
  H7        14.060000       55.680000       50.790001
  C13       14.630000       54.380001       52.360001
  H8        15.610000       54.240002       51.910000
  C6        16.360001       52.810001       54.500000
  C1        17.209999       53.869999       54.900002
  H1        16.930000       54.500000       55.660000
  C2        18.549999       53.849998       54.490002
  H2        19.270000       54.689999       54.639999
  C3        19.049999       52.750000       53.730000
  H3        20.180000       52.700001       53.720001
  C4        18.209999       51.750000       53.360001
  H4        18.530001       50.840000       52.849998
  C5        16.900000       51.770000       53.759998
  H5        16.280001       51.020000       53.290001
  C1        14.740000       52.580002       60.560001
  C2        14.750000       51.209999       60.779999
  N1        14.270000       52.759998       59.259998
  C3b       14.090000       51.560001       58.610001
  N2        14.310000       50.630001       59.570000
  C4        13.640000       49.400002       59.220001
  C5b       13.320000       49.200001       57.889999
  C6        12.740000       47.939999       57.520000
  H1        12.440000       47.799999       56.490002
  C7        12.590000       46.900002       58.400002
  H2        12.260000       45.939999       58.099998
  C8        13.030000       47.060001       59.700001
  H3        13.140000       46.160000       60.369999
  C9        13.470000       48.290001       60.139999
  H4        13.800000       48.400002       61.150002
  C10       15.150000       50.650002       61.990002
  H5        15.560000       49.700001       62.040001
  C11       15.570000       51.529999       63.029999
  H6        15.770000       51.119999       64.010002
  C12       15.510000       52.939999       62.840000
  H7        15.640000       53.700001       63.540001
  C13       15.080000       53.439999       61.610001
  H8        15.040000       54.580002       61.490002
  C6        13.550000       53.959999       58.950001
  C1        14.050000       54.860001       58.020000
  H1        14.890000       54.450001       57.470001
  C2        13.410000       56.090000       57.869999
  H2        13.600000       56.630001       56.959999
  C3        12.310000       56.450001       58.660000
  H3        11.840000       57.480000       58.520000
  C4        11.770000       55.509998       59.599998
  H4        10.640000       55.540001       59.860001
  C5        12.420000       54.290001       59.689999
  H5        12.090000       53.599998       60.459999
  C1        17.230000       48.169998       56.310001
  C2        16.590000       48.029999       55.150002
  N1        16.540001       49.169998       57.000000
  C3c       15.510000       49.669998       56.320000
  N2        15.510000       48.919998       55.169998
  C4        14.380000       49.150002       54.310001
  C5c       13.310000       49.849998       54.880001
  C6        12.090000       49.910000       54.200001
  H1        11.150000       50.119999       54.669998
  C7        11.950000       49.299999       52.919998
  H2        11.010000       49.040001       52.529999
  C8        13.050000       48.669998       52.360001
  H3        13.020000       48.230000       51.349998
  C9        14.260000       48.619999       53.029999
  H4        15.150000       48.380001       52.480000
  C10       17.000000       47.060001       54.209999
  H5        16.639999       47.040001       53.220001
  C11       18.030001       46.139999       54.540001
  H6        18.290001       45.400002       53.790001
  C12       18.670000       46.330002       55.770000
  H7        19.540001       45.810001       56.119999
  C13       18.299999       47.360001       56.680000
  H8        18.900000       47.540001       57.549999
  C6        17.240000       49.930000       58.060001
  C1        17.900000       51.080002       57.779999
  H1        17.910000       51.450001       56.759998
  C2        18.690001       51.709999       58.759998
  H2        19.400000       52.389999       58.410000
  C3        18.840000       51.080002       60.040001
  H3        19.510000       51.570000       60.750000
  C4        18.180000       49.900002       60.299999
  H4        18.379999       49.380001       61.230000
  C5        17.370001       49.349998       59.299999
  H5        16.820000       48.500000       59.509998
