206
 generated by VMD
 Ir       48.262085      -16.528118       22.420242
 C        51.473804      -19.109962       23.860703
 C        50.410404      -19.546410       24.556396
 N        51.098648      -18.056396       23.068081
 C        49.772198      -17.773006       23.136841
 N        49.365463      -18.696117       24.086384
 C        47.928280      -18.841640       24.281128
 C        47.215385      -17.771091       23.741585
 C        45.848778      -17.948780       23.705494
 H        45.254189      -17.216747       23.245390
 C        45.134380      -19.144520       24.050953
 H        44.055626      -19.097286       23.930302
 C        45.880245      -20.214111       24.587017
 H        45.382751      -21.076717       24.923779
 C        47.269974      -20.065479       24.719131
 H        47.764168      -20.826687       25.225822
 C        50.536194      -20.632977       25.419903
 H        49.658577      -20.827644       26.016975
 C        51.775764      -21.292549       25.516491
 H        51.816074      -22.182899       26.026741
 C        52.885395      -20.886238       24.762018
 H        53.630596      -21.645172       24.544559
 C        52.713379      -19.769535       23.957291
 H        53.541351      -19.414997       23.336195
 C        52.041637      -17.286938       22.443825
 C        52.511688      -17.586109       21.155010
 H        52.162514      -18.518070       20.694656
 C        53.406528      -16.699108       20.509186
 H        53.979477      -16.958347       19.602360
 C        53.717045      -15.530869       21.156561
 H        54.446060      -14.894976       20.680876
 C        53.297318      -15.203476       22.412643
 H        53.379257      -14.221057       22.682892
 C        52.448456      -16.147873       23.018574
 H        52.109344      -15.963609       24.079681
 C        45.837460      -18.996845       19.693157
 C        45.150883      -17.784485       19.872290
 N        47.118271      -18.796082       20.301531
 C        47.237846      -17.587545       20.903978
 N        46.023174      -16.913147       20.559074
 C        45.862694      -15.530870       21.027428
 C        46.620369      -15.247120       22.161766
 C        46.496262      -13.924990       22.670853
 H        46.753006      -13.687754       23.673252
 C        45.720772      -12.989083       22.047321
 H        45.593014      -12.016947       22.511784
 C        45.076447      -13.264342       20.868475
 H        44.586155      -12.441074       20.329639
 C        45.094513      -14.525372       20.377375
 H        44.535599      -14.684645       19.435917
 C        43.837166      -17.708673       19.286798
 H        43.205742      -16.849056       19.460464
 C        43.346680      -18.800865       18.593296
 H        42.356918      -18.989670       18.503717
 C        44.107498      -19.901304       18.343723
 H        43.629967      -20.698982       17.710182
 C        45.342323      -20.026978       18.972692
 H        45.739208      -21.018007       19.241657
 C        47.933342      -19.999474       20.565918
 C        47.324188      -21.122517       21.123604
 H        46.231247      -21.259548       21.133894
 C        48.101543      -22.039528       21.827381
 H        47.716278      -23.036657       22.098499
 C        49.459732      -21.896519       22.003925
 H        49.960300      -22.844143       22.347492
 C        50.069691      -20.797991       21.389685
 H        51.114044      -20.704245       21.395699
 C        49.291840      -19.866867       20.685089
 H        49.678459      -18.877392       20.281155
 C        50.548912      -13.481968       20.154591
 C        50.788506      -13.166412       21.418087
 N        49.682232      -14.667785       20.152330
 C        49.271927      -14.992310       21.404659
 N        49.990036      -14.079599       22.165039
 C        49.649017      -14.110450       23.550987
 C        48.913994      -15.238391       23.978165
 C        48.476357      -15.338954       25.320461
 H        48.173584      -16.351028       25.650505
 C        48.711472      -14.278691       26.229290
 H        48.548164      -14.437724       27.252491
 C        49.359795      -13.118822       25.794117
 H        49.610695      -12.238517       26.401005
 C        49.810631      -13.011683       24.435009
 H        50.242371      -12.086060       24.124817
 C        51.748657      -12.302966       21.671030
 H        51.983955      -12.219983       22.715225
 C        52.520836      -11.656191       20.745657
 H        53.049534      -10.795855       20.961996
 C        52.271015      -11.925711       19.426701
 H        52.610085      -11.263987       18.654913
 C        51.255962      -12.861617       19.179632
 H        50.915310      -12.901316       18.212429
 C        49.128944      -15.204553       18.930756
 C        48.077118      -14.509588       18.352919
 H        47.496964      -13.708920       18.823395
 C        47.558159      -14.943762       17.168699
 H        46.853760      -14.288017       16.681751
 C        47.989952      -16.152893       16.588480
 H        47.787682      -16.478497       15.618083
 C        48.977509      -16.895809       17.233927
 H        49.277313      -17.855511       16.879679
 C        49.601261      -16.384510       18.340233
 H        50.160286      -17.108891       18.953884
 Ir       48.262085      -16.528118       38.066921
 C        50.815384      -19.028534       35.565659
 C        51.628845      -17.989193       35.885277
 N        49.632744      -18.820713       36.199673
 C        49.582771      -17.723145       36.946831
 N        50.799515      -17.115946       36.658482
 C        50.863670      -15.731875       36.899384
 C        49.856236      -15.147516       37.687416
 C        49.932236      -13.817851       38.082912
 H        49.112377      -13.428280       38.698109
 C        50.975945      -13.057600       37.605534
 H        51.006878      -12.016945       37.810917
 C        51.952141      -13.589346       36.765961
 H        52.608337      -12.932764       36.324482
 C        51.870502      -14.897367       36.380451
 H        52.345592      -15.293994       35.485817
 C        53.009132      -18.037622       35.558071
 H        53.579857      -17.218420       36.017391
 C        53.552834      -19.096333       34.815220
 H        54.645828      -19.174892       34.631378
 C        52.682289      -20.079350       34.401428
 H        53.121841      -20.976755       34.181297
 C        51.302254      -20.072296       34.748337
 H        50.592026      -20.679972       34.232483
 C        48.722687      -19.917088       36.299484
 C        48.963505      -20.863277       37.314190
 H        49.751892      -20.630707       38.036171
 C        48.018757      -21.836254       37.607571
 H        48.233166      -22.452419       38.462948
 C        46.837898      -21.962761       36.874718
 H        46.263981      -22.849167       36.969627
 C        46.528854      -20.951643       35.921078
 H        45.504059      -20.882051       35.542187
 C        47.510475      -19.984291       35.630661
 H        47.261551      -19.357723       34.853390
 C        49.693558      -17.141415       42.145813
 C        48.653858      -16.282991       42.301826
 N        49.853989      -17.328907       40.770599
 C        48.946121      -16.629278       40.063709
 N        48.188499      -15.947705       41.032406
 C        47.188305      -15.085218       40.501163
 C        47.110329      -15.132689       39.118462
 C        46.166153      -14.301289       38.506004
 H        46.275414      -14.030334       37.490108
 C        45.303417      -13.452551       39.243389
 H        44.557869      -12.736544       38.842899
 C        45.331627      -13.485077       40.621155
 H        44.697384      -12.877998       41.330376
 C        46.269424      -14.307987       41.261669
 H        46.399185      -14.040738       42.247490
 C        48.260902      -15.881223       43.602085
 H        47.339882      -15.340749       43.703091
 C        48.915764      -16.361431       44.701836
 H        48.777061      -16.002111       45.727047
 C        50.013092      -17.190680       44.525154
 H        50.307442      -17.822866       45.300201
 C        50.416275      -17.569851       43.241772
 H        51.316727      -18.080193       43.183994
 C        50.984390      -18.067276       40.185448
 C        52.059708      -17.298412       39.837399
 H        52.039612      -16.280840       39.553436
 C        53.266911      -17.951771       39.571892
 H        54.016262      -17.332611       39.284107
 C        53.379574      -19.282867       39.526260
 H        54.295746      -19.729595       39.089264
 C        52.250465      -20.049816       39.939907
 H        52.327572      -21.126701       40.144295
 C        51.055908      -19.406746       40.264862
 H        50.229847      -19.889347       40.754066
 C        44.676273      -19.017174       38.382290
 C        44.507771      -18.324123       37.236084
 N        45.922504      -18.562435       38.991489
 C        46.532822      -17.689901       38.146324
 N        45.737038      -17.583241       37.045574
 C        46.061409      -16.542587       36.095192
 C        47.344360      -16.140100       36.147594
 C        47.917107      -15.422058       35.105396
 H        48.959534      -15.240905       35.031063
 C        47.154419      -15.074577       33.982071
 H        47.561832      -14.553113       33.072243
 C        45.854362      -15.408427       33.901447
 H        45.213280      -15.138666       33.075226
 C        45.311607      -16.109489       34.973843
 H        44.164383      -16.161863       35.010323
 C        43.416584      -18.498581       36.477547
 H        43.130600      -17.862686       35.639126
 C        42.353783      -19.380322       36.826958
 H        41.666588      -19.608229       36.001839
 C        42.633217      -20.169270       37.963257
 H        42.241875      -21.168312       38.205059
 C        43.727940      -19.953320       38.824097
 H        43.856270      -20.449074       39.730385
 C        46.192719      -18.731152       40.440563
 C        45.440491      -17.961216       41.340977
 H        44.596664      -17.296860       41.087029
 C        45.697071      -18.091431       42.728966
 H        45.336250      -17.402325       43.464863
 C        46.762272      -18.892817       43.174530
 H        46.705502      -19.195702       44.219154
 C        47.544556      -19.614807       42.227238
 H        48.486801      -20.084251       42.604984
 C        47.242058      -19.533497       40.879242
 H        47.882374      -20.070024       40.160751
