206
 generated by VMD
 Ir      100.762924       91.905151       -9.397337
 C        96.533554       91.003754      -10.061611
 C        97.186089       90.577660      -11.162264
 N        97.496246       91.603439       -9.251301
 C        98.763000       91.481094       -9.809753
 N        98.529648       90.799850      -10.996502
 C        99.689064       90.173973      -11.582117
 C       100.883965       90.682892      -11.096516
 C       102.046570       90.170029      -11.577171
 H       102.968155       90.280579      -11.090677
 C       102.080650       89.179283      -12.537880
 H       103.077797       88.754448      -12.972994
 C       100.929176       88.633774      -13.032076
 H       100.877426       87.839874      -13.705763
 C        99.731781       89.132751      -12.598297
 H        98.831757       88.767410      -13.089304
 C        96.453690       90.146622      -12.283106
 H        97.056259       89.780701      -13.031649
 C        95.057388       90.078667      -12.301804
 H        94.511116       89.687874      -13.188684
 C        94.422279       90.611313      -11.194447
 H        93.364578       90.401077      -11.025476
 C        95.153557       90.993713      -10.058355
 H        94.441818       91.414307       -9.372990
 C        97.125526       92.327827       -8.089779
 C        96.913116       91.651352       -6.899548
 H        96.469597       90.623459       -6.893033
 C        96.580627       92.402603       -5.787174
 H        96.723114       92.006844       -4.789942
 C        96.269760       93.761810       -5.920729
 H        96.017998       94.271729       -5.001606
 C        96.363312       94.461464       -7.170419
 H        96.458557       95.525520       -7.159550
 C        96.839554       93.711113       -8.223354
 H        96.985558       94.182350       -9.201063
 C       102.065651       88.783310       -6.635814
 C       103.232201       89.437325       -6.876258
 N       101.045311       89.297737       -7.490214
 C       101.482353       90.356766       -8.243645
 N       102.884003       90.377876       -7.882195
 C       103.585648       91.354416       -8.564381
 C       102.859436       92.345459       -9.240662
 C       103.597046       93.367844       -9.924728
 H       103.061676       93.962341      -10.612375
 C       104.992363       93.478401       -9.789909
 H       105.519653       94.203407      -10.421757
 C       105.674812       92.499405       -9.071909
 H       106.769638       92.613243       -9.073450
 C       105.026711       91.392708       -8.518925
 H       105.543427       90.451797       -8.393278
 C       104.343880       89.177216       -6.049807
 H       105.317909       89.648262       -6.297952
 C       104.299019       88.202881       -5.036513
 H       105.175690       87.944687       -4.509849
 C       103.052719       87.631332       -4.735709
 H       103.084885       87.025742       -3.786429
 C       101.954880       87.893753       -5.560308
 H       101.054871       87.304588       -5.447331
 C        99.882545       88.597946       -7.815091
 C        99.706558       88.064949       -9.075544
 H       100.679504       87.980606       -9.593582
 C        98.459229       87.518967       -9.447227
 H        98.261177       86.992416      -10.334759
 C        97.377106       87.625046       -8.572948
 H        96.391312       87.207344       -8.843949
 C        97.541931       88.169617       -7.243632
 H        96.694366       88.290512       -6.573466
 C        98.814217       88.606735       -6.922222
 H        99.070374       88.699677       -5.872530
 C       100.084122       94.800964       -6.218166
 C        99.682976       95.447388       -7.379298
 N       100.451263       93.557640       -6.595989
 C       100.495941       93.402641       -7.978624
 N        99.978889       94.584488       -8.457047
 C        99.626625       94.582405       -9.820755
 C       100.321213       93.648071      -10.546001
 C       100.442833       93.778893      -11.942425
 H       100.975479       93.070160      -12.550285
 C        99.882278       94.872749      -12.580112
 H       100.074005       95.055862      -13.647215
 C        99.125771       95.771423      -11.887949
 H        98.663124       96.639641      -12.326632
 C        99.021057       95.648018      -10.519077
 H        98.468216       96.385933       -9.904867
 C        99.214188       96.820473       -7.322933
 H        98.922714       97.337143       -8.168566
 C        99.142639       97.418350       -6.077172
 H        98.962372       98.443497       -5.850247
 C        99.424843       96.712181       -4.925265
 H        99.457672       97.268402       -3.975084
 C        99.848236       95.419243       -4.958885
 H       100.068802       94.793243       -4.041011
 C       100.844048       92.512856       -5.630665
 C       102.201553       92.280594       -5.379010
 H       103.023407       92.559937       -6.033468
 C       102.516548       91.390991       -4.350713
 H       103.345642       91.763275       -3.770703
 C       101.608963       90.552544       -3.761395
 H       101.948006       89.712563       -3.136908
 C       100.280548       90.646759       -4.057751
 H        99.708511       89.751816       -3.905612
 C        99.910599       91.692917       -4.925216
 H        98.871819       91.977898       -4.814613
 Ir      100.762924       91.905151        3.839703
 C        98.771103       88.117973        3.303995
 C        99.936798       87.843513        4.069001
 N        98.962128       89.365067        2.856692
 C       100.054306       90.021744        3.438778
 N       100.696693       89.009399        4.119589
 C       101.907021       89.394592        4.860833
 C       102.230835       90.770386        4.827290
 C       103.223541       91.247757        5.728368
 H       103.560814       92.285843        5.746496
 C       103.815536       90.495262        6.676834
 H       104.699707       90.818901        7.230371
 C       103.415314       89.148651        6.758446
 H       103.764069       88.481430        7.580571
 C       102.486725       88.605026        5.893411
 H       102.042633       87.652611        6.134023
 C       100.016144       86.532913        4.628862
 H       100.936958       86.112633        4.812337
 C        99.002167       85.604706        4.504437
 H        99.123543       84.574387        4.886043
 C        97.888138       85.917145        3.792246
 H        97.133118       85.186249        3.647564
 C        97.733894       87.197174        3.181824
 H        96.875801       87.378014        2.613079
 C        98.267212       89.700684        1.685690
 C        96.877106       89.858810        1.608220
 H        96.255333       89.572014        2.397992
 C        96.241158       90.174973        0.399208
 H        95.183823       90.263115        0.300265
 C        96.915421       90.324234       -0.772837
 H        96.419037       90.280411       -1.709949
 C        98.306450       90.256454       -0.761222
 H        98.803970       90.555328       -1.718382
 C        99.010208       89.944916        0.421682
 H       100.035133       89.890160        0.342762
 C        98.432587       93.211723        7.243550
 C        99.385857       94.119576        7.252643
 N        98.716141       92.228828        6.300143
 C        99.878525       92.513237        5.634640
 N       100.296387       93.700859        6.214321
 C       101.385178       94.310455        5.583904
 C       101.777298       93.688454        4.350554
 C       102.982773       94.144241        3.743096
 H       103.491791       93.625931        3.019535
 C       103.814407       95.103447        4.326536
 H       104.706818       95.525894        3.884548
 C       103.415924       95.640678        5.551318
 H       103.907379       96.577713        5.894591
 C       102.236687       95.215919        6.194114
 H       102.048485       95.577133        7.148523
 C        99.455750       95.119102        8.235981
 H       100.279312       95.870399        8.221334
 C        98.526886       95.108398        9.299931
 H        98.555359       95.926376       10.009367
 C        97.461327       94.266800        9.290560
 H        96.778374       94.217651       10.132145
 C        97.439362       93.325645        8.254347
 H        96.636719       92.677200        8.146181
 C        98.139519       90.898453        6.328671
 C        99.004120       89.996811        6.939731
 H       100.054489       90.131927        7.297736
 C        98.418121       88.701157        7.156960
 H        98.966278       88.026993        7.794713
 C        97.095245       88.407654        6.817742
 H        96.812569       87.363052        6.940247
 C        96.301865       89.343582        6.118054
 H        95.288483       89.004166        5.793119
 C        96.793289       90.620712        5.874105
 H        96.312508       91.167038        5.109000
 C        98.043869       93.950104        1.066055
 C        99.065788       93.516052        0.295234
 N        98.398148       93.659439        2.348593
 C        99.632645       93.031136        2.501667
 N       100.074158       92.989120        1.200627
 C       101.319695       92.432205        0.965907
 C       101.814728       91.613922        2.018640
 C       103.016479       90.853180        1.825608
 H       103.182693       89.917801        2.401829
 C       103.713997       90.878754        0.634549
 H       104.729996       90.501114        0.593924
 C       103.196213       91.703979       -0.364947
 H       103.586365       91.731865       -1.315736
 C       102.009750       92.423965       -0.235202
 H       101.734879       93.023087       -1.092000
 C        99.012863       93.769180       -1.084666
 H        99.644646       93.256866       -1.760305
 C        97.996567       94.561966       -1.614874
 H        97.826241       94.762253       -2.699943
 C        96.897751       95.025681       -0.846968
 H        96.331375       95.868408       -1.073074
 C        96.955391       94.709549        0.522499
 H        96.356728       95.395142        1.058208
 C        97.597420       94.188858        3.400620
 C        98.051407       95.471924        3.861196
 H        99.125710       95.665009        3.697793
 C        97.399902       96.170891        4.829027
 H        97.820152       97.073639        5.260922
 C        96.237679       95.603928        5.360514
 H        95.871078       96.041595        6.309486
 C        95.706543       94.408890        4.879906
 H        94.670982       94.125931        5.028383
 C        96.448486       93.641357        3.916462
 H        96.135056       92.810867        3.460684
