206
 generated by VMD
  IR        48.560001       15.360000       18.950001
  C1        50.720001       17.950001       21.889999
  C2        49.980000       17.049999       22.600000
  N1        50.380001       17.700001       20.490000
  C3a       49.520000       16.639999       20.370001
  N2        49.270000       16.219999       21.650000
  C4        48.580002       15.070000       21.809999
  C5a       47.889999       14.480000       20.750000
  C6        47.180000       13.270000       20.860001
  H1        46.529999       12.960000       20.040001
  C7        47.029999       12.650000       22.080000
  H2        46.419998       11.790000       22.200001
  C8        47.619999       13.220000       23.219999
  H3        47.700001       12.700000       24.240000
  C9        48.430000       14.390000       23.070000
  H4        49.009998       14.790000       23.870001
  C10       50.080002       17.020000       24.040001
  H5        49.410000       16.549999       24.740000
  C11       50.919998       17.990000       24.650000
  H6        50.990002       18.059999       25.740000
  C12       51.700001       18.930000       23.930000
  H7        52.209999       19.700001       24.480000
  C13       51.599998       18.980000       22.500000
  H8        52.270000       19.520000       21.879999
  C6        50.369999       18.760000       19.559999
  C1        49.480000       19.820000       19.780001
  H1        48.549999       19.620001       20.309999
  C2        49.599998       20.990000       18.980000
  H2        48.889999       21.799999       19.020000
  C3        50.590000       21.100000       18.020000
  H3        50.529999       21.889999       17.290001
  C4        51.509998       20.010000       17.840000
  H4        52.119999       20.040001       16.950001
  C5        51.419998       18.870001       18.620001
  H5        52.209999       18.110001       18.570000
  C1        51.290001       12.000000       18.360001
  C2        50.369999       11.930000       17.330000
  N1        50.930000       13.060000       19.170000
  C3b       49.840000       13.760000       18.629999
  N2        49.490002       13.010000       17.520000
  C4        48.090000       13.110000       17.110001
  C5b       47.369999       14.130000       17.740000
  C6        45.970001       14.170000       17.520000
  H1        45.349998       14.960000       17.920000
  C7        45.310001       13.120000       16.799999
  H2        44.240002       13.130000       16.610001
  C8        46.070000       12.060000       16.260000
  H3        45.590000       11.420000       15.490000
  C9        47.430000       12.090000       16.340000
  H4        47.959999       11.380000       15.840000
  C10       50.500000       11.060000       16.250000
  H5        49.790001       11.130000       15.420000
  C11       51.610001       10.220000       16.230000
  H6        51.889999        9.530000       15.430000
  C12       52.549999       10.210000       17.309999
  H7        53.480000        9.570000       17.200001
  C13       52.369999       11.090000       18.370001
  H8        52.980000       11.120000       19.270000
  C6        51.360001       13.120000       20.549999
  C1        51.009998       12.080000       21.420000
  H1        50.310001       11.300000       21.170000
  C2        51.389999       12.080000       22.760000
  H2        51.060001       11.240000       23.360001
  C3        52.139999       13.140000       23.230000
  H3        52.139999       13.210000       24.340000
  C4        52.450001       14.230000       22.379999
  H4        52.790001       15.150000       22.820000
  C5        52.119999       14.210000       21.000000
  H5        52.189999       15.120000       20.480000
  C1        49.709999       17.820000       15.470000
  C2        48.540001       18.410000       15.900000
  N1        49.959999       16.570000       16.200001
  C3c       48.959999       16.350000       17.180000
  N2        48.080002       17.530001       16.920000
  C4        46.919998       17.510000       17.660000
  C5c       47.049999       16.850000       18.940001
  C6        46.080002       17.049999       19.940001
  H1        46.240002       16.879999       21.010000
  C7        44.990002       17.840000       19.670000
  H2        44.299999       18.070000       20.459999
  C8        44.820000       18.450001       18.430000
  H3        43.970001       19.190001       18.309999
  C9        45.830002       18.340000       17.420000
  H4        45.599998       18.750000       16.410000
  C10       48.230000       19.730000       15.450000
  H5        47.639999       20.360001       16.180000
  C11       48.980000       20.350000       14.460000
  H6        48.720001       21.280001       13.980000
  C12       50.200001       19.760000       14.070000
  H7        50.770000       20.260000       13.320000
  C13       50.560001       18.480000       14.560000
  H8        51.580002       18.209999       14.490000
  C6        51.080002       15.730000       15.940000
  C1        52.029999       15.370000       16.930000
  H1        52.110001       16.020000       17.809999
  C2        53.020000       14.420000       16.639999
  H2        53.869999       14.400000       17.290001
  C3        53.090000       13.840000       15.350000
  H3        53.970001       13.250000       15.130000
  C4        52.090000       14.150000       14.420000
  H4        52.020000       13.800000       13.380000
  C5        51.130001       15.050000       14.710000
  H5        50.259998       15.050000       14.040000
  IR        54.799999        2.720000       17.660000
  C1        57.549999        5.450000       19.770000
  C2        56.549999        5.120000       20.719999
  N1        57.040001        4.860000       18.490000
  C3a       55.900002        4.170000       18.700001
  N2        55.500000        4.370000       20.020000
  C4        54.480000        3.550000       20.490000
  C5a       54.139999        2.510000       19.680000
  C6        53.189999        1.640000       20.150000
  H1        53.090000        0.790000       19.549999
  C7        52.439999        1.840000       21.360001
  H2        51.680000        1.120000       21.580000
  C8        52.660000        3.030000       22.059999
  H3        51.939999        3.440000       22.750000
  C9        53.689999        3.900000       21.639999
  H4        53.680000        4.900000       22.070000
  C10       56.750000        5.580000       22.120001
  H5        56.009998        5.310000       22.879999
  C11       57.830002        6.360000       22.370001
  H6        58.040001        6.600000       23.400000
  C12       58.849998        6.610000       21.379999
  H7        59.700001        7.240000       21.709999
  C13       58.669998        6.180000       20.120001
  H8        59.430000        6.470000       19.370001
  C6        57.580002        5.190000       17.230000
  C1        58.730000        4.570000       16.740000
  H1        59.369999        4.160000       17.490000
  C2        59.090000        4.870000       15.430000
  H2        60.029999        4.460000       15.030000
  C3        58.360001        5.830000       14.660000
  H3        58.529999        5.810000       13.600000
  C4        57.250000        6.420000       15.180000
  H4        56.590000        7.050000       14.600000
  C5        56.830002        6.070000       16.450001
  H5        55.840000        6.320000       16.750000
  C1        57.410000       -0.720000       18.260000
  C2        56.290001       -1.190000       17.650000
  N1        57.139999        0.660000       18.580000
  C3b       55.919998        1.030000       18.070000
  N2        55.419998       -0.120000       17.530001
  C4        54.139999       -0.050000       16.799999
  C5b       53.520000        1.190000       16.950001
  C6        52.209999        1.410000       16.740000
  H1        51.770000        2.370000       16.770000
  C7        51.389999        0.390000       16.320000
  H2        50.369999        0.550000       16.340000
  C8        51.980000       -0.840000       16.049999
  H3        51.400002       -1.440000       15.290000
  C9        53.320000       -1.090000       16.280001
  H4        53.700001       -2.060000       16.020000
  C10       56.240002       -2.530000       17.370001
  H5        55.259998       -2.980000       17.309999
  C11       57.419998       -3.310000       17.469999
  H6        57.360001       -4.200000       16.959999
  C12       58.549999       -2.840000       18.090000
  H7        59.259998       -3.540000       18.389999
  C13       58.570000       -1.520000       18.469999
  H8        59.450001       -0.980000       18.870001
  C6        58.009998        1.400000       19.540001
  C1        57.570000        1.760000       20.770000
  H1        56.669998        1.370000       21.160000
  C2        58.410000        2.560000       21.600000
  H2        58.130001        2.830000       22.650000
  C3        59.700001        3.020000       21.270000
  H3        60.389999        3.530000       22.010000
  C4        60.169998        2.680000       19.969999
  H4        60.980000        3.270000       19.690001
  C5        59.360001        1.850000       19.160000
  H5        59.750000        1.600000       18.230000
  C1        55.950001        3.320000       13.520000
  C2        55.009998        4.310000       13.690000
  N1        56.200001        2.640000       14.670000
  C3c       55.330002        3.110000       15.720000
  N2        54.650002        4.220000       15.100000
  C4        53.790001        4.930000       15.970000
  C5c       53.439999        4.320000       17.190001
  C6        52.389999        4.860000       17.990000
  H1        52.029999        4.250000       18.900000
  C7        51.709999        6.010000       17.520000
  H2        51.020000        6.660000       18.120001
  C8        52.110001        6.650000       16.320000
  H3        51.619999        7.460000       15.810000
  C9        53.119999        6.130000       15.540000
  H4        53.500000        6.740000       14.740000
  C10       54.720001        5.200000       12.560000
  H5        53.770000        5.720000       12.580000
  C11       55.500000        5.120000       11.400000
  H6        55.520000        5.960000       10.800000
  C12       56.450001        4.100000       11.290000
  H7        57.060001        4.070000       10.470000
  C13       56.619999        3.200000       12.350000
  H8        57.340000        2.420000       12.130000
  C6        56.660000        1.270000       14.560000
  C1        55.740002        0.280000       14.120000
  H1        54.669998        0.470000       14.180000
  C2        56.200001       -1.010000       14.000000
  H2        55.439999       -1.740000       13.970000
  C3        57.500000       -1.300000       14.370000
  H3        57.880001       -2.320000       14.200000
  C4        58.430000       -0.410000       14.820000
  H4        59.439999       -0.680000       15.160000
  C5        57.970001        0.920000       14.930000
  H5        58.650002        1.660000       15.270000
