206
 generated by VMD
  IR        24.530001       18.900000       21.490000
  C1        25.600000       18.750000       25.719999
  C2        24.230000       18.420000       25.690001
  N1        26.020000       19.010000       24.450001
  C3a       24.969999       18.879999       23.549999
  N2        23.879999       18.500000       24.320000
  C4        22.709999       18.080000       23.580000
  C5a       22.620001       18.650000       22.309999
  C6        21.440001       18.559999       21.559999
  H1        21.379999       19.010000       20.610001
  C7        20.340000       17.889999       22.129999
  H2        19.469999       17.680000       21.520000
  C8        20.459999       17.200001       23.340000
  H3        19.480000       16.940001       23.709999
  C9        21.650000       17.250000       24.090000
  H4        21.830000       16.360001       24.730000
  C10       23.590000       18.080000       26.930000
  H5        22.520000       17.840000       26.870001
  C11       24.309999       18.070000       28.110001
  H6        23.860001       17.840000       29.070000
  C12       25.610001       18.469999       28.139999
  H7        26.100000       18.770000       29.100000
  C13       26.270000       18.860001       26.980000
  H8        27.110001       19.530001       27.090000
  C6        27.270000       19.690001       24.190001
  C1        28.400000       19.100000       23.610001
  H1        28.420000       18.080000       23.430000
  C2        29.520000       19.870001       23.200001
  H2        30.270000       19.430000       22.590000
  C3        29.580000       21.230000       23.389999
  H3        30.500000       21.850000       23.170000
  C4        28.510000       21.820000       24.110001
  H4        28.530001       22.950001       24.120001
  C5        27.389999       21.070000       24.570000
  H5        26.590000       21.600000       25.049999
  C1        24.940001       14.560000       20.950001
  C2        24.420000       15.000000       19.780001
  N1        25.000000       15.660000       21.809999
  C3b       24.570000       16.840000       21.190001
  N2        24.129999       16.450001       19.950001
  C4        23.610001       17.459999       19.059999
  C5b       23.690001       18.790001       19.490000
  C6        23.379999       19.820000       18.600000
  H1        23.350000       20.760000       19.040001
  C7        22.840000       19.450001       17.340000
  H2        22.510000       20.280001       16.700001
  C8        22.809999       18.139999       16.910000
  H3        22.299999       17.940001       15.950000
  C9        23.150000       17.129999       17.770000
  H4        22.719999       16.100000       17.549999
  C10       24.379999       14.040000       18.690001
  H5        23.850000       14.330000       17.799999
  C11       24.809999       12.700000       18.820000
  H6        24.879999       12.080000       17.990000
  C12       25.270000       12.330000       20.070000
  H7        25.530001       11.320000       20.209999
  C13       25.320000       13.240000       21.120001
  H8        25.650000       12.870000       22.040001
  C6        25.010000       15.460000       23.250000
  C1        26.180000       15.770000       23.879999
  H1        26.830000       16.450001       23.340000
  C2        26.440001       15.360000       25.219999
  H2        27.350000       15.640000       25.719999
  C3        25.459999       14.670000       25.920000
  H3        25.719999       14.330000       26.889999
  C4        24.299999       14.280000       25.209999
  H4        23.780001       13.460000       25.770000
  C5        24.040001       14.680000       23.900000
  H5        23.090000       14.400000       23.450001
  C1        28.549999       19.750000       20.100000
  C2        28.010000       21.020000       20.270000
  N1        27.500000       18.799999       20.290001
  C3c       26.309999       19.469999       20.670000
  N2        26.580000       20.870001       20.540001
  C4        25.480000       21.740000       21.020000
  C5c       24.370001       21.010000       21.469999
  C6        23.219999       21.740000       21.830000
  H1        22.219999       21.250000       21.930000
  C7        23.190001       23.170000       21.709999
  H2        22.330000       23.850000       21.990000
  C8        24.389999       23.840000       21.330000
  H3        24.530001       24.879999       21.440001
  C9        25.500000       23.110001       20.940001
  H4        26.320000       23.660000       20.490000
  C10       28.820000       22.120001       20.230000
  H5        28.350000       23.100000       20.260000
  C11       30.190001       21.980000       20.070000
  H6        30.879999       22.709999       20.379999
  C12       30.780001       20.700001       19.850000
  H7        31.830000       20.760000       19.950001
  C13       29.959999       19.580000       19.889999
  H8        30.330000       18.549999       19.799999
  C6        27.450001       17.459999       19.719999
  C1        27.100000       17.309999       18.350000
  H1        26.740000       18.139999       17.799999
  C2        27.290001       16.070000       17.799999
  H2        26.830000       15.880000       16.820000
  C3        27.770000       14.940000       18.530001
  H3        28.260000       14.100000       17.980000
  C4        27.930000       15.060000       19.879999
  H4        27.709999       14.320000       20.600000
  C5        27.860001       16.320000       20.480000
  H5        28.250000       16.440001       21.459999
  IR        23.590000       23.510000        7.750000
  C1        21.250000       22.760000       11.270000
  C2        21.500000       24.070000       11.310000
  N1        21.879999       22.280001       10.140000
  C3a       22.620001       23.200001        9.530000
  N2        22.330000       24.370001       10.160000
  C4        23.070000       25.459999        9.680000
  C5a       24.139999       25.120001        8.890000
  C6        25.110001       26.120001        8.650000
  H1        25.950001       25.740000        8.100000
  C7        24.920000       27.389999        9.110000
  H2        25.629999       28.200001        9.070000
  C8        23.770000       27.820000        9.700000
  H3        23.500000       28.830000        9.850000
  C9        22.840000       26.830000       10.100000
  H4        21.860001       27.129999       10.570000
  C10       20.889999       24.879999       12.250000
  H5        21.139999       25.950001       12.470000
  C11       20.020000       24.420000       13.200000
  H6        19.350000       24.969999       13.770000
  C12       19.629999       23.090000       13.080000
  H7        18.840000       22.590000       13.640000
  C13       20.290001       22.250000       12.190000
  H8        20.070000       21.240000       12.310000
  C6        21.650000       21.000000        9.610000
  C1        22.219999       19.840000       10.260000
  H1        23.170000       19.940001       10.730000
  C2        21.500000       18.600000       10.320000
  H2        21.730000       17.879999       11.090000
  C3        20.299999       18.490000        9.630000
  H3        19.719999       17.600000        9.570000
  C4        19.809999       19.549999        8.900000
  H4        19.090000       19.459999        8.110000
  C5        20.410000       20.860001        8.900000
  H5        19.799999       21.610001        8.530000
  C1        21.420000       26.959999        6.680000
  C2        22.570000       27.040001        6.060000
  N1        21.280001       25.629999        7.050000
  C3b       22.400000       24.879999        6.720000
  N2        23.120001       25.740000        6.010000
  C4        24.340000       25.230000        5.460000
  C5b       24.889999       24.150000        6.210000
  C6        26.150000       23.680000        5.870000
  H1        26.410000       22.820000        6.440000
  C7        26.940001       24.330000        4.900000
  H2        28.020000       24.190001        4.880000
  C8        26.360001       25.420000        4.180000
  H3        26.910000       25.830000        3.300000
  C9        25.080000       25.840000        4.460000
  H4        24.639999       26.690001        3.940000
  C10       22.900000       28.240000        5.510000
  H5        23.780001       28.340000        5.000000
  C11       22.160000       29.450001        5.810000
  H6        22.629999       30.430000        5.680000
  C12       21.000000       29.299999        6.500000
  H7        20.570000       30.219999        6.930000
  C13       20.520000       28.059999        6.880000
  H8        19.590000       27.950001        7.370000
  C6        19.980000       25.059999        7.300000
  C1        19.459999       24.469999        6.200000
  H1        19.730000       24.709999        5.180000
  C2        18.340000       23.629999        6.360000
  H2        17.700001       23.530001        5.510000
  C3        17.840000       23.320000        7.610000
  H3        16.870001       22.959999        7.860000
  C4        18.360001       23.990000        8.720000
  H4        17.790001       24.010000        9.650000
  C5        19.440001       24.860001        8.560000
  H5        19.920000       25.440001        9.390000
  C1        22.590000       19.690001        6.110000
  C2        23.700001       19.480000        6.850000
  N1        22.400000       21.070000        5.990000
  C3c       23.379999       21.750000        6.690000
  N2        24.150000       20.680000        7.190000
  C4        25.230000       21.090000        8.080000
  C5c       25.100000       22.360001        8.670000
  C6        26.070000       22.700001        9.540000
  H1        26.030001       23.639999       10.050000
  C7        27.139999       21.799999        9.850000
  H2        27.950001       22.150000       10.420000
  C8        27.309999       20.600000        9.190000
  H3        28.180000       20.020000        9.190000
  C9        26.379999       20.270000        8.230000
  H4        26.420000       19.350000        7.720000
  C10       24.160000       18.219999        7.140000
  H5        24.639999       17.980000        8.020000
  C11       23.490000       17.160000        6.590000
  H6        23.750000       16.150000        6.810000
  C12       22.389999       17.320000        5.810000
  H7        22.000000       16.440001        5.230000
  C13       21.910000       18.629999        5.550000
  H8        21.049999       18.760000        4.910000
  C6        21.730000       21.570000        4.800000
  C1        22.459999       21.590000        3.630000
  H1        23.480000       21.900000        3.710000
  C2        21.830000       21.730000        2.390000
  H2        22.340000       21.570000        1.470000
  C3        20.480000       21.740000        2.330000
  H3        19.990000       21.670000        1.390000
  C4        19.730000       21.770000        3.540000
  H4        18.709999       22.000000        3.690000
  C5        20.370001       21.730000        4.740000
  H5        19.740000       21.500000        5.610000
