206
 generated by VMD
 Ir       -0.321475       -0.110584       -7.548128
 C        -2.757907       -0.350075       -3.919226
 C        -3.674552       -0.144691       -4.929216
 N        -1.481378       -0.386436       -4.501501
 C        -1.550811       -0.232681       -5.881987
 N        -2.915076       -0.103996       -6.131021
 C        -3.270194        0.034485       -7.504343
 C        -2.205552        0.428185       -8.333105
 C        -2.501723        0.798725       -9.652830
 H        -1.729478        1.227638      -10.271433
 C        -3.795392        0.705528      -10.169973
 H        -3.999579        1.000553      -11.192991
 C        -4.839591        0.239822       -9.363516
 H        -5.837447        0.124725       -9.758535
 C        -4.569304       -0.089630       -8.025307
 H        -5.359809       -0.516975       -7.419519
 C        -5.032138       -0.025764       -4.611540
 H        -5.766337        0.203896       -5.371281
 C        -5.466033       -0.117321       -3.278929
 H        -6.511510       -0.003868       -3.047607
 C        -4.535298       -0.332882       -2.259047
 H        -4.851640       -0.364952       -1.234890
 C        -3.177711       -0.451801       -2.576723
 H        -2.466512       -0.654068       -1.796473
 C        -0.273993       -0.280708       -3.727266
 C         0.231664        0.977055       -3.396746
 H        -0.296115        1.871605       -3.706141
 C         1.414023        1.085907       -2.664509
 H         1.833432        2.066605       -2.455626
 C         2.096196       -0.059479       -2.246737
 H         3.043382        0.026665       -1.728456
 C         1.584794       -1.317242       -2.569071
 H         2.106830       -2.211796       -2.251493
 C         0.398269       -1.434704       -3.304230
 H         0.017495       -2.406792       -3.559301
 C        -0.887244       -4.073654       -9.301462
 C        -0.185271       -3.363388      -10.238184
 N        -1.170936       -3.181015       -8.242167
 C        -0.664632       -1.922092       -8.497648
 N        -0.084714       -2.043808       -9.752195
 C         0.366025       -0.831074      -10.339911
 C         0.631763        0.187595       -9.408083
 C         1.272414        1.348686       -9.874704
 H         1.560483        2.124722       -9.183771
 C         1.584394        1.514977      -11.219587
 H         2.086427        2.418564      -11.551374
 C         1.253396        0.526829      -12.148355
 H         1.481717        0.668079      -13.197649
 C         0.638606       -0.647957      -11.712450
 H         0.296746       -1.366081      -12.428919
 C         0.328343       -4.033749      -11.356001
 H         1.007401       -3.530098      -12.027807
 C         0.090398       -5.402636      -11.535254
 H         0.466176       -5.899635      -12.419947
 C        -0.647069       -6.111338      -10.586790
 H        -0.844953       -7.157375      -10.713480
 C        -1.139567       -5.428846       -9.466368
 H        -1.715829       -5.967710       -8.734617
 C        -2.094132       -3.497608       -7.191936
 C        -3.469264       -3.458145       -7.436382
 H        -3.835919       -3.258209       -8.426832
 C        -4.367822       -3.637375       -6.381079
 H        -5.433509       -3.635468       -6.579351
 C        -3.908206       -3.859600       -5.081015
 H        -4.597930       -3.987179       -4.270086
 C        -2.528607       -3.921371       -4.845652
 H        -2.166720       -4.068081       -3.834114
 C        -1.623002       -3.747223       -5.896011
 H        -0.559878       -3.793747       -5.699533
 C         3.564664       -0.729858       -5.614347
 C         3.380042        0.642921       -5.597334
 N         2.469098       -1.280525       -6.297871
 C         1.578641       -0.297546       -6.727457
 N         2.167018        0.883911       -6.290005
 C         1.417617        2.084480       -6.535044
 C         0.076230        1.866447       -6.890200
 C        -0.814118        2.947269       -6.855431
 H        -1.861878        2.777779       -7.053341
 C        -0.383634        4.226944       -6.516590
 H        -1.096786        5.047928       -6.516268
 C         0.959601        4.460236       -6.209013
 H         1.287902        5.457756       -5.954123
 C         1.859574        3.391548       -6.224804
 H         2.917027        3.615429       -6.166710
 C         4.335769        1.439720       -4.926443
 H         4.192891        2.506096       -4.819033
 C         5.456838        0.866875       -4.322756
 H         6.157680        1.486782       -3.794136
 C         5.643327       -0.518036       -4.375113
 H         6.539488       -0.962543       -3.965958
 C         4.688621       -1.316406       -5.008633
 H         4.833537       -2.385906       -5.041304
 C         2.382878       -2.683456       -6.627192
 C         2.495574       -3.061901       -7.965351
 H         2.625476       -2.307823       -8.729414
 C         2.433312       -4.411610       -8.314503
 H         2.454654       -4.693396       -9.362474
 C         2.271146       -5.387959       -7.328733
 H         2.152678       -6.432430       -7.607378
 C         2.175406       -5.005989       -5.990887
 H         2.106303       -5.768284       -5.220800
 C         2.224877       -3.651192       -5.638496
 H         2.168321       -3.371365       -4.603025
 Ir       -0.321477       -0.110584        7.027761
 C         3.803136        0.797878        8.090427
 C         3.850775       -0.425438        7.451887
 N         2.436035        1.120285        8.267027
 C         1.615841        0.136047        7.715714
 N         2.504244       -0.829735        7.276392
 C         1.914071       -2.081242        6.910980
 C         0.528728       -2.019470        6.683804
 C        -0.127770       -3.184105        6.259617
 H        -1.198461       -3.180237        6.131138
 C         0.565558       -4.381557        6.062113
 H         0.045155       -5.256992        5.721243
 C         1.943576       -4.434717        6.308582
 H         2.481852       -5.361763        6.185503
 C         2.615747       -3.288864        6.731554
 H         3.642301       -3.374519        7.061186
 C         5.105242       -0.934517        7.061827
 H         5.167380       -1.852200        6.494553
 C         6.275273       -0.213638        7.308912
 H         7.221689       -0.571678        6.946964
 C         6.203353        1.014763        7.967061
 H         7.103543        1.606888        8.122467
 C         4.965842        1.527370        8.356808
 H         4.926663        2.472443        8.879107
 C         2.001266        2.054794        9.281359
 C         1.639570        1.580914       10.542478
 H         1.546144        0.512585       10.709033
 C         1.349117        2.475121       11.572590
 H         1.002918        2.097889       12.526917
 C         1.425816        3.846725       11.357639
 H         1.165998        4.542919       12.140465
 C         1.780462        4.325699       10.091576
 H         1.809213        5.390110        9.891835
 C         2.069617        3.436577        9.048331
 H         2.304435        3.807934        8.064688
 C         0.077003        0.972912        2.823530
 C        -1.188451        0.458656        2.924871
 N         0.699691        0.783955        4.067019
 C        -0.144058        0.185997        4.977528
 N        -1.305938       -0.049652        4.247454
 C        -2.339114       -0.748978        4.939465
 C        -2.224227       -0.722324        6.339640
 C        -3.306241       -1.179810        7.107332
 H        -3.250105       -1.154736        8.185255
 C        -4.469493       -1.680775        6.510691
 H        -5.288785       -2.025944        7.120703
 C        -4.561660       -1.731297        5.114246
 H        -5.455327       -2.127373        4.645752
 C        -3.502065       -1.280857        4.330816
 H        -3.510814       -1.475380        3.273939
 C        -2.065255        0.548988        1.820673
 H        -3.079621        0.214367        1.890560
 C        -1.634343        1.150448        0.632578
 H        -2.308841        1.227493       -0.207434
 C        -0.340720        1.671749        0.538794
 H        -0.008220        2.146812       -0.376280
 C         0.524871        1.577892        1.635126
 H         1.524823        1.980999        1.555117
 C         2.044796        1.233261        4.351473
 C         2.235619        2.422150        5.059664
 H         1.384225        2.976250        5.427221
 C         3.537166        2.879673        5.313541
 H         3.687422        3.795013        5.858862
 C         4.632233        2.139694        4.872677
 H         5.637529        2.461807        5.126303
 C         4.441411        0.950809        4.164486
 H         5.289682        0.359142        3.843607
 C         3.138563        0.498375        3.897478
 H         2.995354       -0.422054        3.357107
 C        -1.643788        3.810917        8.274321
 C        -1.746528        3.044724        9.411767
 N        -1.412286        2.940189        7.190607
 C        -1.256997        1.635902        7.629497
 N        -1.523845        1.708324        8.993845
 C        -1.511775        0.464306        9.698735
 C        -0.799028       -0.554710        9.050581
 C        -0.446846       -1.702446        9.774297
 H         0.110046       -2.495274        9.297750
 C        -0.815458       -1.851913       11.116081
 H        -0.495555       -2.717506       11.670525
 C        -1.554790       -0.848553       11.745574
 H        -1.832718       -0.950676       12.784479
 C        -1.929672        0.295662       11.030357
 H        -2.664844        0.948383       11.455066
 C        -1.938746        3.683006       10.645235
 H        -2.007617        3.103077       11.562099
 C        -1.996894        5.077312       10.726596
 H        -2.214847        5.558273       11.673205
 C        -1.859962        5.847038        9.564280
 H        -1.911750        6.923973        9.613449
 C        -1.690444        5.205227        8.339311
 H        -1.590827        5.809422        7.444033
 C        -1.913205        3.246155        5.873768
 C        -3.110408        2.668491        5.448778
 H        -3.629548        1.959793        6.086220
 C        -3.651847        3.005375        4.201239
 H        -4.563529        2.537689        3.866713
 C        -2.998965        3.933613        3.376665
 H        -3.412927        4.193413        2.414095
 C        -1.803346        4.519882        3.812761
 H        -1.315837        5.269672        3.201986
 C        -1.261907        4.183002        5.060301
 H        -0.371646        4.669468        5.404224
