206
 generated by VMD
 Ir      121.193398      110.403397       10.712951
 C       124.110382      109.237457       13.796435
 C       124.140564      110.578796       13.799772
 N       123.215523      108.867584       12.785385
 C       122.733849      109.974411       12.068157
 N       123.284271      111.001373       12.755165
 C       122.778992      112.220215       12.415156
 C       121.833755      112.271301       11.396568
 C       121.355820      113.483055       10.994899
 H       120.650261      113.473114       10.193407
 C       121.907028      114.690422       11.470121
 H       121.510742      115.668930       11.334222
 C       122.813156      114.628387       12.509926
 H       122.998413      115.521294       13.086118
 C       123.177315      113.419876       13.057005
 H       123.775085      113.397446       13.911736
 C       124.748291      111.146027       14.882969
 H       125.153015      112.142586       14.753123
 C       125.139374      110.518372       16.048174
 H       125.769363      110.955063       16.723251
 C       125.077271      109.079086       16.001411
 H       125.346863      108.524368       16.904861
 C       124.537643      108.463837       14.872845
 H       124.532440      107.438408       14.753402
 C       123.278320      107.576111       12.159096
 C       122.244308      106.639481       12.319253
 H       121.492203      106.909729       12.976364
 C       122.416061      105.297928       11.896240
 H       121.524734      104.679611       11.885174
 C       123.574112      104.941635       11.137117
 H       123.868134      103.886719       10.993192
 C       124.522644      105.934464       10.853125
 H       125.144028      105.896484        9.952377
 C       124.366501      107.249779       11.404464
 H       125.045380      108.072327       11.134018
 C       117.650894      111.179108       13.259730
 C       117.194626      111.181824       11.976995
 N       119.080841      110.967422       13.227287
 C       119.492584      110.831268       11.879982
 N       118.280144      111.038666       11.161178
 C       118.467590      111.247894        9.720072
 C       119.811913      111.243820        9.330605
 C       120.046356      111.895782        8.049128
 H       121.037857      111.845139        7.602636
 C       119.012817      112.494652        7.301349
 H       119.266083      113.185822        6.451856
 C       117.677200      112.299927        7.660795
 H       116.847900      112.513443        7.005762
 C       117.440689      111.700302        8.894783
 H       116.387009      111.534225        9.062947
 C       115.842758      111.566818       11.733814
 H       115.371445      111.412834       10.794906
 C       114.995956      112.020447       12.744625
 H       114.059364      112.420250       12.383854
 C       115.473679      112.096191       14.060279
 H       114.909164      112.759369       14.658044
 C       116.853264      111.673660       14.250333
 H       117.226044      112.066406       15.225107
 C       119.979584      110.902496       14.327401
 C       120.417038      109.651276       14.718906
 H       120.092407      108.787849       14.160233
 C       121.196991      109.485016       15.849367
 H       121.430435      108.518768       16.153292
 C       121.618591      110.600906       16.566324
 H       122.217270      110.387253       17.441845
 C       121.237602      111.855988       16.092377
 H       121.583374      112.648041       16.676746
 C       120.329498      112.010330       15.007009
 H       120.151642      112.981392       14.600683
 C       120.146179      106.594406        9.191711
 C       121.386703      106.814896        8.717400
 N       119.780624      107.667938        9.991026
 C       120.756393      108.582657        9.872434
 N       121.733932      108.106987        9.105390
 C       122.721008      109.062408        8.557361
 C       122.689301      110.262550        9.207949
 C       123.529343      111.314972        8.731137
 H       123.126114      112.279022        8.895475
 C       124.570816      111.096237        7.823400
 H       125.455704      111.761734        7.686708
 C       124.594604      109.843750        7.220734
 H       125.309128      109.682053        6.390122
 C       123.648087      108.778580        7.551251
 H       123.580963      107.877609        6.929440
 C       122.022324      105.891190        7.913553
 H       123.058533      106.025513        7.574257
 C       121.347740      104.666611        7.593192
 H       121.834824      103.961685        6.826426
 C       120.129692      104.393280        8.124100
 H       119.508408      103.736725        7.648469
 C       119.552841      105.378365        8.898287
 H       118.548386      105.262100        9.277155
 C       118.425903      107.892715       10.371564
 C       118.126236      107.816223       11.763844
 H       118.846664      107.471405       12.447343
 C       116.813568      107.998642       12.190608
 H       116.648239      108.219650       13.220619
 C       115.850464      108.227585       11.221474
 H       114.821655      108.316391       11.501074
 C       116.171448      108.312622        9.858742
 H       115.261108      108.407257        9.181455
 C       117.444565      108.119736        9.443214
 H       117.629745      108.459518        8.409359
 Ir      121.193390      110.403397       25.874924
 C       117.789536      108.628708       23.793003
 C       117.476204      108.466179       25.101553
 N       119.037033      109.240891       23.708088
 C       119.493515      109.548294       24.995770
 N       118.538727      109.059784       25.825489
 C       118.839684      109.142136       27.219311
 C       120.152771      109.526733       27.491329
 C       120.659119      109.373703       28.774643
 H       121.553719      109.877197       29.090675
 C       119.890549      108.818039       29.743324
 H       120.352203      108.501114       30.689976
 C       118.585342      108.465820       29.422421
 H       118.061356      107.925919       30.260952
 C       117.970474      108.647354       28.175274
 H       116.880936      108.809235       27.980038
 C       116.167770      107.984192       25.395836
 H       115.918076      107.539352       26.327221
 C       115.275131      107.631882       24.435644
 H       114.284889      107.261703       24.681377
 C       115.637962      107.784912       23.114456
 H       114.924500      107.522369       22.361237
 C       116.884644      108.238861       22.781427
 H       117.213135      108.144318       21.820560
 C       119.836075      109.226395       22.520142
 C       120.127541      108.026260       21.858234
 H       120.342575      107.167343       22.428696
 C       120.681290      108.077957       20.553898
 H       121.037613      107.131607       20.232121
 C       120.820595      109.313187       19.845879
 H       120.885376      109.203018       18.805557
 C       120.592148      110.519936       20.575508
 H       120.772575      111.462486       20.122128
 C       120.058746      110.437790       21.887505
 H       120.058838      111.265472       22.578846
 C       119.615936      114.394760       26.427029
 C       120.769180      114.336708       27.165646
 N       119.347374      113.124084       26.006580
 C       120.338066      112.209099       26.460365
 N       121.199478      113.014389       27.163204
 C       122.336243      112.352829       27.753139
 C       122.678558      111.171707       27.109978
 C       123.875359      110.571175       27.469761
 H       124.217781      109.850479       26.828789
 C       124.689301      111.092323       28.461575
 H       125.682907      110.766907       28.522823
 C       124.376511      112.273926       29.093452
 H       125.060699      112.877167       29.633919
 C       123.190163      112.883965       28.743698
 H       122.943222      113.779762       29.278732
 C       121.296028      115.517838       27.770935
 H       122.317177      115.474380       28.004936
 C       120.636169      116.739792       27.788551
 H       121.063751      117.620911       28.183258
 C       119.433815      116.786888       27.071587
 H       118.958824      117.723999       26.967182
 C       118.961739      115.631516       26.344902
 H       118.121948      115.815567       25.678879
 C       118.104507      112.680176       25.508175
 C       117.226028      112.324753       26.481293
 H       117.442139      111.753922       27.306129
 C       115.889740      112.673515       26.365959
 H       115.380447      112.508835       27.312160
 C       115.484665      113.265549       25.109455
 H       114.473892      113.687958       25.113770
 C       116.390747      113.533493       24.080803
 H       116.049652      113.959793       23.144203
 C       117.700989      113.190369       24.287735
 H       118.468681      113.105209       23.528650
 C       123.382034      111.810143       22.350124
 C       123.495598      110.444489       22.429539
 N       122.632263      112.125732       23.520401
 C       122.325974      111.007477       24.301472
 N       122.898758      109.935745       23.663574
 C       122.939575      108.640099       24.370850
 C       122.148163      108.567108       25.504131
 C       122.225792      107.414062       26.367008
 H       121.418549      107.278519       27.137199
 C       123.124794      106.324013       26.094814
 H       122.905701      105.380020       26.579872
 C       124.068039      106.504951       25.000214
 H       124.771805      105.720200       24.841461
 C       123.899841      107.558594       24.126463
 H       124.480942      107.781273       23.220016
 C       124.005669      109.748375       21.271374
 H       124.337189      108.755188       21.299152
 C       124.144058      110.366043       20.082615
 H       124.216949      109.766304       19.228741
 C       124.108276      111.754074       19.950785
 H       124.135284      112.272202       18.962498
 C       123.748566      112.479675       21.113846
 H       124.053551      113.535072       21.221676
 C       122.765862      113.451035       24.059597
 C       123.814400      113.787704       24.922050
 H       124.434387      112.994019       25.367783
 C       123.847198      115.103981       25.445164
 H       124.580933      115.296127       26.204121
 C       122.874886      116.069748       25.183426
 H       122.870804      116.982147       25.778831
 C       121.921471      115.738373       24.206852
 H       121.087456      116.354416       24.132648
 C       121.829269      114.471558       23.698740
 H       120.869843      114.133667       23.273273
