206
 generated by VMD
 Ir        8.976368      124.910080       40.474304
 C         6.167615      124.839386       43.794983
 C         5.421287      125.005501       42.643291
 N         7.458520      125.014259       43.385246
 C         7.640096      125.257721       42.047241
 N         6.309919      125.272308       41.608475
 C         6.065931      125.555801       40.219551
 C         7.211822      125.406204       39.386032
 C         7.130244      125.724281       38.020065
 H         7.935734      125.718155       37.318245
 C         5.955480      126.317093       37.518654
 H         5.740437      126.411850       36.483776
 C         4.817644      126.494064       38.327980
 H         3.849213      126.543259       37.895866
 C         4.885478      126.059586       39.648560
 H         3.900615      126.086548       40.119957
 C         4.035296      124.984451       42.749054
 H         3.433699      125.349014       41.894962
 C         3.370917      124.699524       43.949646
 H         2.342841      124.435410       44.015209
 C         4.117442      124.513565       45.103733
 H         3.619317      124.325287       46.006134
 C         5.520386      124.575203       45.082619
 H         6.064911      124.516869       45.974968
 C         8.618395      124.956802       44.318142
 C         9.651145      125.912811       44.309746
 H         9.401255      126.914307       44.198570
 C        10.872843      125.602463       44.894325
 H        11.498297      126.398651       45.181175
 C        11.149162      124.322563       45.451485
 H        12.180579      124.057144       45.672230
 C        10.097803      123.398743       45.477707
 H        10.132881      122.563736       46.152206
 C         8.882479      123.728622       44.971085
 H         8.118722      122.938332       45.078873
 C         8.629783      120.659256       39.916740
 C         9.477987      121.066254       38.878334
 N         8.131268      121.795944       40.446198
 C         8.602722      122.965424       39.831200
 N         9.475326      122.502716       38.845772
 C        10.277540      123.483582       38.226608
 C        10.135971      124.808899       38.703999
 C        10.667040      125.842438       37.959122
 H        10.452424      126.845917       38.279400
 C        11.532539      125.600868       36.886810
 H        11.732885      126.319458       36.146553
 C        11.736338      124.279160       36.434219
 H        12.518997      124.067268       35.698593
 C        11.110714      123.238403       37.127060
 H        11.520617      122.288719       36.986420
 C        10.172202      120.060471       38.165398
 H        10.987186      120.340393       37.579700
 C        10.098167      118.708458       38.487072
 H        10.878273      118.053650       38.088367
 C         9.241516      118.313782       39.544891
 H         9.497972      117.371750       39.981827
 C         8.529769      119.242538       40.288815
 H         7.902603      118.929459       41.085522
 C         7.022354      121.643776       41.363838
 C         5.762272      122.041634       40.923378
 H         5.675888      122.633331       39.989498
 C         4.638816      121.616074       41.663132
 H         3.605915      121.793991       41.301525
 C         4.830991      120.962303       42.909191
 H         4.002278      120.802391       43.572411
 C         6.124946      120.660995       43.395809
 H         6.180175      120.434769       44.439491
 C         7.205371      120.991211       42.620602
 H         8.252871      120.759727       43.038048
 C        12.886038      124.409424       42.519672
 C        12.739513      125.713867       42.322865
 N        11.711847      123.789612       41.902557
 C        10.823601      124.721161       41.346737
 N        11.464783      125.944244       41.580513
 C        10.816787      127.174179       41.140656
 C         9.469540      126.981491       40.738537
 C         8.729939      128.142807       40.405457
 H         7.764656      128.050934       39.889137
 C         9.276753      129.434845       40.466770
 H         8.605389      130.311203       40.354702
 C        10.622089      129.654907       40.845509
 H        10.930628      130.686417       40.937698
 C        11.392561      128.490311       41.065292
 H        12.432695      128.470779       40.901772
 C        13.768774      126.643280       42.762665
 H        13.459764      127.635071       42.910164
 C        14.936220      126.114838       43.297291
 H        15.869408      126.512924       42.930145
 C        15.012495      124.764023       43.616631
 H        15.793238      124.354065       44.330200
 C        13.996954      123.870399       43.221901
 H        14.131939      122.820786       43.277565
 C        11.806019      122.371902       41.581749
 C        12.543091      122.026581       40.411243
 H        13.155539      122.714737       39.802681
 C        12.750843      120.624786       40.129745
 H        13.107656      120.326935       39.217018
 C        12.356684      119.667290       41.076542
 H        12.593081      118.630981       40.899956
 C        11.609350      120.042404       42.244267
 H        11.295326      119.317810       42.944023
 C        11.377815      121.418327       42.480316
 H        10.824131      121.644623       43.316750
 Ir        8.976368      124.910080       55.937168
 C        10.232678      123.919128       51.790817
 C         8.968414      124.455872       51.667358
 N        10.591911      123.911209       53.116676
 C         9.576946      124.506027       53.956223
 N         8.591824      124.868851       52.951782
 C         7.768070      125.895454       53.430222
 C         7.446204      125.812042       54.770386
 C         6.368643      126.559799       55.212460
 H         5.997231      126.482803       56.192062
 C         5.548658      127.263428       54.264343
 H         4.908531      128.039764       54.657066
 C         5.899981      127.225311       52.916298
 H         5.298542      127.645187       52.186867
 C         7.039111      126.631271       52.490974
 H         7.548455      126.942276       51.603088
 C         8.296619      124.483322       50.445545
 H         7.345468      125.016144       50.347496
 C         8.876891      123.950569       49.320705
 H         8.338236      123.841660       48.377422
 C        10.206736      123.588928       49.387241
 H        10.726474      123.356628       48.503777
 C        10.870768      123.504303       50.636841
 H        11.952662      123.280777       50.615932
 C        11.611565      123.042831       53.684410
 C        12.498992      123.574707       54.598396
 H        12.451801      124.615494       54.880249
 C        13.526505      122.753571       55.139545
 H        14.114557      123.073364       56.073425
 C        13.603554      121.395752       54.732018
 H        14.272831      120.766830       55.309448
 C        12.660041      120.915024       53.745651
 H        12.818247      120.007881       53.226284
 C        11.611012      121.718399       53.309490
 H        10.922675      121.437332       52.621666
 C        10.589167      128.950043       56.396580
 C        10.027176      128.638931       57.622295
 N        10.408640      127.897995       55.538429
 C         9.682442      126.865967       56.228333
 N         9.447937      127.353241       57.532543
 C         8.336761      126.704788       58.177063
 C         8.023709      125.405334       57.784237
 C         7.204813      124.665688       58.567524
 H         6.878469      123.703766       58.134830
 C         6.632702      125.119896       59.792175
 H         5.951100      124.452789       60.413944
 C         6.903068      126.455460       60.153793
 H         6.438238      126.755722       61.095268
 C         7.728624      127.280853       59.329243
 H         7.409163      128.262497       59.226166
 C        10.091869      129.534760       58.781738
 H         9.691998      129.228241       59.781410
 C        10.730520      130.800385       58.616405
 H        11.084270      131.384628       59.507042
 C        11.142585      131.166580       57.274986
 H        11.777832      132.099442       57.190727
 C        11.125013      130.200928       56.201015
 H        11.531355      130.517059       55.280502
 C        10.462570      127.958267       54.111809
 C        11.170210      127.018066       53.440350
 H        11.727694      126.275131       54.000328
 C        11.378691      127.065689       52.063267
 H        11.857411      126.236115       51.659874
 C        10.677450      127.999084       51.340332
 H        10.867085      128.233719       50.346359
 C         9.902079      128.982605       52.042393
 H         9.476517      129.819687       51.500626
 C         9.754429      128.996948       53.427200
 H         9.380548      129.884567       53.885719
 C        11.860029      122.435974       58.073383
 C        11.154749      121.530121       57.301044
 N        11.223810      123.708252       57.900303
 C        10.152737      123.678436       57.071804
 N        10.095300      122.307953       56.737438
 C         8.832331      121.915848       56.261665
 C         8.057140      122.988136       55.861443
 C         6.772745      122.664322       55.369034
 H         6.020227      123.458633       55.000679
 C         6.247580      121.364761       55.327072
 H         5.229198      121.247253       55.020332
 C         7.036522      120.312881       55.895508
 H         6.492949      119.417862       56.119274
 C         8.310951      120.636703       56.388729
 H         8.897038      119.942215       56.930389
 C        11.705957      120.245949       57.047939
 H        11.271894      119.625275       56.279465
 C        12.923609      119.929596       57.583046
 H        13.278854      118.993530       57.142029
 C        13.577374      120.827591       58.461613
 H        14.660948      120.671707       58.583961
 C        13.122402      122.126823       58.664597
 H        13.479158      122.751099       59.469273
 C        11.537068      124.855637       58.786568
 C        11.019735      124.974709       60.067612
 H        10.461950      124.153336       60.485737
 C        11.361445      126.019226       60.933708
 H        10.778378      126.276505       61.778893
 C        12.271809      126.972382       60.410130
 H        12.477751      127.837097       60.965519
 C        12.695202      126.867172       59.084545
 H        13.404175      127.600388       58.674866
 C        12.346955      125.807602       58.261238
 H        12.500433      125.760971       57.193169
