206
 generated by VMD
  IR        29.670000        2.840000       35.580002
  C1        29.330000       -1.080000       37.180000
  C2        30.090000       -1.310000       36.060001
  N1        28.920000        0.230000       37.200001
  C3a       29.500000        0.920000       36.209999
  N2        30.160000       -0.020000       35.450001
  C4        30.709999        0.380000       34.259998
  C5a       30.480000        1.740000       33.959999
  C6        31.040001        2.260000       32.799999
  H1        30.740000        3.000000       32.259998
  C7        31.910000        1.490000       32.020000
  H2        31.980000        1.960000       31.030001
  C8        32.130001        0.170000       32.270000
  H3        32.650002       -0.570000       31.700001
  C9        31.469999       -0.390000       33.380001
  H4        32.020000       -1.230000       33.810001
  C10       30.650000       -2.540000       35.840000
  H5        31.370001       -2.720000       35.070000
  C11       30.540001       -3.540000       36.820000
  H6        31.190001       -4.400000       36.720001
  C12       29.760000       -3.280000       37.959999
  H7        29.709999       -3.990000       38.779999
  C13       29.170000       -2.050000       38.130001
  H8        28.840000       -1.870000       39.150002
  C6        27.730000        0.560000       38.009998
  C1        26.469999        0.460000       37.470001
  H1        26.320000       -0.160000       36.650002
  C2        25.290001        0.810000       38.200001
  H2        24.290001        1.050000       37.770000
  C3        25.410000        1.310000       39.509998
  H3        24.600000        1.910000       40.009998
  C4        26.690001        1.390000       40.040001
  H4        26.830000        2.170000       40.730000
  C5        27.820000        1.040000       39.349998
  H5        28.740000        0.960000       39.869999
  C1        33.650002        3.910000       37.099998
  C2        33.270000        4.910000       36.270000
  N1        32.660000        2.870000       36.900002
  C3b       31.670000        3.260000       36.040001
  N2        32.090000        4.520000       35.590000
  C4        31.309999        5.090000       34.549999
  C5b       29.990000        4.650000       34.570000
  C6        29.150000        5.180000       33.590000
  H1        28.080000        5.100000       33.700001
  C7        29.620001        5.880000       32.490002
  H2        29.020000        5.930000       31.559999
  C8        30.969999        6.330000       32.570000
  H3        31.120001        7.230000       32.009998
  C9        31.740000        5.970000       33.639999
  H4        32.799999        6.330000       33.730000
  C10       34.090000        6.100000       36.279999
  H5        33.869999        6.940000       35.599998
  C11       35.230000        6.140000       37.049999
  H6        35.849998        7.010000       36.939999
  C12       35.619999        5.060000       37.930000
  H7        36.590000        4.910000       38.400002
  C13       34.790001        3.930000       37.910000
  H8        34.959999        3.280000       38.730000
  C6        33.070000        1.510000       37.160000
  C1        32.330002        0.710000       38.070000
  H1        31.559999        1.010000       38.759998
  C2        32.529999       -0.710000       38.139999
  H2        31.830000       -1.280000       38.820000
  C3        33.529999       -1.280000       37.310001
  H3        33.490002       -2.370000       37.259998
  C4        34.349998       -0.490000       36.490002
  H4        35.009998       -0.990000       35.799999
  C5        34.139999        0.920000       36.439999
  H5        34.919998        1.420000       35.849998
  C1        27.440001        4.600000       38.820000
  C2        26.389999        4.340000       37.840000
  N1        28.700001        4.330000       38.290001
  C3c       28.540001        3.830000       37.049999
  N2        27.110001        3.810000       36.770000
  C4        26.700001        3.470000       35.509998
  C5c       27.660000        2.650000       34.919998
  C6        27.330000        2.160000       33.660000
  H1        27.900000        1.410000       33.130001
  C7        26.209999        2.510000       32.950001
  H2        26.030001        2.150000       32.000000
  C8        25.250000        3.390000       33.570000
  H3        24.219999        3.580000       33.290001
  C9        25.620001        3.910000       34.820000
  H4        25.100000        4.820000       35.000000
  C10       25.020000        4.630000       38.209999
  H5        24.180000        4.410000       37.619999
  C11       24.830000        5.260000       39.450001
  H6        23.920000        5.330000       40.060001
  C12       25.820000        5.550000       40.330002
  H7        25.559999        6.170000       41.189999
  C13       27.120001        5.220000       40.029999
  H8        27.790001        5.180000       40.840000
  C6        29.809999        5.170000       38.759998
  C1        30.940001        4.580000       39.360001
  H1        30.990000        3.510000       39.369999
  C2        31.889999        5.280000       40.090000
  H2        32.730000        4.740000       40.599998
  C3        31.840000        6.680000       39.959999
  H3        32.509998        7.150000       40.750000
  C4        30.840000        7.290000       39.209999
  H4        31.070000        8.320000       39.009998
  C5        29.799999        6.580000       38.660000
  H5        28.900000        7.170000       38.509998
  IR        31.930000        8.760000       50.189999
  C1        32.869999       11.690000       47.049999
  C2        32.200001       10.680000       46.419998
  N1        33.020000       11.290000       48.430000
  C3a       32.410000       10.060000       48.650002
  N2        31.840000        9.760000       47.430000
  C4        31.040001        8.610000       47.419998
  C5a       31.160000        7.800000       48.520000
  C6        30.719999        6.460000       48.540001
  H1        31.090000        5.750000       49.299999
  C7        30.040001        6.020000       47.430000
  H2        29.360001        5.150000       47.480000
  C8        29.870001        6.800000       46.279999
  H3        29.420000        6.280000       45.389999
  C9        30.379999        8.080000       46.299999
  H4        29.750000        8.700000       45.720001
  C10       31.770000       10.890000       45.049999
  H5        31.410000       10.120000       44.360001
  C11       31.879999       12.150000       44.540001
  H6        31.459999       12.410000       43.570000
  C12       32.509998       13.180000       45.220001
  H7        32.570000       14.170000       44.820000
  C13       33.090000       12.950000       46.450001
  H8        33.889999       13.630000       46.540001
  C6        33.919998       12.010000       49.369999
  C1        33.490002       12.990000       50.250000
  H1        32.470001       13.020000       50.549999
  C2        34.520000       13.710000       50.889999
  H2        34.189999       14.610000       51.290001
  C3        35.880001       13.530000       50.680000
  H3        36.570000       14.210000       51.139999
  C4        36.290001       12.550000       49.720001
  H4        37.270000       12.400000       49.330002
  C5        35.320000       11.740000       49.139999
  H5        35.660000       11.030000       48.490002
  C1        27.879999        9.920000       51.119999
  C2        28.120001        8.850000       51.959999
  N1        28.990000       10.130000       50.240002
  C3b       29.950001        9.210000       50.570000
  N2        29.330000        8.370000       51.520000
  C4        29.969999        7.140000       51.759998
  C5b       31.370001        7.250000       51.529999
  C6        32.189999        6.230000       52.049999
  H1        33.299999        6.420000       52.060001
  C7        31.680000        5.170000       52.830002
  H2        32.250000        4.350000       53.169998
  C8        30.309999        5.130000       53.070000
  H3        29.870001        4.510000       53.790001
  C9        29.469999        6.060000       52.540001
  H4        28.459999        5.980000       52.840000
  C10       27.150000        8.580000       52.980000
  H5        27.260000        7.740000       53.549999
  C11       26.000000        9.300000       53.040001
  H6        25.219999        9.150000       53.750000
  C12       25.760000       10.380000       52.200001
  H7        24.770000       10.810000       52.270000
  C13       26.700001       10.740000       51.189999
  H8        26.629999       11.660000       50.619999
  C6        29.090000       11.070000       49.070000
  C1        29.700001       12.320000       49.180000
  H1        30.309999       12.620000       50.020000
  C2        29.480000       13.210000       48.139999
  H2        30.219999       13.980000       48.180000
  C3        28.809999       12.860000       46.970001
  H3        28.490000       13.510000       46.160000
  C4        28.400000       11.560000       46.840000
  H4        27.910000       11.150000       45.990002
  C5        28.510000       10.690000       47.869999
  H5        27.840000        9.810000       47.830002
  C1        33.790001       10.680000       53.580002
  C2        34.840000       10.110000       52.919998
  N1        32.660000       10.400000       52.880001
  C3c       32.889999        9.710000       51.740002
  N2        34.259998        9.540000       51.700001
  C4        34.810001        8.820000       50.520000
  C5c       33.849998        7.980000       49.889999
  C6        34.189999        6.920000       49.040001
  H1        33.459999        6.420000       48.520000
  C7        35.549999        6.560000       48.880001
  H2        35.860001        5.750000       48.279999
  C8        36.500000        7.290000       49.549999
  H3        37.500000        7.080000       49.279999
  C9        36.169998        8.420000       50.310001
  H4        37.029999        9.020000       50.700001
  C10       36.169998       10.190000       53.450001
  H5        37.020000        9.710000       52.959999
  C11       36.400002       10.830000       54.650002
  H6        37.459999       10.870000       54.919998
  C12       35.360001       11.520000       55.240002
  H7        35.560001       12.070000       56.189999
  C13       34.099998       11.470000       54.700001
  H8        33.259998       11.890000       55.250000
  C6        31.350000       10.800000       53.270000
  C1        30.719999       11.980000       52.840000
  H1        31.209999       12.620000       52.090000
  C2        29.480000       12.400000       53.380001
  H2        28.990000       13.210000       52.880001
  C3        28.850000       11.600000       54.400002
  H3        27.950001       12.030000       54.889999
  C4        29.469999       10.430000       54.820000
  H4        29.190001       10.010000       55.779999
  C5        30.690001       10.040000       54.270000
  H5        31.020000        9.070000       54.490002
