206
 generated by VMD
 Ir        3.828876       53.227554       84.538422
 C         7.936583       54.307991       84.500824
 C         7.439382       55.100037       83.495659
 N         6.955903       53.457741       84.947968
 C         5.780801       53.753506       84.378525
 N         6.068104       54.705353       83.425507
 C         5.071793       55.076523       82.560524
 C         3.862031       54.376602       82.758224
 C         2.771534       54.714317       81.966797
 H         2.020575       54.170128       81.703903
 C         2.836462       55.801727       81.088425
 H         2.016794       55.699497       80.364830
 C         3.995317       56.478043       80.858307
 H         4.232612       57.227768       80.134079
 C         5.132922       56.061165       81.574806
 H         5.844020       56.874584       81.735092
 C         8.222832       56.061893       82.916054
 H         7.835135       56.798744       82.244904
 C         9.505867       56.315781       83.427780
 H         9.990498       57.229755       83.108582
 C         9.991859       55.494347       84.459595
 H        10.943039       55.700855       84.940857
 C         9.198330       54.504463       84.989075
 H         9.557896       54.131966       85.944931
 C         7.384737       52.228302       85.644867
 C         7.667849       51.086823       84.933479
 H         7.922040       51.167816       83.929420
 C         8.044437       49.859600       85.565849
 H         7.994834       48.839764       85.118660
 C         8.097887       49.793381       86.970573
 H         8.047621       48.822659       87.537384
 C         7.821396       50.960670       87.668198
 H         7.381613       50.813278       88.611053
 C         7.477083       52.141190       87.065430
 H         7.451540       53.029221       87.643311
 C         2.214349       56.564201       86.895493
 C         1.151330       55.852539       86.451843
 N         3.350074       56.010223       86.184906
 C         2.997533       54.946236       85.400398
 N         1.601113       54.889236       85.515556
 C         0.953961       53.957237       84.662628
 C         1.770945       52.880974       84.330086
 C         1.201584       51.907188       83.508835
 H         1.664026       50.936089       83.428154
 C         0.010134       52.096626       82.826584
 H        -0.206457       51.518250       81.906815
 C        -0.785446       53.197350       83.258850
 H        -1.828740       53.016502       83.100937
 C        -0.303074       54.045105       84.215935
 H        -0.922648       54.907005       84.582764
 C        -0.132937       56.194199       87.019760
 H        -1.051488       55.689079       86.676956
 C        -0.233840       57.244965       87.902832
 H        -1.226143       57.513905       88.213318
 C         0.914374       57.994499       88.364029
 H         0.912571       58.954208       88.877121
 C         2.146507       57.622101       87.807831
 H         2.974279       58.012745       88.342606
 C         4.485023       56.878311       85.976044
 C         5.774923       56.472298       86.408493
 H         6.044298       55.645935       87.043762
 C         6.954409       57.165588       85.973221
 H         7.942570       56.714912       86.285828
 C         6.785486       58.303116       85.141785
 H         7.712906       58.654495       84.685028
 C         5.513793       58.787437       84.799538
 H         5.451828       59.582359       84.074310
 C         4.354107       58.088367       85.248016
 H         3.435578       58.638741       85.003304
 C         4.339279       50.516502       87.848671
 C         4.515732       49.628277       86.703934
 N         3.947528       51.789932       87.440887
 C         3.935017       51.818783       86.094696
 N         4.308643       50.489956       85.627441
 C         4.232839       50.228180       84.286911
 C         4.386775       51.417503       83.577042
 C         4.413362       51.283966       82.192093
 H         4.658785       52.083969       81.507950
 C         4.197329       50.112789       81.511887
 H         4.186763       50.073021       80.480972
 C         4.003904       48.902069       82.271591
 H         4.066659       47.872040       81.939171
 C         3.934538       49.062279       83.664185
 H         3.396352       48.251923       84.093811
 C         4.862667       48.244946       86.956757
 H         5.091309       47.538651       86.214493
 C         4.878276       47.842751       88.301605
 H         5.358758       46.967628       88.758110
 C         4.655952       48.664215       89.357239
 H         4.551829       48.200188       90.339806
 C         4.394057       49.996422       89.143822
 H         4.531423       50.636623       89.967148
 C         3.051395       52.527351       88.341858
 C         3.426090       53.793465       88.833344
 H         4.330797       54.221794       88.451859
 C         2.805759       54.431335       89.898109
 H         3.196672       55.408684       90.284454
 C         1.570460       53.885307       90.292191
 H         1.262753       54.343620       91.286758
 C         1.076402       52.733513       89.688965
 H         0.038759       52.581039       89.921013
 C         1.806377       52.015129       88.772858
 H         1.535487       50.963890       88.726845
 Ir        3.828878       53.227554      100.463440
 C        -0.239408       53.060749       98.805328
 C         0.594796       52.795029       97.756805
 N         0.603464       53.343544       99.943970
 C         1.944821       53.212341       99.601990
 N         1.903002       52.786823       98.290314
 C         3.146439       52.449581       97.740105
 C         4.239122       52.850578       98.465187
 C         5.539554       52.917427       97.922958
 H         6.329434       53.516315       98.408775
 C         5.697489       52.439072       96.644547
 H         6.685552       52.114075       96.270508
 C         4.626984       52.002064       95.855347
 H         4.865774       51.767113       94.781670
 C         3.370993       52.022011       96.421898
 H         2.814946       51.212318       96.030869
 C         0.010367       52.318409       96.516975
 H         0.513564       52.256706       95.546631
 C        -1.308495       51.971794       96.533096
 H        -1.779888       51.486683       95.680252
 C        -2.126859       52.193008       97.629242
 H        -3.154177       51.895981       97.638817
 C        -1.630075       52.816902       98.754486
 H        -2.438845       53.321770       99.203377
 C         0.065912       53.927567      101.201721
 C        -0.283181       53.176331      102.312340
 H         0.144223       52.212708      102.453964
 C        -0.982643       53.881805      103.313324
 H        -1.486885       53.252518      103.968025
 C        -1.356920       55.216568      103.246750
 H        -1.982473       55.618668      104.019470
 C        -1.033115       55.949123      102.059898
 H        -1.380393       56.918171      101.785423
 C        -0.252273       55.331799      101.089020
 H        -0.013627       55.902660      100.277016
 C         4.529871       49.030174      101.173103
 C         5.702675       49.636013      101.580032
 N         3.636528       49.992283      100.601364
 C         4.242250       51.217270      100.698349
 N         5.543087       50.937630      101.169647
 C         6.483399       51.974224      101.023407
 C         5.839519       53.242928      101.051987
 C         6.652361       54.372784      101.266235
 H         6.130302       55.342026      101.503571
 C         8.038122       54.274376      101.515404
 H         8.689722       55.099342      101.603386
 C         8.616169       53.008736      101.526291
 H         9.578030       52.818794      101.893921
 C         7.883031       51.892288      101.266571
 H         8.401445       50.977242      101.368721
 C         6.657342       48.826096      102.277779
 H         7.568117       49.228451      102.504059
 C         6.440394       47.494934      102.437286
 H         7.106689       46.819725      102.922195
 C         5.259018       46.885536      102.034065
 H         5.242250       45.807281      102.117638
 C         4.241006       47.635323      101.374695
 H         3.248577       47.241806      101.183823
 C         2.332587       49.750454       99.891602
 C         1.105399       49.874527      100.543770
 H         0.982923       50.337418      101.512497
 C         0.000745       49.351574       99.889275
 H        -0.885428       49.768288      100.317230
 C         0.054397       48.850464       98.590698
 H        -0.720316       48.319683       98.043808
 C         1.251041       48.931072       97.929977
 H         1.424554       48.619522       96.928223
 C         2.370565       49.344124       98.567123
 H         3.328116       49.032040       98.108215
 C         2.923582       54.280464      104.551208
 C         2.805942       55.464706      103.882828
 N         3.254769       53.324638      103.644562
 C         3.317290       53.785603      102.374840
 N         2.998813       55.126137      102.469368
 C         2.966424       55.896763      101.197205
 C         3.749811       55.299477      100.170731
 C         4.208857       55.995171       99.045120
 H         4.669348       55.491501       98.278587
 C         4.008752       57.394127       98.957512
 H         4.362817       57.972626       98.149933
 C         3.338833       58.021294       99.978378
 H         3.084187       59.030434       99.794518
 C         2.780708       57.309982      101.048859
 H         2.140243       57.899437      101.751740
 C         2.513092       56.678707      104.587555
 H         2.451398       57.644005      104.080200
 C         2.366786       56.665329      105.959015
 H         2.093107       57.641354      106.372025
 C         2.350450       55.447632      106.609207
 H         2.191620       55.438320      107.713608
 C         2.590706       54.288322      105.916397
 H         2.724426       53.353767      106.457901
 C         3.495749       51.958130      103.965149
 C         2.519416       50.948708      103.919907
 H         1.512115       51.178230      103.539291
 C         2.780037       49.640461      104.395470
 H         2.047166       48.893799      104.168335
 C         4.077714       49.337212      104.944443
 H         4.198620       48.343040      105.426102
 C         5.044771       50.333725      104.982803
 H         5.878358       50.221931      105.667671
 C         4.761002       51.612587      104.506378
 H         5.571946       52.266838      104.394463
