206
 generated by VMD
  IR        60.500000       29.400000       44.529999
  C1        60.660000       32.099998       41.080002
  C2        61.889999       32.270000       41.720001
  N1        59.939999       31.190001       41.869999
  C3a       60.570000       30.799999       43.009998
  N2        61.799999       31.480000       42.869999
  C4        62.689999       31.350000       43.950001
  C5a       62.279999       30.469999       44.959999
  C6        63.049999       30.320000       46.189999
  H1        62.700001       29.830000       47.110001
  C7        64.349998       30.879999       46.209999
  H2        64.970001       30.540001       46.990002
  C8        64.760002       31.680000       45.139999
  H3        65.669998       32.310001       45.320000
  C9        63.959999       32.000000       44.020000
  H4        64.250000       32.840000       43.410000
  C10       62.750000       33.220001       41.220001
  H5        63.520000       33.650002       41.830002
  C11       62.480000       33.959999       40.060001
  H6        63.119999       34.770000       39.939999
  C12       61.330002       33.689999       39.320000
  H7        61.139999       34.270000       38.419998
  C13       60.360001       32.810001       39.869999
  H8        59.369999       32.630001       39.360001
  C6        58.529999       30.940001       41.720001
  C1        57.630001       31.490000       42.669998
  H1        57.910000       32.200001       43.410000
  C2        56.240002       31.270000       42.680000
  H2        55.700001       31.750000       43.500000
  C3        55.630001       30.549999       41.639999
  H3        54.650002       30.799999       41.340000
  C4        56.470001       29.969999       40.680000
  H4        56.080002       29.350000       39.919998
  C5        57.869999       30.180000       40.680000
  H5        58.439999       29.690001       39.980000
  C1        63.169998       26.370001       42.889999
  C2        62.770000       25.799999       44.070000
  N1        62.630001       27.680000       42.840000
  C3b       61.770000       27.940001       43.880001
  N2        61.880001       26.740000       44.669998
  C4        61.180000       26.770000       45.869999
  C5b       60.660000       28.080000       46.189999
  C6        60.110001       28.260000       47.439999
  H1        59.869999       29.230000       47.820000
  C7        60.070000       27.230000       48.450001
  H2        59.869999       27.459999       49.470001
  C8        60.529999       25.959999       48.099998
  H3        60.660000       25.230000       48.770000
  C9        61.060001       25.709999       46.790001
  H4        60.740002       24.799999       46.330002
  C10       63.169998       24.459999       44.349998
  H5        63.060001       24.080000       45.349998
  C11       63.889999       23.709999       43.430000
  H6        63.930000       22.650000       43.389999
  C12       64.309998       24.320000       42.240002
  H7        64.889999       23.660000       41.520000
  C13       63.889999       25.629999       41.889999
  H8        63.980000       26.000000       40.860001
  C6        62.950001       28.600000       41.790001
  C1        64.260002       29.080000       41.610001
  H1        65.029999       28.950001       42.349998
  C2        64.629997       29.590000       40.380001
  H2        65.730003       29.750000       40.150002
  C3        63.700001       29.680000       39.320000
  H3        64.010002       30.100000       38.360001
  C4        62.400002       29.150000       39.520000
  H4        61.660000       29.490000       38.820000
  C5        62.020000       28.639999       40.779999
  H5        61.080002       28.240000       40.930000
  C1        56.560001       27.379999       44.590000
  C2        56.290001       28.670000       45.099998
  N1        57.910000       27.309999       44.220001
  C3c       58.590000       28.559999       44.529999
  N2        57.560001       29.389999       45.090000
  C4        58.009998       30.610001       45.660000
  C5c       59.410000       30.840000       45.660000
  C6        59.849998       31.950001       46.320000
  H1        60.910000       32.119999       46.459999
  C7        59.040001       32.799999       47.099998
  H2        59.599998       33.480000       47.639999
  C8        57.669998       32.599998       47.090000
  H3        57.139999       33.360001       47.630001
  C9        57.220001       31.459999       46.419998
  H4        56.200001       31.139999       46.549999
  C10       54.930000       29.010000       45.360001
  H5        54.619999       30.070000       45.419998
  C11       53.860001       28.020000       45.259998
  H6        52.830002       28.290001       45.330002
  C12       54.180000       26.730000       44.889999
  H7        53.459999       26.020000       45.130001
  C13       55.490002       26.450001       44.439999
  H8        55.869999       25.469999       44.330002
  C6        58.509998       26.180000       43.610001
  C1        59.230000       26.270000       42.450001
  H1        59.470001       27.280001       42.070000
  C2        60.009998       25.320000       41.810001
  H2        60.360001       25.500000       40.779999
  C3        60.209999       24.150000       42.560001
  H3        61.009998       23.469999       42.349998
  C4        59.500000       23.990000       43.779999
  H4        59.590000       23.040001       44.290001
  C5        58.639999       24.969999       44.259998
  H5        58.279999       24.840000       45.220001
  IR        53.490002       30.600000       58.369999
  C1        55.509998       32.919998       55.330002
  C2        56.259998       31.790001       55.430000
  N1        54.599998       32.950001       56.459999
  C3a       54.709999       31.750000       57.160000
  N2        55.790001       31.049999       56.549999
  C4        55.950001       29.690001       56.900002
  C5a       55.049999       29.270000       57.860001
  C6        55.119999       27.889999       58.119999
  H1        54.689999       27.459999       59.029999
  C7        55.939999       26.969999       57.450001
  H2        55.540001       25.940001       57.419998
  C8        56.820000       27.440001       56.500000
  H3        57.400002       26.750000       55.959999
  C9        56.810001       28.760000       56.200001
  H4        57.200001       29.040001       55.250000
  C10       57.299999       31.620001       54.549999
  H5        58.070000       30.889999       54.720001
  C11       57.619999       32.599998       53.570000
  H6        58.560001       32.680000       53.090000
  C12       56.880001       33.790001       53.570000
  H7        56.980000       34.509998       52.810001
  C13       55.810001       33.869999       54.389999
  H8        55.189999       34.669998       54.250000
  C6        53.900002       34.099998       56.820000
  C1        52.520000       34.240002       56.430000
  H1        52.040001       33.570000       55.709999
  C2        51.840000       35.439999       56.730000
  H2        50.849998       35.700001       56.470001
  C3        52.529999       36.520000       57.360001
  H3        52.000000       37.439999       57.619999
  C4        53.900002       36.400002       57.639999
  H4        54.310001       37.209999       58.230000
  C5        54.580002       35.189999       57.419998
  H5        55.540001       35.090000       57.939999
  C1        50.540001       29.100000       55.610001
  C2        50.220001       28.520000       56.869999
  N1        51.730000       29.719999       55.799999
  C3b       52.240002       29.620001       57.060001
  N2        51.320000       28.750000       57.750000
  C4        51.750000       28.250000       58.959999
  C5b       52.610001       29.150000       59.650002
  C6        52.990002       28.860001       61.000000
  H1        53.450001       29.650000       61.650002
  C7        52.560001       27.690001       61.610001
  H2        52.669998       27.490000       62.639999
  C8        51.750000       26.830000       60.950001
  H3        51.330002       26.010000       61.450001
  C9        51.279999       27.110001       59.680000
  H4        50.669998       26.370001       59.250000
  C10       49.160000       27.580000       56.919998
  H5        49.049999       26.870001       57.689999
  C11       48.360001       27.389999       55.700001
  H6        47.669998       26.620001       55.759998
  C12       48.700001       28.010000       54.509998
  H7        48.279999       27.799999       53.610001
  C13       49.849998       28.879999       54.419998
  H8        50.070000       29.200001       53.480000
  C6        52.669998       30.100000       54.720001
  C1        53.709999       29.180000       54.509998
  H1        53.619999       28.200001       54.889999
  C2        54.630001       29.400000       53.500000
  H2        55.410000       28.680000       53.560001
  C3        54.490002       30.530001       52.680000
  H3        55.049999       30.799999       51.840000
  C4        53.459999       31.490000       52.950001
  H4        53.779999       32.500000       52.619999
  C5        52.529999       31.270000       53.990002
  H5        51.860001       32.020000       54.369999
  C1        50.880001       33.740002       59.619999
  C2        52.090000       34.099998       60.099998
  N1        50.919998       32.439999       59.200001
  C3c       52.230000       31.959999       59.290001
  N2        52.910000       33.020000       59.869999
  C4        54.270000       32.709999       60.240002
  C5c       54.630001       31.420000       59.900002
  C6        55.759998       30.879999       60.570000
  H1        55.959999       29.799999       60.400002
  C7        56.520000       31.570000       61.480000
  H2        57.509998       31.150000       61.740002
  C8        56.099998       32.889999       61.770000
  H3        56.540001       33.500000       62.529999
  C9        54.970001       33.419998       61.180000
  H4        54.590000       34.360001       61.480000
  C10       52.230000       35.360001       60.660000
  H5        53.139999       35.830002       60.650002
  C11       51.080002       36.189999       60.740002
  H6        51.139999       37.119999       61.230000
  C12       49.820000       35.820000       60.310001
  H7        48.959999       36.470001       60.349998
  C13       49.759998       34.570000       59.709999
  H8        48.750000       34.320000       59.310001
  C6        49.830002       31.500000       59.189999
  C1        49.709999       30.540001       60.240002
  H1        50.349998       30.490000       61.099998
  C2        48.549999       29.820000       60.340000
  H2        48.330002       29.290001       61.240002
  C3        47.470001       30.049999       59.459999
  H3        46.580002       29.500000       59.580002
  C4        47.580002       30.959999       58.450001
  H4        46.820000       31.040001       57.720001
  C5        48.790001       31.660000       58.279999
  H5        49.130001       32.000000       57.230000
