206
 generated by VMD
 Ir       23.183666      -70.829765     -113.303703
 C        25.745979      -68.620728     -110.603333
 C        24.716066      -69.076263     -109.803421
 N        25.394093      -68.894196     -111.938210
 C        24.196255      -69.582939     -112.006866
 N        23.761478      -69.638954     -110.691978
 C        22.440872      -70.136467     -110.502258
 C        21.912237      -70.831947     -111.607216
 C        20.657497      -71.423561     -111.493042
 H        20.207653      -71.901871     -112.349754
 C        19.933582      -71.353516     -110.297363
 H        18.947578      -71.771393     -110.255310
 C        20.457150      -70.655846     -109.208817
 H        19.899740      -70.617455     -108.275970
 C        21.696835      -70.042191     -109.309311
 H        22.024933      -69.392014     -108.519989
 C        24.846882      -69.016937     -108.410446
 H        24.119247      -69.466400     -107.770195
 C        26.019707      -68.502052     -107.833313
 H        26.155159      -68.570160     -106.763367
 C        27.057026      -68.038429     -108.652725
 H        27.981026      -67.679787     -108.214417
 C        26.909420      -68.089684     -110.033325
 H        27.720505      -67.759216     -110.660416
 C        25.843616      -68.026283     -113.003265
 C        25.114138      -66.870056     -113.293785
 H        24.276455      -66.588120     -112.674347
 C        25.460138      -66.092720     -114.399834
 H        24.860939      -65.234100     -114.666718
 C        26.535616      -66.471611     -115.215355
 H        26.741932      -65.924385     -116.126114
 C        27.277966      -67.616051     -114.915070
 H        28.089916      -67.921555     -115.554047
 C        26.925915      -68.393387     -113.801071
 H        27.448893      -69.320534     -113.617218
 C        24.428459      -74.755508     -111.805321
 C        23.685114      -75.036568     -112.922699
 N        24.438881      -73.360672     -111.659248
 C        23.720531      -72.732887     -112.657181
 N        23.218403      -73.785393     -113.428017
 C        22.182068      -73.440933     -114.341011
 C        21.894150      -72.064987     -114.434174
 C        20.876671      -71.655037     -115.307724
 H        20.585201      -70.613571     -115.340790
 C        20.164818      -72.573227     -116.087204
 H        19.377275      -72.227554     -116.735817
 C        20.454479      -73.935196     -115.992722
 H        19.916267      -74.640594     -116.602592
 C        21.439198      -74.370903     -115.106384
 H        21.515621      -75.421295     -114.922729
 C        23.481079      -76.395737     -113.266113
 H        23.048382      -76.667511     -114.210266
 C        23.967443      -77.421661     -112.444458
 H        23.779644      -78.453583     -112.712738
 C        24.685379      -77.104576     -111.296143
 H        24.932629      -77.883072     -110.580795
 C        24.933739      -75.769638     -110.981850
 H        25.514397      -75.538940     -110.101105
 C        24.913160      -72.747505     -110.444885
 C        26.192915      -72.201332     -110.414459
 H        26.754433      -72.063980     -111.319077
 C        26.763271      -71.837288     -109.189888
 H        27.689610      -71.281219     -109.176804
 C        26.058559      -72.027496     -107.992188
 H        26.494350      -71.733673     -107.058243
 C        24.767681      -72.571472     -108.031067
 H        24.198900      -72.672806     -107.119400
 C        24.192631      -72.927444     -109.259193
 H        23.201759      -73.352722     -109.283638
 C        25.703445      -70.210129     -116.814682
 C        24.794739      -69.170059     -116.852043
 N        25.323536      -71.030899     -115.734406
 C        24.212063      -70.560280     -115.084373
 N        23.877972      -69.412804     -115.802887
 C        22.713772      -68.715958     -115.356194
 C        22.314987      -69.040291     -114.051620
 C        21.388523      -68.213631     -113.399185
 H        21.081944      -68.428558     -112.388779
 C        20.838829      -67.096466     -114.042900
 H        20.136791      -66.457153     -113.521347
 C        21.210522      -66.803772     -115.355484
 H        20.754599      -65.974609     -115.877716
 C        22.133652      -67.614273     -116.023026
 H        22.266273      -67.495148     -117.077690
 C        24.964447      -68.142075     -117.803177
 H        24.323277      -67.281082     -117.813095
 C        26.038021      -68.190193     -118.708069
 H        26.122139      -67.426826     -119.473053
 C        26.950062      -69.246429     -118.655609
 H        27.760342      -69.295395     -119.356155
 C        26.782093      -70.260437     -117.703156
 H        27.481754      -71.072098     -117.686478
 C        25.994762      -72.274666     -115.425354
 C        26.013641      -73.297348     -116.365509
 H        25.403187      -73.215630     -117.256317
 C        26.768291      -74.451385     -116.131210
 H        26.844456      -75.212128     -116.889679
 C        27.479485      -74.588638     -114.937775
 H        28.098015      -75.454674     -114.769241
 C        27.429970      -73.571854     -113.970680
 H        27.916363      -73.700714     -113.023407
 C        26.699902      -72.411919     -114.223969
 H        26.645370      -71.623230     -113.486740
 Ir       23.183666      -70.829765     -100.455841
 C        25.483231      -67.150116      -99.939423
 C        25.230247      -67.198517     -101.287071
 N        24.979027      -68.329475      -99.368027
 C        24.342171      -69.110977     -100.329147
 N        24.512230      -68.405197     -101.506073
 C        23.880604      -68.961151     -102.664169
 C        23.338871      -70.248940     -102.485504
 C        22.757881      -70.895950     -103.580002
 H        22.404373      -71.913040     -103.484390
 C        22.658337      -70.264755     -104.823624
 H        22.109924      -70.728439     -105.629639
 C        23.159668      -68.972595     -104.995316
 H        23.013783      -68.451492     -105.922493
 C        23.769934      -68.327774     -103.916245
 H        23.970991      -67.271126     -104.002106
 C        25.695763      -66.148788     -102.101364
 H        25.582851      -66.176964     -103.166756
 C        26.377197      -65.062447     -101.545929
 H        26.707340      -64.256805     -102.174225
 C        26.616730      -65.022125     -100.170822
 H        27.102306      -64.172821      -99.726540
 C        26.174438      -66.074036      -99.364014
 H        26.351357      -66.046532      -98.300232
 C        25.627617      -68.871910      -98.197052
 C        26.955833      -69.305115      -98.318192
 H        27.392544      -69.431900      -99.292511
 C        27.703466      -69.578384      -97.172424
 H        28.753197      -69.814827      -97.266533
 C        27.133476      -69.470627      -95.897476
 H        27.704113      -69.731796      -95.024345
 C        25.795345      -69.071243      -95.783875
 H        25.335701      -69.034195      -94.814407
 C        25.046505      -68.761963      -96.930550
 H        24.018345      -68.443878      -96.820053
 C        19.137783      -69.171112     -100.628738
 C        18.956753      -70.529922     -100.552780
 N        20.521675      -68.923401     -100.682465
 C        21.235189      -70.109940     -100.579903
 N        20.251732      -71.096107     -100.510788
 C        20.726954      -72.437363     -100.501373
 C        22.062267      -72.558327     -100.905983
 C        22.543461      -73.810226     -101.319031
 H        23.545048      -73.897705     -101.713463
 C        21.712362      -74.933746     -101.284866
 H        22.080246      -75.880623     -101.670975
 C        20.401657      -74.835503     -100.823891
 H        19.765625      -75.705162     -100.779663
 C        19.909338      -73.581421     -100.419296
 H        18.973171      -73.543747      -99.887238
 C        17.644773      -71.051849     -100.570023
 H        17.469479      -72.110016     -100.577614
 C        16.551271      -70.197296     -100.672440
 H        15.552581      -70.607933     -100.765610
 C        16.746910      -68.812729     -100.737289
 H        15.908665      -68.152756     -100.859268
 C        18.040358      -68.296692     -100.709023
 H        18.177200      -67.229782     -100.743202
 C        21.007317      -67.721313     -101.318192
 C        20.702904      -67.485237     -102.654678
 H        20.186790      -68.239105     -103.235214
 C        21.082779      -66.286194     -103.270309
 H        20.827579      -66.099075     -104.305656
 C        21.784634      -65.319527     -102.536102
 H        22.051590      -64.378540     -102.998886
 C        22.110914      -65.565872     -101.195557
 H        22.682476      -64.838432     -100.635696
 C        21.719913      -66.762733     -100.588387
 H        21.985855      -66.957932      -99.557434
 C        23.376284      -72.129753      -96.278046
 C        24.606983      -72.412666      -96.799820
 N        22.592680      -71.616776      -97.338104
 C        23.299128      -71.592712      -98.521927
 N        24.531418      -72.128593      -98.188477
 C        25.360821      -72.492531      -99.291451
 C        25.032188      -71.871124     -100.508186
 C        25.858494      -72.077003     -101.613510
 H        25.638680      -71.589066     -102.546623
 C        26.984371      -72.911697     -101.536728
 H        27.585449      -73.097031     -102.411285
 C        27.293705      -73.550774     -100.334656
 H        28.131771      -74.226242     -100.275612
 C        26.489647      -73.349274      -99.212433
 H        26.669558      -73.934349      -98.334747
 C        25.623543      -72.878494      -95.939522
 H        26.630054      -73.012276      -96.305092
 C        25.364758      -73.096779      -94.578827
 H        26.148815      -73.470390      -93.932877
 C        24.091148      -72.835251      -94.077103
 H        23.874687      -73.021385      -93.035904
 C        23.093887      -72.351730      -94.922729
 H        22.088972      -72.248085      -94.543396
 C        21.278957      -71.050407      -97.130600
 C        21.079838      -69.678833      -97.294449
 H        21.903257      -69.033401      -97.560509
 C        19.787807      -69.138229      -97.145813
 H        19.623768      -68.090866      -97.333252
 C        18.712452      -69.965485      -96.819992
 H        17.721067      -69.543701      -96.719238
 C        18.916645      -71.339233      -96.639732
 H        18.082481      -71.976593      -96.369278
 C        20.191118      -71.883553      -96.801704
 H        20.354393      -72.942696      -96.639969
