206
 generated by VMD
 Ir       10.193020      -45.672348     -124.045227
 C         7.919941      -41.991776     -123.708344
 C         6.962655      -42.928719     -124.161606
 N         9.112902      -42.623554     -123.547424
 C         9.024038      -43.985474     -123.906143
 N         7.670685      -44.142933     -124.370834
 C         7.274852      -45.524876     -124.609268
 C         8.353571      -46.341820     -124.805649
 C         8.158819      -47.596798     -125.330338
 H         8.919032      -48.195568     -125.752884
 C         6.899952      -48.086159     -125.535980
 H         6.761734      -49.136963     -125.723602
 C         5.771364      -47.307220     -125.153931
 H         4.887790      -47.470749     -125.644516
 C         5.971961      -45.997566     -124.698349
 H         5.121432      -45.370285     -124.302841
 C         5.693574      -42.523849     -124.333405
 H         5.014134      -43.220947     -124.637085
 C         5.271144      -41.207272     -124.056671
 H         4.283679      -40.889404     -124.347336
 C         6.186599      -40.228035     -123.696487
 H         5.895855      -39.208237     -123.436523
 C         7.535878      -40.673798     -123.554596
 H         8.267662      -39.875908     -123.448929
 C        10.333031      -41.947716     -123.219223
 C        11.316633      -41.615257     -124.175354
 H        11.284330      -42.078362     -125.136337
 C        12.582406      -41.133919     -123.749756
 H        13.421936      -41.035927     -124.460800
 C        12.831032      -40.926529     -122.360733
 H        13.856863      -40.640789     -122.087021
 C        11.807262      -41.155308     -121.420013
 H        11.993993      -41.111664     -120.374153
 C        10.570961      -41.659470     -121.842377
 H         9.787590      -41.888245     -121.112862
 C         9.190180      -47.494637     -120.201981
 C        10.225552      -48.279808     -120.674973
 N         9.002934      -46.465668     -121.187813
 C         9.764900      -46.598022     -122.259857
 N        10.456369      -47.734566     -121.987946
 C        11.049063      -48.310299     -123.161774
 C        11.124969      -47.520081     -124.272308
 C        11.746199      -48.069637     -125.428787
 H        12.100571      -47.444305     -126.252686
 C        12.327072      -49.362289     -125.373672
 H        12.881695      -49.764313     -126.181747
 C        12.268785      -50.140125     -124.212784
 H        12.746811      -51.087471     -124.123215
 C        11.627685      -49.571095     -123.139511
 H        11.466516      -50.178268     -122.216934
 C        10.799690      -49.214050     -119.794197
 H        11.429024      -49.964096     -120.153603
 C        10.339972      -49.389297     -118.484177
 H        10.863609      -49.877441     -117.766953
 C         9.193923      -48.651253     -118.046265
 H         8.965714      -48.517334     -116.972725
 C         8.646812      -47.664665     -118.865967
 H         7.889651      -46.980286     -118.485397
 C         7.918197      -45.442772     -120.998291
 C         8.253166      -44.156403     -120.601868
 H         9.200544      -43.840672     -120.175034
 C         7.228181      -43.177750     -120.495834
 H         7.559404      -42.102173     -120.346100
 C         5.882905      -43.529709     -120.830124
 H         5.082555      -42.842064     -120.619919
 C         5.641256      -44.780869     -121.271835
 H         4.644039      -44.996655     -121.467529
 C         6.580201      -45.773308     -121.278839
 H         6.359108      -46.839386     -121.560791
 C        14.220055      -44.495659     -123.037216
 C        14.140234      -44.137451     -124.415924
 N        12.945987      -44.868320     -122.684418
 C        12.079813      -44.970165     -123.700623
 N        12.852494      -44.479904     -124.836227
 C        12.068742      -44.343002     -126.031342
 C        10.813774      -45.020164     -125.959808
 C        10.178331      -45.278496     -127.183075
 H         9.321571      -45.897072     -127.203735
 C        10.701432      -44.886311     -128.405792
 H        10.121602      -45.007542     -129.293045
 C        11.894970      -44.110222     -128.456329
 H        12.257637      -43.621449     -129.422302
 C        12.507879      -43.851891     -127.213272
 H        13.288494      -43.112034     -127.158066
 C        15.235624      -43.428596     -124.941803
 H        15.489981      -43.555347     -125.924973
 C        16.350899      -43.143158     -124.157196
 H        17.173302      -42.809685     -124.751373
 C        16.397760      -43.420044     -122.800858
 H        17.279198      -43.158997     -122.252121
 C        15.304260      -44.088936     -122.257690
 H        15.289490      -44.296974     -121.244232
 C        12.695650      -45.465912     -121.439102
 C        13.289261      -46.711899     -121.233116
 H        13.686644      -47.367004     -122.023193
 C        13.290018      -47.237587     -119.944412
 H        13.867493      -48.057884     -119.771957
 C        12.663975      -46.530602     -118.838860
 H        12.334152      -47.050304     -117.926437
 C        12.084335      -45.301285     -119.134995
 H        11.546890      -44.742775     -118.337677
 C        12.065728      -44.766563     -120.413712
 H        11.514150      -43.838303     -120.647598
 Ir       10.193022      -45.672344     -108.075989
 C        12.094563      -49.269699     -106.547951
 C        11.163851      -48.977585     -105.531609
 N        11.827943      -48.430561     -107.624130
 C        10.832321      -47.503704     -107.378616
 N        10.387911      -47.910614     -106.142090
 C         9.354829      -47.135406     -105.605888
 C         9.353036      -45.798046     -106.168526
 C         8.757616      -44.771545     -105.497787
 H         8.902707      -43.722771     -105.756882
 C         7.964778      -45.010674     -104.385132
 H         7.144179      -44.332996     -104.091919
 C         7.940542      -46.289539     -103.821823
 H         7.515155      -46.442513     -102.821198
 C         8.586236      -47.407326     -104.420174
 H         8.373141      -48.406174     -104.147583
 C        11.276493      -49.620735     -104.267067
 H        10.515671      -49.479435     -103.481583
 C        12.261131      -50.531773     -104.085693
 H        12.178545      -51.219334     -103.240326
 C        13.204165      -50.865246     -105.042557
 H        14.102615      -51.391479     -104.792625
 C        13.078664      -50.181667     -106.306580
 H        13.852110      -50.341972     -107.032242
 C        12.568019      -48.533005     -108.872604
 C        11.993807      -49.296406     -109.889816
 H        10.940166      -49.345184     -109.846703
 C        12.759865      -49.696556     -111.002663
 H        12.235529      -50.232498     -111.735832
 C        14.021841      -49.151199     -111.232864
 H        14.331509      -48.982574     -112.274292
 C        14.625832      -48.388268     -110.212067
 H        15.698711      -48.171547     -110.142365
 C        13.904051      -48.105576     -109.063972
 H        14.367647      -47.418915     -108.475693
 C         6.221800      -46.430679     -109.853783
 C         6.227555      -45.062603     -109.529053
 N         7.496440      -46.961964     -109.327171
 C         8.230788      -45.984127     -108.718582
 N         7.499972      -44.821877     -108.883766
 C         8.146847      -43.607243     -108.465652
 C         9.547684      -43.699600     -108.371140
 C        10.303631      -42.528831     -108.389465
 H        11.387796      -42.486198     -108.352386
 C         9.689430      -41.300358     -108.315857
 H        10.224508      -40.346062     -108.312866
 C         8.338863      -41.183228     -108.322853
 H         7.798451      -40.189220     -108.195557
 C         7.542900      -42.315525     -108.440979
 H         6.502100      -42.172604     -108.368095
 C         5.096379      -44.268181     -109.846924
 H         4.874026      -43.232178     -109.539413
 C         3.943036      -44.866055     -110.356667
 H         2.951424      -44.403534     -110.455078
 C         3.985220      -46.221272     -110.687431
 H         3.200739      -46.788139     -111.216721
 C         5.129712      -46.982903     -110.475624
 H         5.178483      -47.955738     -110.950394
 C         7.681054      -48.330719     -108.920074
 C         7.482131      -48.741825     -107.631378
 H         7.306126      -47.891205     -106.952957
 C         7.665070      -50.055901     -107.286797
 H         7.721789      -50.256302     -106.252563
 C         8.143173      -51.004982     -108.227409
 H         8.439668      -52.041752     -107.980843
 C         8.303177      -50.632900     -109.560394
 H         8.220447      -51.388962     -110.336365
 C         8.128675      -49.251759     -109.910538
 H         8.229025      -48.987091     -110.902344
 C        12.516840      -45.844524     -111.688354
 C        13.376905      -45.348377     -110.709412
 N        11.268620      -45.862293     -111.169769
 C        11.225891      -45.434784     -109.869957
 N        12.591187      -45.051434     -109.558334
 C        12.846174      -44.556305     -108.268135
 C        12.014002      -45.038548     -107.306297
 C        12.321399      -44.732235     -106.001892
 H        11.738646      -45.240650     -105.301590
 C        13.488594      -44.100636     -105.658173
 H        13.966450      -44.292385     -104.690041
 C        14.293770      -43.532791     -106.635590
 H        14.818562      -42.626938     -106.386742
 C        13.977802      -43.739708     -107.995209
 H        14.575232      -43.275539     -108.739395
 C        14.791950      -45.145439     -110.916901
 H        15.570013      -44.989468     -110.137352
 C        15.222975      -45.417313     -112.214127
 H        16.200556      -45.022842     -112.555923
 C        14.353628      -46.003815     -113.127884
 H        14.789764      -46.141933     -114.116272
 C        12.996503      -46.131115     -112.945374
 H        12.330290      -46.426441     -113.779427
 C        10.088364      -46.150154     -112.028336
 C         9.916811      -47.454594     -112.556923
 H        10.637455      -48.266235     -112.206345
 C         8.787789      -47.744785     -113.311714
 H         8.723528      -48.761868     -113.718185
 C         7.773408      -46.811390     -113.466331
 H         6.869433      -47.072445     -113.995277
 C         7.850898      -45.536476     -112.969055
 H         7.141533      -44.746170     -113.109825
 C         9.016470      -45.241066     -112.293869
 H         9.262352      -44.206848     -111.998856
