206
 generated by VMD
 Ir       57.244728     -129.048981        0.979454
 C        57.896194     -133.134613        2.012762
 C        57.863358     -132.542465        3.242960
 N        57.530609     -132.290863        1.012495
 C        57.298599     -131.023178        1.566170
 N        57.484062     -131.245819        2.971251
 C        57.242012     -130.120453        3.745253
 C        57.360718     -128.866745        3.077246
 C        57.407555     -127.659271        3.849833
 H        57.665871     -126.643280        3.400454
 C        57.119797     -127.719666        5.198816
 H        57.008999     -126.761642        5.741798
 C        56.944969     -128.914703        5.869926
 H        56.622429     -128.937714        6.882467
 C        56.983898     -130.155167        5.144850
 H        56.729858     -131.112503        5.561960
 C        58.079941     -133.329330        4.404352
 H        57.949059     -132.924683        5.407763
 C        58.392563     -134.654770        4.304953
 H        58.508472     -135.111160        5.294432
 C        58.475052     -135.233398        3.040804
 H        58.684357     -136.267761        2.982660
 C        58.221474     -134.509399        1.915186
 H        58.110474     -135.002167        0.973658
 C        57.023201     -132.788269       -0.210169
 C        55.861298     -133.528046       -0.215374
 H        55.465469     -133.955902        0.711590
 C        55.356236     -134.016602       -1.434029
 H        54.433102     -134.549408       -1.387711
 C        55.988541     -133.814316       -2.649786
 H        55.588142     -133.864822       -3.650148
 C        57.172630     -133.034485       -2.646282
 H        57.549911     -132.838165       -3.624710
 C        57.714333     -132.559418       -1.444216
 H        58.804970     -132.494995       -1.402386
 C        53.087845     -127.824989        0.886311
 C        53.819977     -126.586082        0.988758
 N        54.029533     -128.810196        1.188301
 C        55.318108     -128.326965        1.211933
 N        55.172630     -126.949066        1.022867
 C        56.335312     -126.231445        0.752375
 C        57.526169     -126.954132        0.727859
 C        58.730736     -126.219238        0.469521
 H        59.665154     -126.676086        0.482044
 C        58.676468     -124.801285        0.238327
 H        59.590015     -124.240585        0.136059
 C        57.475586     -124.095413        0.206133
 H        57.575043     -123.045113        0.197866
 C        56.288490     -124.807953        0.454744
 H        55.402336     -124.248848        0.188223
 C        53.101463     -125.414490        1.166822
 H        53.584064     -124.494537        1.496204
 C        51.631088     -125.419167        0.991068
 H        51.156548     -124.527344        1.170170
 C        50.948917     -126.633942        0.756245
 H        49.909752     -126.583504        0.505482
 C        51.700790     -127.839844        0.734100
 H        51.229500     -128.780151        0.542768
 C        53.624371     -129.985764        1.901442
 C        53.470901     -131.151855        1.124866
 H        53.790230     -131.141479        0.067259
 C        53.419281     -132.435455        1.669956
 H        52.989700     -133.352753        1.154078
 C        53.626183     -132.567780        3.012709
 H        53.687660     -133.513153        3.592627
 C        53.683968     -131.437103        3.823778
 H        53.548561     -131.382172        4.878836
 C        53.731430     -130.158157        3.291374
 H        54.145508     -129.436310        3.998466
 C        57.451958     -129.522781       -3.356623
 C        58.782021     -129.578522       -2.965313
 N        56.687073     -129.297653       -2.208942
 C        57.480194     -129.096848       -1.072269
 N        58.771461     -129.266617       -1.578342
 C        59.814980     -129.194855       -0.627542
 C        59.302582     -129.323425        0.654457
 C        60.214520     -129.506882        1.697195
 H        59.846725     -129.699432        2.711618
 C        61.566566     -129.476990        1.512587
 H        62.310997     -129.787064        2.209921
 C        62.116447     -129.175079        0.274811
 H        63.174248     -128.880234        0.201197
 C        61.246567     -129.017761       -0.834629
 H        61.702271     -129.054749       -1.817665
 C        59.724823     -129.930054       -3.888330
 H        60.745819     -129.886871       -3.609230
 C        59.352058     -130.193726       -5.257061
 H        60.034817     -130.559616       -5.971107
 C        57.978306     -130.151031       -5.643818
 H        57.842941     -130.284317       -6.666519
 C        57.012970     -129.915955       -4.699905
 H        55.997490     -130.003418       -5.009172
 C        55.349098     -128.965881       -2.257553
 C        54.857285     -127.602371       -2.187111
 H        55.547623     -126.881882       -2.611160
 C        53.473854     -127.356926       -2.392500
 H        53.159500     -126.307724       -2.355431
 C        52.523697     -128.413452       -2.570429
 H        51.527298     -128.093170       -2.668999
 C        53.046227     -129.705231       -2.667583
 H        52.426018     -130.474884       -3.073629
 C        54.403320     -129.995392       -2.447792
 H        54.677048     -131.059204       -2.653193
 Ir       57.244724     -129.048981       16.711554
 C        54.430885     -129.397339       19.901270
 C        53.667435     -129.486816       18.775682
 N        55.688004     -129.510651       19.514975
 C        55.851982     -129.623581       18.172308
 N        54.536652     -129.696442       17.707222
 C        54.373734     -129.809143       16.281263
 C        55.464203     -129.324844       15.570826
 C        55.366562     -129.300095       14.177179
 H        56.171280     -128.873550       13.612032
 C        54.177307     -129.688385       13.511816
 H        54.008965     -129.913971       12.413015
 C        53.137413     -130.272736       14.288828
 H        52.240704     -130.810196       13.806393
 C        53.248062     -130.270477       15.665106
 H        52.482803     -130.840012       16.198690
 C        52.223351     -129.474884       18.921850
 H        51.586685     -129.997955       18.230442
 C        51.697365     -129.277405       20.240007
 H        50.606384     -129.438110       20.336123
 C        52.484447     -129.228439       21.366373
 H        51.986576     -129.113770       22.277403
 C        53.861580     -129.319626       21.185034
 H        54.407356     -129.134537       22.077429
 C        56.712677     -129.412338       20.492971
 C        57.082619     -128.170990       20.926796
 H        56.549553     -127.312836       20.491457
 C        57.950066     -128.036804       21.992506
 H        58.232071     -127.103363       22.434484
 C        58.461090     -129.189575       22.667257
 H        59.131256     -129.098557       23.495024
 C        58.131088     -130.443542       22.163103
 H        58.311989     -131.425644       22.729265
 C        57.298286     -130.523712       21.057611
 H        56.919441     -131.526886       20.826250
 C        58.662979     -132.748199       15.096483
 C        59.510368     -131.731537       14.525045
 N        57.653381     -132.047607       15.786697
 C        57.917458     -130.767105       15.822084
 N        58.909035     -130.493973       14.962564
 C        58.987358     -129.272369       14.364126
 C        58.348167     -128.226913       15.073408
 C        58.520828     -126.940887       14.576704
 H        57.829681     -126.158417       14.999376
 C        59.413399     -126.664215       13.567904
 H        59.744125     -125.621437       13.341101
 C        60.108665     -127.670921       12.914793
 H        60.840637     -127.347534       12.146259
 C        59.879292     -128.977097       13.314657
 H        60.644997     -129.660614       13.078674
 C        60.642487     -132.241531       13.865934
 H        61.537132     -131.700104       13.592871
 C        60.903732     -133.587997       13.718382
 H        61.814682     -133.902313       13.255476
 C        60.125519     -134.570557       14.348577
 H        60.150375     -135.452209       13.836935
 C        58.978367     -134.105728       15.041382
 H        58.293167     -134.763794       15.474215
 C        56.386047     -132.628235       16.214916
 C        55.474052     -133.067871       15.251234
 H        55.615791     -132.797180       14.246576
 C        54.284134     -133.756500       15.673109
 H        53.473900     -134.068634       15.041521
 C        54.034248     -133.933319       17.007612
 H        53.166946     -134.555328       17.268002
 C        54.937294     -133.484375       17.956011
 H        54.625481     -133.606537       19.006651
 C        56.151268     -132.877213       17.575203
 H        56.813568     -132.462158       18.290596
 C        60.545784     -128.197098       19.380198
 C        59.960304     -126.994080       19.211538
 N        59.972977     -129.011475       18.421833
 C        58.900497     -128.466766       17.797575
 N        58.951141     -127.205505       18.299620
 C        57.867447     -126.345818       17.834288
 C        56.738472     -127.076752       17.291647
 C        55.486629     -126.432861       17.251591
 H        54.594357     -126.897499       16.954832
 C        55.407516     -125.036812       17.532064
 H        54.450325     -124.535690       17.559807
 C        56.561821     -124.299019       17.920073
 H        56.426262     -123.266861       18.064569
 C        57.762032     -124.908813       18.089632
 H        58.637398     -124.242310       18.100271
 C        60.241608     -125.907005       20.087679
 H        59.414429     -125.144020       20.159334
 C        61.088097     -126.184525       21.176966
 H        61.475792     -125.284500       21.680696
 C        61.729706     -127.446205       21.342516
 H        62.397957     -127.588058       22.186808
 C        61.510864     -128.429474       20.375154
 H        61.928894     -129.387009       20.673426
 C        60.590843     -130.218719       18.032345
 C        61.673531     -130.142578       17.130514
 H        61.854782     -129.210938       16.688047
 C        62.254662     -131.304672       16.737658
 H        62.832268     -131.335449       15.844057
 C        61.859650     -132.552628       17.230665
 H        61.859230     -133.413025       16.537336
 C        60.822556     -132.651566       18.131193
 H        60.421810     -133.588974       18.515457
 C        60.141571     -131.509628       18.452480
 H        59.092133     -131.460724       18.560167
