206
 generated by VMD
 Ir      -23.439217      -82.324829       83.870491
 C       -21.319323      -81.346603       87.549301
 C       -21.078465      -80.279419       86.713829
 N       -22.008129      -82.315781       86.800270
 C       -22.219093      -81.885880       85.494141
 N       -21.619015      -80.635910       85.452232
 C       -21.720121      -79.956230       84.216385
 C       -22.801252      -80.365555       83.416939
 C       -23.134064      -79.582184       82.297119
 H       -24.016132      -79.822021       81.719604
 C       -22.375084      -78.471848       81.935455
 H       -22.670130      -77.871033       81.085182
 C       -21.261133      -78.106049       82.694527
 H       -20.667294      -77.248360       82.408981
 C       -20.928675      -78.843376       83.836288
 H       -20.003536      -78.642136       84.354179
 C       -20.473576      -79.123032       87.237442
 H       -20.311958      -78.257805       86.614662
 C       -20.138277      -79.053238       88.586670
 H       -19.690220      -78.144119       88.979279
 C       -20.385952      -80.137444       89.434944
 H       -20.166754      -80.076767       90.491524
 C       -20.982014      -81.293831       88.916023
 H       -21.220881      -82.110756       89.577515
 C       -22.172443      -83.680222       87.257881
 C       -21.356167      -84.684296       86.724747
 H       -20.539005      -84.424469       86.083542
 C       -21.607620      -86.026672       87.048111
 H       -21.037724      -86.798340       86.552177
 C       -22.644302      -86.367386       87.910149
 H       -22.837189      -87.406296       88.144783
 C       -23.447487      -85.360916       88.461250
 H       -24.277740      -85.623138       89.084488
 C       -23.204861      -84.018532       88.133179
 H       -23.774757      -83.246872       88.629120
 C       -27.315773      -80.888123       85.278954
 C       -27.492012      -81.069260       83.928871
 N       -25.961370      -81.127136       85.565086
 C       -25.259995      -81.489502       84.417847
 N       -26.220093      -81.432465       83.412331
 C       -25.788862      -81.848175       82.112862
 C       -24.565348      -82.530411       82.091568
 C       -24.221424      -83.281357       80.956093
 H       -23.299393      -83.833084       80.947830
 C       -25.061144      -83.352455       79.852142
 H       -24.804615      -83.978134       79.008514
 C       -26.256512      -82.628860       79.841843
 H       -26.921770      -82.666389       78.984741
 C       -26.612400      -81.870605       80.957230
 H       -27.440037      -81.185135       80.873306
 C       -28.784967      -80.936218       83.378357
 H       -28.980898      -81.149704       82.341911
 C       -29.875208      -80.622032       84.192032
 H       -30.859749      -80.508286       83.764435
 C       -29.690439      -80.436096       85.568657
 H       -30.528234      -80.179337       86.206055
 C       -28.406311      -80.569138       86.114471
 H       -28.267263      -80.416412       87.172646
 C       -25.366436      -80.765732       86.830917
 C       -24.519861      -79.653946       86.900558
 H       -24.251738      -79.151657       85.992584
 C       -24.032385      -79.214996       88.134163
 H       -23.375120      -78.365341       88.176353
 C       -24.382654      -79.887848       89.302841
 H       -24.011465      -79.535683       90.265442
 C       -25.212700      -81.009338       89.244720
 H       -25.419512      -81.572159       90.143921
 C       -25.713566      -81.445885       88.014977
 H       -26.370834      -82.295540       87.972794
 C       -24.173315      -86.555275       84.674866
 C       -22.937202      -86.535057       84.055344
 N       -24.651836      -85.231689       84.679962
 C       -23.739836      -84.358315       84.115974
 N       -22.671532      -85.180565       83.747833
 C       -21.492186      -84.493927       83.320061
 C       -21.708050      -83.156929       82.959457
 C       -20.717974      -82.494034       82.227531
 H       -20.925098      -81.506180       81.829239
 C       -19.504152      -83.112534       81.926529
 H       -18.763693      -82.583748       81.344284
 C       -19.260445      -84.415726       82.362503
 H       -18.304033      -84.874802       82.183258
 C       -20.252180      -85.107628       83.054993
 H       -20.005836      -86.047058       83.507294
 C       -22.217304      -87.746475       83.937325
 H       -21.305202      -87.789886       83.373154
 C       -22.725044      -88.932076       84.465469
 H       -22.176693      -89.855103       84.350487
 C       -23.972591      -88.925690       85.106476
 H       -24.378996      -89.841614       85.508102
 C       -24.693321      -87.728775       85.204773
 H       -25.652042      -87.728867       85.686279
 C       -26.041809      -84.901810       84.886253
 C       -26.890579      -84.807983       83.778015
 H       -26.498268      -84.935898       82.785736
 C       -28.230188      -84.439148       83.953552
 H       -28.885607      -84.384514       83.099243
 C       -28.717651      -84.135040       85.230965
 H       -29.749849      -83.852997       85.361046
 C       -27.857801      -84.209442       86.339668
 H       -28.234583      -83.982040       87.324059
 C       -26.529270      -84.597687       86.163666
 H       -25.873798      -84.693558       87.017876
 Ir      -23.439217      -82.324829       96.298080
 C       -22.709808      -80.189362      100.056458
 C       -23.918087      -79.731506       99.623528
 N       -22.241261      -81.103065       99.091217
 C       -23.144974      -81.247147       98.043625
 N       -24.181993      -80.390869       98.395569
 C       -25.295845      -80.382843       97.508621
 C       -25.020500      -80.937103       96.246605
 C       -25.973892      -80.780579       95.228500
 H       -25.726866      -81.088173       94.232475
 C       -27.202522      -80.152267       95.472198
 H       -27.895378      -80.010483       94.666939
 C       -27.493456      -79.656258       96.742218
 H       -28.421188      -79.136536       96.931427
 C       -26.540115      -79.771545       97.760422
 H       -26.830637      -79.527122       98.774307
 C       -24.611038      -78.788544      100.414459
 H       -25.526003      -78.335365      100.068970
 C       -24.077703      -78.349487      101.625771
 H       -24.617931      -77.638702      102.236221
 C       -22.837200      -78.841263      102.062012
 H       -22.416719      -78.501083      102.995857
 C       -22.150824      -79.764801      101.262146
 H       -21.179031      -80.115982      101.586014
 C       -20.867128      -81.552322       99.084923
 C       -19.860346      -80.669472       98.662094
 H       -20.121973      -79.780746       98.110817
 C       -18.520403      -80.957016       98.954102
 H       -17.750324      -80.271225       98.635429
 C       -18.176992      -82.122498       99.649689
 H       -17.137289      -82.339928       99.867264
 C       -19.178917      -83.012527      100.042107
 H       -18.926117      -83.901260      100.588684
 C       -20.519985      -82.734695       99.752213
 H       -21.277737      -83.461487       99.983894
 C       -26.499752      -85.167526       97.599487
 C       -26.440193      -85.338593       96.232086
 N       -25.567656      -84.172714       97.934074
 C       -24.882204      -83.712982       96.816757
 N       -25.435125      -84.443535       95.769913
 C       -24.862659      -84.213928       94.481796
 C       -23.951920      -83.140503       94.409615
 C       -23.404686      -82.794647       93.168884
 H       -22.747944      -81.951935       93.084373
 C       -23.727198      -83.514893       92.008438
 H       -23.262814      -83.247528       91.072296
 C       -24.615721      -84.590714       92.081444
 H       -24.872177      -85.144241       91.201248
 C       -25.168344      -84.948685       93.311028
 H       -25.702515      -85.871216       93.378098
 C       -27.291101      -86.296265       95.638588
 H       -27.376705      -86.376114       94.565140
 C       -28.147181      -87.077942       96.416733
 H       -28.821054      -87.773712       95.937576
 C       -28.179132      -86.897156       97.796120
 H       -28.846609      -87.488976       98.411514
 C       -27.363827      -85.934692       98.392654
 H       -27.458078      -85.736176       99.442184
 C       -25.429485      -83.639908       99.270538
 C       -24.267658      -83.923965      100.003525
 H       -23.494370      -84.540298       99.572418
 C       -24.114374      -83.393448      101.290329
 H       -23.205799      -83.585220      101.839340
 C       -25.109524      -82.581261      101.840263
 H       -24.963161      -82.137283      102.820862
 C       -26.272476      -82.306915      101.109390
 H       -27.027872      -81.654144      101.528168
 C       -26.425760      -82.837433       99.822594
 H       -27.326393      -82.618942       99.258659
 C       -19.840889      -84.746117       96.603943
 C       -19.395063      -83.502731       96.213379
 N       -21.249180      -84.718765       96.546715
 C       -21.703569      -83.471771       96.165993
 N       -20.554508      -82.751701       95.922791
 C       -20.758806      -81.486740       95.285110
 C       -22.053616      -80.967377       95.419037
 C       -22.343054      -79.722076       94.834885
 H       -23.313385      -79.279900       94.976433
 C       -21.367546      -79.025261       94.109039
 H       -21.626984      -78.088226       93.638763
 C       -20.082697      -79.554337       93.972534
 H       -19.324047      -79.006256       93.441246
 C       -19.778738      -80.792328       94.550705
 H       -18.829731      -81.246483       94.342804
 C       -18.023655      -83.209946       96.254761
 H       -17.652153      -82.216934       96.046371
 C       -17.109156      -84.179947       96.686241
 H       -16.054649      -83.938568       96.748337
 C       -17.561501      -85.445145       97.067772
 H       -16.852909      -86.182388       97.417870
 C       -18.931782      -85.728226       97.024277
 H       -19.277695      -86.706848       97.312271
 C       -22.010439      -85.922249       96.338104
 C       -22.268101      -86.341301       95.034569
 H       -21.790966      -85.836494       94.202156
 C       -23.233555      -87.324249       94.783920
 H       -23.398571      -87.659027       93.774521
 C       -23.938210      -87.895447       95.852188
 H       -24.723478      -88.611465       95.646118
 C       -23.668283      -87.488495       97.153969
 H       -24.242092      -87.891541       97.976456
 C       -22.695129      -86.515259       97.411438
 H       -22.443443      -86.250710       98.428276
