206
 generated by VMD
 Ir       80.072166     -121.539291      -40.084278
 C        84.288071     -122.748383      -40.682327
 C        83.895622     -123.250183      -39.406792
 N        83.145844     -121.948448      -41.130325
 C        82.104301     -121.959023      -40.317375
 N        82.550331     -122.849792      -39.209408
 C        81.524063     -123.388336      -38.340591
 C        80.296013     -122.763466      -38.409405
 C        79.327194     -123.192162      -37.511684
 H        78.391930     -122.731316      -37.393761
 C        79.573204     -124.228546      -36.615364
 H        78.873100     -124.782082      -35.995323
 C        80.765762     -124.890915      -36.561874
 H        80.916451     -125.694893      -35.902618
 C        81.775085     -124.442795      -37.385551
 H        82.603134     -125.006439      -37.636650
 C        84.846634     -124.036423      -38.692986
 H        84.581070     -124.356972      -37.704594
 C        86.147980     -124.275864      -39.175961
 H        86.787041     -124.809860      -38.572426
 C        86.522598     -123.731720      -40.442051
 H        87.534622     -123.736946      -40.710686
 C        85.588806     -122.975479      -41.200615
 H        85.814919     -122.576859      -42.158195
 C        83.242447     -121.049248      -42.321259
 C        83.289459     -119.626305      -42.238091
 H        83.279251     -119.102600      -41.270500
 C        83.293388     -118.870018      -43.386745
 H        83.287231     -117.792007      -43.360931
 C        83.353127     -119.451111      -44.681065
 H        83.105835     -118.947113      -45.596405
 C        83.411713     -120.855515      -44.753937
 H        83.490540     -121.354950      -45.711411
 C        83.339264     -121.634300      -43.580803
 H        83.468735     -122.737877      -43.640362
 C        78.047577     -124.971367      -41.752728
 C        76.975693     -124.195999      -41.344090
 N        79.210861     -124.328972      -41.378548
 C        79.006805     -123.132706      -40.837902
 N        77.639259     -123.036682      -40.757858
 C        77.154884     -121.887634      -40.248650
 C        78.074234     -121.114212      -39.493126
 C        77.655869     -120.052010      -38.650154
 H        78.367599     -119.743942      -37.841316
 C        76.306732     -119.682083      -38.630424
 H        75.984932     -118.843979      -38.082672
 C        75.387329     -120.354515      -39.489391
 H        74.282333     -120.168030      -39.351154
 C        75.813370     -121.401718      -40.321594
 H        75.055862     -121.873383      -40.832878
 C        75.540665     -124.549065      -41.686012
 H        74.665726     -124.122551      -41.173393
 C        75.346603     -125.720261      -42.423328
 H        74.314758     -126.217461      -42.406425
 C        76.460876     -126.433449      -42.893082
 H        76.356842     -127.063446      -43.779747
 C        77.785500     -126.077301      -42.550987
 H        78.586296     -126.597771      -43.047024
 C        80.431747     -125.107796      -41.405899
 C        80.685997     -126.017570      -40.394676
 H        80.015480     -126.007378      -39.578091
 C        81.731705     -126.911964      -40.340446
 H        81.856766     -127.542564      -39.458744
 C        82.708023     -126.698524      -41.296551
 H        83.695992     -127.230782      -41.185516
 C        82.538536     -125.767128      -42.361160
 H        83.310883     -125.537804      -43.138260
 C        81.370087     -124.985237      -42.449745
 H        81.407532     -124.064331      -43.034592
 C        79.732430     -118.669250      -43.299820
 C        80.333038     -117.972130      -42.285088
 N        79.259254     -119.853516      -42.706001
 C        79.589462     -120.002373      -41.415962
 N        80.235306     -118.844864      -41.130196
 C        80.808327     -118.699936      -39.809650
 C        80.776428     -119.856773      -38.993065
 C        81.284882     -119.849915      -37.694172
 H        81.127647     -120.720078      -37.001724
 C        81.880188     -118.731628      -37.169228
 H        82.066429     -118.769386      -36.098347
 C        81.887344     -117.557144      -37.899925
 H        82.356491     -116.699570      -37.534714
 C        81.378021     -117.533119      -39.148369
 H        81.313965     -116.618835      -39.651649
 C        80.851471     -116.643135      -42.574272
 H        81.318390     -116.117203      -41.764286
 C        80.570274     -116.037308      -43.830013
 H        81.182869     -115.141861      -43.935425
 C        79.891449     -116.714584      -44.816628
 H        79.591026     -116.327927      -45.772057
 C        79.474632     -118.035187      -44.574425
 H        78.728394     -118.488785      -45.156044
 C        78.862709     -120.973145      -43.537857
 C        79.717018     -122.051109      -43.889908
 H        80.679008     -122.040787      -43.401878
 C        79.195923     -123.199387      -44.500252
 H        79.814636     -123.961990      -44.752121
 C        77.792664     -123.293083      -44.780380
 H        77.416832     -124.246796      -45.152515
 C        76.934464     -122.223503      -44.451012
 H        75.880089     -122.325500      -44.448475
 C        77.500107     -121.067719      -43.864311
 H        76.863312     -120.244247      -43.517220
 Ir       80.072166     -121.539291      -28.146357
 C        84.111809     -120.051849      -27.286224
 C        83.452065     -119.057816      -27.884331
 N        83.195610     -121.145828      -27.244923
 C        82.008774     -120.831558      -27.876078
 N        82.250824     -119.563484      -28.328979
 C        81.295334     -119.022964      -29.273005
 C        80.089752     -119.679848      -29.206955
 C        79.002869     -119.214745      -30.007988
 H        78.107147     -119.738831      -29.920740
 C        79.171555     -118.119209      -30.873867
 H        78.306831     -117.785049      -31.483870
 C        80.404633     -117.422165      -30.866901
 H        80.527016     -116.726685      -31.625469
 C        81.446091     -117.863892      -29.991776
 H        82.289719     -117.234810      -29.928156
 C        84.073273     -117.824936      -27.908747
 H        83.505928     -116.975960      -28.222212
 C        85.356232     -117.643433      -27.349480
 H        85.823784     -116.665497      -27.262129
 C        86.076675     -118.757462      -26.924629
 H        87.100616     -118.664230      -26.521955
 C        85.457962     -119.936966      -26.827799
 H        86.066849     -120.817703      -26.611109
 C        83.440193     -122.262932      -26.402277
 C        83.731277     -121.998940      -25.046522
 H        83.179558     -121.250412      -24.562887
 C        84.392456     -123.014130      -24.308599
 H        84.564720     -123.002037      -23.222879
 C        84.652908     -124.299927      -24.839048
 H        84.628601     -125.114059      -24.115171
 C        84.273277     -124.592155      -26.129515
 H        84.052917     -125.555557      -26.524733
 C        83.769775     -123.538582      -26.921888
 H        83.634293     -123.661819      -27.990469
 C        77.861618     -119.625633      -24.890490
 C        76.959023     -120.492973      -25.415800
 N        79.040245     -119.671051      -25.648954
 C        78.914482     -120.619545      -26.652233
 N        77.683174     -121.127785      -26.570585
 C        77.264107     -121.875168      -27.589058
 C        78.121758     -122.012856      -28.677162
 C        77.645973     -122.472260      -29.981913
 H        78.252075     -122.061684      -30.837172
 C        76.385994     -122.995087      -30.026623
 H        75.884155     -123.140396      -30.988932
 C        75.648026     -122.988808      -28.822304
 H        74.638962     -123.343567      -28.945719
 C        76.043663     -122.474289      -27.629978
 H        75.479431     -122.683731      -26.750446
 C        75.752419     -120.802185      -24.644894
 H        75.172600     -121.638138      -24.924175
 C        75.588112     -120.267860      -23.359438
 H        74.725533     -120.508690      -22.743351
 C        76.531517     -119.398750      -22.828560
 H        76.323349     -119.054153      -21.897474
 C        77.579880     -119.012817      -23.649170
 H        78.162659     -118.138489      -23.314054
 C        80.231003     -118.784760      -25.374054
 C        80.449821     -117.713028      -26.186834
 H        79.921585     -117.573395      -27.100048
 C        81.588058     -116.956413      -25.916700
 H        81.841003     -116.130783      -26.578249
 C        82.522812     -117.139648      -24.898390
 H        83.584526     -116.778282      -24.821718
 C        82.229576     -118.184921      -24.069403
 H        82.731499     -118.390282      -23.175867
 C        81.095093     -119.037682      -24.282598
 H        81.148041     -119.990349      -23.829351
 C        80.829956     -125.397934      -26.135977
 C        81.221283     -125.550705      -27.464739
 N        80.150970     -124.122833      -26.072016
 C        80.214310     -123.439774      -27.309599
 N        80.842880     -124.333908      -28.202250
 C        81.025169     -124.022247      -29.583059
 C        80.993118     -122.594498      -29.765829
 C        81.236282     -122.149620      -31.078476
 H        81.047623     -121.140030      -31.291431
 C        81.587791     -122.968384      -32.101357
 H        81.732460     -122.343048      -33.000927
 C        81.641655     -124.326447      -31.956896
 H        81.693665     -124.979362      -32.848625
 C        81.336685     -124.874550      -30.679258
 H        81.496727     -125.897827      -30.575357
 C        81.881012     -126.785278      -27.831335
 H        82.310959     -126.938423      -28.778646
 C        82.124298     -127.730774      -26.818258
 H        82.696472     -128.568375      -27.118185
 C        81.762314     -127.597855      -25.482779
 H        81.821495     -128.468445      -24.814070
 C        81.007500     -126.455933      -25.197882
 H        80.878433     -126.467690      -24.086935
 C        79.574524     -123.616364      -24.899538
 C        78.286911     -123.987373      -24.448969
 H        77.548035     -124.329399      -25.209749
 C        77.880051     -123.742416      -23.107534
 H        76.984581     -124.239120      -22.761534
 C        78.757614     -123.043533      -22.255571
 H        78.458084     -122.661011      -21.349283
 C        80.040314     -122.652664      -22.730261
 H        80.513306     -121.787598      -22.359667
 C        80.373184     -122.988922      -24.003225
 H        81.246490     -122.568100      -24.431993
