206
 generated by VMD
 Ir       15.837991       99.342148       -4.811115
 C        17.479630       95.693031       -6.562985
 C        16.184074       95.271713       -6.251651
 N        17.728996       97.002243       -6.105069
 C        16.627159       97.507553       -5.432447
 N        15.726960       96.404655       -5.448605
 C        14.447778       96.758049       -4.838190
 C        14.212232       98.091324       -4.722005
 C        12.922535       98.468506       -4.319735
 H        12.678258       99.502213       -4.231569
 C        11.982294       97.576469       -3.897563
 H        11.272230       97.951317       -3.254833
 C        12.214664       96.194717       -3.944178
 H        11.532906       95.490448       -3.482864
 C        13.459594       95.827667       -4.462179
 H        13.656168       94.785141       -4.601791
 C        15.667912       94.093246       -6.785886
 H        14.663794       93.827660       -6.499346
 C        16.365675       93.384872       -7.816820
 H        15.869325       92.582962       -8.346509
 C        17.629015       93.815018       -8.080359
 H        18.327686       93.212006       -8.692850
 C        18.202675       94.921783       -7.489957
 H        19.228933       95.136856       -7.603704
 C        19.077118       97.480179       -5.813967
 C        19.746737       96.852219       -4.694426
 H        19.292957       96.043198       -4.183568
 C        21.142365       97.005890       -4.566723
 H        21.661827       96.402283       -3.885543
 C        21.827576       97.628281       -5.542026
 H        22.834539       97.839264       -5.452523
 C        21.219208       98.190132       -6.687589
 H        21.761175       98.763474       -7.375879
 C        19.834007       98.146500       -6.824385
 H        19.267820       98.747604       -7.578438
 C        14.896616      101.173409       -8.528506
 C        14.276770      101.952003       -7.669327
 N        15.396036      100.051918       -7.846871
 C        15.126953      100.112129       -6.558045
 N        14.359486      101.312889       -6.411873
 C        14.208509      101.837204       -5.078871
 C        14.821636      101.063644       -4.037490
 C        14.924200      101.542557       -2.776292
 H        15.145284      100.840973       -1.918277
 C        14.589605      102.891426       -2.464029
 H        14.701821      103.190201       -1.414152
 C        13.892647      103.639725       -3.423347
 H        13.197306      104.454559       -3.102951
 C        13.743198      103.138626       -4.753896
 H        13.029825      103.636467       -5.353769
 C        13.861835      103.286407       -8.009011
 H        13.724762      104.011520       -7.199549
 C        13.902166      103.689575       -9.330388
 H        13.529970      104.627007       -9.729118
 C        14.514280      102.790359      -10.239472
 H        14.766466      103.101295      -11.158342
 C        15.087481      101.604340       -9.858157
 H        15.557545      100.915535      -10.506378
 C        15.633308       98.765472       -8.439192
 C        14.627039       97.757935       -8.324752
 H        13.908286       97.750374       -7.491783
 C        14.718246       96.681541       -9.225843
 H        13.995947       95.943130       -9.411127
 C        15.748774       96.548790      -10.090592
 H        15.872736       95.580566      -10.612966
 C        16.742277       97.557068      -10.144730
 H        17.666859       97.446678      -10.662383
 C        16.694046       98.662247       -9.307858
 H        17.287178       99.492142       -9.582191
 C        19.746422      101.261185       -4.468363
 C        19.665823      100.454277       -3.361156
 N        18.496933      101.258331       -5.165621
 C        17.555664      100.379105       -4.501716
 N        18.285032       99.955063       -3.375347
 C        17.627464       99.331650       -2.347748
 C        16.415699       98.797722       -2.775127
 C        15.662405       98.117294       -1.843373
 H        14.731379       97.791275       -2.061318
 C        16.100605       97.992249       -0.478842
 H        15.366194       97.662933        0.258583
 C        17.342590       98.443901       -0.055663
 H        17.737148       98.214218        0.949359
 C        18.087002       99.089508       -1.012087
 H        19.046696       99.369843       -0.764296
 C        20.780994      100.139359       -2.572348
 H        20.798471       99.594971       -1.639965
 C        22.066978      100.529953       -3.112516
 H        23.025543       99.991821       -2.839993
 C        22.138855      101.321724       -4.247916
 H        23.178909      101.523247       -4.663700
 C        20.956179      101.788277       -4.873779
 H        21.011120      102.605934       -5.638311
 C        18.126963      102.442413       -5.832232
 C        17.227816      103.302078       -5.213921
 H        16.843807      102.978516       -4.258127
 C        16.916355      104.481613       -5.846534
 H        16.030544      105.045067       -5.520253
 C        17.505386      104.796188       -7.126957
 H        17.105997      105.732880       -7.587815
 C        18.383865      103.908752       -7.731062
 H        18.974716      104.213371       -8.612992
 C        18.706581      102.714088       -7.125730
 H        19.201366      101.893509       -7.657653
 Ir       15.837990       99.342155        7.901241
 C        18.189287       97.630142       11.214159
 C        18.185848       96.685532       10.193578
 N        17.329178       98.703621       10.758571
 C        16.899704       98.447571        9.422125
 N        17.446522       97.170395        9.066013
 C        17.207409       96.698822        7.726073
 C        16.143026       97.425568        7.140296
 C        15.596844       96.901703        5.948259
 H        14.741049       97.368988        5.398211
 C        16.165993       95.830032        5.322395
 H        15.592271       95.314148        4.514127
 C        17.335808       95.213615        5.791499
 H        17.708275       94.321350        5.307528
 C        17.818520       95.588806        7.058156
 H        18.611666       94.991333        7.445638
 C        18.957993       95.483917       10.383377
 H        19.405087       94.970810        9.580551
 C        19.646767       95.265556       11.521843
 H        20.348209       94.422569       11.725441
 C        19.650158       96.261154       12.543450
 H        20.210537       96.140030       13.424702
 C        18.937550       97.413544       12.365196
 H        18.901478       98.103836       13.155010
 C        16.878057       99.801460       11.649546
 C        15.496159       99.985870       11.878788
 H        14.824507       99.131561       11.899667
 C        14.993419      101.225159       12.365748
 H        13.965036      101.373993       12.525987
 C        15.923998      102.233597       12.593463
 H        15.773987      103.258949       12.809473
 C        17.291946      102.074913       12.450498
 H        17.939741      102.789261       12.951963
 C        17.754230      100.888367       11.972571
 H        18.766571      100.937408       11.725252
 C        19.173748      100.562180        5.221077
 C        17.974770      100.628227        4.513764
 N        18.772779      100.091873        6.548196
 C        17.339966       99.905594        6.577190
 N        16.882063      100.373566        5.424831
 C        15.529245      100.625214        5.236543
 C        14.753551      100.045731        6.220357
 C        13.324497      100.149452        6.166991
 H        12.699793       99.627823        6.913415
 C        12.724971      101.049675        5.266231
 H        11.726900      101.410515        5.420332
 C        13.520436      101.660461        4.287873
 H        13.102828      102.276703        3.568402
 C        14.932299      101.444191        4.279284
 H        15.624863      102.135086        3.800521
 C        18.085949      100.804260        3.175350
 H        17.220846      101.014885        2.609901
 C        19.338959      100.801682        2.480468
 H        19.239307      100.817894        1.374661
 C        20.526470      100.782059        3.219607
 H        21.504910      100.665077        2.837805
 C        20.352982      100.655991        4.607233
 H        21.257774      100.639435        5.180361
 C        19.706097       99.722626        7.592691
 C        20.606880       98.660690        7.376854
 H        20.639400       98.077202        6.445681
 C        21.460571       98.269989        8.411390
 H        22.220886       97.586365        8.202633
 C        21.395866       98.891251        9.608903
 H        22.111582       98.535202       10.376676
 C        20.616901      100.077621        9.787642
 H        20.760193      100.769669       10.595502
 C        19.731205      100.445854        8.796354
 H        19.198349      101.332939        8.846793
 C        13.906956      103.065399        8.975721
 C        12.958938      102.103729        9.349014
 N        15.107799      102.419960        8.546328
 C        15.019021      101.052780        8.736680
 N        13.672832      100.856262        9.279963
 C        13.320572       99.483505        9.540639
 C        14.129169       98.545090        8.932317
 C        13.775566       97.209488        9.003206
 H        14.271570       96.424751        8.444571
 C        12.591383       96.850647        9.725388
 H        12.405975       95.826202        9.839671
 C        11.818991       97.783478       10.417719
 H        11.132606       97.502357       11.199543
 C        12.194818       99.110260       10.298576
 H        11.828191       99.804077       11.093000
 C        11.707691      102.466515        9.786132
 H        10.944485      101.750748        9.838991
 C        11.390932      103.785957        9.707860
 H        10.416302      104.141968       10.006278
 C        12.308165      104.761002        9.351107
 H        12.012966      105.820251        9.239134
 C        13.568134      104.413361        8.942180
 H        14.335700      105.120758        9.013057
 C        16.376034      103.134247        8.394758
 C        17.122116      103.165131        7.182570
 H        16.614651      103.081596        6.238747
 C        18.475357      103.563408        7.142420
 H        19.028053      103.464737        6.219223
 C        19.154367      103.882614        8.275537
 H        20.135780      104.350533        8.266932
 C        18.496809      103.796188        9.522073
 H        19.035604      103.762634       10.437481
 C        17.125580      103.471367        9.517715
 H        16.683487      103.374191       10.430245
