206
 generated by VMD
  IR        20.900000       34.040001       15.740000
  C1        25.110001       34.320000       14.940000
  C2        24.840000       35.259998       15.870000
  N1        23.920000       33.560001       14.790000
  C3a       22.920000       34.119999       15.570000
  N2        23.469999       35.130001       16.309999
  C4        22.660000       35.660000       17.379999
  C5a       21.389999       35.330002       17.360001
  C6        20.570000       35.540001       18.530001
  H1        19.530001       35.320000       18.459999
  C7        21.100000       36.160000       19.660000
  H2        20.510000       36.459999       20.480000
  C8        22.410000       36.470001       19.690001
  H3        22.680000       37.160000       20.450001
  C9        23.219999       36.209999       18.549999
  H4        24.299999       36.299999       18.650000
  C10       25.990000       36.060001       16.320000
  H5        25.889999       36.709999       17.139999
  C11       27.209999       35.980000       15.620000
  H6        28.040001       36.520000       15.940000
  C12       27.410000       35.029999       14.640000
  H7        28.360001       34.880001       14.190000
  C13       26.379999       34.169998       14.330000
  H8        26.570000       33.480000       13.570000
  C6        23.780001       32.389999       13.990000
  C1        23.379999       32.669998       12.660000
  H1        22.690001       33.480000       12.460000
  C2        23.750000       31.830000       11.620000
  H2        23.480000       32.040001       10.570000
  C3        24.549999       30.719999       11.910000
  H3        25.290001       30.360001       11.190000
  C4        24.820000       30.459999       13.260000
  H4        25.370001       29.510000       13.350000
  C5        24.450001       31.219999       14.320000
  H5        24.750000       31.000000       15.370000
  C1        20.690001       31.000000       18.930000
  C2        19.370001       31.299999       18.680000
  N1        21.459999       31.770000       17.980000
  C3b       20.670000       32.549999       17.200001
  N2        19.400000       32.139999       17.570000
  C4        18.400000       32.930000       16.950001
  C5b       18.840000       34.070000       16.290001
  C6        17.860001       35.000000       15.800000
  H1        18.139999       35.869999       15.230000
  C7        16.459999       34.740002       15.940000
  H2        15.910000       35.680000       15.890000
  C8        16.059999       33.520000       16.549999
  H3        15.040000       33.169998       16.360001
  C9        17.049999       32.630001       17.040001
  H4        16.639999       31.760000       17.400000
  C10       18.459999       30.700001       19.490000
  H5        17.469999       31.100000       19.660000
  C11       18.910000       29.850000       20.580000
  H6        18.180000       29.540001       21.290001
  C12       20.290001       29.629999       20.870001
  H7        20.559999       29.360001       21.860001
  C13       21.180000       30.190001       19.959999
  H8        22.219999       30.120001       20.059999
  C6        22.840000       31.969999       18.370001
  C1        23.139999       32.970001       19.270000
  H1        22.350000       33.549999       19.730000
  C2        24.480000       33.080002       19.700001
  H2        24.840000       33.959999       20.160000
  C3        25.480000       32.220001       19.230000
  H3        26.530001       32.330002       19.510000
  C4        25.120001       31.309999       18.270000
  H4        25.910000       30.650000       17.770000
  C5        23.840000       31.120001       17.850000
  H5        23.670000       30.280001       17.230000
  C1        20.100000       31.830000       12.150000
  C2        20.120001       33.150002       11.790000
  N1        20.120001       31.830000       13.580000
  C3c       20.100000       33.099998       14.100000
  N2        20.070000       33.970001       12.970000
  C4        20.110001       35.340000       13.180000
  C5c       20.799999       35.639999       14.370000
  C6        21.040001       37.009998       14.600000
  H1        21.350000       37.310001       15.580000
  C7        20.639999       38.000000       13.730000
  H2        20.969999       39.040001       13.930000
  C8        20.000000       37.650002       12.540000
  H3        19.709999       38.349998       11.780000
  C9        19.719999       36.340000       12.260000
  H4        19.170000       36.080002       11.320000
  C10       20.410000       33.430000       10.470000
  H5        20.549999       34.450001       10.210000
  C11       20.540001       32.500000        9.500000
  H6        20.540001       32.669998        8.430000
  C12       20.450001       31.180000        9.860000
  H7        20.420000       30.370001        9.130000
  C13       20.219999       30.860001       11.170000
  H8        19.990000       29.830000       11.440000
  C6        20.110001       30.620001       14.340000
  C1        21.070000       29.660000       14.110000
  H1        21.950001       30.020000       13.590000
  C2        20.920000       28.379999       14.570000
  H2        21.740000       27.680000       14.410000
  C3        19.830000       28.049999       15.360000
  H3        19.790001       26.980000       15.630000
  C4        18.860001       28.980000       15.630000
  H4        18.160000       28.830000       16.480000
  C5        18.920000       30.290001       15.050000
  H5        18.090000       31.010000       15.140000
  IR        23.590000       23.510000        7.750000
  C1        21.250000       22.760000       11.270000
  C2        21.500000       24.070000       11.310000
  N1        21.879999       22.280001       10.140000
  C3a       22.620001       23.200001        9.530000
  N2        22.330000       24.370001       10.160000
  C4        23.070000       25.459999        9.680000
  C5a       24.139999       25.120001        8.890000
  C6        25.110001       26.120001        8.650000
  H1        25.950001       25.740000        8.100000
  C7        24.920000       27.389999        9.110000
  H2        25.629999       28.200001        9.070000
  C8        23.770000       27.820000        9.700000
  H3        23.500000       28.830000        9.850000
  C9        22.840000       26.830000       10.100000
  H4        21.860001       27.129999       10.570000
  C10       20.889999       24.879999       12.250000
  H5        21.139999       25.950001       12.470000
  C11       20.020000       24.420000       13.200000
  H6        19.350000       24.969999       13.770000
  C12       19.629999       23.090000       13.080000
  H7        18.840000       22.590000       13.640000
  C13       20.290001       22.250000       12.190000
  H8        20.070000       21.240000       12.310000
  C6        21.650000       21.000000        9.610000
  C1        22.219999       19.840000       10.260000
  H1        23.170000       19.940001       10.730000
  C2        21.500000       18.600000       10.320000
  H2        21.730000       17.879999       11.090000
  C3        20.299999       18.490000        9.630000
  H3        19.719999       17.600000        9.570000
  C4        19.809999       19.549999        8.900000
  H4        19.090000       19.459999        8.110000
  C5        20.410000       20.860001        8.900000
  H5        19.799999       21.610001        8.530000
  C1        21.420000       26.959999        6.680000
  C2        22.570000       27.040001        6.060000
  N1        21.280001       25.629999        7.050000
  C3b       22.400000       24.879999        6.720000
  N2        23.120001       25.740000        6.010000
  C4        24.340000       25.230000        5.460000
  C5b       24.889999       24.150000        6.210000
  C6        26.150000       23.680000        5.870000
  H1        26.410000       22.820000        6.440000
  C7        26.940001       24.330000        4.900000
  H2        28.020000       24.190001        4.880000
  C8        26.360001       25.420000        4.180000
  H3        26.910000       25.830000        3.300000
  C9        25.080000       25.840000        4.460000
  H4        24.639999       26.690001        3.940000
  C10       22.900000       28.240000        5.510000
  H5        23.780001       28.340000        5.000000
  C11       22.160000       29.450001        5.810000
  H6        22.629999       30.430000        5.680000
  C12       21.000000       29.299999        6.500000
  H7        20.570000       30.219999        6.930000
  C13       20.520000       28.059999        6.880000
  H8        19.590000       27.950001        7.370000
  C6        19.980000       25.059999        7.300000
  C1        19.459999       24.469999        6.200000
  H1        19.730000       24.709999        5.180000
  C2        18.340000       23.629999        6.360000
  H2        17.700001       23.530001        5.510000
  C3        17.840000       23.320000        7.610000
  H3        16.870001       22.959999        7.860000
  C4        18.360001       23.990000        8.720000
  H4        17.790001       24.010000        9.650000
  C5        19.440001       24.860001        8.560000
  H5        19.920000       25.440001        9.390000
  C1        22.590000       19.690001        6.110000
  C2        23.700001       19.480000        6.850000
  N1        22.400000       21.070000        5.990000
  C3c       23.379999       21.750000        6.690000
  N2        24.150000       20.680000        7.190000
  C4        25.230000       21.090000        8.080000
  C5c       25.100000       22.360001        8.670000
  C6        26.070000       22.700001        9.540000
  H1        26.030001       23.639999       10.050000
  C7        27.139999       21.799999        9.850000
  H2        27.950001       22.150000       10.420000
  C8        27.309999       20.600000        9.190000
  H3        28.180000       20.020000        9.190000
  C9        26.379999       20.270000        8.230000
  H4        26.420000       19.350000        7.720000
  C10       24.160000       18.219999        7.140000
  H5        24.639999       17.980000        8.020000
  C11       23.490000       17.160000        6.590000
  H6        23.750000       16.150000        6.810000
  C12       22.389999       17.320000        5.810000
  H7        22.000000       16.440001        5.230000
  C13       21.910000       18.629999        5.550000
  H8        21.049999       18.760000        4.910000
  C6        21.730000       21.570000        4.800000
  C1        22.459999       21.590000        3.630000
  H1        23.480000       21.900000        3.710000
  C2        21.830000       21.730000        2.390000
  H2        22.340000       21.570000        1.470000
  C3        20.480000       21.740000        2.330000
  H3        19.990000       21.670000        1.390000
  C4        19.730000       21.770000        3.540000
  H4        18.709999       22.000000        3.690000
  C5        20.370001       21.730000        4.740000
  H5        19.740000       21.500000        5.610000
