206
 generated by VMD
 Ir      141.161682      -34.018250      -78.630524
 C       144.295258      -31.331606      -77.440140
 C       144.264038      -31.239185      -78.830032
 N       143.397125      -32.295982      -77.056000
 C       142.669876      -32.738243      -78.138092
 N       143.232697      -32.025249      -79.209671
 C       142.485458      -32.090782      -80.428787
 C       141.778870      -33.269867      -80.478943
 C       141.334137      -33.677341      -81.764931
 H       140.905609      -34.723846      -81.775040
 C       141.477997      -32.896645      -82.888504
 H       141.070145      -33.097260      -83.887009
 C       142.101517      -31.657072      -82.878860
 H       142.352661      -31.199200      -83.798523
 C       142.600937      -31.291908      -81.607712
 H       143.033325      -30.332844      -81.435005
 C       145.206207      -30.422129      -79.541672
 H       145.199600      -30.429369      -80.590286
 C       146.140167      -29.643579      -78.825500
 H       146.707336      -28.827452      -79.332504
 C       146.135498      -29.707478      -77.413269
 H       146.754425      -29.051792      -76.799927
 C       145.243378      -30.560268      -76.785995
 H       145.370758      -30.668369      -75.772141
 C       143.196548      -32.760429      -75.729034
 C       141.961945      -32.427238      -75.129250
 H       141.363464      -31.760607      -75.562744
 C       141.659348      -32.947792      -73.849701
 H       140.825790      -32.583263      -73.344116
 C       142.682785      -33.696541      -73.166077
 H       142.425262      -34.058197      -72.173615
 C       143.920227      -33.942909      -73.733383
 H       144.603119      -34.674110      -73.310181
 C       144.212433      -33.404495      -74.967422
 H       145.247711      -33.383511      -75.323395
 C       137.868027      -31.193701      -78.940720
 C       137.478821      -32.247437      -79.661667
 N       139.154312      -31.431583      -78.509560
 C       139.582947      -32.700951      -78.904114
 N       138.552216      -33.146645      -79.645630
 C       138.638168      -34.506901      -80.201431
 C       139.659897      -35.256592      -79.555176
 C       139.585205      -36.625923      -79.632324
 H       140.297150      -37.235512      -79.111816
 C       138.574631      -37.250893      -80.327423
 H       138.454590      -38.295525      -80.520386
 C       137.686401      -36.556999      -81.064056
 H       136.949677      -37.006142      -81.655777
 C       137.740784      -35.138775      -81.032715
 H       137.130432      -34.635750      -81.683670
 C       136.093430      -32.230831      -80.197769
 H       135.735184      -32.767746      -81.099091
 C       135.188049      -31.199041      -79.871613
 H       134.274200      -31.140755      -80.406403
 C       135.653564      -30.114594      -79.125519
 H       134.965759      -29.337925      -78.853806
 C       137.014832      -30.124613      -78.663406
 H       137.447922      -29.222586      -78.224335
 C       139.987518      -30.528292      -77.711594
 C       140.980423      -29.768587      -78.375961
 H       141.385452      -29.954788      -79.385498
 C       141.484222      -28.662518      -77.752594
 H       141.965454      -27.904373      -78.377289
 C       141.269073      -28.360653      -76.406799
 H       141.700928      -27.517231      -75.872528
 C       140.305908      -29.142609      -75.737892
 H       140.308258      -29.123775      -74.670639
 C       139.704971      -30.208254      -76.430054
 H       138.889664      -30.698109      -75.914490
 C       140.454285      -35.793037      -74.726135
 C       141.641830      -36.353760      -75.119965
 N       139.979507      -35.072197      -75.835754
 C       140.818573      -35.090408      -76.904320
 N       141.810760      -35.904041      -76.487930
 C       142.830780      -36.103722      -77.450523
 C       142.562653      -35.594139      -78.746338
 C       143.295853      -35.935493      -79.890198
 H       142.839096      -35.821426      -80.854233
 C       144.432556      -36.679237      -79.747177
 H       144.909851      -37.141560      -80.579132
 C       144.745316      -37.172836      -78.467209
 H       145.472351      -37.952629      -78.416809
 C       143.993607      -36.875992      -77.332077
 H       144.386398      -37.163055      -76.312561
 C       142.339325      -37.287727      -74.266800
 H       143.248566      -37.765083      -74.609772
 C       141.722534      -37.660973      -73.048737
 H       142.066986      -38.565491      -72.535995
 C       140.556793      -37.022835      -72.660538
 H       140.156082      -37.261627      -71.669922
 C       139.861755      -36.042473      -73.434700
 H       138.792496      -35.801128      -73.244339
 C       138.584229      -35.099144      -76.014359
 C       137.929352      -33.859253      -76.066284
 H       138.284973      -32.947819      -75.602478
 C       136.551483      -33.892166      -76.365967
 H       135.992523      -32.932480      -76.613297
 C       135.885208      -35.106979      -76.502731
 H       134.747055      -35.096001      -76.549606
 C       136.589691      -36.328690      -76.488342
 H       136.039185      -37.247635      -76.637878
 C       137.951569      -36.352825      -76.253387
 H       138.411606      -37.300926      -76.336334
 Ir      141.161682      -34.018250      -67.406143
 C       144.454880      -31.683563      -65.836899
 C       144.945282      -32.101074      -67.085419
 N       143.171967      -32.164642      -65.519478
 C       142.817017      -33.078293      -66.614861
 N       143.914642      -32.999344      -67.513107
 C       143.949310      -34.079414      -68.517868
 C       142.743317      -34.827538      -68.537155
 C       142.642944      -35.848373      -69.534500
 H       141.657928      -36.172455      -69.847626
 C       143.615509      -36.119202      -70.469040
 H       143.532745      -37.129364      -70.825165
 C       144.763824      -35.419968      -70.421783
 H       145.463348      -35.505871      -71.238663
 C       145.008026      -34.413864      -69.425323
 H       145.971680      -34.028046      -69.198418
 C       146.254089      -31.716215      -67.471191
 H       146.442810      -31.683023      -68.521805
 C       147.055359      -30.930771      -66.623299
 H       148.131577      -30.908215      -66.799225
 C       146.557251      -30.503540      -65.430878
 H       147.179047      -29.922445      -64.695351
 C       145.285034      -30.903131      -65.070496
 H       144.926987      -30.430468      -64.131889
 C       142.232208      -31.371666      -64.773575
 C       141.782043      -30.183191      -65.272537
 H       142.327362      -29.724373      -66.088013
 C       140.714905      -29.494587      -64.732246
 H       140.401505      -28.525814      -65.111542
 C       140.095703      -30.008558      -63.593498
 H       139.206955      -29.540297      -63.385048
 C       140.556702      -31.178226      -63.007183
 H       139.943512      -31.596615      -62.253834
 C       141.647766      -31.874043      -63.607277
 H       142.028473      -32.766651      -63.163414
 C       139.768814      -31.435747      -70.468735
 C       139.204514      -32.716698      -70.782478
 N       140.603668      -31.591179      -69.408661
 C       140.647537      -32.877129      -69.016991
 N       139.720001      -33.558838      -69.850983
 C       139.254333      -34.899319      -69.429108
 C       139.754791      -35.311119      -68.162521
 C       139.436279      -36.601765      -67.711212
 H       139.560944      -36.859367      -66.685448
 C       138.536316      -37.414162      -68.441483
 H       137.888794      -38.177952      -68.076614
 C       138.092209      -37.075390      -69.730240
 H       137.554779      -37.788120      -70.386047
 C       138.482330      -35.846169      -70.180618
 H       138.297089      -35.629944      -71.210587
 C       138.282379      -32.776585      -71.819725
 H       137.831192      -33.686447      -72.134644
 C       137.874451      -31.677443      -72.548546
 H       137.031433      -31.757689      -73.168747
 C       138.395294      -30.420940      -72.224152
 H       138.284195      -29.553724      -72.950104
 C       139.327820      -30.252920      -71.187439
 H       139.920715      -29.363749      -70.998955
 C       141.696198      -30.651861      -69.206985
 C       142.966141      -31.058392      -69.736969
 H       143.149185      -32.049431      -70.044266
 C       144.059235      -30.200254      -69.672440
 H       145.061493      -30.544401      -69.883896
 C       143.939636      -28.994196      -68.969360
 H       144.847900      -28.453859      -68.679565
 C       142.705780      -28.580147      -68.462646
 H       142.743286      -27.501032      -68.132935
 C       141.590500      -29.394716      -68.564713
 H       140.659363      -29.128920      -68.036087
 C       137.890900      -32.928078      -64.673584
 C       138.551666      -33.906876      -64.063812
 N       138.589996      -32.660767      -65.892761
 C       139.670929      -33.503250      -66.044434
 N       139.654984      -34.292412      -64.897095
 C       140.602661      -35.239876      -64.734886
 C       141.431381      -35.492218      -65.847923
 C       142.452545      -36.495796      -65.693039
 H       143.165833      -36.822403      -66.480408
 C       142.605804      -37.215996      -64.523117
 H       143.419189      -38.023369      -64.446571
 C       141.827927      -36.922287      -63.408112
 H       141.952820      -37.553490      -62.562962
 C       140.799927      -35.926231      -63.533058
 H       140.392456      -35.593361      -62.647530
 C       138.027863      -34.336220      -62.848625
 H       138.352036      -35.195602      -62.202274
 C       136.875900      -33.781136      -62.341206
 H       136.400864      -34.265652      -61.429298
 C       136.171600      -32.732445      -62.940025
 H       135.769043      -32.074554      -62.255604
 C       136.684418      -32.326290      -64.196945
 H       136.146851      -31.574099      -64.852173
 C       138.054886      -31.913603      -66.962807
 C       137.291931      -32.484367      -67.978455
 H       137.223343      -33.572563      -68.127197
 C       136.638458      -31.642540      -68.844711
 H       136.083282      -32.125854      -69.647324
 C       136.611252      -30.266001      -68.725586
 H       135.838104      -29.648254      -69.157837
 C       137.422943      -29.695236      -67.698807
 H       137.636703      -28.625849      -67.601776
 C       138.070969      -30.517002      -66.808716
 H       138.504608      -30.156860      -65.967964
