206
 generated by VMD
 Ir      103.123871      -77.701126       -3.384061
 C       106.666878      -79.277313       -5.299791
 C       107.118774      -78.244446       -4.507392
 N       105.268837      -79.240540       -5.281635
 C       104.808296      -78.231766       -4.458145
 N       105.961327      -77.586456       -4.036706
 C       105.743050      -76.330978       -3.398647
 C       104.407539      -76.052979       -3.085704
 C       104.082565      -74.797295       -2.556797
 H       103.051231      -74.542908       -2.386411
 C       105.074257      -73.847580       -2.292228
 H       104.802162      -72.889587       -1.858629
 C       106.409378      -74.132599       -2.592901
 H       107.176003      -73.408028       -2.382659
 C       106.746597      -75.367218       -3.141977
 H       107.764534      -75.537170       -3.435611
 C       108.500023      -78.096352       -4.298076
 H       108.870972      -77.388550       -3.571918
 C       109.412453      -78.973999       -4.893911
 H       110.471779      -78.859573       -4.746500
 C       108.931778      -80.013779       -5.691167
 H       109.616150      -80.705627       -6.147090
 C       107.556068      -80.161865       -5.892158
 H       107.197578      -80.996437       -6.470413
 C       104.486984      -79.784637       -6.358879
 C       104.070442      -78.951912       -7.403127
 H       104.418358      -77.928833       -7.442654
 C       103.217331      -79.431610       -8.396860
 H       102.867462      -78.760849       -9.173112
 C       102.780975      -80.765289       -8.358499
 H       102.130493      -81.139282       -9.138746
 C       103.203659      -81.612274       -7.330354
 H       102.849609      -82.621109       -7.274724
 C       104.068237      -81.125549       -6.332250
 H       104.453423      -81.796623       -5.579519
 C       104.039886      -79.416504        0.487620
 C       102.774002      -78.892105        0.634019
 N       104.538780      -78.993103       -0.745929
 C       103.592110      -78.240631       -1.437015
 N       102.528244      -78.152878       -0.548036
 C       101.464363      -77.278305       -0.944751
 C       101.550240      -76.831589       -2.275642
 C       100.615868      -75.894455       -2.746614
 H       100.720825      -75.467682       -3.729745
 C        99.579109      -75.439430       -1.923765
 H        98.929184      -74.659073       -2.271818
 C        99.481972      -75.914429       -0.609399
 H        98.652405      -75.595840        0.003325
 C       100.421761      -76.816162       -0.118003
 H       100.431686      -77.031219        0.932782
 C       102.024094      -79.243668        1.770438
 H       101.005806      -78.890503        1.908101
 C       102.552536      -80.119843        2.728129
 H       101.945206      -80.429626        3.565299
 C       103.841660      -80.637329        2.578259
 H       104.261635      -81.280319        3.331843
 C       104.585724      -80.278641        1.445735
 H       105.579834      -80.681053        1.336192
 C       105.954506      -78.896393       -0.956106
 C       106.674789      -77.908005       -0.270414
 H       106.141838      -77.082779        0.168744
 C       108.069939      -77.972649       -0.190515
 H       108.613121      -77.231171        0.372843
 C       108.755783      -79.017334       -0.815641
 H       109.826668      -79.108223       -0.711973
 C       108.048035      -79.991791       -1.533714
 H       108.572189      -80.774902       -2.063140
 C       106.647041      -79.920029       -1.609720
 H       106.104630      -80.647461       -2.197620
 C       100.551300      -81.014114       -4.626138
 C       100.252594      -80.004669       -5.508569
 N       101.458351      -80.485489       -3.692375
 C       101.756393      -79.158920       -3.951011
 N       100.998535      -78.876083       -5.092302
 C       101.212769      -77.585648       -5.667593
 C       102.382423      -76.940338       -5.221191
 C       102.859634      -75.843002       -5.947642
 H       103.784042      -75.373596       -5.650268
 C       102.183220      -75.376724       -7.071100
 H       102.567566      -74.532722       -7.627543
 C       100.995438      -75.986435       -7.481398
 H       100.425873      -75.569092       -8.303540
 C       100.507141      -77.083763       -6.771591
 H        99.487854      -77.389465       -6.945680
 C        99.356026      -80.279251       -6.557459
 H        99.097504      -79.509804       -7.274406
 C        98.798416      -81.549355       -6.714686
 H        98.080162      -81.732079       -7.509871
 C        99.119598      -82.565926       -5.811180
 H        98.654167      -83.543549       -5.897636
 C        99.998856      -82.291237       -4.762771
 H       100.240295      -83.079018       -4.058475
 C       101.848923      -81.211487       -2.522687
 C       101.066353      -81.124352       -1.364503
 H       100.226257      -80.440338       -1.333537
 C       101.389885      -81.905312       -0.246272
 H       100.816422      -81.806290        0.664458
 C       102.489342      -82.760666       -0.293817
 H       102.813583      -83.268135        0.607649
 C       103.257996      -82.868942       -1.454749
 H       104.023560      -83.623367       -1.520166
 C       102.947128      -82.079559       -2.569395
 H       103.554794      -82.136261       -3.454851
 Ir      103.123871      -77.701126        7.201916
 C       106.884453      -77.870384        9.430903
 C       107.261772      -77.906235        8.110127
 N       105.487267      -77.692200        9.448493
 C       104.957115      -77.651718        8.167514
 N       106.071182      -77.746582        7.341223
 C       105.828102      -77.524399        5.953114
 C       104.469826      -77.468216        5.584303
 C       104.138901      -77.231178        4.242699
 H       103.108047      -77.205002        3.932127
 C       105.131638      -77.050125        3.268939
 H       104.849136      -76.904037        2.243536
 C       106.484367      -77.106323        3.629426
 H       107.256302      -77.036156        2.886868
 C       106.826843      -77.322189        4.975350
 H       107.865204      -77.249573        5.244874
 C       108.626747      -78.064178        7.801585
 H       108.948090      -78.275208        6.794463
 C       109.579735      -78.136520        8.824904
 H       110.637077      -78.207474        8.589129
 C       109.178970      -78.086327       10.161304
 H       109.907074      -78.165283       10.961936
 C       107.819664      -77.963791       10.466063
 H       107.513756      -77.950737       11.498950
 C       104.809723      -77.244904       10.644849
 C       104.000473      -78.126770       11.352183
 H       103.712692      -79.074371       10.907058
 C       103.539436      -77.786514       12.632607
 H       102.913643      -78.473526       13.181682
 C       103.871910      -76.555878       13.192143
 H       103.579140      -76.316658       14.216287
 C       104.658470      -75.645630       12.475894
 H       104.844284      -74.662315       12.856774
 C       105.130890      -75.993004       11.199903
 H       105.807777      -75.334473       10.676873
 C       102.111481      -73.473831        7.119360
 C       101.098778      -74.085670        6.436223
 N       103.103752      -74.440475        7.371529
 C       102.698837      -75.691460        6.920325
 N       101.487747      -75.439224        6.285241
 C       100.905579      -76.548691        5.591645
 C       101.425285      -77.794907        5.954360
 C       100.762062      -78.950974        5.507018
 H       101.135826      -79.927986        5.774701
 C        99.629814      -78.876694        4.699248
 H        99.136665      -79.780128        4.378918
 C        99.139580      -77.623665        4.316903
 H        98.274323      -77.557419        3.667706
 C        99.779938      -76.467484        4.755444
 H        99.473801      -75.519783        4.334567
 C        99.951752      -73.337662        6.094903
 H        99.089211      -73.815102        5.648171
 C        99.851288      -71.992050        6.462229
 H        98.960724      -71.443237        6.202384
 C       100.892387      -71.380295        7.162493
 H       100.809410      -70.346214        7.458092
 C       102.022102      -72.128220        7.503333
 H       102.793526      -71.670807        8.106898
 C       104.489471      -74.059502        7.469725
 C       105.283936      -74.068909        6.315629
 H       104.886230      -74.430901        5.378993
 C       106.596603      -73.567474        6.366366
 H       107.199066      -73.567612        5.472363
 C       107.103333      -73.063652        7.566821
 H       108.092834      -72.631081        7.592528
 C       106.308777      -73.068390        8.720973
 H       106.712494      -72.685226        9.653602
 C       105.007584      -73.562805        8.674613
 H       104.388275      -73.541397        9.555804
 C       100.056946      -78.744339       10.134250
 C       100.496841      -79.951088        9.636926
 N       100.864357      -77.740311        9.560311
 C       101.814713      -78.279770        8.710904
 N       101.607742      -79.649994        8.800721
 C       102.574112      -80.478699        8.144921
 C       103.338432      -79.815399        7.179133
 C       104.137840      -80.580315        6.310135
 H       104.709900      -80.093300        5.532507
 C       104.173477      -81.973228        6.394539
 H       104.761536      -82.538216        5.690360
 C       103.426163      -82.629501        7.373024
 H       103.412796      -83.704079        7.417981
 C       102.637764      -81.878738        8.258725
 H       102.172501      -82.381699        9.097381
 C        99.810181      -81.126457        9.986226
 H       100.025948      -82.063087        9.506045
 C        98.728745      -81.081039       10.874892
 H        98.246902      -81.996162       11.183877
 C        98.305649      -79.845993       11.397073
 H        97.500443      -79.802925       12.113730
 C        98.975967      -78.677750       11.010589
 H        98.641144      -77.726578       11.413888
 C       100.524078      -76.344940        9.630792
 C        99.396652      -75.881294        8.939977
 H        98.844543      -76.545242        8.298444
 C        99.008278      -74.541985        9.066529
 H        98.159790      -74.171432        8.502292
 C        99.728836      -73.667618        9.884208
 H        99.432159      -72.626007        9.973712
 C       100.856277      -74.131271       10.575030
 H       101.408371      -73.467316       11.216558
 C       101.256409      -75.470680       10.440635
 H       102.123360      -75.820267       10.968539
