206
 generated by VMD
 Ir       -0.412342       -0.257168       -5.730129
 C        -0.565205        1.562267       -9.654873
 C        -1.881546        1.537042       -9.236874
 N         0.184086        0.811481       -8.730007
 C        -0.610157        0.368889       -7.687328
 N        -1.888313        0.773161       -8.039448
 C        -2.938873        0.272621       -7.218906
 C        -2.517792       -0.244347       -5.978127
 C        -3.477505       -0.686848       -5.072281
 H        -3.171307       -1.148048       -4.145657
 C        -4.842422       -0.603866       -5.370129
 H        -5.556259       -1.001751       -4.676785
 C        -5.254250       -0.099716       -6.603836
 H        -6.315872       -0.021036       -6.825550
 C        -4.312553        0.327418       -7.528099
 H        -4.631092        0.578499       -8.522530
 C        -2.838928        2.290189       -9.927654
 H        -3.837555        2.381225       -9.559048
 C        -2.460114        3.068558      -11.034153
 H        -3.183483        3.733536      -11.483974
 C        -1.123512        3.084388      -11.453270
 H        -0.817196        3.715580      -12.279263
 C        -0.185608        2.321846      -10.768169
 H         0.846203        2.358918      -11.075245
 C         1.360821        0.089993       -9.159485
 C         1.213673       -1.182574       -9.718334
 H         0.228344       -1.582357       -9.903282
 C         2.345192       -1.942615      -10.017162
 H         2.236950       -2.951331      -10.389019
 C         3.623863       -1.430090       -9.757137
 H         4.495583       -2.056146       -9.897377
 C         3.773163       -0.150673       -9.216949
 H         4.754200        0.235411       -8.994671
 C         2.631706        0.609369       -8.919262
 H         2.746273        1.564165       -8.427185
 C        -1.100903        3.506247       -3.592678
 C        -0.771107        2.610136       -2.608643
 N        -1.071793        2.809194       -4.809338
 C        -0.729443        1.483125       -4.635174
 N        -0.576370        1.350482       -3.252033
 C        -0.532017        0.014740       -2.762112
 C        -0.519093       -0.989209       -3.750401
 C        -0.485928       -2.329163       -3.338303
 H        -0.552250       -3.118872       -4.074959
 C        -0.450294       -2.679654       -1.984318
 H        -0.442654       -3.718778       -1.700470
 C        -0.461761       -1.681677       -1.008762
 H        -0.420429       -1.950763        0.032917
 C        -0.528339       -0.342604       -1.392876
 H        -0.716328        0.385550       -0.633041
 C        -0.774502        3.060180       -1.265385
 H        -0.371742        2.451295       -0.478271
 C        -1.173141        4.366210       -0.949829
 H        -1.191471        4.682362        0.085457
 C        -1.539360        5.240986       -1.967304
 H        -1.990356        6.197631       -1.721684
 C        -1.487465        4.819125       -3.294651
 H        -1.749977        5.516872       -4.075886
 C        -1.618431        3.391051       -6.008602
 C        -0.755547        3.948053       -6.947842
 H         0.304173        3.788336       -6.884651
 C        -1.270874        4.737393       -7.981663
 H        -0.624317        5.046510       -8.790310
 C        -2.649479        4.979123       -8.072838
 H        -3.040451        5.572641       -8.874947
 C        -3.513046        4.409300       -7.127666
 H        -4.579384        4.547683       -7.220875
 C        -2.997330        3.610566       -6.097248
 H        -3.665001        3.180190       -5.367668
 C         3.930656       -0.700224       -5.682816
 C         3.465187       -1.899390       -6.187038
 N         2.792309        0.048663       -5.324585
 C         1.623417       -0.621915       -5.576420
 N         2.055202       -1.843203       -6.092773
 C         1.026413       -2.776848       -6.425034
 C        -0.245953       -2.204433       -6.564796
 C        -1.262333       -2.949896       -7.180138
 H        -2.242874       -2.525258       -7.319157
 C        -1.030228       -4.259256       -7.623196
 H        -1.819614       -4.817695       -8.111675
 C         0.227516       -4.835976       -7.443836
 H         0.402008       -5.861814       -7.735912
 C         1.254620       -4.109303       -6.834160
 H         2.146019       -4.617805       -6.532593
 C         4.389008       -2.837848       -6.693054
 H         4.060249       -3.746547       -7.160690
 C         5.765045       -2.555805       -6.667114
 H         6.467911       -3.309876       -7.002304
 C         6.219799       -1.337850       -6.157230
 H         7.270390       -1.126759       -6.119732
 C         5.297443       -0.405362       -5.663948
 H         5.663902        0.517915       -5.261620
 C         2.879250        1.340809       -4.679756
 C         3.502090        1.450958       -3.442802
 H         3.782391        0.554339       -2.903912
 C         3.708164        2.710706       -2.871170
 H         4.256451        2.804010       -1.948959
 C         3.260532        3.856878       -3.530571
 H         3.454678        4.833103       -3.117912
 C         2.596882        3.743302       -4.762756
 H         2.188782        4.612522       -5.240681
 C         2.421684        2.486980       -5.340302
 H         1.906128        2.381735       -6.284561
 Ir       -0.412346       -0.257168        7.319241
 C         3.410572       -0.067227        5.235588
 C         3.713615       -0.612382        6.452457
 N         2.047718        0.278637        5.270142
 C         1.465763       -0.066672        6.480053
 N         2.509026       -0.618213        7.211826
 C         2.177086       -1.085754        8.523479
 C         0.834538       -0.876003        8.906826
 C         0.461082       -1.125695       10.229359
 H        -0.534424       -0.875727       10.570927
 C         1.369999       -1.629566       11.166744
 H         1.044430       -1.885830       12.160236
 C         2.692387       -1.861532       10.783642
 H         3.396019       -2.280660       11.492825
 C         3.094475       -1.583654        9.474743
 H         4.102242       -1.825984        9.201664
 C         5.026951       -1.063539        6.673565
 H         5.374279       -1.279581        7.662731
 C         5.987556       -1.016516        5.654850
 H         6.982788       -1.404451        5.841164
 C         5.656857       -0.464511        4.415890
 H         6.381947       -0.424524        3.624653
 C         4.363419        0.033621        4.214306
 H         4.146042        0.567437        3.303104
 C         1.464870        1.170444        4.298302
 C         1.372749        2.535482        4.574318
 H         1.457275        2.884125        5.590488
 C         1.098381        3.439321        3.545921
 H         0.981071        4.489136        3.778370
 C         0.906876        2.990944        2.234440
 H         0.706116        3.695537        1.441380
 C         0.978443        1.613084        1.962074
 H         0.903854        1.264441        0.947044
 C         1.232948        0.709243        2.988186
 H         1.225281       -0.348298        2.792107
 C        -1.214100       -4.485669        6.500488
 C        -2.192680       -4.105415        7.395355
 N        -0.375744       -3.367083        6.300175
 C        -0.805126       -2.275845        7.058357
 N        -1.910793       -2.772868        7.745289
 C        -2.444992       -1.890270        8.714848
 C        -2.166992       -0.529076        8.485592
 C        -2.821362        0.424564        9.274563
 H        -2.725185        1.478172        9.050823
 C        -3.676495        0.041767       10.321468
 H        -4.149258        0.801622       10.931644
 C        -3.897808       -1.307490       10.583057
 H        -4.488373       -1.617485       11.429951
 C        -3.281322       -2.276495        9.773380
 H        -3.363102       -3.315616       10.046947
 C        -3.205414       -5.028463        7.711651
 H        -3.998695       -4.755678        8.395542
 C        -3.212025       -6.307001        7.156044
 H        -4.004936       -7.002711        7.398895
 C        -2.194092       -6.677857        6.269150
 H        -2.151859       -7.692542        5.901684
 C        -1.199371       -5.770179        5.934429
 H        -0.407459       -6.068604        5.262402
 C         0.889320       -3.464690        5.627655
 C         1.928825       -4.198952        6.216953
 H         1.841209       -4.531256        7.242035
 C         3.070129       -4.513531        5.482731
 H         3.845898       -5.127228        5.914539
 C         3.201229       -4.052840        4.166912
 H         4.110481       -4.271893        3.612499
 C         2.181873       -3.296362        3.577370
 H         2.277573       -2.948694        2.569565
 C         1.030354       -3.004001        4.312977
 H         0.254196       -2.380906        3.884575
 C        -2.383495        1.701759        3.975952
 C        -2.165958        2.711771        4.885818
 N        -2.075420        0.479547        4.623554
 C        -1.609516        0.692165        5.912209
 N        -1.697914        2.079513        6.068272
 C        -1.150497        2.617725        7.260777
 C        -0.214321        1.774933        7.873371
 C         0.639458        2.307358        8.852543
 H         1.437244        1.700512        9.267963
 C         0.533009        3.637270        9.253300
 H         1.154530        3.986976       10.063732
 C        -0.427330        4.466364        8.675755
 H        -0.500725        5.508448        8.963978
 C        -1.280819        3.956152        7.694050
 H        -2.107838        4.554394        7.357822
 C        -2.351749        4.050844        4.488007
 H        -2.137375        4.858557        5.162567
 C        -2.745037        4.348299        3.180584
 H        -2.914848        5.377148        2.906467
 C        -2.930916        3.322923        2.258003
 H        -3.175522        3.556091        1.233356
 C        -2.744442        1.996668        2.649891
 H        -2.882839        1.209506        1.927311
 C        -2.564167       -0.783717        4.146709
 C        -3.468410       -1.516591        4.920238
 H        -3.855583       -1.087605        5.836685
 C        -3.874573       -2.791011        4.513065
 H        -4.540169       -3.363980        5.137001
 C        -3.404160       -3.325705        3.310276
 H        -3.701767       -4.314841        3.009552
 C        -2.518719       -2.589407        2.525127
 H        -2.159595       -3.002147        1.589993
 C        -2.092293       -1.324383        2.931175
 H        -1.437027       -0.742017        2.309505
