206
 generated by VMD
  IR        47.790001       22.010000       60.369999
  C1        49.549999       18.280001       59.419998
  C2        50.150002       19.209999       58.590000
  N1        48.790001       18.940001       60.330002
  C3a       48.970001       20.320000       60.189999
  N2        49.779999       20.500000       59.090000
  C4        50.130001       21.780001       58.689999
  C5a       49.009998       22.600000       58.730000
  C6        48.869999       23.709999       57.849998
  H1        48.270000       24.590000       58.090000
  C7        49.959999       23.990000       57.000000
  H2        49.750000       24.650000       56.209999
  C8        51.189999       23.230000       57.070000
  H3        51.959999       23.290001       56.360001
  C9        51.250000       22.110001       57.880001
  H4        52.200001       21.650000       58.169998
  C10       50.889999       18.790001       57.509998
  H5        51.630001       19.420000       57.080002
  C11       50.939999       17.440001       57.189999
  H6        51.320000       17.080000       56.279999
  C12       50.349998       16.510000       58.040001
  H7        50.200001       15.560000       57.630001
  C13       49.560001       16.920000       59.070000
  H8        49.090000       16.170000       59.660000
  C6        47.939999       18.350000       61.340000
  C1        48.290001       18.090000       62.610001
  H1        49.240002       18.379999       62.930000
  C2        47.540001       17.219999       63.430000
  H2        47.799999       16.959999       64.440002
  C3        46.320000       16.709999       63.000000
  H3        45.709999       16.150000       63.660000
  C4        45.889999       16.990000       61.639999
  H4        44.830002       16.719999       61.389999
  C5        46.700001       17.820000       60.840000
  H5        46.419998       18.049999       59.860001
  C1        50.310001       24.190001       63.080002
  C2        49.310001       25.139999       62.669998
  N1        50.139999       23.090000       62.279999
  C3b       49.080002       23.270000       61.450001
  N2        48.590000       24.549999       61.689999
  C4        47.459999       24.990000       60.830002
  C5b       46.820000       23.900000       60.230000
  C6        45.619999       24.200001       59.560001
  H1        45.310001       23.570000       58.750000
  C7        45.130001       25.469999       59.520000
  H2        44.230000       25.559999       59.049999
  C8        45.689999       26.530001       60.209999
  H3        45.290001       27.490000       60.130001
  C9        46.930000       26.299999       60.810001
  H4        47.520000       27.090000       61.200001
  C10       49.340000       26.430000       63.189999
  H5        48.580002       27.200001       62.990002
  C11       50.410000       26.799999       64.080002
  H6        50.500000       27.809999       64.419998
  C12       51.290001       25.870001       64.540001
  H7        51.950001       26.090000       65.349998
  C13       51.290001       24.530001       64.059998
  H8        52.110001       23.940001       64.279999
  C6        51.310001       22.320000       61.840000
  C1        52.380001       22.940001       61.270000
  H1        52.230000       23.719999       60.540001
  C2        53.660000       22.360001       61.360001
  H2        54.490002       22.780001       60.900002
  C3        53.840000       21.120001       61.939999
  H3        54.840000       20.639999       61.970001
  C4        52.779999       20.490000       62.520000
  H4        52.919998       19.510000       63.000000
  C5        51.529999       21.080000       62.410000
  H5        50.639999       20.500000       62.549999
  C1        44.779999       20.920000       63.340000
  C2        44.200001       20.600000       62.180000
  N1        45.939999       21.590000       63.080002
  C3c       46.259998       21.549999       61.750000
  N2        45.130001       20.990000       61.180000
  C4        45.139999       20.770000       59.750000
  C5c       46.310001       21.150000       59.080002
  C6        46.360001       20.860001       57.680000
  H1        47.139999       21.059999       56.980000
  C7        45.310001       20.250000       56.990002
  H2        45.439999       20.209999       55.900002
  C8        44.160000       20.049999       57.630001
  H3        43.320000       19.900000       56.950001
  C9        44.029999       20.350000       58.990002
  H4        43.080002       20.420000       59.430000
  C10       42.889999       20.070000       62.169998
  H5        42.369999       19.820000       61.209999
  C11       42.160000       19.959999       63.340000
  H6        41.230000       19.430000       63.330002
  C12       42.889999       20.150000       64.550003
  H7        42.450001       19.760000       65.459999
  C13       44.139999       20.650000       64.580002
  H8        44.560001       20.830000       65.489998
  C6        46.849998       22.070000       64.110001
  C1        48.090000       21.459999       64.269997
  H1        48.580002       20.930000       63.480000
  C2        48.869999       21.870001       65.370003
  H2        49.790001       21.389999       65.480003
  C3        48.560001       22.900000       66.239998
  H3        49.189999       23.330000       66.989998
  C4        47.279999       23.490000       66.110001
  H4        46.950001       24.190001       66.930000
  C5        46.459999       23.080000       65.029999
  H5        45.610001       23.740000       64.779999
  IR        41.689999       26.510000       52.820000
  C1        43.990002       27.820000       49.349998
  C2        43.520000       26.540001       49.029999
  N1        43.560001       28.040001       50.599998
  C3a       42.840000       27.010000       51.150002
  N2        42.959999       26.040001       50.200001
  C4        42.750000       24.690001       50.730000
  C5a       41.790001       24.700001       51.790001
  C6        41.459999       23.410000       52.250000
  H1        40.849998       23.270000       53.180000
  C7        41.930000       22.190001       51.759998
  H2        41.450001       21.230000       51.900002
  C8        42.930000       22.200001       50.790001
  H3        43.509998       21.340000       50.580002
  C9        43.360001       23.430000       50.250000
  H4        44.310001       23.520000       49.740002
  C10       43.799999       25.980000       47.759998
  H5        43.060001       25.379999       47.310001
  C11       44.680000       26.580000       46.880001
  H6        45.020000       26.040001       46.040001
  C12       45.180000       27.850000       47.180000
  H7        46.110001       28.150000       46.860001
  C13       44.799999       28.510000       48.400002
  H8        45.150002       29.480000       48.639999
  C6        43.830002       29.350000       51.150002
  C1        42.910000       30.340000       50.830002
  H1        42.160000       30.209999       50.080002
  C2        43.270000       31.639999       51.259998
  H2        42.540001       32.360001       51.009998
  C3        44.500000       31.930000       51.860001
  H3        44.619999       32.849998       52.369999
  C4        45.410000       30.930000       52.110001
  H4        46.439999       31.100000       52.220001
  C5        45.029999       29.629999       51.810001
  H5        45.689999       28.709999       52.049999
  C1        37.700001       26.680000       51.130001
  C2        37.450001       26.450001       52.480000
  N1        39.090000       26.820000       50.900002
  C3b       39.759998       26.540001       52.060001
  N2        38.709999       26.299999       53.070000
  C4        39.200001       26.049999       54.450001
  C5b       40.590000       25.790001       54.490002
  C6        41.090000       25.230000       55.709999
  H1        42.130001       25.100000       55.810001
  C7        40.220001       25.030001       56.820000
  H2        40.660000       24.670000       57.730000
  C8        38.880001       25.430000       56.840000
  H3        38.220001       25.219999       57.570000
  C9        38.410000       25.940001       55.619999
  H4        37.439999       26.420000       55.669998
  C10       36.119999       26.350000       52.959999
  H5        36.110001       26.180000       54.009998
  C11       35.049999       26.530001       52.130001
  H6        34.060001       26.299999       52.500000
  C12       35.299999       26.790001       50.799999
  H7        34.470001       27.070000       50.150002
  C13       36.630001       26.830000       50.320000
  H8        36.900002       27.340000       49.380001
  C6        39.660000       26.850000       49.619999
  C1        39.849998       25.639999       48.970001
  H1        39.900002       24.719999       49.490002
  C2        40.169998       25.709999       47.549999
  H2        40.200001       24.860001       46.990002
  C3        40.400002       26.930000       46.950001
  H3        40.730000       27.080000       45.910000
  C4        40.299999       28.139999       47.660000
  H4        40.220001       29.110001       47.189999
  C5        39.980000       28.059999       49.070000
  H5        39.889999       28.860001       49.750000
  C1        42.250000       30.320000       54.599998
  C2        43.380001       29.620001       54.910000
  N1        41.369999       29.400000       54.000000
  C3c       41.889999       28.200001       53.950001
  N2        43.130001       28.280001       54.529999
  C4        43.930000       27.150000       54.580002
  C5c       43.529999       26.139999       53.700001
  C6        44.139999       24.900000       53.880001
  H1        44.090000       24.250000       53.099998
  C7        44.990002       24.570000       54.910000
  H2        45.360001       23.520000       55.139999
  C8        45.290001       25.510000       55.919998
  H3        45.720001       25.110001       56.810001
  C9        44.860001       26.840000       55.700001
  H4        45.290001       27.520000       56.400002
  C10       44.509998       30.230000       55.540001
  H5        45.430000       29.740000       55.790001
  C11       44.290001       31.549999       55.950001
  H6        45.139999       32.000000       56.450001
  C12       43.049999       32.240002       55.740002
  H7        42.810001       33.130001       56.349998
  C13       42.060001       31.660000       54.990002
  H8        41.200001       32.240002       54.720001
  C6        40.000000       29.620001       53.619999
  C1        39.880001       29.959999       52.330002
  H1        40.720001       30.260000       51.770000
  C2        38.610001       30.270000       51.849998
  H2        38.380001       29.990000       50.840000
  C3        37.529999       30.440001       52.680000
  H3        36.570000       30.790001       52.349998
  C4        37.650002       29.969999       53.980000
  H4        36.849998       30.070000       54.770000
  C5        38.860001       29.510000       54.500000
  H5        38.910000       29.160000       55.529999
