206
 generated by VMD
 Ir       49.857018       92.419609     -115.847549
 C        46.621819       90.462807     -117.749504
 C        46.082626       91.567390     -117.114716
 N        47.974667       90.542755     -117.680763
 C        48.351379       91.760132     -117.104149
 N        47.187431       92.385834     -116.714012
 C        47.241493       93.623657     -116.092911
 C        48.249397       93.618645     -115.137650
 C        48.170418       94.428780     -113.969940
 H        49.049858       94.780746     -113.427078
 C        47.066483       95.301178     -113.873810
 H        46.902504       95.707626     -112.918976
 C        46.099190       95.419777     -114.944176
 H        45.183998       95.925171     -114.856918
 C        46.169811       94.554108     -116.021072
 H        45.643074       94.747894     -116.960861
 C        44.721237       91.668709     -116.951141
 H        44.260269       92.614983     -116.804634
 C        43.900558       90.612015     -117.321655
 H        42.889191       90.547897     -117.047554
 C        44.448242       89.513367     -117.976265
 H        43.844948       88.659836     -118.000992
 C        45.798412       89.374321     -118.080254
 H        46.169144       88.491760     -118.544090
 C        48.925804       89.563362     -118.157036
 C        49.517937       89.561913     -119.362183
 H        49.326660       90.359253     -120.007683
 C        50.160370       88.416565     -119.879158
 H        50.619396       88.361687     -120.849503
 C        50.334869       87.281906     -119.094620
 H        50.914299       86.469131     -119.448120
 C        49.732777       87.251953     -117.771942
 H        50.044495       86.405411     -117.104713
 C        49.053688       88.400734     -117.320114
 H        48.614704       88.419601     -116.372147
 C        51.259300       95.669907     -118.279854
 C        51.934685       95.840744     -117.020775
 N        50.328197       94.683784     -118.081039
 C        50.417500       94.199371     -116.815239
 N        51.402039       94.938522     -116.166840
 C        51.618763       94.621780     -114.730598
 C        51.100456       93.364700     -114.400742
 C        51.432899       92.893738     -113.117554
 H        50.771111       92.202728     -112.634171
 C        52.214867       93.624847     -112.275772
 H        52.430664       93.162987     -111.393089
 C        52.829796       94.810295     -112.636139
 H        53.402447       95.345375     -111.947830
 C        52.454372       95.361336     -113.863297
 H        52.726601       96.347321     -114.142624
 C        52.826500       96.896645     -116.862251
 H        53.438969       97.065109     -115.963921
 C        53.004448       97.829597     -117.944771
 H        53.617355       98.695793     -117.811203
 C        52.441013       97.603615     -119.162292
 H        52.732273       98.172462     -120.017677
 C        51.539555       96.525284     -119.387184
 H        50.982590       96.537292     -120.258133
 C        49.029442       94.758713     -118.761497
 C        48.277687       95.892853     -118.708549
 H        48.172421       96.431488     -117.779800
 C        47.371582       96.185982     -119.745827
 H        46.750267       97.016693     -119.717781
 C        47.160820       95.294983     -120.779312
 H        46.413101       95.502357     -121.572540
 C        47.909798       94.158737     -120.849228
 H        47.759827       93.453217     -121.679985
 C        48.788887       93.891457     -119.810738
 H        49.150520       92.896370     -119.646042
 C        53.214024       89.755569     -116.685738
 C        52.587456       89.153748     -115.671036
 N        52.651745       90.983368     -116.881836
 C        51.510933       91.141151     -116.142540
 N        51.514187       90.019684     -115.331558
 C        50.403160       89.848579     -114.420654
 C        49.423222       90.848946     -114.455093
 C        48.281410       90.645256     -113.617615
 H        47.426281       91.269249     -113.484230
 C        48.133263       89.531044     -112.788589
 H        47.270397       89.576027     -112.110321
 C        49.155998       88.687401     -112.668663
 H        49.088394       88.068031     -111.772949
 C        50.319092       88.851646     -113.428101
 H        51.199657       88.344009     -113.167511
 C        53.102268       87.949562     -115.139992
 H        52.612659       87.439682     -114.271194
 C        54.299713       87.427681     -115.595695
 H        54.598732       86.449081     -115.281311
 C        54.822060       88.013939     -116.785889
 H        55.553295       87.438896     -117.341232
 C        54.342922       89.158363     -117.309456
 H        54.824566       89.552551     -118.115395
 C        53.065830       91.909859     -117.925652
 C        52.219460       92.155106     -119.002129
 H        51.159428       92.019485     -118.946945
 C        52.727646       92.948090     -120.050674
 H        52.082039       93.107971     -120.854744
 C        53.951599       93.592926     -120.054649
 H        54.305359       94.312950     -120.762253
 C        54.833557       93.307838     -118.984940
 H        55.895195       93.675240     -119.081024
 C        54.362267       92.491112     -117.927704
 H        54.944332       92.517624     -116.989044
 Ir       49.857018       92.419609     -105.148834
 C        46.641113       94.839188     -103.460457
 C        46.145061       93.530128     -103.505043
 N        47.863121       94.760963     -104.004868
 C        48.230186       93.504669     -104.415710
 N        47.082581       92.795319     -104.221710
 C        47.011795       91.584282     -105.043823
 C        48.312183       91.022423     -105.240295
 C        48.285084       89.788422     -105.919350
 H        49.231766       89.313637     -106.286728
 C        47.159904       89.085678     -106.354683
 H        47.129501       88.028191     -106.583588
 C        45.908943       89.687370     -106.236115
 H        45.070496       89.339622     -106.780342
 C        45.797440       90.932449     -105.582863
 H        44.934303       91.568848     -105.726761
 C        44.851631       93.245705     -103.003998
 H        44.701675       92.323570     -102.516891
 C        43.979759       94.250954     -102.632370
 H        42.965294       94.018242     -102.460571
 C        44.440414       95.569778     -102.594978
 H        43.811234       96.363281     -102.773224
 C        45.797096       95.875305     -102.961655
 H        46.174751       96.863663     -102.922592
 C        48.648285       95.975433     -103.995941
 C        49.358757       96.225952     -102.829163
 H        49.198822       95.676102     -101.926956
 C        50.003593       97.485809     -102.791077
 H        50.542648       97.631851     -101.895592
 C        49.851692       98.449371     -103.793816
 H        50.530304       99.260956     -103.835175
 C        49.093113       98.184860     -104.909698
 H        48.657345       98.933128     -105.503082
 C        48.551743       96.913132     -105.028122
 H        47.961559       96.564598     -105.960754
 C        50.996712       90.187752     -101.609764
 C        51.998825       89.854256     -102.516647
 N        50.103035       91.125587     -102.181099
 C        50.427132       91.298012     -103.499481
 N        51.638474       90.481544     -103.714508
 C        52.233231       90.571251     -105.072891
 C        51.363289       91.187195     -106.003006
 C        51.709133       91.033371     -107.384567
 H        51.134922       91.546158     -108.102791
 C        52.905861       90.355957     -107.755974
 H        53.149925       90.327461     -108.800438
 C        53.848576       89.882355     -106.837822
 H        54.652622       89.321548     -107.065002
 C        53.464748       90.013748     -105.494392
 H        54.252113       89.824173     -104.774719
 C        53.052315       88.984230     -102.139130
 H        53.730717       88.841492     -102.945908
 C        53.147293       88.493874     -100.867622
 H        53.875294       87.721077     -100.661011
 C        52.171906       88.851517      -99.962234
 H        52.300022       88.584106      -98.912529
 C        51.093285       89.673256     -100.364990
 H        50.487606       90.243958      -99.641068
 C        48.885002       91.488113     -101.590179
 C        47.809662       90.627182     -101.748756
 H        47.764275       89.916519     -102.531189
 C        46.651165       90.873482     -100.899681
 H        45.881264       90.207275     -100.879120
 C        46.606537       91.991791     -100.094254
 H        45.745117       92.308395      -99.485397
 C        47.673283       92.906136     -100.029343
 H        47.792076       93.639229      -99.244064
 C        48.820507       92.651794     -100.875565
 H        49.688557       93.242142     -100.967636
 C        52.396297       95.818054     -105.121727
 C        51.680969       95.925568     -106.279205
 N        52.085510       94.555298     -104.583534
 C        51.252060       93.898323     -105.349472
 N        50.992340       94.698822     -106.432121
 C        50.100060       94.264404     -107.398834
 C        49.280594       93.214172     -106.974571
 C        48.542240       92.578445     -107.970955
 H        47.745682       92.025688     -107.665405
 C        48.651062       92.817490     -109.321251
 H        48.164017       92.192177     -110.136162
 C        49.590096       93.752022     -109.809677
 H        49.808907       93.685402     -110.851158
 C        50.235596       94.567032     -108.849846
 H        50.772243       95.369522     -109.302979
 C        51.741173       97.087273     -107.111504
 H        51.190575       97.239113     -108.018578
 C        52.709595       98.018906     -106.720200
 H        52.769669       98.885635     -107.368401
 C        53.554054       97.838043     -105.574776
 H        54.495392       98.411774     -105.494064
 C        53.341888       96.783585     -104.725006
 H        53.881958       96.739792     -103.800171
 C        52.686447       93.919037     -103.441711
 C        51.983040       94.121407     -102.319946
 H        51.234921       94.861488     -102.277512
 C        52.494034       93.616936     -101.126717
 H        51.791744       93.255074     -100.400604
 C        53.766640       93.112595     -101.025162
 H        54.224632       92.824348     -100.097717
 C        54.422668       92.805618     -102.208672
 H        55.478607       92.411163     -102.267975
 C        53.911247       93.153755     -103.459007
 H        54.466003       92.901787     -104.361588
