206
 generated by VMD
 Ir      108.801201      -80.201691       11.146636
 C       107.149712      -80.505249       15.198912
 C       108.515350      -80.370720       15.376238
 N       106.860367      -80.455383       13.847323
 C       108.073547      -80.433594       13.126067
 N       109.083015      -80.498894       14.083210
 C       110.258934      -81.043373       13.551838
 C       110.543976      -80.697830       12.240977
 C       111.814201      -80.943695       11.715452
 H       111.958069      -80.926208       10.639862
 C       112.689255      -81.607635       12.594121
 H       113.711395      -81.750290       12.338230
 C       112.363739      -81.998215       13.916499
 H       113.184937      -82.315140       14.582368
 C       111.142914      -81.734924       14.379929
 H       110.879684      -82.067162       15.446154
 C       109.032227      -80.055496       16.645756
 H       110.058052      -80.002808       16.888882
 C       108.168747      -79.963593       17.738340
 H       108.554291      -79.690826       18.744892
 C       106.806442      -80.145874       17.585691
 H       106.066902      -80.003754       18.389984
 C       106.296074      -80.429474       16.323793
 H       105.232307      -80.514320       16.299126
 C       105.554718      -80.473099       13.304407
 C       105.097778      -79.325623       12.660597
 H       105.652946      -78.355820       12.873625
 C       104.040070      -79.394150       11.722534
 H       103.781090      -78.507721       11.179052
 C       103.295296      -80.572372       11.512739
 H       102.547607      -80.657791       10.747329
 C       103.716095      -81.677406       12.247606
 H       103.031563      -82.519852       12.286265
 C       104.853287      -81.647324       13.080297
 H       105.108383      -82.478516       13.739255
 C       110.979790      -76.568192       11.662795
 C       111.391266      -76.958588       10.410252
 N       109.887032      -77.288467       12.029374
 C       109.515945      -78.268158       11.148351
 N       110.395035      -77.959122       10.124336
 C       110.369118      -78.908195        9.004744
 C       109.893677      -80.121902        9.342301
 C       109.964676      -81.109962        8.393555
 H       109.462746      -82.093712        8.547503
 C       110.649994      -80.924026        7.153445
 H       110.547989      -81.609222        6.303441
 C       111.053238      -79.601273        6.858299
 H       111.308472      -79.304665        5.841748
 C       110.912674      -78.591675        7.777081
 H       111.287750      -77.615288        7.565231
 C       112.548645      -76.362946        9.757337
 H       112.993423      -76.656967        8.877217
 C       113.321106      -75.508011       10.484642
 H       114.092682      -74.860916       10.040071
 C       112.882645      -75.106133       11.791408
 H       113.322372      -74.358704       12.396133
 C       111.710480      -75.614403       12.291199
 H       111.299309      -74.851669       12.943104
 C       108.936035      -76.667862       12.997801
 C       107.944870      -75.816696       12.399788
 H       108.055710      -75.277107       11.495989
 C       106.775208      -75.512253       13.134492
 H       105.945999      -75.081520       12.685838
 C       106.635559      -75.890823       14.471235
 H       105.930161      -75.537567       15.144530
 C       107.631851      -76.665329       15.022371
 H       107.596771      -76.791206       16.047808
 C       108.821899      -77.061920       14.337613
 H       109.724762      -77.448257       14.854113
 C       105.101532      -80.015289        8.691876
 C       105.179291      -81.279694        9.160623
 N       106.258110      -79.262268        9.198544
 C       107.080353      -80.144165       10.003010
 N       106.386978      -81.384201        9.966525
 C       106.942856      -82.474518       10.695437
 C       108.341293      -82.284874       10.812875
 C       109.073853      -83.405106       11.160223
 H       110.095886      -83.223236       11.434977
 C       108.505997      -84.669281       11.392370
 H       109.214890      -85.548935       11.260171
 C       107.074829      -84.815170       11.278891
 H       106.709595      -85.807693       11.523035
 C       106.283478      -83.702957       10.988814
 H       105.289497      -83.713081       11.119549
 C       104.255188      -82.188202        8.706695
 H       104.584152      -83.225586        8.818995
 C       103.299553      -81.894241        7.738995
 H       102.839951      -82.757301        7.237395
 C       103.186447      -80.598213        7.234888
 H       102.279694      -80.256264        6.722170
 C       104.076813      -79.656677        7.777533
 H       103.837265      -78.624825        7.480374
 C       106.510231      -77.973839        8.715555
 C       107.040466      -77.915672        7.403162
 H       106.826538      -78.772903        6.745974
 C       107.493584      -76.756531        6.877927
 H       107.937927      -76.644310        5.900500
 C       107.394615      -75.592331        7.644500
 H       107.843918      -74.703537        7.220715
 C       106.822052      -75.593971        8.942293
 H       106.804901      -74.676102        9.545388
 C       106.400406      -76.804214        9.534595
 H       106.172012      -76.885582       10.566881
 Ir      108.801193      -80.201691       25.750340
 C       104.801903      -80.036423       27.343136
 C       104.806091      -81.293304       26.766640
 N       105.962830      -79.367371       26.868259
 C       106.767242      -80.113556       26.126419
 N       106.075333      -81.324684       26.060574
 C       106.688751      -82.284058       25.211624
 C       108.137390      -82.112732       25.112621
 C       108.881737      -83.199097       24.652679
 H       109.943329      -83.158005       24.637581
 C       108.257263      -84.349937       24.200027
 H       108.895157      -85.086472       23.718151
 C       106.864075      -84.465515       24.217079
 H       106.388901      -85.280174       23.632925
 C       106.050552      -83.438248       24.758383
 H       105.001663      -83.586319       24.747135
 C       103.829483      -82.277344       27.117786
 H       104.051971      -83.314613       27.333824
 C       102.754044      -81.822952       27.858418
 H       101.948135      -82.552238       28.043247
 C       102.699852      -80.499481       28.371948
 H       101.808350      -80.279404       28.877514
 C       103.736534      -79.551704       28.185654
 H       103.713509      -78.598984       28.557117
 C       106.061508      -77.958069       27.065304
 C       106.683945      -77.554825       28.259907
 H       107.301590      -78.204689       28.775063
 C       106.618759      -76.248260       28.616610
 H       107.280151      -75.876877       29.424217
 C       105.927704      -75.321320       27.893740
 H       105.929131      -74.268448       28.143661
 C       105.299301      -75.639130       26.690990
 H       105.138809      -74.937866       25.925896
 C       105.371246      -76.992149       26.271862
 H       104.908379      -77.257446       25.326679
 C       110.434250      -81.833832       29.422745
 C       111.400314      -82.170547       28.523430
 N       109.323280      -81.265808       28.815819
 C       109.582962      -81.156418       27.404011
 N       110.896881      -81.704132       27.240807
 C       111.611435      -81.312378       26.014090
 C       110.788406      -80.668686       25.056799
 C       111.416275      -80.334747       23.802856
 H       110.826096      -79.827591       23.121334
 C       112.823334      -80.542168       23.604740
 H       113.034592      -80.589973       22.519346
 C       113.629303      -81.091644       24.592615
 H       114.684708      -81.111198       24.388079
 C       113.019974      -81.490891       25.786615
 H       113.490891      -82.238846       26.374916
 C       112.580933      -82.785797       28.964769
 H       113.117294      -83.241898       28.232788
 C       112.748520      -83.116089       30.337254
 H       113.627594      -83.561005       30.723366
 C       111.734314      -82.764542       31.255571
 H       111.760498      -83.167603       32.263222
 C       110.664276      -82.108376       30.720446
 H       110.068443      -81.600395       31.524334
 C       107.953072      -81.512253       29.382910
 C       107.462860      -80.593269       30.307280
 H       107.804565      -79.564896       30.407169
 C       106.229591      -80.901657       30.922451
 H       105.802521      -80.136215       31.589844
 C       105.497620      -82.087997       30.630375
 H       104.736191      -82.431595       31.316364
 C       105.968140      -82.949821       29.669342
 H       105.423126      -83.815353       29.474335
 C       107.241333      -82.688530       29.071114
 H       107.582115      -83.317444       28.278366
 C       109.576309      -75.987442       26.461117
 C       108.704575      -76.019821       25.397713
 N       109.912910      -77.284996       26.859169
 C       109.320358      -78.216820       25.942606
 N       108.546036      -77.371307       25.077480
 C       108.016647      -78.007339       23.889959
 C       108.092422      -79.391739       23.899899
 C       107.656616      -80.093712       22.774776
 H       107.784592      -81.126328       22.789700
 C       107.055931      -79.384964       21.698597
 H       106.793884      -79.977257       20.823021
 C       106.921692      -77.987793       21.619961
 H       106.335632      -77.564133       20.808765
 C       107.433105      -77.318848       22.699341
 H       107.392380      -76.235901       22.571482
 C       108.060181      -74.837776       25.020302
 H       107.453247      -74.764595       24.145676
 C       108.263969      -73.610580       25.673416
 H       107.602631      -72.786255       25.521929
 C       109.277077      -73.603218       26.640961
 H       109.496040      -72.768188       27.307205
 C       109.887497      -74.773781       27.065426
 H       110.708481      -74.613113       27.731506
 C       111.049713      -77.548874       27.678286
 C       112.317810      -77.939926       27.350286
 H       112.641968      -77.955475       26.336393
 C       113.283997      -78.334808       28.307716
 H       114.280533      -78.610634       28.048836
 C       112.902267      -78.520203       29.601086
 H       113.623886      -79.085297       30.266249
 C       111.559395      -78.357826       29.918158
 H       111.132950      -78.850853       30.780403
 C       110.657578      -77.810280       28.967823
 H       109.728745      -77.404633       29.286400
