206
 generated by VMD
  IR        11.580000       28.840000       23.480000
  C1         8.600000       27.170000       26.350000
  C2         7.870000       27.969999       25.510000
  N1         9.990000       27.400000       25.990000
  C3a       10.100000       28.230000       24.860001
  N2         8.820000       28.480000       24.559999
  C4         8.610000       28.910000       23.200001
  C5a        9.760000       29.500000       22.650000
  C6         9.580000       30.320000       21.530001
  H1        10.540000       30.820000       21.240000
  C7         8.320000       30.549999       20.959999
  H2         8.120000       31.379999       20.340000
  C8         7.220000       29.809999       21.400000
  H3         6.290000       30.030001       20.969999
  C9         7.380000       28.969999       22.520000
  H4         6.450000       28.540001       22.879999
  C10        6.560000       28.129999       25.700001
  H5         5.970000       28.799999       25.150000
  C11        5.870000       27.400000       26.719999
  H6         4.790000       27.420000       26.719999
  C12        6.580000       26.530001       27.530001
  H7         6.210000       25.590000       27.850000
  C13        7.980000       26.549999       27.440001
  H8         8.590000       25.990000       28.170000
  C6        11.050000       27.180000       26.889999
  C1        11.780000       25.959999       26.840000
  H1        11.730000       25.360001       25.969999
  C2        12.680000       25.650000       27.850000
  H2        13.400000       24.889999       27.570000
  C3        12.750000       26.459999       29.020000
  H3        13.700000       26.410000       29.590000
  C4        12.040000       27.650000       29.040001
  H4        12.220000       28.290001       29.830000
  C5        11.240000       27.990000       28.010000
  H5        10.680000       28.879999       28.110001
  C1        10.530000       26.190001       20.190001
  C2        11.400000       27.150000       19.660000
  N1        10.590000       26.379999       21.610001
  C3b       11.430000       27.410000       22.010000
  N2        11.960000       27.809999       20.799999
  C4        12.980000       28.799999       20.889999
  C5b       12.860000       29.559999       21.990000
  C6        13.710000       30.690001       22.059999
  H1        13.570000       31.320000       22.910000
  C7        14.680000       30.980000       21.100000
  H2        15.250000       31.940001       21.160000
  C8        14.760000       30.170000       20.000000
  H3        15.710000       30.200001       19.360001
  C9        13.880000       29.080000       19.889999
  H4        14.150000       28.420000       19.049999
  C10       11.420000       27.250000       18.219999
  H5        12.110000       27.870001       17.670000
  C11       10.630000       26.389999       17.459999
  H6        10.770000       26.379999       16.410000
  C12        9.760000       25.420000       18.049999
  H7         8.870000       25.070000       17.660000
  C13        9.720000       25.280001       19.420000
  H8         9.270000       24.459999       19.950001
  C6        10.020000       25.430000       22.510000
  C1        10.790000       24.610001       23.260000
  H1        11.860000       24.690001       23.270000
  C2        10.130000       23.719999       24.129999
  H2        10.790000       23.129999       24.790001
  C3         8.740000       23.620001       24.190001
  H3         8.320000       22.889999       24.809999
  C4         8.050000       24.520000       23.480000
  H4         6.970000       24.480000       23.549999
  C5         8.680000       25.350000       22.559999
  H5         7.960000       25.700001       21.799999
  C1        14.990000       27.389999       25.780001
  C2        14.560000       28.549999       26.450001
  N1        14.200000       27.309999       24.570000
  C3c       13.320000       28.340000       24.430000
  N2        13.490000       29.049999       25.670000
  C4        12.700000       30.190001       25.820000
  C5c       11.930000       30.510000       24.730000
  C6        11.380000       31.780001       24.670000
  H1        10.970000       32.189999       23.719999
  C7        11.390000       32.610001       25.820000
  H2        10.590000       33.389999       25.820000
  C8        12.150000       32.279999       26.920000
  H3        12.480000       33.080002       27.590000
  C9        12.810000       31.080000       26.889999
  H4        13.440000       30.790001       27.799999
  C10       15.360000       28.950001       27.590000
  H5        15.260000       29.990000       27.969999
  C11       16.469999       28.200001       28.080000
  H6        16.940001       28.490000       28.990000
  C12       16.840000       27.049999       27.379999
  H7        17.490000       26.379999       27.889999
  C13       16.190001       26.680000       26.200001
  H8        16.750000       26.040001       25.510000
  C6        14.530000       26.350000       23.650000
  C1        15.110000       26.780001       22.440001
  H1        15.260000       27.820000       22.250000
  C2        15.470000       25.809999       21.549999
  H2        15.450000       26.100000       20.510000
  C3        15.320000       24.420000       21.840000
  H3        15.190000       23.879999       20.860001
  C4        14.780000       24.049999       23.080000
  H4        14.560000       23.049999       23.320000
  C5        14.380000       25.059999       23.969999
  H5        13.900000       24.650000       24.850000
  IR         6.350000       19.299999       16.680000
  C1         6.310000       23.180000       18.680000
  C2         6.010000       23.500000       17.410000
  N1         6.530000       21.830000       18.770000
  C3a        6.330000       21.170000       17.600000
  N2         6.030000       22.230000       16.760000
  C4         5.540000       21.889999       15.430000
  C5a        5.800000       20.559999       15.100000
  C6         5.180000       20.120001       13.950000
  H1         5.270000       19.110001       13.680000
  C7         4.230000       20.850000       13.160000
  H2         3.830000       20.320000       12.300000
  C8         3.980000       22.190001       13.520000
  H3         3.350000       22.780001       12.920000
  C9         4.640000       22.719999       14.640000
  H4         4.520000       23.740000       14.800000
  C10        5.720000       24.820000       17.070000
  H5         5.610000       24.990000       16.010000
  C11        5.700000       25.799999       18.080000
  H6         5.330000       26.730000       17.850000
  C12        5.960000       25.480000       19.420000
  H7         5.520000       26.129999       20.170000
  C13        6.290000       24.160000       19.690001
  H8         6.490000       23.850000       20.719999
  C6         7.080000       21.290001       19.900000
  C1         6.290000       20.840000       20.969999
  H1         5.210000       21.020000       20.910000
  C2         6.900000       20.190001       22.070000
  H2         6.390000       20.000000       23.030001
  C3         8.250000       19.959999       22.000000
  H3         8.710000       19.520000       22.870001
  C4         9.060000       20.389999       20.990000
  H4         9.980000       19.950001       20.920000
  C5         8.400000       21.070000       19.950001
  H5         9.020000       21.500000       19.110001
  C1         2.130000       18.219999       16.020000
  C2         2.910000       17.270000       15.340000
  N1         3.060000       18.980000       16.799999
  C3b        4.350000       18.620001       16.590000
  N2         4.250000       17.480000       15.730000
  C4         5.500000       16.809999       15.350000
  C5b        6.610000       17.650000       15.410000
  C6         7.850000       17.059999       15.040000
  H1         8.680000       17.650000       14.740000
  C7         7.940000       15.740000       14.700000
  H2         8.890000       15.350000       14.350000
  C8         6.850000       14.910000       14.760000
  H3         7.000000       13.830000       14.620000
  C9         5.630000       15.430000       15.030000
  H4         4.790000       14.710000       15.040000
  C10        2.190000       16.330000       14.520000
  H5         2.720000       15.630000       13.890000
  C11        0.810000       16.410000       14.460000
  H6         0.280000       16.090000       13.660000
  C12        0.100000       17.270000       15.240000
  H7        -1.020000       17.200001       15.160000
  C13        0.780000       18.240000       15.970000
  H8         0.320000       19.219999       16.170000
  C6         2.580000       20.260000       17.360001
  C1         1.840000       21.120001       16.549999
  H1         1.370000       20.790001       15.610000
  C2         1.810000       22.480000       16.850000
  H2         1.080000       23.160000       16.379999
  C3         2.480000       23.030001       17.920000
  H3         2.130000       24.070000       18.170000
  C4         3.170000       22.150000       18.760000
  H4         3.600000       22.500000       19.650000
  C5         3.210000       20.780001       18.459999
  H5         3.860000       20.020000       19.000000
  C1         8.150000       16.730000       19.809999
  C2         9.180000       17.430000       19.360001
  N1         6.960000       17.170000       19.070000
  C3c        7.280000       18.030001       18.070000
  N2         8.640000       18.200001       18.290001
  C4         9.280000       18.980000       17.280001
  C5c        8.420000       19.709999       16.430000
  C6         8.950000       20.469999       15.360000
  H1         8.270000       21.230000       14.930000
  C7        10.340000       20.450001       15.090000
  H2        10.740000       21.150000       14.420000
  C8        11.190000       19.660000       15.870000
  H3        12.280000       19.570000       15.770000
  C9        10.660000       18.889999       16.959999
  H4        11.330000       18.250000       17.490000
  C10       10.300000       17.400000       20.049999
  H5        11.030000       18.110001       19.709999
  C11       10.530000       16.680000       21.190001
  H6        11.480000       16.459999       21.530001
  C12        9.500000       15.910000       21.660000
  H7         9.680000       15.110000       22.350000
  C13        8.310000       15.970000       20.920000
  H8         7.620000       15.240000       21.129999
  C6         5.680000       16.520000       19.230000
  C1         5.520000       15.280000       18.629999
  H1         6.190000       14.830000       17.889999
  C2         4.350000       14.600000       18.799999
  H2         4.330000       13.580000       18.450001
  C3         3.260000       15.190000       19.469999
  H3         2.400000       14.700000       19.799999
  C4         3.400000       16.480000       19.980000
  H4         2.580000       17.000000       20.420000
  C5         4.620000       17.100000       19.940001
  H5         4.610000       18.190001       20.100000
