206
 generated by VMD
 Ir       51.905968      -52.090294      -22.487394
 C        48.537182      -49.381187      -23.037046
 C        48.006844      -50.491714      -22.447674
 N        49.884888      -49.676514      -23.377289
 C        50.220650      -50.942795      -22.933550
 N        49.047119      -51.448051      -22.413809
 C        49.109291      -52.804932      -22.018444
 C        50.377930      -53.189976      -21.545055
 C        50.497128      -54.453709      -20.950012
 H        51.407906      -54.715664      -20.423836
 C        49.426903      -55.353756      -20.938671
 H        49.561424      -56.352547      -20.531694
 C        48.205360      -54.985870      -21.503643
 H        47.409401      -55.709419      -21.616903
 C        48.041260      -53.709351      -22.023718
 H        47.105164      -53.425529      -22.480747
 C        46.694542      -50.451923      -21.957272
 H        46.215897      -51.337524      -21.564713
 C        45.947380      -49.274696      -22.034655
 H        44.939945      -49.241821      -21.628584
 C        46.504368      -48.132729      -22.622765
 H        45.948105      -47.214088      -22.667089
 C        47.808640      -48.190346      -23.133610
 H        48.232079      -47.309116      -23.598509
 C        50.453686      -49.090393      -24.551825
 C        50.124107      -49.613144      -25.805902
 H        49.506058      -50.492546      -25.872721
 C        50.586472      -49.000786      -26.971296
 H        50.344177      -49.421806      -27.927660
 C        51.394836      -47.847691      -26.885176
 H        51.810005      -47.415878      -27.786604
 C        51.724419      -47.324944      -25.631098
 H        52.322762      -46.432259      -25.558338
 C        51.262054      -47.937298      -24.465704
 H        51.538513      -47.551918      -23.501469
 C        53.369469      -50.232750      -18.840944
 C        54.058891      -51.418385      -18.919430
 N        52.414833      -50.241161      -19.867496
 C        52.472023      -51.395195      -20.615519
 N        53.487877      -52.131084      -20.010944
 C        53.809692      -53.378433      -20.615225
 C        53.372345      -53.507778      -21.944921
 C        53.794350      -54.615265      -22.681118
 H        53.543663      -54.691475      -23.729328
 C        54.599213      -55.607025      -22.103260
 H        54.887917      -56.474579      -22.673429
 C        55.003593      -55.491295      -20.768314
 H        55.611115      -56.259781      -20.317387
 C        54.595932      -54.383808      -20.018188
 H        54.783958      -54.366096      -18.962852
 C        55.140617      -51.654438      -18.052513
 H        55.731586      -52.549896      -18.130077
 C        55.512245      -50.687035      -17.114525
 H        56.364021      -50.856007      -16.470144
 C        54.792778      -49.479206      -17.033808
 H        55.074028      -48.725822      -16.304203
 C        53.724556      -49.260971      -17.900272
 H        53.192230      -48.315926      -17.840054
 C        51.413048      -49.208008      -20.012794
 C        50.091949      -49.476051      -19.671249
 H        49.812050      -50.458839      -19.311140
 C        49.115936      -48.478703      -19.785667
 H        48.082954      -48.730640      -19.669128
 C        49.478416      -47.199860      -20.230837
 H        48.727123      -46.429657      -20.303970
 C        50.805717      -46.927280      -20.578777
 H        51.081604      -45.953400      -20.949106
 C        51.777718      -47.933537      -20.474581
 H        52.807686      -47.721115      -20.731579
 C        54.725231      -49.871277      -24.932104
 C        53.859337      -50.443398      -25.834717
 N        54.406052      -50.367130      -23.670141
 C        53.338158      -51.244484      -23.718630
 N        53.031723      -51.314827      -25.082685
 C        52.092453      -52.332932      -25.450304
 C        51.548466      -53.025818      -24.358753
 C        50.711933      -54.120079      -24.602499
 H        50.405609      -54.752136      -23.784473
 C        50.358086      -54.477230      -25.903357
 H        49.750885      -55.356136      -26.053133
 C        50.872032      -53.762154      -26.992678
 H        50.608746      -54.048847      -27.999199
 C        51.751129      -52.703369      -26.764071
 H        52.189415      -52.213547      -27.617527
 C        53.962223      -50.091278      -27.189718
 H        53.211308      -50.386501      -27.909281
 C        54.978786      -49.242870      -27.633905
 H        55.054314      -48.982021      -28.673592
 C        55.879822      -48.710934      -26.710062
 H        56.748718      -48.167984      -27.045208
 C        55.730118      -48.991764      -25.349905
 H        56.305450      -48.442505      -24.636108
 C        55.319443      -50.269939      -22.558041
 C        56.149170      -51.345108      -22.249861
 H        56.080231      -52.259212      -22.824890
 C        57.083633      -51.233971      -21.216890
 H        57.717590      -52.077286      -20.965467
 C        57.185211      -50.038757      -20.488846
 H        57.922302      -49.954185      -19.697617
 C        56.355484      -48.963593      -20.797026
 H        56.429665      -48.040413      -20.241749
 C        55.421021      -49.074730      -21.829994
 H        54.793270      -48.226871      -22.087814
 Ir       51.905968      -52.090294       -9.896706
 C        55.487495      -49.615967       -9.996898
 C        55.914436      -50.887001      -10.250055
 N        54.126183      -49.700924       -9.642637
 C        53.669067      -51.013416       -9.688600
 N        54.809494      -51.734749      -10.016318
 C        54.680023      -53.149132       -9.926023
 C        53.357864      -53.616760       -9.899226
 C        53.149693      -55.000370       -9.785283
 H        52.144547      -55.395050       -9.711769
 C        54.219292      -55.894161       -9.709839
 H        54.036266      -56.955658       -9.593086
 C        55.524910      -55.422165       -9.733953
 H        56.357483      -56.120255       -9.687122
 C        55.767136      -54.051838       -9.839902
 H        56.775391      -53.689430       -9.729981
 C        57.227543      -51.083317      -10.741290
 H        57.564430      -52.064003      -11.016534
 C        58.069061      -49.991104      -10.947738
 H        59.068672      -50.135948      -11.331393
 C        57.617062      -48.693504      -10.668770
 H        58.277855      -47.848579      -10.803901
 C        56.329865      -48.505932      -10.189866
 H        55.995056      -47.507256       -9.931120
 C        53.439747      -48.594269       -9.007326
 C        52.482552      -47.884277       -9.729750
 H        52.095501      -48.279400      -10.651852
 C        52.015152      -46.654919       -9.248282
 H        51.245434      -46.123814       -9.790556
 C        52.524536      -46.126469       -8.050214
 H        52.171677      -45.177719       -7.672379
 C        53.491104      -46.840828       -7.337441
 H        53.941185      -46.404861       -6.465917
 C        53.939880      -48.083805       -7.799727
 H        54.668228      -48.628693       -7.229194
 C        51.566967      -52.305923      -14.242092
 C        50.678711      -53.247650      -13.786512
 N        52.234749      -51.794136      -13.121051
 C        51.786507      -52.361771      -11.941488
 N        50.828552      -53.272278      -12.375999
 C        50.203911      -54.050232      -11.344928
 C        50.314415      -53.479553      -10.066173
 C        49.507858      -53.985641       -9.034356
 H        49.534241      -53.525600       -8.056568
 C        48.639099      -55.053337       -9.259253
 H        48.019974      -55.423107       -8.449216
 C        48.563614      -55.641838      -10.516657
 H        47.928566      -56.502922      -10.680819
 C        49.352768      -55.149200      -11.559269
 H        49.421471      -55.720871      -12.477075
 C        49.941841      -53.997818      -14.721535
 H        49.159401      -54.683346      -14.403666
 C        50.134460      -53.819546      -16.097187
 H        49.590252      -54.417900      -16.799976
 C        51.046318      -52.859833      -16.548370
 H        51.197845      -52.710289      -17.608923
 C        51.762512      -52.091846      -15.620764
 H        52.471748      -51.361767      -15.978075
 C        53.364487      -50.902168      -13.236763
 C        53.174805      -49.526581      -13.070084
 H        52.189407      -49.139320      -12.844639
 C        54.241898      -48.643692      -13.221767
 H        54.101273      -47.589890      -13.048193
 C        55.512062      -49.131847      -13.539557
 H        56.354897      -48.456230      -13.618147
 C        55.715126      -50.502899      -13.705664
 H        56.700523      -50.890160      -13.931108
 C        54.634647      -51.390327      -13.554552
 H        54.789627      -52.444126      -13.714194
 C        49.119370      -48.784492       -9.395065
 C        49.511967      -49.111259       -8.119766
 N        49.651894      -49.761032      -10.259466
 C        50.418427      -50.677628       -9.555986
 N        50.275848      -50.291862       -8.231880
 C        50.799385      -51.206573       -7.278096
 C        51.798233      -52.061905       -7.775814
 C        52.487732      -52.886017       -6.878136
 H        53.295616      -53.506119       -7.222215
 C        52.163300      -52.894981       -5.510266
 H        52.682236      -53.562241       -4.838874
 C        51.139999      -52.075466       -5.030427
 H        50.892899      -52.073360       -3.986282
 C        50.441132      -51.246979       -5.918456
 H        49.560593      -50.743546       -5.571318
 C        49.147949      -48.260139       -7.055676
 H        49.506599      -48.451416       -6.061252
 C        48.392670      -47.104446       -7.296983
 H        48.123062      -46.457275       -6.473706
 C        47.998253      -46.790962       -8.599119
 H        47.441055      -45.893848       -8.800403
 C        48.366283      -47.633171       -9.652987
 H        48.092934      -47.360867      -10.663495
 C        49.030426      -50.084034      -11.514355
 C        48.145317      -51.166008      -11.593207
 H        47.949806      -51.757553      -10.717052
 C        47.523476      -51.471355      -12.804642
 H        46.869179      -52.333099      -12.862835
 C        47.782730      -50.703644      -13.947447
 H        47.274086      -50.916008      -14.873505
 C        48.667839      -49.621666      -13.868595
 H        48.883057      -49.043404      -14.750691
 C        49.286514      -49.307411      -12.653903
 H        49.957359      -48.450035      -12.598392
