206
 generated by VMD
  IR        16.889999       60.380001       42.150002
  C1        19.510000       61.619999       38.919998
  C2        18.719999       62.810001       39.070000
  N1        18.950001       60.610001       39.740002
  C3a       17.930000       61.060001       40.480000
  N2        17.760000       62.389999       39.970001
  C4        16.600000       62.930000       40.540001
  C5a       16.170000       62.320000       41.730000
  C6        15.110000       62.900002       42.480000
  H1        14.770000       62.450001       43.389999
  C7        14.450000       64.029999       41.950001
  H2        13.760000       64.680000       42.509998
  C8        14.910000       64.620003       40.750000
  H3        14.630000       65.629997       40.490002
  C9        15.910000       64.029999       40.000000
  H4        16.080000       64.379997       38.970001
  C10       19.010000       63.970001       38.419998
  H5        18.309999       64.739998       38.520000
  C11       20.120001       63.939999       37.480000
  H6        20.230000       64.739998       36.779999
  C12       20.840000       62.740002       37.369999
  H7        21.590000       62.619999       36.639999
  C13       20.520000       61.610001       38.040001
  H8        21.059999       60.770000       37.849998
  C6        19.090000       59.230000       39.320000
  C1        20.120001       58.500000       39.880001
  H1        20.750000       59.040001       40.540001
  C2        20.500000       57.259998       39.400002
  H2        21.330000       56.720001       39.709999
  C3        19.740000       56.700001       38.349998
  H3        20.070000       55.709999       38.060001
  C4        18.610001       57.389999       37.840000
  H4        17.930000       56.869999       37.279999
  C5        18.330000       58.650002       38.320000
  H5        17.469999       59.049999       37.810001
  C1        19.190001       62.590000       45.279999
  C2        18.150000       62.009998       45.919998
  N1        19.090000       62.150002       43.900002
  C3b       18.000000       61.209999       43.709999
  N2        17.440001       61.240002       44.950001
  C4        16.080000       60.599998       44.939999
  C5b       15.590000       60.090000       43.750000
  C6        14.280000       59.549999       43.779999
  H1        13.830000       59.470001       42.830002
  C7        13.480000       59.480000       44.919998
  H2        12.420000       59.419998       44.900002
  C8        14.030000       59.970001       46.139999
  H3        13.500000       59.790001       47.090000
  C9        15.300000       60.540001       46.150002
  H4        15.410000       61.139999       47.049999
  C10       18.010000       62.279999       47.259998
  H5        17.160000       61.939999       47.820000
  C11       18.900000       63.130001       47.910000
  H6        18.650000       63.580002       48.840000
  C12       19.950001       63.730000       47.209999
  H7        20.730000       64.150002       47.759998
  C13       20.110001       63.450001       45.880001
  H8        20.770000       64.019997       45.290001
  C6        20.250000       62.119999       43.029999
  C1        21.040001       60.959999       43.099998
  H1        20.639999       60.080002       43.610001
  C2        22.049999       60.820000       42.160000
  H2        22.549999       59.840000       42.259998
  C3        22.379999       61.799999       41.180000
  H3        23.170000       61.560001       40.450001
  C4        21.600000       62.980000       41.200001
  H4        21.400000       63.650002       40.320000
  C5        20.530001       63.139999       42.130001
  H5        19.850000       63.889999       41.930000
  C1        17.830000       56.110001       42.720001
  C2        17.150000       56.200001       41.540001
  N1        17.840000       57.430000       43.220001
  C3c       17.299999       58.310001       42.320000
  N2        16.830000       57.520000       41.330002
  C4        15.830000       58.099998       40.509998
  C5c       15.550000       59.430000       40.759998
  C6        14.560000       60.040001       40.009998
  H1        14.140000       60.959999       40.299999
  C7        13.840000       59.349998       39.029999
  H2        13.130000       59.830002       38.369999
  C8        14.160000       58.020000       38.759998
  H3        13.680000       57.500000       37.919998
  C9        15.110000       57.380001       39.540001
  H4        15.250000       56.360001       39.200001
  C10       17.170000       55.099998       40.660000
  H5        17.160000       55.299999       39.560001
  C11       17.850000       53.889999       41.009998
  H6        17.940001       53.040001       40.340000
  C12       18.440001       53.779999       42.290001
  H7        18.690001       52.830002       42.709999
  C13       18.440001       54.910000       43.110001
  H8        18.910000       54.880001       44.009998
  C6        17.730000       57.590000       44.580002
  C1        18.820000       58.209999       45.240002
  H1        19.690001       58.619999       44.709999
  C2        18.790001       58.310001       46.619999
  H2        19.730000       58.410000       47.220001
  C3        17.650000       57.860001       47.340000
  H3        17.600000       57.750000       48.369999
  C4        16.620001       57.220001       46.599998
  H4        15.690000       57.110001       47.160000
  C5        16.620001       57.070000       45.189999
  H5        15.780000       56.599998       44.619999
  IR        18.240000       49.700001       47.990002
  C1        15.630000       49.860001       44.639999
  C2        14.810000       50.310001       45.660000
  N1        16.770000       49.349998       45.189999
  C3a       16.809999       49.660000       46.480000
  N2        15.650000       50.320000       46.770000
  C4        15.330000       50.380001       48.209999
  C5a       16.440001       50.360001       49.000000
  C6        16.280001       50.689999       50.330002
  H1        17.139999       50.669998       51.009998
  C7        15.020000       51.080002       50.840000
  H2        15.020000       51.720001       51.700001
  C8        13.860000       51.090000       50.060001
  H3        12.940000       51.270000       50.549999
  C9        14.050000       50.669998       48.740002
  H4        13.160000       50.660000       48.139999
  C10       13.510000       50.840000       45.290001
  H5        12.900000       51.369999       46.090000
  C11       13.110000       50.830002       43.950001
  H6        12.180000       51.290001       43.759998
  C12       13.970000       50.360001       42.990002
  H7        13.730000       50.490002       41.970001
  C13       15.200000       49.830002       43.349998
  H8        15.680000       49.330002       42.509998
  C6        17.680000       48.459999       44.500000
  C1        18.450001       49.150002       43.529999
  H1        18.400000       50.230000       43.549999
  C2        19.270000       48.349998       42.730000
  H2        19.799999       48.810001       41.959999
  C3        19.440001       47.009998       43.040001
  H3        20.070000       46.360001       42.380001
  C4        18.690001       46.400002       44.020000
  H4        18.559999       45.299999       43.790001
  C5        17.740000       47.090000       44.709999
  H5        16.940001       46.419998       45.020000
  C1        19.750000       53.709999       47.279999
  C2        20.580000       53.209999       48.160000
  N1        18.620001       52.840000       47.169998
  C3b       18.790001       51.750000       48.009998
  N2        19.969999       52.009998       48.660000
  C4        20.320000       51.060001       49.740002
  C5b       19.530001       49.900002       49.689999
  C6        19.680000       48.919998       50.720001
  H1        19.190001       48.020000       50.490002
  C7        20.590000       49.160000       51.740002
  H2        20.370001       48.660000       52.700001
  C8        21.379999       50.330002       51.860001
  H3        21.799999       50.619999       52.799999
  C9        21.250000       51.259998       50.830002
  H4        21.990000       52.049999       50.709999
  C10       21.790001       53.759998       48.389999
  H5        22.510000       53.270000       48.980000
  C11       22.160000       54.869999       47.700001
  H6        23.190001       55.230000       47.680000
  C12       21.340000       55.500000       46.790001
  H7        21.629999       56.400002       46.299999
  C13       20.059999       54.869999       46.639999
  H8        19.219999       55.439999       46.240002
  C6        17.280001       53.250000       46.740002
  C1        16.930000       53.049999       45.410000
  H1        17.450001       52.549999       44.639999
  C2        15.700000       53.520000       45.009998
  H2        15.480000       53.430000       44.040001
  C3        14.790000       54.169998       45.930000
  H3        13.890000       54.709999       45.610001
  C4        15.170000       54.310001       47.240002
  H4        14.420000       54.439999       47.970001
  C5        16.450001       53.840000       47.680000
  H5        16.870001       54.150002       48.680000
  C1        21.520000       47.660000       45.889999
  C2        20.840000       46.669998       46.529999
  N1        20.950001       48.930000       46.299999
  C3c       19.879999       48.709999       47.160000
  N2        19.870001       47.279999       47.340000
  C4        18.670000       46.740002       47.880001
  C5c       17.719999       47.660000       48.330002
  C6        16.490000       47.259998       48.860001
  H1        15.780000       47.900002       49.290001
  C7        16.240000       45.919998       49.020000
  H2        15.390000       45.619999       49.500000
  C8        17.190001       44.970001       48.619999
  H3        16.950001       43.939999       48.840000
  C9        18.400000       45.330002       48.060001
  H4        19.180000       44.520000       48.090000
  C10       21.080000       45.360001       46.160000
  H5        20.340000       44.560001       46.439999
  C11       22.080000       45.029999       45.270000
  H6        22.340000       44.000000       45.130001
  C12       22.830000       46.000000       44.700001
  H7        23.480000       45.689999       43.889999
  C13       22.540001       47.340000       44.950001
  H8        23.209999       48.060001       44.470001
  C6        21.510000       50.209999       45.910000
  C1        20.709999       51.049999       45.080002
  H1        19.610001       50.959999       45.150002
  C2        21.290001       52.119999       44.400002
  H2        20.809999       52.669998       43.610001
  C3        22.639999       52.299999       44.599998
  H3        23.190001       53.110001       44.150002
  C4        23.389999       51.439999       45.439999
  H4        24.440001       51.520000       45.560001
  C5        22.870001       50.400002       46.180000
  H5        23.309999       49.900002       47.020000
