206
 generated by VMD
 Ir      128.668686      -49.267479      -55.506859
 C       126.259506      -52.022297      -57.839619
 C       127.001572      -51.387768      -58.892906
 N       126.535957      -51.340057      -56.629570
 C       127.460281      -50.384544      -56.781555
 N       127.651367      -50.382675      -58.203304
 C       128.477234      -49.299553      -58.530273
 C       129.260345      -48.796448      -57.478275
 C       130.257370      -47.817554      -57.743275
 H       130.864685      -47.423805      -56.954399
 C       130.365555      -47.304474      -59.054165
 H       131.206558      -46.701435      -59.430019
 C       129.562393      -47.834831      -60.090187
 H       129.828400      -47.683704      -61.125790
 C       128.564240      -48.752949      -59.823082
 H       127.814285      -48.965500      -60.600712
 C       126.961670      -51.820950      -60.182468
 H       127.455704      -51.223038      -60.883419
 C       126.054848      -52.918427      -60.482189
 H       125.811447      -53.127880      -61.501492
 C       125.347404      -53.482254      -59.408817
 H       124.604126      -54.211281      -59.569599
 C       125.420876      -53.023071      -58.139191
 H       124.824188      -53.453465      -57.437752
 C       125.505554      -51.305893      -55.610985
 C       125.590836      -52.236214      -54.593819
 H       126.388756      -52.928959      -54.680557
 C       124.559570      -52.457710      -53.699478
 H       124.526955      -53.213436      -52.989265
 C       123.417160      -51.633484      -53.795605
 H       122.674164      -51.836723      -53.034187
 C       123.362885      -50.598934      -54.765068
 H       122.665306      -49.859089      -54.653595
 C       124.397629      -50.479156      -55.665829
 H       124.190002      -49.676105      -56.352631
 C       132.327881      -51.826469      -55.688019
 C       132.678238      -50.721943      -54.991684
 N       130.912704      -51.672081      -55.973389
 C       130.366180      -50.472801      -55.364422
 N       131.503815      -49.920982      -54.861019
 C       131.273560      -48.491463      -54.457588
 C       130.015610      -47.941372      -54.634315
 C       129.864838      -46.573994      -54.293503
 H       129.018875      -46.117516      -54.726349
 C       130.881622      -45.771530      -53.777039
 H       130.899048      -44.712376      -53.851089
 C       132.152893      -46.378639      -53.561958
 H       132.934479      -45.830250      -53.010403
 C       132.355408      -47.710094      -53.914261
 H       133.423767      -47.894470      -53.996197
 C       133.992188      -50.616905      -54.603592
 H       134.374390      -49.730980      -54.133755
 C       134.912430      -51.606476      -54.936775
 H       135.957718      -51.414883      -54.913284
 C       134.518188      -52.723434      -55.678051
 H       135.153687      -53.549946      -55.696072
 C       133.207123      -52.847054      -56.050453
 H       132.918701      -53.573326      -56.756104
 C       130.064423      -52.819160      -56.234222
 C       129.529938      -53.457451      -55.102188
 H       129.585815      -52.950249      -54.135685
 C       128.577057      -54.441917      -55.317005
 H       128.171448      -54.815071      -54.359600
 C       128.159546      -54.892212      -56.602543
 H       127.357109      -55.645882      -56.654270
 C       128.782013      -54.266350      -57.708000
 H       128.337433      -54.151955      -58.733948
 C       129.739151      -53.224865      -57.522003
 H       129.958832      -52.644287      -58.346371
 C       127.093430      -49.664570      -51.407806
 C       126.139465      -49.001225      -52.123932
 N       128.156784      -49.840027      -52.319378
 C       127.814301      -49.414650      -53.575470
 N       126.598480      -48.849289      -53.410442
 C       126.211899      -47.929916      -54.417473
 C       127.077591      -47.818920      -55.488953
 C       126.766136      -46.913231      -56.487663
 H       127.481400      -46.611923      -57.197952
 C       125.621361      -46.112389      -56.432625
 H       125.310776      -45.468185      -57.244198
 C       124.735703      -46.263069      -55.366280
 H       123.780045      -45.721649      -55.366283
 C       125.061722      -47.125309      -54.331512
 H       124.271950      -47.136292      -53.588722
 C       124.844360      -48.883118      -51.582100
 H       123.972702      -48.898277      -52.282143
 C       124.538910      -49.406010      -50.285072
 H       123.542496      -49.388702      -49.853401
 C       125.576691      -49.977554      -49.513741
 H       125.481491      -50.106449      -48.457466
 C       126.832047      -50.119267      -50.108139
 H       127.580841      -50.581795      -49.601006
 C       129.434479      -49.750961      -51.822517
 C       130.242737      -50.910107      -51.928314
 H       129.918823      -51.824654      -52.442680
 C       131.504852      -50.892887      -51.360775
 H       132.023331      -51.838005      -51.058254
 C       131.992981      -49.705452      -50.750687
 H       132.849304      -49.642052      -50.169121
 C       131.101379      -48.603325      -50.658981
 H       131.597168      -47.666870      -50.398537
 C       129.791046      -48.584511      -51.200531
 H       129.117889      -47.692200      -51.155067
 Ir      128.668686      -49.267475      -43.259804
 C       125.955856      -46.698147      -45.284477
 C       127.114349      -45.941055      -45.280899
 N       126.129852      -47.765190      -44.451801
 C       127.408005      -47.843750      -44.102592
 N       128.044525      -46.775673      -44.667725
 C       129.357788      -46.465725      -44.068657
 C       129.976334      -47.564453      -43.552151
 C       131.311081      -47.447105      -43.223351
 H       131.847900      -48.297806      -42.786858
 C       132.019211      -46.245956      -43.459152
 H       133.077911      -46.326218      -43.607170
 C       131.407700      -45.096367      -43.967678
 H       131.978577      -44.206207      -43.992405
 C       130.037384      -45.232201      -44.209915
 H       129.558472      -44.347969      -44.585411
 C       127.117599      -44.717781      -46.062820
 H       128.108002      -44.179062      -46.210762
 C       125.958946      -44.319687      -46.737167
 H       126.065170      -43.454712      -47.331429
 C       124.841339      -45.113953      -46.690285
 H       124.020630      -44.892151      -47.316490
 C       124.833481      -46.267776      -45.920853
 H       123.829895      -46.681286      -45.832474
 C       125.047890      -48.556393      -43.904396
 C       124.475655      -49.406845      -44.883774
 H       125.007156      -49.492680      -45.821564
 C       123.344963      -50.120049      -44.477226
 H       122.854073      -50.703548      -45.187126
 C       122.973351      -50.120659      -43.142120
 H       122.048042      -50.664169      -42.820572
 C       123.591019      -49.300083      -42.225540
 H       122.876236      -49.033161      -41.390293
 C       124.580765      -48.444115      -42.602943
 H       124.584122      -47.566406      -41.959030
 C       129.851379      -51.268436      -46.928822
 C       130.338715      -52.029182      -45.981678
 N       129.410675      -50.038254      -46.347157
 C       129.623199      -50.070221      -44.977333
 N       130.246979      -51.273506      -44.764038
 C       130.725922      -51.501610      -43.382019
 C       130.180435      -50.572372      -42.481377
 C       130.613190      -50.598289      -41.119072
 H       130.014557      -49.999294      -40.497921
 C       131.568878      -51.531204      -40.741669
 H       132.189331      -51.250237      -39.872124
 C       132.180634      -52.461693      -41.617661
 H       133.118958      -52.914745      -41.376019
 C       131.723022      -52.449348      -42.934147
 H       131.947021      -53.282578      -43.598717
 C       130.728714      -53.298603      -46.218250
 H       130.972443      -53.951469      -45.430244
 C       130.625214      -53.804882      -47.474464
 H       130.716339      -54.871899      -47.684399
 C       130.172424      -53.070362      -48.548172
 H       130.150146      -53.470940      -49.534706
 C       129.819061      -51.721458      -48.211407
 H       129.787369      -50.959572      -48.991806
 C       129.306808      -48.760250      -47.057449
 C       128.064072      -48.387932      -47.555828
 H       127.119614      -48.841122      -47.429657
 C       128.008377      -47.226582      -48.292015
 H       127.126343      -46.997032      -48.700325
 C       129.178970      -46.405281      -48.520454
 H       129.206985      -45.580105      -49.243156
 C       130.373962      -46.799835      -47.975983
 H       131.121964      -46.072060      -47.823914
 C       130.461807      -48.010792      -47.215210
 H       131.462341      -48.466354      -46.962395
 C       125.661575      -52.265755      -42.120659
 C       125.796440      -51.466969      -41.027103
 N       126.656860      -51.859520      -43.095478
 C       127.372696      -50.770374      -42.611481
 N       126.854996      -50.581123      -41.279728
 C       127.145950      -49.322876      -40.683601
 C       128.033539      -48.495750      -41.376022
 C       128.383728      -47.225296      -40.910053
 H       129.106934      -46.601166      -41.341385
 C       127.905380      -46.809227      -39.692772
 H       128.236191      -45.928318      -39.295967
 C       127.047546      -47.632591      -38.950356
 H       126.767990      -47.265320      -37.973694
 C       126.653275      -48.878185      -39.397945
 H       126.249794      -49.550449      -38.591305
 C       124.837128      -51.540791      -40.034702
 H       124.749023      -50.706306      -39.285118
 C       123.838913      -52.491512      -40.061089
 H       123.213028      -52.620293      -39.200985
 C       123.751930      -53.357235      -41.096107
 H       122.854424      -53.963226      -41.140369
 C       124.622955      -53.237572      -42.177402
 H       124.501587      -53.992573      -42.960312
 C       126.886124      -52.575619      -44.335938
 C       126.601791      -51.887276      -45.552425
 H       126.686523      -50.784676      -45.561813
 C       126.475601      -52.596882      -46.745838
 H       126.070107      -52.189644      -47.655083
 C       126.655823      -53.958794      -46.658627
 H       126.610596      -54.606033      -47.518940
 C       126.942474      -54.595024      -45.425438
 H       127.023010      -55.646770      -45.322239
 C       127.132004      -53.948708      -44.222961
 H       127.607498      -54.322533      -43.337891
