206
 generated by VMD
  IR         5.040000       59.930000       15.380000
  C1         2.220000       62.490002       13.380000
  C2         1.420000       61.450001       13.810000
  N1         3.590000       62.150002       13.530000
  C3a        3.710000       60.950001       14.190000
  N2         2.400000       60.500000       14.290000
  C4         2.310000       59.200001       14.610000
  C5a        3.290000       58.740002       15.600000
  C6         3.130000       57.540001       16.309999
  H1         3.620000       57.410000       17.240000
  C7         1.990000       56.779999       16.090000
  H2         1.840000       55.880001       16.740000
  C8         1.060000       57.139999       15.130000
  H3         0.310000       56.490002       14.830000
  C9         1.230000       58.369999       14.370000
  H4         0.430000       58.650002       13.620000
  C10        0.070000       61.599998       13.730000
  H5        -0.540000       60.740002       13.780000
  C11       -0.500000       62.790001       13.360000
  H6        -1.540000       62.810001       13.270000
  C12        0.250000       63.810001       12.850000
  H7        -0.330000       64.419998       12.230000
  C13        1.630000       63.660000       12.830000
  H8         2.300000       64.250000       12.170000
  C6         4.530000       62.790001       12.640000
  C1         5.020000       64.019997       12.970000
  H1         4.840000       64.349998       14.030000
  C2         5.980000       64.610001       12.100000
  H2         6.230000       65.629997       12.300000
  C3         6.460000       63.970001       11.030000
  H3         7.140000       64.459999       10.340000
  C4         5.940000       62.660000       10.720000
  H4         6.360000       62.209999        9.800000
  C5         4.990000       62.080002       11.550000
  H5         4.630000       61.099998       11.440000
  C1         4.110000       61.570000       19.360001
  C2         5.260000       60.889999       19.570000
  N1         3.750000       61.450001       18.010000
  C3b        4.610000       60.630001       17.299999
  N2         5.600000       60.299999       18.280001
  C4         6.540000       59.259998       17.930000
  C5b        6.230000       58.680000       16.639999
  C6         6.530000       57.360001       16.370001
  H1         6.110000       56.880001       15.480000
  C7         7.220000       56.599998       17.280001
  H2         7.520000       55.619999       16.969999
  C8         7.710000       57.200001       18.450001
  H3         8.200000       56.580002       19.290001
  C9         7.350000       58.520000       18.809999
  H4         7.500000       58.939999       19.780001
  C10        5.960000       61.049999       20.820000
  H5         6.550000       60.279999       21.230000
  C11        5.610000       61.990002       21.719999
  H6         6.090000       62.020000       22.650000
  C12        4.430000       62.730000       21.480000
  H7         4.070000       63.430000       22.170000
  C13        3.690000       62.480000       20.320000
  H8         2.730000       62.980000       20.100000
  C6         2.340000       61.660000       17.719999
  C1         1.340000       60.740002       18.080000
  H1         1.590000       59.919998       18.700001
  C2         0.000000       61.020000       17.860001
  H2        -0.700000       60.200001       18.070000
  C3        -0.380000       62.310001       17.360001
  H3        -1.440000       62.490002       17.260000
  C4         0.580000       63.270000       17.040001
  H4         0.320000       64.199997       16.559999
  C5         1.940000       62.950001       17.230000
  H5         2.630000       63.799999       17.400000
  C1         8.910000       61.770000       14.680000
  C2         8.590000       61.230000       13.470000
  N1         7.870000       61.560001       15.590000
  C3c        6.830000       60.860001       14.910000
  N2         7.370000       60.570000       13.700000
  C4         6.690000       59.619999       12.920000
  C5c        5.640000       59.009998       13.600000
  C6         4.900000       58.020000       12.890000
  H1         4.330000       57.259998       13.430000
  C7         5.180000       57.700001       11.560000
  H2         4.520000       57.060001       11.020000
  C8         6.240000       58.259998       10.880000
  H3         6.470000       57.869999        9.910000
  C9         6.990000       59.250000       11.560000
  H4         7.930000       59.439999       11.140000
  C10        9.470000       61.500000       12.380000
  H5         9.170000       61.470001       11.380000
  C11       10.680000       62.200001       12.510000
  H6        11.340000       62.410000       11.700000
  C12       11.080000       62.549999       13.790000
  H7        12.010000       63.090000       13.970000
  C13       10.210000       62.380001       14.830000
  H8        10.620000       62.910000       15.770000
  C6         7.630000       62.430000       16.700001
  C1         6.740000       63.490002       16.480000
  H1         6.530000       63.770000       15.440000
  C2         6.460000       64.430000       17.450001
  H2         5.840000       65.290001       17.219999
  C3         7.030000       64.309998       18.670000
  H3         6.710000       65.029999       19.440001
  C4         7.900000       63.240002       18.930000
  H4         8.040000       62.990002       20.020000
  C5         8.260000       62.299999       17.940001
  H5         8.690000       61.369999       18.219999
  IR         1.420000       48.540001       23.580000
  C1        -2.530000       46.860001       24.520000
  C2        -2.140000       47.439999       25.660000
  N1        -1.430000       46.950001       23.650000
  C3a       -0.330000       47.610001       24.250000
  N2        -0.780000       47.900002       25.490000
  C4         0.290000       48.480000       26.299999
  C5a        1.440000       48.970001       25.650000
  C6         2.380000       49.700001       26.370001
  H1         3.290000       49.880001       25.809999
  C7         2.290000       49.970001       27.709999
  H2         3.150000       50.290001       28.280001
  C8         1.180000       49.470001       28.379999
  H3         1.190000       49.330002       29.490000
  C9         0.190000       48.750000       27.709999
  H4        -0.810000       48.730000       28.150000
  C10       -2.980000       47.480000       26.780001
  H5        -2.620000       47.470001       27.770000
  C11       -4.310000       47.020000       26.620001
  H6        -5.130000       47.320000       27.230000
  C12       -4.720000       46.369999       25.440001
  H7        -5.590000       45.730000       25.469999
  C13       -3.810000       46.259998       24.389999
  H8        -4.150000       46.000000       23.309999
  C6        -1.410000       46.299999       22.360001
  C1        -1.290000       44.889999       22.230000
  H1        -0.530000       44.410000       22.850000
  C2        -1.650000       44.259998       21.070000
  H2        -1.380000       43.230000       21.209999
  C3        -2.120000       45.029999       19.980000
  H3        -2.600000       44.520000       19.160000
  C4        -2.250000       46.410000       20.100000
  H4        -2.780000       46.990002       19.389999
  C5        -1.850000       47.049999       21.250000
  H5        -1.980000       48.130001       21.430000
  C1        -0.130000       52.480000       22.629999
  C2         1.220000       52.630001       22.730000
  N1        -0.400000       51.119999       23.020000
  C3b        0.790000       50.480000       23.320000
  N2         1.800000       51.369999       23.150000
  C4         3.140000       50.900002       23.070000
  C5b        3.250000       49.490002       23.340000
  C6         4.490000       48.910000       23.280001
  H1         4.670000       47.919998       23.700001
  C7         5.600000       49.630001       22.930000
  H2         6.600000       49.250000       22.959999
  C8         5.510000       50.959999       22.590000
  H3         6.310000       51.459999       22.070000
  C9         4.310000       51.630001       22.660000
  H4         4.190000       52.689999       22.410000
  C10        1.780000       53.889999       22.350000
  H5         2.800000       53.970001       22.299999
  C11        0.980000       54.970001       21.950001
  H6         1.490000       55.759998       21.530001
  C12       -0.430000       54.810001       21.930000
  H7        -1.190000       55.639999       21.900000
  C13       -0.970000       53.529999       22.219999
  H8        -2.000000       53.380001       22.120001
  C6        -1.660000       50.910000       23.639999
  C1        -1.770000       50.970001       25.030001
  H1        -0.920000       51.209999       25.590000
  C2        -2.960000       50.650002       25.719999
  H2        -3.020000       50.720001       26.760000
  C3        -4.090000       50.380001       24.959999
  H3        -5.050000       50.049999       25.410000
  C4        -4.040000       50.540001       23.580000
  H4        -4.980000       50.439999       22.950001
  C5        -2.840000       50.740002       22.959999
  H5        -2.770000       50.540001       21.900000
  C1         1.760000       47.250000       19.400000
  C2         2.370000       46.259998       20.150000
  N1         1.390000       48.240002       20.360001
  C3c        1.630000       47.889999       21.670000
  N2         2.420000       46.720001       21.570000
  C4         2.790000       46.029999       22.790001
  C5c        2.400000       46.680000       23.950001
  C6         2.580000       46.020000       25.160000
  H1         2.180000       46.430000       26.049999
  C7         3.190000       44.790001       25.230000
  H2         3.520000       44.480000       26.240000
  C8         3.620000       44.160000       24.090000
  H3         4.170000       43.250000       24.030001
  C9         3.440000       44.840000       22.870001
  H4         3.700000       44.240002       21.959999
  C10        2.750000       45.049999       19.520000
  H5         3.280000       44.270000       20.040001
  C11        2.510000       44.939999       18.160000
  H6         2.720000       44.040001       17.629999
  C12        1.830000       45.910000       17.360001
  H7         1.590000       45.820000       16.379999
  C13        1.490000       47.099998       18.040001
  H8         0.910000       47.790001       17.440001
  C6         0.990000       49.520000       19.870001
  C1         1.870000       50.580002       19.940001
  H1         2.950000       50.410000       20.110001
  C2         1.430000       51.810001       19.379999
  H2         2.090000       52.660000       19.389999
  C3         0.150000       51.919998       18.730000
  H3        -0.190000       52.860001       18.280001
  C4        -0.750000       50.860001       18.730000
  H4        -1.860000       50.970001       18.530001
  C5        -0.340000       49.660000       19.400000
  H5        -1.090000       48.919998       19.530001
