206
 generated by VMD
 Ir       10.372832      -72.950363     -116.806328
 C         7.734179      -69.565048     -117.551208
 C         6.804293      -70.598785     -117.351959
 N         8.989822      -70.121002     -117.621010
 C         9.018765      -71.499168     -117.386887
 N         7.646533      -71.818420     -117.347443
 C         7.417844      -73.225525     -117.381248
 C         8.586926      -74.045303     -117.240791
 C         8.425759      -75.445358     -117.598930
 H         9.300701      -76.049248     -117.762901
 C         7.313585      -75.994705     -118.127304
 H         7.372079      -76.997955     -118.627190
 C         6.161978      -75.178513     -118.284561
 H         5.305119      -75.690033     -118.680336
 C         6.179879      -73.864990     -117.812904
 H         5.240009      -73.485352     -117.430527
 C         5.414047      -70.263855     -117.238220
 H         4.821963      -71.018173     -116.776642
 C         4.998580      -68.937714     -117.297722
 H         3.948138      -68.711639     -117.152603
 C         5.962825      -67.897438     -117.534073
 H         5.547637      -66.908066     -117.652634
 C         7.285954      -68.215729     -117.685471
 H         7.919990      -67.435524     -118.138672
 C         9.994121      -69.543182     -118.467712
 C        10.898132      -68.572617     -117.971664
 H        11.188907      -68.664536     -116.958549
 C        11.562201      -67.814560     -118.913025
 H        12.354746      -67.250664     -118.416649
 C        11.421364      -67.959534     -120.303368
 H        11.687403      -67.108917     -121.017563
 C        10.543839      -68.919373     -120.762222
 H        10.720845      -69.271851     -121.706116
 C         9.846849      -69.711945     -119.835861
 H         9.222086      -70.462616     -120.177422
 C         9.125349      -73.569519     -112.618332
 C         9.810927      -74.721436     -113.005692
 N         9.121012      -72.748199     -113.798294
 C         9.836897      -73.296417     -114.854401
 N        10.279402      -74.523361     -114.329247
 C        11.279136      -75.216080     -115.142555
 C        11.434235      -74.701195     -116.460632
 C        12.403913      -75.276688     -117.211060
 H        12.607191      -74.852448     -118.179764
 C        13.278570      -76.242432     -116.708649
 H        13.905521      -76.792038     -117.386490
 C        13.072266      -76.819809     -115.454384
 H        13.861523      -77.483650     -115.099167
 C        12.081032      -76.319275     -114.650887
 H        11.894783      -76.652786     -113.701637
 C         9.930801      -75.740341     -112.044617
 H        10.429972      -76.641174     -112.333977
 C         9.403496      -75.661179     -110.769829
 H         9.592478      -76.435623     -110.062843
 C         8.679783      -74.456009     -110.367973
 H         7.851573      -74.541229     -109.681091
 C         8.596865      -73.462982     -111.350594
 H         8.168912      -72.523193     -111.120483
 C         8.181190      -71.659462     -113.840775
 C         8.705622      -70.310043     -113.796600
 H         9.755500      -70.232132     -114.066574
 C         7.877647      -69.209732     -113.897873
 H         8.375608      -68.207191     -113.890800
 C         6.507505      -69.454636     -113.967369
 H         5.710195      -68.636612     -114.006424
 C         5.992332      -70.767448     -113.956100
 H         4.926521      -70.799606     -113.903046
 C         6.839443      -71.854080     -113.861649
 H         6.304139      -72.805206     -114.031700
 C        14.309059      -71.056656     -116.608894
 C        14.116222      -71.262283     -117.885574
 N        13.205862      -71.505402     -115.868767
 C        12.211845      -71.994446     -116.721802
 N        12.763472      -71.788605     -117.972374
 C        12.031710      -72.250641     -119.076401
 C        10.977216      -73.088623     -118.834091
 C        10.188669      -73.466469     -119.913872
 H         9.463020      -74.292862     -119.766563
 C        10.372119      -73.040222     -121.183578
 H         9.787584      -73.512878     -122.012985
 C        11.341659      -72.123093     -121.388206
 H        11.394656      -71.482269     -122.285439
 C        12.239311      -71.781860     -120.383629
 H        12.924958      -70.987625     -120.649101
 C        15.187147      -70.930496     -118.819038
 H        15.057152      -70.929901     -119.901489
 C        16.365505      -70.348114     -118.258591
 H        17.219681      -69.937714     -118.850670
 C        16.593653      -70.337021     -116.891830
 H        17.374586      -69.754990     -116.464996
 C        15.504118      -70.683701     -116.069870
 H        15.677076      -70.928238     -115.033730
 C        13.299463      -71.912552     -114.457718
 C        12.573433      -71.212341     -113.462387
 H        12.378469      -70.130142     -113.597839
 C        12.251020      -71.786133     -112.174873
 H        11.525208      -71.281769     -111.542648
 C        12.735230      -73.065826     -111.946503
 H        12.336605      -73.658188     -111.115540
 C        13.481800      -73.734489     -112.879517
 H        13.867033      -74.664948     -112.697456
 C        13.804295      -73.196075     -114.105812
 H        14.376022      -73.770691     -114.871536
 Ir       10.372831      -72.950363     -103.869583
 C         9.143623      -77.145538     -104.005814
 C         8.003929      -76.466095     -103.788017
 N        10.232969      -76.200089     -103.978615
 C         9.845938      -74.941658     -103.624832
 N         8.417145      -75.131485     -103.499069
 C         7.822548      -74.058601     -102.809601
 C         8.583499      -72.905807     -102.745430
 C         8.083178      -71.887909     -101.916351
 H         8.868922      -71.160423     -101.521431
 C         6.899636      -71.995453     -101.171661
 H         6.533827      -71.090691     -100.690727
 C         6.195107      -73.173523     -101.201508
 H         5.343718      -73.396805     -100.592751
 C         6.686154      -74.205093     -102.025406
 H         6.053922      -75.000031     -102.168770
 C         6.816663      -77.064758     -104.098160
 H         5.886617      -76.567108     -104.082085
 C         6.739825      -78.355965     -104.558472
 H         5.836107      -78.795761     -104.809830
 C         7.884977      -79.100876     -104.804306
 H         7.773114      -80.036316     -105.352982
 C         9.110522      -78.474838     -104.507805
 H         9.958817      -79.090836     -104.345520
 C        11.567116      -76.707596     -104.185493
 C        12.316641      -77.235283     -103.096527
 H        11.903356      -76.977112     -102.110451
 C        13.464979      -78.026299     -103.323273
 H        14.149822      -78.370544     -102.561050
 C        13.881634      -78.167343     -104.592842
 H        14.885332      -78.587685     -104.775040
 C        13.260723      -77.536713     -105.700897
 H        13.719515      -77.376022     -106.657288
 C        12.117579      -76.810539     -105.443024
 H        11.678820      -76.174759     -106.249428
 C         7.885559      -71.707611     -107.169525
 C         7.987787      -70.542160     -106.435638
 N         8.569197      -72.684341     -106.536011
 C         9.207170      -72.251160     -105.386467
 N         8.835726      -70.930328     -105.303726
 C         9.632212      -70.127441     -104.419312
 C        10.700611      -70.826309     -103.849495
 C        11.665749      -70.118958     -103.108727
 H        12.391727      -70.653625     -102.525223
 C        11.474547      -68.704086     -102.917969
 H        12.356714      -68.154472     -102.492035
 C        10.380331      -68.064987     -103.460236
 H        10.151274      -67.062103     -103.131851
 C         9.443953      -68.780991     -104.210938
 H         8.603893      -68.228088     -104.506065
 C         7.158250      -69.388947     -106.728477
 H         7.496893      -68.418121     -106.278900
 C         6.294374      -69.396729     -107.834396
 H         5.553543      -68.672745     -108.020981
 C         6.279842      -70.593117     -108.589554
 H         5.626508      -70.730232     -109.466682
 C         7.019166      -71.718353     -108.229782
 H         7.060614      -72.532486     -109.013992
 C         8.177881      -74.108444     -106.693764
 C         9.202620      -74.973541     -106.932129
 H        10.141630      -74.705353     -106.530090
 C         8.942636      -76.279907     -107.335632
 H         9.705242      -77.068481     -107.261543
 C         7.589945      -76.690239     -107.482796
 H         7.449163      -77.746902     -107.475891
 C         6.565126      -75.789764     -107.305649
 H         5.512584      -76.192337     -107.416054
 C         6.818920      -74.484879     -106.878494
 H         6.075798      -73.790771     -106.471443
 C        14.239326      -73.047127     -105.911972
 C        14.515060      -73.354065     -104.624542
 N        12.834483      -72.949341     -106.007141
 C        12.209208      -73.104027     -104.772629
 N        13.275585      -73.391701     -103.911255
 C        12.948000      -73.738808     -102.593979
 C        11.641314      -73.259796     -102.161865
 C        11.255787      -73.518280     -100.888031
 H        10.288923      -73.171051     -100.485153
 C        12.159737      -74.068024      -99.967186
 H        12.052727      -73.916618      -98.907646
 C        13.338905      -74.641953     -100.434387
 H        13.824305      -75.209915      -99.712997
 C        13.735350      -74.514381     -101.764297
 H        14.340828      -75.302780     -102.145630
 C        15.784779      -73.302101     -104.124130
 H        15.964373      -73.639450     -103.108978
 C        16.824675      -72.757568     -104.879051
 H        17.778011      -72.621162     -104.451920
 C        16.579773      -72.362000     -106.224731
 H        17.372999      -71.910553     -106.817505
 C        15.284456      -72.613281     -106.757004
 H        14.971720      -72.547859     -107.840942
 C        12.349979      -72.128281     -106.966110
 C        12.418660      -70.737213     -106.797607
 H        12.905394      -70.255920     -105.946754
 C        11.824216      -69.888176     -107.686356
 H        12.100107      -68.902023     -107.734192
 C        11.041801      -70.380531     -108.729431
 H        10.401163      -69.822067     -109.348297
 C        10.979229      -71.734741     -108.982803
 H        10.138506      -72.151703     -109.524864
 C        11.684524      -72.638519     -108.098068
 H        11.230787      -73.634521     -108.143890
