206
 generated by VMD
 Ir       98.016235      -76.286804      -29.682083
 C        97.364365      -74.387817      -25.746525
 C        98.007660      -73.460449      -26.438370
 N        97.260353      -75.578979      -26.512817
 C        97.839462      -75.426605      -27.780655
 N        98.347313      -74.109283      -27.711065
 C        98.991959      -73.620201      -28.868752
 C        98.664185      -74.312454      -29.995628
 C        99.080505      -73.777496      -31.252090
 H        99.069656      -74.513161      -32.070789
 C        99.805130      -72.577316      -31.357372
 H        99.835220      -72.134933      -32.355263
 C       100.203949      -71.952240      -30.207226
 H       100.864075      -71.142029      -30.295925
 C        99.820526      -72.429855      -28.975857
 H       100.373001      -72.148041      -28.129780
 C        98.247299      -72.234879      -25.969601
 H        98.558746      -71.412369      -26.582855
 C        97.970383      -71.933403      -24.679245
 H        98.119263      -70.927383      -24.305128
 C        97.294968      -72.866501      -23.867245
 H        97.079056      -72.595337      -22.829193
 C        97.042770      -74.118286      -24.416359
 H        96.548294      -75.001419      -23.926489
 C        96.924973      -76.802094      -25.981678
 C        97.628723      -77.981789      -26.236919
 H        98.647064      -77.893311      -26.533165
 C        97.037857      -79.233582      -25.962696
 H        97.383087      -80.063461      -26.490143
 C        95.666031      -79.301575      -25.576832
 H        95.081772      -80.196991      -25.694981
 C        95.059952      -78.148911      -25.203564
 H        94.120224      -78.206253      -24.653442
 C        95.696518      -76.918427      -25.390854
 H        95.205215      -76.045944      -25.081009
 C        94.109451      -74.955551      -31.266033
 C        94.831284      -75.321747      -32.408127
 N        94.980522      -75.148071      -30.161873
 C        96.236374      -75.672379      -30.562874
 N        96.178238      -75.749390      -31.978672
 C        97.319145      -76.300728      -32.588142
 C        98.204521      -76.943825      -31.693916
 C        99.284775      -77.617233      -32.195576
 H        99.967911      -78.083374      -31.496769
 C        99.513580      -77.641815      -33.553829
 H       100.197372      -78.394684      -33.848137
 C        98.648041      -77.005264      -34.488842
 H        98.753632      -77.228096      -35.549076
 C        97.565102      -76.339233      -33.935814
 H        97.213455      -75.495422      -34.504704
 C        94.199921      -75.406128      -33.603771
 H        94.678474      -75.628952      -34.521885
 C        92.834320      -75.082527      -33.657814
 H        92.375252      -75.134140      -34.588619
 C        92.002678      -74.754013      -32.538548
 H        90.959229      -75.015350      -32.467003
 C        92.709167      -74.692574      -31.324753
 H        92.214615      -74.314087      -30.402653
 C        94.788551      -74.355865      -28.977692
 C        95.112732      -72.960716      -29.046688
 H        95.661682      -72.625656      -29.892727
 C        94.860352      -72.148041      -27.851048
 H        94.955688      -71.110893      -27.954180
 C        94.253082      -72.813255      -26.740059
 H        93.866287      -72.295502      -25.856588
 C        94.015663      -74.202675      -26.747475
 H        93.560410      -74.539383      -25.762447
 C        94.301193      -74.942444      -27.872517
 H        94.366608      -76.018097      -27.778206
 C        97.462051      -80.618080      -29.853813
 C        98.702667      -80.417374      -29.275478
 N        96.911438      -79.327789      -29.966007
 C        97.741348      -78.307022      -29.466618
 N        98.849487      -79.062363      -29.090832
 C        99.992310      -78.293915      -28.646366
 C        99.929291      -76.977417      -29.079777
 C       101.100235      -76.171288      -28.990540
 H       101.085747      -75.048119      -29.180504
 C       102.320633      -76.661194      -28.418945
 H       103.208984      -76.091820      -28.296680
 C       102.305328      -77.996536      -28.015694
 H       103.117569      -78.464317      -27.462227
 C       101.152809      -78.847717      -28.127953
 H       101.420929      -79.932381      -28.222927
 C        99.468307      -81.593781      -28.983856
 H       100.367844      -81.533157      -28.443432
 C        98.960434      -82.906189      -29.245476
 H        99.444290      -83.662346      -28.633743
 C        97.701752      -82.971733      -29.881275
 H        97.374069      -83.927780      -30.240032
 C        96.993835      -81.821533      -30.197010
 H        96.040680      -81.813339      -30.654430
 C        95.456100      -79.272079      -30.180000
 C        94.580811      -78.776443      -29.214237
 H        94.841133      -78.863281      -28.115108
 C        93.278397      -78.389771      -29.571316
 H        92.793793      -77.668839      -28.885727
 C        92.906059      -78.549515      -30.898586
 H        91.867561      -78.389771      -31.169327
 C        93.689209      -79.182785      -31.877235
 H        93.276733      -79.619431      -32.738228
 C        94.989708      -79.645653      -31.437744
 H        95.553528      -80.099503      -32.174309
 Ir       98.016235      -76.286797      -18.894753
 C       101.537880      -77.041313      -16.541430
 C       100.869522      -76.198318      -15.690216
 N       100.969994      -77.051956      -17.752371
 C        99.772575      -76.368721      -17.728495
 N        99.681610      -75.858337      -16.398445
 C        98.361504      -75.706787      -15.949169
 C        97.351585      -75.829666      -16.959845
 C        96.015335      -75.712517      -16.586433
 H        95.275360      -75.823112      -17.470285
 C        95.652420      -75.483948      -15.252628
 H        94.614365      -75.494598      -14.963761
 C        96.616898      -75.446266      -14.233191
 H        96.283997      -75.351234      -13.209009
 C        97.980522      -75.466751      -14.608821
 H        98.765411      -75.303719      -13.861106
 C       101.402725      -75.883736      -14.419929
 H       100.726021      -75.439713      -13.702346
 C       102.663147      -76.415421      -14.138420
 H       103.151642      -76.122955      -13.212389
 C       103.300034      -77.277252      -14.982300
 H       104.262253      -77.801559      -14.680261
 C       102.762093      -77.621323      -16.198662
 H       103.190628      -78.382393      -16.846218
 C       101.719330      -77.126511      -19.008856
 C       101.955498      -75.982864      -19.720119
 H       101.837563      -75.025177      -19.156610
 C       102.729034      -75.883743      -20.862804
 H       102.805870      -75.030914      -21.519001
 C       103.195602      -77.086365      -21.349815
 H       103.821091      -77.100296      -22.259476
 C       102.948158      -78.289001      -20.688496
 H       103.197800      -79.196709      -21.144503
 C       102.191910      -78.332420      -19.519394
 H       102.227951      -79.295837      -18.908222
 C        96.115517      -80.088852      -17.992008
 C        95.179092      -79.440842      -18.806427
 N        97.251007      -79.276176      -17.874483
 C        97.116150      -78.181686      -18.682253
 N        95.814606      -78.275894      -19.248482
 C        95.417892      -77.179764      -20.017124
 C        96.111725      -76.023010      -19.779816
 C        95.787323      -74.782684      -20.494789
 H        96.125359      -73.765198      -20.261003
 C        94.806458      -74.875259      -21.493755
 H        94.570007      -73.980659      -22.078543
 C        94.050430      -76.014816      -21.749363
 H        93.520584      -76.104111      -22.671751
 C        94.393509      -77.160919      -21.025738
 H        93.680893      -77.999809      -21.031502
 C        93.800438      -79.793106      -18.812159
 H        93.055374      -79.295837      -19.369560
 C        93.324936      -80.815514      -18.025900
 H        92.288017      -81.044083      -17.978514
 C        94.290916      -81.636383      -17.392443
 H        94.052139      -82.706299      -17.062046
 C        95.613388      -81.273468      -17.300514
 H        96.151657      -81.685539      -16.484692
 C        98.262726      -79.516212      -16.834038
 C        99.462402      -80.028229      -17.212851
 H        99.770340      -80.109337      -18.253860
 C       100.414345      -80.384598      -16.209749
 H       101.379959      -80.714745      -16.376101
 C       100.006866      -80.360840      -14.884306
 H       100.666069      -80.863029      -14.203599
 C        98.731033      -79.897972      -14.522364
 H        98.434982      -79.525223      -13.608246
 C        97.902100      -79.370392      -15.471106
 H        96.995743      -78.839523      -15.202763
 C        99.639771      -76.815201      -22.828156
 C        99.770966      -75.460190      -22.656004
 N        99.018021      -77.338692      -21.715096
 C        98.697647      -76.356430      -20.866611
 N        99.092285      -75.173462      -21.423786
 C        99.057053      -74.018341      -20.611523
 C        98.652657      -74.266571      -19.289919
 C        98.968887      -73.282677      -18.308676
 H        98.338280      -73.259735      -17.520641
 C        99.692734      -72.130829      -18.637033
 H        99.907974      -71.473816      -17.865675
 C        99.950974      -71.792496      -20.000057
 H       100.124748      -70.784019      -20.249222
 C        99.677353      -72.768196      -20.954536
 H        99.761703      -72.533081      -22.020233
 C       100.316696      -74.673737      -23.706081
 H       100.276772      -73.579239      -23.656189
 C       100.678490      -75.291428      -24.926428
 H       101.110855      -74.801529      -25.738811
 C       100.538338      -76.667740      -25.055374
 H       100.709465      -77.164200      -26.005455
 C       100.007576      -77.437820      -24.008011
 H        99.844398      -78.484802      -24.044167
 C        98.509018      -78.677322      -21.735245
 C        97.203400      -78.819046      -22.168331
 H        96.692307      -77.971146      -22.633991
 C        96.540222      -79.972527      -21.883770
 H        95.527443      -80.138008      -22.170650
 C        97.154739      -81.112076      -21.355286
 H        96.816322      -82.095978      -21.572590
 C        98.509628      -80.980179      -20.967758
 H        98.962357      -81.783844      -20.557201
 C        99.157967      -79.775085      -21.169765
 H       100.185562      -79.657936      -21.093460
