206
 generated by VMD
 Ir      -37.112312      -56.540375      -69.014732
 C       -40.661564      -54.142227      -69.370171
 C       -40.816505      -54.801460      -68.156784
 N       -39.624725      -54.720100      -70.072754
 C       -38.979763      -55.679359      -69.227798
 N       -39.789970      -55.799156      -68.141418
 C       -39.434326      -56.840057      -67.228439
 C       -38.095848      -57.245331      -67.315704
 C       -37.680313      -58.157909      -66.321808
 H       -36.622742      -58.423141      -66.331772
 C       -38.595963      -58.765999      -65.426086
 H       -38.326530      -59.594223      -64.742081
 C       -39.911865      -58.342369      -65.388351
 H       -40.686394      -58.921654      -64.813339
 C       -40.369576      -57.395927      -66.279900
 H       -41.376953      -56.934174      -66.214615
 C       -41.781940      -54.361259      -67.301071
 H       -41.817020      -54.742954      -66.253220
 C       -42.646515      -53.360233      -67.748123
 H       -43.294037      -52.883011      -67.062866
 C       -42.575428      -52.910648      -69.039062
 H       -43.262428      -52.106316      -69.409424
 C       -41.520996      -53.212563      -69.841324
 H       -41.396790      -52.656345      -70.731377
 C       -39.545563      -54.651215      -71.533401
 C       -38.739197      -53.683945      -72.192383
 H       -37.919971      -53.225277      -71.616714
 C       -38.948006      -53.494164      -73.553741
 H       -38.377167      -52.770096      -74.040733
 C       -39.983154      -54.060730      -74.233482
 H       -40.304413      -53.779037      -75.123444
 C       -40.754436      -55.016457      -73.580475
 H       -41.758362      -55.243469      -73.972778
 C       -40.548225      -55.398014      -72.236862
 H       -40.968239      -56.311489      -71.866394
 C       -35.658497      -53.758648      -66.012978
 C       -34.645000      -54.739567      -66.041763
 N       -36.510632      -53.995773      -67.056549
 C       -36.162834      -55.182186      -67.759659
 N       -35.020943      -55.633209      -67.081314
 C       -34.547668      -56.933887      -67.452606
 C       -35.248634      -57.454567      -68.508133
 C       -34.652275      -58.602066      -69.115829
 H       -35.042656      -58.920380      -70.082001
 C       -33.583458      -59.275879      -68.577583
 H       -33.173393      -60.161819      -69.003677
 C       -32.939980      -58.775925      -67.481239
 H       -32.136837      -59.382950      -67.101913
 C       -33.374306      -57.572258      -66.918182
 H       -32.710449      -57.216919      -66.082161
 C       -33.630211      -54.762421      -65.131439
 H       -32.689774      -55.334141      -65.300293
 C       -33.682365      -53.849457      -64.057762
 H       -32.871166      -53.883690      -63.327232
 C       -34.774147      -52.965858      -63.906914
 H       -35.032600      -52.544350      -62.986244
 C       -35.701294      -52.894737      -64.929001
 H       -36.327030      -52.049122      -64.993675
 C       -37.225861      -52.865944      -67.666412
 C       -36.554089      -52.042805      -68.607727
 H       -35.668285      -52.375896      -69.104713
 C       -37.182785      -50.892731      -69.122185
 H       -36.509079      -50.381165      -69.733917
 C       -38.474777      -50.510727      -68.790176
 H       -38.823483      -49.557030      -69.144821
 C       -39.152538      -51.335442      -67.870361
 H       -40.034302      -50.951721      -67.368912
 C       -38.553650      -52.494698      -67.314331
 H       -39.185112      -52.912285      -66.507187
 C       -35.289635      -55.484245      -72.839859
 C       -36.056938      -56.586617      -73.149918
 N       -35.373604      -55.286350      -71.444054
 C       -36.288406      -56.153458      -70.859962
 N       -36.674583      -56.968933      -71.925674
 C       -37.708668      -57.888081      -71.607040
 C       -37.888794      -58.098419      -70.242813
 C       -38.649055      -59.187206      -69.815796
 H       -38.977409      -59.273315      -68.763809
 C       -39.292519      -59.976730      -70.718628
 H       -40.052513      -60.628479      -70.365746
 C       -39.168808      -59.769558      -72.085518
 H       -39.916443      -60.094200      -72.835281
 C       -38.342773      -58.726662      -72.499557
 H       -38.333538      -58.581360      -73.620544
 C       -35.986835      -57.130257      -74.441948
 H       -36.428528      -58.085640      -74.765144
 C       -35.205002      -56.464249      -75.425644
 H       -35.105377      -56.889225      -76.432106
 C       -34.672043      -55.261711      -75.076263
 H       -34.233360      -54.601234      -75.842896
 C       -34.667198      -54.784691      -73.790909
 H       -34.184570      -53.777401      -73.645836
 C       -34.268810      -54.649208      -70.821487
 C       -33.145779      -55.482826      -70.491379
 H       -33.437050      -56.474472      -70.202240
 C       -31.850075      -54.906116      -70.387665
 H       -31.169161      -55.480862      -69.860283
 C       -31.660610      -53.609398      -70.684845
 H       -30.650967      -53.265747      -70.702988
 C       -32.720703      -52.743500      -71.034882
 H       -32.587315      -51.694107      -71.051544
 C       -34.057339      -53.259605      -71.094406
 H       -34.915550      -52.640724      -71.221893
 Ir      -37.112316      -56.540375      -56.378410
 C       -41.181675      -56.930496      -54.717438
 C       -40.805817      -55.687607      -54.392399
 N       -40.027821      -57.490189      -55.216610
 C       -39.006783      -56.666771      -55.445450
 N       -39.510044      -55.459461      -54.928604
 C       -38.671745      -54.303432      -55.135643
 C       -37.514725      -54.520851      -55.958763
 C       -36.759991      -53.352005      -56.213264
 H       -35.782394      -53.485413      -56.638836
 C       -37.133156      -52.095329      -55.657196
 H       -36.386665      -51.326500      -55.712410
 C       -38.282558      -51.895786      -54.974514
 H       -38.618912      -50.953194      -54.675533
 C       -39.057419      -53.002449      -54.667778
 H       -39.968929      -52.907028      -54.094940
 C       -41.842850      -54.754333      -53.957939
 H       -41.615955      -53.873955      -53.350597
 C       -43.205101      -55.155251      -53.911758
 H       -43.851196      -54.529594      -53.433304
 C       -43.476917      -56.454792      -54.270939
 H       -44.318596      -56.976154      -53.844376
 C       -42.497540      -57.342964      -54.739193
 H       -42.799072      -58.298828      -55.026951
 C       -39.960152      -58.924103      -55.097359
 C       -39.963310      -59.561508      -53.820839
 H       -40.327721      -59.136360      -52.912788
 C       -39.519958      -60.865204      -53.704182
 H       -39.287872      -61.369377      -52.763680
 C       -39.225044      -61.581650      -54.897221
 H       -39.130642      -62.658264      -54.867569
 C       -39.265793      -60.916702      -56.177490
 H       -39.103741      -61.551506      -57.055592
 C       -39.642345      -59.576778      -56.250271
 H       -39.432976      -58.988281      -57.180397
 C       -38.373634      -55.801228      -60.581909
 C       -36.988926      -55.670258      -60.633099
 N       -38.715431      -56.049377      -59.202423
 C       -37.577358      -56.161949      -58.394329
 N       -36.510365      -55.828239      -59.316696
 C       -35.258125      -55.517380      -58.576241
 C       -35.218300      -56.051151      -57.282097
 C       -33.956039      -56.132545      -56.738976
 H       -33.951817      -56.442879      -55.707336
 C       -32.803787      -55.778275      -57.388744
 H       -31.762487      -56.089882      -57.148739
 C       -32.894958      -55.114914      -58.650188
 H       -32.023380      -54.890549      -59.207512
 C       -34.143463      -54.976082      -59.252571
 H       -34.180210      -54.420963      -60.186108
 C       -36.336132      -55.518013      -61.878120
 H       -35.243366      -55.558399      -61.849289
 C       -37.100975      -55.687725      -63.048721
 H       -36.605259      -55.897205      -63.990627
 C       -38.451630      -55.889271      -63.034416
 H       -38.858223      -56.458073      -63.810074
 C       -39.077667      -55.898788      -61.774773
 H       -40.185745      -55.987991      -61.775841
 C       -40.012924      -55.689369      -58.727638
 C       -40.159218      -54.516258      -57.921471
 H       -39.452106      -53.802189      -57.677769
 C       -41.426548      -54.128719      -57.517628
 H       -41.465023      -53.323662      -56.756313
 C       -42.574402      -54.777893      -57.964405
 H       -43.559078      -54.411560      -57.665710
 C       -42.453865      -55.909546      -58.724556
 H       -43.342262      -56.094627      -59.361580
 C       -41.186508      -56.436646      -59.113480
 H       -41.026604      -57.406605      -59.547440
 C       -35.942253      -60.755241      -56.785294
 C       -36.248352      -60.611450      -55.425980
 N       -36.084873      -59.474159      -57.389030
 C       -36.439026      -58.495201      -56.454788
 N       -36.500519      -59.188774      -55.227692
 C       -36.597290      -58.322495      -54.054363
 C       -36.443260      -56.980675      -54.405495
 C       -36.162537      -56.031960      -53.366730
 H       -35.921165      -55.014362      -53.681107
 C       -36.275444      -56.429329      -52.002819
 H       -36.297157      -55.673325      -51.237911
 C       -36.553932      -57.762283      -51.729351
 H       -36.939522      -58.026550      -50.755348
 C       -36.618164      -58.715118      -52.693184
 H       -36.609131      -59.768639      -52.534389
 C       -36.183056      -61.741104      -54.565163
 H       -36.113716      -61.604118      -53.491508
 C       -35.787846      -62.969452      -55.171349
 H       -35.400650      -63.732330      -54.506371
 C       -35.531467      -63.078117      -56.570587
 H       -35.343529      -64.055672      -56.988525
 C       -35.578796      -61.943718      -57.366951
 H       -35.404465      -62.090363      -58.484539
 C       -35.522190      -59.161148      -58.718506
 C       -34.165859      -58.965927      -58.845634
 H       -33.589020      -59.050007      -57.897167
 C       -33.486309      -58.708466      -60.031391
 H       -32.448246      -58.456116      -60.092621
 C       -34.169037      -58.674850      -61.230537
 H       -33.721680      -58.646664      -62.181107
 C       -35.579269      -58.996811      -61.162834
 H       -36.209873      -59.003242      -62.066380
 C       -36.257263      -59.182121      -59.945587
 H       -37.262474      -59.558838      -59.982094
