206
 generated by VMD
 Ir       20.323090      -21.113911     -112.078186
 C        23.907167      -18.840134     -110.844116
 C        22.873138      -18.379910     -109.994492
 N        23.346153      -19.785027     -111.753159
 C        21.927565      -19.918917     -111.532516
 N        21.719694      -19.149517     -110.359825
 C        20.497143      -19.446451     -109.694237
 C        19.511337      -20.005108     -110.511246
 C        18.181885      -19.888950     -110.037567
 H        17.416153      -20.084629     -110.761215
 C        17.875025      -19.306522     -108.798973
 H        16.855246      -19.087273     -108.704208
 C        18.872887      -18.818630     -107.997704
 H        18.601675      -18.574944     -106.962540
 C        20.173035      -18.844860     -108.478790
 H        20.871578      -18.449760     -107.781906
 C        23.203617      -17.377682     -108.935226
 H        22.387161      -16.873493     -108.453468
 C        24.522684      -16.997181     -108.764999
 H        24.826073      -16.472754     -107.891129
 C        25.485378      -17.349957     -109.688553
 H        26.483452      -16.944809     -109.690811
 C        25.176140      -18.322620     -110.756447
 H        25.875507      -18.490219     -111.589638
 C        24.117445      -20.470394     -112.757629
 C        23.794842      -20.213936     -114.120117
 H        23.023520      -19.464157     -114.237976
 C        24.519732      -20.760242     -115.156349
 H        24.531986      -20.196404     -116.055710
 C        25.511021      -21.644165     -114.864075
 H        26.033592      -22.179405     -115.653847
 C        25.875751      -21.911434     -113.516029
 H        26.481586      -22.745810     -113.284332
 C        25.218386      -21.254402     -112.455704
 H        25.519684      -21.126362     -111.485023
 C        20.276123      -23.993504     -108.817841
 C        19.086658      -24.083527     -109.457901
 N        21.014574      -23.046705     -109.561058
 C        20.377439      -22.648062     -110.666336
 N        19.160801      -23.340096     -110.609070
 C        18.250452      -23.249962     -111.705681
 C        18.439394      -22.058449     -112.407036
 C        17.529133      -21.694851     -113.424149
 H        17.424294      -20.671711     -113.873024
 C        16.453461      -22.533993     -113.766754
 H        15.715168      -22.208467     -114.468140
 C        16.311531      -23.757938     -113.118668
 H        15.537469      -24.531801     -113.294930
 C        17.100292      -24.097454     -112.016953
 H        16.936197      -25.080219     -111.593460
 C        17.997019      -24.845402     -108.887520
 H        17.081909      -25.111177     -109.384949
 C        18.179222      -25.418156     -107.690994
 H        17.418961      -26.067101     -107.255371
 C        19.439131      -25.378500     -107.050095
 H        19.646820      -25.849545     -106.056320
 C        20.520931      -24.697376     -107.638290
 H        21.510651      -24.643475     -107.173164
 C        22.357185      -22.637615     -109.177208
 C        22.534893      -21.674122     -108.105293
 H        21.695974      -21.426025     -107.524979
 C        23.809753      -21.188789     -107.823898
 H        23.920223      -20.342426     -107.179253
 C        24.948788      -21.701172     -108.466522
 H        25.985949      -21.376114     -108.218460
 C        24.819294      -22.680960     -109.440918
 H        25.713837      -23.168190     -109.742081
 C        23.488842      -23.140827     -109.841309
 H        23.285690      -23.929291     -110.550430
 C        22.085337      -22.937435     -115.594238
 C        21.467463      -21.821911     -116.050903
 N        21.703945      -23.090698     -114.243813
 C        20.867807      -22.079397     -113.846008
 N        20.711407      -21.305172     -115.007263
 C        19.964581      -20.096752     -114.919098
 C        19.885212      -19.640938     -113.565979
 C        19.143967      -18.524647     -113.281631
 H        19.188091      -17.996532     -112.349731
 C        18.363712      -17.961220     -114.290672
 H        17.660667      -17.147957     -114.069702
 C        18.379761      -18.425797     -115.621124
 H        17.604118      -18.131067     -116.346115
 C        19.210253      -19.552078     -115.893829
 H        19.193321      -19.875698     -116.961914
 C        21.676626      -21.387243     -117.394264
 H        21.467287      -20.395870     -117.653221
 C        22.687353      -22.023216     -118.138687
 H        23.099663      -21.570517     -119.013412
 C        23.267677      -23.196232     -117.623840
 H        23.721287      -23.855213     -118.265862
 C        22.958248      -23.603794     -116.364822
 H        23.444929      -24.431610     -115.986984
 C        22.011000      -24.302195     -113.479294
 C        20.876675      -25.102242     -113.114693
 H        19.893127      -24.888165     -113.388390
 C        21.068245      -26.358213     -112.473808
 H        20.322712      -27.105125     -112.476112
 C        22.340061      -26.699312     -112.088013
 H        22.372433      -27.554802     -111.463531
 C        23.417299      -25.896805     -112.399368
 H        24.352921      -26.245026     -111.984940
 C        23.267597      -24.714874     -113.132812
 H        24.063932      -24.578215     -113.855423
 Ir       20.323088      -21.113911     -101.012573
 C        18.285698      -19.488167      -97.472488
 C        18.876146      -18.354963      -98.080612
 N        18.800472      -20.571304      -98.200241
 C        19.544767      -20.239986      -99.310669
 N        19.648403      -18.863762      -99.172974
 C        20.481728      -18.315653     -100.109695
 C        20.951159      -19.102985     -101.198334
 C        21.826817      -18.525723     -102.151115
 H        22.308098      -19.130491     -102.933121
 C        22.177149      -17.182339     -102.051666
 H        22.789982      -16.797121     -102.837883
 C        21.700489      -16.369131     -101.065872
 H        21.997288      -15.304693     -100.941444
 C        20.910290      -16.965149     -100.071320
 H        20.395754      -16.322462      -99.345505
 C        18.401072      -17.074711      -97.668732
 H        18.851252      -16.158197      -97.962738
 C        17.316790      -16.971313      -96.740051
 H        16.978777      -16.064028      -96.376205
 C        16.819427      -18.095757      -96.150848
 H        16.459446      -17.992361      -95.131119
 C        17.287128      -19.353569      -96.504059
 H        16.855858      -20.196449      -96.119934
 C        18.707735      -21.901726      -97.702972
 C        19.871328      -22.526844      -97.177818
 H        20.750668      -21.995394      -96.796738
 C        19.812180      -23.878323      -96.947815
 H        20.584702      -24.331944      -96.438553
 C        18.681232      -24.605505      -97.251556
 H        18.649776      -25.692387      -97.402222
 C        17.500240      -23.977928      -97.718468
 H        16.583422      -24.503794      -97.721176
 C        17.535856      -22.615227      -97.921631
 H        16.691757      -22.064304      -98.262344
 C        17.016144      -20.840538     -103.810013
 C        18.072258      -21.338270     -104.594795
 N        17.528191      -20.440010     -102.511406
 C        18.854786      -20.795864     -102.481262
 N        19.186783      -21.319981     -103.759445
 C        20.382805      -21.998844     -103.813057
 C        21.261309      -21.544361     -102.864021
 C        22.669792      -21.690643     -103.084427
 H        23.284489      -21.193989     -102.361938
 C        23.132149      -22.408855     -104.196983
 H        24.165691      -22.609352     -104.321053
 C        22.196253      -22.920832     -105.090340
 H        22.545956      -23.544765     -105.867905
 C        20.869843      -22.735399     -104.881416
 H        20.204676      -23.375372     -105.442917
 C        17.849627      -21.886213     -105.790413
 H        18.713757      -22.292946     -106.330734
 C        16.582520      -22.100391     -106.293869
 H        16.510284      -22.548985     -107.242683
 C        15.467911      -21.656307     -105.605011
 H        14.379517      -21.810690     -105.846375
 C        15.703268      -21.035963     -104.350266
 H        14.901241      -20.833727     -103.662552
 C        16.795721      -19.460632     -101.655426
 C        16.252634      -19.983021     -100.542053
 H        16.107119      -21.018456     -100.426758
 C        15.666042      -19.092747      -99.643883
 H        15.453888      -19.429394      -98.597481
 C        15.699063      -17.749210      -99.826416
 H        15.361832      -17.102835      -98.987679
 C        16.206509      -17.168104     -100.976936
 H        16.339809      -16.105152     -101.155434
 C        16.721046      -18.090809     -101.943359
 H        16.595655      -17.780861     -102.950386
 C        19.688442      -25.411118     -100.934860
 C        20.828300      -25.307823     -100.220886
 N        19.209005      -24.118767     -101.209946
 C        20.008682      -23.143589     -100.756348
 N        21.054945      -23.892859     -100.099594
 C        22.197475      -23.072884      -99.727615
 C        21.889322      -21.708286      -99.681549
 C        22.780876      -20.911064      -98.916519
 H        22.599033      -19.825825      -98.832939
 C        23.889196      -21.410954      -98.272362
 H        24.562044      -20.733475      -97.771973
 C        24.170074      -22.776367      -98.342003
 H        25.099300      -23.179054      -98.037079
 C        23.407198      -23.633541      -99.088371
 H        23.904720      -24.417496      -99.598663
 C        21.620134      -26.378307      -99.865265
 H        22.546207      -26.152908      -99.374878
 C        21.275181      -27.683208     -100.248077
 H        21.793505      -28.631744      -99.881447
 C        20.018852      -27.767342     -100.997650
 H        19.712536      -28.765114     -101.206734
 C        19.272102      -26.618561     -101.391190
 H        18.356106      -26.813984     -101.881554
 C        18.020075      -23.885216     -102.014618
 C        16.904167      -23.450714     -101.315430
 H        17.020824      -23.040447     -100.319092
 C        15.603758      -23.636967     -101.874664
 H        14.820808      -23.584602     -101.178352
 C        15.409386      -24.247730     -103.134743
 H        14.408354      -24.304653     -103.429695
 C        16.544350      -24.591896     -103.825180
 H        16.495338      -25.111660     -104.798386
 C        17.848600      -24.386890     -103.296494
 H        18.755119      -24.741207     -103.773132
