206
 generated by VMD
 Ir        0.812269       -0.311024       -7.958015
 C        -2.129988        1.894741      -10.322782
 C        -1.510008        1.081257      -11.240968
 N        -1.515390        1.670883       -9.082355
 C        -0.490812        0.737667       -9.175393
 N        -0.487062        0.386768      -10.528523
 C         0.485991       -0.582771      -10.921271
 C         1.159149       -1.211117       -9.847753
 C         1.929836       -2.352695      -10.111461
 H         2.443768       -2.854282       -9.301535
 C         2.033339       -2.873379      -11.402771
 H         2.608522       -3.771572      -11.581962
 C         1.403217       -2.222157      -12.465105
 H         1.489626       -2.618759      -13.470557
 C         0.650106       -1.078098      -12.229406
 H         0.308809       -0.502911      -13.067254
 C        -1.980925        1.074902      -12.572280
 H        -1.623783        0.364597      -13.289298
 C        -3.041109        1.910622      -12.956449
 H        -3.381220        1.916737      -13.976101
 C        -3.647692        2.741261      -12.017620
 H        -4.453859        3.401237      -12.304371
 C        -3.194090        2.736176      -10.694622
 H        -3.664618        3.384327       -9.968600
 C        -1.942450        2.330509       -7.885397
 C        -1.280714        3.480141       -7.453819
 H        -0.381239        3.806065       -7.959900
 C        -1.760452        4.195690       -6.356352
 H        -1.197622        5.040764       -5.985303
 C        -2.905851        3.767338       -5.678137
 H        -3.263338        4.319294       -4.814748
 C        -3.572863        2.609509       -6.099475
 H        -4.412779        2.240829       -5.538392
 C        -3.096239        1.902157       -7.201739
 H        -3.623060        1.019306       -7.535693
 C        -1.687387       -3.696083       -6.849820
 C        -0.536192       -3.847599       -6.105109
 N        -1.479237       -2.615952       -7.722858
 C        -0.233419       -2.054764       -7.530228
 N         0.367723       -2.860630       -6.567623
 C         1.773756       -2.669857       -6.403680
 C         2.277781       -1.501186       -7.004653
 C         3.640368       -1.222660       -6.870906
 H         4.079901       -0.371952       -7.369203
 C         4.490936       -2.074276       -6.148491
 H         5.535402       -1.824856       -6.045617
 C         3.980137       -3.237976       -5.576317
 H         4.637274       -3.917835       -5.060015
 C         2.622427       -3.546829       -5.702557
 H         2.276194       -4.507931       -5.391093
 C        -0.504398       -4.822544       -5.082870
 H         0.352873       -4.903984       -4.423588
 C        -1.624756       -5.621357       -4.825173
 H        -1.597784       -6.353428       -4.030728
 C        -2.785290       -5.445221       -5.584270
 H        -3.669153       -6.031216       -5.366324
 C        -2.810858       -4.486687       -6.596918
 H        -3.718575       -4.348812       -7.168619
 C        -2.167170       -2.554195       -8.984416
 C        -1.650227       -3.266514      -10.079663
 H        -0.815962       -3.936943       -9.933275
 C        -2.207865       -3.095112      -11.342542
 H        -1.791376       -3.626682      -12.188516
 C        -3.274614       -2.222836      -11.534822
 H        -3.696306       -2.078251      -12.514860
 C        -3.804415       -1.516232      -10.441012
 H        -4.628939       -0.831879      -10.590760
 C        -3.250696       -1.681911       -9.165808
 H        -3.676924       -1.164268       -8.316471
 C         0.154404        2.093258       -4.398724
 C         1.116171        2.765980       -5.102682
 N        -0.053717        0.853397       -5.049822
 C         0.735559        0.745449       -6.184719
 N         1.479422        1.921894       -6.177564
 C         2.454090        2.053616       -7.210554
 C         2.210466        1.240570       -8.338692
 C         3.015560        1.410316       -9.467589
 H         2.825991        0.837688      -10.365564
 C         4.070372        2.329220       -9.477332
 H         4.677324        2.445522      -10.360497
 C         4.341871        3.095531       -8.342982
 H         5.141912        3.814789       -8.341123
 C         3.531099        2.953625       -7.204471
 H         3.826488        3.441738       -6.290418
 C         1.463022        4.074940       -4.715369
 H         2.214720        4.634548       -5.247057
 C         0.837019        4.683331       -3.622811
 H         1.133129        5.671333       -3.313659
 C        -0.144222        3.982769       -2.912128
 H        -0.625380        4.447208       -2.055579
 C        -0.486609        2.679531       -3.292565
 H        -1.258604        2.164173       -2.755411
 C        -0.693850       -0.266056       -4.401389
 C        -0.043030       -0.922997       -3.362270
 H         0.940474       -0.604206       -3.059473
 C        -0.672735       -1.969601       -2.679419
 H        -0.158800       -2.471188       -1.869493
 C        -1.969225       -2.356781       -3.041915
 H        -2.462605       -3.163242       -2.516367
 C        -2.620043       -1.699841       -4.081030
 H        -3.622892       -1.998993       -4.358531
 C        -1.990339       -0.653236       -4.763883
 H        -2.483170       -0.193417       -5.596399
 Ir        0.812271       -0.311024        6.677772
 C         2.841831        1.042557       10.281157
 C         3.542887        1.631702        9.249105
 N         1.904673        0.164631        9.700831
 C         1.948576        0.238102        8.317730
 N         3.002083        1.102535        8.048891
 C         3.355568        1.232212        6.665152
 C         2.446836        0.651344        5.761333
 C         2.606556        0.898346        4.391339
 H         1.972010        0.407009        3.671106
 C         3.616156        1.753319        3.926331
 H         3.659622        2.007305        2.873094
 C         4.519072        2.314548        4.821184
 H         5.295576        2.968891        4.456256
 C         4.402243        2.042931        6.183784
 H         5.215109        2.326939        6.829762
 C         4.488205        2.627197        9.566541
 H         4.985437        3.190746        8.789833
 C         4.714600        3.010670       10.888506
 H         5.430826        3.788616       11.128546
 C         3.994066        2.393681       11.927284
 H         4.146757        2.685143       12.952090
 C         3.061604        1.403904       11.611281
 H         2.533123        0.904247       12.413308
 C         1.427345       -0.987873       10.416372
 C         2.112301       -2.200043       10.296075
 H         2.993082       -2.256481        9.669380
 C         1.638195       -3.342609       10.943125
 H         2.149801       -4.285053       10.812923
 C         0.473858       -3.281200       11.720717
 H         0.097105       -4.164722       12.205530
 C        -0.203518       -2.071514       11.852696
 H        -1.103926       -2.015823       12.449151
 C         0.271944       -0.915028       11.207728
 H        -0.227613        0.030655       11.356489
 C        -1.392515        3.378342        5.871225
 C        -1.897745        2.485744        4.964524
 N        -0.390675        2.725620        6.606263
 C        -0.235548        1.416187        6.184096
 N        -1.160864        1.273846        5.144563
 C        -1.060789        0.046921        4.398883
 C        -0.050522       -0.824848        4.816353
 C         0.199341       -1.988865        4.081012
 H         1.053114       -2.602112        4.312539
 C        -0.576881       -2.305729        2.958926
 H        -0.367971       -3.211933        2.399238
 C        -1.602163       -1.456085        2.555060
 H        -2.206999       -1.699825        1.696943
 C        -1.841476       -0.275658        3.269919
 H        -2.604097        0.389290        2.921696
 C        -2.944267        2.902775        4.105581
 H        -3.395185        2.241642        3.392714
 C        -3.427908        4.218868        4.168674
 H        -4.189003        4.547672        3.473888
 C        -2.875727        5.128624        5.074236
 H        -3.141409        6.173496        5.032305
 C        -1.871691        4.700153        5.941197
 H        -1.457037        5.408020        6.653302
 C         0.580778        3.468075        7.349590
 C         1.616568        4.108730        6.667823
 H         1.709162        3.994038        5.598444
 C         2.540514        4.897167        7.374706
 H         3.369617        5.332977        6.852056
 C         2.398092        5.063847        8.752977
 H         3.108068        5.675003        9.295581
 C         1.365417        4.414982        9.439542
 H         1.302050        4.496864       10.517216
 C         0.457439        3.624062        8.738889
 H        -0.331875        3.097267        9.267730
 C        -2.281406       -2.627033        8.707417
 C        -1.274744       -3.537884        8.476616
 N        -1.888872       -1.420574        8.118364
 C        -0.648027       -1.522488        7.513702
 N        -0.284851       -2.846272        7.724156
 C         0.978085       -3.238300        7.171882
 C         1.821148       -2.163811        6.836011
 C         3.177818       -2.424541        6.593373
 H         3.843948       -1.605618        6.352260
 C         3.692621       -3.718750        6.651731
 H         4.737814       -3.882542        6.443542
 C         2.843582       -4.785786        6.941678
 H         3.232798       -5.790627        6.971872
 C         1.484211       -4.552898        7.180149
 H         0.803257       -5.387005        7.196432
 C        -1.392206       -4.842030        9.011877
 H        -0.595104       -5.556236        8.899033
 C        -2.524870       -5.208225        9.746435
 H        -2.602747       -6.203365       10.159033
 C        -3.545343       -4.278481        9.955968
 H        -4.437901       -4.561893       10.509427
 C        -3.430040       -2.990742        9.435745
 H        -4.236883       -2.290455        9.551952
 C        -2.741266       -0.257900        8.054230
 C        -3.586382       -0.075809        6.954585
 H        -3.565783       -0.774960        6.141583
 C        -4.391964        1.056534        6.870736
 H        -5.000483        1.211803        5.988583
 C        -4.358656        2.023197        7.876940
 H        -4.944895        2.927586        7.782017
 C        -3.512188        1.855034        8.978671
 H        -3.494373        2.598431        9.759019
 C        -2.703497        0.714481        9.067319
 H        -2.049524        0.589542        9.909286
