206
 generated by VMD
 Ir        0.437189       -0.229652       -7.263527
 C         1.935736       -1.839600       -3.469074
 C         2.881710       -2.210003       -4.400600
 N         0.901625       -1.189041       -4.159786
 C         1.158390       -1.123337       -5.525017
 N         2.381277       -1.788342       -5.658840
 C         2.824125       -2.010723       -7.002132
 C         2.132839       -1.289703       -7.984402
 C         2.624659       -1.292786       -9.292912
 H         2.090349       -0.801380      -10.086407
 C         3.796526       -1.981247       -9.621021
 H         4.189335       -1.943504      -10.624851
 C         4.472456       -2.724613       -8.651577
 H         5.349390       -3.303322       -8.911358
 C         3.970547       -2.752949       -7.346401
 H         4.341572       -3.521645       -6.685001
 C         4.068071       -2.816814       -3.952801
 H         4.854225       -3.087784       -4.647957
 C         4.287832       -3.066513       -2.595798
 H         5.166019       -3.608772       -2.273537
 C         3.314934       -2.687675       -1.662338
 H         3.456028       -2.905193       -0.610260
 C         2.144318       -2.080856       -2.097801
 H         1.392248       -1.800823       -1.381298
 C        -0.359732       -0.853031       -3.539158
 C        -1.515589       -1.567474       -3.896183
 H        -1.447586       -2.374069       -4.599022
 C        -2.728235       -1.293671       -3.256638
 H        -3.620804       -1.816498       -3.576752
 C        -2.801035       -0.337471       -2.239643
 H        -3.730917       -0.149826       -1.733967
 C        -1.647785        0.367905       -1.879292
 H        -1.687107        1.106201       -1.099567
 C        -0.429928        0.112240       -2.525482
 H         0.449770        0.676170       -2.253792
 C         2.824808        3.426083       -7.456940
 C         2.110537        3.408382       -8.636856
 N         2.531885        2.220860       -6.791336
 C         1.648046        1.438541       -7.511677
 N         1.428949        2.167179       -8.674988
 C         0.653860        1.508945       -9.663807
 C        -0.101194        0.416580       -9.202885
 C        -0.956076       -0.231487      -10.106091
 H        -1.587099       -1.041573       -9.771023
 C        -1.034136        0.159046      -11.449371
 H        -1.674519       -0.378510      -12.123722
 C        -0.251780        1.220612      -11.912714
 H        -0.246641        1.476257      -12.956846
 C         0.586985        1.891029      -11.021351
 H         1.257532        2.649216      -11.406864
 C         2.138624        4.541084       -9.467098
 H         1.541819        4.595139      -10.359173
 C         2.891514        5.673359       -9.098431
 H         2.906416        6.533474       -9.749725
 C         3.608446        5.672935       -7.905701
 H         4.194090        6.526669       -7.615448
 C         3.572485        4.540226       -7.081631
 H         4.099852        4.559803       -6.133366
 C         3.282188        1.748066       -5.657398
 C         4.560522        1.228737       -5.861969
 H         4.991177        1.217548       -6.849243
 C         5.268063        0.680443       -4.786953
 H         6.262589        0.289612       -4.953602
 C         4.689779        0.629128       -3.514019
 H         5.205420        0.123814       -2.712917
 C         3.406561        1.135174       -3.319431
 H         2.919420        1.043045       -2.357346
 C         2.703522        1.719105       -4.383976
 H         1.709322        2.114784       -4.233948
 C        -3.363462        1.668190       -6.207279
 C        -3.709156        0.400837       -6.625397
 N        -1.953171        1.732357       -6.191139
 C        -1.392855        0.544052       -6.646748
 N        -2.485826       -0.284027       -6.873260
 C        -2.180384       -1.659252       -7.165760
 C        -0.827837       -1.935062       -7.400177
 C        -0.436251       -3.260742       -7.640469
 H         0.601824       -3.479950       -7.846489
 C        -1.362799       -4.296700       -7.641621
 H        -1.049120       -5.306473       -7.863560
 C        -2.715345       -4.020882       -7.407204
 H        -3.447617       -4.811451       -7.429291
 C        -3.120007       -2.713337       -7.166431
 H        -4.153082       -2.535236       -6.918163
 C        -5.077766        0.093910       -6.759567
 H        -5.406525       -0.879890       -7.085804
 C        -6.073757        1.045895       -6.477558
 H        -7.112127        0.793503       -6.595413
 C        -5.695932        2.322929       -6.068016
 H        -6.431231        3.099358       -5.940334
 C        -4.341112        2.629230       -5.916252
 H        -4.052410        3.620537       -5.603737
 C        -1.271746        2.765873       -5.455685
 C        -0.384741        3.614376       -6.117405
 H        -0.304365        3.572254       -7.192699
 C         0.273783        4.630386       -5.417564
 H         1.003141        5.249134       -5.926762
 C         0.012728        4.837746       -4.063076
 H         0.494326        5.662285       -3.542774
 C        -0.890726        4.006756       -3.396576
 H        -1.124962        4.181122       -2.351906
 C        -1.530518        2.977463       -4.087887
 H        -2.294737        2.394348       -3.599060
 Ir        0.437189       -0.229649        7.003223
 C        -3.586185        0.653477        8.457161
 C        -2.861147        1.782154        8.764088
 N        -2.701641       -0.285694        7.912064
 C        -1.406246        0.212227        7.847843
 N        -1.520979        1.500397        8.383339
 C        -0.312922        2.262802        8.430565
 C         0.838705        1.538704        8.079651
 C         2.108530        2.086517        8.372303
 H         2.986769        1.497490        8.175705
 C         2.225483        3.341537        8.968830
 H         3.188002        3.713989        9.264534
 C         1.075157        4.085018        9.253235
 H         1.169189        5.102753        9.635811
 C        -0.187506        3.554710        8.983868
 H        -1.030752        4.224220        9.006123
 C        -3.529892        2.880913        9.341846
 H        -3.010973        3.792641        9.587551
 C        -4.901964        2.824417        9.617393
 H        -5.400059        3.669624       10.058449
 C        -5.628901        1.669170        9.296684
 H        -6.678755        1.610462        9.517723
 C        -4.971008        0.583702        8.716557
 H        -5.532661       -0.292397        8.444317
 C        -3.041929       -1.675880        7.795078
 C        -2.875687       -2.511436        8.896126
 H        -2.325151       -2.163158        9.766193
 C        -3.407553       -3.804543        8.893913
 H        -3.316860       -4.426125        9.767132
 C        -4.121403       -4.262089        7.778309
 H        -4.532280       -5.262123        7.767612
 C        -4.289927       -3.430756        6.663960
 H        -4.857233       -3.766373        5.815296
 C        -3.750189       -2.137653        6.672340
 H        -3.898043       -1.490746        5.823425
 C         0.048145        2.055031        3.300709
 C         1.297346        1.483032        3.230587
 N        -0.461584        1.750031        4.567219
 C         0.417576        0.992409        5.325962
 N         1.519672        0.881790        4.503254
 C         2.675039        0.306870        5.104092
 C         2.427839       -0.399078        6.294987
 C         3.461973       -1.158279        6.839764
 H         3.295834       -1.686996        7.765102
 C         4.716110       -1.235130        6.228344
 H         5.515804       -1.777527        6.699398
 C         4.965582       -0.524960        5.050755
 H         5.932123       -0.556145        4.579346
 C         3.949736        0.270500        4.498852
 H         4.205244        0.976162        3.735073
 C         1.987623        1.476974        2.009285
 H         2.947206        1.008152        1.903431
 C         1.404058        2.055580        0.873348
 H         1.907026        1.982185       -0.076515
 C         0.148172        2.671658        0.968204
 H        -0.264769        3.184311        0.117107
 C        -0.528646        2.673492        2.188541
 H        -1.495451        3.152000        2.254978
 C        -1.760199        2.201534        4.992218
 C        -1.887615        3.419533        5.657391
 H        -1.004217        3.922974        6.037838
 C        -3.150656        3.988415        5.858658
 H        -3.259558        4.914108        6.402931
 C        -4.288559        3.335075        5.381447
 H        -5.255041        3.818428        5.431255
 C        -4.171942        2.103172        4.730064
 H        -5.036028        1.623325        4.308750
 C        -2.909231        1.529446        4.545422
 H        -2.814699        0.566246        4.068130
 C         0.329275       -4.172150        5.130615
 C         0.683868       -4.404819        6.429047
 N         0.039124       -2.796638        5.014500
 C         0.183197       -2.140701        6.224907
 N         0.542604       -3.160255        7.095676
 C         0.604662       -2.804722        8.475582
 C         0.784496       -1.433434        8.716251
 C         0.967154       -1.011948       10.039539
 H         1.139946        0.037971       10.240566
 C         0.924265       -1.912830       11.099438
 H         1.056717       -1.557014       12.113903
 C         0.704039       -3.271461       10.861664
 H         0.642044       -3.966187       11.686527
 C         0.537504       -3.715294        9.550220
 H         0.267550       -4.749577        9.375912
 C         1.142601       -5.680130        6.800190
 H         1.509392       -5.874531        7.791233
 C         1.228336       -6.704636        5.847752
 H         1.611879       -7.679684        6.136509
 C         0.844864       -6.462898        4.521320
 H         0.950853       -7.231983        3.770008
 C         0.385805       -5.192432        4.166809
 H         0.062712       -5.019135        3.152420
 C        -0.071060       -2.166328        3.728432
 C         1.087496       -2.035294        2.947159
 H         2.062326       -2.158333        3.405483
 C         0.990732       -1.769817        1.579113
 H         1.882437       -1.634224        0.992447
 C        -0.269850       -1.626301        0.982845
 H        -0.354490       -1.416603       -0.076435
 C        -1.425802       -1.748264        1.760792
 H        -2.384541       -1.758720        1.281933
 C        -1.321552       -1.991398        3.135498
 H        -2.215509       -2.020065        3.741245
