206
 generated by VMD
 Ir      120.188400      -48.652504       64.312683
 C       117.332382      -45.404434       65.099411
 C       117.282593      -45.640762       63.735271
 N       118.394897      -46.245857       65.585686
 C       118.892471      -47.048569       64.539986
 N       118.250900      -46.654419       63.426464
 C       118.934998      -46.982071       62.205448
 C       119.917389      -47.965328       62.320286
 C       120.524445      -48.433216       61.139282
 H       121.066086      -49.344437       61.137798
 C       120.153503      -47.873283       59.898163
 H       120.514511      -48.165077       58.900597
 C       119.212013      -46.861221       59.793118
 H       118.622673      -46.697006       58.954002
 C       118.582848      -46.422684       60.948639
 H       118.113968      -45.458183       60.857010
 C       116.317497      -44.979767       62.964119
 H       116.078423      -45.357437       61.989849
 C       115.317451      -44.120213       63.501499
 H       114.692352      -43.545921       62.841160
 C       115.480751      -43.846657       64.904747
 H       114.881645      -43.061565       65.313278
 C       116.457542      -44.513908       65.696495
 H       116.474060      -44.281635       66.772400
 C       119.004700      -46.044048       66.927292
 C       120.107010      -45.095337       67.036163
 H       120.609665      -44.694969       66.178009
 C       120.572815      -44.747044       68.334053
 H       121.432236      -44.083138       68.416672
 C       120.065765      -45.305065       69.511002
 H       120.620071      -45.374985       70.413208
 C       119.025894      -46.188824       69.430092
 H       118.655853      -46.651436       70.315460
 C       118.520851      -46.558048       68.143280
 H       117.634720      -47.149666       68.102615
 C       117.189590      -51.751610       63.452736
 C       118.394661      -52.452511       63.716228
 N       117.459869      -50.380569       63.569832
 C       118.808472      -50.159660       63.871445
 N       119.402344      -51.480164       63.895706
 C       120.829239      -51.517136       63.924072
 C       121.434769      -50.242279       63.719669
 C       122.818077      -50.170250       63.456276
 H       123.180710      -49.180202       63.225632
 C       123.626968      -51.311127       63.534382
 H       124.677216      -51.113564       63.619576
 C       123.053650      -52.599022       63.765083
 H       123.736221      -53.415154       64.018349
 C       121.628418      -52.641418       63.881630
 H       121.249580      -53.641518       64.035873
 C       118.318642      -53.844757       63.768867
 H       119.151459      -54.443489       64.143631
 C       117.148056      -54.627686       63.559734
 H       117.257347      -55.708206       63.422142
 C       116.004837      -53.855034       63.316887
 H       115.051010      -54.287666       63.183273
 C       115.996109      -52.500557       63.208641
 H       115.099915      -51.948303       62.918869
 C       116.385536      -49.435944       63.932442
 C       115.677612      -49.499352       65.106537
 H       116.089447      -49.917397       65.983932
 C       114.438004      -48.795765       65.285881
 H       113.995941      -48.624901       66.273346
 C       113.857193      -48.153496       64.179199
 H       112.952393      -47.593395       64.280281
 C       114.560669      -48.120522       62.949837
 H       114.109001      -47.806282       61.951862
 C       115.896393      -48.693668       62.842915
 H       116.421600      -48.671856       61.891026
 C       121.314079      -49.347191       68.444321
 C       122.059975      -48.239464       68.114349
 N       120.702301      -49.837631       67.326965
 C       121.004341      -49.015736       66.220276
 N       121.934143      -48.103745       66.678131
 C       122.415344      -47.208759       65.802650
 C       121.822441      -47.258659       64.546112
 C       122.213173      -46.390030       63.544067
 H       121.791023      -46.316570       62.538788
 C       123.147804      -45.372032       63.812870
 H       123.368713      -44.489296       63.193127
 C       123.789864      -45.287071       65.056992
 H       124.586838      -44.598442       65.235992
 C       123.479591      -46.204895       66.061546
 H       124.129486      -46.241379       66.905060
 C       122.688347      -47.587868       69.188675
 H       123.060028      -46.579346       69.070175
 C       122.626083      -48.046165       70.531799
 H       123.083450      -47.433136       71.351624
 C       122.014999      -49.276455       70.791725
 H       122.232475      -49.833641       71.746948
 C       121.310120      -49.869900       69.763931
 H       120.626816      -50.676777       69.999176
 C       120.056824      -51.173897       67.409164
 C       120.817047      -52.304947       67.008057
 H       121.887451      -52.267719       66.970016
 C       120.169327      -53.555046       66.938042
 H       120.677689      -54.470329       66.648331
 C       118.869598      -53.677094       67.366997
 H       118.355026      -54.602425       67.082062
 C       118.094437      -52.597946       67.707405
 H       117.076416      -52.730587       68.021774
 C       118.663857      -51.344849       67.677139
 H       118.060318      -50.502941       67.906357
 Ir      120.188400      -48.652500       78.000015
 C       117.362228      -50.444435       80.774513
 C       117.756104      -51.430603       79.935928
 N       118.256378      -49.396233       80.541367
 C       119.124420      -49.632046       79.486572
 N       118.869820      -51.002792       79.190720
 C       119.760315      -51.600609       78.290039
 C       120.232208      -50.639309       77.299171
 C       120.958847      -51.194439       76.232574
 H       121.337318      -50.515511       75.451782
 C       121.250702      -52.556511       76.119507
 H       121.848373      -52.953224       75.319870
 C       120.779221      -53.468079       77.115517
 H       121.014023      -54.526875       77.165756
 C       119.970711      -52.956429       78.161995
 H       119.666382      -53.576653       78.991333
 C       116.956879      -52.589661       79.853317
 H       117.234238      -53.385605       79.187180
 C       115.871323      -52.730492       80.698776
 H       115.239243      -53.609917       80.698410
 C       115.468521      -51.715523       81.551178
 H       114.618347      -51.806335       82.205368
 C       116.137741      -50.504822       81.514496
 H       115.734451      -49.690666       82.112000
 C       118.272705      -48.168747       81.365997
 C       118.780334      -48.265327       82.684738
 H       119.559738      -48.898830       82.894760
 C       118.443657      -47.268570       83.610596
 H       118.682022      -47.311050       84.700500
 C       117.648544      -46.154305       83.205849
 H       117.697342      -45.291245       83.935394
 C       117.174911      -46.091152       81.935349
 H       116.630379      -45.238052       81.527542
 C       117.503265      -47.065899       81.030602
 H       116.956711      -47.011192       80.099960
 C       124.211090      -49.201073       79.613602
 C       124.350128      -48.262867       78.600754
 N       122.900238      -49.668213       79.531387
 C       122.171753      -48.984924       78.584122
 N       123.085823      -48.191608       77.975830
 C       122.627838      -47.847446       76.650650
 C       121.272873      -47.946342       76.394547
 C       120.798111      -47.515762       75.109985
 H       119.746796      -47.640747       74.887192
 C       121.605743      -46.919174       74.177078
 H       121.232086      -46.509007       73.275612
 C       122.934998      -46.705059       74.487617
 H       123.555771      -46.012829       73.850067
 C       123.470139      -47.217968       75.649796
 H       124.501373      -47.050587       75.872574
 C       125.545044      -47.588882       78.364876
 H       125.561249      -46.642570       77.943771
 C       126.656509      -47.878654       79.209320
 H       127.620087      -47.453331       78.966171
 C       126.546982      -48.880726       80.215134
 H       127.296631      -49.301739       80.802734
 C       125.326965      -49.535954       80.388428
 H       125.272385      -50.339893       81.204697
 C       122.622681      -51.011845       79.946274
 C       121.776062      -51.256516       81.017853
 H       121.249535      -50.361618       81.331108
 C       121.664124      -52.561829       81.495987
 H       120.799286      -52.789337       82.092728
 C       122.412735      -53.613514       80.950790
 H       122.308258      -54.658207       81.396996
 C       123.264778      -53.371017       79.822067
 H       123.464005      -54.220490       79.057800
 C       123.318039      -52.065159       79.362831
 H       124.026840      -51.838451       78.572830
 C       119.850769      -44.377697       78.416367
 C       118.651314      -44.752140       77.973755
 N       120.559814      -45.563419       78.624939
 C       119.855255      -46.658871       78.347656
 N       118.664749      -46.149269       77.891586
 C       117.759392      -47.134636       77.363586
 C       118.310394      -48.395329       77.105042
 C       117.569519      -49.331219       76.377304
 H       117.999039      -50.163589       75.856476
 C       116.250031      -49.019463       75.939240
 H       115.794640      -49.532490       75.143799
 C       115.714767      -47.784325       76.268494
 H       114.680450      -47.507370       76.007568
 C       116.445724      -46.862564       76.997581
 H       115.931953      -46.046494       77.469032
 C       117.679543      -43.792244       77.617584
 H       116.671913      -44.042786       77.438705
 C       118.010468      -42.411415       77.615829
 H       117.233459      -41.717846       77.311005
 C       119.282646      -42.070942       78.089386
 H       119.648361      -41.079292       78.270187
 C       120.230232      -43.042267       78.518936
 H       121.140793      -42.724342       78.987015
 C       121.699432      -45.566223       79.569641
 C       121.524185      -45.863361       80.880180
 H       120.529846      -46.107426       81.239517
 C       122.581299      -45.711796       81.797195
 H       122.311295      -45.652901       82.803497
 C       123.828201      -45.173676       81.335190
 H       124.601395      -45.015030       82.090248
 C       123.981735      -44.856152       80.004318
 H       124.888992      -44.356087       79.684738
 C       122.908310      -45.076744       79.133865
 H       123.037483      -44.902740       78.122849
