206
 generated by VMD
 Ir        4.338968     -112.732285       73.082306
 C         1.222120     -109.890160       74.173996
 C         1.482715     -109.575958       72.886566
 N         2.013855     -111.026543       74.535614
 C         2.812002     -111.414825       73.452286
 N         2.565797     -110.468735       72.442291
 C         3.291660     -110.592819       71.263168
 C         4.299564     -111.583649       71.344284
 C         5.224302     -111.709541       70.327477
 H         6.006050     -112.395859       70.431541
 C         5.063362     -110.943695       69.150627
 H         5.731571     -111.200500       68.319153
 C         4.073308     -109.973145       69.017838
 H         4.054231     -109.345428       68.160980
 C         3.199682     -109.811317       70.096252
 H         2.236164     -109.311646       69.867203
 C         0.729431     -108.535339       72.318420
 H         0.946321     -108.256561       71.279465
 C        -0.163403     -107.773758       73.057983
 H        -0.823601     -107.175781       72.430634
 C        -0.290732     -108.052795       74.381508
 H        -0.904425     -107.429352       74.981430
 C         0.359678     -109.134476       75.003777
 H         0.105768     -109.288986       76.033417
 C         1.997232     -111.554108       75.925293
 C         1.311321     -112.637810       76.164108
 H         0.971647     -113.262749       75.339920
 C         1.036935     -113.043411       77.500076
 H         0.534235     -113.966393       77.673279
 C         1.459848     -112.288551       78.588440
 H         1.028303     -112.487991       79.553055
 C         2.163412     -111.122185       78.298096
 H         2.787502     -110.558624       78.965942
 C         2.498422     -110.764084       76.978500
 H         2.960901     -109.763565       76.861595
 C         1.984930     -115.850960       71.248459
 C         3.346300     -116.274406       71.031532
 N         2.061334     -114.582100       71.757919
 C         3.330469     -114.190605       72.054276
 N         4.135664     -115.312134       71.584457
 C         5.566310     -115.174828       71.895119
 C         5.920206     -113.915222       72.455688
 C         7.291469     -113.653397       72.559540
 H         7.633518     -112.932182       73.306107
 C         8.299957     -114.541550       72.172844
 H         9.264919     -114.179321       72.160782
 C         7.878541     -115.812965       71.626480
 H         8.585897     -116.627411       71.573227
 C         6.495845     -116.042694       71.480919
 H         6.171989     -116.797028       70.821381
 C         3.582412     -117.510422       70.394577
 H         4.514572     -117.633217       69.915192
 C         2.505861     -118.301689       70.075912
 H         2.688293     -119.150269       69.442490
 C         1.186800     -117.952957       70.298080
 H         0.308115     -118.620720       70.142509
 C         0.933002     -116.717957       70.948685
 H        -0.074580     -116.543571       71.246277
 C         0.876014     -113.763779       71.851616
 C        -0.106943     -114.019676       72.837570
 H        -0.046952     -114.891830       73.523895
 C        -1.309115     -113.279160       72.969528
 H        -1.910952     -113.389496       73.888733
 C        -1.594427     -112.209045       72.116028
 H        -2.442065     -111.576630       72.252289
 C        -0.643973     -111.865852       71.167801
 H        -0.818447     -110.954155       70.519287
 C         0.526235     -112.691872       71.009972
 H         1.225000     -112.531982       70.205444
 C         4.092931     -114.730659       76.973236
 C         4.856655     -113.569923       77.280685
 N         3.927469     -114.818253       75.572502
 C         4.468181     -113.706070       74.927849
 N         5.104597     -112.968170       75.939865
 C         5.778749     -111.839554       75.520653
 C         5.576784     -111.447533       74.211250
 C         6.295808     -110.373093       73.706879
 H         6.269800     -110.169533       72.640640
 C         7.249900     -109.670135       74.461105
 H         7.528795     -108.738426       74.005875
 C         7.453474     -110.052399       75.744003
 H         8.082350     -109.405144       76.307098
 C         6.794746     -111.131714       76.340790
 H         7.045856     -111.432854       77.347000
 C         5.288915     -113.291321       78.601837
 H         5.570552     -112.295662       78.902382
 C         5.006490     -114.167557       79.628220
 H         5.208662     -113.831703       80.684830
 C         4.245008     -115.292351       79.319031
 H         4.217809     -116.008392       80.072662
 C         3.772878     -115.590462       78.003387
 H         3.089410     -116.384041       77.798210
 C         3.727083     -116.021133       74.943985
 C         4.818157     -116.751122       74.771446
 H         5.778295     -116.361160       75.041000
 C         4.760257     -118.068512       74.260338
 H         5.621215     -118.657028       74.012756
 C         3.523969     -118.617142       73.862839
 H         3.484064     -119.477783       73.211533
 C         2.327764     -117.909737       74.065994
 H         1.403669     -118.380325       73.844406
 C         2.440649     -116.592346       74.648346
 H         1.525507     -115.998955       74.811440
 Ir        4.338964     -112.732285       87.444443
 C         3.936445     -110.633980       91.279297
 C         4.660066     -109.846596       90.480850
 N         3.668203     -111.808617       90.513672
 C         4.284994     -111.756058       89.279770
 N         4.955122     -110.565033       89.343658
 C         5.929082     -110.316841       88.301498
 C         5.695722     -111.095581       87.193176
 C         6.509893     -110.912605       86.034317
 H         6.292882     -111.519836       85.216537
 C         7.554224     -109.970390       86.036804
 H         8.169079     -109.855171       85.120193
 C         7.723737     -109.136436       87.169144
 H         8.593130     -108.572403       87.180305
 C         6.838335     -109.289375       88.281906
 H         6.921857     -108.559937       89.038498
 C         4.920702     -108.569527       90.936554
 H         5.344202     -107.863518       90.256042
 C         4.462415     -108.138123       92.199707
 H         4.562849     -107.109840       92.539032
 C         3.892221     -109.065186       93.069214
 H         3.560819     -108.778854       94.082863
 C         3.569337     -110.277298       92.611023
 H         3.237821     -111.025925       93.334236
 C         2.663106     -112.725143       90.923019
 C         1.386427     -112.197716       91.213547
 H         1.008962     -111.450584       90.582733
 C         0.521650     -112.981506       92.019867
 H        -0.537077     -112.761414       92.217972
 C         0.841116     -114.297592       92.430161
 H        -0.009257     -114.971512       92.530640
 C         2.044496     -114.852234       92.057266
 H         2.261590     -115.889000       91.952888
 C         2.976938     -114.020950       91.400833
 H         4.001951     -114.342201       91.253998
 C         1.346815     -110.572464       85.092529
 C         1.675127     -111.621582       84.295990
 N         2.142999     -110.602753       86.246506
 C         2.965898     -111.718109       86.217758
 N         2.740842     -112.352051       85.065125
 C         3.598234     -113.309517       84.719238
 C         4.688039     -113.526230       85.558197
 C         5.872827     -114.258545       85.111221
 H         6.813062     -113.930191       85.636139
 C         5.768362     -114.932037       83.928680
 H         6.667329     -115.301559       83.424393
 C         4.547891     -114.809021       83.228455
 H         4.561212     -115.300987       82.270798
 C         3.479162     -114.052063       83.585861
 H         2.550748     -114.174507       83.077087
 C         0.805917     -111.939178       83.160477
 H         0.912832     -112.875557       82.686386
 C        -0.378256     -111.215614       82.962753
 H        -1.066931     -111.450790       82.155289
 C        -0.709784     -110.158791       83.799667
 H        -1.578917     -109.687111       83.573563
 C         0.213579     -109.794220       84.767075
 H         0.058260     -108.810333       85.240631
 C         2.078355     -109.542862       87.319550
 C         3.068830     -108.608597       87.376221
 H         3.965921     -108.694412       86.810226
 C         2.984613     -107.682716       88.413849
 H         3.786588     -106.958725       88.540192
 C         1.996370     -107.571472       89.391251
 H         2.032732     -107.074623       90.398972
 C         0.990778     -108.486221       89.257828
 H         0.100778     -108.471268       89.805717
 C         1.002996     -109.495789       88.237869
 H         0.399629     -110.342255       88.425606
 C         1.749464     -116.063934       88.748108
 C         3.051179     -116.394165       89.120377
 N         1.867319     -114.890121       87.911888
 C         3.203454     -114.428032       87.853378
 N         3.962984     -115.378525       88.568283
 C         5.383665     -115.289505       88.671890
 C         5.801313     -113.929527       88.450638
 C         7.180143     -113.691071       88.599174
 H         7.549882     -112.764236       88.275940
 C         8.067141     -114.624374       89.026230
 H         9.064699     -114.150467       89.064804
 C         7.699949     -115.920158       89.259079
 H         8.471128     -116.705582       89.371307
 C         6.335310     -116.273132       89.061691
 H         6.069280     -117.235657       89.355423
 C         3.237173     -117.582886       89.924202
 H         4.165082     -117.842995       90.344948
 C         2.092947     -118.302483       90.314606
 H         2.275583     -119.102493       90.982086
 C         0.782716     -117.986893       89.974182
 H        -0.018763     -118.715240       90.163223
 C         0.657045     -116.914474       89.085899
 H        -0.445086     -116.750366       88.989090
 C         0.769819     -114.263885       87.306229
 C         0.201772     -114.707047       86.089874
 H         0.857877     -115.263214       85.381424
 C        -1.097735     -114.286446       85.690636
 H        -1.564925     -114.822289       84.876450
 C        -1.777129     -113.348740       86.492844
 H        -2.619910     -112.855499       86.170609
 C        -1.182238     -112.890945       87.701118
 H        -1.379355     -111.923492       88.067978
 C         0.030962     -113.398064       88.040649
 H         0.565874     -112.953377       88.840469
