206
 generated by VMD
 Ir        0.256241        0.297617       -7.584979
 C         4.371502        0.977408       -6.271725
 C         4.165733        1.907869       -7.270878
 N         3.155453        0.304510       -6.067439
 C         2.161858        0.769921       -6.919065
 N         2.803520        1.770611       -7.647213
 C         1.974895        2.489594       -8.557898
 C         0.821426        1.805875       -8.951661
 C         0.017147        2.376386       -9.947573
 H        -0.770466        1.799473      -10.398284
 C         0.286495        3.648049      -10.457397
 H        -0.377769        4.087095      -11.179607
 C         1.406113        4.360480      -10.009504
 H         1.617138        5.349220      -10.379862
 C         2.258163        3.771468       -9.066281
 H         3.062290        4.359018       -8.642295
 C         5.222317        2.721163       -7.693711
 H         5.112938        3.381045       -8.538927
 C         6.481899        2.613568       -7.089087
 H         7.299534        3.231783       -7.430392
 C         6.686535        1.672896       -6.075996
 H         7.660664        1.572524       -5.611234
 C         5.639103        0.850031       -5.673769
 H         5.818462        0.072951       -4.951702
 C         3.042221       -0.839531       -5.193279
 C         3.762238       -2.003898       -5.492487
 H         4.351101       -2.061899       -6.397789
 C         3.705967       -3.106880       -4.626657
 H         4.247391       -4.004723       -4.881485
 C         2.937374       -3.045282       -3.468008
 H         2.876347       -3.915329       -2.819246
 C         2.203445       -1.891127       -3.170238
 H         1.575260       -1.853333       -2.297274
 C         2.259708       -0.788145       -4.036068
 H         1.659962        0.079492       -3.836792
 C        -2.284481        3.147597       -5.460984
 C        -3.112568        2.586658       -6.398122
 N        -1.000107        2.621410       -5.670042
 C        -0.972542        1.746337       -6.746047
 N        -2.287022        1.750968       -7.201047
 C        -2.544865        0.952249       -8.351944
 C        -1.577930       -0.048953       -8.583282
 C        -1.876026       -1.071676       -9.492719
 H        -1.167381       -1.868048       -9.652464
 C        -3.082146       -1.091918      -10.193769
 H        -3.323395       -1.937456      -10.825406
 C        -4.009666       -0.069439      -10.008188
 H        -4.923454       -0.046702      -10.575082
 C        -3.733337        0.952857       -9.093659
 H        -4.404247        1.801351       -9.043279
 C        -4.498722        2.853331       -6.351528
 H        -5.173874        2.391515       -7.038687
 C        -5.008312        3.691582       -5.356066
 H        -6.082729        3.842978       -5.282456
 C        -4.158955        4.282942       -4.423607
 H        -4.549400        4.986773       -3.696163
 C        -2.786720        4.006057       -4.471638
 H        -2.126297        4.507650       -3.785236
 C         0.135658        3.019430       -4.884535
 C         1.152500        3.774445       -5.482363
 H         0.994576        4.205233       -6.456263
 C         2.342548        3.994640       -4.793970
 H         3.145023        4.534368       -5.265697
 C         2.513977        3.489601       -3.493259
 H         3.452431        3.608111       -2.985857
 C         1.481106        2.774150       -2.882105
 H         1.599586        2.402281       -1.875439
 C         0.284824        2.543956       -3.578327
 H        -0.533524        2.033796       -3.093414
 C        -0.791924       -3.104756       -5.062935
 C         0.193214       -3.597537       -5.881451
 N        -1.031960       -1.783136       -5.448559
 C        -0.237442       -1.405688       -6.498729
 N         0.523026       -2.539635       -6.779539
 C         1.367088       -2.439987       -7.935882
 C         1.218155       -1.252147       -8.670224
 C         1.816563       -1.155062       -9.934494
 H         1.625168       -0.279712      -10.542546
 C         2.589947       -2.195614      -10.447058
 H         3.021568       -2.104931      -11.442737
 C         2.787025       -3.352821       -9.700715
 H         3.396286       -4.157698      -10.089913
 C         2.189110       -3.479900       -8.436849
 H         2.484467       -4.293771       -7.811171
 C         0.661182       -4.903183       -5.659205
 H         1.479355       -5.312172       -6.221987
 C         0.116817       -5.696269       -4.634863
 H         0.466030       -6.702838       -4.482962
 C        -0.890419       -5.183920       -3.810986
 H        -1.341183       -5.801709       -3.059422
 C        -1.344303       -3.878059       -4.031923
 H        -2.126404       -3.489493       -3.395111
 C        -2.136353       -1.018284       -4.920994
 C        -3.344753       -0.978752       -5.607145
 H        -3.440071       -1.477326       -6.568051
 C        -4.442413       -0.314090       -5.059174
 H        -5.388260       -0.292419       -5.586437
 C        -4.325443        0.321037       -3.817230
 H        -5.175804        0.831284       -3.383720
 C        -3.110653        0.281505       -3.123388
 H        -3.023499        0.729664       -2.142694
 C        -2.011696       -0.382943       -3.685438
 H        -1.082035       -0.435247       -3.131727
 Ir        0.256237        0.297616        7.080469
 C         1.118919       -3.771574        5.791643
 C         0.994045       -3.862257        7.156515
 N         1.024128       -2.408042        5.441362
 C         0.808659       -1.636788        6.569479
 N         0.852386       -2.530673        7.625254
 C         0.972507       -1.936176        8.916588
 C         0.712814       -0.550760        8.963335
 C         0.836838        0.124785       10.183823
 H         0.674744        1.181769       10.227495
 C         1.208557       -0.555092       11.344116
 H         1.291740       -0.016314       12.276100
 C         1.496078       -1.920085       11.300247
 H         1.833530       -2.436798       12.189983
 C         1.377335       -2.605628       10.085781
 H         1.687599       -3.640270       10.049015
 C         1.035492       -5.120082        7.759146
 H         0.791367       -5.248409        8.807062
 C         1.251579       -6.276371        6.994553
 H         1.314037       -7.242128        7.475710
 C         1.385273       -6.175263        5.609343
 H         1.567089       -7.054391        5.016235
 C         1.315662       -4.917866        5.004112
 H         1.392948       -4.841875        3.925800
 C         1.700176       -1.900836        4.268591
 C         3.088650       -1.768241        4.285080
 H         3.640240       -1.991606        5.191921
 C         3.769646       -1.331446        3.147209
 H         4.838226       -1.214184        3.169456
 C         3.049232       -1.017249        1.977602
 H         3.577007       -0.786170        1.071047
 C         1.652740       -1.130063        1.967779
 H         1.093987       -0.787579        1.118896
 C         0.978462       -1.586853        3.113068
 H        -0.097965       -1.694331        3.097343
 C        -3.950695       -0.256783        8.196615
 C        -3.738678        1.095684        8.293488
 N        -2.732761       -0.851460        7.795740
 C        -1.739174        0.107105        7.646273
 N        -2.375202        1.302745        7.953703
 C        -1.558029        2.466994        7.911812
 C        -0.183300        2.189469        7.913713
 C         0.716331        3.210123        8.232347
 H         1.758488        2.975331        8.367554
 C         0.264240        4.520006        8.451950
 H         0.969498        5.298580        8.685064
 C        -1.096458        4.808808        8.373388
 H        -1.441219        5.831959        8.477818
 C        -2.006546        3.797513        8.089443
 H        -3.015732        4.064645        7.822830
 C        -4.802906        1.923084        8.683664
 H        -4.668121        2.983696        8.818703
 C        -6.069820        1.378448        8.956221
 H        -6.864594        2.020798        9.304539
 C        -6.264828        0.006626        8.832218
 H        -7.241547       -0.422060        9.019678
 C        -5.201900       -0.820987        8.456123
 H        -5.368744       -1.882666        8.360720
 C        -2.516327       -2.269855        7.914946
 C        -2.313324       -2.824031        9.189415
 H        -2.116596       -2.172077       10.027067
 C        -2.343414       -4.207131        9.357431
 H        -2.186962       -4.628135       10.345547
 C        -2.585163       -5.056478        8.271168
 H        -2.638386       -6.119438        8.406391
 C        -2.774094       -4.502090        6.998001
 H        -2.985062       -5.144260        6.159185
 C        -2.742870       -3.108779        6.816042
 H        -2.856918       -2.697133        5.831694
 C        -0.094746        2.016958        3.068665
 C         1.210976        2.243556        3.426933
 N        -0.728275        1.421267        4.180101
 C         0.142338        1.251091        5.237911
 N         1.335438        1.787224        4.766663
 C         2.430878        1.742784        5.676678
 C         2.271748        0.805922        6.705986
 C         3.396545        0.394340        7.435595
 H         3.301571       -0.367653        8.187973
 C         4.654495        0.938762        7.167887
 H         5.514240        0.545681        7.688675
 C         4.802498        1.924759        6.189436
 H         5.749660        2.432147        6.062939
 C         3.693245        2.326770        5.446909
 H         3.773441        3.196817        4.821220
 C         2.085613        2.800963        2.479202
 H         3.119473        2.984795        2.712317
 C         1.631641        3.121136        1.192234
 H         2.293312        3.601731        0.486460
 C         0.296787        2.873903        0.845165
 H        -0.078861        3.151097       -0.129847
 C        -0.570168        2.316708        1.786509
 H        -1.602081        2.173294        1.525776
 C        -2.147449        1.276753        4.267126
 C        -2.913311        2.327517        4.773438
 H        -2.465813        3.293060        4.921684
 C        -4.261402        2.120883        5.100447
 H        -4.803608        2.885127        5.615950
 C        -4.841049        0.863912        4.892981
 H        -5.848946        0.682822        5.223352
 C        -4.086834       -0.176641        4.357340
 H        -4.508434       -1.162179        4.239590
 C        -2.732338        0.029994        4.038023
 H        -2.166515       -0.774669        3.580900
