206
 generated by VMD
 Ir       92.962341      140.673706      -21.467533
 C        96.825104      138.648361      -20.975487
 C        96.119171      138.440964      -19.826893
 N        95.953423      139.375870      -21.849731
 C        94.748566      139.629990      -21.225521
 N        94.841576      138.969910      -20.031223
 C        93.763428      139.162476      -19.116055
 C        92.787369      140.102081      -19.449730
 C        91.732056      140.409729      -18.568274
 H        90.937561      141.052948      -18.791109
 C        91.660736      139.832336      -17.327534
 H        90.821136      140.132751      -16.630234
 C        92.583252      138.871994      -16.952587
 H        92.583710      138.526505      -15.853525
 C        93.598167      138.506409      -17.830763
 H        94.151337      137.555420      -17.724314
 C        96.643768      137.524643      -18.879925
 H        96.449493      137.754395      -17.853441
 C        97.734360      136.726471      -19.210995
 H        97.807724      135.874237      -18.635475
 C        98.375252      136.806458      -20.423164
 H        99.006027      136.044678      -20.775173
 C        97.923370      137.815399      -21.277735
 H        98.594246      138.047272      -22.120266
 C        96.509804      140.066589      -23.010014
 C        96.641602      141.452850      -23.026779
 H        96.533379      141.970703      -22.070997
 C        97.047478      142.050049      -24.187012
 H        97.361404      143.077026      -24.099602
 C        97.195541      141.357834      -25.384684
 H        97.440048      141.843811      -26.289192
 C        97.113914      139.962463      -25.367987
 H        97.407059      139.419724      -26.253868
 C        96.783325      139.340393      -24.146816
 H        96.687393      138.251312      -24.200697
 C        90.310661      137.636337      -23.150734
 C        89.505714      138.691162      -22.877413
 N        91.532852      137.941956      -22.514080
 C        91.551613      139.239929      -22.007084
 N        90.331741      139.725128      -22.303890
 C        90.059395      141.024139      -22.040737
 C        91.090965      141.607697      -21.281515
 C        90.819138      142.830200      -20.656363
 H        91.625069      143.313782      -20.082596
 C        89.532959      143.421097      -20.755863
 H        89.321449      144.406342      -20.377642
 C        88.573303      142.948486      -21.535656
 H        87.521698      143.281799      -21.436077
 C        88.821381      141.705383      -22.238335
 H        88.145493      141.347015      -23.052931
 C        88.142914      138.596024      -23.021301
 H        87.431381      139.340271      -22.540567
 C        87.537704      137.427063      -23.473122
 H        86.467255      137.263397      -23.756769
 C        88.364807      136.384674      -23.772026
 H        87.965721      135.539398      -24.290512
 C        89.711853      136.491333      -23.558002
 H        90.289246      135.596527      -23.379763
 C        92.414841      136.878983      -22.134258
 C        93.711533      136.811798      -22.654438
 H        94.041176      137.568222      -23.373156
 C        94.651917      136.058044      -22.007105
 H        95.728111      136.027145      -22.407425
 C        94.374741      135.412033      -20.825611
 H        95.126793      135.091827      -20.083591
 C        93.062172      135.370026      -20.356678
 H        92.823593      134.872406      -19.401878
 C        92.068100      136.179169      -20.961000
 H        91.114517      136.445862      -20.464872
 C        93.787888      142.229874      -25.429770
 C        93.975342      143.313202      -24.654295
 N        93.281685      141.158875      -24.637808
 C        93.215393      141.510010      -23.335840
 N        93.597107      142.900421      -23.341307
 C        94.022141      143.388977      -22.035561
 C        94.041794      142.457672      -21.048508
 C        94.663757      142.790726      -19.819839
 H        94.624840      141.988800      -19.098164
 C        95.140884      144.012817      -19.519588
 H        95.383133      144.341995      -18.555296
 C        95.060425      144.971420      -20.499128
 H        95.695724      145.836243      -20.415522
 C        94.509499      144.700439      -21.737698
 H        94.214996      145.455124      -22.431044
 C        94.501099      144.545319      -25.194544
 H        94.826157      145.222275      -24.384188
 C        94.721909      144.661865      -26.545639
 H        95.122971      145.524796      -27.033371
 C        94.465439      143.582672      -27.335884
 H        94.230965      143.791534      -28.395264
 C        94.044060      142.343994      -26.845238
 H        93.672386      141.562546      -27.453583
 C        92.666862      140.025635      -25.217424
 C        93.408394      138.941223      -25.696911
 H        94.497337      138.778915      -25.516739
 C        92.781647      137.929749      -26.376186
 H        93.353714      137.207840      -26.869125
 C        91.456085      138.019409      -26.730230
 H        90.989258      137.285187      -27.401936
 C        90.652008      139.078247      -26.344727
 H        89.672394      139.218475      -26.757627
 C        91.311737      140.106171      -25.578045
 H        90.819702      141.051941      -25.450317
 Ir       92.962341      140.673706       -7.474607
 C        95.396011      138.307510      -10.243521
 C        96.118622      138.394104       -9.141418
 N        94.195129      139.047882      -10.036127
 C        94.146942      139.520660       -8.710125
 N        95.325165      139.089783       -8.149286
 C        95.418549      139.221466       -6.714105
 C        94.598236      140.256226       -6.252738
 C        94.887512      140.787872       -5.004547
 H        94.516335      141.750900       -4.759803
 C        95.716888      140.101685       -4.103818
 H        95.669220      140.216370       -3.029773
 C        96.458687      138.985840       -4.586641
 H        97.057602      138.546417       -3.812429
 C        96.355621      138.536240       -5.903390
 H        97.050308      137.853271       -6.423629
 C        97.405006      137.915070       -9.167166
 H        97.971878      137.946381       -8.246416
 C        97.977859      137.300598      -10.283529
 H        99.010468      136.872803      -10.273495
 C        97.220490      137.341522      -11.451441
 H        97.540848      136.750748      -12.301943
 C        95.885101      137.726227      -11.439770
 H        95.238968      137.564850      -12.250061
 C        93.206009      139.349487      -11.191971
 C        93.579086      139.952423      -12.319170
 H        94.654694      140.015579      -12.467005
 C        92.645020      140.336578      -13.289404
 H        92.894997      140.699341      -14.260860
 C        91.310074      140.085556      -13.160486
 H        90.629349      140.436401      -13.915741
 C        90.892624      139.435394      -11.981333
 H        89.825623      139.242966      -11.693432
 C        91.835709      139.100861      -10.998680
 H        91.522812      138.918488       -9.993971
 C        90.841606      137.547516       -5.097194
 C        90.686890      138.668182       -4.431861
 N        91.630554      137.883240       -6.279546
 C        91.935303      139.223206       -6.325405
 N        91.424477      139.684479       -5.108642
 C        91.349846      141.096161       -4.932168
 C        91.939285      141.825684       -6.005840
 C        91.696327      143.201263       -6.102239
 H        92.426857      143.880463       -6.569890
 C        90.718628      143.827637       -5.311243
 H        90.547775      144.875488       -5.430343
 C        90.200455      143.106400       -4.250009
 H        89.753159      143.722870       -3.442239
 C        90.513161      141.806839       -4.024929
 H        90.108574      141.361389       -3.125989
 C        89.907478      138.560883       -3.243494
 H        89.721481      139.333099       -2.563663
 C        89.418030      137.276718       -2.779224
 H        88.966476      137.143188       -1.796592
 C        89.698090      136.122192       -3.504936
 H        89.348343      135.191559       -3.154241
 C        90.363602      136.271652       -4.650249
 H        90.331352      135.472137       -5.360408
 C        92.104019      136.906021       -7.161968
 C        93.339737      136.310837       -6.936229
 H        94.049896      136.671722       -6.172800
 C        93.656006      135.113098       -7.491292
 H        94.700600      134.706726       -7.382272
 C        92.878540      134.558838       -8.536116
 H        93.259979      133.698853       -9.151911
 C        91.703445      135.225342       -8.889681
 H        91.341919      135.007904       -9.867750
 C        91.293213      136.420410       -8.167097
 H        90.385269      136.877380       -8.352077
 C        89.816124      142.092331      -10.104246
 C        90.955765      142.686310      -10.544357
 N        90.122894      141.336319       -8.947380
 C        91.472687      141.468521       -8.644253
 N        91.952110      142.403976       -9.599644
 C        93.264832      142.991409       -9.333925
 C        93.970474      142.347260       -8.269718
 C        95.186806      142.852524       -7.806863
 H        95.675125      142.538757       -6.907035
 C        95.744644      143.998734       -8.494049
 H        96.613693      144.534637       -8.078651
 C        95.111679      144.516296       -9.588160
 H        95.553711      145.298279      -10.208815
 C        93.891434      144.044083      -10.003132
 H        93.354530      144.616791      -10.799530
 C        90.905106      143.448212      -11.765804
 H        91.837578      143.647461      -12.249033
 C        89.667664      143.619354      -12.461311
 H        89.639771      144.021851      -13.470383
 C        88.525291      143.174164      -11.865143
 H        87.534424      143.373138      -12.263124
 C        88.633743      142.390869      -10.736975
 H        87.724319      142.011246      -10.290264
 C        89.166397      140.650955       -8.170210
 C        88.840675      139.374390       -8.604292
 H        89.013550      139.015503       -9.614397
 C        88.100029      138.516022       -7.767320
 H        87.621872      137.607712       -8.177750
 C        87.823082      138.903534       -6.465927
 H        87.496582      138.306763       -5.662906
 C        88.167252      140.171799       -6.012083
 H        88.039841      140.407318       -4.944419
 C        88.851410      141.037674       -6.894346
 H        89.212929      142.007385       -6.652814
