206
 generated by VMD
 Ir       45.803589       17.809902     -102.765915
 C        43.049805       16.770493     -105.955902
 C        42.335518       16.594723     -104.749260
 N        44.343739       17.073812     -105.642014
 C        44.476669       17.163141     -104.215714
 N        43.225639       16.895184     -103.692513
 C        43.084915       16.787437     -102.274918
 C        44.303421       16.865005     -101.624359
 C        44.344337       16.554762     -100.206795
 H        45.286148       16.699232      -99.736137
 C        43.195560       16.163181      -99.524979
 H        43.139652       16.231342      -98.449234
 C        41.944229       16.047287     -100.194336
 H        41.051693       16.037663      -99.557800
 C        41.877922       16.385113     -101.575920
 H        40.984634       16.226904     -102.135208
 C        40.903751       16.384018     -104.814499
 H        40.232071       16.395672     -103.963318
 C        40.255943       16.423416     -106.019150
 H        39.244759       16.761831     -106.108490
 C        40.963211       16.617575     -107.203163
 H        40.412918       16.815504     -108.135315
 C        42.354504       16.748520     -107.138687
 H        42.905342       16.894167     -108.062355
 C        45.370590       16.912609     -106.553101
 C        45.724983       18.088924     -107.288284
 H        44.941868       18.784040     -107.481781
 C        47.015335       18.107742     -107.967941
 H        47.387623       18.977104     -108.496826
 C        47.904022       17.039198     -107.888916
 H        48.836594       17.002739     -108.453529
 C        47.520836       15.952612     -107.142792
 H        48.224487       15.148710     -107.088753
 C        46.252785       15.867881     -106.521942
 H        46.050072       15.066652     -105.858887
 C        44.241951       21.742271     -101.779938
 C        45.297211       21.634848     -100.919312
 N        44.041351       20.505653     -102.365974
 C        45.004639       19.557308     -102.034584
 N        45.791618       20.282814     -101.143066
 C        46.870300       19.519917     -100.630585
 C        46.983040       18.188038     -101.064156
 C        47.769966       17.270058     -100.321823
 H        47.615646       16.165722     -100.417900
 C        48.564209       17.749199      -99.227936
 H        49.009098       17.115028      -98.477661
 C        48.607967       19.098026      -98.905350
 H        49.223495       19.575939      -98.161835
 C        47.720402       19.996841      -99.645660
 H        47.788300       21.023634      -99.442719
 C        45.608490       22.697111     -100.038055
 H        46.444664       22.782322      -99.304672
 C        44.808659       23.824593      -99.982803
 H        45.134193       24.650785      -99.294083
 C        43.758766       23.884493     -100.878265
 H        43.274258       24.842487     -100.879074
 C        43.435104       22.843719     -101.776382
 H        42.695045       22.860533     -102.545174
 C        43.062073       20.465961     -103.410408
 C        41.699196       20.176727     -103.116638
 H        41.484711       19.764887     -102.168388
 C        40.781742       20.105576     -104.151688
 H        39.850334       19.724392     -104.024872
 C        41.137383       20.524605     -105.472794
 H        40.480843       20.514608     -106.295502
 C        42.464439       20.791574     -105.733078
 H        42.634331       21.116011     -106.712509
 C        43.459709       20.723148     -104.719543
 H        44.379395       20.324459     -105.007164
 C        49.000977       19.501179     -105.233063
 C        49.452362       18.141075     -104.955643
 N        47.663696       19.642761     -104.676163
 C        47.347702       18.477192     -103.955475
 N        48.476646       17.635067     -104.113953
 C        48.303604       16.312304     -103.455353
 C        46.951149       16.072918     -103.159088
 C        46.568039       14.761328     -103.007591
 H        45.613396       14.575561     -102.680099
 C        47.550591       13.747390     -103.129333
 H        47.191593       12.711294     -103.172043
 C        48.871651       14.046488     -103.285065
 H        49.544037       13.134574     -103.387085
 C        49.265907       15.347334     -103.428795
 H        50.230682       15.702054     -103.086472
 C        50.560661       17.594601     -105.563858
 H        50.696075       16.503227     -105.607124
 C        51.273308       18.354506     -106.410675
 H        52.324364       18.077566     -106.473755
 C        50.879822       19.695446     -106.707573
 H        51.417358       20.341698     -107.357353
 C        49.737267       20.324780     -106.128693
 H        49.404533       21.318216     -106.349762
 C        47.122955       20.954247     -104.570763
 C        47.377926       21.762505     -103.509491
 H        48.014103       21.461884     -102.688141
 C        46.977570       23.103123     -103.410721
 H        47.239796       23.735237     -102.667915
 C        46.234116       23.646336     -104.502144
 H        45.749275       24.663269     -104.356583
 C        45.951180       22.832760     -105.620773
 H        45.535706       23.217791     -106.526169
 C        46.447422       21.488266     -105.682236
 H        46.575737       21.111708     -106.670547
 Ir       45.803589       17.809902      -87.663834
 C        46.859840       20.279659      -84.192093
 C        45.681770       19.619883      -83.800636
 N        47.195351       19.810486      -85.438446
 C        46.246433       18.902102      -85.887100
 N        45.358044       18.741060      -84.848000
 C        44.106613       18.150936      -85.220528
 C        43.980583       17.947289      -86.596008
 C        42.666229       17.625687      -87.060394
 H        42.598488       17.620447      -88.154915
 C        41.537491       17.603661      -86.230827
 H        40.610214       17.430725      -86.594345
 C        41.625023       17.786594      -84.841629
 H        40.825092       17.975595      -84.191948
 C        42.942352       18.006172      -84.355286
 H        43.052025       18.186327      -83.323578
 C        45.207474       19.742327      -82.461441
 H        44.500900       18.988945      -82.090668
 C        45.855141       20.624357      -81.629837
 H        45.682281       20.576754      -80.597916
 C        46.934868       21.439886      -82.076706
 H        47.444618       22.052059      -81.369034
 C        47.507706       21.181629      -83.358955
 H        48.562744       21.413933      -83.392746
 C        48.466728       20.083870      -86.034836
 C        49.437592       19.164101      -85.945152
 H        49.534393       18.673943      -84.933929
 C        50.528038       19.140926      -86.833801
 H        51.252846       18.336250      -86.772575
 C        50.592094       20.155611      -87.775085
 H        51.552109       20.249430      -88.211731
 C        49.719799       21.244764      -87.733253
 H        49.790192       22.098167      -88.404633
 C        48.641533       21.182083      -86.903603
 H        47.876774       21.956852      -86.961761
 C        46.165886       13.877721      -85.885750
 C        45.662354       13.628767      -87.142731
 N        46.283066       15.221333      -85.765854
 C        45.841022       15.902575      -86.867096
 N        45.446754       14.916970      -87.690582
 C        44.772659       15.285376      -88.865860
 C        44.978592       16.659327      -89.281967
 C        44.454895       17.066837      -90.464462
 H        44.602348       18.063374      -90.790909
 C        43.660141       16.203972      -91.264481
 H        43.085915       16.569061      -92.149902
 C        43.369980       14.917424      -90.799713
 H        42.497269       14.450709      -91.132950
 C        43.926804       14.447769      -89.596230
 H        43.611725       13.530992      -89.240784
 C        45.407722       12.227098      -87.531937
 H        45.042778       12.015485      -88.511246
 C        45.698334       11.143398      -86.654312
 H        45.579163       10.119037      -87.012054
 C        46.309227       11.493602      -85.424194
 H        46.683807       10.769700      -84.671432
 C        46.509872       12.857716      -85.060974
 H        47.007370       13.123055      -84.146042
 C        46.576149       15.806938      -84.423561
 C        45.697151       15.596047      -83.389648
 H        44.730682       15.040272      -83.595688
 C        46.102501       15.673962      -82.112534
 H        45.397385       15.717851      -81.284653
 C        47.485901       15.746425      -81.808640
 H        47.759857       15.572205      -80.756172
 C        48.375237       15.952772      -82.915176
 H        49.394417       16.121271      -82.766907
 C        47.932655       16.059742      -84.243591
 H        48.534908       16.648500      -84.937019
 C        49.481789       18.022318      -90.008575
 C        48.852962       19.122536      -90.403786
 N        48.694519       17.364330      -89.042419
 C        47.482033       17.972496      -88.830231
 N        47.645584       19.115908      -89.633202
 C        46.674461       20.107473      -89.352814
 C        45.502144       19.617744      -88.695747
 C        44.531654       20.624706      -88.485092
 H        43.517353       20.374575      -88.225418
 C        44.764488       22.037546      -88.628510
 H        43.995804       22.869030      -88.641197
 C        45.988480       22.434338      -89.127808
 H        46.301689       23.390888      -89.348297
 C        46.922783       21.492729      -89.530869
 H        47.645973       21.759350      -90.225494
 C        49.493587       19.925529      -91.409515
 H        49.273865       20.961063      -91.541397
 C        50.700363       19.494041      -91.961342
 H        51.077820       20.032284      -92.749710
 C        51.356743       18.359262      -91.511848
 H        52.163517       17.884022      -91.962234
 C        50.739662       17.609997      -90.555710
 H        51.303810       16.783615      -90.190964
 C        48.890320       15.942856      -88.714897
 C        49.575039       15.513855      -87.535690
 H        50.108864       16.185181      -86.948120
 C        49.566147       14.249468      -87.006126
 H        50.312576       14.068485      -86.190353
 C        48.879005       13.259880      -87.608002
 H        48.956367       12.180590      -87.409645
 C        48.156284       13.587631      -88.769745
 H        47.766006       12.777395      -89.266243
 C        48.206894       14.876610      -89.363785
 H        47.673630       15.110541      -90.244812
