206
 generated by VMD
 Ir       -0.129692       -0.901928       -7.266593
 C        -3.070902        1.667122       -5.347563
 C        -1.978535        1.683380       -4.525208
 N        -2.835512        0.703873       -6.354765
 C        -1.580837        0.112419       -6.196740
 N        -1.099096        0.694042       -5.027413
 C         0.029600        0.032410       -4.453932
 C         0.632204       -0.918018       -5.290570
 C         1.652628       -1.723446       -4.772770
 H         2.089434       -2.510735       -5.379632
 C         2.083990       -1.581848       -3.444884
 H         2.870537       -2.217880       -3.064221
 C         1.499187       -0.623260       -2.619042
 H         1.836269       -0.490715       -1.601687
 C         0.463093        0.179783       -3.118170
 H        -0.028971        0.865730       -2.447459
 C        -1.913019        2.619385       -3.477828
 H        -1.005245        2.765976       -2.916888
 C        -2.980356        3.497314       -3.249274
 H        -2.935327        4.199471       -2.431017
 C        -4.105060        3.447395       -4.076293
 H        -4.935494        4.106689       -3.891060
 C        -4.152151        2.533493       -5.132164
 H        -5.035139        2.496407       -5.754704
 C        -3.896748        0.191200       -7.176919
 C        -4.088875        0.735023       -8.462826
 H        -3.303602        1.308037       -8.930164
 C        -5.272804        0.466106       -9.164028
 H        -5.370955        0.795952      -10.178852
 C        -6.266119       -0.338470       -8.584908
 H        -7.194698       -0.511940       -9.107830
 C        -6.059568       -0.907784       -7.322283
 H        -6.826779       -1.508675       -6.864764
 C        -4.877767       -0.644646       -6.628956
 H        -4.693562       -1.125439       -5.679007
 C         2.566870        2.406090       -8.174356
 C         3.332136        1.284416       -8.409073
 N         1.319679        1.965065       -7.729712
 C         1.251808        0.581551       -7.674218
 N         2.498020        0.162357       -8.122461
 C         2.638906       -1.251682       -8.329435
 C         1.521587       -2.027260       -7.979187
 C         1.584105       -3.418198       -8.131170
 H         0.735153       -4.027512       -7.861128
 C         2.731974       -4.052258       -8.598351
 H         2.786863       -5.126343       -8.625225
 C         3.845034       -3.288231       -8.964357
 H         4.735464       -3.766575       -9.349226
 C         3.796684       -1.886749       -8.836630
 H         4.606153       -1.323288       -9.252752
 C         4.667175        1.460220       -8.835300
 H         5.340574        0.624115       -8.949980
 C         5.191940        2.740379       -9.040012
 H         6.207420        2.852272       -9.383780
 C         4.407364        3.862068       -8.800077
 H         4.810614        4.860680       -8.917824
 C         3.082605        3.700203       -8.374159
 H         2.466358        4.574364       -8.201300
 C         0.193167        2.850151       -7.528487
 C         0.178085        3.717461       -6.434344
 H         1.000784        3.714745       -5.728255
 C        -0.897144        4.586220       -6.235011
 H        -0.957771        5.181259       -5.347735
 C        -1.962440        4.598213       -7.148844
 H        -2.798020        5.268059       -6.982655
 C        -1.965162        3.722740       -8.232191
 H        -2.802023        3.714912       -8.914028
 C        -0.886917        2.837654       -8.420376
 H        -0.964520        2.067810       -9.167511
 C        -2.111561       -0.967323      -11.112133
 C        -2.815612       -1.859039      -10.344246
 N        -0.954365       -0.606606      -10.394863
 C        -0.955172       -1.202419       -9.132923
 N        -2.077240       -2.018330       -9.145229
 C        -2.155296       -2.941166       -8.054140
 C        -1.321169       -2.628151       -6.960772
 C        -1.322769       -3.477898       -5.855090
 H        -0.726830       -3.231083       -4.991475
 C        -2.104464       -4.637260       -5.834486
 H        -2.032282       -5.310455       -4.992407
 C        -2.925301       -4.952660       -6.917010
 H        -3.549745       -5.833237       -6.889483
 C        -2.945137       -4.108696       -8.025351
 H        -3.521509       -4.391552       -8.893213
 C        -4.067936       -2.316067      -10.800219
 H        -4.680793       -2.970062      -10.193186
 C        -4.592021       -1.855881      -12.011238
 H        -5.522158       -2.247345      -12.386604
 C        -3.874319       -0.916565      -12.766951
 H        -4.294832       -0.497307      -13.671375
 C        -2.624748       -0.479263      -12.321159
 H        -2.069452        0.224720      -12.911207
 C         0.277571       -0.288902      -11.087616
 C         1.162918       -1.328964      -11.414627
 H         0.861984       -2.359222      -11.263260
 C         2.419186       -1.039886      -11.940678
 H         3.120275       -1.833805      -12.144541
 C         2.805771        0.291634      -12.158396
 H         3.769064        0.512020      -12.580296
 C         1.918293        1.325916      -11.839268
 H         2.200171        2.355164      -12.022818
 C         0.652378        1.036842      -11.310604
 H        -0.059376        1.836906      -11.184517
 Ir       -0.129692       -0.901932        7.759264
 C         1.394815        1.087601        4.162693
 C         0.039909        1.093231        4.017093
 N         1.680256        0.423096        5.372262
 C         0.517559        0.010208        6.014568
 N        -0.490454        0.440388        5.159378
 C        -1.819199        0.195889        5.608881
 C        -1.904015       -0.759224        6.636629
 C        -3.173380       -1.235928        6.999204
 H        -3.245202       -2.050156        7.691715
 C        -4.337885       -0.727623        6.408222
 H        -5.291334       -1.138016        6.674882
 C        -4.249947        0.262154        5.430362
 H        -5.138335        0.633709        4.941165
 C        -2.990606        0.723907        5.030691
 H        -2.935851        1.594902        4.390008
 C        -0.518324        1.701981        2.871356
 H        -1.576704        1.652847        2.673072
 C         0.301039        2.303719        1.916873
 H        -0.130524        2.782135        1.048208
 C         1.694309        2.299103        2.089441
 H         2.333935        2.758324        1.351476
 C         2.238632        1.678802        3.222021
 H         3.315216        1.648048        3.334348
 C         3.019506       -0.019161        5.689929
 C         3.551830       -1.129444        5.014867
 H         2.897602       -1.792542        4.472200
 C         4.931383       -1.370663        5.060024
 H         5.337746       -2.219856        4.532163
 C         5.779507       -0.523701        5.783529
 H         6.845238       -0.720345        5.817363
 C         5.242050        0.562092        6.477930
 H         5.886623        1.225189        7.023204
 C         3.864626        0.809090        6.440647
 H         3.447124        1.596375        7.042291
 C        -1.703373        2.544456        9.947268
 C        -2.113739        1.457214       10.690308
 N        -0.985325        2.048363        8.847860
 C        -0.895103        0.662468        8.875067
 N        -1.600460        0.310890       10.021433
 C        -1.618809       -1.081902       10.336849
 C        -1.089333       -1.931622        9.344616
 C        -1.141033       -3.316887        9.536617
 H        -0.787889       -3.981369        8.773491
 C        -1.684219       -3.866371       10.708118
 H        -1.678600       -4.936440       10.843895
 C        -2.192881       -3.024818       11.700716
 H        -2.613749       -3.433796       12.596540
 C        -2.147198       -1.641937       11.524775
 H        -2.377462       -1.016258       12.359285
 C        -2.863669        1.691467       11.863396
 H        -3.317751        0.875977       12.406321
 C        -3.154082        2.990868       12.283669
 H        -3.766581        3.145988       13.160355
 C        -2.716888        4.072327       11.524923
 H        -2.944394        5.086143       11.832994
 C        -1.998932        3.854393       10.348511
 H        -1.743820        4.685585        9.720940
 C        -0.496901        2.891594        7.780378
 C         0.885019        3.089394        7.642625
 H         1.568956        2.621902        8.333555
 C         1.369198        3.886024        6.597761
 H         2.433575        4.009735        6.473245
 C         0.482620        4.476700        5.693618
 H         0.868452        5.056343        4.859800
 C        -0.897171        4.284676        5.839242
 H        -1.578465        4.720894        5.119764
 C        -1.381350        3.488045        6.884107
 H        -2.450604        3.338844        6.990568
 C         3.798759       -1.340565        9.570068
 C         3.752314       -2.310593        8.593245
 N         2.507862       -0.781494        9.661324
 C         1.656767       -1.350929        8.735153
 N         2.422611       -2.316414        8.119263
 C         1.696495       -3.212982        7.272254
 C         0.458529       -2.726147        6.831079
 C        -0.319395       -3.534309        5.984018
 H        -1.244768       -3.154961        5.587945
 C         0.118076       -4.811974        5.609600
 H        -0.515982       -5.427101        4.988245
 C         1.348516       -5.293030        6.061262
 H         1.699503       -6.261642        5.750131
 C         2.135471       -4.498810        6.903408
 H         3.020115       -4.918968        7.340415
 C         4.926523       -2.983452        8.223534
 H         4.941547       -3.679840        7.397506
 C         6.141785       -2.674728        8.849016
 H         7.051907       -3.173164        8.537008
 C         6.184343       -1.701309        9.849785
 H         7.128319       -1.454384       10.314692
 C         5.008003       -1.034225       10.211609
 H         5.041861       -0.288872       10.988523
 C         2.040276       -0.180412       10.882578
 C         1.429222       -0.985844       11.841270
 H         1.426943       -2.062950       11.717844
 C         0.709393       -0.410515       12.895760
 H         0.269669       -1.045547       13.645147
 C         0.610893        0.984177       12.991249
 H         0.004322        1.419846       13.774874
 C         1.235237        1.787224       12.043400
 H         1.122425        2.861313       12.085930
 C         1.966848        1.217674       10.994184
 H         2.504116        1.846550       10.299091
