206
 generated by VMD
 Ir      116.299210      -13.027250       11.815470
 C       115.893616      -14.830956       15.742548
 C       115.865723      -15.890173       14.882208
 N       116.243240      -13.691818       15.000234
 C       116.366837      -13.988903       13.649985
 N       116.169113      -15.371222       13.598018
 C       116.276154      -15.966536       12.305946
 C       116.233612      -15.055611       11.232678
 C       116.253433      -15.566971        9.925039
 H       116.224579      -14.883043        9.086045
 C       116.327240      -16.932819        9.673820
 H       116.317696      -17.301424        8.658175
 C       116.387589      -17.830614       10.743834
 H       116.422882      -18.898232       10.563151
 C       116.378952      -17.348450       12.056254
 H       116.597649      -18.022470       12.867714
 C       115.558685      -17.167454       15.392567
 H       115.516586      -18.033068       14.743692
 C       115.296127      -17.350742       16.748615
 H       115.145737      -18.344193       17.141102
 C       115.309814      -16.248222       17.613756
 H       115.126953      -16.378704       18.666721
 C       115.612030      -14.985046       17.112206
 H       115.602501      -14.130604       17.771626
 C       116.820602      -12.534012       15.638853
 C       116.031693      -11.397762       15.845134
 H       114.979004      -11.424093       15.633999
 C       116.623108      -10.229477       16.326618
 H       116.031464       -9.337269       16.443270
 C       117.995590      -10.197443       16.620205
 H       118.452667       -9.278902       16.957188
 C       118.774796      -11.341236       16.453281
 H       119.817780      -11.322445       16.703777
 C       118.176437      -12.516087       15.968831
 H       118.742920      -13.430922       15.961056
 C       120.522301      -12.772278       10.783594
 C       119.869438      -11.996397        9.851620
 N       119.524521      -13.396212       11.564001
 C       118.255257      -13.041740       11.151420
 N       118.486801      -12.211432       10.054025
 C       117.340546      -11.946217        9.248122
 C       116.122314      -12.352085        9.825428
 C       114.951645      -12.263712        9.063458
 H       114.009674      -12.576981        9.497931
 C       114.973518      -11.782597        7.745828
 H       114.051895      -11.729866        7.188315
 C       116.177841      -11.369186        7.184324
 H       116.201782      -10.946753        6.193885
 C       117.356400      -11.457560        7.927909
 H       118.286652      -11.206308        7.455797
 C       120.623703      -11.184565        8.988774
 H       120.146774      -10.463039        8.338741
 C       122.028175      -11.211611        9.035004
 H       122.597610      -10.591419        8.354115
 C       122.672302      -12.022272        9.963241
 H       123.752350      -12.042871       10.012055
 C       121.918900      -12.799322       10.848214
 H       122.431305      -13.411898       11.578686
 C       119.824127      -14.475050       12.475341
 C       119.632217      -15.798697       12.077796
 H       119.297272      -16.012226       11.075192
 C       119.860909      -16.844421       12.980546
 H       119.680267      -17.866205       12.663960
 C       120.298401      -16.567486       14.277198
 H       120.444839      -17.375736       14.981602
 C       120.520172      -15.245798       14.676649
 H       120.859062      -15.032267       15.670060
 C       120.291489      -14.200068       13.773900
 H       120.473068      -13.184855       14.069133
 C       115.933533       -8.955563       13.334056
 C       114.644180       -9.433065       13.326205
 N       116.738258       -9.939960       12.721215
 C       116.000626      -11.044960       12.340327
 N       114.694565      -10.709085       12.695146
 C       113.696655      -11.678995       12.387797
 C       114.191757      -12.964970       12.121059
 C       113.274628      -14.014229       11.935288
 H       113.630981      -15.017752       11.772339
 C       111.898056      -13.792603       11.966259
 H       111.220154      -14.609165       11.784958
 C       111.408722      -12.499086       12.202834
 H       110.346695      -12.317709       12.194356
 C       112.301102      -11.448847       12.410639
 H       111.913460      -10.447975       12.484067
 C       113.635208       -8.684305       13.960423
 H       112.617966       -9.045891       14.003741
 C       113.937630       -7.480663       14.601044
 H       113.163986       -6.912945       15.085784
 C       115.262894       -7.012659       14.613384
 H       115.516968       -6.100397       15.135425
 C       116.252853       -7.752899       13.971034
 H       117.278473       -7.400812       13.996559
 C       118.070160       -9.629509       12.257810
 C       118.230583       -8.642052       11.282262
 H       117.384666       -8.344870       10.681009
 C       119.499405       -8.127520       11.020284
 H       119.610611       -7.266344       10.371737
 C       120.621750       -8.628660       11.696309
 H       121.595078       -8.203789       11.514545
 C       120.464401       -9.650894       12.640539
 H       121.333481      -10.101309       13.088550
 C       119.185562      -10.137215       12.930867
 H       119.070374      -10.957043       13.632089
 Ir      116.299210      -13.027250       22.464046
 C       115.387283       -9.707067       19.811430
 C       114.521378      -10.696960       19.408287
 N       116.250702      -10.269939       20.757359
 C       115.909836      -11.574173       21.035706
 N       114.831726      -11.836838       20.193695
 C       114.174652      -13.090340       20.391132
 C       114.814011      -13.956457       21.284697
 C       114.338135      -15.276188       21.407379
 H       114.861572      -15.985561       22.022926
 C       113.227951      -15.710102       20.682175
 H       112.910126      -16.741388       20.774599
 C       112.566818      -14.836445       19.822802
 H       111.742264      -15.185596       19.219810
 C       113.022797      -13.522303       19.691601
 H       112.406296      -12.816559       19.166759
 C       113.574844      -10.396269       18.394159
 H       112.983841      -11.168543       17.945490
 C       113.513458       -9.108625       17.845797
 H       112.831375       -8.908531       17.042723
 C       114.393494       -8.120691       18.287621
 H       114.417252       -7.152235       17.808315
 C       115.318024       -8.419422       19.281452
 H       115.960403       -7.641562       19.665092
 C       117.575439       -9.742851       20.943506
 C       118.557770      -10.041534       19.982456
 H       118.400711      -10.849449       19.306141
 C       119.768890       -9.338989       19.978588
 H       120.497757       -9.534710       19.213642
 C       120.017891       -8.367929       20.955292
 H       120.961670       -7.847239       20.967556
 C       119.055771       -8.099421       21.935863
 H       119.289062       -7.420725       22.753569
 C       117.836510       -8.786879       21.925373
 H       117.111847       -8.606243       22.713873
 C       113.326981      -11.869707       25.434284
 C       113.977066      -12.947161       25.995251
 N       113.804962      -11.722754       24.126907
 C       114.782211      -12.670298       23.838062
 N       114.849060      -13.443075       24.986992
 C       115.641785      -14.618019       24.891113
 C       116.455551      -14.702553       23.749166
 C       117.169975      -15.882795       23.511013
 H       117.812912      -15.956846       22.644032
 C       117.076401      -16.970968       24.384642
 H       117.580093      -17.896687       24.143333
 C       116.279541      -16.887417       25.522945
 H       116.244904      -17.691463       26.236877
 C       115.563278      -15.714716       25.782066
 H       114.849823      -15.705332       26.586239
 C       113.701599      -13.292204       27.334904
 H       114.276489      -14.037336       27.841938
 C       112.748047      -12.570963       28.068970
 H       112.485687      -12.907200       29.055283
 C       112.099808      -11.485970       27.487038
 H       111.360474      -10.929708       28.051723
 C       112.385193      -11.127796       26.162510
 H       111.878693      -10.289778       25.728249
 C       113.037827      -11.022715       23.124285
 C       111.957474      -11.660017       22.509735
 H       111.740891      -12.694525       22.743370
 C       111.167938      -10.981630       21.573664
 H       110.355057      -11.490864       21.095318
 C       111.469620       -9.659370       21.245920
 H       110.878204       -9.140661       20.503389
 C       112.554810       -9.007957       21.851664
 H       112.810104       -8.002647       21.558453
 C       113.333481       -9.692913       22.793961
 H       114.201035       -9.207283       23.230438
 C       119.597290      -10.898125       24.266830
 C       120.124817      -11.460781       23.132933
 N       118.323418      -11.453022       24.461393
 C       117.991760      -12.310928       23.427565
 N       119.142471      -12.356239       22.658215
 C       119.130768      -13.311804       21.598137
 C       117.847595      -13.686350       21.179604
 C       117.723709      -14.361134       19.962755
 H       116.750626      -14.737518       19.666031
 C       118.832275      -14.658436       19.175373
 H       118.703506      -15.155682       18.217480
 C       120.117859      -14.327187       19.616688
 H       120.984756      -14.622242       19.052200
 C       120.266792      -13.668468       20.844254
 H       121.250389      -13.572577       21.265125
 C       121.363159      -11.023067       22.640369
 H       121.756989      -11.384298       21.710312
 C       122.057022      -10.001049       23.307087
 H       122.992889       -9.638889       22.913515
 C       121.517693       -9.438389       24.468567
 H       122.054291       -8.657591       24.991848
 C       120.289322       -9.883648       24.954521
 H       119.846634       -9.411224       25.820168
 C       117.797714      -11.590479       25.791862
 C       118.401505      -12.503527       26.670204
 H       119.192230      -13.146683       26.312420
 C       117.984741      -12.569748       27.992897
 H       118.487244      -13.216122       28.686501
 C       116.946365      -11.736050       28.440506
 H       116.633446      -11.779636       29.470448
 C       116.337753      -10.837112       27.570972
 H       115.517189      -10.212669       27.905113
 C       116.758453      -10.770885       26.239086
 H       116.228210      -10.150772       25.533611
