206
 generated by VMD
 Ir      -30.899426       64.005112      -62.963524
 C       -28.588440       64.544022      -59.324745
 C       -28.401386       65.711197      -60.009888
 N       -29.289524       63.668297      -60.166996
 C       -29.571331       64.242584      -61.389973
 N       -28.990349       65.510880      -61.287975
 C       -29.162266       66.354660      -62.422066
 C       -30.214638       65.980217      -63.278812
 C       -30.599712       66.873459      -64.290359
 H       -31.439373       66.630829      -64.929878
 C       -29.943981       68.087990      -64.478912
 H       -30.261269       68.749908      -65.267761
 C       -28.860910       68.439484      -63.655800
 H       -28.342068       69.375458      -63.806000
 C       -28.468857       67.572815      -62.632233
 H       -27.564728       67.778625      -62.090111
 C       -27.756432       66.782013      -59.366859
 H       -27.679432       67.744965      -59.852547
 C       -27.286108       66.645187      -58.056221
 H       -26.793097       67.465820      -57.553635
 C       -27.482538       65.451431      -57.373390
 H       -27.123615       65.319359      -56.357990
 C       -28.138102       64.398727      -58.008736
 H       -28.208698       63.440010      -57.511169
 C       -29.557796       62.295055      -59.810852
 C       -28.668835       61.294937      -60.220001
 H       -27.906910       61.525940      -60.948841
 C       -28.850016       59.981544      -59.780590
 H       -28.171200       59.205482      -60.097347
 C       -29.932968       59.659813      -58.955788
 H       -30.114048       58.624908      -58.691441
 C       -30.828335       60.655697      -58.558517
 H       -31.671413       60.409554      -57.932076
 C       -30.631954       61.977551      -58.983879
 H       -31.293854       62.753021      -58.642357
 C       -33.702381       66.837494      -61.501835
 C       -34.094578       66.560532      -62.782913
 N       -32.842911       65.792732      -61.104610
 C       -32.582893       64.920380      -62.163143
 N       -33.451778       65.365189      -63.149746
 C       -33.437248       64.598442      -64.340881
 C       -32.173698       64.066681      -64.647400
 C       -31.988739       63.438950      -65.878922
 H       -31.003681       63.124557      -66.171692
 C       -33.054543       63.275330      -66.769875
 H       -32.889721       62.780529      -67.717979
 C       -34.322323       63.753338      -66.433495
 H       -35.151237       63.631519      -67.121872
 C       -34.518932       64.417313      -65.225441
 H       -35.489712       64.821106      -64.980652
 C       -34.775738       67.549133      -63.517265
 H       -35.208752       67.311462      -64.478836
 C       -34.963627       68.825623      -62.986816
 H       -35.379810       69.605331      -63.604359
 C       -34.541607       69.097168      -61.677784
 H       -34.675396       70.086708      -61.267891
 C       -33.933311       68.087990      -60.930500
 H       -33.604443       68.305695      -59.922504
 C       -32.760952       65.388130      -59.724907
 C       -33.615986       64.391647      -59.245598
 H       -34.329758       63.926739      -59.915890
 C       -33.619106       64.056488      -57.886864
 H       -34.286369       63.297485      -57.526062
 C       -32.754288       64.712982      -57.004257
 H       -32.776619       64.478683      -55.948936
 C       -31.886345       65.704651      -57.480385
 H       -31.215504       66.206390      -56.800076
 C       -31.892021       66.035568      -58.841286
 H       -31.232979       66.812691      -59.204109
 C       -31.715443       59.816475      -62.268616
 C       -30.449905       59.845314      -62.801235
 N       -32.260368       61.101826      -62.382332
 C       -31.326365       61.984760      -62.914268
 N       -30.235929       61.175632      -63.222263
 C       -29.220146       61.789742      -64.022423
 C       -29.293873       63.196701      -64.071487
 C       -28.378471       63.885075      -64.886093
 H       -28.425579       64.960388      -64.949203
 C       -27.423468       63.207554      -65.639450
 H       -26.755400       63.758106      -66.288422
 C       -27.362648       61.805412      -65.593552
 H       -26.625767       61.280060      -66.174072
 C       -28.265045       61.098915      -64.796341
 H       -28.317047       60.027176      -64.891556
 C       -29.649355       58.692360      -62.737812
 H       -28.641071       58.686668      -63.127846
 C       -30.127350       57.528694      -62.124378
 H       -29.494267       56.652969      -62.061031
 C       -31.414688       57.513748      -61.576530
 H       -31.788853       56.625587      -61.091995
 C       -32.208736       58.657639      -61.648651
 H       -33.209480       58.636147      -61.236156
 C       -33.670521       61.264977      -62.606300
 C       -34.183662       61.031464      -63.896599
 H       -33.514542       60.813553      -64.710114
 C       -35.559116       61.099770      -64.122314
 H       -35.945637       60.946083      -65.113617
 C       -36.423149       61.410664      -63.068470
 H       -37.495239       61.434998      -63.240017
 C       -35.911724       61.653236      -61.788898
 H       -36.581402       61.924911      -60.985828
 C       -34.534550       61.575863      -61.552452
 H       -34.151581       61.684849      -60.551727
 Ir      -30.899426       64.005112      -50.326324
 C       -28.615173       61.837486      -47.291489
 C       -29.918362       61.422573      -47.097729
 N       -28.640236       62.793098      -48.317291
 C       -29.912422       63.012459      -48.795647
 N       -30.706604       62.164642      -48.023258
 C       -32.107197       62.251671      -48.275772
 C       -32.478519       63.326782      -49.098541
 C       -33.843346       63.631325      -49.228954
 H       -34.129787       64.550034      -49.721825
 C       -34.828796       62.843224      -48.627300
 H       -35.867775       63.098961      -48.739189
 C       -34.457176       61.728233      -47.866257
 H       -35.212109       61.065254      -47.475563
 C       -33.099628       61.436989      -47.686142
 H       -32.834991       60.532166      -47.178047
 C       -30.163692       60.425163      -46.138565
 H       -31.144634       59.980156      -46.040470
 C       -29.119879       59.878914      -45.386932
 H       -29.332212       59.163620      -44.605026
 C       -27.807215       60.307121      -45.598953
 H       -26.989742       59.866478      -45.057594
 C       -27.555384       61.295467      -46.566811
 H       -26.537060       61.605762      -46.738091
 C       -27.507515       63.602428      -48.635468
 C       -27.276394       64.781837      -47.909050
 H       -27.965843       65.094574      -47.152046
 C       -26.136173       65.554077      -48.194473
 H       -25.944168       66.444687      -47.621887
 C       -25.253525       65.157417      -49.202538
 H       -24.387733       65.767288      -49.432011
 C       -25.494080       63.974628      -49.920982
 H       -24.821590       63.652573      -50.692463
 C       -26.614353       63.200943      -49.630638
 H       -26.811047       62.297043      -50.204384
 C       -31.633278       60.780952      -53.185009
 C       -32.532261       61.768311      -53.540478
 N       -30.985825       61.217495      -52.005798
 C       -31.429070       62.461246      -51.620682
 N       -32.389107       62.791843      -52.567959
 C       -32.976273       64.085655      -52.434601
 C       -32.234440       64.974075      -51.644100
 C       -32.630333       66.321724      -51.607784
 H       -32.062393       67.050568      -51.045532
 C       -33.754208       66.771294      -52.307064
 H       -34.029690       67.811493      -52.251369
 C       -34.512695       65.869576      -53.050171
 H       -35.410233       66.213531      -53.539169
 C       -34.126637       64.535820      -53.119804
 H       -34.792515       63.817818      -53.582607
 C       -33.306171       61.607807      -54.699356
 H       -33.959656       62.387444      -55.045807
 C       -33.184166       60.450890      -55.472626
 H       -33.776661       60.346661      -56.370506
 C       -32.272278       59.458702      -55.113983
 H       -32.160603       58.560356      -55.704407
 C       -31.487179       59.623436      -53.962639
 H       -30.731632       58.900017      -53.724922
 C       -30.263565       60.316505      -51.148033
 C       -30.947250       59.620995      -50.152725
 H       -32.020641       59.742012      -50.046513
 C       -30.252144       58.787659      -49.270748
 H       -30.798046       58.251060      -48.498962
 C       -28.866951       58.654072      -49.372204
 H       -28.319191       58.067146      -48.650135
 C       -28.180874       59.349586      -50.377220
 H       -27.100597       59.268440      -50.450836
 C       -28.874165       60.160568      -51.269047
 H       -28.342125       60.630703      -52.085449
 C       -27.465794       65.746109      -52.435913
 C       -27.765469       66.637779      -51.438652
 N       -28.432877       64.719337      -52.365295
 C       -29.350746       64.946838      -51.345314
 N       -28.927380       66.149254      -50.798096
 C       -29.798805       66.702385      -49.818161
 C       -30.605877       65.757294      -49.172546
 C       -31.339870       66.167305      -48.055748
 H       -31.905926       65.444611      -47.484619
 C       -31.344608       67.502457      -47.644947
 H       -31.884941       67.788078      -46.748199
 C       -30.616493       68.459000      -48.361523
 H       -30.772200       69.513145      -48.173317
 C       -29.826286       68.056244      -49.443863
 H       -29.335274       68.807907      -50.043793
 C       -26.938168       67.773026      -51.255341
 H       -27.083134       68.429123      -50.425934
 C       -25.850925       67.982986      -52.109985
 H       -25.224131       68.856201      -51.976097
 C       -25.568745       67.069572      -53.132156
 H       -24.698055       67.207581      -53.751793
 C       -26.374439       65.947021      -53.289543
 H       -26.146885       65.234772      -54.067696
 C       -28.594448       63.754997      -53.424744
 C       -29.686890       63.846920      -54.291363
 H       -30.404755       64.638657      -54.169617
 C       -29.848660       62.909164      -55.309662
 H       -30.690645       62.970993      -55.980659
 C       -28.920282       61.866188      -55.472214
 H       -29.048513       61.145344      -56.265968
 C       -27.820763       61.787556      -54.614155
 H       -27.091705       61.000053      -54.743439
 C       -27.650196       62.729546      -53.593681
 H       -26.792233       62.671951      -52.949650
