206
 generated by VMD
 Ir       84.533791       -6.998933       38.546921
 C        85.116043      -10.277543       41.407097
 C        84.178596      -10.743016       40.575512
 N        85.532021       -9.006914       40.959152
 C        84.791275       -8.617883       39.881729
 N        83.986710       -9.748809       39.609886
 C        83.373627       -9.726598       38.331360
 C        83.427841       -8.556615       37.635441
 C        82.931641       -8.459352       36.328529
 H        82.641884       -7.453631       35.906307
 C        82.463799       -9.651403       35.653961
 H        82.293106       -9.656704       34.570709
 C        82.383385      -10.833550       36.326096
 H        82.144012      -11.742812       35.793419
 C        82.820206      -10.904261       37.680641
 H        82.431435      -11.712029       38.315987
 C        83.521423      -11.902180       40.895767
 H        82.728256      -12.316696       40.278633
 C        83.750977      -12.538391       42.103508
 H        83.233841      -13.484717       42.097588
 C        84.591156      -12.065053       43.080269
 H        84.844513      -12.487235       44.043011
 C        85.340561      -10.944605       42.699234
 H        86.085678      -10.651568       43.301090
 C        86.459869       -8.259843       41.787640
 C        85.928940       -7.363394       42.704483
 H        84.937210       -7.624654       43.077034
 C        86.787025       -6.477268       43.412567
 H        86.440010       -5.822743       44.267368
 C        88.167892       -6.444579       43.136108
 H        88.931015       -5.827008       43.581589
 C        88.676819       -7.413855       42.284935
 H        89.728531       -7.335773       42.087166
 C        87.843613       -8.401507       41.664452
 H        88.210220       -9.345993       41.377838
 C        87.633896       -7.662294       35.551079
 C        86.813095       -6.636698       35.030952
 N        87.000717       -8.090769       36.753616
 C        85.856506       -7.335026       37.013672
 N        85.782013       -6.463489       35.960449
 C        84.665321       -5.486006       35.954849
 C        84.043091       -5.456147       37.209454
 C        83.314583       -4.265363       37.474434
 H        82.808891       -4.257914       38.364052
 C        83.397881       -3.071130       36.729874
 H        82.844330       -2.170770       37.038956
 C        84.127060       -3.033572       35.558430
 H        84.414391       -2.072053       35.204273
 C        84.655487       -4.295112       35.163219
 H        84.778503       -4.514594       34.198132
 C        87.294754       -6.044765       33.823425
 H        86.743301       -5.329546       33.274654
 C        88.487457       -6.511506       33.181370
 H        88.619461       -6.410828       32.109901
 C        89.254150       -7.513888       33.719788
 H        90.157707       -7.858994       33.216301
 C        88.816177       -8.068295       34.910458
 H        89.501984       -8.773653       35.390289
 C        86.997765       -9.464192       37.164955
 C        87.394661       -9.919296       38.402679
 H        87.837845       -9.247354       39.101303
 C        87.207321      -11.207652       38.822250
 H        87.408554      -11.507243       39.792328
 C        86.736557      -12.181225       37.938263
 H        86.794380      -13.234642       38.068531
 C        86.301460      -11.757049       36.686958
 H        85.979065      -12.426841       35.938271
 C        86.453613      -10.394674       36.293518
 H        86.055992      -10.028780       35.341877
 C        86.750854       -4.042188       40.848961
 C        85.501053       -4.063518       41.526039
 N        86.680595       -4.934263       39.772224
 C        85.449234       -5.534911       39.669914
 N        84.701782       -4.915456       40.773537
 C        83.281219       -5.270840       40.762611
 C        83.034050       -6.383543       39.934723
 C        81.736084       -6.782017       39.920105
 H        81.493576       -7.759731       39.404877
 C        80.771057       -6.162793       40.708511
 H        79.765594       -6.513958       40.536701
 C        81.040848       -5.082129       41.523666
 H        80.331100       -4.803174       42.192276
 C        82.274727       -4.623950       41.611969
 H        82.504166       -3.908763       42.481895
 C        85.387955       -3.487152       42.718147
 H        84.447342       -3.475562       43.201778
 C        86.463882       -2.707237       43.232162
 H        86.315651       -2.134441       44.111614
 C        87.677116       -2.681456       42.588890
 H        88.366653       -2.030733       43.048019
 C        87.879547       -3.399178       41.408508
 H        88.728378       -3.209862       40.813919
 C        87.680099       -5.028046       38.735981
 C        88.626534       -6.064044       38.727802
 H        88.248085       -7.064201       39.080170
 C        89.795036       -5.856120       37.994400
 H        90.712311       -6.297761       38.260979
 C        89.913208       -4.748145       37.112572
 H        90.796509       -4.626169       36.552296
 C        88.892082       -3.821541       37.027725
 H        88.790543       -3.014886       36.293968
 C        87.803810       -3.957597       37.879868
 H        87.159355       -3.124730       38.016666
 Ir       84.533783       -6.998935       54.343613
 C        81.572815       -8.990875       56.736198
 C        81.410225       -7.680990       56.905518
 N        82.568253       -9.156371       55.778961
 C        82.992889       -7.945370       55.339348
 N        82.175117       -7.069028       55.930763
 C        82.054054       -5.897855       55.305382
 C        83.230446       -5.388302       54.753799
 C        83.365448       -4.077845       54.342731
 H        84.189209       -3.667593       53.830956
 C        82.231308       -3.260403       54.433990
 H        82.332916       -2.198161       54.321213
 C        81.048294       -3.784422       54.853111
 H        80.138680       -3.356212       54.374733
 C        80.931213       -5.093767       55.277504
 H        79.863350       -5.489861       55.508545
 C        80.647461       -7.197481       57.868484
 H        80.756104       -6.106230       58.111519
 C        80.166519       -8.015990       58.846306
 H        79.676819       -7.519360       59.703598
 C        80.462250       -9.336848       58.784012
 H        79.852036       -9.986723       59.351295
 C        81.107971       -9.853586       57.681061
 H        81.429886      -10.846495       57.586166
 C        83.408363      -10.364651       55.740555
 C        84.262482      -10.585852       56.809074
 H        84.389648       -9.746000       57.513481
 C        84.797287      -11.861163       57.111839
 H        85.571198      -11.967792       57.835922
 C        84.426292      -12.946279       56.238068
 H        84.765869      -13.960979       56.496468
 C        83.599289      -12.709653       55.131775
 H        83.527367      -13.468966       54.346367
 C        83.141655      -11.423290       54.851875
 H        82.531067      -11.284855       53.897980
 C        82.918625       -6.231240       50.335709
 C        84.270500       -5.995265       50.163811
 N        82.718086       -6.679590       51.618427
 C        83.850014       -6.778506       52.385666
 N        84.857590       -6.335488       51.473839
 C        86.081894       -6.103270       52.066673
 C        85.937645       -5.748722       53.431770
 C        86.876106       -4.866013       54.032028
 H        86.693542       -4.448807       55.045692
 C        88.043121       -4.510056       53.363312
 H        88.742096       -3.969762       53.826477
 C        88.284843       -4.958418       52.077568
 H        89.243225       -4.797727       51.608204
 C        87.292633       -5.753913       51.437256
 H        87.480118       -6.013224       50.396294
 C        84.746475       -5.510424       48.987896
 H        85.855209       -5.267695       48.924805
 C        83.862106       -5.191994       47.974434
 H        84.286011       -4.724572       47.087631
 C        82.465134       -5.400381       48.114624
 H        81.804764       -4.761403       47.493561
 C        82.000168       -6.006701       49.285892
 H        80.966423       -6.347697       49.383896
 C        81.409149       -7.057803       52.059628
 C        80.394211       -6.092483       52.053284
 H        80.690842       -5.114350       51.760262
 C        79.037445       -6.525145       52.083092
 H        78.221359       -5.853820       51.818832
 C        78.747490       -7.882185       52.226162
 H        77.738853       -8.263009       52.241196
 C        79.771614       -8.794399       52.350807
 H        79.549019       -9.739381       52.684067
 C        81.111961       -8.420330       52.242920
 H        81.923096       -9.114869       52.478252
 C        87.603653      -10.009279       53.603111
 C        87.861206       -9.511305       54.881111
 N        86.474159       -9.304879       53.217293
 C        85.996368       -8.390780       54.121246
 N        86.837524       -8.589878       55.205368
 C        86.397026       -7.969234       56.466385
 C        85.466339       -6.945554       56.274315
 C        85.059143       -6.174882       57.350449
 H        84.615326       -5.230782       57.163094
 C        85.601334       -6.477579       58.627670
 H        85.301170       -5.942309       59.504471
 C        86.453293       -7.501259       58.805557
 H        86.505859       -7.677067       59.867691
 C        86.853180       -8.323846       57.713570
 H        87.247734       -9.314374       57.835983
 C        89.011955      -10.006854       55.431030
 H        89.227020       -9.429686       56.324295
 C        89.871880      -10.969299       54.887680
 H        90.811890      -11.130222       55.422920
 C        89.538376      -11.553377       53.636467
 H        89.820816      -12.548588       53.422264
 C        88.399582      -10.994939       53.020203
 H        88.144333      -11.386627       52.067924
 C        85.929001       -9.371151       51.787254
 C        84.649094       -9.709117       51.503166
 H        83.979843      -10.048535       52.228981
 C        84.188004       -9.822852       50.114117
 H        83.281502      -10.415864       49.956978
 C        85.162804       -9.450590       49.102196
 H        84.797554       -9.344270       48.083672
 C        86.489761       -9.221941       49.407192
 H        87.143372       -8.901362       48.598915
 C        86.855164       -9.150182       50.763336
 H        87.787460       -8.751323       51.172150
