206
 generated by VMD
 Ir       54.972599      137.223358       99.119690
 C        58.313915      139.154572      101.192200
 C        58.270245      137.879318      101.697777
 N        57.274967      139.259796      100.240814
 C        56.576954      138.072403      100.132629
 N        57.211487      137.225082      101.030914
 C        56.672409      135.911697      101.128548
 C        55.368195      135.810455      100.638481
 C        54.614952      134.678284      100.964813
 H        53.552910      134.675873      100.763153
 C        55.161873      133.629395      101.693672
 H        54.543694      132.780609      101.964813
 C        56.496567      133.693222      102.116890
 H        56.938416      132.858063      102.642311
 C        57.251839      134.834366      101.834320
 H        58.315048      134.810562      102.009308
 C        59.150719      137.519165      102.731590
 H        59.104630      136.542999      103.194260
 C        60.074776      138.439545      103.235901
 H        60.721733      138.180664      104.058701
 C        60.114044      139.725616      102.691750
 H        60.834389      140.442902      103.064331
 C        59.238632      140.088013      101.670959
 H        59.300812      141.080658      101.245285
 C        56.807320      140.538177       99.771988
 C        55.946194      141.291519      100.576004
 H        55.568222      140.874893      101.501465
 C        55.581772      142.590576      100.194130
 H        54.932800      143.173935      100.822083
 C        56.081596      143.124329       99.001396
 H        55.807480      144.136292       98.710732
 C        56.933624      142.371002       98.193230
 H        57.320694      142.787613       97.271927
 C        57.298042      141.071930       98.575119
 H        57.947021      140.488586       97.947151
 C        57.177052      134.329895       96.695053
 C        55.858597      133.942841       96.597816
 N        57.203468      135.512970       97.456726
 C        55.925323      135.891663       97.849594
 N        55.099411      134.936890       97.274673
 C        53.706551      135.191299       97.364731
 C        53.353996      136.068298       98.403175
 C        51.990837      136.197418       98.741455
 H        51.715172      136.764984       99.611259
 C        51.000816      135.525238       98.020248
 H        49.966133      135.623749       98.313026
 C        51.352028      134.684967       96.960625
 H        50.594757      134.132690       96.427994
 C        52.698326      134.519135       96.635223
 H        52.969425      133.897583       95.799530
 C        55.545570      132.746155       95.934479
 H        54.547836      132.332092       96.001564
 C        56.557922      131.958221       95.377312
 H        56.325111      131.013275       94.923714
 C        57.892315      132.372269       95.463715
 H        58.684258      131.769348       95.052490
 C        58.200363      133.561462       96.137962
 H        59.230659      133.854004       96.240501
 C        58.426056      136.101410       97.932983
 C        59.233192      135.403290       98.838394
 H        58.947571      134.408386       99.151482
 C        60.397308      135.983429       99.346481
 H        61.016953      135.442780      100.036362
 C        60.757172      137.285675       98.966949
 H        61.636230      137.739136       99.377106
 C        59.955017      137.991302       98.050644
 H        60.224274      138.993225       97.773422
 C        58.794010      137.399170       97.535721
 H        58.175297      137.949554       96.843803
 C        53.117218      139.701355       96.102119
 C        52.341301      139.836166       97.225464
 N        54.280952      139.014862       96.490524
 C        54.273911      138.692993       97.831787
 N        53.099304      139.280060       98.286835
 C        52.941837      139.322662       99.692886
 C        53.734215      138.397552      100.389595
 C        53.736473      138.422226      101.782784
 H        54.345940      137.728760      102.326233
 C        52.953590      139.352539      102.487503
 H        52.923462      139.314423      103.566040
 C        52.180153      140.285446      101.797455
 H        51.573425      140.999283      102.332748
 C        52.169724      140.270508      100.398087
 H        51.591278      141.002960       99.858910
 C        51.051994      140.366562       97.112503
 H        50.390450      140.412369       97.960876
 C        50.566742      140.777161       95.862679
 H        49.535660      141.100739       95.761864
 C        51.377716      140.679077       94.734756
 H        51.042603      141.076050       93.782387
 C        52.666092      140.138947       94.849762
 H        53.275551      140.030182       93.971001
 C        55.368378      138.750351       95.575851
 C        55.430519      137.529480       94.909225
 H        54.676060      136.778137       95.093582
 C        56.456192      137.279175       93.985344
 H        56.496010      136.335083       93.464111
 C        57.412491      138.269272       93.719864
 H        58.193542      138.084015       92.995064
 C        57.346497      139.494354       94.394943
 H        58.092781      140.255432       94.204399
 C        56.333961      139.742401       95.314102
 H        56.259521      140.711243       95.790741
 Ir       54.972603      137.223358      109.461113
 C        58.543957      139.745743      109.413956
 C        57.498856      140.625336      109.560852
 N        57.982975      138.460999      109.246254
 C        56.594749      138.502563      109.302032
 N        56.303589      139.856049      109.458549
 C        54.924911      140.200516      109.396973
 C        54.031487      139.117157      109.500443
 C        52.664742      139.377594      109.533203
 H        51.954994      138.565643      109.595398
 C        52.166389      140.694427      109.469208
 H        51.105438      140.865021      109.506233
 C        53.057686      141.761627      109.346298
 H        52.681973      142.773422      109.302574
 C        54.430332      141.518417      109.300591
 H        55.092224      142.342453      109.078201
 C        57.781487      141.976959      109.832825
 H        56.995472      142.684937      110.062302
 C        59.110588      142.424713      109.930847
 H        59.319153      143.450745      110.172455
 C        60.156860      141.518921      109.757286
 H        61.181702      141.855682      109.823586
 C        59.870178      140.169525      109.494164
 H        60.687630      139.474243      109.388596
 C        58.735901      137.382965      108.655457
 C        59.052299      137.435547      107.286514
 H        58.758728      138.285034      106.701019
 C        59.748535      136.373993      106.699539
 H        59.986763      136.418152      105.646675
 C        60.128288      135.265106      107.457581
 H        60.649124      134.440277      106.990143
 C        59.812817      135.222260      108.824493
 H        60.091385      134.355530      109.418785
 C        59.125687      136.283813      109.415619
 H        58.893444      136.251648      110.479439
 C        54.254047      137.201904      113.785240
 C        53.065300      136.789673      113.234756
 N        55.136253      137.438126      112.718040
 C        54.550407      137.156097      111.496017
 N        53.274494      136.723083      111.835785
 C        52.556503      136.068420      110.783081
 C        53.129128      136.186981      109.502975
 C        52.517281      135.518860      108.434402
 H        52.923943      135.611740      107.446022
 C        51.364990      134.744934      108.623535
 H        50.906727      134.251358      107.772552
 C        50.796410      134.624115      109.894768
 H        49.945023      133.988953      110.050674
 C        51.394184      135.284744      110.970093
 H        51.042068      135.063721      111.959381
 C        51.980965      136.519073      114.094452
 H        50.991646      136.348129      113.709183
 C        52.137329      136.600739      115.487091
 H        51.325317      136.311127      116.135185
 C        53.363640      136.986755      116.027512
 H        53.511604      137.012711      117.101128
 C        54.421371      137.303101      115.177963
 H        55.370384      137.599152      115.603424
 C        56.452827      137.959290      112.915833
 C        56.723656      139.295944      112.611069
 H        55.944237      139.920334      112.199326
 C        57.954239      139.864960      112.949280
 H        58.203461      140.859863      112.619598
 C        58.911041      139.098785      113.646912
 H        59.844521      139.542603      113.937714
 C        58.629013      137.778595      113.976250
 H        59.258686      137.247711      114.668243
 C        57.413589      137.196136      113.580688
 H        57.233185      136.157867      113.783554
 C        56.489231      133.166168      108.810310
 C        56.348518      133.696014      107.552071
 N        56.169754      134.178925      109.727997
 C        55.813881      135.361206      109.086334
 N        55.967545      135.043488      107.736832
 C        55.806908      136.132263      106.835663
 C        55.060883      137.211853      107.339005
 C        54.755081      138.274353      106.491058
 H        54.090919      139.052002      106.814865
 C        55.252449      138.322479      105.183205
 H        55.056778      139.173492      104.551727
 C        56.042709      137.274353      104.703354
 H        56.405449      137.294525      103.690781
 C        56.317413      136.178131      105.523079
 H        56.967339      135.403503      105.158203
 C        56.551033      132.867737      106.432907
 H        56.368645      133.230301      105.434814
 C        56.905312      131.523834      106.595963
 H        57.044144      130.889511      105.737022
 C        57.052109      131.000702      107.889084
 H        57.329163      129.967087      108.028687
 C        56.843597      131.816986      108.997284
 H        56.953598      131.407959      109.985405
 C        56.050930      133.932953      111.145706
 C        54.811028      133.586792      111.671646
 H        53.932655      133.641647      111.043045
 C        54.706947      133.112305      112.984711
 H        53.742210      132.812012      113.365128
 C        55.855904      132.981735      113.767105
 H        55.777718      132.616852      114.782318
 C        57.104908      133.327911      113.245316
 H        57.997910      133.203369      113.841827
 C        57.205879      133.814392      111.939079
 H        58.165558      134.112427      111.545654
