206
 generated by VMD
  IR        17.660000       17.129999       -0.035000
  C1        18.809999       14.070000       -2.995000
  C2        19.959999       14.680000       -2.555000
  N1        17.780001       14.810000       -2.385000
  C3a       18.260000       15.810000       -1.565000
  N2        19.650000       15.750000       -1.715000
  C4        20.360001       16.900000       -1.235000
  C5a       19.730000       17.570000       -0.205000
  C6        20.410000       18.590000        0.485000
  H1        19.870001       19.139999        1.215000
  C7        21.700001       18.840000        0.155000
  H2        22.320000       19.360001        0.855000
  C8        22.430000       18.190001       -0.865000
  H3        23.510000       18.040001       -0.865000
  C9        21.719999       17.250000       -1.625000
  H4        22.160000       16.950001       -2.515000
  C10       21.200001       14.250000       -3.095000
  H5        22.170000       14.600000       -2.745000
  C11       21.190001       13.220000       -4.085000
  H6        22.160000       12.870000       -4.605000
  C12       19.959999       12.630000       -4.445000
  H7        20.010000       11.860000       -5.195000
  C13       18.840000       13.040000       -3.925000
  H8        17.940001       12.520000       -4.215000
  C6        16.400000       14.800000       -2.915000
  C1        16.000000       15.810000       -3.795000
  H1        16.719999       16.270000       -4.515000
  C2        14.640000       16.180000       -3.885000
  H2        14.510000       17.090000       -4.375000
  C3        13.680000       15.470000       -3.175000
  H3        12.670000       15.830000       -3.095000
  C4        14.080000       14.330000       -2.445000
  H4        13.340000       13.580000       -2.255000
  C5        15.450000       14.040000       -2.275000
  H5        15.770000       13.130000       -1.695000
  C1        18.740000       14.830000        3.595000
  C2        18.459999       16.129999        4.015000
  N1        18.540001       14.830000        2.205000
  C3b       18.160000       16.090000        1.705000
  N2        18.049999       16.840000        2.835000
  C4        17.610001       18.180000        2.775000
  C5b       17.459999       18.690001        1.465000
  C6        16.930000       19.990000        1.325000
  H1        17.080000       20.370001        0.285000
  C7        16.450001       20.750000        2.375000
  H2        15.800000       21.559999        2.085000
  C8        16.530001       20.139999        3.645000
  H3        15.800000       20.360001        4.355000
  C9        17.170000       18.900000        3.835000
  H4        17.440001       18.500000        4.755000
  C10       18.770000       16.459999        5.395000
  H5        19.120001       17.480000        5.535000
  C11       19.200001       15.480000        6.285000
  H6        19.480000       15.740000        7.325000
  C12       19.350000       14.180000        5.815000
  H7        19.820000       13.470000        6.475000
  C13       19.209999       13.830000        4.455000
  H8        19.260000       12.790000        4.035000
  C6        18.549999       13.640000        1.395000
  C1        19.549999       13.430000        0.495000
  H1        20.379999       14.120000        0.505000
  C2        19.600000       12.320000       -0.355000
  H2        20.450001       12.140000       -0.965000
  C3        18.570000       11.400000       -0.295000
  H3        18.840000       10.500000       -0.855000
  C4        17.570000       11.580000        0.655000
  H4        16.670000       10.940000        0.605000
  C5        17.580000       12.680000        1.565000
  H5        16.889999       12.720000        2.385000
  C1        13.300000       16.950001        0.195000
  C2        13.500000       17.790001       -0.815000
  N1        14.550000       16.549999        0.745000
  C3c       15.580000       17.110001       -0.015000
  N2        14.910000       17.889999       -0.995000
  C4        15.760000       18.480000       -1.975000
  C5c       17.129999       18.469999       -1.665000
  C6        18.049999       19.139999       -2.425000
  H1        18.990000       19.379999       -1.945000
  C7        17.650000       19.670000       -3.665000
  H2        18.370001       20.260000       -4.245000
  C8        16.290001       19.700001       -3.995000
  H3        16.150000       20.160000       -4.945000
  C9        15.350000       19.120001       -3.215000
  H4        14.280000       19.440001       -3.265000
  C10       12.480000       18.230000       -1.595000
  H5        12.620000       19.000000       -2.345000
  C11       11.240000       17.690001       -1.545000
  H6        10.480000       17.950001       -2.325000
  C12       10.950000       16.820000       -0.615000
  H7         9.990000       16.340000       -0.655000
  C13       12.000000       16.450001        0.335000
  H8        11.720000       16.139999        1.355000
  C6        14.750000       16.290001        2.135000
  C1        14.240000       17.270000        3.035000
  H1        14.270000       18.309999        2.795000
  C2        14.060000       17.000000        4.345000
  H2        13.640000       17.790001        5.025000
  C3        14.440000       15.740000        4.865000
  H3        14.370000       15.700000        5.945000
  C4        14.910000       14.750000        4.015000
  H4        15.020000       13.740000        4.425000
  C5        15.040000       15.020000        2.655000
  H5        15.200000       14.220000        1.935000
  IR        13.780000        7.760000        1.390000
  C1        13.550000        3.900000       -0.740000
  C2        13.070000        3.650000        0.530000
  N1        13.880000        5.270000       -0.750000
  C3a       13.690000        5.870000        0.470000
  N2        13.170000        4.860000        1.250000
  C4        13.070000        5.140000        2.680000
  C5a       13.280000        6.460000        3.020000
  C6        13.140000        6.930000        4.350000
  H1        13.050000        7.960000        4.550000
  C7        12.980000        6.020000        5.370000
  H2        12.780000        6.480000        6.330000
  C8        12.930000        4.680000        5.090000
  H3        12.660000        3.890000        5.810000
  C9        12.970000        4.180000        3.740000
  H4        13.210000        3.150000        3.640000
  C10       12.760000        2.280000        0.800000
  H5        12.230000        1.920000        1.710000
  C11       12.950000        1.330000       -0.160000
  H6        12.500000        0.300000       -0.050000
  C12       13.460000        1.630000       -1.430000
  H7        13.450000        0.830000       -2.130000
  C13       13.720000        2.930000       -1.730000
  H8        13.860000        3.230000       -2.680000
  C6        14.040000        6.000000       -1.960000
  C1        13.010000        6.650000       -2.580000
  H1        12.070000        6.880000       -2.060000
  C2        13.250000        7.190000       -3.840000
  H2        12.380000        7.780000       -4.270000
  C3        14.490000        7.060000       -4.470000
  H3        14.530000        7.470000       -5.430000
  C4        15.570000        6.470000       -3.820000
  H4        16.469999        6.300000       -4.430000
  C5        15.280000        5.980000       -2.550000
  H5        16.070000        5.600000       -1.930000
  C1         9.520000        8.760000        1.690000
  C2        10.080000        9.600000        2.600000
  N1        10.560000        7.990000        1.080000
  C3b       11.810000        8.320000        1.540000
  N2        11.500000        9.390000        2.410000
  C4        12.650000       10.000000        3.020000
  C5b       13.890000        9.460000        2.670000
  C6        15.090000        9.870000        3.270000
  H1        15.990000        9.550000        2.800000
  C7        15.040000       10.770000        4.300000
  H2        15.900000       11.250000        4.770000
  C8        13.810000       11.310000        4.710000
  H3        13.810000       11.820000        5.650000
  C9        12.570000       10.930000        4.100000
  H4        11.650000       11.160000        4.670000
  C10        9.250000       10.310000        3.510000
  H5         9.700000       10.750000        4.420000
  C11        7.890000       10.180000        3.440000
  H6         7.220000       10.590000        4.190000
  C12        7.340000        9.330000        2.450000
  H7         6.250000        9.230000        2.360000
  C13        8.160000        8.700000        1.530000
  H8         7.740000        8.250000        0.600000
  C6        10.140000        6.740000        0.590000
  C1        10.030000        5.650000        1.470000
  H1        10.000000        5.730000        2.540000
  C2         9.600000        4.430000        0.890000
  H2         9.840000        3.430000        1.390000
  C3         9.430000        4.330000       -0.520000
  H3         9.120000        3.360000       -0.820000
  C4         9.550000        5.450000       -1.390000
  H4         9.130000        5.280000       -2.300000
  C5         9.890000        6.640000       -0.810000
  H5         9.940000        7.500000       -1.490000
  C1        14.920000       10.110000       -2.070000
  C2        16.059999        9.300000       -1.850000
  N1        14.120000        9.940000       -0.900000
  C3c       14.550000        8.940000       -0.120000
  N2        15.720000        8.640000       -0.650000
  C4        16.590000        7.940000        0.310000
  C5c       15.910000        7.470000        1.480000
  C6        16.610001        6.820000        2.500000
  H1        16.040001        6.540000        3.340000
  C7        17.969999        6.570000        2.460000
  H2        18.440001        5.800000        3.040000
  C8        18.639999        7.060000        1.330000
  H3        19.680000        6.760000        1.350000
  C9        18.020000        7.760000        0.270000
  H4        18.530001        7.830000       -0.680000
  C10       16.990000        9.240000       -2.900000
  H5        17.870001        8.640000       -2.800000
  C11       16.799999        9.930000       -4.080000
  H6        17.650000       10.190000       -4.630000
  C12       15.600000       10.630000       -4.310000
  H7        15.360000       11.030000       -5.300000
  C13       14.690000       10.780000       -3.300000
  H8        13.620000       11.170000       -3.500000
  C6        13.160000       10.980000       -0.560000
  C1        13.620000       12.080000        0.140000
  H1        14.700000       12.130000        0.480000
  C2        12.700000       13.010000        0.670000
  H2        13.140000       13.750000        1.250000
  C3        11.310000       12.850000        0.540000
  H3        10.680000       13.550000        0.900000
  C4        10.850000       11.640000       -0.070000
  H4         9.730000       11.460000       -0.130000
  C5        11.780000       10.770000       -0.630000
  H5        11.440000        9.860000       -1.110000
