206
 generated by VMD
 Ir      -23.815582       86.293655     -103.494583
 C       -25.988560       83.204422     -101.322311
 C       -25.520458       82.563110     -102.447563
 N       -25.657604       84.561745     -101.456985
 C       -24.968842       84.810684     -102.629898
 N       -24.897785       83.559494     -103.244370
 C       -24.291634       83.549713     -104.544327
 C       -23.682182       84.755661     -104.935165
 C       -23.188423       84.871704     -106.241173
 H       -22.726845       85.795326     -106.566223
 C       -23.324066       83.838135     -107.167587
 H       -23.018230       83.983017     -108.200729
 C       -23.925747       82.645950     -106.783844
 H       -24.091404       81.856720     -107.509018
 C       -24.396341       82.495834     -105.476242
 H       -24.867565       81.559769     -105.214066
 C       -25.739197       81.167801     -102.559593
 H       -25.413448       80.612312     -103.420708
 C       -26.412193       80.463577     -101.561523
 H       -26.607864       79.406303     -101.683495
 C       -26.884056       81.140915     -100.426903
 H       -27.449902       80.618179      -99.678391
 C       -26.663612       82.513962     -100.313904
 H       -27.017601       83.028183      -99.422806
 C       -26.297852       85.583801     -100.670090
 C       -27.450912       86.215164     -101.160423
 H       -27.873850       85.904312     -102.099777
 C       -28.036629       87.256226     -100.446106
 H       -28.850620       87.803604     -100.882782
 C       -27.496014       87.669182      -99.222092
 H       -27.985466       88.429184      -98.637169
 C       -26.342949       87.037819      -98.731766
 H       -25.937262       87.343445      -97.779190
 C       -25.744900       86.001999      -99.450607
 H       -24.878353       85.497841      -99.041672
 C       -19.865778       85.262169     -101.941788
 C       -19.609848       86.209572     -102.911232
 N       -21.247665       84.993393     -101.975639
 C       -21.895679       85.755692     -102.927254
 N       -20.867935       86.491165     -103.518288
 C       -21.252003       87.363464     -104.573517
 C       -22.636074       87.622711     -104.643036
 C       -23.086971       88.656815     -105.471863
 H       -24.142529       88.869438     -105.539642
 C       -22.190449       89.424454     -106.228874
 H       -22.567562       90.240974     -106.820801
 C       -20.823715       89.149490     -106.180618
 H       -20.133463       89.729149     -106.766998
 C       -20.353504       88.106873     -105.375336
 H       -19.349388       87.755417     -105.520355
 C       -18.290476       86.675613     -103.084946
 H       -18.074936       87.488670     -103.767128
 C       -17.252150       86.164764     -102.303398
 H       -16.242308       86.518219     -102.456665
 C       -17.515858       85.203606     -101.326859
 H       -16.724358       84.828491     -100.707657
 C       -18.829868       84.756561     -101.138641
 H       -19.037935       84.046997     -100.360367
 C       -21.785622       83.792618     -101.383644
 C       -21.476349       82.560997     -101.966965
 H       -21.009216       82.527618     -102.943474
 C       -21.776718       81.373230     -101.286743
 H       -21.464310       80.427216     -101.707504
 C       -22.405754       81.415131     -100.034164
 H       -22.638065       80.494667      -99.522232
 C       -22.741489       82.648079      -99.477280
 H       -23.232578       82.688019      -98.514297
 C       -22.426640       83.837799     -100.137833
 H       -22.695339       84.787735      -99.703873
 C       -24.438957       89.820557     -100.975555
 C       -25.510136       89.817810     -101.844559
 N       -23.665085       88.685684     -101.285034
 C       -24.222794       87.939232     -102.300491
 N       -25.384556       88.640015     -102.623474
 C       -26.228889       88.043671     -103.605545
 C       -25.612873       87.030136     -104.360184
 C       -26.270845       86.535950     -105.489677
 H       -25.799721       85.799561     -106.119408
 C       -27.534008       87.015999     -105.858429
 H       -28.001720       86.675667     -106.777130
 C       -28.165924       87.993500     -105.078323
 H       -29.131935       88.373856     -105.371162
 C       -27.512516       88.496201     -103.951401
 H       -28.051029       89.178894     -103.302307
 C       -26.392052       90.917404     -101.848740
 H       -27.149601       91.033112     -102.609550
 C       -26.201797       91.980438     -100.960381
 H       -26.867580       92.824722     -100.980316
 C       -25.121853       91.957626     -100.074944
 H       -24.985067       92.753418      -99.354584
 C       -24.236725       90.880310     -100.080429
 H       -23.389898       90.879883      -99.407021
 C       -22.363560       88.464355     -100.710876
 C       -22.230316       87.569214      -99.636505
 H       -23.098545       87.070885      -99.242493
 C       -20.974564       87.357727      -99.065231
 H       -20.875950       86.692581      -98.217133
 C       -19.852415       88.032867      -99.557022
 H       -18.873676       87.852303      -99.130676
 C       -19.985662       88.928024     -100.631386
 H       -19.119932       89.421112     -101.038300
 C       -21.241413       89.139496     -101.202667
 H       -21.353622       89.840683     -102.023987
 Ir      -23.815580       86.293655      -93.204773
 C       -27.516144       88.284958      -92.101807
 C       -27.902428       87.195099      -92.848206
 N       -26.112392       88.374908      -92.193420
 C       -25.589783       87.327988      -92.931885
 N       -26.702568       86.653015      -93.387985
 C       -26.449211       85.759552      -94.462242
 C       -25.101746       85.371948      -94.597122
 C       -24.757404       84.517090      -95.665939
 H       -23.725952       84.256699      -95.829971
 C       -25.723793       84.067535      -96.567650
 H       -25.428143       83.417709      -97.376862
 C       -27.046591       84.465607      -96.441803
 H       -27.784813       84.135818      -97.157249
 C       -27.417751       85.313263      -95.388130
 H       -28.422310       85.700119      -95.358200
 C       -29.255333       86.842461      -92.900131
 H       -29.581882       85.934662      -93.383118
 C       -30.218735       87.601944      -92.215340
 H       -31.258617       87.327805      -92.251297
 C       -29.809837       88.716026      -91.467667
 H       -30.544979       89.298569      -90.918106
 C       -28.459793       89.054916      -91.417343
 H       -28.155048       89.911591      -90.831833
 C       -25.438095       89.620682      -91.984917
 C       -24.855526       89.907181      -90.748703
 H       -24.868179       89.163483      -89.963440
 C       -24.203838       91.128731      -90.541489
 H       -23.709358       91.323608      -89.607674
 C       -24.151258       92.075562      -91.579834
 H       -23.569925       92.978752      -91.446793
 C       -24.743309       91.797562      -92.809906
 H       -24.740133       92.549797      -93.589035
 C       -25.378098       90.572746      -93.019073
 H       -25.800518       90.345749      -93.992584
 C       -24.207197       82.977676      -90.394089
 C       -23.295162       82.526825      -91.326096
 N       -24.685436       84.227898      -90.847893
 C       -24.079838       84.604614      -92.033310
 N       -23.226513       83.530640      -92.320900
 C       -22.350384       83.733643      -93.433960
 C       -22.183266       85.077957      -93.787476
 C       -21.134483       85.421051      -94.665222
 H       -20.927433       86.456116      -94.869858
 C       -20.327553       84.425766      -95.231659
 H       -19.531836       84.717804      -95.907784
 C       -20.547586       83.084091      -94.930984
 H       -19.952658       82.310280      -95.398941
 C       -21.560429       82.731148      -94.032944
 H       -21.813065       81.693497      -93.911469
 C       -22.666555       81.290359      -91.131912
 H       -21.928242       80.926643      -91.817482
 C       -22.959457       80.513268      -89.999596
 H       -22.498962       79.544159      -89.865891
 C       -23.870697       80.991631      -89.055664
 H       -24.058067       80.428772      -88.139374
 C       -24.499302       82.228096      -89.249847
 H       -25.174782       82.599632      -88.494339
 C       -25.870659       84.847290      -90.311325
 C       -27.117382       84.224060      -90.475563
 H       -27.182011       83.297844      -91.017365
 C       -28.266754       84.823135      -89.953201
 H       -29.221031       84.328201      -90.055664
 C       -28.183880       86.043472      -89.286255
 H       -29.083012       86.537674      -88.932663
 C       -26.941717       86.675217      -89.124588
 H       -26.883436       87.621750      -88.620834
 C       -25.792347       86.076141      -89.646957
 H       -24.851124       86.603188      -89.609283
 C       -21.348328       88.694641      -90.525345
 C       -21.429955       89.442383      -91.673927
 N       -21.942436       87.439026      -90.791931
 C       -22.444168       87.389648      -92.085846
 N       -22.085354       88.614700      -92.629700
 C       -22.377781       88.788025      -94.023636
 C       -23.273010       87.843750      -94.552124
 C       -23.692904       87.992203      -95.880219
 H       -24.327888       87.237801      -96.319168
 C       -23.250015       89.060699      -96.663696
 H       -23.627197       89.176979      -97.669098
 C       -22.340746       89.987946      -96.138779
 H       -21.987368       90.800949      -96.754608
 C       -21.894123       89.836212      -94.830032
 H       -21.083179       90.456268      -94.486954
 C       -20.993225       90.773041      -91.656998
 H       -21.126427       91.417236      -92.513138
 C       -20.471684       91.334732      -90.489700
 H       -20.193047       92.385452      -90.458679
 C       -20.385849       90.569962      -89.327263
 H       -20.016846       91.010559      -88.406876
 C       -20.824062       89.238243      -89.345032
 H       -20.730833       88.641884      -88.454041
 C       -21.633900       86.271339      -89.997559
 C       -20.753502       85.311386      -90.499542
 H       -20.282663       85.471909      -91.462471
 C       -20.473213       84.156822      -89.767059
 H       -19.792841       83.415070      -90.163788
 C       -21.073673       83.953697      -88.521317
 H       -20.876120       83.054703      -87.961868
 C       -21.951572       84.918892      -88.006424
 H       -22.456642       84.745926      -87.062828
 C       -22.236423       86.081970      -88.741486
 H       -22.855749       86.843353      -88.310287
