206
 generated by VMD
  IR        34.549999       36.869999       28.840000
  C1        37.180000       37.820000       32.180000
  C2        36.990002       36.480000       32.259998
  N1        36.549999       38.279999       30.930000
  C3a       35.950001       37.220001       30.370001
  N2        36.189999       36.150002       31.190001
  C4        35.320000       34.970001       30.940001
  C5a       34.270000       35.209999       30.110001
  C6        33.209999       34.279999       30.010000
  H1        32.299999       34.580002       29.570000
  C7        33.360001       33.060001       30.580000
  H2        32.549999       32.389999       30.540001
  C8        34.450001       32.730000       31.379999
  H3        34.430000       31.840000       32.049999
  C9        35.430000       33.700001       31.600000
  H4        36.360001       33.389999       31.950001
  C10       37.650002       35.740002       33.230000
  H5        37.650002       34.630001       33.259998
  C11       38.509998       36.330002       34.200001
  H6        38.849998       35.680000       35.070000
  C12       38.580002       37.689999       34.220001
  H7        39.150002       38.310001       34.930000
  C13       37.910000       38.439999       33.150002
  H8        37.910000       39.529999       33.080002
  C6        37.029999       39.450001       30.190001
  C1        37.360001       39.369999       28.790001
  H1        37.290001       38.430000       28.280001
  C2        37.509998       40.540001       28.110001
  H2        37.880001       40.490002       27.100000
  C3        37.349998       41.770000       28.719999
  H3        37.380001       42.680000       28.150000
  C4        37.029999       41.880001       30.040001
  H4        37.009998       42.849998       30.549999
  C5        36.910000       40.709999       30.809999
  H5        36.939999       40.840000       31.900000
  C1        36.740002       34.509998       25.889999
  C2        35.450001       34.419998       25.549999
  N1        36.759998       35.230000       27.150000
  C3b       35.470001       35.509998       27.620001
  N2        34.700001       35.009998       26.610001
  C4        33.299999       35.310001       26.719999
  C5b       32.970001       36.310001       27.600000
  C6        31.629999       36.740002       27.570000
  H1        31.320000       37.560001       28.190001
  C7        30.670000       36.130001       26.790001
  H2        29.709999       36.599998       26.950001
  C8        30.969999       34.970001       26.059999
  H3        30.330000       34.220001       25.740000
  C9        32.349998       34.619999       25.959999
  H4        32.570000       33.639999       25.690001
  C10       35.119999       33.840000       24.320000
  H5        34.119999       33.980000       23.969999
  C11       36.080002       33.310001       23.490000
  H6        35.730000       32.810001       22.600000
  C12       37.419998       33.360001       23.860001
  H7        38.189999       33.070000       23.129999
  C13       37.720001       33.919998       25.129999
  H8        38.759998       33.849998       25.520000
  C6        37.950001       35.570000       27.900000
  C1        38.959999       36.189999       27.209999
  H1        38.779999       36.590000       26.209999
  C2        40.290001       36.049999       27.639999
  H2        40.959999       36.830002       27.320000
  C3        40.619999       35.279999       28.730000
  H3        41.540001       35.340000       29.270000
  C4        39.570000       34.700001       29.430000
  H4        39.889999       34.250000       30.320000
  C5        38.259998       34.779999       29.000000
  H5        37.560001       34.110001       29.430000
  C1        34.369999       40.459999       26.420000
  C2        33.779999       40.810001       27.580000
  N1        34.799999       39.070000       26.520000
  C3c       34.480000       38.590000       27.709999
  N2        33.930000       39.709999       28.420000
  C4        33.490002       39.400002       29.780001
  C5c       33.270000       38.080002       30.000000
  C6        32.470001       37.639999       31.049999
  H1        32.110001       36.619999       31.020000
  C7        31.980000       38.570000       32.040001
  H2        31.469999       38.299999       32.919998
  C8        32.299999       39.900002       31.910000
  H3        32.230000       40.459999       32.810001
  C9        32.990002       40.320000       30.760000
  H4        33.119999       41.360001       30.690001
  C10       33.240002       42.060001       27.680000
  H5        32.799999       42.330002       28.660000
  C11       33.330002       43.090000       26.670000
  H6        33.060001       44.070000       26.940001
  C12       33.970001       42.709999       25.469999
  H7        33.950001       43.360001       24.549999
  C13       34.490002       41.419998       25.370001
  H8        34.840000       41.049999       24.370001
  C6        35.139999       38.320000       25.379999
  C1        34.130001       37.860001       24.500000
  H1        33.099998       37.849998       24.900000
  C2        34.520000       37.160000       23.350000
  H2        33.770000       36.820000       22.620001
  C3        35.880001       36.980000       23.100000
  H3        36.180000       36.880001       22.049999
  C4        36.849998       37.389999       24.020000
  H4        37.919998       37.160000       23.870001
  C5        36.439999       38.099998       25.110001
  H5        37.209999       38.419998       25.709999
  IR        36.209999       34.110001       15.340000
  C1        36.450001       29.770000       15.100000
  C2        36.959999       30.209999       13.860000
  N1        36.189999       30.850000       15.860000
  C3a       36.529999       32.060001       15.240000
  N2        37.020000       31.610001       14.000000
  C4        37.570000       32.580002       13.160000
  C5a       37.040001       33.849998       13.400000
  C6        37.320000       34.900002       12.510000
  H1        36.939999       35.889999       12.690000
  C7        38.150002       34.650002       11.360000
  H2        38.279999       35.490002       10.680000
  C8        38.610001       33.400002       11.120000
  H3        39.230000       33.299999       10.270000
  C9        38.330002       32.389999       12.010000
  H4        38.630001       31.389999       11.840000
  C10       37.020000       29.379999       12.760000
  H5        37.380001       29.610001       11.750000
  C11       36.770000       28.000000       12.950000
  H6        37.259998       27.340000       12.310000
  C12       36.360001       27.570000       14.210000
  H7        36.250000       26.510000       14.450000
  C13       36.139999       28.410000       15.320000
  H8        35.590000       28.010000       16.180000
  C6        35.790001       30.690001       17.250000
  C1        36.849998       30.670000       18.180000
  H1        37.869999       30.860001       17.900000
  C2        36.540001       30.430000       19.480000
  H2        37.220001       30.010000       20.209999
  C3        35.220001       30.350000       19.920000
  H3        35.139999       30.469999       21.010000
  C4        34.160000       30.350000       19.040001
  H4        33.200001       30.010000       19.420000
  C5        34.439999       30.559999       17.690001
  H5        33.689999       30.969999       17.040001
  C1        40.220001       35.320000       16.740000
  C2        39.520000       36.439999       16.660000
  N1        39.389999       34.299999       16.219999
  C3b       38.169998       34.779999       15.760000
  N2        38.209999       36.130001       16.059999
  C4        37.119999       36.939999       15.540000
  C5b       36.009998       36.169998       15.110000
  C6        34.820000       36.830002       14.880000
  H1        33.900002       36.330002       14.670000
  C7        34.799999       38.180000       14.890000
  H2        34.000000       38.730000       14.480000
  C8        35.950001       38.930000       15.120000
  H3        35.849998       40.009998       14.990000
  C9        37.110001       38.290001       15.480000
  H4        38.000000       38.900002       15.710000
  C10       40.240002       37.630001       17.040001
  H5        39.580002       38.509998       17.120001
  C11       41.549999       37.619999       17.559999
  H6        41.810001       38.419998       18.260000
  C12       42.270000       36.439999       17.590000
  H7        43.349998       36.520000       17.709999
  C13       41.599998       35.299999       17.180000
  H8        42.119999       34.369999       17.000000
  C6        39.980000       33.139999       15.710000
  C1        40.529999       33.220001       14.420000
  H1        40.200001       33.910000       13.720000
  C2        41.320000       32.209999       13.980000
  H2        41.660000       32.299999       12.930000
  C3        41.509998       31.090000       14.760000
  H3        42.070000       30.260000       14.420000
  C4        40.930000       31.020000       16.040001
  H4        41.220001       30.139999       16.559999
  C5        40.110001       32.040001       16.549999
  H5        39.650002       32.060001       17.559999
  C1        34.139999       34.349998       19.129999
  C2        33.250000       33.740002       18.280001
  N1        35.279999       34.619999       18.420000
  C3c       35.160000       34.250000       17.139999
  N2        33.900002       33.720001       17.049999
  C4        33.320000       33.560001       15.720000
  C5c       34.240002       33.740002       14.670000
  C6        33.740002       33.669998       13.350000
  H1        34.520000       33.669998       12.570000
  C7        32.360001       33.470001       13.060000
  H2        32.080002       33.299999       12.030000
  C8        31.430000       33.340000       14.120000
  H3        30.500000       32.919998       13.940000
  C9        31.920000       33.419998       15.410000
  H4        31.260000       33.049999       16.170000
  C10       32.200001       32.950001       18.830000
  H5        31.379999       32.490002       18.230000
  C11       32.130001       32.709999       20.200001
  H6        31.500000       31.969999       20.629999
  C12       33.020000       33.299999       21.040001
  H7        33.099998       32.990002       22.049999
  C13       33.930000       34.150002       20.549999
  H8        34.349998       34.830002       21.360001
  C6        36.189999       35.680000       18.820000
  C1        37.470001       35.439999       19.410000
  H1        37.869999       34.430000       19.590000
  C2        38.330002       36.470001       19.760000
  H2        39.310001       36.200001       20.230000
  C3        37.930000       37.770000       19.559999
  H3        38.639999       38.599998       19.750000
  C4        36.660000       38.009998       19.020000
  H4        36.360001       39.040001       18.950001
  C5        35.779999       36.990002       18.610001
  H5        34.779999       37.189999       18.340000
