206
 generated by VMD
 Ir       89.848877       12.936789        2.922170
 C        91.529617       14.629832        6.606946
 C        90.514771       13.873868        7.037745
 N        91.640945       14.488863        5.208399
 C        90.632950       13.704623        4.729004
 N        89.968887       13.270144        5.899663
 C        89.095566       12.172049        5.693506
 C        88.819214       11.830273        4.403964
 C        88.041054       10.706312        4.095942
 H        87.517586       10.636162        3.098563
 C        87.623032        9.816791        5.158445
 H        87.222992        8.820327        4.935669
 C        87.870773       10.137162        6.459092
 H        87.661240        9.421514        7.241231
 C        88.598061       11.323644        6.765557
 H        88.483887       11.765846        7.764918
 C        90.126205       13.966183        8.348700
 H        89.289536       13.402555        8.753772
 C        90.707123       14.891923        9.198200
 H        90.350266       14.711230       10.199701
 C        91.658661       15.803880        8.814924
 H        92.176735       16.553471        9.397173
 C        92.128746       15.627637        7.507191
 H        92.934128       16.151220        7.223430
 C        92.603302       15.321842        4.511681
 C        92.155891       16.528254        3.991590
 H        91.320450       16.976650        4.531570
 C        93.003708       17.297951        3.147984
 H        92.756638       18.347122        2.804912
 C        94.269829       16.810577        2.768912
 H        95.009415       17.273510        2.135735
 C        94.721375       15.649741        3.378478
 H        95.680443       15.305428        3.042416
 C        93.931992       14.930392        4.334562
 H        94.365692       14.334391        5.086412
 C        92.284698        9.392377        2.194348
 C        91.224854        9.325615        1.262473
 N        92.001259       10.517855        3.021127
 C        90.840561       11.168663        2.600152
 N        90.407288       10.428035        1.533313
 C        89.181671       10.884678        0.832007
 C        88.850861       12.184965        1.234407
 C        88.026291       12.890623        0.317337
 H        87.731628       13.819794        0.628813
 C        87.763695       12.504654       -1.012917
 H        87.161316       13.141459       -1.679412
 C        88.205566       11.283522       -1.480880
 H        88.260010       11.167171       -2.537289
 C        88.819519       10.469143       -0.487530
 H        88.760803        9.474820       -0.538275
 C        91.336411        8.266672        0.310268
 H        90.576927        8.040664       -0.388947
 C        92.416855        7.326845        0.354643
 H        92.295219        6.319455       -0.027417
 C        93.425018        7.426562        1.279941
 H        94.238525        6.700788        1.301371
 C        93.346222        8.472572        2.183574
 H        94.218712        8.613271        2.829381
 C        92.295715       10.525307        4.424246
 C        93.017120       11.501260        5.075157
 H        93.495232       12.273098        4.516876
 C        93.122742       11.571546        6.437105
 H        93.573631       12.371037        6.915452
 C        92.623207       10.545296        7.242197
 H        92.866592       10.365673        8.261265
 C        91.866684        9.554405        6.625105
 H        91.493782        8.715273        7.144629
 C        91.721634        9.535402        5.206442
 H        91.075417        8.805210        4.709638
 C        92.041641       15.557731        0.224107
 C        90.987541       16.404671        0.662823
 N        91.873886       14.303736        0.823657
 C        90.755142       14.249645        1.619258
 N        90.181564       15.592472        1.451264
 C        88.863266       15.725186        2.074867
 C        88.612579       14.675215        2.980024
 C        87.418182       14.771585        3.618654
 H        87.219772       14.053928        4.470594
 C        86.566116       15.853400        3.418765
 H        85.612305       15.764524        3.914886
 C        86.840683       16.878578        2.536312
 H        86.260040       17.709061        2.578206
 C        87.980339       16.879379        1.871947
 H        88.283188       17.861570        1.357668
 C        91.051392       17.711151        0.428034
 H        90.248230       18.331728        0.725706
 C        92.082977       18.230762       -0.406198
 H        92.045296       19.246668       -0.706227
 C        93.108513       17.423244       -0.833500
 H        93.775116       17.920830       -1.479839
 C        93.154724       16.073330       -0.479962
 H        93.814827       15.419350       -0.976426
 C        92.625725       13.127869        0.458031
 C        93.693031       12.670914        1.246155
 H        93.556175       12.790340        2.357329
 C        94.628250       11.836460        0.633334
 H        95.637543       11.809483        0.930182
 C        94.382401       11.290798       -0.655466
 H        95.093384       10.644668       -1.086747
 C        93.239319       11.642110       -1.347163
 H        92.859444       11.190052       -2.269521
 C        92.396477       12.595139       -0.790066
 H        91.679077       13.065786       -1.415791
 Ir       89.848877       12.936790       14.933344
 C        88.660645       15.383208       18.343349
 C        87.641159       14.475755       18.173126
 N        89.610397       15.116397       17.313311
 C        89.195198       14.121357       16.486988
 N        87.929321       13.754837       16.994764
 C        87.082199       13.165428       15.999649
 C        87.777542       12.561838       14.961782
 C        87.026184       11.873564       13.995840
 H        87.429947       10.976901       13.415773
 C        85.641525       11.929173       13.948734
 H        85.112526       11.210530       13.424990
 C        84.925766       12.615305       14.922029
 H        83.908630       12.964122       14.703016
 C        85.654449       13.265541       15.936335
 H        85.142052       13.733475       16.787859
 C        86.520340       14.474018       19.019270
 H        86.136909       13.496777       19.218460
 C        86.385933       15.536351       19.955158
 H        85.563263       15.523688       20.638870
 C        87.443321       16.384672       20.109047
 H        87.483658       17.137028       20.870646
 C        88.584335       16.354836       19.326111
 H        89.248940       17.182999       19.302757
 C        90.917297       15.637796       17.380796
 C        92.056839       14.956797       17.923185
 H        92.020142       14.015721       18.391939
 C        93.280045       15.636818       17.846682
 H        94.232498       15.183605       17.913975
 C        93.367767       16.912216       17.253334
 H        94.390961       17.381886       17.192621
 C        92.249481       17.530695       16.717224
 H        92.479034       18.256199       15.933611
 C        91.027077       16.880239       16.798748
 H        90.223083       17.468216       16.392191
 C        90.282181        9.121965       16.953730
 C        90.689285        8.878119       15.695633
 N        89.968849       10.519288       17.020899
 C        89.978745       11.079434       15.811960
 N        90.475861       10.068832       14.991680
 C        90.705719       10.353340       13.638050
 C        90.223709       11.644437       13.282064
 C        90.299347       12.127747       11.977346
 H        89.805527       13.074664       11.737986
 C        90.825867       11.312111       10.960285
 H        90.675842       11.598448        9.955195
 C        91.454254       10.073680       11.281569
 H        91.796844        9.475933       10.444773
 C        91.374222        9.605309       12.558763
 H        91.571274        8.558767       12.715042
 C        91.143967        7.551032       15.371576
 H        91.425728        7.393253       14.343660
 C        91.244896        6.545252       16.259226
 H        91.513763        5.511062       15.913021
 C        90.733543        6.774160       17.562155
 H        90.270233        6.007093       18.149733
 C        90.371651        8.127424       17.896536
 H        90.350281        8.301525       18.906353
 C        89.971588       11.193383       18.309151
 C        91.146439       11.714293       18.818859
 H        92.104797       11.247702       18.605465
 C        91.000023       12.339422       20.060703
 H        91.840935       12.574214       20.635452
 C        89.804840       12.476598       20.757935
 H        89.813919       12.964998       21.704603
 C        88.658112       11.947838       20.170458
 H        87.708725       11.834479       20.630789
 C        88.729118       11.278203       18.963707
 H        87.840210       10.795155       18.723272
 C        94.091064       14.010536       14.865614
 C        93.412247       15.059262       14.354940
 N        93.152290       12.995880       15.074852
 C        91.849030       13.498546       14.712448
 N        92.069977       14.727433       14.192524
 C        91.040863       15.125569       13.326424
 C        89.739426       14.705312       13.738039
 C        88.672699       15.463459       13.207758
 H        87.693741       15.039989       13.228363
 C        88.808533       16.600124       12.407921
 H        87.856514       16.945103       11.962093
 C        90.044220       17.026848       12.028458
 H        90.238129       17.788071       11.338940
 C        91.147644       16.272400       12.471336
 H        92.163078       16.459518       12.044150
 C        94.106148       16.325386       14.197678
 H        93.591820       17.233196       13.893129
 C        95.519638       16.460869       14.489231
 H        96.014816       17.354809       14.165258
 C        96.158897       15.351316       15.005894
 H        97.240364       15.474486       15.183809
 C        95.454636       14.126306       15.161688
 H        95.973099       13.264074       15.555716
 C        93.578766       11.625359       14.891575
 C        93.807846       10.820834       15.947966
 H        93.439682       11.118594       16.942097
 C        94.457893        9.635558       15.833239
 H        94.913712        9.137798       16.660320
 C        94.761177        9.204459       14.559086
 H        95.276657        8.310697       14.362432
 C        94.548958        9.961401       13.481445
 H        95.044762        9.765272       12.525768
 C        94.018982       11.215353       13.650646
 H        93.928879       11.854165       12.830952
