206
 generated by VMD
  IR         7.240000        4.070000       44.119999
  C1         9.570000        7.630000       45.200001
  C2         8.870000        8.020000       44.130001
  N1         9.200000        6.310000       45.529999
  C3a        8.320000        5.820000       44.610001
  N2         8.070000        6.930000       43.770000
  C4         6.930000        6.780000       42.939999
  C5a        6.370000        5.540000       42.869999
  C6         5.190000        5.310000       42.150002
  H1         4.940000        4.270000       41.790001
  C7         4.480000        6.430000       41.570000
  H2         3.450000        6.320000       41.209999
  C8         5.020000        7.680000       41.610001
  H3         4.440000        8.530000       41.279999
  C9         6.260000        7.890000       42.279999
  H4         6.860000        8.770000       42.009998
  C10        9.170000        9.220000       43.540001
  H5         8.660000        9.580000       42.650002
  C11       10.240000        9.980000       43.980000
  H6        10.220000       10.930000       43.470001
  C12       11.100000        9.600000       44.980000
  H7        11.950000       10.120000       45.400002
  C13       10.720000        8.430000       45.650002
  H8        11.210000        8.190000       46.490002
  C6         9.930000        5.640000       46.590000
  C1        11.020000        4.860000       46.230000
  H1        11.530000        5.180000       45.320000
  C2        11.660000        4.040000       47.200001
  H2        12.630000        3.490000       47.009998
  C3        11.150000        3.950000       48.509998
  H3        11.520000        3.370000       49.340000
  C4        10.120000        4.810000       48.860001
  H4         9.750000        4.690000       49.860001
  C5         9.550000        5.740000       47.930000
  H5         9.100000        6.640000       48.240002
  C1         3.690000        4.340000       46.639999
  C2         3.440000        3.280000       45.740002
  N1         4.930000        4.910000       46.230000
  C3b        5.470000        4.210000       45.150002
  N2         4.550000        3.230000       44.889999
  C4         4.850000        2.280000       43.790001
  C5b        6.190000        2.400000       43.400002
  C6         6.710000        1.260000       42.730000
  H1         7.670000        1.360000       42.389999
  C7         6.100000       -0.010000       42.680000
  H2         6.600000       -0.860000       42.189999
  C8         4.830000       -0.190000       43.189999
  H3         4.540000       -1.190000       43.410000
  C9         4.210000        1.010000       43.639999
  H4         3.220000        1.120000       43.590000
  C10        2.240000        2.550000       46.000000
  H5         1.880000        1.790000       45.360001
  C11        1.350000        2.920000       47.060001
  H6         0.290000        2.700000       47.000000
  C12        1.630000        3.960000       47.910000
  H7         0.940000        4.230000       48.709999
  C13        2.810000        4.650000       47.689999
  H8         3.080000        5.390000       48.450001
  C6         5.180000        6.320000       46.299999
  C1         6.270000        6.900000       46.910000
  H1         6.950000        6.300000       47.470001
  C2         6.570000        8.230000       46.799999
  H2         7.450000        8.630000       47.169998
  C3         5.680000        9.110000       46.180000
  H3         5.680000       10.170000       46.259998
  C4         4.580000        8.560000       45.529999
  H4         3.830000        9.150000       45.080002
  C5         4.320000        7.160000       45.610001
  H5         3.500000        6.700000       45.049999
  C1         9.430000        1.340000       46.709999
  C2        10.310000        1.460000       45.599998
  N1         8.290000        2.110000       46.450001
  C3c        8.340000        2.720000       45.220001
  N2         9.620000        2.240000       44.680000
  C4         9.820000        2.620000       43.279999
  C5c        8.930000        3.640000       42.889999
  C6         9.100000        4.060000       41.610001
  H1         8.530000        4.980000       41.279999
  C7        10.110000        3.550000       40.799999
  H2        10.080000        3.900000       39.779999
  C8        10.980000        2.560000       41.209999
  H3        11.790000        2.370000       40.630001
  C9        10.900000        2.090000       42.439999
  H4        11.790000        1.470000       42.820000
  C10       11.560000        1.020000       45.700001
  H5        12.200000        1.080000       44.860001
  C11       11.960000        0.280000       46.849998
  H6        12.910000       -0.190000       46.860001
  C12       11.120000        0.160000       47.930000
  H7        11.520000       -0.450000       48.689999
  C13        9.850000        0.740000       47.919998
  H8         9.140000        0.470000       48.650002
  C6         7.090000        2.070000       47.250000
  C1         6.800000        3.080000       48.180000
  H1         7.100000        4.120000       47.869999
  C2         5.900000        2.770000       49.200001
  H2         5.950000        3.220000       50.150002
  C3         5.140000        1.570000       49.160000
  H3         4.450000        1.370000       49.930000
  C4         5.340000        0.660000       48.139999
  H4         4.730000       -0.220000       47.910000
  C5         6.350000        0.910000       47.220001
  H5         6.690000        0.110000       46.610001
  IR         9.250000       15.760000       42.230000
  C1        12.200000       18.480000       40.520000
  C2        11.250000       18.309999       39.540001
  N1        11.790000       17.670000       41.619999
  C3a       10.660000       16.969999       41.340000
  N2        10.350000       17.330000       40.009998
  C4         9.580000       16.330000       39.330002
  C5a        8.830000       15.530000       40.180000
  C6         7.970000       14.590000       39.590000
  H1         7.000000       14.240000       40.080002
  C7         7.980000       14.320000       38.230000
  H2         7.170000       13.850000       37.790001
  C8         8.800000       15.040000       37.369999
  H3         9.080000       14.610000       36.400002
  C9         9.630000       16.030001       37.930000
  H4        10.220000       16.700001       37.290001
  C10       11.360000       18.959999       38.299999
  H5        10.420000       19.260000       37.889999
  C11       12.560000       19.670000       38.020000
  H6        12.640000       20.209999       37.099998
  C12       13.450000       19.840000       39.040001
  H7        14.320000       20.459999       38.959999
  C13       13.320000       19.260000       40.290001
  H8        14.150000       19.200001       40.950001
  C6        12.350000       17.850000       42.900002
  C1        11.800000       18.670000       43.939999
  H1        10.950000       19.280001       43.830002
  C2        12.490000       18.670000       45.160000
  H2        12.080000       18.959999       46.090000
  C3        13.650000       17.889999       45.340000
  H3        14.130000       17.910000       46.360001
  C4        14.140000       17.090000       44.320000
  H4        14.730000       16.240000       44.669998
  C5        13.480000       17.090000       43.099998
  H5        13.970000       16.469999       42.369999
  C1         5.840000       18.440001       42.340000
  C2         5.400000       17.320000       42.939999
  N1         7.220000       18.219999       42.020000
  C3b        7.570000       16.950001       42.220001
  N2         6.450000       16.400000       42.840000
  C4         6.510000       15.070000       43.279999
  C5b        7.710000       14.430000       42.860001
  C6         7.970000       13.090000       43.139999
  H1         8.850000       12.620000       42.689999
  C7         7.010000       12.320000       43.820000
  H2         7.120000       11.270000       43.830002
  C8         5.860000       12.940000       44.389999
  H3         5.140000       12.280000       44.860001
  C9         5.610000       14.250000       44.110001
  H4         4.610000       14.610000       44.279999
  C10        4.050000       17.299999       43.439999
  H5         3.730000       16.370001       43.880001
  C11        3.210000       18.350000       43.400002
  H6         2.140000       18.230000       43.720001
  C12        3.640000       19.500000       42.689999
  H7         2.970000       20.129999       42.139999
  C13        5.020000       19.540001       42.279999
  H8         5.360000       20.490000       42.099998
  C6         8.100000       19.360001       41.820000
  C1         8.730000       19.950001       42.900002
  H1         8.260000       19.969999       43.880001
  C2         9.550000       21.030001       42.560001
  H2         9.900000       21.680000       43.299999
  C3         9.770000       21.500000       41.270000
  H3        10.410000       22.340000       41.130001
  C4         9.120000       20.840000       40.230000
  H4         9.060000       21.160000       39.220001
  C5         8.260000       19.790001       40.490002
  H5         7.720000       19.500000       39.650002
  C1        10.410000       16.170000       46.430000
  C2        11.340000       15.390000       45.840000
  N1         9.420000       16.400000       45.470001
  C3c        9.820000       15.760000       44.240002
  N2        10.950000       15.080000       44.540001
  C4        11.170000       14.010000       43.660000
  C5c       10.790000       14.280000       42.310001
  C6        11.420000       13.470000       41.340000
  H1        10.980000       13.410000       40.369999
  C7        12.410000       12.520000       41.599998
  H2        12.650000       11.880000       40.730000
  C8        12.800000       12.270000       42.880001
  H3        13.440000       11.500000       43.180000
  C9        12.160000       13.000000       43.900002
  H4        12.300000       12.710000       44.970001
  C10       12.580000       15.130000       46.549999
  H5        13.410000       14.600000       46.090000
  C11       12.800000       15.610000       47.900002
  H6        13.640000       15.220000       48.439999
  C12       11.810000       16.400000       48.450001
  H7        11.990000       16.719999       49.490002
  C13       10.610000       16.650000       47.730000
  H8         9.840000       17.260000       48.180000
  C6         8.050000       16.520000       45.919998
  C1         7.440000       17.719999       45.980000
  H1         7.890000       18.580000       45.459999
  C2         6.270000       17.910000       46.639999
  H2         5.930000       18.870001       46.959999
  C3         5.640000       16.790001       47.139999
  H3         4.740000       16.830000       47.680000
  C4         6.200000       15.580000       47.099998
  H4         5.860000       14.760000       47.740002
  C5         7.450000       15.450000       46.549999
  H5         7.940000       14.530000       46.590000
