206
 generated by VMD
  IR        50.630001       36.200001       38.880001
  C1        51.930000       33.070000       41.669998
  C2        50.619999       32.900002       41.480000
  N1        52.279999       34.220001       40.900002
  C3a       51.169998       34.779999       40.299999
  N2        50.160000       33.980000       40.759998
  C4        48.810001       34.450001       40.529999
  C5a       48.759998       35.369999       39.509998
  C6        47.490002       35.869999       39.090000
  H1        47.500000       36.560001       38.310001
  C7        46.310001       35.450001       39.730000
  H2        45.340000       35.860001       39.380001
  C8        46.389999       34.450001       40.730000
  H3        45.520000       34.290001       41.270000
  C9        47.669998       33.910000       41.070000
  H4        47.660000       33.080002       41.720001
  C10       50.060001       31.750000       42.000000
  H5        49.060001       31.500000       41.720001
  C11       50.840000       30.820000       42.720001
  H6        50.450001       29.860001       43.049999
  C12       52.150002       31.150000       43.060001
  H7        52.779999       30.469999       43.660000
  C13       52.720001       32.220001       42.500000
  H8        53.700001       32.529999       42.869999
  C6        53.639999       34.509998       40.610001
  C1        54.419998       33.470001       40.060001
  H1        53.980000       32.860001       39.330002
  C2        55.830002       33.580002       40.169998
  H2        56.560001       32.919998       39.680000
  C3        56.470001       34.730000       40.689999
  H3        57.439999       34.959999       40.250000
  C4        55.709999       35.790001       41.130001
  H4        56.009998       36.810001       41.180000
  C5        54.310001       35.619999       41.180000
  H5        53.680000       36.340000       41.689999
  C1        50.389999       33.860001       35.189999
  C2        50.250000       35.139999       34.759998
  N1        50.470001       33.849998       36.590000
  C3b       50.430000       35.150002       37.070000
  N2        50.279999       35.959999       36.020000
  C4        49.970001       37.230000       36.270000
  C5b       49.770000       37.590000       37.599998
  C6        49.070000       38.820000       37.970001
  H1        48.540001       38.740002       38.959999
  C7        48.840000       39.720001       36.970001
  H2        48.130001       40.540001       37.119999
  C8        49.250000       39.349998       35.669998
  H3        48.970001       40.070000       34.919998
  C9        49.810001       38.169998       35.299999
  H4        50.240002       38.070000       34.330002
  C10       50.400002       35.419998       33.330002
  H5        50.529999       36.419998       33.020000
  C11       50.759998       34.389999       32.450001
  H6        50.919998       34.570000       31.389999
  C12       50.919998       33.090000       32.910000
  H7        51.169998       32.410000       32.200001
  C13       50.619999       32.840000       34.240002
  H8        50.500000       31.780001       34.520000
  C6        50.570000       32.580002       37.400002
  C1        49.459999       32.130001       38.049999
  H1        48.580002       32.720001       38.150002
  C2        49.619999       30.980000       38.820000
  H2        48.779999       30.620001       39.410000
  C3        50.770000       30.209999       38.990002
  H3        51.040001       29.490000       39.810001
  C4        51.840000       30.660000       38.270000
  H4        52.740002       30.139999       38.160000
  C5        51.779999       31.850000       37.470001
  H5        52.709999       32.299999       37.250000
  C1        54.740002       37.720001       38.330002
  C2        54.200001       38.400002       39.419998
  N1        53.639999       36.990002       37.740002
  C3c       52.459999       37.119999       38.509998
  N2        52.779999       38.029999       39.540001
  C4        51.810001       38.470001       40.490002
  C5c       50.740002       37.509998       40.570000
  C6        49.750000       37.790001       41.529999
  H1        48.869999       37.220001       41.500000
  C7        49.820000       38.820000       42.410000
  H2        48.919998       38.779999       43.049999
  C8        50.830002       39.740002       42.369999
  H3        50.740002       40.689999       42.930000
  C9        51.840000       39.580002       41.380001
  H4        52.650002       40.230000       41.450001
  C10       55.080002       39.270000       40.169998
  H5        54.790001       39.730000       41.070000
  C11       56.430000       39.340000       39.779999
  H6        57.049999       39.910000       40.419998
  C12       57.000000       38.660000       38.709999
  H7        58.009998       38.930000       38.369999
  C13       56.090000       37.939999       37.930000
  H8        56.720001       37.400002       37.180000
  C6        53.770000       36.200001       36.590000
  C1        53.730000       36.730000       35.279999
  H1        53.169998       37.680000       35.119999
  C2        54.209999       35.980000       34.169998
  H2        54.360001       36.509998       33.240002
  C3        54.650002       34.660000       34.389999
  H3        54.820000       34.000000       33.619999
  C4        54.660000       34.130001       35.709999
  H4        54.520000       33.099998       35.880001
  C5        54.250000       34.939999       36.720001
  H5        54.090000       34.520000       37.680000
  IR        36.860001       44.049999       37.910000
  C1        33.549999       41.599998       36.630001
  C2        32.980000       42.810001       37.110001
  N1        34.820000       41.650002       37.049999
  C3a       35.200001       42.889999       37.580002
  N2        34.000000       43.560001       37.689999
  C4        34.070000       44.930000       38.220001
  C5a       35.369999       45.410000       38.500000
  C6        35.529999       46.799999       38.759998
  H1        36.490002       47.250000       39.020000
  C7        34.540001       47.709999       38.669998
  H2        34.630001       48.730000       39.049999
  C8        33.270000       47.230000       38.299999
  H3        32.419998       47.919998       38.090000
  C9        33.029999       45.889999       38.070000
  H4        32.119999       45.599998       37.570000
  C10       31.590000       42.990002       36.840000
  H5        31.020000       43.570000       37.470001
  C11       30.850000       42.090000       36.099998
  H6        29.760000       42.220001       35.970001
  C12       31.440001       40.959999       35.630001
  H7        30.860001       40.240002       35.110001
  C13       32.820000       40.689999       35.869999
  H8        33.220001       39.790001       35.520000
  C6        35.459999       40.410000       37.189999
  C1        35.820000       39.580002       36.119999
  H1        35.480000       39.770000       35.150002
  C2        36.439999       38.340000       36.330002
  H2        36.689999       37.669998       35.540001
  C3        36.709999       37.849998       37.570000
  H3        36.910000       36.820000       37.730000
  C4        36.450001       38.650002       38.680000
  H4        36.849998       38.259998       39.650002
  C5        35.830002       39.910000       38.540001
  H5        35.650002       40.430000       39.410000
  C1        37.820000       45.660000       34.009998
  C2        38.570000       46.430000       34.770000
  N1        37.000000       44.860001       34.799999
  C3b       37.240002       45.080002       36.130001
  N2        38.230000       46.049999       36.119999
  C4        38.790001       46.330002       37.369999
  C5b       38.360001       45.450001       38.419998
  C6        38.750000       45.779999       39.750000
  H1        38.310001       45.389999       40.590000
  C7        39.459999       46.939999       40.070000
  H2        39.830002       47.209999       41.049999
  C8        39.810001       47.790001       39.020000
  H3        40.590000       48.560001       39.209999
  C9        39.439999       47.509998       37.689999
  H4        39.639999       48.230000       36.970001
  C10       39.349998       47.470001       34.240002
  H5        39.970001       48.110001       34.910000
  C11       39.270000       47.759998       32.860001
  H6        39.930000       48.520000       32.459999
  C12       38.599998       46.939999       32.009998
  H7        38.490002       47.189999       30.959999
  C13       37.880001       45.900002       32.610001
  H8        37.380001       45.200001       32.029999
  C6        35.779999       44.240002       34.320000
  C1        34.669998       45.009998       34.650002
  H1        34.590000       45.930000       35.279999
  C2        33.450001       44.540001       34.049999
  H2        32.599998       45.200001       34.110001
  C3        33.410000       43.439999       33.189999
  H3        32.410000       43.130001       32.889999
  C4        34.560001       42.650002       32.970001
  H4        34.430000       41.730000       32.349998
  C5        35.779999       43.040001       33.509998
  H5        36.520000       42.290001       33.580002
  C1        39.740002       40.779999       37.380001
  C2        39.320000       40.669998       38.660000
  N1        39.169998       41.919998       36.900002
  C3c       38.360001       42.610001       37.799999
  N2        38.500000       41.840000       38.930000
  C4        37.830002       42.250000       40.070000
  C5c       36.770000       43.169998       39.840000
  C6        35.900002       43.540001       40.919998
  H1        34.860001       43.869999       40.709999
  C7        36.049999       43.020000       42.189999
  H2        35.549999       43.490002       43.029999
  C8        37.110001       42.130001       42.369999
  H3        37.259998       41.619999       43.250000
  C9        37.950001       41.709999       41.340000
  H4        38.730000       41.020000       41.630001
  C10       39.830002       39.619999       39.439999
  H5        39.369999       39.340000       40.349998
  C11       40.840000       38.799999       38.939999
  H6        41.259998       37.900002       39.450001
  C12       41.299999       38.869999       37.599998
  H7        42.240002       38.560001       37.279999
  C13       40.730000       39.900002       36.830002
  H8        41.380001       40.130001       36.029999
  C6        39.599998       42.400002       35.630001
  C1        40.700001       43.320000       35.720001
  H1        40.770000       43.860001       36.680000
  C2        41.290001       43.860001       34.619999
  H2        42.029999       44.650002       34.700001
  C3        40.799999       43.470001       33.369999
  H3        41.099998       44.099998       32.509998
  C4        39.799999       42.509998       33.230000
  H4        39.639999       41.959999       32.310001
  C5        39.130001       42.009998       34.400002
  H5        38.450001       41.279999       34.419998
