206
 generated by VMD
 Ir       80.228081       40.763264       80.489853
 C        78.902534       44.367500       78.562210
 C        80.013351       44.030170       77.875793
 N        78.562836       43.332428       79.426300
 C        79.412170       42.333965       79.382690
 N        80.344528       42.748451       78.373917
 C        81.518883       41.880859       78.089218
 C        81.615601       40.774803       78.951881
 C        82.742599       39.908638       78.826416
 H        82.867393       39.089756       79.524033
 C        83.727905       40.192978       77.923744
 H        84.613129       39.618645       77.848083
 C        83.682281       41.352814       77.118507
 H        84.496201       41.559349       76.448151
 C        82.516510       42.182053       77.173737
 H        82.404282       42.971180       76.402252
 C        80.618683       44.973106       77.060165
 H        81.611633       44.933693       76.589722
 C        80.042984       46.265560       76.926292
 H        80.514984       47.019188       76.357819
 C        78.803154       46.583534       77.595871
 H        78.285049       47.496681       77.361946
 C        78.232330       45.606899       78.447189
 H        77.242523       45.770355       78.958893
 C        77.221672       43.139164       79.856773
 C        76.309952       42.845570       78.835800
 H        76.607513       42.785378       77.801956
 C        74.967461       43.063171       79.095154
 H        74.163406       42.665955       78.455070
 C        74.530434       43.537800       80.352585
 H        73.510384       43.449944       80.684219
 C        75.458984       43.872265       81.334236
 H        75.085014       43.949306       82.340179
 C        76.781754       43.654663       81.071533
 H        77.572708       44.259109       81.550110
 C        77.945641       37.449890       78.939972
 C        78.732697       36.931797       80.037888
 N        78.519356       38.683205       78.608475
 C        79.493881       39.048862       79.558304
 N        79.706566       37.931698       80.275940
 C        80.902618       37.980789       81.116150
 C        81.301872       39.283630       81.512131
 C        82.189064       39.347054       82.558014
 H        82.611588       40.360573       82.876846
 C        82.656921       38.283310       83.325966
 H        83.400986       38.458958       84.139862
 C        82.352043       37.018478       82.852219
 H        82.860901       36.103889       83.200203
 C        81.502060       36.891594       81.766479
 H        81.537659       35.975243       81.258995
 C        78.352966       35.609924       80.540939
 H        78.955589       35.320572       81.411125
 C        77.304977       34.857048       79.963364
 H        77.224014       33.769661       80.141205
 C        76.636658       35.452225       78.823448
 H        75.989731       34.989044       78.154083
 C        76.992081       36.708851       78.343903
 H        76.404556       37.170647       77.504295
 C        78.069290       39.457283       77.437683
 C        76.782280       40.074646       77.370819
 H        76.150673       40.216225       78.221657
 C        76.339203       40.610672       76.159019
 H        75.383469       41.125858       76.112495
 C        77.165695       40.422497       74.997299
 H        76.762589       40.502121       74.027573
 C        78.373657       39.892971       75.111450
 H        78.947556       40.038929       74.122803
 C        78.923019       39.334721       76.294777
 H        79.705383       38.554951       76.287079
 C        77.304611       41.417423       83.603485
 C        78.400276       42.163490       83.960426
 N        77.667160       40.682148       82.485748
 C        79.000694       40.871468       82.159798
 N        79.477432       41.735104       83.114075
 C        80.781631       42.166054       82.960609
 C        81.245583       42.176144       81.664139
 C        82.416397       42.848381       81.340714
 H        82.770889       42.936260       80.330017
 C        83.270828       43.371788       82.281029
 H        84.238091       43.857597       81.961517
 C        82.849182       43.320827       83.626884
 H        83.436295       43.888336       84.290085
 C        81.626328       42.704514       83.958191
 H        81.201141       42.991653       84.847778
 C        78.278114       43.053291       85.036499
 H        79.161041       43.441196       85.451431
 C        77.040092       43.280922       85.635826
 H        76.883911       43.967091       86.434807
 C        75.888885       42.565689       85.187973
 H        74.889099       42.848896       85.519791
 C        76.070267       41.649712       84.181244
 H        75.238548       40.984310       83.942307
 C        76.846817       39.576134       82.060699
 C        75.944115       39.821033       81.046379
 H        75.720612       40.778286       80.630920
 C        75.067322       38.761978       80.714645
 H        74.482437       39.085388       79.859482
 C        75.050735       37.586731       81.408569
 H        74.245239       36.853203       81.433006
 C        75.985535       37.399914       82.413078
 H        76.079071       36.388885       82.757706
 C        76.900803       38.357147       82.757164
 H        77.415482       38.190048       83.726952
 Ir       80.228081       40.763264       90.151367
 C        80.959381       42.428078       94.081940
 C        81.312424       41.082558       94.212860
 N        80.543526       42.606667       92.769661
 C        80.530365       41.426811       92.071686
 N        81.029007       40.494995       92.956894
 C        81.278778       39.185349       92.442551
 C        80.716324       38.979244       91.216965
 C        80.728775       37.732700       90.666626
 H        80.052399       37.486782       89.872253
 C        81.274414       36.619484       91.335075
 H        81.065781       35.564377       91.011162
 C        81.972794       36.844589       92.536865
 H        82.645874       36.064087       92.992798
 C        81.991653       38.171085       93.081985
 H        82.678200       38.276821       93.935913
 C        81.790192       40.636520       95.459282
 H        82.216461       39.666729       95.577202
 C        81.945984       41.518433       96.511353
 H        82.610229       41.245934       97.377106
 C        81.576889       42.801212       96.415169
 H        81.458885       43.390938       97.287918
 C        81.091789       43.305328       95.152222
 H        80.801620       44.350410       95.069092
 C        79.661194       43.679356       92.410889
 C        78.319664       43.585045       92.783859
 H        77.906754       42.646069       93.243454
 C        77.373123       44.550888       92.683273
 H        76.328674       44.382725       92.979477
 C        77.757843       45.812885       92.270172
 H        77.008835       46.458942       91.962418
 C        79.091980       45.991455       91.821396
 H        79.346252       46.793125       91.161346
 C        80.062561       44.925941       91.899887
 H        81.014076       45.276230       91.613335
 C        84.226044       41.585785       88.592659
 C        83.537704       41.138035       87.451126
 N        83.428879       41.397518       89.701172
 C        82.162743       40.836441       89.392334
 N        82.312073       40.654369       87.977608
 C        81.188934       40.226315       87.364716
 C        80.111542       39.864529       88.272087
 C        78.999413       39.248249       87.773422
 H        78.348083       38.899380       88.561256
 C        78.773758       38.962917       86.416382
 H        77.822601       38.553143       85.985115
 C        79.821220       39.288849       85.565750
 H        79.668839       39.083458       84.493553
 C        81.029770       39.882904       86.034256
 H        81.832993       40.070080       85.367172
 C        84.111969       41.310532       86.162140
 H        83.658730       41.024467       85.248611
 C        85.356293       42.016106       86.062500
 H        85.817955       42.074944       85.077667
 C        86.066330       42.497200       87.136093
 H        86.962906       43.021008       86.993675
 C        85.486595       42.266266       88.397598
 H        86.064331       42.682480       89.235214
 C        84.039810       41.026409       90.940063
 C        84.440338       39.703835       91.209244
 H        84.262238       38.876038       90.526871
 C        85.007011       39.381481       92.469711
 H        85.222580       38.416344       92.812546
 C        85.225632       40.402863       93.391006
 H        85.685783       40.274841       94.383156
 C        84.925240       41.749107       93.069763
 H        84.915672       42.473644       93.841675
 C        84.272064       42.067513       91.900414
 H        83.806252       43.022247       91.716850
 C        78.849930       44.552124       88.532997
 C        77.716995       44.000343       89.051254
 N        79.868607       43.566208       88.567307
 C        79.452629       42.486324       89.283478
 N        78.131653       42.680984       89.416306
 C        77.402496       41.561668       90.005753
 C        78.138336       40.465668       90.450523
 C        77.510941       39.367508       90.978363
 H        78.200020       38.531799       91.221008
 C        76.142670       39.325901       91.270050
 H        75.691223       38.370796       91.538719
 C        75.398285       40.424767       90.875473
 H        74.357086       40.665321       91.033325
 C        75.993759       41.511818       90.177444
 H        75.325912       42.262562       89.929337
 C        76.533554       44.836754       89.091110
 H        75.665596       44.355247       89.363503
 C        76.550446       46.160057       88.693634
 H        75.695335       46.826530       88.771149
 C        77.733688       46.720081       88.297043
 H        77.859924       47.766960       88.210907
 C        78.854073       45.916302       88.091171
 H        79.690598       46.293488       87.526505
 C        81.219269       44.011860       88.438828
 C        82.049110       44.129059       89.523689
 H        81.720413       43.742538       90.502045
 C        83.289589       44.773685       89.387039
 H        83.913132       44.818474       90.193878
 C        83.717773       45.278889       88.121948
 H        84.618614       45.873318       88.014084
 C        82.928024       45.124763       86.980270
 H        83.135956       45.494431       85.996292
 C        81.665970       44.529251       87.184174
 H        80.922081       44.688812       86.428879
