206
 generated by VMD
  IR        11.760000       34.590000       46.060001
  C1        15.670000       33.869999       44.430000
  C2        15.560000       32.950001       45.410000
  N1        14.440000       34.490002       44.240002
  C3a       13.520000       34.060001       45.070000
  N2        14.210000       33.049999       45.820000
  C4        13.490000       32.369999       46.930000
  C5a       12.210000       32.900002       47.169998
  C6        11.450000       32.380001       48.259998
  H1        10.490000       32.820000       48.500000
  C7        11.990000       31.430000       49.080002
  H2        11.490000       31.070000       49.939999
  C8        13.310000       30.959999       48.900002
  H3        13.710000       30.240000       49.590000
  C9        14.050000       31.410000       47.759998
  H4        15.000000       30.889999       47.520000
  C10       16.700001       32.310001       45.869999
  H5        16.820000       31.690001       46.770000
  C11       17.959999       32.599998       45.279999
  H6        18.850000       32.169998       45.650002
  C12       18.049999       33.520000       44.169998
  H7        18.969999       33.610001       43.619999
  C13       16.870001       34.180000       43.750000
  H8        16.860001       34.869999       42.860001
  C6        14.090000       35.070000       42.990002
  C1        14.020000       34.169998       41.919998
  H1        14.230000       33.119999       42.040001
  C2        14.110000       34.689999       40.639999
  H2        13.850000       34.110001       39.740002
  C3        14.240000       36.080002       40.419998
  H3        14.030000       36.540001       39.470001
  C4        14.360000       36.950001       41.500000
  H4        14.170000       37.990002       41.299999
  C5        14.270000       36.430000       42.759998
  H5        14.770000       36.910000       43.619999
  C1         8.840000       32.650002       43.549999
  C2         8.100000       33.439999       44.509998
  N1        10.140000       32.549999       44.060001
  C3b       10.300000       33.389999       45.180000
  N2         9.050000       33.759998       45.509998
  C4         8.940000       34.380001       46.830002
  C5b       10.120000       35.020000       47.290001
  C6         9.960000       35.889999       48.340000
  H1        10.880000       36.380001       48.810001
  C7         8.760000       36.279999       48.930000
  H2         8.760000       36.980000       49.799999
  C8         7.640000       35.560001       48.549999
  H3         6.690000       35.580002       49.110001
  C9         7.750000       34.630001       47.529999
  H4         6.990000       33.910000       47.480000
  C10        6.680000       33.650002       44.220001
  H5         6.210000       34.310001       44.959999
  C11        6.050000       33.080002       43.090000
  H6         4.950000       32.990002       43.040001
  C12        6.880000       32.250000       42.240002
  H7         6.570000       31.600000       41.490002
  C13        8.230000       32.049999       42.509998
  H8         8.860000       31.459999       41.790001
  C6        11.160000       31.700001       43.419998
  C1        11.720000       32.000000       42.139999
  H1        11.620000       32.950001       41.660000
  C2        12.520000       31.049999       41.500000
  H2        12.990000       31.290001       40.549999
  C3        12.660000       29.760000       42.119999
  H3        12.960000       28.920000       41.560001
  C4        12.170000       29.540001       43.330002
  H4        12.580000       28.540001       43.730000
  C5        11.360000       30.440001       44.070000
  H5        10.640000       30.110001       44.840000
  C1        11.500000       38.200001       43.700001
  C2        12.180000       38.549999       44.840000
  N1        11.080000       36.889999       43.869999
  C3c       11.400000       36.410000       45.130001
  N2        12.020000       37.459999       45.759998
  C4        12.530000       37.209999       47.020000
  C5c       12.880000       35.900002       47.259998
  C6        13.660000       35.570000       48.360001
  H1        14.010000       34.570000       48.540001
  C7        13.970000       36.459999       49.360001
  H2        14.560000       36.119999       50.259998
  C8        13.570000       37.799999       49.169998
  H3        13.980000       38.480000       49.860001
  C9        12.840000       38.160000       48.020000
  H4        12.880000       39.150002       47.750000
  C10       12.770000       39.820000       44.900002
  H5        13.080000       40.169998       45.840000
  C11       12.790000       40.650002       43.779999
  H6        13.250000       41.610001       43.759998
  C12       12.160000       40.230000       42.570000
  H7        12.310000       40.779999       41.639999
  C13       11.530000       39.009998       42.580002
  H8        10.910000       38.750000       41.720001
  C6        10.080000       36.340000       42.990002
  C1        10.530000       35.580002       41.930000
  H1        11.550000       35.459999       41.639999
  C2         9.550000       35.139999       41.009998
  H2        10.050000       34.500000       40.290001
  C3         8.240000       35.509998       41.110001
  H3         7.490000       35.480000       40.320000
  C4         7.850000       36.270000       42.200001
  H4         6.790000       36.330002       42.349998
  C5         8.730000       36.689999       43.160000
  H5         8.350000       37.490002       43.830002
  IR         9.370000       43.810001       47.680000
  C1        10.040000       47.860001       49.060001
  C2         8.720000       47.590000       49.430000
  N1        10.520000       46.720001       48.430000
  C3a        9.550000       45.759998       48.299999
  N2         8.450000       46.290001       48.939999
  C4         7.320000       45.430000       49.099998
  C5a        7.400000       44.299999       48.340000
  C6         6.330000       43.459999       48.259998
  H1         6.260000       42.750000       47.459999
  C7         5.110000       43.730000       48.910000
  H2         4.160000       43.189999       48.650002
  C8         5.060000       44.820000       49.799999
  H3         4.220000       44.950001       50.540001
  C9         6.210000       45.669998       49.910000
  H4         6.130000       46.400002       50.730000
  C10        8.000000       48.590000       50.110001
  H5         7.050000       48.389999       50.549999
  C11        8.600000       49.790001       50.439999
  H6         8.150000       50.439999       51.240002
  C12        9.850000       50.080002       50.060001
  H7        10.200000       51.080002       50.090000
  C13       10.630000       49.080002       49.369999
  H8        11.650000       49.310001       49.070000
  C6        11.610000       46.790001       47.500000
  C1        11.370000       47.340000       46.240002
  H1        10.330000       47.610001       45.910000
  C2        12.290000       47.639999       45.290001
  H2        12.010000       48.049999       44.310001
  C3        13.630000       47.500000       45.599998
  H3        14.300000       47.490002       44.810001
  C4        13.970000       46.900002       46.840000
  H4        14.920000       46.430000       46.980000
  C5        12.960000       46.549999       47.810001
  H5        13.410000       46.209999       48.700001
  C1        10.720000       41.880001       51.360001
  C2        10.540000       40.790001       50.490002
  N1        10.230000       43.020000       50.759998
  C3b        9.710000       42.790001       49.459999
  N2         9.890000       41.369999       49.369999
  C4         9.580000       40.860001       48.160000
  C5b        8.960000       41.810001       47.250000
  C6         8.440000       41.360001       46.070000
  H1         7.880000       42.130001       45.560001
  C7         8.490000       40.029999       45.619999
  H2         8.160000       39.669998       44.610001
  C8         9.060000       39.130001       46.509998
  H3         9.120000       38.080002       46.180000
  C9         9.570000       39.529999       47.779999
  H4         9.950000       38.810001       48.459999
  C10       11.050000       39.509998       50.840000
  H5        10.980000       38.639999       50.240002
  C11       11.810000       39.389999       52.049999
  H6        12.130000       38.389999       52.340000
  C12       12.040000       40.419998       52.930000
  H7        12.620000       40.270000       53.790001
  C13       11.480000       41.660000       52.570000
  H8        11.700000       42.470001       53.279999
  C6         9.590000       44.009998       51.570000
  C1         8.260000       43.869999       52.009998
  H1         7.620000       43.040001       51.720001
  C2         7.660000       44.900002       52.779999
  H2         6.650000       44.950001       53.049999
  C3         8.430000       46.000000       53.150002
  H3         8.080000       46.840000       53.770000
  C4         9.800000       46.080002       52.799999
  H4        10.310000       47.000000       52.919998
  C5        10.370000       45.150002       51.959999
  H5        11.320000       45.290001       51.470001
  C1        13.380000       43.439999       46.049999
  C2        12.670000       43.980000       45.020000
  N1        12.460000       43.060001       47.060001
  C3c       11.220000       43.540001       46.770000
  N2        11.320000       43.930000       45.490002
  C4        10.060000       44.330002       44.869999
  C5c        8.920000       44.360001       45.669998
  C6         7.700000       44.689999       45.139999
  H1         6.860000       44.599998       45.860001
  C7         7.530000       45.180000       43.840000
  H2         6.520000       45.270000       43.439999
  C8         8.660000       45.200001       43.040001
  H3         8.810000       45.580002       42.040001
  C9         9.910000       44.709999       43.509998
  H4        10.670000       44.770000       42.810001
  C10       13.420000       44.419998       43.860001
  H5        12.850000       44.700001       43.049999
  C11       14.800000       44.369999       43.810001
  H6        15.390000       44.750000       42.980000
  C12       15.490000       43.939999       44.910000
  H7        16.530001       44.099998       45.020000
  C13       14.810000       43.360001       45.980000
  H8        15.350000       42.779999       46.709999
  C6        12.980000       42.830002       48.369999
  C1        12.860000       43.759998       49.369999
  H1        12.230000       44.650002       49.209999
  C2        13.570000       43.590000       50.570000
  H2        13.440000       44.270000       51.320000
  C3        14.390000       42.439999       50.779999
  H3        15.030000       42.340000       51.650002
  C4        14.490000       41.439999       49.810001
  H4        15.100000       40.560001       49.849998
  C5        13.810000       41.689999       48.599998
  H5        14.120000       41.130001       47.740002
