206
 generated by VMD
  IR         9.580000       55.799999       44.700001
  C1         7.560000       53.849998       41.330002
  C2         7.830000       52.840000       42.240002
  N1         8.210000       55.049999       41.820000
  C3a        8.690000       54.799999       43.090000
  N2         8.490000       53.480000       43.349998
  C4         9.030000       52.910000       44.570000
  C5a        9.820000       53.790001       45.330002
  C6        10.520000       53.299999       46.410000
  H1        11.300000       53.869999       46.990002
  C7        10.400000       52.000000       46.880001
  H2        11.070000       51.680000       47.570000
  C8         9.580000       51.119999       46.160000
  H3         9.520000       50.029999       46.419998
  C9         8.920000       51.560001       45.020000
  H4         8.010000       50.990002       44.720001
  C10        7.520000       51.560001       41.919998
  H5         7.700000       50.720001       42.560001
  C11        6.950000       51.230000       40.720001
  H6         6.540000       50.259998       40.540001
  C12        6.700000       52.240002       39.799999
  H7         6.260000       52.180000       38.810001
  C13        7.130000       53.560001       40.099998
  H8         7.070000       54.330002       39.450001
  C6         7.990000       56.320000       41.099998
  C1         8.860000       56.630001       40.040001
  H1         9.670000       56.040001       39.810001
  C2         8.860000       57.900002       39.470001
  H2         9.390000       58.060001       38.560001
  C3         7.990000       58.930000       39.919998
  H3         8.020000       59.919998       39.459999
  C4         7.080000       58.639999       40.990002
  H4         6.550000       59.419998       41.529999
  C5         7.110000       57.360001       41.560001
  H5         6.520000       57.180000       42.400002
  C1         6.170000       56.130001       47.490002
  C2         7.310000       56.509998       48.200001
  N1         6.660000       55.820000       46.220001
  C3b        8.060000       55.900002       46.070000
  N2         8.390000       56.360001       47.320000
  C4         9.830000       56.680000       47.480000
  C5b       10.630000       56.500000       46.380001
  C6        12.010000       56.759998       46.400002
  H1        12.560000       56.930000       45.410000
  C7        12.660000       57.040001       47.660000
  H2        13.600000       57.540001       47.730000
  C8        11.820000       57.220001       48.790001
  H3        12.390000       57.599998       49.709999
  C9        10.420000       57.150002       48.630001
  H4         9.800000       57.540001       49.360001
  C10        7.120000       56.799999       49.540001
  H5         7.900000       57.139999       50.240002
  C11        5.860000       56.720001       50.139999
  H6         5.810000       56.799999       51.160000
  C12        4.730000       56.330002       49.430000
  H7         3.760000       56.450001       49.889999
  C13        4.860000       56.000000       48.070000
  H8         3.980000       55.490002       47.619999
  C6         5.820000       55.459999       45.130001
  C1         5.740000       54.090000       44.650002
  H1         6.420000       53.369999       44.889999
  C2         4.750000       53.799999       43.770000
  H2         4.530000       52.830002       43.480000
  C3         3.860000       54.740002       43.299999
  H3         2.990000       54.430000       42.689999
  C4         3.970000       56.040001       43.709999
  H4         3.390000       56.700001       43.160000
  C5         4.950000       56.400002       44.630001
  H5         5.040000       57.400002       44.919998
  C1         9.680000       59.880001       43.279999
  C2        10.470000       59.209999       42.389999
  N1         9.190000       58.970001       44.270000
  C3c        9.750000       57.730000       44.080002
  N2        10.590000       57.919998       42.980000
  C4        11.580000       56.840000       42.750000
  C5c       11.330000       55.730000       43.520000
  C6        12.250000       54.669998       43.480000
  H1        12.140000       53.959999       44.259998
  C7        13.360000       54.700001       42.619999
  H2        14.090000       53.910000       42.619999
  C8        13.630000       55.830002       41.830002
  H3        14.300000       55.669998       40.970001
  C9        12.710000       56.849998       41.889999
  H4        12.760000       57.480000       41.049999
  C10       10.920000       59.820000       41.160000
  H5        11.400000       59.340000       40.410000
  C11       10.570000       61.119999       40.860001
  H6        10.910000       61.590000       39.910000
  C12        9.730000       61.799999       41.759998
  H7         9.460000       62.799999       41.480000
  C13        9.360000       61.230000       43.049999
  H8         9.040000       61.740002       43.910000
  C6         8.400000       59.349998       45.380001
  C1         7.020000       59.119999       45.389999
  H1         6.540000       58.730000       44.509998
  C2         6.260000       59.400002       46.540001
  H2         5.150000       59.209999       46.639999
  C3         6.950000       59.849998       47.680000
  H3         6.300000       60.290001       48.470001
  C4         8.380000       60.000000       47.669998
  H4         8.820000       60.509998       48.520000
  C5         9.120000       59.759998       46.520000
  H5        10.150000       59.830002       46.540001
  IR         0.720000       51.599998       47.419998
  C1        -3.140000       51.150002       45.490002
  C2        -2.710000       52.430000       45.070000
  N1        -2.180000       50.599998       46.279999
  C3a       -1.090000       51.480000       46.450001
  N2        -1.480000       52.669998       45.740002
  C4        -0.420000       53.660000       45.599998
  C5a        0.560000       53.500000       46.540001
  C6         1.470000       54.509998       46.740002
  H1         2.090000       54.599998       47.590000
  C7         1.490000       55.610001       45.930000
  H2         2.340000       56.270000       45.950001
  C8         0.590000       55.689999       44.830002
  H3         0.330000       56.619999       44.490002
  C9        -0.390000       54.700001       44.680000
  H4        -1.070000       54.669998       43.779999
  C10       -3.490000       53.130001       44.230000
  H5        -3.150000       54.040001       43.919998
  C11       -4.710000       52.630001       43.730000
  H6        -5.370000       53.279999       43.180000
  C12       -5.220000       51.419998       44.180000
  H7        -6.140000       50.980000       43.790001
  C13       -4.390000       50.709999       45.099998
  H8        -4.870000       49.860001       45.580002
  C6        -2.340000       49.360001       46.980000
  C1        -2.670000       49.279999       48.349998
  H1        -2.570000       50.150002       48.959999
  C2        -2.610000       48.029999       49.020000
  H2        -2.690000       47.970001       50.119999
  C3        -2.280000       46.849998       48.290001
  H3        -2.160000       45.930000       48.880001
  C4        -2.060000       46.919998       46.900002
  H4        -1.710000       46.080002       46.349998
  C5        -2.090000       48.160000       46.250000
  H5        -1.870000       48.230000       45.180000
  C1         3.320000       50.369999       44.130001
  C2         4.170000       50.410000       45.220001
  N1         2.020000       50.709999       44.639999
  C3b        2.010000       51.040001       45.919998
  N2         3.320000       50.930000       46.259998
  C4         3.630000       51.619999       47.480000
  C5b        2.580000       51.990002       48.270000
  C6         2.880000       52.639999       49.500000
  H1         2.150000       52.720001       50.310001
  C7         4.230000       52.810001       49.900002
  H2         4.490000       53.200001       50.849998
  C8         5.290000       52.389999       49.090000
  H3         6.310000       52.450001       49.389999
  C9         4.940000       51.799999       47.900002
  H4         5.740000       51.529999       47.169998
  C10        5.460000       49.869999       45.070000
  H5         6.200000       50.060001       45.779999
  C11        5.910000       49.330002       43.860001
  H6         6.730000       48.740002       43.779999
  C12        5.060000       49.400002       42.709999
  H7         5.220000       48.750000       41.830002
  C13        3.750000       49.860001       42.840000
  H8         3.040000       49.759998       42.020000
  C6         0.850000       50.790001       43.700001
  C1        -0.090000       49.770000       43.689999
  H1         0.030000       48.779999       44.119999
  C2        -1.230000       49.889999       42.849998
  H2        -2.060000       49.130001       43.000000
  C3        -1.400000       51.070000       42.060001
  H3        -2.180000       51.110001       41.320000
  C4        -0.480000       52.049999       42.169998
  H4        -0.630000       52.869999       41.549999
  C5         0.680000       51.919998       42.880001
  H5         1.490000       52.700001       42.900002
  C1         1.120000       48.009998       49.779999
  C2         0.330000       48.840000       50.630001
  N1         1.210000       48.689999       48.590000
  C3c        0.730000       49.939999       48.610001
  N2         0.140000       50.040001       49.939999
  C4        -0.590000       51.259998       50.139999
  C5c       -0.310000       52.250000       49.150002
  C6        -0.650000       53.570000       49.480000
  H1        -0.340000       54.360001       48.849998
  C7        -1.250000       53.919998       50.680000
  H2        -1.590000       54.919998       50.830002
  C8        -1.630000       52.910000       51.610001
  H3        -2.280000       53.139999       52.520000
  C9        -1.290000       51.590000       51.250000
  H4        -1.720000       50.770000       51.799999
  C10       -0.170000       48.240002       51.799999
  H5        -0.300000       48.810001       52.639999
  C11        0.140000       46.919998       52.119999
  H6        -0.120000       46.689999       53.130001
  C12        0.840000       46.090000       51.259998
  H7         1.030000       45.080002       51.560001
  C13        1.310000       46.660000       50.080002
  H8         1.820000       46.070000       49.400002
  C6         2.080000       48.250000       47.580002
  C1         3.440000       48.290001       47.889999
  H1         3.890000       48.869999       48.709999
  C2         4.330000       47.639999       47.040001
  H2         5.290000       47.529999       47.360001
  C3         3.870000       46.959999       45.840000
  H3         4.540000       46.759998       44.990002
  C4         2.500000       46.980000       45.599998
  H4         2.100000       46.520000       44.669998
  C5         1.600000       47.630001       46.430000
  H5         0.530000       47.720001       46.169998
