206
 generated by VMD
 Ir       83.796906       53.962616       69.335159
 C        81.568787       53.201401       72.981506
 C        82.409836       52.131966       72.872650
 N        81.945625       54.137321       72.005325
 C        82.975616       53.650810       71.212143
 N        83.281830       52.416595       71.791397
 C        84.352737       51.694145       71.185989
 C        84.726578       52.155807       69.909042
 C        85.719749       51.449997       69.211006
 H        86.023590       51.790581       68.229073
 C        86.340988       50.330353       69.753738
 H        87.085976       49.791626       69.186058
 C        85.977997       49.888199       71.029411
 H        86.437660       49.004494       71.455399
 C        84.998558       50.577652       71.750763
 H        84.844894       50.341892       72.790672
 C        82.251328       51.053825       73.766350
 H        82.890625       50.181984       73.709030
 C        81.262444       51.078781       74.747620
 H        81.205215       50.287273       75.478256
 C        80.395203       52.176521       74.831711
 H        79.638824       52.216873       75.596863
 C        80.548935       53.242706       73.949593
 H        79.869415       54.079926       73.997742
 C        81.607895       55.533447       72.141251
 C        80.572563       56.068657       71.368187
 H        79.960983       55.425888       70.763023
 C        80.340950       57.444313       71.388710
 H        79.576492       57.869156       70.760376
 C        81.127441       58.284760       72.192436
 H        80.965935       59.352364       72.174339
 C        82.133263       57.747353       72.994202
 H        82.715317       58.387924       73.628067
 C        82.363754       56.361938       72.971779
 H        83.048279       55.930496       73.681145
 C        87.391800       56.224503       70.296844
 C        87.280518       56.278267       68.925163
 N        86.372803       55.360413       70.753906
 C        85.619263       54.860062       69.710495
 N        86.228516       55.400139       68.577171
 C        85.838051       54.803192       67.342308
 C        84.724197       53.947807       67.441139
 C        84.341583       53.205200       66.318184
 H        83.487686       52.541481       66.385498
 C        85.044739       53.298462       65.107819
 H        84.721832       52.710114       64.263672
 C        86.136398       54.156036       65.010727
 H        86.652069       54.279228       64.073219
 C        86.536247       54.898647       66.123535
 H        87.424156       55.497238       66.054840
 C        88.121033       57.142265       68.204384
 H        87.973862       57.313477       67.146255
 C        89.104309       57.894920       68.869293
 H        89.755280       58.546219       68.299606
 C        89.222153       57.807487       70.252106
 H        89.969849       58.389526       70.773125
 C        88.357834       56.977158       70.971901
 H        88.446899       56.931801       72.049591
 C        86.335419       54.865471       72.109573
 C        86.846352       53.601318       72.405830
 H        87.303886       53.013725       71.625832
 C        86.753738       53.092503       73.707108
 H        87.131035       52.096718       73.914345
 C        86.164856       53.855400       74.717369
 H        86.067398       53.447197       75.714752
 C        85.674667       55.134659       74.436646
 H        85.225754       55.722252       75.211571
 C        85.767288       55.643471       73.135361
 H        85.406105       56.629501       72.916084
 C        81.354889       57.400261       68.222672
 C        80.581108       56.312294       67.893890
 N        82.612640       56.901497       68.624512
 C        82.657196       55.520767       68.581940
 N        81.398438       55.163963       68.099541
 C        81.169907       53.767746       67.928192
 C        82.078239       52.937977       68.603783
 C        81.854523       51.549988       68.598282
 H        82.513351       50.896667       69.145752
 C        80.784081       50.987366       67.903572
 H        80.658791       49.918137       67.887863
 C        79.896652       51.819336       67.204361
 H        79.088120       51.386116       66.639137
 C        80.088455       53.199776       67.214775
 H        79.464569       53.813118       66.588692
 C        79.234512       56.514969       67.538246
 H        78.588226       55.680347       67.307755
 C        78.685143       57.799011       67.531525
 H        77.655525       57.948891       67.260941
 C        79.484619       58.899887       67.884239
 H        79.062988       59.895103       67.917076
 C        80.820206       58.691856       68.221176
 H        81.431870       59.539391       68.511116
 C        83.764496       57.768250       68.708511
 C        84.198814       58.424721       67.553993
 H        83.884323       58.064476       66.586151
 C        85.117165       59.468605       67.655273
 H        85.347733       60.072571       66.785408
 C        85.643326       59.832100       68.903801
 H        86.326614       60.661652       68.980316
 C        85.241409       59.141960       70.054222
 H        85.715210       59.355598       70.996971
 C        84.289551       58.121994       69.955139
 H        84.010468       57.561443       70.841141
 Ir       83.796898       53.962612       82.206322
 C        85.580093       57.578503       80.484917
 C        84.320084       57.949387       80.847954
 N        85.716797       56.210777       80.795952
 C        84.557007       55.699116       81.368652
 N        83.703323       56.795898       81.396927
 C        82.434334       56.567421       82.000961
 C        82.101944       55.207451       82.126251
 C        80.791122       54.874443       82.501541
 H        80.489311       53.846725       82.481659
 C        79.850037       55.864304       82.814995
 H        78.845139       55.583229       83.059456
 C        80.203506       57.211075       82.745209
 H        79.475494       57.982876       82.947533
 C        81.495651       57.562634       82.338196
 H        81.808487       58.594467       82.435928
 C        83.917831       59.286896       80.637764
 H        82.904694       59.601456       80.828819
 C        84.800667       60.215446       80.087402
 H        84.494392       61.242409       79.941673
 C        86.099152       59.818443       79.730576
 H        86.785095       60.531136       79.299118
 C        86.482887       58.485344       79.929024
 H        87.473824       58.175468       79.621414
 C        86.815498       55.427307       80.277176
 C        86.817429       55.065434       78.920395
 H        85.909378       55.137848       78.343842
 C        88.000977       54.604172       78.328918
 H        88.000534       54.335823       77.283508
 C        89.175423       54.487473       79.082024
 H        90.085739       54.125000       78.617775
 C        89.161530       54.820076       80.438187
 H        90.060959       54.747665       81.019806
 C        87.982925       55.279144       81.038071
 H        87.957367       55.455292       82.098450
 C        83.872871       55.004234       86.454926
 C        83.161713       53.823212       86.409904
 N        84.233643       55.321766       85.136063
 C        83.796982       54.357376       84.236679
 N        83.133148       53.436470       85.040771
 C        82.623627       52.281754       84.372414
 C        82.688522       52.322319       82.964920
 C        82.138443       51.267643       82.227661
 H        82.134445       51.301994       81.156494
 C        81.551849       50.164837       82.867294
 H        81.167572       49.350304       82.273697
 C        81.503067       50.114510       84.262749
 H        81.053680       49.279778       84.760910
 C        82.048378       51.157234       85.011597
 H        82.158195       51.021889       86.065399
 C        82.680466       53.283798       87.622688
 H        82.010918       52.436646       87.628639
 C        82.946289       53.908096       88.842926
 H        82.531204       53.501724       89.754166
 C        83.678352       55.091324       88.864319
 H        83.882858       55.592834       89.803024
 C        84.135971       55.650246       87.670547
 H        84.619583       56.607201       87.683846
 C        84.891266       56.557125       84.774780
 C        86.223679       56.520393       84.337601
 H        86.748085       55.579315       84.282227
 C        86.862167       57.709175       83.963516
 H        87.875717       57.674934       83.595764
 C        86.175728       58.924927       84.019623
 H        86.663597       59.836166       83.685364
 C        84.848259       58.959457       84.465202
 H        84.311569       59.899582       84.479988
 C        84.209778       57.770679       84.839294
 H        83.180267       57.801765       85.179932
 C        87.433929       51.608456       81.840096
 C        86.924927       51.669113       80.561600
 N        86.465851       52.167362       82.699036
 C        85.372444       52.615730       81.985016
 N        85.649994       52.263039       80.682487
 C        84.556442       52.411484       79.771118
 C        83.555069       53.293755       80.198975
 C        82.447151       53.511448       79.361763
 H        81.697617       54.228828       79.645782
 C        82.329605       52.840279       78.137131
 H        81.450104       52.997330       77.530235
 C        83.327309       51.955818       77.722763
 H        83.253189       51.462814       76.768997
 C        84.437775       51.730568       78.544601
 H        85.138641       50.964409       78.276459
 C        87.714035       51.256447       79.477524
 H        87.380310       51.380119       78.457314
 C        89.013412       50.778717       79.693832
 H        89.631134       50.492577       78.850830
 C        89.522575       50.703903       80.992317
 H        90.532410       50.352619       81.150467
 C        88.728516       51.118774       82.067978
 H        89.120651       51.053627       83.069122
 C        86.387749       51.784119       84.084099
 C        85.620300       50.675865       84.436234
 H        85.199417       50.044098       83.662209
 C        85.283142       50.443928       85.775505
 H        84.716095       49.566643       86.034409
 C        85.728119       51.327793       86.767860
 H        85.414688       51.174759       87.792618
 C        86.508026       52.424091       86.417160
 H        86.813507       53.134186       87.172577
 C        86.858749       52.653831       85.081230
 H        87.518845       53.469139       84.822693
