206
 generated by VMD
  IR        30.770000       48.299999       30.950001
  C1        33.029999       49.090000       34.549999
  C2        33.860001       48.349998       33.759998
  N1        31.780001       49.200001       33.910000
  C3a       31.920000       48.619999       32.639999
  N2        33.230000       48.130001       32.560001
  C4        33.520000       47.330002       31.400000
  C5a       32.340000       46.869999       30.790001
  C6        32.380001       45.730000       29.959999
  H1        31.540001       45.020000       29.760000
  C7        33.639999       45.160000       29.620001
  H2        33.619999       44.279999       28.990000
  C8        34.799999       45.630001       30.180000
  H3        35.650002       45.200001       29.770000
  C9        34.759998       46.689999       31.100000
  H4        35.650002       47.230000       31.389999
  C10       35.209999       48.250000       34.150002
  H5        35.970001       47.750000       33.480000
  C11       35.720001       48.849998       35.340000
  H6        36.689999       48.709999       35.740002
  C12       34.849998       49.560001       36.099998
  H7        35.349998       50.230000       36.759998
  C13       33.500000       49.689999       35.669998
  H8        32.880001       50.230000       36.419998
  C6        30.799999       49.000000       34.790001
  C1        30.010000       50.049999       35.180000
  H1        30.200001       51.060001       34.849998
  C2        29.090000       49.849998       36.139999
  H2        28.480000       50.689999       36.470001
  C3        28.840000       48.610001       36.790001
  H3        28.219999       48.599998       37.660000
  C4        29.639999       47.520000       36.369999
  H4        29.400000       46.439999       36.610001
  C5        30.660000       47.720001       35.389999
  H5        31.420000       46.910000       35.180000
  C1        32.500000       51.290001       28.400000
  C2        31.510000       50.779999       27.670000
  N1        32.709999       50.500000       29.430000
  C3b       31.870001       49.380001       29.500000
  N2        31.209999       49.549999       28.350000
  C4        30.350000       48.500000       28.020000
  C5b       29.900000       47.790001       29.139999
  C6        28.840000       46.889999       28.980000
  H1        28.370001       46.459999       29.910000
  C7        28.209999       46.700001       27.780001
  H2        27.379999       45.990002       27.650000
  C8        28.620001       47.360001       26.620001
  H3        28.160000       47.419998       25.629999
  C9        29.690001       48.299999       26.780001
  H4        30.150000       48.889999       26.020000
  C10       30.990000       51.549999       26.610001
  H5        30.209999       51.189999       25.950001
  C11       31.469999       52.849998       26.350000
  H6        31.240000       53.389999       25.469999
  C12       32.529999       53.330002       27.070000
  H7        33.160000       54.209999       26.910000
  C13       33.049999       52.540001       28.150000
  H8        33.660000       52.990002       28.959999
  C6        34.000000       50.560001       30.170000
  C1        35.139999       49.880001       29.709999
  H1        35.060001       49.340000       28.799999
  C2        36.299999       49.900002       30.430000
  H2        37.169998       49.410000       30.120001
  C3        36.389999       50.630001       31.629999
  H3        37.340000       50.630001       32.150002
  C4        35.189999       51.290001       32.090000
  H4        35.139999       51.660000       33.020000
  C5        34.020000       51.290001       31.360001
  H5        33.200001       51.860001       31.790001
  C1        26.950001       50.480000       31.400000
  C2        26.750000       49.220001       31.889999
  N1        28.309999       50.529999       31.010000
  C3c       29.010000       49.349998       31.240000
  N2        28.010000       48.570000       31.879999
  C4        28.430000       47.369999       32.540001
  C5c       29.650000       46.900002       32.110001
  C6        30.150000       45.700001       32.700001
  H1        31.090000       45.250000       32.360001
  C7        29.450001       45.040001       33.740002
  H2        29.610001       43.970001       33.930000
  C8        28.250000       45.610001       34.180000
  H3        27.760000       45.119999       34.980000
  C9        27.719999       46.759998       33.590000
  H4        26.719999       46.980000       33.820000
  C10       25.379999       48.770000       32.000000
  H5        25.260000       47.740002       32.320000
  C11       24.309999       49.610001       31.639999
  H6        23.270000       49.250000       31.580000
  C12       24.570000       50.959999       31.200001
  H7        23.730000       51.599998       30.889999
  C13       25.900000       51.389999       31.070000
  H8        26.110001       52.410000       30.680000
  C6        29.030001       51.750000       30.700001
  C1        30.070000       52.040001       31.590000
  H1        30.389999       51.450001       32.430000
  C2        30.860001       53.150002       31.270000
  H2        31.580000       53.570000       32.020000
  C3        30.719999       53.840000       30.049999
  H3        31.370001       54.689999       29.959999
  C4        29.690001       53.549999       29.230000
  H4        29.580000       54.130001       28.340000
  C5        28.740000       52.490002       29.540001
  H5        27.690001       52.380001       29.219999
  IR        26.070000       52.970001       20.549999
  C1        29.059999       56.049999       20.049999
  C2        29.760000       54.970001       20.660000
  N1        27.709999       55.759998       20.070000
  C3a       27.500000       54.529999       20.590000
  N2        28.760000       54.049999       20.920000
  C4        28.799999       52.840000       21.680000
  C5a       27.620001       52.160000       21.730000
  C6        27.600000       50.990002       22.490000
  H1        26.639999       50.500000       22.830000
  C7        28.629999       50.549999       23.299999
  H2        28.510000       49.639999       23.860001
  C8        29.850000       51.209999       23.320000
  H3        30.660000       50.770000       23.799999
  C9        29.940001       52.389999       22.469999
  H4        30.879999       52.990002       22.450001
  C10       31.120001       55.080002       20.780001
  H5        31.740000       54.330002       21.280001
  C11       31.709999       56.290001       20.400000
  H6        32.779999       56.330002       20.350000
  C12       31.020000       57.279999       19.790001
  H7        31.629999       58.099998       19.379999
  C13       29.670000       57.240002       19.580000
  H8        29.230000       58.000000       18.980000
  C6        26.740000       56.709999       19.790001
  C1        26.170000       56.750000       18.500000
  H1        26.500000       55.990002       17.860001
  C2        25.150000       57.660000       18.200001
  H2        24.799999       57.930000       17.170000
  C3        24.629999       58.439999       19.280001
  H3        23.879999       59.160000       19.070000
  C4        25.190001       58.439999       20.570000
  H4        24.799999       59.070000       21.400000
  C5        26.240000       57.560001       20.820000
  H5        26.910000       57.689999       21.650000
  C1        27.030001       51.009998       16.840000
  C2        26.209999       50.049999       17.540001
  N1        27.430000       52.020000       17.750000
  C3b       26.850000       51.790001       19.030001
  N2        26.059999       50.590000       18.840000
  C4        25.290001       50.180000       19.959999
  C5b       24.860001       51.240002       20.799999
  C6        23.750000       51.090000       21.620001
  H1        23.549999       51.770000       22.379999
  C7        22.940001       49.919998       21.530001
  H2        22.090000       49.830002       22.100000
  C8        23.330000       48.869999       20.700001
  H3        22.730000       48.040001       20.520000
  C9        24.600000       48.980000       20.020000
  H4        25.209999       48.150002       19.830000
  C10       25.580000       49.020000       16.790001
  H5        24.780001       48.430000       17.270000
  C11       25.860001       48.889999       15.420000
  H6        25.360001       48.230000       14.780000
  C12       26.700001       49.799999       14.740000
  H7        26.830000       49.680000       13.640000
  C13       27.240000       50.849998       15.410000
  H8        27.610001       51.630001       14.820000
  C6        28.660000       52.689999       17.559999
  C1        29.730000       52.230000       18.260000
  H1        29.600000       51.240002       18.760000
  C2        30.990000       52.590000       17.799999
  H2        31.809999       52.430000       18.510000
  C3        31.190001       53.549999       16.799999
  H3        32.209999       53.880001       16.490000
  C4        30.049999       54.180000       16.219999
  H4        30.219999       55.040001       15.630000
  C5        28.780001       53.709999       16.600000
  H5        27.910000       53.830002       16.049999
  C1        22.709999       55.320000       18.850000
  C2        22.700001       55.520000       20.170000
  N1        23.690001       54.380001       18.580000
  C3c       24.360001       53.939999       19.770000
  N2        23.650000       54.619999       20.799999
  C4        24.049999       54.290001       22.150000
  C5c       25.379999       53.950001       22.250000
  C6        26.080000       54.029999       23.490000
  H1        27.059999       53.900002       23.750000
  C7        25.350000       54.389999       24.590000
  H2        25.770000       54.560001       25.540001
  C8        23.950001       54.599998       24.480000
  H3        23.410000       54.779999       25.410000
  C9        23.250000       54.549999       23.280001
  H4        22.160000       54.509998       23.059999
  C10       21.680000       56.400002       20.730000
  H5        21.700001       56.490002       21.799999
  C11       20.750000       57.000000       19.910000
  H6        20.000000       57.599998       20.420000
  C12       20.770000       56.779999       18.549999
  H7        20.030001       57.360001       17.930000
  C13       21.750000       55.930000       18.030001
  H8        21.650000       55.669998       16.990000
  C6        23.639999       53.560001       17.410000
  C1        22.809999       52.410000       17.450001
  H1        21.950001       52.369999       18.100000
  C2        22.940001       51.549999       16.360001
  H2        22.360001       50.639999       16.330000
  C3        23.870001       51.830002       15.330000
  H3        24.070000       51.060001       14.610000
  C4        24.629999       53.020000       15.290000
  H4        25.330000       53.340000       14.540000
  C5        24.520000       53.849998       16.389999
  H5        25.260000       54.560001       16.510000
