206
 generated by VMD
 Ir       20.985476      100.158554       81.203430
 C        19.511566       96.296738       82.440445
 C        20.216232       96.025848       81.256439
 N        19.380816       97.704773       82.494873
 C        19.979731       98.354553       81.519119
 N        20.527065       97.343613       80.730812
 C        21.320332       97.743385       79.562653
 C        21.897606       99.003426       79.687782
 C        22.728741       99.387192       78.657135
 H        23.166637      100.392136       78.645508
 C        23.015013       98.569016       77.550095
 H        23.867424       98.729141       76.816978
 C        22.404629       97.338013       77.441101
 H        22.384762       96.768921       76.528061
 C        21.550632       96.933350       78.487244
 H        21.000364       96.015717       78.321815
 C        20.531715       94.768311       81.006500
 H        21.144840       94.620148       80.188499
 C        20.092283       93.699631       81.755783
 H        20.374626       92.691360       81.522156
 C        19.351379       93.981438       82.913940
 H        19.031635       93.178955       83.553619
 C        19.083168       95.282906       83.305786
 H        18.698364       95.443176       84.335022
 C        18.481485       98.295044       83.448212
 C        19.031025       99.030731       84.528580
 H        20.135197       99.331978       84.473404
 C        18.186110       99.376633       85.581039
 H        18.516251      100.015381       86.336029
 C        16.829094       99.039124       85.511093
 H        16.292643       99.043732       86.416351
 C        16.262814       98.344330       84.409561
 H        15.193383       98.240265       84.317413
 C        17.086353       97.997955       83.363647
 H        16.914639       97.279297       82.631378
 C        24.182198       99.442802       84.038071
 C        24.425926      100.718292       83.549988
 N        23.187222       98.890259       83.257286
 C        22.696331       99.733353       82.250694
 N        23.573711      100.874435       82.400055
 C        23.410309      101.888275       81.435883
 C        22.177998      101.840553       80.740662
 C        21.975216      102.844406       79.769440
 H        20.942728      102.873627       79.395386
 C        22.972256      103.847870       79.445160
 H        22.878101      104.398499       78.551987
 C        24.174030      103.807999       80.080414
 H        24.962990      104.495323       79.848625
 C        24.387936      102.854561       81.045715
 H        25.279659      102.943626       81.655548
 C        25.242359      101.626480       84.185715
 H        25.452202      102.600449       83.718422
 C        25.910404      101.258255       85.345673
 H        26.529232      101.998932       85.889778
 C        25.831367       99.941879       85.879631
 H        26.452095       99.548035       86.715866
 C        24.975641       99.016487       85.175652
 H        24.940453       97.997208       85.568481
 C        23.086246       97.468079       83.254845
 C        22.495537       96.815048       84.302856
 H        21.863396       97.306549       85.052597
 C        22.729124       95.484436       84.543274
 H        22.126118       94.954712       85.300690
 C        23.467209       94.687439       83.705528
 H        23.715412       93.598419       83.919128
 C        23.982691       95.294212       82.561584
 H        24.656227       94.760437       81.867508
 C        23.724072       96.676163       82.288948
 H        23.710129       97.059738       81.340439
 C        18.511147      102.580261       83.877655
 C        17.811653      102.327309       82.723877
 N        19.833591      102.082108       83.608261
 C        19.937069      101.528267       82.381615
 N        18.715836      101.745636       81.802185
 C        18.689175      101.667313       80.444183
 C        19.396080      100.625748       79.914536
 C        19.328655      100.286781       78.557785
 H        19.751415       99.417633       78.151169
 C        18.504702      101.029327       77.724289
 H        18.432487      100.865349       76.699738
 C        17.758188      102.090866       78.248260
 H        17.334145      102.769318       77.569893
 C        17.821144      102.371292       79.571068
 H        17.263905      103.204193       79.872337
 C        16.444712      102.658813       82.470543
 H        15.838146      102.044472       81.792328
 C        15.733298      103.173615       83.573524
 H        14.893172      103.833824       83.443924
 C        16.374811      103.261185       84.831657
 H        15.849501      103.746674       85.730911
 C        17.713058      103.032822       85.013992
 H        18.251320      103.541702       85.797638
 C        20.947937      102.738892       84.099243
 C        21.607197      102.233582       85.190399
 H        21.230797      101.332794       85.562271
 C        22.690371      102.877151       85.746605
 H        23.196665      102.609001       86.660965
 C        23.201584      104.011139       85.113876
 H        24.231670      104.312668       85.259468
 C        22.558380      104.565460       84.047989
 H        22.719673      105.638664       83.810684
 C        21.402718      103.940948       83.500885
 H        20.960957      104.368004       82.625053
 Ir       20.985474      100.158554       94.133728
 C        17.041464      101.511459       93.223923
 C        16.844700      100.319855       93.855721
 N        18.308121      101.832962       93.409966
 C        19.025047      100.906174       94.095146
 N        18.052124       99.971237       94.457123
 C        18.515829       98.829582       95.201576
 C        19.866024       98.568390       95.008835
 C        20.393940       97.423676       95.611618
 H        21.418558       97.169693       95.425735
 C        19.573467       96.523422       96.335617
 H        19.872143       95.682838       97.036179
 C        18.223991       96.902176       96.584740
 H        17.560390       96.342026       97.340759
 C        17.719248       98.027832       95.964630
 H        16.722099       98.335739       96.289581
 C        15.502419       99.767944       93.879662
 H        15.163044       99.157379       94.697609
 C        14.487980      100.474045       93.154724
 H        13.454857      100.117752       93.330833
 C        14.699303      101.694229       92.557159
 H        13.875855      102.129967       92.084862
 C        15.985828      102.221542       92.624237
 H        16.106113      103.090698       92.025429
 C        18.802433      103.025024       92.817734
 C        19.125469      103.008034       91.490585
 H        18.971832      102.060349       90.953552
 C        19.447327      104.181503       90.838226
 H        19.642895      104.260971       89.788635
 C        19.432537      105.430992       91.533829
 H        19.677364      106.346405       91.039185
 C        19.173836      105.416634       92.900711
 H        18.939487      106.357834       93.514725
 C        18.908180      104.205055       93.520065
 H        18.524063      104.275421       94.545197
 C        22.398323      101.111275       98.058044
 C        23.551590      100.622086       97.344688
 N        21.305500      100.892075       97.195381
 C        21.715172      100.498535       96.017242
 N        23.011530      100.164909       96.086143
 C        23.525536       99.215752       95.254578
 C        22.804146       99.035034       94.049782
 C        23.366802       98.181335       93.109032
 H        22.685722       97.864098       92.269928
 C        24.641354       97.684189       93.247803
 H        25.189518       97.216827       92.393814
 C        25.393608       97.918091       94.389206
 H        26.427481       97.515465       94.390732
 C        24.820120       98.678650       95.394821
 H        25.500237       99.134079       96.057564
 C        24.767815      100.841019       98.014816
 H        25.761280      100.807907       97.590515
 C        24.863100      101.415283       99.265465
 H        25.826500      101.603508       99.688934
 C        23.750481      101.967644       99.917526
 H        23.865168      101.952278      100.930603
 C        22.499424      101.787292       99.273849
 H        21.604183      102.090569       99.717087
 C        19.907852      100.892433       97.611542
 C        19.456207       99.907639       98.494652
 H        20.062534       99.072517       98.688644
 C        18.113832       99.984215       99.004807
 H        17.625877       99.251656       99.619675
 C        17.281101      100.987961       98.588089
 H        16.305403      101.057785       99.088120
 C        17.732901      101.952774       97.704056
 H        16.977837      102.683105       97.368652
 C        19.066441      101.953804       97.246811
 H        19.401905      102.640579       96.512985
 C        22.869043      103.395493       91.961449
 C        22.603539      102.486298       91.001572
 N        22.659782      102.728775       93.153717
 C        22.064045      101.519150       93.017731
 N        22.077141      101.400864       91.664490
 C        21.448811      100.177002       91.177307
 C        20.576851       99.545341       92.148911
 C        19.580896       98.668327       91.677505
 H        18.850719       98.224533       92.285782
 C        19.596203       98.260361       90.311050
 H        18.810402       97.631683       89.916855
 C        20.559410       98.779816       89.400169
 H        20.529961       98.393761       88.423080
 C        21.457928       99.720009       89.787216
 H        22.328638       99.846924       89.126640
 C        22.631142      102.839813       89.622169
 H        21.980415      102.194130       88.965546
 C        22.862648      104.196426       89.328705
 H        23.119850      104.386703       88.274307
 C        23.170509      105.153717       90.338501
 H        23.371647      106.179756       90.044746
 C        23.253742      104.713531       91.661308
 H        23.350651      105.543465       92.355865
 C        23.197975      103.218239       94.362717
 C        24.564236      102.976646       94.620148
 H        25.057844      102.319305       93.971420
 C        25.078081      103.427536       95.792824
 H        25.977089      103.006409       96.176926
 C        24.325645      104.160439       96.716507
 H        24.500719      103.982468       97.792923
 C        22.996964      104.431534       96.476883
 H        22.333447      104.945328       97.171692
 C        22.422970      103.887505       95.360840
 H        21.452881      103.470543       95.341629
