206
 generated by VMD
  IR        51.459999       32.430000       16.490000
  C1        47.669998       34.070000       15.240000
  C2        47.340000       32.799999       15.740000
  N1        49.080002       34.080002       15.120000
  C3a       49.680000       32.990002       15.550000
  N2        48.630001       32.169998       15.960000
  C4        48.970001       30.870001       16.549999
  C5a       50.230000       30.840000       17.139999
  C6        50.560001       29.670000       17.790001
  H1        51.560001       29.540001       18.219999
  C7        49.689999       28.570000       17.889999
  H2        49.810001       27.700001       18.610001
  C8        48.459999       28.620001       17.270000
  H3        47.849998       27.750000       17.100000
  C9        48.110001       29.809999       16.600000
  H4        47.189999       29.780001       16.030001
  C10       46.070000       32.560001       16.010000
  H5        45.880001       31.660000       16.480000
  C11       45.040001       33.419998       15.700000
  H6        44.020000       33.189999       15.940000
  C12       45.380001       34.669998       15.160000
  H7        44.610001       35.389999       14.950000
  C13       46.700001       35.040001       14.960000
  H8        46.910000       36.110001       14.750000
  C6        49.720001       35.139999       14.390000
  C1        50.500000       36.080002       15.110000
  H1        50.790001       35.830002       16.190001
  C2        50.900002       37.240002       14.450000
  H2        51.570000       37.900002       14.900000
  C3        50.570000       37.410000       13.100000
  H3        50.619999       38.389999       12.720000
  C4        49.830002       36.450001       12.360000
  H4        49.730000       36.540001       11.290000
  C5        49.430000       35.299999       13.000000
  H5        48.680000       34.639999       12.710000
  C1        50.849998       34.730000       20.110001
  C2        52.099998       34.150002       20.270000
  N1        50.270000       34.150002       19.000000
  C3b       51.070000       33.200001       18.350000
  N2        52.209999       33.150002       19.240000
  C4        53.180000       32.180000       18.920000
  C5b       53.110001       31.700001       17.590000
  C6        54.070000       30.730000       17.230000
  H1        54.090000       30.530001       16.150000
  C7        55.049999       30.200001       18.160000
  H2        55.560001       29.309999       17.920000
  C8        55.029999       30.629999       19.450001
  H3        55.700001       30.240000       20.190001
  C9        54.119999       31.590000       19.820000
  H4        54.230000       32.040001       20.799999
  C10       53.029999       34.599998       21.180000
  H5        53.980000       34.060001       21.309999
  C11       52.709999       35.650002       22.030001
  H6        53.470001       36.049999       22.730000
  C12       51.419998       36.250000       22.040001
  H7        51.060001       36.990002       22.790001
  C13       50.470001       35.740002       21.080000
  H8        49.470001       36.180000       21.110001
  C6        48.849998       34.230000       18.900000
  C1        48.250000       35.389999       18.490000
  H1        48.779999       36.209999       17.990000
  C2        46.930000       35.650002       18.760000
  H2        46.439999       36.520000       18.290001
  C3        46.090000       34.740002       19.350000
  H3        45.009998       34.959999       19.629999
  C4        46.639999       33.500000       19.670000
  H4        46.070000       32.730000       20.219999
  C5        48.009998       33.209999       19.370001
  H5        48.349998       32.259998       19.200001
  C1        54.020000       35.360001       14.490000
  C2        53.720001       34.349998       13.610000
  N1        53.500000       34.900002       15.750000
  C3c       52.889999       33.700001       15.650000
  N2        53.090000       33.320000       14.350000
  C4        52.950001       31.990000       14.100000
  C5c       51.880001       31.400000       14.710000
  C6        51.480000       30.090000       14.420000
  H1        50.590000       29.660000       14.770000
  C7        52.189999       29.370001       13.470000
  H2        51.980000       28.379999       13.230000
  C8        53.279999       29.959999       12.820000
  H3        53.930000       29.330000       12.290000
  C9        53.619999       31.240000       13.100000
  H4        54.470001       31.590000       12.600000
  C10       54.049999       34.310001       12.220000
  H5        53.410000       33.770000       11.510000
  C11       54.619999       35.490002       11.700000
  H6        55.279999       35.470001       10.850000
  C12       54.759998       36.619999       12.540000
  H7        55.290001       37.570000       12.170000
  C13       54.529999       36.590000       13.890000
  H8        55.070000       37.250000       14.550000
  C6        54.169998       35.169998       16.930000
  C1        53.709999       36.160000       17.760000
  H1        52.830002       36.630001       17.450001
  C2        54.369999       36.500000       18.920000
  H2        54.139999       37.330002       19.570000
  C3        55.470001       35.740002       19.320000
  H3        55.770000       35.700001       20.360001
  C4        55.980000       34.770000       18.510000
  H4        57.040001       34.459999       18.629999
  C5        55.340000       34.450001       17.280001
  H5        55.730000       33.639999       16.700001
  IR        52.049999       45.169998       18.620001
  C1        53.389999       44.860001       14.580000
  C2        52.230000       45.570000       14.490000
  N1        53.709999       44.820000       15.860000
  C3a       52.810001       45.419998       16.680000
  N2        51.900002       45.980000       15.780000
  C4        50.790001       46.689999       16.360001
  C5a       50.509998       46.290001       17.660000
  C6        49.389999       46.849998       18.280001
  H1        49.119999       46.509998       19.260000
  C7        48.529999       47.740002       17.590000
  H2        47.720001       48.419998       18.000000
  C8        48.930000       48.189999       16.299999
  H3        48.410000       49.070000       15.770000
  C9        50.029999       47.610001       15.700000
  H4        50.360001       48.080002       14.770000
  C10       51.689999       45.840000       13.170000
  H5        51.119999       46.730000       12.970000
  C11       52.369999       45.259998       12.050000
  H6        52.029999       45.619999       11.060000
  C12       53.560001       44.580002       12.160000
  H7        53.980000       44.230000       11.270000
  C13       54.080002       44.410000       13.440000
  H8        54.919998       43.759998       13.460000
  C6        54.869999       44.099998       16.250000
  C1        54.790001       42.740002       16.350000
  H1        53.820000       42.279999       16.110001
  C2        55.930000       41.990002       16.559999
  H2        55.959999       40.919998       16.580000
  C3        57.209999       42.619999       16.660000
  H3        58.099998       42.049999       16.820000
  C4        57.259998       44.009998       16.629999
  H4        58.230000       44.610001       16.500000
  C5        56.080002       44.720001       16.469999
  H5        56.200001       45.790001       16.260000
  C1        53.169998       48.759998       20.660000
  C2        52.639999       47.889999       21.680000
  N1        52.919998       48.099998       19.440001
  C3b       52.470001       46.889999       19.650000
  N2        52.130001       46.759998       20.940001
  C4        51.139999       45.900002       21.309999
  C5b       50.910000       44.840000       20.400000
  C6        50.009998       43.860001       20.799999
  H1        49.660000       43.160000       19.990000
  C7        49.509998       43.810001       22.080000
  H2        49.000000       42.900002       22.480000
  C8        49.790001       44.799999       23.010000
  H3        49.380001       44.650002       24.030001
  C9        50.599998       45.849998       22.610001
  H4        51.080002       46.369999       23.389999
  C10       52.880001       48.340000       22.990000
  H5        52.820000       47.759998       23.900000
  C11       53.509998       49.529999       23.290001
  H6        53.709999       49.779999       24.309999
  C12       54.099998       50.330002       22.299999
  H7        54.130001       51.310001       22.580000
  C13       53.900002       49.910000       20.959999
  H8        54.230000       50.480000       20.150000
  C6        52.950001       48.740002       18.129999
  C1        52.009998       49.730000       17.830000
  H1        51.180000       49.860001       18.459999
  C2        52.119999       50.450001       16.590000
  H2        51.419998       51.169998       16.209999
  C3        53.110001       50.130001       15.700000
  H3        53.209999       50.779999       14.820000
  C4        54.029999       49.139999       16.000000
  H4        54.750000       48.900002       15.200000
  C5        54.000000       48.470001       17.240000
  H5        54.650002       47.660000       17.450001
  C1        55.169998       42.570000       20.120001
  C2        54.220001       41.709999       19.700001
  N1        54.560001       43.810001       20.110001
  C3c       53.349998       43.830002       19.500000
  N2        53.169998       42.500000       19.290001
  C4        51.930000       42.180000       18.590000
  C5c       51.349998       43.310001       17.889999
  C6        50.459999       43.049999       16.830000
  H1        50.049999       43.790001       16.209999
  C7        49.990002       41.720001       16.620001
  H2        49.349998       41.490002       15.780000
  C8        50.459999       40.639999       17.420000
  H3        50.029999       39.700001       17.230000
  C9        51.410000       40.830002       18.370001
  H4        51.500000       40.029999       19.120001
  C10       54.509998       40.330002       19.500000
  H5        53.840000       39.820000       18.750000
  C11       55.849998       39.939999       19.680000
  H6        55.990002       38.849998       19.760000
  C12       56.849998       40.840000       20.150000
  H7        57.860001       40.470001       20.299999
  C13       56.470001       42.150002       20.450001
  H8        57.330002       42.779999       20.660000
  C6        55.099998       44.889999       20.840000
  C1        54.860001       44.930000       22.230000
  H1        54.169998       44.240002       22.610001
  C2        55.360001       45.980000       22.930000
  H2        54.950001       46.230000       23.879999
  C3        56.139999       46.980000       22.340000
  H3        56.009998       48.020000       22.690001
  C4        56.410000       46.950001       20.990000
  H4        56.959999       47.720001       20.450001
  C5        55.820000       45.970001       20.240000
  H5        55.410000       46.130001       19.280001
