206
 generated by VMD
 Ir       34.015205      -30.952490      -77.456772
 C        36.791199      -32.639412      -74.560638
 C        36.985676      -31.280766      -74.463867
 N        35.904419      -32.862942      -75.621323
 C        35.499615      -31.679707      -76.215210
 N        36.203056      -30.700645      -75.507309
 C        36.050041      -29.357101      -75.965538
 C        35.026134      -29.170166      -76.909554
 C        34.810143      -27.890051      -77.429504
 H        34.073891      -27.720739      -78.193680
 C        35.591400      -26.798027      -77.022415
 H        35.425812      -25.834587      -77.464417
 C        36.609013      -26.985350      -76.086159
 H        37.174057      -26.140099      -75.723282
 C        36.846832      -28.265079      -75.571053
 H        37.709503      -28.405186      -74.936737
 C        37.835377      -30.769768      -73.464729
 H        37.906876      -29.721279      -73.265579
 C        38.502029      -31.648163      -72.595879
 H        39.182468      -31.259048      -71.852844
 C        38.295204      -33.017574      -72.707870
 H        38.854134      -33.715759      -72.082787
 C        37.428261      -33.518192      -73.680649
 H        37.194153      -34.564751      -73.683441
 C        35.654282      -34.185905      -76.151611
 C        36.251274      -34.567642      -77.351929
 H        36.872597      -33.878540      -77.903473
 C        36.014221      -35.850250      -77.881958
 H        36.508415      -36.155861      -78.796387
 C        35.171936      -36.731136      -77.205948
 H        35.018387      -37.737000      -77.585510
 C        34.560642      -36.339798      -76.007385
 H        33.853539      -36.993172      -75.529770
 C        34.805695      -35.067181      -75.483360
 H        34.386154      -34.798454      -74.524582
 C        30.805744      -30.234528      -74.603622
 C        30.419849      -29.547146      -75.729538
 N        32.115044      -30.699841      -74.831253
 C        32.564594      -30.366745      -76.102135
 N        31.511927      -29.637852      -76.637306
 C        31.688023      -29.193338      -77.975327
 C        32.677204      -29.881279      -78.692513
 C        32.818424      -29.618561      -80.057632
 H        33.521629      -30.199673      -80.651100
 C        32.040535      -28.655979      -80.698578
 H        32.239185      -28.401665      -81.723206
 C        31.071465      -27.957273      -79.972473
 H        30.462475      -27.216413      -80.468819
 C        30.901878      -28.210770      -78.610573
 H        30.269966      -27.548561      -78.040337
 C        29.125576      -29.020378      -75.800735
 H        28.769089      -28.505142      -76.684166
 C        28.223980      -29.200584      -74.737648
 H        27.242722      -28.755642      -74.788177
 C        28.624662      -29.917557      -73.609375
 H        27.927431      -30.100464      -72.802277
 C        29.918697      -30.434334      -73.538483
 H        30.197647      -31.052967      -72.702972
 C        32.987320      -31.096233      -73.740837
 C        33.729820      -30.127167      -73.064148
 H        33.699421      -29.096821      -73.387207
 C        34.546585      -30.495514      -71.994522
 H        35.087234      -29.745169      -71.439560
 C        34.642910      -31.842533      -71.606110
 H        35.260544      -32.122536      -70.765915
 C        33.909645      -32.811985      -72.303162
 H        33.986866      -33.852325      -72.017624
 C        33.077351      -32.443642      -73.360184
 H        32.511940      -33.193600      -73.882179
 C        31.843241      -34.147934      -79.466003
 C        32.935677      -33.895031      -80.262260
 N        32.021393      -33.397926      -78.294525
 C        33.190491      -32.649513      -78.314072
 N        33.760338      -33.012421      -79.531967
 C        35.058147      -32.487701      -79.773758
 C        35.357128      -31.318054      -79.056366
 C        36.555786      -30.646923      -79.340965
 H        36.790466      -29.725204      -78.829727
 C        37.463905      -31.153500      -80.284943
 H        38.373993      -30.607296      -80.496628
 C        37.189384      -32.351192      -80.956337
 H        37.922928      -32.783188      -81.607635
 C        35.993408      -33.013107      -80.700165
 H        35.818092      -33.981697      -81.154129
 C        32.978729      -34.463238      -81.557907
 H        33.788109      -34.223415      -82.226852
 C        31.938774      -35.272812      -82.013947
 H        31.975758      -35.692245      -83.015594
 C        30.843405      -35.524940      -81.189568
 H        30.021553      -36.145767      -81.535599
 C        30.795759      -34.967499      -79.915443
 H        29.952700      -35.178886      -79.272125
 C        31.090897      -33.467445      -77.187706
 C        29.966263      -32.634338      -77.192734
 H        29.855028      -31.889618      -77.964432
 C        29.011112      -32.747299      -76.179749
 H        28.179125      -32.056358      -76.157455
 C        29.166779      -33.703751      -75.162903
 H        28.439968      -33.767906      -74.376373
 C        30.285116      -34.537243      -75.165642
 H        30.416466      -35.271198      -74.385025
 C        31.248028      -34.424282      -76.184921
 H        32.079773      -35.105232      -76.207520
 Ir       34.015205      -30.952490      -65.778770
 C        34.127289      -26.606163      -66.434036
 C        33.381645      -27.106010      -67.479538
 N        34.517387      -27.704052      -65.652008
 C        34.041000      -28.901747      -66.159538
 N        33.329514      -28.512642      -67.289886
 C        32.655655      -29.550888      -67.993073
 C        33.084694      -30.851761      -67.670807
 C        32.663815      -31.916893      -68.474884
 H        33.071609      -32.902637      -68.305740
 C        31.802460      -31.709972      -69.551857
 H        31.530064      -32.536785      -70.204758
 C        31.327324      -30.429083      -69.835709
 H        30.608311      -30.270153      -70.626251
 C        31.750896      -29.354731      -69.060043
 H        31.284649      -28.399738      -69.206001
 C        32.818802      -26.206472      -68.395027
 H        32.339256      -26.555614      -69.303131
 C        32.969574      -24.826685      -68.225166
 H        32.496529      -24.148483      -68.918976
 C        33.720295      -24.336058      -67.157547
 H        33.909473      -23.277962      -67.067307
 C        34.314194      -25.235596      -66.267258
 H        34.924759      -24.846483      -65.467514
 C        35.222412      -27.529327      -64.402679
 C        36.520977      -28.013424      -64.246872
 H        37.033066      -28.456615      -65.091652
 C        37.187233      -27.860615      -63.029438
 H        38.180798      -28.272879      -62.900291
 C        36.553467      -27.223320      -61.953758
 H        37.057014      -27.142429      -61.000237
 C        35.262177      -26.719236      -62.116474
 H        34.765381      -26.206486      -61.300461
 C        34.595917      -26.872047      -63.333908
 H        33.608658      -26.459396      -63.455299
 C        30.171297      -31.396156      -63.770660
 C        30.706085      -32.654785      -63.794132
 N        31.017300      -30.567932      -64.537292
 C        32.105476      -31.276974      -65.037323
 N        31.868132      -32.570599      -64.599838
 C        32.741066      -33.566383      -65.142891
 C        33.905319      -33.055557      -65.739601
 C        34.862579      -33.967537      -66.226379
 H        35.737522      -33.611237      -66.735229
 C        34.660904      -35.349983      -66.109894
 H        35.431061      -36.031364      -66.430481
 C        33.497620      -35.841206      -65.527840
 H        33.346115      -36.912724      -65.428879
 C        32.528259      -34.949982      -65.055977
 H        31.553638      -35.336693      -64.812729
 C        30.069141      -33.679386      -63.071434
 H        30.507311      -34.657066      -62.991783
 C        28.899853      -33.426140      -62.353981
 H        28.385502      -34.224003      -61.845192
 C        28.351738      -32.138306      -62.346924
 H        27.407169      -31.946564      -61.860382
 C        29.001280      -31.112934      -63.054108
 H        28.600840      -30.111023      -63.023804
 C        30.522511      -29.335892      -65.099220
 C        29.424849      -29.368408      -65.959557
 H        29.023458      -30.318947      -66.295357
 C        28.841232      -28.175182      -66.408775
 H        27.959644      -28.214943      -67.018799
 C        29.370560      -26.939445      -66.010567
 H        28.902527      -26.029827      -66.333267
 C        30.483753      -26.906933      -65.162834
 H        30.945354      -25.957939      -64.927391
 C        31.051842      -28.100159      -64.701004
 H        31.899685      -28.069618      -64.037361
 C        36.315941      -31.476757      -62.103561
 C        37.284164      -31.442577      -63.084568
 N        35.074287      -31.295568      -62.728745
 C        35.198311      -31.163525      -64.099174
 N        36.575699      -31.276785      -64.322266
 C        36.993603      -31.217735      -65.695602
 C        35.964813      -30.950087      -66.613899
 C        36.303383      -30.701950      -67.958031
 H        35.518112      -30.492283      -68.671532
 C        37.628319      -30.712626      -68.388535
 H        37.857780      -30.507889      -69.422821
 C        38.651054      -30.990652      -67.477707
 H        39.679844      -30.995197      -67.797028
 C        38.334549      -31.248398      -66.138123
 H        39.127876      -31.549541      -65.478165
 C        38.627361      -31.568447      -62.699234
 H        39.432194      -31.480442      -63.421391
 C        38.978119      -31.770004      -61.362732
 H        40.012749      -31.896687      -61.087784
 C        37.982254      -31.824944      -60.384037
 H        38.236763      -32.018097      -59.356506
 C        36.651169      -31.678318      -60.754448
 H        35.879539      -31.774769      -60.007271
 C        33.829842      -31.164165      -62.008675
 C        33.285133      -32.289848      -61.394485
 H        33.688622      -33.276794      -61.595570
 C        32.158699      -32.162647      -60.576645
 H        31.797310      -33.005455      -60.022232
 C        31.564373      -30.910536      -60.388515
 H        30.706005      -30.812153      -59.748184
 C        32.104248      -29.785625      -61.024525
 H        31.625679      -28.823296      -60.915936
 C        33.236992      -29.912439      -61.834602
 H        33.610970      -29.068863      -62.373505
