206
 generated by VMD
 Ir       60.639771      -16.804712       45.221394
 C        58.177387      -18.554180       42.068134
 C        59.403229      -18.247475       41.472031
 N        58.340858      -18.131298       43.400105
 C        59.526642      -17.572784       43.679893
 N        60.255253      -17.606670       42.477036
 C        61.401039      -16.844879       42.385101
 C        61.680298      -16.127995       43.536919
 C        62.825050      -15.302773       43.644424
 H        62.755314      -14.515604       44.388000
 C        63.681843      -15.323191       42.564800
 H        64.583038      -14.712056       42.629322
 C        63.490612      -16.040844       41.385605
 H        64.229950      -16.058937       40.603973
 C        62.313694      -16.794201       41.242039
 H        62.263142      -17.579453       40.509766
 C        59.650986      -18.637285       40.113625
 H        60.561913      -18.329048       39.651787
 C        58.635799      -19.469076       39.528030
 H        58.787025      -19.868855       38.524284
 C        57.405479      -19.816135       40.136444
 H        56.672398      -20.365421       39.620907
 C        57.196800      -19.325245       41.442348
 H        56.142784      -19.385609       41.754913
 C        57.213150      -18.190079       44.308464
 C        57.047138      -19.276903       45.185760
 H        57.691956      -20.140463       45.205036
 C        55.923473      -19.312630       46.000565
 H        55.784897      -20.182709       46.664162
 C        54.901306      -18.387989       45.865639
 H        54.023624      -18.650101       46.425800
 C        55.057575      -17.290405       44.971333
 H        54.113930      -16.737410       44.832672
 C        56.175827      -17.216240       44.207451
 H        56.191483      -16.410744       43.449936
 C        63.967587      -19.604755       45.659901
 C        64.302780      -18.465137       46.406300
 N        62.724056      -19.330837       45.057896
 C        62.289993      -18.045235       45.467064
 N        63.244991      -17.593142       46.370167
 C        62.841160      -16.368622       47.093742
 C        61.713463      -15.619272       46.573284
 C        61.300144      -14.432039       47.219925
 H        60.672501      -13.741854       46.687283
 C        61.829723      -14.194776       48.507034
 H        61.353638      -13.435694       49.124557
 C        62.897541      -14.964878       49.083927
 H        63.292042      -14.893297       50.014381
 C        63.405041      -16.019905       48.320015
 H        64.229637      -16.516397       48.633129
 C        65.523346      -18.450420       47.068813
 H        65.993927      -17.543339       47.508301
 C        66.442352      -19.564564       46.943073
 H        67.476883      -19.395382       47.280724
 C        66.046402      -20.704182       46.231461
 H        66.835678      -21.391350       45.979778
 C        64.816299      -20.698147       45.552269
 H        64.513916      -21.624828       45.004063
 C        62.297268      -20.047722       43.990551
 C        62.896225      -19.788754       42.782623
 H        63.715084      -19.189938       42.663109
 C        62.317249      -20.351151       41.670868
 H        62.837109      -20.420382       40.747421
 C        61.140846      -21.092571       41.769699
 H        61.134102      -21.784439       40.912685
 C        60.492287      -21.350389       42.971489
 H        59.620945      -21.837753       43.079853
 C        61.163544      -20.831799       44.143787
 H        60.851944      -21.356350       45.048580
 C        58.291039      -18.143555       48.605869
 C        57.614555      -17.023300       48.108673
 N        59.430943      -18.299219       47.819427
 C        59.475479      -17.267750       46.870857
 N        58.416496      -16.473755       47.074127
 C        58.494492      -15.257410       46.264484
 C        59.312134      -15.244782       45.116486
 C        59.234196      -14.131839       44.195515
 H        59.287319      -14.337925       43.141190
 C        58.453648      -13.058409       44.563065
 H        58.453773      -12.223701       43.838799
 C        57.817593      -12.987619       45.806816
 H        57.169151      -12.129809       45.962337
 C        57.843559      -14.085203       46.596775
 H        57.632454      -14.095121       47.616699
 C        56.310635      -16.791578       48.508053
 H        55.692924      -16.102160       47.992756
 C        55.782928      -17.594391       49.478165
 H        54.864456      -17.193535       49.987209
 C        56.401619      -18.754230       49.995171
 H        55.919338      -19.368359       50.682381
 C        57.731567      -18.985954       49.580887
 H        58.344997      -19.705734       50.108826
 C        60.444382      -19.241905       48.200726
 C        60.368336      -20.535606       47.725800
 H        59.420437      -20.901575       47.237591
 C        61.472004      -21.353779       47.922554
 H        61.376938      -22.351151       47.575409
 C        62.583546      -20.879017       48.656300
 H        63.505566      -21.517731       48.676697
 C        62.651100      -19.575323       49.136524
 H        63.528625      -19.259317       49.662823
 C        61.547958      -18.724487       48.860188
 H        61.587822      -17.676794       48.929810
 Ir       60.639771      -16.804714       54.539085
 C        62.041176      -19.382854       57.831768
 C        63.155411      -19.258341       57.060875
 N        60.892620      -18.679249       57.194378
 C        61.320923      -18.068239       56.030540
 N        62.645992      -18.509783       55.909592
 C        63.269428      -18.199318       54.643799
 C        62.574924      -17.287785       53.813271
 C        63.287457      -16.804737       52.723198
 H        62.888264      -15.853951       52.348030
 C        64.587181      -17.256298       52.316494
 H        65.131866      -16.938501       51.476665
 C        65.234390      -18.178207       53.185177
 H        66.219711      -18.540218       52.973999
 C        64.600136      -18.595909       54.371704
 H        65.310944      -18.902897       55.069710
 C        64.328613      -19.953127       57.419315
 H        65.228592      -19.636047       56.998726
 C        64.297226      -20.944242       58.350605
 H        65.048813      -21.741304       58.415474
 C        63.134060      -21.098351       59.136673
 H        62.956951      -21.908089       59.813469
 C        62.030281      -20.219454       58.919598
 H        61.246506      -20.061848       59.744373
 C        59.617615      -18.633911       57.765003
 C        59.386318      -18.091909       59.051521
 H        60.215103      -17.795506       59.593330
 C        58.135330      -18.290611       59.724457
 H        57.861126      -17.692537       60.553684
 C        57.201813      -19.134695       59.160740
 H        56.158958      -19.325348       59.472691
 C        57.462250      -19.779690       57.945244
 H        56.888855      -20.616821       57.567711
 C        58.641090      -19.458008       57.226799
 H        58.787682      -20.039574       56.275330
 C        61.926582      -12.833624       55.961296
 C        61.033669      -12.621985       54.925133
 N        62.012432      -14.257948       56.010609
 C        61.241066      -14.902968       55.086086
 N        60.635040      -13.846147       54.349705
 C        60.019726      -14.222924       53.093987
 C        60.263283      -15.619978       52.835106
 C        60.075027      -16.043627       51.540348
 H        60.267349      -17.069801       51.292610
 C        59.532322      -15.230487       50.572430
 H        59.736092      -15.410812       49.559830
 C        59.162334      -13.964487       50.932507
 H        58.741585      -13.341567       50.197701
 C        59.412560      -13.410168       52.174488
 H        58.982540      -12.490461       52.449844
 C        60.580681      -11.316832       54.757885
 H        59.668945      -11.079791       54.171837
 C        61.077503      -10.291732       55.545052
 H        60.810760       -9.241762       55.421322
 C        61.979202      -10.564094       56.596558
 H        61.954601       -9.818430       57.358585
 C        62.438412      -11.870398       56.794792
 H        62.877590      -12.191214       57.763039
 C        62.830566      -14.878136       57.036926
 C        62.219017      -15.276234       58.222851
 H        61.239647      -14.996080       58.484669
 C        62.926716      -16.150097       59.116676
 H        62.315369      -16.885693       59.618725
 C        64.288483      -16.420998       58.959202
 H        64.870575      -17.163063       59.573292
 C        64.928276      -15.973703       57.782345
 H        66.001694      -16.005573       57.523781
 C        64.162521      -15.275492       56.787140
 H        64.573067      -14.833948       55.914276
 C        56.354950      -16.105400       54.924698
 C        56.460464      -17.368359       54.324112
 N        57.668900      -15.662174       55.287449
 C        58.622643      -16.626835       54.860130
 N        57.866203      -17.685364       54.323925
 C        58.629604      -18.804157       53.825806
 C        59.931084      -18.519329       53.542915
 C        60.655594      -19.448288       52.775635
 H        61.662529      -19.259552       52.541828
 C        60.173607      -20.697418       52.396744
 H        60.795753      -21.410370       51.812935
 C        58.898697      -21.025667       52.766289
 H        58.471848      -22.062244       52.584320
 C        58.136780      -20.105167       53.508488
 H        57.181015      -20.422632       53.972527
 C        55.230068      -18.057541       54.087151
 H        55.397057      -19.061790       54.097042
 C        54.018692      -17.528721       54.527397
 H        53.159950      -18.061066       54.476646
 C        54.003181      -16.224644       55.043674
 H        53.003426      -15.770782       55.209518
 C        55.118591      -15.511259       55.220692
 H        54.998497      -14.558073       55.815937
 C        57.842171      -14.843061       56.435284
 C        57.885426      -15.514387       57.637802
 H        57.594788      -16.638189       57.593094
 C        58.373413      -14.911638       58.791908
 H        58.650856      -15.446157       59.658810
 C        58.783470      -13.564164       58.662811
 H        59.089596      -13.049456       59.559673
 C        58.708347      -12.871702       57.444878
 H        59.188599      -11.949287       57.418240
 C        58.216072      -13.504814       56.303417
 H        58.281532      -12.874584       55.371254
