206
 generated by VMD
 Ir      -25.828377       -4.242122      -40.114346
 C       -23.823467       -6.737313      -43.002693
 C       -24.516247       -5.789125      -43.729599
 N       -24.131306       -6.538621      -41.638893
 C       -24.941462       -5.451891      -41.534637
 N       -25.179611       -4.995428      -42.813202
 C       -25.735031       -3.630501      -42.970322
 C       -26.224621       -3.058319      -41.837975
 C       -26.966316       -1.855614      -41.889809
 H       -27.491142       -1.487760      -41.058643
 C       -27.088074       -1.174899      -43.107018
 H       -27.527321       -0.219743      -43.225513
 C       -26.575169       -1.747081      -44.283600
 H       -27.089653       -1.442781      -45.221741
 C       -25.864513       -2.947813      -44.202911
 H       -25.223698       -3.233429      -44.984241
 C       -24.726189       -6.048733      -45.140251
 H       -25.392731       -5.382307      -45.649857
 C       -24.114487       -7.084250      -45.756065
 H       -24.200298       -7.109359      -46.841286
 C       -23.300316       -8.008188      -44.976471
 H       -22.770107       -8.863629      -45.352631
 C       -23.189167       -7.820763      -43.583984
 H       -22.737251       -8.623469      -42.984039
 C       -23.871319       -7.557209      -40.540993
 C       -22.586132       -7.604541      -39.976585
 H       -21.765007       -7.015525      -40.391571
 C       -22.184017       -8.511003      -39.007240
 H       -21.180016       -8.641052      -38.715405
 C       -23.099216       -9.390153      -38.562714
 H       -22.978546       -9.825100      -37.606071
 C       -24.419939       -9.440847      -39.089325
 H       -25.186337      -10.057775      -38.679405
 C       -24.778259       -8.570380      -40.137321
 H       -25.748032       -8.724450      -40.625900
 C       -22.550072       -1.386031      -39.482803
 C       -23.634071       -0.769320      -38.878559
 N       -22.994436       -2.669221      -39.977032
 C       -24.309841       -2.859191      -39.698242
 N       -24.733858       -1.721318      -39.040016
 C       -26.011108       -1.720964      -38.469814
 C       -26.780411       -2.864593      -38.841415
 C       -27.988464       -3.080122      -38.268646
 H       -28.364227       -4.098832      -38.353680
 C       -28.555527       -2.170256      -37.346703
 H       -29.520287       -2.369521      -36.939606
 C       -27.851509       -1.032738      -36.975605
 H       -28.316168       -0.308964      -36.350109
 C       -26.596394       -0.781119      -37.534866
 H       -26.021683        0.141920      -37.458012
 C       -23.422783        0.451649      -38.190674
 H       -24.221500        0.978704      -37.741264
 C       -22.157936        0.987863      -38.100464
 H       -21.979393        1.966631      -37.576790
 C       -21.099659        0.359027      -38.797394
 H       -20.087252        0.648615      -38.930687
 C       -21.316353       -0.803954      -39.488129
 H       -20.581642       -1.253288      -40.129539
 C       -22.424137       -3.133318      -41.168571
 C       -21.676836       -4.326062      -41.170307
 H       -21.311726       -4.654615      -40.231773
 C       -21.187328       -4.848245      -42.302696
 H       -20.732784       -5.825489      -42.311790
 C       -21.495455       -4.285861      -43.539017
 H       -21.241451       -4.764250      -44.456417
 C       -22.260098       -3.115206      -43.602943
 H       -22.487103       -2.564376      -44.491287
 C       -22.650867       -2.576761      -42.361984
 H       -22.988548       -1.575456      -42.506073
 C       -25.308123       -6.928155      -36.629715
 C       -26.347778       -7.430534      -37.335991
 N       -24.940819       -5.712085      -37.250004
 C       -25.688683       -5.512398      -38.435509
 N       -26.664352       -6.515987      -38.373287
 C       -27.572117       -6.480495      -39.473518
 C       -27.505432       -5.463214      -40.410530
 C       -28.425442       -5.413718      -41.483299
 H       -28.701317       -4.564672      -42.035667
 C       -29.409504       -6.419567      -41.696804
 H       -30.054253       -6.495440      -42.579266
 C       -29.488945       -7.402827      -40.709991
 H       -30.143391       -8.256036      -40.828880
 C       -28.572001       -7.450350      -39.661446
 H       -28.726040       -8.290100      -39.086998
 C       -26.925087       -8.689189      -36.973351
 H       -27.729763       -9.091093      -37.589684
 C       -26.347698       -9.379293      -35.934227
 H       -26.950310      -10.215859      -35.426666
 C       -25.124491       -8.912718      -35.357277
 H       -24.498579       -9.713261      -34.903004
 C       -24.632580       -7.650118      -35.617977
 H       -23.739363       -7.310245      -35.203667
 C       -23.859734       -4.809894      -36.838406
 C       -24.244213       -3.833766      -35.967171
 H       -25.243471       -3.617245      -35.736511
 C       -23.343998       -2.877917      -35.594391
 H       -23.687897       -1.960063      -35.108711
 C       -22.032127       -2.896125      -36.067215
 H       -21.581673       -1.927415      -36.123680
 C       -21.590656       -3.900070      -36.840584
 H       -20.571739       -4.038488      -36.993050
 C       -22.562366       -4.808085      -37.262352
 H       -22.203964       -5.739846      -37.672554
 Ir      -25.828377       -4.242122      -24.356270
 C       -24.605066       -7.187353      -21.303644
 C       -23.540623       -7.098335      -22.178192
 N       -25.571945       -6.291424      -21.801998
 C       -25.188061       -5.697822      -22.978760
 N       -23.919422       -6.191874      -23.191769
 C       -23.330936       -5.908042      -24.498070
 C       -24.023201       -4.979872      -25.247318
 C       -23.554184       -4.520198      -26.503551
 H       -23.945408       -3.643239      -26.935856
 C       -22.481255       -5.150911      -27.091021
 H       -22.137043       -4.663134      -27.994785
 C       -21.863438       -6.191302      -26.448843
 H       -20.916519       -6.659986      -26.763607
 C       -22.255152       -6.614791      -25.129251
 H       -21.923302       -7.581977      -24.841286
 C       -22.466640       -8.006296      -21.917292
 H       -21.476196       -7.975076      -22.423897
 C       -22.543041       -8.879498      -20.872360
 H       -21.625652       -9.431634      -20.513136
 C       -23.655293       -8.946617      -20.023012
 H       -23.548939       -9.579687      -19.175655
 C       -24.670683       -8.064503      -20.219116
 H       -25.372242       -7.909058      -19.515018
 C       -26.637690       -5.804503      -20.995960
 C       -26.544788       -4.665679      -20.246130
 H       -25.760412       -3.916510      -20.420490
 C       -27.589279       -4.378662      -19.372368
 H       -27.488922       -3.384012      -18.833387
 C       -28.690166       -5.228402      -19.240499
 H       -29.384254       -4.924932      -18.521160
 C       -28.836342       -6.349372      -20.052324
 H       -29.666344       -7.026548      -19.800276
 C       -27.778458       -6.566369      -20.930330
 H       -27.845428       -7.345138      -21.666492
 C       -23.210119       -0.880779      -23.315269
 C       -23.628513       -0.546592      -24.564495
 N       -23.819782       -2.121481      -22.947075
 C       -24.664246       -2.609763      -23.912199
 N       -24.608862       -1.568515      -24.866472
 C       -25.461704       -1.772965      -26.005577
 C       -26.213856       -2.950236      -26.006403
 C       -27.000271       -3.344533      -27.099188
 H       -27.685173       -4.141537      -26.928913
 C       -26.963558       -2.595486      -28.244171
 H       -27.607567       -2.729346      -29.114935
 C       -26.190495       -1.424232      -28.300148
 H       -26.023554       -1.016815      -29.274746
 C       -25.396439       -0.981907      -27.192030
 H       -24.602880       -0.244769      -27.418072
 C       -22.995434        0.519860      -25.259472
 H       -23.123245        0.600670      -26.355526
 C       -21.997803        1.234080      -24.654472
 H       -21.392767        1.964630      -25.183365
 C       -21.618460        0.885890      -23.335398
 H       -20.836924        1.461664      -22.821699
 C       -22.291702       -0.110638      -22.650288
 H       -22.189098       -0.217483      -21.544910
 C       -23.086308       -2.867410      -22.006542
 C       -22.018213       -3.671994      -22.438301
 H       -21.540640       -3.590041      -23.396114
 C       -21.335602       -4.387944      -21.422840
 H       -20.739933       -5.331165      -21.674065
 C       -21.819738       -4.365571      -20.084143
 H       -21.224396       -4.953988      -19.431202
 C       -22.906200       -3.543035      -19.673370
 H       -22.943264       -3.426201      -18.664223
 C       -23.509247       -2.796915      -20.646889
 H       -24.319290       -2.139975      -20.305191
 C       -29.497894       -3.050549      -22.379276
 C       -29.769913       -4.383357      -22.771355
 N       -28.296509       -2.705136      -23.068600
 C       -27.704548       -3.762646      -23.638294
 N       -28.618877       -4.706084      -23.521130
 C       -28.413559       -5.788608      -24.498108
 C       -27.137341       -5.755034      -25.147984
 C       -26.810516       -6.695356      -26.128738
 H       -25.867016       -6.576168      -26.580959
 C       -27.657232       -7.713141      -26.529842
 H       -27.309185       -8.610977      -27.002026
 C       -28.918373       -7.724723      -25.917234
 H       -29.484367       -8.589965      -26.238188
 C       -29.346992       -6.792581      -24.944921
 H       -30.187641       -7.043438      -24.314140
 C       -30.884823       -4.990705      -22.172100
 H       -31.140804       -5.999359      -22.420074
 C       -31.667950       -4.325206      -21.251003
 H       -32.663456       -4.628798      -21.154018
 C       -31.299664       -3.044179      -20.796875
 H       -31.804543       -2.580271      -19.943890
 C       -30.265430       -2.376965      -21.393440
 H       -29.810062       -1.421781      -20.927322
 C       -28.012955       -1.296863      -23.303476
 C       -28.596954       -0.694823      -24.402609
 H       -29.228245       -1.304525      -25.119713
 C       -28.194538        0.601514      -24.789610
 H       -28.628796        0.927996      -25.674160
 C       -27.187721        1.309814      -24.111946
 H       -26.947124        2.247972      -24.392075
 C       -26.503220        0.619900      -23.061575
 H       -25.643925        1.149812      -22.540802
 C       -26.958620       -0.634520      -22.668591
 H       -26.457939       -1.156962      -21.862068
