206
 generated by VMD
 Ir       12.189136     -139.792847        5.512363
 C         9.917466     -137.351654        8.450480
 C         8.983632     -137.763062        7.522913
 N        11.148141     -137.855026        8.105441
 C        11.080632     -138.690796        6.928268
 N         9.658124     -138.617798        6.641674
 C         9.260583     -139.723114        5.879020
 C        10.174579     -140.141022        4.932144
 C         9.710773     -140.966660        3.922735
 H        10.313630     -141.253098        3.111555
 C         8.303308     -141.235504        3.807971
 H         8.018056     -142.082489        3.201382
 C         7.439370     -140.703033        4.763059
 H         6.412742     -140.798340        4.679089
 C         7.896462     -140.027893        5.843185
 H         7.358346     -139.996918        6.767288
 C         7.665946     -137.307343        7.553216
 H         6.915843     -137.734344        6.880010
 C         7.262874     -136.408127        8.509641
 H         6.279050     -135.935242        8.493656
 C         8.126998     -136.139374        9.551161
 H         7.780873     -135.607407       10.388902
 C         9.481750     -136.552399        9.490799
 H        10.101979     -136.370911       10.387055
 C        12.415889     -137.296478        8.549213
 C        13.415082     -138.160645        8.949995
 H        13.261212     -139.228912        8.949677
 C        14.650100     -137.636047        9.421621
 H        15.581079     -138.302155        9.520551
 C        14.827586     -136.227814        9.454809
 H        15.840457     -135.883820        9.635510
 C        13.725194     -135.382019        9.050386
 H        13.705010     -134.351364        9.284993
 C        12.567485     -135.929047        8.505818
 H        11.764722     -135.388458        8.207115
 C        12.025079     -143.755707        7.356878
 C        12.801322     -143.912292        6.222012
 N        11.611842     -142.452820        7.443508
 C        12.124940     -141.735016        6.307774
 N        12.863658     -142.670380        5.550936
 C        13.012076     -142.278717        4.174284
 C        12.979051     -140.918060        3.876983
 C        13.418870     -140.503265        2.666317
 H        13.233855     -139.439636        2.435042
 C        13.931067     -141.367630        1.654430
 H        14.290774     -140.963348        0.652741
 C        13.905261     -142.748657        1.936765
 H        14.302533     -143.367096        1.129113
 C        13.407571     -143.227478        3.188057
 H        12.829970     -144.087555        3.133880
 C        13.443826     -145.180542        5.861816
 H        14.125047     -145.261169        4.977156
 C        13.218680     -146.309601        6.705373
 H        13.904986     -147.196991        6.670656
 C        12.255183     -146.155792        7.778366
 H        12.204123     -147.007217        8.522232
 C        11.727809     -144.856567        8.124919
 H        11.108893     -144.814850        8.977912
 C        10.498710     -141.972672        8.199941
 C        10.655248     -140.871033        8.972905
 H        11.634835     -140.411469        9.047131
 C         9.665483     -140.402588        9.834898
 H         9.876565     -139.497345       10.299709
 C         8.419093     -140.972656        9.750446
 H         7.657500     -140.821136       10.440388
 C         8.236856     -142.123840        8.912022
 H         7.308291     -142.681503        8.957689
 C         9.243361     -142.654434        8.108823
 H         9.110423     -143.637436        7.716474
 C        16.197445     -138.396301        6.503890
 C        15.530093     -137.244904        6.125151
 N        15.302548     -139.489288        6.263233
 C        14.106008     -139.116455        5.749617
 N        14.275466     -137.719955        5.629840
 C        13.378598     -137.138748        4.717136
 C        12.300553     -137.956726        4.434951
 C        11.356477     -137.431824        3.523804
 H        10.408931     -138.005157        3.197729
 C        11.489087     -136.196747        2.873101
 H        10.759351     -135.940979        2.133456
 C        12.699536     -135.461472        3.087995
 H        12.895000     -134.700470        2.360479
 C        13.639081     -135.986389        3.990226
 H        14.602784     -135.565643        4.106176
 C        16.050079     -135.977661        6.500266
 H        15.430356     -135.100098        6.400189
 C        17.208855     -135.923950        7.223773
 H        17.362202     -134.902130        7.583316
 C        17.935581     -137.106522        7.505033
 H        18.646427     -137.041687        8.344019
 C        17.421070     -138.371780        7.239306
 H        18.027916     -139.263947        7.256189
 C        15.774594     -140.895142        6.292539
 C        16.472485     -141.472183        5.242366
 H        16.788441     -140.852173        4.419957
 C        16.978127     -142.776062        5.288250
 H        17.252895     -143.314789        4.419468
 C        16.717823     -143.489197        6.486198
 H        16.969536     -144.505371        6.537750
 C        15.931537     -142.905304        7.480342
 H        15.730371     -143.451553        8.412675
 C        15.461196     -141.603409        7.405299
 H        14.717431     -141.162476        8.052526
 Ir       12.189132     -139.792847       20.846579
 C        14.194514     -139.080444       17.045448
 C        12.950612     -139.568115       16.611990
 N        14.271504     -139.244064       18.408497
 C        13.101941     -139.741058       18.991695
 N        12.325286     -140.064331       17.860851
 C        11.177224     -140.840195       18.197556
 C        10.909804     -140.971436       19.601038
 C         9.961350     -142.009735       19.970905
 H         9.908860     -142.331696       20.995930
 C         9.400794     -142.895416       19.122841
 H         8.912723     -143.821426       19.527939
 C         9.680732     -142.777786       17.735432
 H         9.175176     -143.495392       17.117416
 C        10.450215     -141.707336       17.277046
 H        10.192494     -141.322906       16.297504
 C        12.630876     -139.498535       15.215270
 H        11.590590     -139.573486       15.003633
 C        13.525550     -138.934418       14.311867
 H        13.232392     -138.845276       13.271814
 C        14.806609     -138.470093       14.771310
 H        15.473569     -138.127167       13.994858
 C        15.133765     -138.572739       16.096954
 H        16.205185     -138.471588       16.337639
 C        15.530486     -139.527527       19.036203
 C        16.353836     -138.484863       19.526358
 H        15.863454     -137.629547       19.910196
 C        17.673878     -138.805466       19.764074
 H        18.143276     -137.984894       20.310726
 C        18.234798     -140.080368       19.579950
 H        19.359310     -140.217392       19.434692
 C        17.410149     -141.082214       19.112890
 H        17.697372     -142.038116       19.337086
 C        16.059170     -140.796570       18.857246
 H        15.428130     -141.556671       18.549789
 C         9.066297     -136.725983       20.279978
 C         8.638896     -137.542969       21.327288
 N        10.310407     -137.311966       19.860804
 C        10.706449     -138.386200       20.646654
 N         9.655303     -138.500458       21.573496
 C         9.919518     -139.401550       22.695562
 C        11.059670     -140.237915       22.531139
 C        11.369935     -141.030304       23.584930
 H        12.276324     -141.609024       23.528099
 C        10.692138     -140.969910       24.804375
 H        10.856830     -141.736084       25.539539
 C         9.518195     -140.226761       24.941101
 H         9.117145     -140.150208       25.952583
 C         9.114680     -139.430420       23.901047
 H         8.294444     -138.819733       23.936531
 C         7.400165     -137.226929       21.911987
 H         7.045093     -137.859558       22.698189
 C         6.600163     -136.178391       21.499706
 H         5.707332     -135.944275       22.032001
 C         7.046704     -135.327454       20.397800
 H         6.314860     -134.904602       19.726530
 C         8.290544     -135.669708       19.855371
 H         8.732932     -135.057526       19.114532
 C        10.818664     -136.928345       18.570486
 C        12.027133     -136.131027       18.528385
 H        12.618596     -136.171936       19.439262
 C        12.616570     -135.775604       17.331417
 H        13.568158     -135.189758       17.397438
 C        11.954568     -136.153381       16.164738
 H        12.306224     -135.884125       15.111053
 C        10.748755     -136.883698       16.205488
 H        10.299556     -137.006104       15.244741
 C        10.180503     -137.235229       17.414124
 H         9.339446     -137.938751       17.280712
 C        15.006042     -138.104980       23.733627
 C        15.441785     -139.321487       23.534599
 N        13.864905     -137.860535       22.956287
 C        13.563876     -138.974670       22.167019
 N        14.579164     -139.854431       22.492317
 C        14.527343     -141.130920       21.912914
 C        13.364913     -141.500244       21.292225
 C        13.343970     -142.721420       20.629822
 H        12.362403     -143.118942       20.298603
 C        14.401402     -143.557693       20.529873
 H        14.253102     -144.585373       20.111679
 C        15.573327     -143.128204       21.044783
 H        16.552818     -143.557526       20.771317
 C        15.645984     -141.974030       21.815510
 H        16.649555     -141.698944       22.113113
 C        16.581856     -139.794189       24.312481
 H        17.098106     -140.732025       24.106190
 C        17.175697     -138.855072       25.210930
 H        18.117500     -139.028534       25.786709
 C        16.556782     -137.655823       25.525490
 H        17.072029     -136.886780       26.048843
 C        15.456449     -137.288071       24.727413
 H        14.793010     -136.507401       25.064598
 C        12.851626     -136.855179       23.314232
 C        12.600205     -135.756805       22.454878
 H        13.429240     -135.349854       21.842834
 C        11.368442     -135.000061       22.486383
 H        11.155976     -134.309662       21.674538
 C        10.447021     -135.387360       23.448254
 H         9.410590     -135.038757       23.380482
 C        10.697835     -136.413818       24.319126
 H        10.031875     -136.677124       25.050205
 C        11.870549     -137.136536       24.306416
 H        12.041286     -137.997894       24.993645
