206
 generated by VMD
 Ir       85.943039       31.832973       57.413399
 C        86.208229       28.182789       59.669510
 C        87.381454       28.215698       59.033768
 N        85.381401       29.242275       59.244843
 C        86.090927       29.976088       58.326035
 N        87.307434       29.335415       58.143959
 C        88.001678       29.722204       56.971695
 C        87.583649       30.936073       56.437675
 C        88.104675       31.304682       55.181984
 H        87.879227       32.308281       54.725403
 C        89.075928       30.561895       54.546116
 H        89.546120       30.962618       53.720989
 C        89.475693       29.299282       55.093925
 H        90.376884       28.891304       54.751129
 C        88.936752       28.923616       56.293678
 H        89.365631       28.056040       56.760880
 C        88.436279       27.318729       59.355942
 H        89.215401       27.113152       58.645943
 C        88.350449       26.534910       60.474495
 H        89.184387       25.920292       60.733509
 C        87.144035       26.569921       61.233871
 H        87.092941       25.962997       62.095512
 C        86.050255       27.353296       60.777611
 H        85.149246       27.545761       61.410324
 C        83.978302       29.219032       59.320168
 C        83.286102       29.797951       60.362816
 H        83.809708       30.056984       61.290421
 C        81.907158       29.868217       60.322075
 H        81.473808       30.515415       61.049706
 C        81.195190       29.334152       59.274994
 H        80.063698       29.426760       59.198624
 C        81.869125       28.706488       58.246132
 H        81.423767       28.406843       57.300369
 C        83.217377       28.595612       58.283958
 H        83.651924       27.857979       57.637070
 C        88.916656       34.063259       59.758263
 C        88.599121       34.915085       58.715691
 N        88.241516       32.914219       59.479530
 C        87.414413       32.979313       58.331200
 N        87.690918       34.191013       57.853783
 C        87.279602       34.375034       56.501801
 C        86.136002       33.606831       56.194637
 C        85.366028       33.844486       55.093834
 H        84.494003       33.206158       54.851311
 C        85.693436       34.915363       54.258537
 H        85.220459       35.078770       53.259644
 C        86.842720       35.664303       54.534134
 H        87.152420       36.402004       53.860947
 C        87.649345       35.403313       55.608253
 H        88.615112       35.879478       55.510464
 C        89.166260       36.199417       58.727722
 H        89.121132       36.852016       57.900093
 C        90.035049       36.498886       59.813141
 H        90.466125       37.469395       59.935173
 C        90.343956       35.642986       60.866142
 H        90.884460       35.965057       61.698143
 C        89.756302       34.371857       60.851868
 H        89.872803       33.691769       61.756634
 C        88.441879       31.681816       60.334126
 C        87.389725       31.194901       61.113480
 H        86.431419       31.709862       61.048111
 C        87.662140       30.229389       62.122276
 H        86.703583       29.910236       62.632370
 C        88.887390       29.696980       62.363518
 H        89.110268       28.812130       62.873878
 C        89.933083       30.226582       61.537949
 H        90.853836       29.782619       61.695778
 C        89.717491       31.212353       60.574532
 H        90.512695       31.722424       60.051582
 C        82.294876       33.102859       59.412643
 C        81.896080       32.568882       58.222290
 N        83.668274       33.224590       59.341560
 C        84.193054       32.585888       58.184898
 N        83.016418       32.239403       57.497250
 C        83.207474       31.513426       56.336967
 C        84.432701       30.866604       56.217232
 C        84.566391       29.819571       55.296387
 H        85.485352       29.259933       55.369263
 C        83.478287       29.462044       54.447685
 H        83.487793       28.491892       53.866211
 C        82.319069       30.238918       54.461929
 H        81.745789       30.211319       53.612228
 C        82.219734       31.238199       55.411758
 H        81.405075       31.944073       55.290581
 C        80.539726       32.276848       57.982239
 H        80.169998       31.759880       57.071831
 C        79.562164       32.454754       59.006016
 H        78.530823       32.354633       58.707329
 C        79.985336       32.854614       60.298431
 H        79.313156       33.286564       61.051079
 C        81.363586       33.203625       60.406296
 H        81.643250       33.472790       61.394695
 C        84.376480       34.343971       59.856575
 C        84.689949       35.361130       58.921680
 H        84.292862       35.164043       57.960030
 C        85.424683       36.489731       59.337646
 H        85.619110       37.247784       58.634472
 C        85.900574       36.572777       60.645973
 H        86.594971       37.405098       60.845863
 C        85.553879       35.621643       61.559944
 H        85.807770       35.856262       62.580635
 C        84.775826       34.495033       61.195160
 H        84.318924       33.841526       61.971031
 Ir       85.943031       31.832973       67.660652
 C        82.349701       32.322018       65.144569
 C        82.829720       31.056042       64.894783
 N        83.315430       32.954659       66.056786
 C        84.402832       32.091240       66.323166
 N        84.160965       30.922297       65.532677
 C        85.075447       29.885412       65.645737
 C        86.189163       30.102846       66.460999
 C        87.386078       29.331127       66.355362
 H        88.229324       29.533543       66.969574
 C        87.429703       28.329855       65.368217
 H        88.258644       27.606884       65.302834
 C        86.341064       28.160172       64.515656
 H        86.439903       27.742687       63.562328
 C        85.169296       28.870937       64.656677
 H        84.392471       28.437990       64.084229
 C        81.965706       30.197845       64.132164
 H        82.206207       29.137806       64.119080
 C        80.761795       30.665586       63.538277
 H        80.016739       30.010073       63.192871
 C        80.333969       31.999569       63.800293
 H        79.302856       32.272964       63.647507
 C        81.115036       32.761269       64.619537
 H        80.714912       33.718571       64.862991
 C        83.421371       34.358646       66.308769
 C        84.034081       35.127090       65.275391
 H        84.495087       34.507385       64.456772
 C        83.852982       36.494717       65.352211
 H        84.448959       37.083107       64.704445
 C        83.135773       37.112255       66.360466
 H        83.393524       38.187313       66.542725
 C        82.479790       36.333679       67.373230
 H        81.794830       36.732071       68.178902
 C        82.701294       34.942631       67.368652
 H        82.132477       34.263889       67.994080
 C        84.094681       29.065842       70.543427
 C        85.436050       28.869595       70.676460
 N        83.948318       29.963345       69.497452
 C        85.168137       30.479387       69.050423
 N        86.071442       29.784107       69.805099
 C        87.456146       30.172995       69.598373
 C        87.592201       31.365608       68.910942
 C        88.802460       32.051777       68.972900
 H        89.037689       32.928486       68.416885
 C        89.896301       31.467278       69.573891
 H        90.837006       31.994179       69.513481
 C        89.849701       30.217871       70.179039
 H        90.708015       29.664204       70.395737
 C        88.575523       29.557114       70.093239
 H        88.502968       28.472744       70.079849
 C        85.961052       27.996510       71.614113
 H        86.977463       28.114817       72.022552
 C        85.092422       27.263784       72.478287
 H        85.605286       26.746216       73.257004
 C        83.708290       27.471157       72.400459
 H        83.178650       27.279530       73.305862
 C        83.219528       28.387924       71.433167
 H        82.141312       28.677418       71.448967
 C        82.672760       30.097179       68.752312
 C        81.864670       31.254715       68.822350
 H        82.295654       32.152874       69.232422
 C        80.628174       31.282827       68.212112
 H        80.052017       32.162258       68.135643
 C        80.176392       30.133057       67.581223
 H        79.318375       30.010948       66.861496
 C        81.023300       28.998947       67.427849
 H        80.648888       28.248287       66.700378
 C        82.241547       29.020576       68.051971
 H        82.851074       28.151276       68.150436
 C        85.645988       35.456650       70.084061
 C        86.320999       35.852577       68.918602
 N        85.417923       34.086128       69.897385
 C        85.885323       33.615005       68.691490
 N        86.452362       34.682636       68.053337
 C        86.958771       34.508068       66.765366
 C        86.949158       33.132656       66.335884
 C        87.702835       32.819809       65.227455
 H        87.579926       31.853548       64.854187
 C        88.475021       33.743275       64.539963
 H        89.259109       33.433147       63.793297
 C        88.457069       35.066952       64.916870
 H        89.108109       35.770924       64.446045
 C        87.695618       35.438679       66.041817
 H        87.702621       36.524857       66.308380
 C        86.906204       37.121624       68.987556
 H        87.565521       37.365974       68.142998
 C        86.881973       37.799763       70.257736
 H        87.353622       38.808975       70.236740
 C        86.189751       37.383575       71.372276
 H        86.470345       37.900547       72.295158
 C        85.501007       36.139942       71.285019
 H        84.902069       35.739216       72.128166
 C        85.041550       33.136894       70.960068
 C        83.687645       32.975368       71.242661
 H        82.983368       33.528305       70.683502
 C        83.297585       32.136833       72.279678
 H        82.218613       31.947090       72.290024
 C        84.278046       31.581554       73.152870
 H        83.937256       30.661160       73.748222
 C        85.638916       31.818230       72.847839
 H        86.381432       31.293606       73.535973
 C        86.033981       32.540100       71.702362
 H        86.996201       32.575817       71.362709
