206
 generated by VMD
 Ir       46.766312      -20.883615        2.543129
 C        47.550415      -19.506762        6.681288
 C        48.768852      -19.419224        6.023456
 N        46.671478      -20.140656        5.848371
 C        47.212273      -20.406067        4.600012
 N        48.522499      -20.032785        4.765420
 C        49.489677      -20.369867        3.705635
 C        48.819305      -20.337933        2.441009
 C        49.669319      -20.370777        1.330109
 H        49.214703      -20.332003        0.343337
 C        51.053734      -20.582241        1.525008
 H        51.692917      -20.473400        0.664663
 C        51.632240      -20.517372        2.780126
 H        52.709976      -20.410234        2.776678
 C        50.857399      -20.431202        3.928515
 H        51.270649      -20.873440        4.825259
 C        49.792587      -18.714146        6.560795
 H        50.830536      -18.647427        6.235813
 C        49.639721      -18.184044        7.849796
 H        50.421570      -17.709593        8.386654
 C        48.424736      -18.301712        8.535557
 H        48.319160      -17.895487        9.473818
 C        47.401348      -18.980103        7.919556
 H        46.445953      -18.982193        8.504552
 C        45.278107      -20.474541        6.151081
 C        44.917732      -21.785664        5.844519
 H        45.623669      -22.493317        5.523605
 C        43.594536      -22.106689        6.062909
 H        42.951687      -22.819677        5.509292
 C        42.681168      -21.251434        6.661826
 H        41.675613      -21.608513        6.841400
 C        43.038147      -19.946228        6.940938
 H        42.331490      -19.296417        7.500293
 C        44.352737      -19.567898        6.652965
 H        44.613045      -18.557514        6.883752
 C        45.771614      -17.011751        0.774674
 C        46.060204      -17.741428       -0.313209
 N        46.053780      -17.731102        1.914987
 C        46.421238      -19.040775        1.627347
 N        46.449062      -19.034508        0.223571
 C        46.685539      -20.279400       -0.389718
 C        46.774460      -21.376984        0.491758
 C        46.971931      -22.653996       -0.029626
 H        46.658577      -23.526291        0.532440
 C        47.285934      -22.929745       -1.400707
 H        47.496838      -23.912956       -1.732094
 C        47.202778      -21.814886       -2.235619
 H        47.005760      -21.928715       -3.257787
 C        46.950207      -20.492407       -1.833802
 H        46.724762      -19.824490       -2.678587
 C        45.976799      -17.161819       -1.557274
 H        46.053570      -17.739914       -2.484050
 C        45.596581      -15.849575       -1.698504
 H        45.806705      -15.342656       -2.606184
 C        45.266777      -15.028530       -0.617942
 H        45.199055      -13.968166       -0.758092
 C        45.331116      -15.671848        0.634935
 H        45.337257      -15.159941        1.580299
 C        46.699932      -17.151604        3.065320
 C        48.014683      -16.723927        2.941556
 H        48.524529      -16.596794        2.013119
 C        48.546455      -16.081203        4.063262
 H        49.570953      -15.790795        3.873864
 C        47.833595      -15.817245        5.223931
 H        48.276535      -15.620443        6.197774
 C        46.514191      -16.344200        5.391540
 H        45.942726      -16.014978        6.229182
 C        45.978374      -17.041756        4.318591
 H        44.886551      -17.334103        4.371012
 C        42.830734      -22.606503        2.170276
 C        43.592377      -23.688654        2.462425
 N        43.601212      -21.500771        2.208078
 C        44.925087      -21.787832        2.565214
 N        44.925575      -23.169708        2.732017
 C        46.080250      -23.658817        3.350395
 C        47.248314      -22.868629        3.181176
 C        48.488117      -23.416935        3.510332
 H        49.370602      -22.862759        3.150465
 C        48.603401      -24.637424        4.116312
 H        49.528206      -24.918083        4.587024
 C        47.469707      -25.377785        4.481838
 H        47.589088      -26.336494        4.957992
 C        46.232426      -24.885763        4.091643
 H        45.418205      -25.600838        4.026009
 C        42.989487      -24.842861        2.720366
 H        43.570610      -25.734316        2.775136
 C        41.582054      -24.912004        2.909431
 H        41.143627      -25.814865        3.274976
 C        40.767960      -23.795792        2.682003
 H        39.724068      -23.888615        2.714609
 C        41.434029      -22.694376        2.201751
 H        40.801758      -21.828537        1.896527
 C        43.003922      -20.252672        1.859805
 C        43.290749      -19.653316        0.594814
 H        43.904770      -20.300117       -0.143173
 C        42.821083      -18.385952        0.219307
 H        42.888844      -18.046921       -0.780276
 C        42.155807      -17.661177        1.194556
 H        42.134308      -16.606731        1.020817
 C        41.976959      -18.187458        2.517862
 H        41.712837      -17.434975        3.233479
 C        42.339920      -19.475056        2.845358
 H        42.291664      -19.840775        3.921146
 Ir       46.766312      -20.883617       12.722177
 C        42.844704      -22.826162       11.892207
 C        42.810650      -21.629835       11.128374
 N        44.035019      -22.767115       12.635695
 C        44.863251      -21.704762       12.325961
 N        44.033772      -20.975075       11.404156
 C        44.499809      -19.669769       11.261716
 C        45.858002      -19.380480       11.570458
 C        46.317814      -18.047031       11.459151
 H        47.348076      -17.824848       11.560635
 C        45.426018      -17.044846       11.010908
 H        45.794418      -16.064980       10.812294
 C        44.037251      -17.315405       10.862210
 H        43.318108      -16.514782       10.669235
 C        43.586998      -18.635023       10.969351
 H        42.580688      -18.752930       10.572821
 C        41.815147      -21.469559       10.167753
 H        41.782314      -20.629826        9.495244
 C        40.903652      -22.523905       10.048882
 H        40.323898      -22.565144        9.109422
 C        40.762047      -23.664433       10.858849
 H        39.739220      -24.113848       10.980324
 C        41.778671      -23.771866       11.827320
 H        41.879326      -24.767599       12.233624
 C        44.409515      -23.903175       13.300690
 C        43.745338      -24.313343       14.447702
 H        42.912331      -23.746941       14.800229
 C        44.216557      -25.393118       15.161451
 H        43.711052      -25.645681       16.043539
 C        45.413837      -26.010857       14.658340
 H        45.845261      -26.771063       15.213372
 C        46.095333      -25.544405       13.569908
 H        46.799492      -26.178448       13.153190
 C        45.619751      -24.501165       12.820860
 H        46.231403      -23.948879       12.145169
 C        48.952347      -21.952503        9.053592
 C        49.880764      -21.205988        9.797807
 N        47.773872      -22.022282        9.790085
 C        47.872551      -21.279312       10.994766
 N        49.143692      -20.776085       10.925683
 C        49.519588      -20.041508       12.090586
 C        48.475883      -19.734024       13.020495
 C        48.688080      -18.913998       14.165367
 H        47.908867      -18.693369       14.789826
 C        49.890808      -18.339737       14.439175
 H        49.939964      -17.457355       15.080729
 C        50.929321      -18.624512       13.548729
 H        51.939278      -18.154427       13.730415
 C        50.779819      -19.496891       12.421963
 H        51.618034      -19.595535       11.785753
 C        51.129997      -20.966383        9.307388
 H        51.791039      -20.251890        9.763707
 C        51.524803      -21.504395        8.019300
 H        52.574196      -21.326557        7.705371
 C        50.715233      -22.309185        7.258375
 H        51.178474      -22.769756        6.360442
 C        49.420811      -22.548306        7.790712
 H        48.735111      -23.208937        7.216534
 C        46.827282      -23.098801        9.469033
 C        47.197617      -24.406582        9.530375
 H        48.271622      -24.575052        9.659691
 C        46.263298      -25.516727        9.389930
 H        46.569626      -26.541473        9.259710
 C        44.930489      -25.239565        9.123470
 H        44.192528      -26.028297        9.348453
 C        44.576889      -23.874964        8.953081
 H        43.546917      -23.831923        8.772505
 C        45.465004      -22.799416        9.208714
 H        45.151031      -21.803730        9.032834
 C        48.164417      -23.861362       15.552147
 C        47.275711      -23.059967       16.268923
 N        48.378887      -23.191893       14.353853
 C        47.573345      -22.096931       14.195527
 N        46.919197      -21.976212       15.423540
 C        46.140694      -20.806770       15.646557
 C        45.792244      -20.135311       14.459196
 C        45.206589      -18.852764       14.612100
 H        44.706169      -18.295477       13.825197
 C        44.870964      -18.300922       15.889881
 H        44.657291      -17.234203       16.036015
 C        45.155251      -19.067196       17.047337
 H        45.105545      -18.527145       18.029972
 C        45.823578      -20.271719       16.911095
 H        46.346420      -20.561356       17.797802
 C        46.719810      -23.577320       17.476658
 H        45.909763      -23.067738       17.933323
 C        47.100792      -24.840754       17.949730
 H        46.466160      -25.381201       18.684004
 C        48.065739      -25.589792       17.197655
 H        48.563309      -26.549473       17.554359
 C        48.589340      -25.016155       16.054642
 H        49.018295      -25.688623       15.286798
 C        49.586769      -23.310768       13.610688
 C        49.652805      -23.699139       12.352869
 H        48.863136      -24.265491       11.997100
 C        50.857620      -23.639744       11.666362
 H        50.906300      -23.971876       10.675444
 C        52.031143      -23.110996       12.274199
 H        52.958038      -23.056067       11.703191
 C        52.010689      -22.777458       13.574635
 H        52.848236      -22.218531       13.991657
 C        50.800110      -22.854126       14.214575
 H        50.705971      -22.336784       15.163889
