206
 generated by VMD
 Ir      -10.402652        6.009374      145.784698
 C        -7.165633        4.459819      148.285446
 C        -6.892182        3.980037      147.027969
 N        -8.335103        5.228129      148.196381
 C        -8.819955        5.267964      146.895508
 N        -7.892655        4.502179      146.181442
 C        -8.003613        4.583554      144.764496
 C        -9.205533        5.132028      144.282959
 C        -9.380027        5.242831      142.897583
 H       -10.347371        5.520949      142.490753
 C        -8.369796        4.874251      141.999252
 H        -8.489633        5.058898      140.946381
 C        -7.168262        4.361825      142.481262
 H        -6.384778        4.079692      141.787170
 C        -6.982894        4.204162      143.852997
 H        -6.036284        3.823911      144.205597
 C        -5.779048        3.148082      146.850830
 H        -5.631553        2.601520      145.927826
 C        -4.933003        2.848784      147.923187
 H        -4.061400        2.227683      147.760254
 C        -5.218816        3.353194      149.196152
 H        -4.599029        3.076739      150.038971
 C        -6.333440        4.162919      149.375183
 H        -6.558719        4.535810      150.363663
 C        -9.036775        5.676614      149.381409
 C        -9.977633        4.826758      149.968109
 H       -10.315635        3.950782      149.445602
 C       -10.456777        5.084790      151.259033
 H       -11.212136        4.452502      151.693237
 C        -9.979413        6.192676      151.975708
 H       -10.331964        6.386495      152.979462
 C        -9.035182        7.050942      151.384766
 H        -8.627126        7.871648      151.947723
 C        -8.576922        6.798318      150.087952
 H        -7.874103        7.472064      149.623413
 C        -8.954083        9.986186      144.705490
 C       -10.112649        9.822719      143.977051
 N        -8.707185        8.765185      145.358337
 C        -9.690015        7.831979      145.083252
 N       -10.532538        8.497752      144.198990
 C       -11.603484        7.719598      143.665466
 C       -11.905046        6.555577      144.396698
 C       -13.033195        5.813430      144.031189
 H       -13.320956        4.951062      144.616776
 C       -13.834067        6.185439      142.950317
 H       -14.688565        5.580913      142.674652
 C       -13.507081        7.319428      142.203217
 H       -14.133988        7.615108      141.369324
 C       -12.393083        8.083804      142.554382
 H       -12.064765        8.864480      141.885834
 C       -10.616858       10.925326      143.261993
 H       -11.559903       10.844768      142.728424
 C        -9.959552       12.160754      143.287674
 H       -10.358174       12.990565      142.728912
 C        -8.786843       12.301991      144.030457
 H        -8.266065       13.244790      144.050934
 C        -8.284505       11.213201      144.747864
 H        -7.378173       11.331597      145.327484
 C        -7.419753        8.435409      145.941132
 C        -6.549615        7.585492      145.250641
 H        -6.790030        7.291242      144.236725
 C        -5.374578        7.148744      145.862152
 H        -4.732928        6.457984      145.329941
 C        -5.053248        7.564921      147.159576
 H        -4.173059        7.182229      147.643646
 C        -5.913283        8.440080      147.837402
 H        -5.645909        8.801637      148.817505
 C        -7.096934        8.873820      147.236694
 H        -7.748969        9.559176      147.749847
 C       -13.153501        7.395671      148.882645
 C       -13.349891        6.034741      148.856293
 N       -12.201772        7.704247      147.913330
 C       -11.768277        6.574862      147.241180
 N       -12.480763        5.535775      147.846191
 C       -12.173175        4.219476      147.364075
 C       -11.371652        4.176566      146.214203
 C       -11.163299        2.944400      145.583847
 H       -10.666846        2.929046      144.624161
 C       -11.699357        1.764159      146.095886
 H       -11.483262        0.818564      145.616241
 C       -12.464356        1.801660      147.264130
 H       -12.921294        0.896049      147.628784
 C       -12.700332        3.022408      147.897034
 H       -13.200854        3.010129      148.845795
 C       -14.275599        5.461217      149.744843
 H       -14.562219        4.421729      149.671234
 C       -14.965030        6.251634      150.673889
 H       -15.696761        5.810975      151.319092
 C       -14.750714        7.637803      150.693787
 H       -15.267091        8.249837      151.405731
 C       -13.851832        8.202916      149.790771
 H       -13.751487        9.280849      149.745087
 C       -11.941419        9.063476      147.490448
 C       -12.834739        9.697993      146.621796
 H       -13.656344        9.145776      146.192596
 C       -12.648540       11.038564      146.291962
 H       -13.335250       11.531283      145.613312
 C       -11.565648       11.753034      146.826538
 H       -11.392552       12.782361      146.529190
 C       -10.663711       11.121522      147.684387
 H        -9.820336       11.655126      148.070251
 C       -10.853284        9.772534      148.018463
 H       -10.166572        9.279819      148.697113
 Ir      -10.402650        6.009374      157.945129
 C       -13.577409        3.031203      157.435822
 C       -13.720813        3.881585      156.364380
 N       -12.499282        3.514897      158.217010
 C       -11.956019        4.659696      157.663849
 N       -12.726861        4.885713      156.529251
 C       -12.395009        6.050345      155.776062
 C       -11.567822        6.951604      156.454956
 C       -11.394502        8.236337      155.932709
 H       -10.863347        8.983151      156.517731
 C       -11.967704        8.612613      154.710602
 H       -11.828370        9.620320      154.343292
 C       -12.727983        7.690343      153.995911
 H       -13.130204        7.945830      153.024536
 C       -12.943862        6.413415      154.523407
 H       -13.414439        5.667821      153.894470
 C       -14.688676        3.584811      155.380676
 H       -14.913825        4.275298      154.588257
 C       -15.453065        2.416036      155.473267
 H       -16.161770        2.177541      154.693878
 C       -15.299266        1.571061      156.563751
 H       -15.857261        0.643256      156.638077
 C       -14.368018        1.889455      157.561310
 H       -14.308053        1.257207      158.432602
 C       -12.131778        2.916871      159.472565
 C       -13.051702        2.901494      160.530334
 H       -13.990451        3.414487      160.424561
 C       -12.734015        2.242791      161.720032
 H       -13.470330        2.188439      162.515381
 C       -11.491235        1.610263      161.877579
 H       -11.280190        1.045934      162.767914
 C       -10.565360        1.639459      160.828400
 H        -9.584901        1.206981      160.962067
 C       -10.885629        2.292760      159.625885
 H       -10.148610        2.366334      158.845703
 C        -7.480151        4.659129      154.984802
 C        -7.070407        5.923896      155.321075
 N        -8.702355        4.437694      155.651733
 C        -9.083110        5.522000      156.418152
 N        -8.077199        6.451108      156.182999
 C        -8.203984        7.691689      156.871460
 C        -9.048713        7.631852      157.995316
 C        -9.083415        8.732417      158.857025
 H        -9.645825        8.664250      159.787170
 C        -8.367028        9.889203      158.584015
 H        -8.435092       10.736852      159.246933
 C        -7.563273        9.962861      157.431335
 H        -7.025374       10.870263      157.205750
 C        -7.496503        8.865302      156.577515
 H        -6.974362        8.966514      155.633728
 C        -5.833850        6.389838      154.844696
 H        -5.457494        7.355393      155.126587
 C        -5.034657        5.579587      154.034637
 H        -4.085412        5.935506      153.678070
 C        -5.464904        4.284173      153.692032
 H        -4.865886        3.663726      153.052887
 C        -6.703334        3.832053      154.170746
 H        -7.023780        2.833453      153.914978
 C        -9.486144        3.238925      155.479889
 C       -10.604527        3.271358      154.652924
 H       -10.811194        4.142663      154.045883
 C       -11.491422        2.183097      154.642517
 H       -12.391746        2.228736      154.039337
 C       -11.242705        1.068414      155.437469
 H       -11.950215        0.245149      155.458710
 C       -10.103341        1.014359      156.238098
 H        -9.874904        0.124438      156.801819
 C        -9.226939        2.113437      156.261688
 H        -8.352832        2.094819      156.897766
 C        -8.202062        4.447453      161.393097
 C        -9.386649        4.899594      161.916565
 N        -8.230685        4.706685      160.017242
 C        -9.410504        5.320634      159.636353
 N       -10.120734        5.433242      160.832123
 C       -11.388656        6.075965      160.722168
 C       -11.576854        6.788772      159.530457
 C       -12.649663        7.680268      159.432404
 H       -12.739121        8.314914      158.566010
 C       -13.557004        7.802609      160.490417
 H       -14.329150        8.566165      160.448364
 C       -13.416839        7.031522      161.646149
 H       -14.135667        7.129786      162.451630
 C       -12.332141        6.167659      161.761353
 H       -12.326152        5.463315      162.588074
 C        -9.637927        4.704013      163.290619
 H       -10.520429        5.112956      163.755981
 C        -8.703732        4.043077      164.091949
 H        -8.967011        3.749623      165.096039
 C        -7.501920        3.596948      163.546875
 H        -6.785522        3.069398      164.156204
 C        -7.242120        3.811757      162.194244
 H        -6.312383        3.458087      161.781921
 C        -7.071021        4.491326      159.188156
 C        -6.240249        5.558619      158.851852
 H        -6.540040        6.575747      159.099579
 C        -5.011413        5.330012      158.240784
 H        -4.382670        6.164132      157.965424
 C        -4.595042        4.023301      157.959106
 H        -3.660565        3.854115      157.444580
 C        -5.413548        2.947598      158.312103
 H        -5.061492        1.937661      158.191315
 C        -6.658023        3.176206      158.910706
 H        -7.281518        2.336675      159.179474
