206
 generated by VMD
  IR        16.889999       60.380001       42.150002
  C1        19.510000       61.619999       38.919998
  C2        18.719999       62.810001       39.070000
  N1        18.950001       60.610001       39.740002
  C3a       17.930000       61.060001       40.480000
  N2        17.760000       62.389999       39.970001
  C4        16.600000       62.930000       40.540001
  C5a       16.170000       62.320000       41.730000
  C6        15.110000       62.900002       42.480000
  H1        14.770000       62.450001       43.389999
  C7        14.450000       64.029999       41.950001
  H2        13.760000       64.680000       42.509998
  C8        14.910000       64.620003       40.750000
  H3        14.630000       65.629997       40.490002
  C9        15.910000       64.029999       40.000000
  H4        16.080000       64.379997       38.970001
  C10       19.010000       63.970001       38.419998
  H5        18.309999       64.739998       38.520000
  C11       20.120001       63.939999       37.480000
  H6        20.230000       64.739998       36.779999
  C12       20.840000       62.740002       37.369999
  H7        21.590000       62.619999       36.639999
  C13       20.520000       61.610001       38.040001
  H8        21.059999       60.770000       37.849998
  C6        19.090000       59.230000       39.320000
  C1        20.120001       58.500000       39.880001
  H1        20.750000       59.040001       40.540001
  C2        20.500000       57.259998       39.400002
  H2        21.330000       56.720001       39.709999
  C3        19.740000       56.700001       38.349998
  H3        20.070000       55.709999       38.060001
  C4        18.610001       57.389999       37.840000
  H4        17.930000       56.869999       37.279999
  C5        18.330000       58.650002       38.320000
  H5        17.469999       59.049999       37.810001
  C1        19.190001       62.590000       45.279999
  C2        18.150000       62.009998       45.919998
  N1        19.090000       62.150002       43.900002
  C3b       18.000000       61.209999       43.709999
  N2        17.440001       61.240002       44.950001
  C4        16.080000       60.599998       44.939999
  C5b       15.590000       60.090000       43.750000
  C6        14.280000       59.549999       43.779999
  H1        13.830000       59.470001       42.830002
  C7        13.480000       59.480000       44.919998
  H2        12.420000       59.419998       44.900002
  C8        14.030000       59.970001       46.139999
  H3        13.500000       59.790001       47.090000
  C9        15.300000       60.540001       46.150002
  H4        15.410000       61.139999       47.049999
  C10       18.010000       62.279999       47.259998
  H5        17.160000       61.939999       47.820000
  C11       18.900000       63.130001       47.910000
  H6        18.650000       63.580002       48.840000
  C12       19.950001       63.730000       47.209999
  H7        20.730000       64.150002       47.759998
  C13       20.110001       63.450001       45.880001
  H8        20.770000       64.019997       45.290001
  C6        20.250000       62.119999       43.029999
  C1        21.040001       60.959999       43.099998
  H1        20.639999       60.080002       43.610001
  C2        22.049999       60.820000       42.160000
  H2        22.549999       59.840000       42.259998
  C3        22.379999       61.799999       41.180000
  H3        23.170000       61.560001       40.450001
  C4        21.600000       62.980000       41.200001
  H4        21.400000       63.650002       40.320000
  C5        20.530001       63.139999       42.130001
  H5        19.850000       63.889999       41.930000
  C1        17.830000       56.110001       42.720001
  C2        17.150000       56.200001       41.540001
  N1        17.840000       57.430000       43.220001
  C3c       17.299999       58.310001       42.320000
  N2        16.830000       57.520000       41.330002
  C4        15.830000       58.099998       40.509998
  C5c       15.550000       59.430000       40.759998
  C6        14.560000       60.040001       40.009998
  H1        14.140000       60.959999       40.299999
  C7        13.840000       59.349998       39.029999
  H2        13.130000       59.830002       38.369999
  C8        14.160000       58.020000       38.759998
  H3        13.680000       57.500000       37.919998
  C9        15.110000       57.380001       39.540001
  H4        15.250000       56.360001       39.200001
  C10       17.170000       55.099998       40.660000
  H5        17.160000       55.299999       39.560001
  C11       17.850000       53.889999       41.009998
  H6        17.940001       53.040001       40.340000
  C12       18.440001       53.779999       42.290001
  H7        18.690001       52.830002       42.709999
  C13       18.440001       54.910000       43.110001
  H8        18.910000       54.880001       44.009998
  C6        17.730000       57.590000       44.580002
  C1        18.820000       58.209999       45.240002
  H1        19.690001       58.619999       44.709999
  C2        18.790001       58.310001       46.619999
  H2        19.730000       58.410000       47.220001
  C3        17.650000       57.860001       47.340000
  H3        17.600000       57.750000       48.369999
  C4        16.620001       57.220001       46.599998
  H4        15.690000       57.110001       47.160000
  C5        16.620001       57.070000       45.189999
  H5        15.780000       56.599998       44.619999
  IR        26.610001       53.150002       39.189999
  C1        25.090000       50.099998       36.540001
  C2        25.170000       49.480000       37.750000
  N1        25.420000       51.430000       36.720001
  C3a       25.760000       51.680000       38.060001
  N2        25.670000       50.439999       38.660000
  C4        25.639999       50.520000       40.119999
  C5a       26.309999       51.630001       40.619999
  C6        26.490000       51.720001       42.009998
  H1        27.209999       52.439999       42.330002
  C7        25.930000       50.759998       42.889999
  H2        26.030001       50.869999       43.930000
  C8        25.280001       49.669998       42.360001
  H3        24.790001       48.880001       43.000000
  C9        25.110001       49.529999       41.029999
  H4        24.379999       48.790001       40.669998
  C10       24.780001       48.110001       37.849998
  H5        24.870001       47.580002       38.799999
  C11       24.309999       47.430000       36.740002
  H6        23.850000       46.450001       36.849998
  C12       24.250000       48.060001       35.490002
  H7        24.160000       47.560001       34.549999
  C13       24.610001       49.430000       35.430000
  H8        24.450001       49.959999       34.540001
  C6        25.080000       52.340000       35.650002
  C1        26.090000       52.650002       34.720001
  H1        27.030001       52.000000       34.810001
  C2        25.770000       53.439999       33.630001
  H2        26.500000       53.730000       32.959999
  C3        24.480000       53.770000       33.369999
  H3        24.230000       54.340000       32.480000
  C4        23.400000       53.380001       34.220001
  H4        22.400000       53.529999       33.900002
  C5        23.780001       52.689999       35.439999
  H5        23.040001       52.230000       36.029999
  C1        23.330000       54.959999       41.349998
  C2        24.430000       55.759998       41.590000
  N1        23.709999       53.990002       40.380001
  C3b       25.000000       54.189999       40.000000
  N2        25.459999       55.320000       40.720001
  C4        26.870001       55.590000       40.810001
  C5b       27.660000       54.459999       40.520000
  C6        29.030001       54.549999       40.759998
  H1        29.610001       53.650002       40.660000
  C7        29.590000       55.790001       41.270000
  H2        30.639999       55.860001       41.439999
  C8        28.790001       56.889999       41.459999
  H3        29.320000       57.849998       41.529999
  C9        27.430000       56.790001       41.230000
  H4        27.030001       57.759998       41.020000
  C10       24.350000       56.639999       42.700001
  H5        25.150000       57.419998       42.869999
  C11       23.200001       56.759998       43.509998
  H6        23.510000       57.299999       44.400002
  C12       22.049999       56.119999       43.099998
  H7        21.090000       56.459999       43.439999
  C13       22.180000       55.180000       42.040001
  H8        21.430000       54.470001       41.919998
  C6        22.760000       53.189999       39.630001
  C1        22.080000       52.270000       40.400002
  H1        22.389999       52.130001       41.430000
  C2        20.889999       51.860001       39.970001
  H2        20.520000       51.009998       40.540001
  C3        20.299999       52.340000       38.820000
  H3        19.360001       51.939999       38.520000
  C4        20.959999       53.169998       37.990002
  H4        20.490000       53.349998       37.090000
  C5        22.230000       53.590000       38.349998
  H5        22.770000       54.430000       37.840000
  C1        27.879999       55.799999       35.869999
  C2        28.889999       54.830002       36.060001
  N1        26.940001       55.500000       36.900002
  C3c       27.320000       54.419998       37.700001
  N2        28.559999       54.040001       37.130001
  C4        29.209999       52.970001       37.730000
  C5c       28.459999       52.230000       38.680000
  C6        29.100000       51.099998       39.240002
  H1        28.620001       50.230000       39.619999
  C7        30.469999       50.849998       39.049999
  H2        31.059999       50.240002       39.689999
  C8        31.170000       51.599998       38.150002
  H3        32.220001       51.389999       38.049999
  C9        30.540001       52.619999       37.500000
  H4        31.180000       53.270000       36.980000
  C10       29.930000       54.810001       35.070000
  H5        30.709999       54.180000       35.049999
  C11       29.799999       55.630001       33.919998
  H6        30.629999       55.810001       33.279999
  C12       28.750000       56.480000       33.810001
  H7        28.860001       57.259998       33.009998
  C13       27.760000       56.610001       34.810001
  H8        26.980000       57.330002       34.799999
  C6        26.000000       56.509998       37.240002
  C1        26.480000       57.779999       37.680000
  H1        27.469999       57.919998       37.889999
  C2        25.520000       58.820000       37.880001
  H2        25.870001       59.900002       37.950001
  C3        24.190001       58.580002       37.709999
  H3        23.500000       59.310001       38.009998
  C4        23.700001       57.330002       37.230000
  H4        22.680000       57.200001       36.759998
  C5        24.639999       56.299999       37.080002
  H5        24.410000       55.349998       36.549999
