206
 generated by VMD
 Ir       35.802261       13.103672       78.029373
 C        39.678131       14.407505       79.486313
 C        39.285812       13.452494       80.396347
 N        38.597549       14.638686       78.633209
 C        37.508789       13.825068       78.943253
 N        37.948196       13.111562       80.056274
 C        37.044884       12.121807       80.558884
 C        36.008789       11.788124       79.673363
 C        35.287369       10.604706       79.891708
 H        34.437782       10.379725       79.271317
 C        35.601326        9.752907       80.959579
 H        35.094746        8.804456       81.046265
 C        36.604820       10.098628       81.858963
 H        36.804550        9.479384       82.715729
 C        37.310478       11.294086       81.665253
 H        37.900543       11.680738       82.487160
 C        40.212875       13.002859       81.359497
 H        39.965439       12.230871       82.061646
 C        41.523491       13.516151       81.370682
 H        42.225403       13.162154       82.110558
 C        41.909714       14.469789       80.433075
 H        42.912437       14.853038       80.424500
 C        40.985329       14.910133       79.484283
 H        41.299194       15.626740       78.733978
 C        38.540550       15.750558       77.720360
 C        38.147003       17.005138       78.186989
 H        37.873390       17.135822       79.226929
 C        38.089607       18.089146       77.311874
 H        37.788929       19.063364       77.670471
 C        38.423077       17.927856       75.955742
 H        38.345825       18.763479       75.278641
 C        38.825043       16.673275       75.494499
 H        39.129311       16.541904       74.462334
 C        38.890495       15.579293       76.375595
 H        39.196915       14.614363       76.008011
 C        37.576256       10.082008       75.460915
 C        36.227058        9.959518       75.250267
 N        37.755268       11.017686       76.498489
 C        36.546577       11.518181       76.921753
 N        35.596603       10.828789       76.179947
 C        34.234703       11.059922       76.527237
 C        34.020206       12.187901       77.344879
 C        32.711853       12.667417       77.515709
 H        32.530548       13.512969       78.151611
 C        31.630585       12.049572       76.886330
 H        30.638155       12.473368       76.990150
 C        31.831257       10.904392       76.108841
 H        30.998688       10.388373       75.665955
 C        33.125065       10.405610       75.942184
 H        33.243797        9.406276       75.552521
 C        35.771240        9.114655       74.218552
 H        34.723213        9.039645       73.982521
 C        36.679504        8.403631       73.429886
 H        36.328873        7.711500       72.679077
 C        38.048962        8.536785       73.664520
 H        38.762863        7.927576       73.123955
 C        38.501732        9.380962       74.682442
 H        39.565918        9.471798       74.856110
 C        38.952469       11.029725       77.299217
 C        39.030609       10.220921       78.438797
 H        38.154915        9.671162       78.768372
 C        40.208023       10.171038       79.196228
 H        40.262924        9.537343       80.056702
 C        41.313046       10.939251       78.805099
 H        42.216648       10.919986       79.396744
 C        41.243332       11.748056       77.670921
 H        42.095589       12.329806       77.359421
 C        40.060539       11.798626       76.921890
 H        39.995628       12.453649       76.077057
 C        35.159317       16.095276       74.933716
 C        34.919678       16.763645       76.106087
 N        35.438889       14.760511       75.257515
 C        35.371841       14.551650       76.624001
 N        35.003540       15.788342       77.143951
 C        34.569126       15.773494       78.509407
 C        34.730858       14.542605       79.165802
 C        34.174919       14.366760       80.442871
 H        34.233040       13.410397       80.927216
 C        33.479103       15.411140       81.066498
 H        33.031994       15.243909       82.043610
 C        33.337265       16.642715       80.434677
 H        32.793335       17.442513       80.913696
 C        33.870979       16.819248       79.155228
 H        33.658142       17.739145       78.634369
 C        34.660751       18.144154       76.065460
 H        34.635025       18.719307       76.977722
 C        34.595543       18.817766       74.850021
 H        34.388382       19.876284       74.821251
 C        34.805756       18.118782       73.649422
 H        34.682945       18.610058       72.709549
 C        35.095695       16.747562       73.697235
 H        35.281548       16.226078       72.775925
 C        35.489868       13.718883       74.268669
 C        34.298721       13.248958       73.699692
 H        33.347412       13.606695       74.073227
 C        34.350388       12.324294       72.654106
 H        33.426773       11.962734       72.223633
 C        35.579025       11.860267       72.181114
 H        35.614410       11.121016       71.383644
 C        36.769802       12.320215       72.750679
 H        37.708851       11.906057       72.433411
 C        36.726559       13.244879       73.801643
 H        37.634838       13.531442       74.311752
 Ir       35.802261       13.103672       88.215729
 C        39.481522       10.774793       88.439941
 C        38.692223       10.281430       89.450874
 N        38.807922       11.868752       87.859924
 C        37.582893       12.070293       88.475708
 N        37.539528       11.118382       89.489746
 C        36.526684       11.323701       90.478989
 C        35.631653       12.372579       90.189377
 C        34.796585       12.863085       91.197632
 H        34.133194       13.687672       90.991302
 C        34.826279       12.315378       92.487144
 H        34.229546       12.753952       93.271339
 C        35.690292       11.257211       92.769562
 H        35.728607       10.852622       93.767273
 C        36.533409       10.756728       91.767281
 H        37.140114        9.894987       91.987991
 C        39.146061        9.174734       90.188812
 H        38.514675        8.667969       90.897293
 C        40.402893        8.621944       89.931519
 H        40.771133        7.803806       90.543472
 C        41.207100        9.144548       88.915833
 H        42.187004        8.725915       88.720261
 C        40.732258       10.220629       88.155060
 H        41.334457       10.592200       87.343765
 C        39.549644       12.915613       87.201645
 C        40.242889       13.846838       87.973618
 H        40.142242       13.842327       89.040085
 C        41.081272       14.791874       87.349823
 H        41.597210       15.519447       87.953598
 C        41.198811       14.807060       85.960083
 H        41.826515       15.547745       85.480019
 C        40.497139       13.875835       85.182739
 H        40.532967       13.932290       84.106247
 C        39.672558       12.930111       85.803513
 H        39.086056       12.245194       85.198700
 C        33.168587        9.975578       86.691368
 C        32.302979       10.954599       87.116501
 N        34.470074       10.379119       87.050797
 C        34.458778       11.608934       87.680725
 N        33.115150       11.951883       87.721161
 C        32.826866       13.254972       88.227379
 C        33.943401       14.091969       88.337784
 C        33.738571       15.464904       88.546585
 H        34.581753       16.130579       88.638916
 C        32.450188       15.998777       88.630539
 H        32.329384       17.045593       88.800781
 C        31.344755       15.152491       88.539886
 H        30.348564       15.573536       88.593933
 C        31.522697       13.782994       88.373108
 H        30.695637       13.122471       88.552467
 C        30.923983       10.791517       86.878220
 H        30.214046       11.546595       87.171387
 C        30.441616        9.658702       86.221970
 H        29.376667        9.530024       86.086609
 C        31.331776        8.677619       85.777016
 H        30.970028        7.792419       85.284790
 C        32.702347        8.840701       86.009918
 H        33.394821        8.103446       85.632721
 C        35.551468        9.432078       87.141907
 C        35.613609        8.581993       88.250824
 H        34.913792        8.705450       89.066246
 C        36.628033        7.629034       88.335266
 H        36.685974        6.996027       89.209534
 C        37.580246        7.524166       87.310913
 H        38.384647        6.808294       87.408180
 C        37.521446        8.382920       86.215332
 H        38.259857        8.310033       85.432358
 C        36.504051        9.337187       86.116974
 H        36.470528       10.011475       85.278755
 C        36.566097       14.853457       84.313004
 C        37.363739       15.565891       85.181564
 N        35.753807       14.007147       85.100113
 C        36.051540       14.133704       86.434555
 N        36.995869       15.143738       86.480133
 C        37.277412       15.660059       87.784210
 C        36.900085       14.813063       88.837784
 C        37.288780       15.154973       90.141411
 H        37.055252       14.478960       90.951698
 C        38.012283       16.316015       90.402222
 H        38.283836       16.555761       91.425056
 C        38.362003       17.164387       89.354675
 H        38.949146       18.056068       89.550293
 C        37.996277       16.841743       88.052277
 H        38.184139       17.550434       87.257690
 C        38.355415       16.410477       84.652168
 H        39.044769       16.933708       85.300339
 C        38.516098       16.534714       83.269226
 H        39.267929       17.215540       82.873466
 C        37.690849       15.823655       82.406693
 H        37.773724       15.948569       81.330894
 C        36.718353       14.977695       82.924667
 H        36.101524       14.400455       82.255928
 C        34.565132       13.359711       84.582932
 C        34.690239       12.135058       83.942093
 H        35.648186       11.655530       83.892166
 C        33.549057       11.486935       83.443451
 H        33.651016       10.541269       82.931580
 C        32.288860       12.064839       83.613243
 H        31.404850       11.554321       83.232193
 C        32.161423       13.290868       84.276276
 H        31.181152       13.699524       84.472420
 C        33.304932       13.937616       84.752716
 H        33.186104       14.865391       85.290970
