206
 generated by VMD
  IR         6.950000       20.340000       58.570000
  C1         6.120000       24.129999       56.570000
  C2         4.900000       23.520000       56.509998
  N1         7.030000       23.340000       57.279999
  C3a        6.480000       22.180000       57.689999
  N2         5.180000       22.280001       57.130001
  C4         4.560000       20.980000       56.930000
  C5a        5.320000       19.860001       57.259998
  C6         4.810000       18.580000       57.020000
  H1         5.470000       17.700001       56.950001
  C7         3.570000       18.420000       56.450001
  H2         3.020000       17.530001       56.529999
  C8         2.890000       19.549999       56.029999
  H3         1.900000       19.379999       55.529999
  C9         3.330000       20.809999       56.320000
  H4         2.760000       21.639999       55.939999
  C10        3.820000       24.250000       55.980000
  H5         2.850000       23.850000       56.230000
  C11        4.030000       25.540001       55.430000
  H6         3.280000       26.049999       54.830002
  C12        5.350000       26.000000       55.389999
  H7         5.480000       27.020000       55.049999
  C13        6.380000       25.320000       55.970001
  H8         7.350000       25.660000       56.110001
  C6         8.210000       23.870001       57.900002
  C1         8.100000       24.340000       59.200001
  H1         7.200000       24.260000       59.750000
  C2         9.210000       24.709999       59.910000
  H2         9.090000       25.180000       60.840000
  C3        10.470000       24.709999       59.320000
  H3        11.310000       24.959999       59.919998
  C4        10.610000       24.280001       57.900002
  H4        11.560000       24.620001       57.320000
  C5         9.470000       23.879999       57.240002
  H5         9.380000       23.770000       56.200001
  C1         4.400000       20.430000       62.020000
  C2         5.020000       19.200001       62.130001
  N1         4.650000       20.950001       60.720001
  C3b        5.500000       20.150000       60.040001
  N2         5.710000       19.030001       60.889999
  C4         6.580000       17.980000       60.330002
  C5b        7.110000       18.270000       59.070000
  C6         7.800000       17.219999       58.380001
  H1         8.050000       17.280001       57.290001
  C7         8.050000       15.970000       58.939999
  H2         8.570000       15.180000       58.310001
  C8         7.570000       15.710000       60.180000
  H3         7.490000       14.650000       60.430000
  C9         6.770000       16.670000       60.869999
  H4         6.330000       16.379999       61.799999
  C10        4.940000       18.400000       63.259998
  H5         5.650000       17.620001       63.320000
  C11        4.040000       18.799999       64.190002
  H6         3.810000       18.090000       65.040001
  C12        3.320000       19.990000       64.099998
  H7         2.910000       20.440001       65.000000
  C13        3.550000       20.860001       62.990002
  H8         3.130000       21.860001       63.049999
  C6         3.770000       21.889999       60.099998
  C1         2.600000       21.510000       59.380001
  H1         2.490000       20.410000       59.480000
  C2         1.710000       22.420000       58.880001
  H2         0.730000       22.070000       58.590000
  C3         2.030000       23.790001       58.900002
  H3         1.310000       24.530001       58.570000
  C4         3.190000       24.200001       59.560001
  H4         3.380000       25.200001       59.660000
  C5         4.050000       23.230000       60.160000
  H5         5.000000       23.580000       60.490002
  C1        10.470000       21.360001       60.930000
  C2        10.960000       21.129999       59.689999
  N1         9.080000       21.110001       60.910000
  C3c        8.680000       20.590000       59.669998
  N2         9.830000       20.610001       58.889999
  C4         9.700000       20.139999       57.590000
  C5c        8.420000       20.350000       57.090000
  C6         8.290000       20.389999       55.720001
  H1         7.260000       20.440001       55.410000
  C7         9.370000       20.240000       54.790001
  H2         9.460000       20.570000       53.820000
  C8        10.590000       19.940001       55.389999
  H3        11.390000       20.120001       54.689999
  C9        10.780000       19.809999       56.750000
  H4        11.610000       19.240000       57.040001
  C10       12.340000       21.360001       59.490002
  H5        12.780000       21.410000       58.470001
  C11       13.200000       21.730000       60.560001
  H6        14.300000       21.680000       60.459999
  C12       12.660000       21.879999       61.869999
  H7        13.330000       22.260000       62.610001
  C13       11.220000       21.760000       62.040001
  H8        10.670000       22.110001       62.910000
  C6         8.200000       21.270000       62.119999
  C1         7.470000       22.459999       62.299999
  H1         7.570000       23.340000       61.650002
  C2         6.720000       22.680000       63.480000
  H2         5.900000       23.379999       63.560001
  C3         6.760000       21.700001       64.519997
  H3         6.040000       21.610001       65.269997
  C4         7.570000       20.549999       64.360001
  H4         7.490000       19.790001       65.070000
  C5         8.320000       20.360001       63.160000
  H5         8.900000       19.420000       63.169998
  IR        17.430000       15.920000       50.250000
  C1        16.180000       14.640000       54.270000
  C2        15.070000       15.310000       53.669998
  N1        17.250000       14.670000       53.259998
  C3a       16.770000       15.310000       52.119999
  N2        15.500000       15.790000       52.439999
  C4        15.010000       16.879999       51.740002
  C5a       15.650000       17.059999       50.520000
  C6        15.140000       18.000000       49.689999
  H1        15.200000       17.770000       48.639999
  C7        14.120000       18.879999       50.099998
  H2        13.910000       19.580000       49.330002
  C8        13.570000       18.790001       51.389999
  H3        13.100000       19.650000       51.900002
  C9        13.990000       17.750000       52.209999
  H4        13.840000       17.830000       53.200001
  C10       13.840000       15.180000       54.270000
  H5        13.030000       15.580000       53.709999
  C11       13.720000       14.430000       55.430000
  H6        12.720000       14.260000       55.919998
  C12       14.800000       13.800000       56.029999
  H7        14.610000       13.110000       56.810001
  C13       16.049999       13.920000       55.459999
  H8        16.850000       13.280000       55.860001
  C6        18.629999       14.620000       53.759998
  C1        19.480000       13.530000       53.410000
  H1        19.120001       12.780000       52.770000
  C2        20.750000       13.580000       53.869999
  H2        21.450001       12.900000       53.500000
  C3        21.270000       14.610000       54.689999
  H3        22.330000       14.690000       54.930000
  C4        20.400000       15.680000       55.049999
  H4        20.650000       16.420000       55.770000
  C5        19.070000       15.660000       54.580002
  H5        18.590000       16.629999       54.599998
  C1        15.390000       13.140000       47.730000
  C2        15.980000       14.010000       46.880001
  N1        15.590000       13.640000       48.970001
  C3b       16.250000       14.780000       48.990002
  N2        16.389999       15.120000       47.619999
  C4        17.250000       16.260000       47.330002
  C5b       17.770000       16.900000       48.450001
  C6        18.520000       18.100000       48.279999
  H1        19.139999       18.549999       49.119999
  C7        18.870001       18.549999       46.970001
  H2        19.410000       19.510000       46.910000
  C8        18.360001       17.840000       45.869999
  H3        18.410000       18.350000       44.889999
  C9        17.500000       16.770000       46.080002
  H4        17.110001       16.299999       45.220001
  C10       15.930000       13.690000       45.500000
  H5        16.570000       14.100000       44.799999
  C11       15.380000       12.480000       45.090000
  H6        15.070000       12.440000       44.090000
  C12       14.850000       11.590000       46.009998
  H7        14.750000       10.560000       45.810001
  C13       14.800000       11.940000       47.360001
  H8        14.170000       11.310000       48.000000
  C6        15.230000       12.840000       50.169998
  C1        13.930000       12.890000       50.630001
  H1        13.330000       13.650000       50.130001
  C2        13.540000       12.170000       51.790001
  H2        12.580000       12.430000       52.169998
  C3        14.510000       11.540000       52.540001
  H3        14.250000       11.340000       53.580002
  C4        15.810000       11.480000       52.029999
  H4        16.490000       10.990000       52.650002
  C5        16.240000       12.070000       50.830002
  H5        17.219999       12.540000       50.820000
  C1        21.240000       13.850000       49.980000
  C2        21.500000       14.930000       50.779999
  N1        19.940001       13.970000       49.500000
  C3c       19.320000       15.090000       50.080002
  N2        20.330000       15.690000       50.790001
  C4        20.010000       16.969999       51.250000
  C5c       18.670000       17.209999       51.330002
  C6        18.230000       18.170000       52.240002
  H1        17.180000       18.480000       52.320000
  C7        19.129999       18.940001       53.000000
  H2        18.820000       19.469999       53.889999
  C8        20.490000       18.840000       52.820000
  H3        21.209999       19.510000       53.250000
  C9        20.969999       17.840000       51.919998
  H4        21.920000       17.980000       51.430000
  C10       22.730000       14.980000       51.529999
  H5        22.889999       15.920000       52.070000
  C11       23.629999       13.880000       51.529999
  H6        24.510000       13.940000       52.200001
  C12       23.320000       12.780000       50.770000
  H7        23.889999       11.890000       50.820000
  C13       22.180000       12.790000       49.919998
  H8        22.070000       11.830000       49.389999
  C6        19.430000       13.370000       48.200001
  C1        18.950001       12.060000       48.070000
  H1        18.780001       11.590000       49.020000
  C2        18.780001       11.440000       46.810001
  H2        18.490000       10.440000       46.830002
  C3        19.080000       12.140000       45.610001
  H3        19.080000       11.640000       44.680000
  C4        19.570000       13.450000       45.740002
  H4        19.680000       14.050000       44.860001
  C5        19.740000       14.030000       47.029999
  H5        20.219999       15.010000       47.070000
