206
 generated by VMD
  IR        40.439999        8.560000       43.279999
  C1        38.330002       11.820000       45.290001
  C2        39.639999       12.240000       45.119999
  N1        38.240002       10.480000       44.750000
  C3a       39.529999       10.080000       44.349998
  N2        40.340000       11.200000       44.520000
  C4        41.720001       11.070000       44.000000
  C5a       42.090000        9.750000       43.820000
  C6        43.470001        9.340000       43.709999
  H1        43.650002        8.230000       43.910000
  C7        44.439999       10.330000       43.689999
  H2        45.540001       10.040000       43.619999
  C8        44.049999       11.730000       43.790001
  H3        44.869999       12.380000       43.709999
  C9        42.689999       12.090000       43.950001
  H4        42.389999       13.080000       43.639999
  C10       39.930000       13.560000       45.509998
  H5        40.910000       14.060000       45.389999
  C11       39.029999       14.260000       46.189999
  H6        39.130001       15.330000       46.349998
  C12       37.669998       13.860000       46.349998
  H7        36.889999       14.420000       46.730000
  C13       37.340000       12.610000       45.810001
  H8        36.330002       12.180000       45.990002
  C6        37.090000        9.590000       44.830002
  C1        36.529999        9.250000       43.610001
  H1        36.880001        9.500000       42.639999
  C2        35.310001        8.530000       43.599998
  H2        35.049999        7.890000       42.750000
  C3        34.650002        8.280000       44.790001
  H3        33.660000        7.880000       45.009998
  C4        35.310001        8.590000       45.950001
  H4        34.820000        8.330000       46.900002
  C5        36.549999        9.170000       46.020000
  H5        37.200001        9.070000       46.889999
  C1        40.779999       10.340000       39.279999
  C2        41.560001        9.250000       39.189999
  N1        40.220001       10.370000       40.529999
  C3b       40.660000        9.330000       41.349998
  N2        41.549999        8.690000       40.509998
  C4        42.119999        7.500000       41.029999
  C5b       41.599998        7.100000       42.240002
  C6        41.900002        5.850000       42.770000
  H1        41.540001        5.470000       43.730000
  C7        42.770000        5.010000       42.169998
  H2        43.060001        4.100000       42.610001
  C8        43.349998        5.440000       40.980000
  H3        44.009998        4.700000       40.430000
  C9        43.040001        6.670000       40.369999
  H4        43.630001        6.900000       39.490002
  C10       42.180000        8.890000       37.970001
  H5        42.840000        8.010000       37.919998
  C11       41.910000        9.670000       36.880001
  H6        41.930000        9.100000       35.990002
  C12       41.119999       10.830000       36.910000
  H7        41.240002       11.620000       36.200001
  C13       40.509998       11.190000       38.150002
  H8        39.930000       12.110000       38.240002
  C6        39.180000       11.230000       40.910000
  C1        37.840000       10.940000       40.549999
  H1        37.650002       10.300000       39.740002
  C2        36.840000       11.830000       41.070000
  H2        35.799999       11.560000       40.939999
  C3        37.160000       12.910000       41.869999
  H3        36.439999       13.710000       42.160000
  C4        38.470001       13.210000       42.119999
  H4        38.470001       13.870000       42.959999
  C5        39.490002       12.390000       41.610001
  H5        40.480000       12.790000       41.630001
  C1        37.290001        5.740000       42.520000
  C2        37.400002        5.760000       43.900002
  N1        38.299999        6.500000       42.029999
  C3c       39.020000        7.030000       43.009998
  N2        38.520000        6.500000       44.200001
  C4        39.400002        6.630000       45.380001
  C5c       40.520000        7.480000       45.139999
  C6        41.450001        7.680000       46.150002
  H1        42.389999        8.240000       46.060001
  C7        41.349998        7.130000       47.480000
  H2        42.040001        7.550000       48.189999
  C8        40.209999        6.320000       47.680000
  H3        40.040001        5.880000       48.619999
  C9        39.299999        6.100000       46.689999
  H4        38.410000        5.580000       47.009998
  C10       36.369999        5.230000       44.700001
  H5        36.490002        4.970000       45.770000
  C11       35.279999        4.590000       44.020000
  H6        34.680000        3.890000       44.619999
  C12       35.189999        4.580000       42.610001
  H7        34.509998        3.900000       42.080002
  C13       36.150002        5.230000       41.869999
  H8        35.830002        5.510000       40.919998
  C6        38.759998        6.260000       40.709999
  C1        38.439999        7.240000       39.779999
  H1        37.939999        8.150000       40.150002
  C2        38.639999        7.010000       38.419998
  H2        38.310001        7.700000       37.599998
  C3        39.070000        5.740000       38.040001
  H3        39.450001        5.550000       36.990002
  C4        39.340000        4.770000       38.950001
  H4        39.759998        3.800000       38.660000
  C5        39.169998        4.980000       40.310001
  H5        39.029999        4.210000       41.080002
  IR        52.299999        3.730000       43.540001
  C1        49.549999        3.680000       46.939999
  C2        50.639999        4.510000       47.259998
  N1        49.720001        3.360000       45.549999
  C3a       50.889999        4.010000       45.049999
  N2        51.410000        4.700000       46.110001
  C4        52.509998        5.560000       45.860001
  C5a       53.279999        5.160000       44.779999
  C6        54.220001        6.130000       44.310001
  H1        54.770000        5.940000       43.400002
  C7        54.430000        7.400000       45.020000
  H2        55.240002        7.970000       44.660000
  C8        53.720001        7.720000       46.119999
  H3        53.849998        8.580000       46.720001
  C9        52.720001        6.790000       46.549999
  H4        52.290001        7.000000       47.520000
  C10       50.759998        4.830000       48.669998
  H5        51.650002        5.200000       49.080002
  C11       49.830002        4.340000       49.619999
  H6        50.139999        4.320000       50.709999
  C12       48.790001        3.540000       49.259998
  H7        48.200001        3.100000       49.990002
  C13       48.669998        3.180000       47.880001
  H8        48.009998        2.370000       47.610001
  C6        48.840000        2.540000       44.790001
  C1        48.009998        3.140000       43.849998
  H1        48.009998        4.150000       43.689999
  C2        47.049999        2.260000       43.220001
  H2        46.240002        2.660000       42.590000
  C3        46.980000        0.890000       43.430000
  H3        46.369999        0.260000       42.840000
  C4        47.970001        0.270000       44.230000
  H4        48.320000       -0.720000       43.910000
  C5        48.860001        1.160000       44.919998
  H5        49.389999        0.660000       45.770000
  C1        51.439999        6.800000       40.529999
  C2        52.599998        6.240000       40.150002
  N1        51.090000        6.170000       41.730000
  C3b       51.980000        5.170000       42.080002
  N2        52.959999        5.190000       41.090000
  C4        54.130001        4.430000       41.310001
  C5b       53.980000        3.420000       42.310001
  C6        54.980000        2.450000       42.459999
  H1        54.750000        1.690000       43.209999
  C7        56.169998        2.460000       41.770000
  H2        57.029999        1.990000       42.200001
  C8        56.360001        3.490000       40.840000
  H3        57.270000        3.490000       40.230000
  C9        55.360001        4.490000       40.630001
  H4        55.570000        5.380000       40.090000
  C10       53.139999        6.680000       38.970001
  H5        53.669998        5.890000       38.470001
  C11       52.599998        7.790000       38.310001
  H6        52.889999        7.960000       37.340000
  C12       51.470001        8.470000       38.810001
  H7        51.209999        9.480000       38.349998
  C13       50.869999        7.930000       39.889999
  H8        50.000000        8.380000       40.410000
  C6        50.349998        6.830000       42.779999
  C1        50.900002        8.010000       43.279999
  H1        51.900002        8.250000       43.209999
  C2        50.040001        8.900000       43.849998
  H2        50.480000        9.760000       44.169998
  C3        48.680000        8.700000       43.900002
  H3        48.110001        9.390000       44.529999
  C4        48.090000        7.560000       43.320000
  H4        47.080002        7.310000       43.570000
  C5        48.950001        6.600000       42.730000
  H5        48.619999        5.670000       42.310001
  C1        50.549999        0.280000       41.580002
  C2        51.240002       -0.270000       42.610001
  N1        50.700001        1.640000       41.599998
  C3c       51.549999        1.990000       42.619999
  N2        51.840000        0.830000       43.290001
  C4        52.439999        0.930000       44.560001
  C5c       53.080002        2.170000       44.779999
  C6        53.939999        2.320000       45.910000
  H1        54.529999        3.200000       45.939999
  C7        54.090000        1.290000       46.860001
  H2        54.650002        1.440000       47.799999
  C8        53.330002        0.140000       46.750000
  H3        53.230000       -0.430000       47.709999
  C9        52.560001       -0.060000       45.610001
  H4        52.139999       -1.050000       45.490002
  C10       51.209999       -1.620000       42.790001
  H5        51.869999       -2.080000       43.529999
  C11       50.340000       -2.470000       42.090000
  H6        50.230000       -3.510000       42.250000
  C12       49.630001       -1.960000       41.020000
  H7        49.049999       -2.590000       40.360001
  C13       49.720001       -0.570000       40.770000
  H8        49.009998       -0.070000       40.099998
  C6        50.169998        2.460000       40.490002
  C1        51.080002        3.000000       39.619999
  H1        52.099998        2.830000       39.810001
  C2        50.709999        3.870000       38.610001
  H2        51.540001        4.110000       37.849998
  C3        49.369999        4.340000       38.660000
  H3        49.189999        5.300000       38.200001
  C4        48.450001        3.830000       39.580002
  H4        47.400002        4.080000       39.520000
  C5        48.840000        2.860000       40.540001
  H5        48.110001        2.220000       40.990002
