206
 generated by VMD
  IR        35.990002       17.959999       16.520000
  C1        40.189999       17.280001       17.389999
  C2        39.470001       16.549999       18.350000
  N1        39.189999       18.059999       16.680000
  C3a       37.930000       17.799999       17.190001
  N2        38.169998       16.850000       18.180000
  C4        36.959999       16.209999       18.740000
  C5a       35.860001       16.360001       17.879999
  C6        34.689999       15.620000       18.120001
  H1        33.880001       15.720000       17.389999
  C7        34.650002       14.690000       19.129999
  H2        33.799999       14.080000       19.219999
  C8        35.610001       14.570000       20.049999
  H3        35.610001       13.630000       20.559999
  C9        36.720001       15.380000       19.930000
  H4        37.400002       15.250000       20.719999
  C10       40.119999       15.670000       19.120001
  H5        39.549999       14.960000       19.719999
  C11       41.520000       15.440000       19.010000
  H6        42.009998       14.820000       19.719999
  C12       42.230000       16.139999       18.030001
  H7        43.279999       16.230000       18.020000
  C13       41.540001       17.090000       17.190001
  H8        41.869999       17.209999       16.180000
  C6        39.380001       19.190001       15.770000
  C1        39.150002       19.000000       14.430000
  H1        38.410000       18.299999       14.020000
  C2        39.439999       20.000000       13.470000
  H2        39.299999       19.830000       12.430000
  C3        40.099998       21.100000       13.890000
  H3        40.480000       21.860001       13.190000
  C4        40.400002       21.309999       15.180000
  H4        40.840000       22.290001       15.400000
  C5        40.020000       20.350000       16.150000
  H5        40.230000       20.610001       17.260000
  C1        36.000000       14.720000       13.600000
  C2        34.669998       15.110000       13.710000
  N1        36.709999       15.660000       14.310000
  C3b       35.919998       16.570000       14.980000
  N2        34.630001       16.270000       14.560000
  C4        33.580002       17.059999       15.070000
  C5b       33.910000       17.860001       16.150000
  C6        32.930000       18.540001       16.900000
  H1        33.160000       19.240000       17.750000
  C7        31.580000       18.510000       16.510000
  H2        30.920000       19.139999       17.059999
  C8        31.190001       17.780001       15.360000
  H3        30.160000       17.639999       15.150000
  C9        32.169998       17.020000       14.740000
  H4        31.910000       16.620001       13.720000
  C10       33.759998       14.460000       12.840000
  H5        32.709999       14.880000       12.910000
  C11       34.160000       13.430000       12.010000
  H6        33.340000       13.000000       11.450000
  C12       35.509998       13.090000       11.880000
  H7        35.820000       12.630000       10.940000
  C13       36.450001       13.690000       12.710000
  H8        37.509998       13.500000       12.660000
  C6        38.090000       15.320000       14.750000
  C1        38.220001       14.470000       15.830000
  H1        37.230000       14.300000       16.430000
  C2        39.520000       13.950000       16.120001
  H2        39.549999       13.350000       16.990000
  C3        40.650002       14.280000       15.350000
  H3        41.619999       13.740000       15.440000
  C4        40.520000       15.110000       14.230000
  H4        41.270000       15.440000       13.490000
  C5        39.220001       15.640000       14.020000
  H5        39.130001       16.139999       13.060000
  C1        36.419998       21.530001       14.070000
  C2        36.970001       21.850000       15.340000
  N1        35.939999       20.270000       14.210000
  C3c       36.070000       19.760000       15.440000
  N2        36.580002       20.809999       16.180000
  C4        36.139999       20.790001       17.549999
  C5c       35.730000       19.490000       18.000000
  C6        35.330002       19.350000       19.330000
  H1        35.290001       18.379999       19.799999
  C7        35.299999       20.480000       20.160000
  H2        34.860001       20.420000       21.190001
  C8        35.759998       21.740000       19.730000
  H3        35.860001       22.490000       20.480000
  C9        36.119999       21.889999       18.400000
  H4        36.630001       22.660000       17.940001
  C10       37.630001       23.040001       15.490000
  H5        37.860001       23.290001       16.469999
  C11       37.750000       23.959999       14.440000
  H6        38.209999       24.940001       14.530000
  C12       37.169998       23.709999       13.170000
  H7        37.380001       24.320000       12.320000
  C13       36.470001       22.490000       13.020000
  H8        35.840000       22.459999       12.150000
  C6        35.180000       19.600000       13.270000
  C1        35.799999       18.950001       12.220000
  H1        36.919998       18.980000       12.130000
  C2        35.060001       18.290001       11.220000
  H2        35.450001       17.590000       10.540000
  C3        33.650002       18.500000       11.240000
  H3        33.020000       18.180000       10.450000
  C4        33.040001       19.389999       12.180000
  H4        32.020000       19.809999       12.040000
  C5        33.810001       19.820000       13.230000
  H5        33.320000       20.250000       14.110000
  IR        34.180000       26.500000       27.600000
  C1        32.009998       22.700001       27.230000
  C2        32.169998       22.850000       28.590000
  N1        32.740002       23.750000       26.549999
  C3a       33.250000       24.610001       27.520000
  N2        32.980000       24.049999       28.770000
  C4        33.580002       24.719999       29.950001
  C5a       33.950001       26.040001       29.680000
  C6        34.169998       26.900000       30.790001
  H1        34.060001       27.950001       30.680000
  C7        34.049999       26.430000       32.110001
  H2        34.029999       27.040001       32.990002
  C8        33.840000       25.090000       32.290001
  H3        33.669998       24.650000       33.259998
  C9        33.650002       24.230000       31.270000
  H4        33.450001       23.120001       31.430000
  C10       31.510000       21.889999       29.480000
  H5        31.660000       21.910000       30.530001
  C11       30.730000       20.900000       28.950001
  H6        30.129999       20.209999       29.549999
  C12       30.600000       20.730000       27.549999
  H7        29.709999       20.290001       27.180000
  C13       31.320000       21.650000       26.730000
  H8        31.360001       21.590000       25.700001
  C6        33.080002       23.629999       25.120001
  C1        34.090000       22.740000       24.719999
  H1        34.459999       22.170000       25.549999
  C2        34.410000       22.600000       23.379999
  H2        35.169998       21.940001       23.040001
  C3        33.619999       23.260000       22.400000
  H3        33.830002       23.059999       21.360001
  C4        32.599998       24.120001       22.840000
  H4        32.040001       24.690001       22.139999
  C5        32.349998       24.299999       24.160000
  H5        31.450001       24.900000       24.520000
  C1        30.910000       29.340000       27.920000
  C2        32.070000       30.139999       28.049999
  N1        31.299999       28.059999       27.799999
  C3b       32.680000       27.900000       27.950001
  N2        33.180000       29.200001       28.040001
  C4        34.590000       29.330000       28.209999
  C5b       35.349998       28.190001       27.889999
  C6        36.709999       28.250000       28.010000
  H1        37.310001       27.379999       27.990000
  C7        37.380001       29.480000       28.190001
  H2        38.410000       29.490000       27.940001
  C8        36.680000       30.650000       28.450001
  H3        37.330002       31.500000       28.459999
  C9        35.270000       30.570000       28.440001
  H4        34.759998       31.530001       28.690001
  C10       31.910000       31.549999       28.190001
  H5        32.820000       32.119999       28.120001
  C11       30.650000       32.130001       28.240000
  H6        30.549999       33.240002       28.400000
  C12       29.500000       31.280001       28.180000
  H7        28.530001       31.700001       28.290001
  C13       29.629999       29.910000       27.969999
  H8        28.730000       29.270000       27.770000
  C6        30.360001       26.940001       27.820000
  C1        30.170000       26.389999       29.120001
  H1        30.230000       27.080000       29.930000
  C2        29.620001       25.070000       29.219999
  H2        30.020000       24.360001       29.980000
  C3        29.090000       24.450001       28.110001
  H3        28.850000       23.430000       28.139999
  C4        29.020000       25.070000       26.870001
  H4        28.410000       24.650000       26.070000
  C5        29.830000       26.230000       26.700001
  H5        30.200001       26.480000       25.639999
  C1        34.810001       27.080000       23.340000
  C2        35.720001       26.120001       23.600000
  N1        34.189999       27.530001       24.490000
  C3c       34.680000       26.830000       25.570000
  N2        35.680000       25.980000       25.010000
  C4        36.330002       25.170000       26.010000
  C5c       35.980000       25.360001       27.370001
  C6        36.689999       24.620001       28.350000
  H1        36.630001       25.160000       29.320000
  C7        37.709999       23.700001       28.010000
  H2        38.380001       23.330000       28.690001
  C8        37.930000       23.480000       26.629999
  H3        38.459999       22.549999       26.370001
  C9        37.279999       24.200001       25.650000
  H4        37.200001       23.870001       24.570000
  C10       36.500000       25.559999       22.549999
  H5        37.259998       24.840000       22.700001
  C11       36.340000       25.930000       21.170000
  H6        37.160000       25.830000       20.379999
  C12       35.419998       26.930000       20.879999
  H7        35.480000       27.530001       19.959999
  C13       34.689999       27.480000       21.950001
  H8        33.709999       27.799999       21.639999
  C6        33.130001       28.549999       24.459999
  C1        33.450001       29.840000       24.620001
  H1        34.330002       30.139999       25.100000
  C2        32.520000       30.850000       24.620001
  H2        32.950001       31.790001       24.709999
  C3        31.160000       30.559999       24.320000
  H3        30.379999       31.360001       24.240000
  C4        30.799999       29.230000       24.100000
  H4        29.740000       29.049999       24.010000
  C5        31.790001       28.240000       24.110001
  H5        31.620001       27.160000       23.809999
