206
 generated by VMD
 Ir      102.572617       -1.582070       70.859261
 C        99.479836       -4.190674       72.579132
 C        98.824791       -3.376595       71.699295
 N       100.860611       -3.766062       72.587204
 C       101.055344       -2.723985       71.687454
 N        99.818192       -2.573469       71.095764
 C        99.778381       -1.655684       70.038086
 C       100.875610       -0.841062       69.924133
 C       100.874306        0.349465       69.167664
 H       101.639183        1.128681       69.330101
 C        99.743134        0.608610       68.431870
 H        99.768524        1.284532       67.557632
 C        98.594353       -0.189239       68.491409
 H        97.688812        0.204040       67.952576
 C        98.637146       -1.304387       69.299812
 H        98.044472       -2.060346       68.858261
 C        97.445053       -3.685949       71.372925
 H        96.740173       -3.028210       70.854172
 C        96.946991       -4.880139       71.803787
 H        95.967712       -5.235494       71.488136
 C        97.651062       -5.723445       72.648376
 H        97.259720       -6.668240       72.961288
 C        98.894806       -5.357795       73.119102
 H        99.011330       -5.820032       74.058922
 C       101.829796       -4.242462       73.609802
 C       102.704498       -5.298138       73.409470
 H       102.976746       -5.578207       72.420151
 C       103.377350       -5.742548       74.566467
 H       103.774429       -6.696079       74.456848
 C       103.203316       -5.233428       75.845772
 H       103.686676       -5.722732       76.668594
 C       102.248100       -4.182673       76.028992
 H       101.883972       -3.796135       76.952576
 C       101.636230       -3.636266       74.906288
 H       100.990860       -2.864433       75.079369
 C       103.399734       -3.702985       67.194473
 C       104.238533       -2.606828       67.140160
 N       102.551842       -3.633390       68.346359
 C       102.901535       -2.505451       69.040886
 N       103.828415       -1.843843       68.206818
 C       104.077271       -0.494178       68.517578
 C       103.886337       -0.256298       69.907532
 C       104.421448        0.934115       70.436470
 H       104.463066        1.023095       71.558365
 C       105.179871        1.836028       69.659645
 H       105.529610        2.771074       70.000626
 C       105.382095        1.537682       68.315704
 H       106.085510        2.030348       67.716621
 C       104.835831        0.429579       67.745529
 H       105.107574        0.258589       66.738846
 C       105.229782       -2.583817       66.105217
 H       105.796738       -1.742578       65.989120
 C       105.263351       -3.564660       65.166428
 H       105.950737       -3.611206       64.353821
 C       104.424622       -4.670508       65.223206
 H       104.470551       -5.330895       64.367828
 C       103.443176       -4.788133       66.250938
 H       102.877869       -5.697071       66.425468
 C       101.391556       -4.519880       68.707413
 C       101.526825       -5.581342       69.602791
 H       102.385223       -5.722016       70.243927
 C       100.487396       -6.498113       69.637848
 H       100.552917       -7.062346       70.543076
 C        99.297150       -6.323741       68.935562
 H        98.483231       -7.032497       68.808220
 C        99.146996       -5.164602       68.222229
 H        98.281113       -4.887782       67.670570
 C       100.173553       -4.294284       68.085800
 H       100.109192       -3.606209       67.221329
 C       106.025360       -2.985344       73.038147
 C       105.390335       -2.174498       73.933838
 N       105.292847       -2.992013       71.894165
 C       104.154800       -2.266634       71.979385
 N       104.151031       -1.764745       73.266052
 C       102.981529       -0.931545       73.655060
 C       102.319748       -0.353600       72.536072
 C       101.472023        0.757470       72.628693
 H       100.928833        1.062466       71.813087
 C       101.346710        1.441056       73.862320
 H       100.749802        2.302433       73.980331
 C       102.047440        0.967268       74.943436
 H       101.803391        1.416882       75.868248
 C       102.805969       -0.209190       74.880249
 H       103.223442       -0.579121       75.850067
 C       105.956985       -1.924766       75.227173
 H       105.487061       -1.250366       75.946457
 C       107.167221       -2.488491       75.573647
 H       107.466324       -2.266428       76.602875
 C       107.733383       -3.413188       74.719131
 H       108.692276       -3.897062       75.021423
 C       107.158852       -3.674774       73.501266
 H       107.688614       -4.288558       72.775230
 C       105.649704       -3.702065       70.712349
 C       105.210861       -5.000806       70.404320
 H       104.478973       -5.500554       71.057610
 C       105.719696       -5.713018       69.291023
 H       105.212143       -6.618688       69.029602
 C       106.716553       -5.092641       68.455132
 H       107.184769       -5.730882       67.675117
 C       107.145203       -3.806053       68.756210
 H       108.094269       -3.467866       68.354584
 C       106.626022       -3.127839       69.857796
 H       106.848221       -2.106461       69.932732
 Ir      102.572617       -1.582074       86.836670
 C       100.857025        1.627822       84.531891
 C       100.482941        1.991405       85.812515
 N       101.329437        0.289354       84.610809
 C       101.394043       -0.203370       85.838516
 N       100.885529        0.844719       86.608459
 C       100.744217        0.522292       87.984497
 C       101.697205       -0.492211       88.432053
 C       101.925934       -0.596331       89.804153
 H       102.666786       -1.259442       90.178757
 C       101.191101        0.153901       90.707733
 H       101.320732       -0.094499       91.758011
 C       100.218338        1.056864       90.268417
 H        99.488747        1.454802       91.003296
 C        99.999313        1.282216       88.885902
 H        99.251404        1.982088       88.615692
 C       100.061310        3.323995       86.115540
 H       100.395584        3.894689       86.972672
 C        99.810577        4.139783       85.027786
 H        99.386726        5.132532       85.252045
 C       100.103256        3.732359       83.698669
 H        99.822662        4.433038       82.971268
 C       100.684547        2.479769       83.381134
 H       100.907837        2.178005       82.429680
 C       101.505341       -0.440233       83.397781
 C       102.779312       -0.342802       82.810745
 H       103.595505       -0.049622       83.373856
 C       102.954033       -0.825154       81.555588
 H       103.983521       -0.957431       81.167969
 C       101.932892       -1.349395       80.819550
 H       102.085480       -1.791927       79.843910
 C       100.646957       -1.495592       81.336731
 H        99.977386       -2.234176       81.006470
 C       100.434097       -1.027552       82.658524
 H        99.445847       -1.152203       83.089592
 C       106.357437        0.484029       87.309677
 C       106.416016       -0.424212       88.323120
 N       105.128799        0.476703       86.664948
 C       104.314941       -0.556884       87.249702
 N       105.143990       -1.127897       88.269318
 C       104.776443       -2.482089       88.716499
 C       103.503113       -2.905892       88.261383
 C       103.056267       -4.192087       88.734810
 H       102.145599       -4.518514       88.368591
 C       103.918770       -5.028311       89.521530
 H       103.304398       -5.756361       90.084991
 C       105.199356       -4.629114       89.879486
 H       105.803680       -5.364544       90.379517
 C       105.618607       -3.352312       89.491791
 H       106.384659       -2.874824       90.050781
 C       107.578384       -0.527976       89.101135
 H       107.453156       -1.017128       89.982361
 C       108.672531        0.351734       88.877846
 H       109.578232        0.300454       89.422707
 C       108.592873        1.291364       87.826065
 H       109.331268        2.084291       87.758698
 C       107.441803        1.252200       87.094345
 H       107.574371        1.789515       86.118118
 C       104.563171        1.757676       86.118156
 C       104.845917        2.073021       84.791534
 H       105.134491        1.354779       84.026581
 C       104.412704        3.334909       84.328430
 H       104.562630        3.549309       83.258270
 C       103.715714        4.261916       85.155090
 H       103.667694        5.303786       84.871185
 C       103.391823        3.905189       86.441772
 H       102.888283        4.598523       87.033325
 C       103.866386        2.655605       86.952187
 H       103.563736        2.343829       87.927536
 C       103.524567       -3.978850       83.341644
 C       102.157700       -4.058550       83.472656
 N       104.074127       -3.225557       84.383728
 C       103.029724       -2.885173       85.307236
 N       101.851181       -3.396961       84.665359
 C       100.653595       -3.415951       85.478027
 C       100.746689       -2.684053       86.651932
 C        99.660973       -2.685820       87.529312
 H        99.786362       -2.178052       88.428955
 C        98.459900       -3.347015       87.153091
 H        97.670715       -3.368617       87.903305
 C        98.276634       -4.091065       85.974495
 H        97.279404       -4.448580       85.732147
 C        99.384460       -4.142382       85.171890
 H        99.240128       -4.795538       84.309708
 C       101.407242       -4.552455       82.401321
 H       100.358704       -4.739074       82.467941
 C       101.983429       -4.978813       81.192886
 H       101.388611       -5.132429       80.319740
 C       103.383499       -5.024815       81.175446
 H       103.988876       -5.234125       80.292953
 C       104.142792       -4.489830       82.205124
 H       105.190552       -4.681670       82.110794
 C       105.463562       -3.280049       84.699020
 C       106.140289       -4.006594       85.638580
 H       105.655602       -4.778333       86.188843
 C       107.509361       -3.806470       85.941391
 H       108.039642       -4.395610       86.654068
 C       108.154984       -2.726580       85.421860
 H       109.148643       -2.455548       85.892700
 C       107.422913       -1.834511       84.648254
 H       107.740082       -0.806503       84.543365
 C       106.100891       -2.153858       84.240219
 H       105.657639       -1.642709       83.421036
