206
 generated by VMD
 Ir      -88.449539       65.619537      -62.482811
 C       -85.589256       62.593525      -60.861900
 C       -85.343201       62.579758      -62.238800
 N       -86.582520       63.512100      -60.624733
 C       -87.075760       64.158020      -61.845551
 N       -86.359650       63.461769      -62.843018
 C       -86.890823       63.689587      -64.137688
 C       -87.982643       64.577499      -64.253143
 C       -88.584518       64.777145      -65.537506
 H       -89.509476       65.391220      -65.499115
 C       -88.094055       64.135391      -66.643669
 H       -88.702011       64.062637      -67.491722
 C       -86.988419       63.338543      -66.524109
 H       -86.494926       62.971947      -67.410324
 C       -86.382874       63.110992      -65.290817
 H       -85.656219       62.353172      -65.200302
 C       -84.435974       61.619511      -62.772720
 H       -84.263550       61.535255      -63.848114
 C       -83.832130       60.672760      -61.925880
 H       -83.184311       59.917553      -62.359467
 C       -84.132401       60.632408      -60.554642
 H       -83.812012       59.756264      -60.052727
 C       -85.037834       61.587025      -60.072350
 H       -85.400299       61.423241      -59.115952
 C       -87.193634       63.856422      -59.335320
 C       -86.711136       64.934914      -58.597523
 H       -86.119858       65.677963      -59.068748
 C       -87.134392       65.228142      -57.294079
 H       -86.649139       66.014839      -56.743225
 C       -88.201363       64.499611      -56.786713
 H       -88.878235       65.011765      -56.100975
 C       -88.658188       63.341595      -57.381287
 H       -89.289642       62.669029      -56.828102
 C       -88.097633       63.002644      -58.643978
 H       -88.739449       62.421257      -59.251732
 C       -85.602402       68.797623      -63.515327
 C       -86.792557       69.138367      -64.171104
 N       -85.837006       67.623909      -62.802620
 C       -87.137344       67.194099      -63.021698
 N       -87.758224       68.207672      -63.831863
 C       -89.104927       68.018944      -64.127289
 C       -89.732666       67.017899      -63.437393
 C       -91.124298       67.013260      -63.401917
 H       -91.515915       66.219376      -62.767120
 C       -91.929863       67.944550      -64.006126
 H       -92.890862       67.996407      -63.529900
 C       -91.300842       68.893440      -64.810387
 H       -91.731659       69.791595      -65.136452
 C       -89.901154       68.918388      -64.958206
 H       -89.511826       69.671387      -65.604126
 C       -86.748337       70.288757      -64.992477
 H       -87.691788       70.809540      -65.209930
 C       -85.518677       70.879059      -65.295082
 H       -85.512527       71.652496      -65.981720
 C       -84.346588       70.512115      -64.728119
 H       -83.544830       71.182335      -64.876091
 C       -84.440735       69.463791      -63.785957
 H       -83.573380       69.177284      -63.100830
 C       -84.820435       66.542603      -62.626060
 C       -84.203674       66.068573      -63.736458
 H       -84.539978       66.596840      -64.629051
 C       -83.093582       65.236481      -63.605148
 H       -82.372635       65.335289      -64.423843
 C       -82.652634       64.889420      -62.285103
 H       -81.792938       64.304962      -62.175964
 C       -83.256607       65.515709      -61.233498
 H       -82.788879       65.437653      -60.197571
 C       -84.315994       66.392616      -61.360184
 H       -84.783806       66.892853      -60.601959
 C       -89.894165       67.257721      -58.707825
 C       -90.489273       66.088699      -58.738434
 N       -89.023582       67.392044      -59.868065
 C       -89.243263       66.288666      -60.694748
 N       -90.127113       65.468430      -59.986992
 C       -90.409271       64.261024      -60.634033
 C       -89.988327       64.231415      -61.979889
 C       -90.324814       63.136818      -62.778656
 H       -90.360733       63.294815      -63.874168
 C       -91.043045       62.066456      -62.219940
 H       -90.951065       61.100540      -62.735062
 C       -91.486938       62.129349      -60.901756
 H       -91.777863       61.257637      -60.487411
 C       -91.142075       63.261158      -60.079636
 H       -91.211838       63.165779      -58.994629
 C       -91.319450       65.609001      -57.701809
 H       -92.028809       64.803169      -57.901936
 C       -91.455879       66.371307      -56.563576
 H       -92.107033       66.040718      -55.734596
 C       -91.002762       67.675148      -56.585548
 H       -91.295837       68.413864      -55.858902
 C       -90.164169       68.104668      -57.682259
 H       -89.772629       69.101776      -57.732941
 C       -88.251434       68.594872      -60.160431
 C       -86.897858       68.530983      -59.935989
 H       -86.298950       67.944290      -59.215790
 C       -86.168991       69.703934      -60.199478
 H       -85.064667       69.722458      -59.965569
 C       -86.761368       70.879593      -60.729973
 H       -86.184830       71.730347      -61.153419
 C       -88.138458       70.950813      -60.940536
 H       -88.716141       71.892990      -61.164162
 C       -88.889587       69.824371      -60.537613
 H       -89.998123       69.724365      -60.605873
 Ir      -88.449539       65.619537      -50.507759
 C       -85.926521       62.210518      -49.414635
 C       -86.572739       61.853050      -50.566124
 N       -86.331650       63.583118      -49.169792
 C       -87.236145       64.028687      -50.189323
 N       -87.348778       62.948120      -51.005096
 C       -88.461884       63.013969      -51.961365
 C       -89.112823       64.186485      -51.883369
 C       -90.172424       64.384544      -52.761169
 H       -90.904037       65.159531      -52.508926
 C       -90.502510       63.579247      -53.860550
 H       -90.911453       64.034790      -54.722549
 C       -89.768547       62.390354      -53.976486
 H       -89.835815       61.805714      -54.862247
 C       -88.850227       62.035851      -52.952858
 H       -88.551712       61.015968      -52.916412
 C       -86.193199       60.606232      -51.079338
 H       -86.296356       60.524323      -52.205238
 C       -85.318039       59.718056      -50.423180
 H       -84.925095       58.807579      -50.817680
 C       -84.818428       60.065697      -49.169174
 H       -84.388458       59.286781      -48.561714
 C       -85.101646       61.340687      -48.752541
 H       -85.048538       61.537369      -47.714516
 C       -86.056725       64.098854      -47.794716
 C       -86.678146       63.594273      -46.664833
 H       -87.195107       62.685467      -46.786987
 C       -86.518250       64.263428      -45.407356
 H       -86.887924       63.809822      -44.526115
 C       -85.744362       65.422241      -45.313248
 H       -85.468491       65.864990      -44.344711
 C       -85.154556       65.909927      -46.473381
 H       -84.524239       66.780075      -46.484474
 C       -85.266251       65.215088      -47.664398
 H       -84.542831       65.471779      -48.461494
 C       -86.272385       67.364960      -53.950569
 C       -87.501678       67.964478      -54.002518
 N       -86.207275       66.456970      -52.783806
 C       -87.443359       66.494797      -52.118015
 N       -88.263855       67.412849      -52.841393
 C       -89.484337       67.840607      -52.254425
 C       -89.910141       67.075157      -51.087341
 C       -91.010193       67.490738      -50.318584
 H       -90.829742       67.335228      -49.253197
 C       -91.706589       68.610306      -50.765213
 H       -92.574402       68.831581      -50.292610
 C       -91.394371       69.380859      -51.882561
 H       -91.830887       70.370338      -51.949539
 C       -90.299850       68.928070      -52.684250
 H       -90.018280       69.490822      -53.570778
 C       -87.851807       68.769073      -55.107841
 H       -88.851654       68.936615      -55.435913
 C       -86.952240       68.953842      -56.144730
 H       -87.281677       69.537926      -56.983131
 C       -85.630905       68.471848      -56.013306
 H       -84.830833       68.948410      -56.537308
 C       -85.323868       67.666992      -54.952065
 H       -84.387100       67.120003      -54.861771
 C       -85.449028       65.253410      -52.850815
 C       -85.739624       64.305428      -53.865448
 H       -86.493721       64.507034      -54.558693
 C       -85.124489       63.034512      -53.808037
 H       -85.614853       62.273762      -54.381271
 C       -84.187500       62.798981      -52.758003
 H       -83.903870       61.865051      -52.287857
 C       -83.811188       63.830688      -51.916122
 H       -82.989761       63.698128      -51.202896
 C       -84.474373       65.027176      -51.914780
 H       -84.495651       65.590988      -51.024006
 C       -87.795830       68.587036      -47.351257
 C       -88.474747       67.561493      -46.749573
 N       -87.529816       68.118484      -48.670082
 C       -87.971672       66.827354      -48.895115
 N       -88.612137       66.515900      -47.697868
 C       -89.321533       65.275864      -47.668518
 C       -89.663132       64.787766      -48.969505
 C       -90.596497       63.700623      -49.069221
 H       -90.916954       63.430428      -49.988403
 C       -91.262543       63.147556      -47.931725
 H       -91.975037       62.328758      -48.101479
 C       -90.862656       63.658188      -46.644730
 H       -91.372589       63.200115      -45.825985
 C       -89.926102       64.674843      -46.502342
 H       -89.452957       64.800919      -45.579556
 C       -88.530479       67.527832      -45.399624
 H       -89.228500       66.933090      -44.741020
 C       -87.718277       68.520508      -44.720428
 H       -87.620132       68.303284      -43.689899
 C       -87.042068       69.596237      -45.281193
 H       -86.825043       70.420792      -44.643059
 C       -87.099464       69.610764      -46.654289
 H       -86.889114       70.498589      -47.228157
 C       -86.606613       68.741928      -49.480900
 C       -86.961479       69.814339      -50.274693
 H       -87.993607       70.142258      -50.007336
 C       -86.173332       70.299408      -51.313362
 H       -86.546265       70.974297      -52.143814
 C       -84.863846       69.746399      -51.467094
 H       -84.114624       70.278252      -52.120934
 C       -84.506210       68.694565      -50.578598
 H       -83.493759       68.404121      -50.538857
 C       -85.341049       68.216568      -49.637241
 H       -84.908722       67.703499      -48.820450
