206
 generated by VMD
 Ir        0.953411        0.555346       -6.434973
 C        -2.289749        0.682966       -3.503292
 C        -1.788353        1.961016       -3.520311
 N        -1.586693       -0.054390       -4.465227
 C        -0.631630        0.720583       -5.116283
 N        -0.798561        1.982000       -4.537012
 C        -0.099113        3.051462       -5.182095
 C         0.861488        2.646299       -6.126333
 C         1.504356        3.630636       -6.904284
 H         2.309368        3.348558       -7.566843
 C         1.168152        4.981657       -6.786766
 H         1.649475        5.702559       -7.416710
 C         0.206078        5.378637       -5.853968
 H        -0.051277        6.423410       -5.746166
 C        -0.414768        4.422163       -5.055079
 H        -1.166565        4.743612       -4.357607
 C        -2.300701        2.902758       -2.615482
 H        -1.839680        3.870081       -2.501276
 C        -3.356834        2.566450       -1.749348
 H        -3.769547        3.311232       -1.083641
 C        -3.873749        1.266291       -1.758223
 H        -4.715485        1.010130       -1.143112
 C        -3.326546        0.316366       -2.626736
 H        -3.713188       -0.684572       -2.621620
 C        -1.884277       -1.437372       -4.766565
 C        -1.113052       -2.446100       -4.197281
 H        -0.229168       -2.206949       -3.625748
 C        -1.477222       -3.790867       -4.360035
 H        -0.865635       -4.578470       -3.945736
 C        -2.629757       -4.124477       -5.091587
 H        -2.918633       -5.152128       -5.211088
 C        -3.400520       -3.109995       -5.673777
 H        -4.286343       -3.363081       -6.243845
 C        -3.036812       -1.770983       -5.498117
 H        -3.677544       -0.990023       -5.877682
 C        -1.029327        1.389235      -10.254000
 C         0.269695        1.114962      -10.601297
 N        -1.128983        1.277510       -8.858976
 C         0.088200        0.946215       -8.289677
 N         0.947155        0.840918       -9.382750
 C         2.317387        0.569193       -9.068064
 C         2.634743        0.732660       -7.713827
 C         3.983009        0.786867       -7.332167
 H         4.245094        1.037512       -6.312815
 C         5.003326        0.596445       -8.271574
 H         6.038734        0.637098       -7.953493
 C         4.682354        0.363312       -9.610504
 H         5.466507        0.192694      -10.332582
 C         3.344475        0.342722      -10.000053
 H         3.102425        0.025742      -11.009525
 C         0.631180        1.173006      -11.956755
 H         1.658920        1.034212      -12.261038
 C        -0.305336        1.507757      -12.940559
 H         0.002296        1.615263      -13.966082
 C        -1.626534        1.786890      -12.576389
 H        -2.351017        2.088919      -13.319431
 C        -1.988022        1.728846      -11.220938
 H        -3.009758        1.956984      -10.946341
 C        -2.296028        1.709639       -8.134636
 C        -2.365143        3.024614       -7.667452
 H        -1.550140        3.709471       -7.860182
 C        -3.502586        3.469141       -6.990753
 H        -3.540825        4.483622       -6.609873
 C        -4.587597        2.606874       -6.793673
 H        -5.464600        2.942251       -6.264814
 C        -4.519958        1.283716       -7.272295
 H        -5.356327        0.624296       -7.138697
 C        -3.369949        0.844938       -7.945990
 H        -3.335831       -0.155607       -8.336292
 C         1.257553       -3.778542       -6.565792
 C         2.128647       -3.426916       -5.557356
 N         0.800690       -2.602112       -7.173164
 C         1.297661       -1.483843       -6.533482
 N         2.132954       -1.998177       -5.548061
 C         2.764587       -1.041340       -4.696716
 C         2.167725        0.229155       -4.732725
 C         2.537651        1.164900       -3.745131
 H         2.070000        2.143076       -3.728655
 C         3.513233        0.864660       -2.791040
 H         3.791271        1.613794       -2.060221
 C         4.141628       -0.379503       -2.804146
 H         4.930050       -0.593721       -2.097176
 C         3.776848       -1.326750       -3.757957
 H         4.383411       -2.212004       -3.867525
 C         2.753433       -4.432835       -4.813868
 H         3.405830       -4.191133       -3.978306
 C         2.502541       -5.782200       -5.075342
 H         2.999786       -6.543987       -4.498690
 C         1.601742       -6.137150       -6.086313
 H         1.389923       -7.178474       -6.302120
 C         0.972378       -5.123051       -6.826315
 H         0.235641       -5.401056       -7.572601
 C         0.395679       -2.597761       -8.548679
 C         1.377998       -2.674301       -9.547123
 H         2.421745       -2.604885       -9.285643
 C         1.005394       -2.778080      -10.884472
 H         1.760490       -2.898724      -11.647274
 C        -0.353645       -2.791388      -11.232798
 H        -0.627338       -2.956007      -12.268461
 C        -1.332100       -2.686983      -10.237293
 H        -2.372948       -2.650694      -10.513542
 C        -0.961426       -2.597134       -8.898478
 H        -1.720390       -2.504356       -8.132730
 Ir        0.953411        0.555349        7.033638
 C        -2.797760        1.659113        8.957106
 C        -2.306412        2.841940        8.432617
 N        -1.810341        0.677107        8.771442
 C        -0.700123        1.191847        8.102882
 N        -1.009384        2.539160        7.948631
 C         0.067520        3.358358        7.468748
 C         1.197659        2.652189        7.023754
 C         2.320553        3.371435        6.609404
 H         3.210999        2.841646        6.296465
 C         2.336662        4.761702        6.609709
 H         3.231575        5.288702        6.318512
 C         1.206985        5.473623        7.041790
 H         1.239075        6.552526        7.105330
 C         0.074932        4.770739        7.463110
 H        -0.757622        5.322638        7.857647
 C        -3.143272        3.976820        8.428385
 H        -2.848282        4.880751        7.927597
 C        -4.433071        3.910078        8.957125
 H        -5.067471        4.791368        8.924540
 C        -4.913780        2.719069        9.486095
 H        -5.887386        2.673422        9.950230
 C        -4.095543        1.578436        9.479359
 H        -4.472645        0.652395        9.866705
 C        -1.749886       -0.466738        9.642630
 C        -1.128029       -0.356688       10.890903
 H        -0.672180        0.580084       11.184942
 C        -1.012840       -1.476629       11.720465
 H        -0.523216       -1.378723       12.679825
 C        -1.508881       -2.714792       11.306227
 H        -1.370155       -3.587023       11.929424
 C        -2.158966       -2.819984       10.066858
 H        -2.558350       -3.766470        9.755005
 C        -2.285244       -1.697618        9.245735
 H        -2.843590       -1.753088        8.326078
 C        -0.489674        0.974352        2.917212
 C         0.853264        0.722826        2.775229
 N        -0.764626        1.028658        4.294802
 C         0.372093        0.792845        5.050945
 N         1.373795        0.596663        4.100576
 C         2.660614        0.234442        4.604345
 C         2.779800        0.265619        6.008810
 C         4.033253        0.023672        6.588213
 H         4.163803        0.118376        7.657370
 C         5.147083       -0.278214        5.803839
 H         6.079903       -0.500095        6.287893
 C         5.036144       -0.337252        4.418230
 H         5.901184       -0.535734        3.810520
 C         3.787727       -0.097731        3.822432
 H         3.698479       -0.275133        2.772114
 C         1.390610        0.611517        1.474474
 H         2.447403        0.526661        1.311419
 C         0.564571        0.722975        0.356379
 H         0.995621        0.665983       -0.637373
 C        -0.797897        0.957243        0.513218
 H        -1.440125        1.040834       -0.355200
 C        -1.332851        1.088236        1.799593
 H        -2.381966        1.318167        1.919115
 C        -1.997055        1.576460        4.805031
 C        -2.258549        2.936178        4.627012
 H        -1.487919        3.592531        4.241880
 C        -3.516731        3.461233        4.955809
 H        -3.714935        4.516233        4.830158
 C        -4.507355        2.626570        5.470579
 H        -5.462612        3.033396        5.757425
 C        -4.246319        1.261103        5.661510
 H        -5.009422        0.612928        6.066048
 C        -2.981628        0.741800        5.327766
 H        -2.760269       -0.291985        5.548880
 C         0.641460       -3.781878        7.421680
 C         1.078659       -3.367373        8.659641
 N         0.581112       -2.647108        6.600670
 C         0.943436       -1.498804        7.279940
 N         1.275902       -1.955374        8.559870
 C         1.774368       -0.960320        9.462257
 C         1.890701        0.337414        8.921467
 C         2.497761        1.345125        9.678432
 H         2.680134        2.306952        9.238178
 C         2.964573        1.093573       10.969244
 H         3.458847        1.880159       11.523031
 C         2.823410       -0.177191       11.528921
 H         3.178299       -0.379402       12.527954
 C         2.220482       -1.198832       10.781382
 H         2.004684       -2.120657       11.284746
 C         1.203720       -4.331886        9.682709
 H         1.554375       -4.067951       10.672396
 C         0.874199       -5.666681        9.455923
 H         0.968418       -6.392561       10.251171
 C         0.420769       -6.067255        8.192610
 H         0.197403       -7.111904        7.998154
 C         0.304405       -5.124851        7.175499
 H        -0.028851       -5.433012        6.197704
 C         0.588852       -2.764048        5.162485
 C         1.776344       -3.063501        4.497969
 H         2.677479       -3.278997        5.068953
 C         1.814857       -3.094423        3.099201
 H         2.744102       -3.312590        2.593422
 C         0.655243       -2.817705        2.360468
 H         0.702431       -2.808874        1.281769
 C        -0.546749       -2.537935        3.023449
 H        -1.427330       -2.302757        2.461967
 C        -0.572701       -2.501265        4.425224
 H        -1.488155       -2.227365        4.933079
