206
 generated by VMD
 Ir      -18.194214       -5.194040      -78.699600
 C       -19.305771       -7.907538      -81.902824
 C       -17.955963       -8.172332      -81.618576
 N       -19.633053       -6.728510      -81.118431
 C       -18.529009       -6.314548      -80.393852
 N       -17.554958       -7.255244      -80.720215
 C       -16.325941       -7.194266      -79.899788
 C       -16.550901       -6.507812      -78.695518
 C       -15.578121       -6.553317      -77.682732
 H       -15.820999       -6.056852      -76.737465
 C       -14.458136       -7.334960      -77.828537
 H       -13.800841       -7.430440      -77.015175
 C       -14.124422       -7.924639      -78.978889
 H       -13.435382       -8.735162      -78.869453
 C       -14.988615       -7.788388      -80.045288
 H       -14.624812       -8.244881      -80.918594
 C       -17.381834       -9.260322      -82.144363
 H       -16.408461       -9.583839      -81.774391
 C       -18.083004      -10.167697      -82.987000
 H       -17.555101      -10.950466      -83.474022
 C       -19.436071       -9.923708      -83.240318
 H       -19.976200      -10.377894      -84.023056
 C       -20.068768       -8.755099      -82.676186
 H       -21.099171       -8.818763      -82.397583
 C       -20.799129       -5.850385      -81.219749
 C       -21.745239       -5.897727      -80.226151
 H       -21.529995       -6.126523      -79.173996
 C       -22.964165       -5.182342      -80.316399
 H       -23.710644       -5.258023      -79.563309
 C       -23.245842       -4.568126      -81.484894
 H       -24.224655       -4.105268      -81.684128
 C       -22.380606       -4.538995      -82.508972
 H       -22.688000       -3.916825      -83.357971
 C       -21.121317       -5.174304      -82.376770
 H       -20.376057       -5.056474      -83.256836
 C       -19.701942       -7.992823      -75.713356
 C       -19.079845       -6.982940      -74.987930
 N       -19.722004       -7.541890      -77.012604
 C       -19.043377       -6.357124      -77.204689
 N       -18.684494       -5.962461      -75.921753
 C       -17.979134       -4.749487      -75.788124
 C       -17.469566       -4.226811      -76.963898
 C       -16.567848       -3.144137      -76.968353
 H       -16.172398       -2.657043      -77.902031
 C       -16.231636       -2.486274      -75.772659
 H       -15.635868       -1.608784      -75.872993
 C       -16.790127       -2.918200      -74.544235
 H       -16.427856       -2.517255      -73.631760
 C       -17.561415       -4.069854      -74.578903
 H       -18.168301       -4.283077      -73.654655
 C       -19.178118       -7.082521      -73.577995
 H       -18.732708       -6.188582      -73.042938
 C       -19.767323       -8.173235      -72.967270
 H       -19.714323       -8.128704      -71.887405
 C       -20.429802       -9.150134      -73.716797
 H       -21.228245       -9.703778      -73.219543
 C       -20.364994       -9.108861      -75.104813
 H       -20.863796       -9.809544      -75.754768
 C       -19.926428       -8.533985      -78.102356
 C       -18.853052       -9.332745      -78.442421
 H       -17.830091       -8.977925      -77.998955
 C       -19.092258      -10.439529      -79.315521
 H       -18.215557      -10.972075      -79.571617
 C       -20.368977      -10.727291      -79.831161
 H       -20.609180      -11.684185      -80.348129
 C       -21.469849       -9.945777      -79.460342
 H       -22.538448      -10.041081      -79.721130
 C       -21.167154       -8.830370      -78.636169
 H       -22.061207       -8.353659      -78.244873
 C       -21.443800       -2.333554      -79.135635
 C       -20.746857       -2.336190      -80.373405
 N       -20.739372       -3.176896      -78.341812
 C       -19.637951       -3.682490      -78.908508
 N       -19.567858       -3.035417      -80.127769
 C       -18.214296       -2.829814      -80.571060
 C       -17.275311       -3.743100      -79.983849
 C       -15.940208       -3.661231      -80.382980
 H       -15.256543       -4.477364      -80.209984
 C       -15.557758       -2.671683      -81.300163
 H       -14.474724       -2.500573      -81.536507
 C       -16.492947       -1.818212      -81.917503
 H       -16.131870       -1.222165      -82.723328
 C       -17.811588       -1.871203      -81.493980
 H       -18.656967       -1.465562      -81.924553
 C       -21.277855       -1.644370      -81.428688
 H       -20.647177       -1.545293      -82.246140
 C       -22.466749       -0.911870      -81.313499
 H       -22.891556       -0.299829      -82.104095
 C       -23.169052       -0.833682      -80.083679
 H       -24.147743       -0.414062      -80.014519
 C       -22.610270       -1.531110      -78.987206
 H       -23.019182       -1.237905      -78.037720
 C       -20.962341       -3.369695      -76.991554
 C       -21.947651       -4.244172      -76.574585
 H       -22.570858       -4.785548      -77.337425
 C       -22.232838       -4.438478      -75.209267
 H       -22.786341       -5.239583      -74.813835
 C       -21.595789       -3.543285      -74.300751
 H       -21.856239       -3.500134      -73.274246
 C       -20.774471       -2.466931      -74.764099
 H       -20.517616       -1.588183      -74.133049
 C       -20.397158       -2.486138      -76.082275
 H       -19.553150       -1.867196      -76.404709
 Ir      -18.194214       -5.194040      -66.290550
 C       -19.597437       -4.789040      -62.273254
 C       -18.472105       -5.466377      -62.160812
 N       -19.893440       -4.674137      -63.623917
 C       -18.977711       -5.302244      -64.412216
 N       -18.063786       -5.780678      -63.486668
 C       -16.951324       -6.573285      -63.983360
 C       -16.723412       -6.404305      -65.362061
 C       -15.581356       -7.000643      -65.975815
 H       -15.409152       -6.887080      -67.025833
 C       -14.763800       -7.919537      -65.246750
 H       -13.897193       -8.364227      -65.768135
 C       -15.084219       -8.130543      -63.915768
 H       -14.414866       -8.775982      -63.406380
 C       -16.192188       -7.553500      -63.269371
 H       -16.566257       -7.922471      -62.321880
 C       -17.853775       -5.611250      -60.922436
 H       -16.991760       -6.228645      -60.842697
 C       -18.359753       -5.013909      -59.759220
 H       -18.122684       -5.550396      -58.853527
 C       -19.600262       -4.390779      -59.881462
 H       -20.195639       -4.275924      -59.029560
 C       -20.164364       -4.186092      -61.128860
 H       -21.040854       -3.665051      -61.158535
 C       -21.100468       -4.172559      -64.018372
 C       -22.310078       -4.835993      -63.683563
 H       -22.305557       -5.729730      -62.997406
 C       -23.528706       -4.390127      -64.184616
 H       -24.404726       -4.712049      -63.659309
 C       -23.502117       -3.350769      -65.092873
 H       -24.404968       -3.205605      -65.733795
 C       -22.299688       -2.619444      -65.331047
 H       -22.355692       -1.797157      -66.057755
 C       -21.099962       -3.024249      -64.804367
 H       -20.185085       -2.504803      -64.950241
 C       -15.314298       -1.974354      -66.527626
 C       -15.329588       -2.446204      -67.819801
 N       -16.102036       -2.774621      -65.639008
 C       -16.670200       -3.782997      -66.373901
 N       -16.206486       -3.578145      -67.671280
 C       -16.483042       -4.686435      -68.546104
 C       -17.470936       -5.610053      -68.204498
 C       -17.864296       -6.611857      -69.020004
 H       -18.778378       -7.188521      -69.016006
 C       -17.244949       -6.806114      -70.265511
 H       -17.626215       -7.525550      -71.009453
 C       -16.180553       -5.952982      -70.636765
 H       -15.543645       -6.064824      -71.462860
 C       -15.835275       -4.882741      -69.767357
 H       -14.816024       -4.436379      -69.847916
 C       -14.624769       -1.793901      -68.813446
 H       -14.933004       -2.028003      -69.824631
 C       -13.825866       -0.668240      -68.541168
 H       -13.544965        0.029226      -69.322784
 C       -13.830830       -0.165457      -67.243248
 H       -13.104124        0.661136      -67.060097
 C       -14.529984       -0.835006      -66.241203
 H       -14.590090       -0.552599      -65.239594
 C       -16.202347       -2.661779      -64.196335
 C       -15.212934       -3.194417      -63.409218
 H       -14.549711       -3.843871      -63.928104
 C       -15.250065       -3.131259      -62.015938
 H       -14.415007       -3.518693      -61.493374
 C       -16.293606       -2.483729      -61.434963
 H       -16.336189       -2.414835      -60.335854
 C       -17.310930       -1.916601      -62.227692
 H       -18.152655       -1.390749      -61.794586
 C       -17.251043       -1.964565      -63.605122
 H       -18.085674       -1.547706      -64.162811
 C       -21.256310       -3.291742      -68.916183
 C       -21.889841       -4.408743      -68.424805
 N       -19.928165       -3.323978      -68.306427
 C       -19.694763       -4.365931      -67.459816
 N       -20.904930       -5.082354      -67.590721
 C       -20.904530       -6.397926      -66.910667
 C       -19.551142       -6.777825      -66.603233
 C       -19.328173       -8.019351      -66.111809
 H       -18.385643       -8.436376      -66.270332
 C       -20.368589       -8.885081      -65.901695
 H       -20.165403       -9.755963      -65.421715
 C       -21.658283       -8.522427      -66.239883
 H       -22.460308       -9.288788      -66.177063
 C       -21.935301       -7.253527      -66.686256
 H       -22.885109       -7.166250      -67.128586
 C       -23.215740       -4.629158      -68.745132
 H       -23.807653       -5.464751      -68.299355
 C       -23.899960       -3.851656      -69.687813
 H       -25.012234       -3.836082      -69.619972
 C       -23.201094       -2.831430      -70.350555
 H       -23.636009       -2.227052      -71.030975
 C       -21.908089       -2.520814      -69.918053
 H       -21.347429       -1.674546      -70.392281
 C       -19.024965       -2.245697      -68.630539
 C       -18.652851       -1.324091      -67.631950
 H       -18.947372       -1.455861      -66.584427
 C       -17.935154       -0.214334      -67.909164
 H       -17.280748        0.200298      -67.189491
 C       -17.556522        0.083860      -69.243263
 H       -17.350105        1.080270      -69.598877
 C       -17.906269       -0.883873      -70.280212
 H       -17.624554       -0.698862      -71.328842
 C       -18.654085       -2.028121      -69.958237
 H       -18.757868       -2.850610      -70.648483
