206
 generated by VMD
  IR        43.340000       42.630001       45.810001
  C1        45.610001       42.240002       49.590000
  C2        46.549999       42.080002       48.529999
  N1        44.310001       42.320000       48.919998
  C3a       44.360001       42.290001       47.599998
  N2        45.820000       42.189999       47.320000
  C4        46.259998       42.520000       45.980000
  C5a       45.270000       42.560001       45.020000
  C6        45.680000       42.770000       43.709999
  H1        45.040001       42.720001       42.880001
  C7        47.020000       42.970001       43.389999
  H2        47.459999       43.320000       42.459999
  C8        48.009998       42.980000       44.330002
  H3        49.009998       43.169998       44.070000
  C9        47.650002       42.700001       45.630001
  H4        48.230000       42.939999       46.450001
  C10       47.919998       41.919998       48.889999
  H5        48.619999       41.730000       48.099998
  C11       48.349998       41.860001       50.230000
  H6        49.349998       41.689999       50.400002
  C12       47.380001       41.990002       51.270000
  H7        47.660000       41.750000       52.250000
  C13       46.009998       42.189999       50.950001
  H8        45.259998       42.320000       51.689999
  C6        43.029999       42.250000       49.689999
  C1        42.160000       41.119999       49.680000
  H1        42.400002       40.209999       49.110001
  C2        40.959999       41.169998       50.349998
  H2        40.259998       40.349998       50.330002
  C3        40.580002       42.279999       51.150002
  H3        39.580002       42.490002       51.480000
  C4        41.490002       43.349998       51.240002
  H4        41.270000       44.209999       51.860001
  C5        42.689999       43.330002       50.500000
  H5        43.439999       44.139999       50.639999
  C1        43.709999       46.880001       45.130001
  C2        42.980000       46.490002       44.020000
  N1        44.020000       45.750000       45.860001
  C3b       43.470001       44.639999       45.380001
  N2        42.860001       45.049999       44.220001
  C4        42.200001       44.099998       43.529999
  C5b       42.549999       42.759998       43.840000
  C6        42.180000       41.669998       43.009998
  H1        42.779999       40.730000       43.119999
  C7        41.360001       41.900002       41.900002
  H2        41.000000       41.099998       41.320000
  C8        40.880001       43.220001       41.650002
  H3        40.360001       43.430000       40.669998
  C9        41.250000       44.290001       42.480000
  H4        40.919998       45.209999       42.160000
  C10       42.380001       47.490002       43.049999
  H5        42.029999       47.230000       42.040001
  C11       42.619999       48.840000       43.320000
  H6        42.509998       49.599998       42.470001
  C12       43.290001       49.200001       44.500000
  H7        43.119999       50.189999       44.930000
  C13       43.840000       48.240002       45.380001
  H8        44.230000       48.590000       46.320000
  C6        45.049999       45.880001       46.869999
  C1        46.380001       45.919998       46.490002
  H1        46.580002       45.730000       45.470001
  C2        47.459999       46.160000       47.310001
  H2        48.470001       46.110001       46.900002
  C3        47.160000       46.139999       48.660000
  H3        48.009998       46.099998       49.400002
  C4        45.820000       46.080002       49.139999
  H4        45.529999       46.029999       50.220001
  C5        44.740002       45.990002       48.240002
  H5        43.790001       45.599998       48.610001
  C1        39.330002       42.340000       47.400002
  C2        39.750000       41.040001       47.299999
  N1        40.270000       43.090000       46.669998
  C3c       41.299999       42.380001       46.189999
  N2        40.990002       41.110001       46.549999
  C4        41.950001       40.070000       46.250000
  C5c       43.200001       40.509998       45.750000
  C6        44.209999       39.610001       45.410000
  H1        45.139999       39.950001       44.880001
  C7        44.049999       38.259998       45.590000
  H2        44.810001       37.639999       45.119999
  C8        42.830002       37.770000       46.020000
  H3        42.689999       36.750000       46.189999
  C9        41.830002       38.619999       46.330002
  H4        40.889999       38.230000       46.570000
  C10       38.919998       40.000000       47.889999
  H5        39.270000       38.990002       47.799999
  C11       37.630001       40.330002       48.389999
  H6        37.240002       39.480000       48.950001
  C12       37.180000       41.630001       48.410000
  H7        36.209999       41.970001       48.720001
  C13       38.020000       42.650002       47.930000
  H8        37.639999       43.590000       47.660000
  C6        40.330002       44.529999       46.830002
  C1        41.200001       45.200001       47.730000
  H1        41.910000       44.560001       48.230000
  C2        41.360001       46.590000       47.660000
  H2        41.980000       47.060001       48.310001
  C3        40.639999       47.349998       46.680000
  H3        40.880001       48.410000       46.590000
  C4        39.759998       46.700001       45.790001
  H4        39.369999       47.180000       44.930000
  C5        39.599998       45.299999       45.910000
  H5        38.990002       44.740002       45.189999
  IR        39.320000       33.709999       45.799999
  C1        39.150002       30.530001       42.799999
  C2        38.849998       29.950001       43.980000
  N1        39.450001       31.860001       43.090000
  C3a       39.259998       32.130001       44.439999
  N2        38.849998       30.910000       44.959999
  C4        38.189999       30.980000       46.240002
  C5a       38.430000       32.169998       46.910000
  C6        37.860001       32.349998       48.130001
  H1        37.750000       33.290001       48.580002
  C7        37.070000       31.389999       48.730000
  H2        36.599998       31.530001       49.790001
  C8        36.790001       30.209999       48.099998
  H3        36.150002       29.469999       48.459999
  C9        37.360001       29.969999       46.880001
  H4        37.220001       28.980000       46.450001
  C10       38.740002       28.549999       44.060001
  H5        38.439999       28.230000       44.990002
  C11       38.869999       27.709999       42.950001
  H6        38.730000       26.610001       43.040001
  C12       39.270000       28.330000       41.779999
  H7        39.180000       27.799999       40.830002
  C13       39.330002       29.730000       41.689999
  H8        39.709999       29.950001       40.709999
  C6        39.990002       32.720001       42.099998
  C1        39.139999       33.369999       41.220001
  H1        38.200001       32.880001       40.860001
  C2        39.709999       34.220001       40.290001
  H2        39.119999       34.990002       39.810001
  C3        41.099998       34.250000       40.119999
  H3        41.459999       34.939999       39.369999
  C4        42.000000       33.490002       40.939999
  H4        43.020000       33.799999       41.009998
  C5        41.400002       32.770000       41.950001
  H5        42.020000       32.200001       42.650002
  C1        35.590000       35.900002       45.200001
  C2        36.110001       36.540001       46.279999
  N1        36.389999       34.759998       44.889999
  C3b       37.500000       34.669998       45.689999
  N2        37.259998       35.770000       46.599998
  C4        38.240002       35.869999       47.570000
  C5b       39.430000       35.150002       47.389999
  C6        40.450001       35.279999       48.389999
  H1        41.230000       34.570000       48.369999
  C7        40.340000       36.220001       49.430000
  H2        41.090000       36.200001       50.230000
  C8        39.160000       36.950001       49.549999
  H3        39.119999       37.610001       50.430000
  C9        38.070000       36.750000       48.700001
  H4        37.060001       36.930000       49.040001
  C10       35.549999       37.770000       46.680000
  H5        35.919998       38.250000       47.610001
  C11       34.419998       38.310001       46.040001
  H6        33.950001       39.169998       46.430000
  C12       33.980000       37.689999       44.860001
  H7        33.209999       38.310001       44.320000
  C13       34.540001       36.470001       44.470001
  H8        34.070000       35.900002       43.680000
  C6        35.930000       33.669998       44.150002
  C1        35.669998       32.459999       44.759998
  H1        35.549999       32.599998       45.849998
  C2        35.380001       31.320000       43.980000
  H2        35.060001       30.389999       44.349998
  C3        35.470001       31.400000       42.590000
  H3        35.250000       30.520000       41.959999
  C4        35.730000       32.660000       41.930000
  H4        35.840000       32.720001       40.849998
  C5        35.919998       33.750000       42.759998
  H5        35.779999       34.740002       42.340000
  C1        41.639999       36.470001       43.360001
  C2        42.540001       35.480000       43.730000
  N1        40.450001       36.099998       43.880001
  C3c       40.549999       35.009998       44.740002
  N2        41.860001       34.610001       44.610001
  C4        42.160000       33.340000       45.139999
  C5c       41.290001       32.959999       46.130001
  C6        41.660000       31.969999       47.060001
  H1        41.009998       31.639999       47.849998
  C7        42.919998       31.400000       46.990002
  H2        43.270000       30.719999       47.779999
  C8        43.770000       31.709999       45.970001
  H3        44.759998       31.299999       45.860001
  C9        43.410000       32.689999       45.070000
  H4        44.090000       33.020000       44.259998
  C10       43.930000       35.570000       43.320000
  H5        44.630001       34.860001       43.590000
  C11       44.290001       36.639999       42.520000
  H6        45.270000       36.950001       42.240002
  C12       43.349998       37.540001       42.060001
  H7        43.709999       38.430000       41.520000
  C13       42.040001       37.459999       42.419998
  H8        41.230000       38.160000       42.049999
  C6        39.200001       36.840000       43.619999
  C1        38.740002       37.770000       44.560001
  H1        39.020000       37.799999       45.610001
  C2        37.639999       38.549999       44.200001
  H2        37.779999       39.570000       44.520000
  C3        36.840000       38.290001       43.119999
  H3        35.860001       38.779999       43.020000
  C4        37.169998       37.310001       42.230000
  H4        36.349998       36.889999       41.680000
  C5        38.400002       36.660000       42.450001
  H5        38.799999       36.209999       41.549999
