206
 generated by VMD
 Ir        6.450343      -79.519852      -51.130280
 C         6.223749      -78.868294      -46.808388
 C         5.562210      -77.782196      -47.371307
 N         6.718408      -79.616440      -47.904102
 C         6.436201      -79.039444      -49.126205
 N         5.662868      -77.881180      -48.776108
 C         4.987282      -77.220123      -49.821045
 C         5.068205      -77.901550      -51.032822
 C         4.432872      -77.320160      -52.180878
 H         4.242325      -77.843979      -53.128727
 C         3.674033      -76.116714      -52.083069
 H         3.784435      -75.620422      -53.008118
 C         3.678912      -75.397713      -50.860031
 H         3.407336      -74.350037      -50.856068
 C         4.389763      -75.890053      -49.785233
 H         4.767849      -75.255249      -48.975990
 C         4.737596      -76.903305      -46.550972
 H         4.566870      -75.932266      -46.979851
 C         4.571788      -77.146423      -45.169159
 H         3.928820      -76.543869      -44.535728
 C         5.339152      -78.209000      -44.629646
 H         5.628597      -78.141083      -43.607147
 C         6.174608      -79.020714      -45.410374
 H         6.731990      -79.774307      -44.958786
 C         7.721334      -80.579063      -47.805637
 C         8.957035      -80.026749      -48.025372
 H         9.006951      -79.038361      -48.541527
 C        10.093215      -80.732979      -47.630749
 H        11.120273      -80.443161      -47.711685
 C         9.907301      -81.943199      -47.016663
 H        10.919129      -82.457611      -46.936111
 C         8.648653      -82.534592      -46.820305
 H         8.500277      -83.373047      -46.107361
 C         7.480210      -81.867439      -47.220604
 H         6.466570      -82.275932      -47.121307
 C         2.731056      -81.853516      -51.415440
 C         3.186152      -81.769394      -52.712791
 N         3.665968      -81.261917      -50.584328
 C         4.735099      -80.753738      -51.332466
 N         4.411558      -81.095116      -52.621529
 C         5.324950      -80.771469      -53.609840
 C         6.219977      -79.724113      -53.240448
 C         7.119420      -79.259933      -54.236107
 H         7.649806      -78.267670      -54.092545
 C         7.198169      -79.858612      -55.494232
 H         8.038750      -79.726929      -56.068848
 C         6.417857      -80.919891      -55.803246
 H         6.285830      -81.070419      -56.799393
 C         5.431692      -81.365433      -54.830635
 H         4.733048      -82.065903      -55.198364
 C         2.484752      -82.373398      -53.816513
 H         2.650610      -82.123840      -54.802780
 C         1.350054      -83.055229      -53.543617
 H         0.756482      -83.524666      -54.319374
 C         0.929985      -83.268921      -52.205231
 H         0.129545      -83.977081      -52.118019
 C         1.623027      -82.649353      -51.196312
 H         1.204848      -82.696114      -50.207249
 C         3.370609      -80.944519      -49.259407
 C         2.920080      -79.656342      -48.942810
 H         2.764770      -78.974403      -49.759102
 C         2.808098      -79.321609      -47.634377
 H         2.584404      -78.294022      -47.288788
 C         3.098768      -80.253235      -46.679031
 H         3.034415      -79.895187      -45.695847
 C         3.328076      -81.541611      -46.987762
 H         3.263233      -82.267487      -46.185638
 C         3.550129      -81.959030      -48.317364
 H         4.216327      -82.772186      -48.531738
 C         9.811366      -82.354599      -51.440514
 C        10.381474      -81.142075      -51.242142
 N         8.322671      -82.142029      -51.489548
 C         8.061277      -80.808472      -51.344620
 N         9.267050      -80.154495      -51.195885
 C         9.310359      -78.714615      -51.365196
 C         8.076530      -78.130005      -51.178383
 C         8.033178      -76.733795      -51.065590
 H         7.088628      -76.241119      -51.009026
 C         9.144611      -75.911423      -51.328133
 H         9.041580      -74.854218      -51.325859
 C        10.338683      -76.511734      -51.603683
 H        11.187198      -75.878632      -51.993309
 C        10.434703      -77.848503      -51.632248
 H        11.279475      -78.380447      -51.978645
 C        11.816206      -81.112503      -50.950294
 H        12.318312      -80.151642      -51.081528
 C        12.593428      -82.267426      -50.835014
 H        13.709465      -82.278839      -50.722210
 C        11.864093      -83.489471      -51.049393
 H        12.474976      -84.318062      -50.773056
 C        10.541491      -83.556412      -51.316124
 H        10.150788      -84.551682      -51.510475
 C         7.365649      -83.178360      -51.529953
 C         6.675111      -83.493919      -50.401733
 H         6.972244      -82.879471      -49.556000
 C         5.792235      -84.562958      -50.391815
 H         5.287710      -84.834709      -49.459503
 C         5.568255      -85.300865      -51.560665
 H         4.969384      -86.238419      -51.480362
 C         6.291067      -85.014984      -52.773605
 H         6.276333      -85.641647      -53.572411
 C         7.212114      -83.933411      -52.752136
 H         7.632587      -83.543045      -53.706085
 Ir        6.450342      -79.519852      -38.191029
 C         8.834641      -82.365234      -36.031994
 C         8.562133      -82.931412      -37.226387
 N         8.361388      -81.028854      -36.111580
 C         7.723963      -80.842621      -37.328545
 N         7.891394      -81.975098      -38.076668
 C         7.537001      -81.883942      -39.472366
 C         6.831581      -80.833710      -39.821068
 C         6.693515      -80.486252      -41.215919
 H         6.063138      -79.665466      -41.468613
 C         7.244079      -81.301445      -42.203102
 H         7.052364      -81.167809      -43.230667
 C         7.992860      -82.361008      -41.842880
 H         8.152637      -83.068695      -42.617630
 C         8.165589      -82.663162      -40.463688
 H         8.909371      -83.407288      -40.185204
 C         9.125366      -84.274094      -37.438457
 H         9.079295      -84.719681      -38.389366
 C         9.687206      -84.972710      -36.351688
 H        10.112130      -85.912552      -36.489647
 C         9.893538      -84.355042      -35.135620
 H        10.423741      -84.830505      -34.348015
 C         9.511624      -83.040344      -34.986320
 H         9.669968      -82.619629      -34.044128
 C         8.537885      -80.027145      -35.114628
 C         7.487200      -79.996414      -34.164673
 H         6.469682      -80.198959      -34.474236
 C         7.722423      -79.570770      -32.865597
 H         6.930701      -79.566452      -32.095753
 C         9.023557      -79.202400      -32.508457
 H         9.398709      -79.382736      -31.497349
 C         9.982614      -79.167656      -33.529243
 H        10.929370      -78.768356      -33.132622
 C         9.800874      -79.530777      -34.822773
 H        10.618861      -79.546005      -35.578793
 C         9.469249      -77.013031      -40.206924
 C         8.274315      -76.423950      -40.553368
 N         9.134171      -78.095184      -39.309734
 C         7.793911      -78.211899      -39.133736
 N         7.314307      -77.099144      -39.804298
 C         5.897819      -77.092659      -39.849236
 C         5.265329      -78.258102      -39.436302
 C         3.845931      -78.373497      -39.629677
 H         3.293771      -79.228104      -39.276169
 C         3.086484      -77.296860      -40.187622
 H         2.163880      -77.688354      -40.616730
 C         3.767514      -76.093857      -40.518501
 H         3.166851      -75.183960      -40.619949
 C         5.171745      -76.015961      -40.333111
 H         5.536191      -75.080246      -40.548103
 C         8.353510      -75.387314      -41.427036
 H         7.527208      -75.082275      -42.054077
 C         9.641675      -75.003769      -41.980774
 H         9.638675      -74.306061      -42.784702
 C        10.852571      -75.692795      -41.671143
 H        11.649467      -75.650238      -42.370453
 C        10.735045      -76.685707      -40.704636
 H        11.539498      -77.279839      -40.394218
 C        10.159770      -79.112457      -39.210632
 C        10.234354      -80.081131      -40.188431
 H         9.582067      -80.041550      -41.051598
 C        11.300608      -81.003113      -40.113136
 H        11.278000      -81.915436      -40.644863
 C        12.248049      -80.954895      -39.083313
 H        13.043884      -81.695938      -38.980843
 C        12.054337      -80.019112      -38.100410
 H        12.732160      -79.996185      -37.178608
 C        11.078401      -79.072052      -38.139473
 H        11.135801      -78.309509      -37.408619
 C         5.445062      -77.293594      -34.663227
 C         4.562470      -78.337677      -34.720959
 N         6.124948      -77.306076      -35.921360
 C         5.652179      -78.286118      -36.757835
 N         4.624797      -78.947327      -36.021629
 C         3.993927      -80.042953      -36.591003
 C         4.859753      -80.707886      -37.480053
 C         4.376510      -81.928299      -37.994324
 H         4.881727      -82.356155      -38.835869
 C         3.148101      -82.452446      -37.657745
 H         2.895310      -83.471100      -38.016815
 C         2.344457      -81.779633      -36.735970
 H         1.403461      -82.145767      -36.372414
 C         2.743624      -80.581154      -36.209446
 H         2.068976      -80.034828      -35.502289
 C         3.993623      -78.737427      -33.528687
 H         3.406219      -79.621918      -33.544052
 C         4.145163      -78.091721      -32.352760
 H         3.552933      -78.224579      -31.455313
 C         4.979343      -77.003967      -32.320511
 H         5.065765      -76.352226      -31.450075
 C         5.607108      -76.610390      -33.470470
 H         6.142448      -75.661934      -33.493809
 C         7.140034      -76.354202      -36.245918
 C         8.226807      -76.202873      -35.413971
 H         8.394437      -77.033234      -34.738106
 C         9.043988      -75.108948      -35.503677
 H         9.923003      -75.073471      -34.860195
 C         8.840326      -74.171021      -36.503628
 H         9.529147      -73.309845      -36.446182
 C         7.781833      -74.292664      -37.365891
 H         7.776453      -73.738708      -38.329277
 C         6.829953      -75.353882      -37.211475
 H         5.900377      -75.398743      -37.802467
