206
 generated by VMD
 Ir       47.503838       82.431747       35.597576
 C        45.537987       81.133408       31.909168
 C        44.875458       80.456673       32.927597
 N        46.576893       81.851974       32.548965
 C        46.627563       81.634186       33.911354
 N        45.509514       80.765366       34.150738
 C        45.121857       80.572098       35.491512
 C        45.816986       81.390617       36.378139
 C        45.523857       81.275658       37.778339
 H        45.838547       81.993782       38.549301
 C        44.500271       80.405365       38.256420
 H        44.812622       80.075325       39.209160
 C        43.867928       79.520966       37.344959
 H        43.354202       78.645493       37.720528
 C        44.232613       79.541138       36.014736
 H        44.107986       78.681580       35.346584
 C        43.609924       79.778976       32.673508
 H        43.365807       79.017471       33.392193
 C        43.014263       79.812370       31.392857
 H        42.051102       79.361458       31.176769
 C        43.773872       80.435593       30.371296
 H        43.637321       80.091309       29.372932
 C        45.017166       81.040482       30.605247
 H        45.542175       81.465645       29.813984
 C        47.683960       82.381760       31.888714
 C        48.726318       81.490822       31.882589
 H        48.706985       80.653870       32.620781
 C        49.777016       81.685555       30.986200
 H        50.649399       81.083069       30.840054
 C        49.695869       82.756035       30.135445
 H        50.702095       82.872231       29.616888
 C        48.651718       83.695038       30.158495
 H        48.471863       84.391838       29.312675
 C        47.584366       83.548370       31.058413
 H        46.747734       84.252548       31.149979
 C        44.888813       85.902481       36.287506
 C        45.752548       85.902321       37.360474
 N        45.264465       84.889450       35.422958
 C        46.364540       84.190559       35.935188
 N        46.639481       84.846619       37.108597
 C        47.736687       84.414078       37.833069
 C        48.129852       83.076569       37.531464
 C        49.181122       82.520355       38.306866
 H        49.346252       81.398201       38.302940
 C        49.870125       83.271523       39.260025
 H        50.798988       82.966888       39.573883
 C        49.560688       84.572052       39.468784
 H        49.849354       84.934311       40.373131
 C        48.435684       85.144684       38.745285
 H        48.127953       86.094864       39.086540
 C        45.689270       86.896187       38.401257
 H        46.137276       86.786003       39.323021
 C        44.750824       87.862793       38.292152
 H        44.628086       88.637009       39.040493
 C        43.936577       87.963303       37.134438
 H        43.371948       88.873734       37.088627
 C        44.023392       86.974884       36.187019
 H        43.296822       86.983208       35.394974
 C        44.429802       84.459671       34.392414
 C        43.578926       83.367096       34.604298
 H        43.566055       82.936592       35.589184
 C        42.909637       82.861877       33.539688
 H        42.317711       81.927490       33.583878
 C        43.056328       83.451920       32.316814
 H        42.543655       82.967224       31.541424
 C        43.706810       84.618538       32.162895
 H        43.539639       85.167038       31.243279
 C        44.503494       85.166428       33.190762
 H        45.386902       85.728821       32.957726
 C        51.349525       83.960663       34.080467
 C        51.473167       82.611847       34.077744
 N        49.983551       84.279701       34.624649
 C        49.353271       83.111626       34.950294
 N        50.206673       82.071045       34.646008
 C        49.937126       80.757431       35.198769
 C        48.615868       80.604080       35.558983
 C        48.176018       79.309738       35.867565
 H        47.184837       79.166161       36.235043
 C        49.053680       78.219460       36.014210
 H        48.688637       77.278160       36.344364
 C        50.376244       78.416718       35.742149
 H        51.114792       77.613373       36.028137
 C        50.816719       79.623184       35.358208
 H        51.835938       79.888870       35.273224
 C        52.638954       82.044159       33.397175
 H        52.888374       81.009827       33.643219
 C        53.587784       82.825241       32.733215
 H        54.545654       82.435875       32.298145
 C        53.330322       84.239883       32.794743
 H        53.987125       84.747459       32.126106
 C        52.265007       84.799416       33.408691
 H        52.244144       85.885925       33.416893
 C        49.410721       85.569214       34.647667
 C        48.458778       85.893417       33.732246
 H        48.253632       85.073654       33.048866
 C        47.941994       87.178879       33.678173
 H        47.217209       87.434441       32.899086
 C        48.363556       88.145584       34.599396
 H        48.040535       89.200439       34.434978
 C        49.383236       87.852982       35.574089
 H        49.826363       88.579529       36.127953
 C        49.919289       86.537323       35.591866
 H        50.546471       86.204750       36.449326
 Ir       47.503838       82.431747       50.067078
 C        50.687328       83.005081       47.163910
 C        49.589111       82.700050       46.336040
 N        50.208652       83.189545       48.456295
 C        48.857784       82.931900       48.595490
 N        48.489548       82.723671       47.286617
 C        47.137215       82.420891       47.098919
 C        46.552197       81.855354       48.300179
 C        45.424332       81.093842       48.221939
 H        45.061344       80.475067       49.042580
 C        44.695137       81.017212       47.044563
 H        43.610764       80.810623       47.037552
 C        45.228523       81.556610       45.870705
 H        44.786026       81.304192       44.898037
 C        46.433594       82.312729       45.848392
 H        46.711552       82.924591       45.032448
 C        49.808685       82.356171       44.972618
 H        48.967083       82.196793       44.278275
 C        51.074932       82.368073       44.494217
 H        51.217010       82.386627       43.410854
 C        52.195034       82.660797       45.253029
 H        53.183788       82.422493       44.918098
 C        51.944130       82.984055       46.636265
 H        52.796574       83.115997       47.273777
 C        51.086113       83.594589       49.543900
 C        51.142227       84.957062       49.840057
 H        50.264378       85.486969       49.589088
 C        52.170021       85.469482       50.656429
 H        52.109390       86.496796       50.858063
 C        53.004852       84.613747       51.373215
 H        53.347557       84.936157       52.366943
 C        52.973717       83.234795       51.079224
 H        53.765709       82.520782       51.335808
 C        52.037041       82.758186       50.176739
 H        51.993134       81.743073       50.165695
 C        44.790001       85.902657       50.373825
 C        44.056000       84.812721       50.874214
 N        46.057407       85.325302       49.879208
 C        46.094070       83.972214       50.062538
 N        44.914734       83.659431       50.713333
 C        44.788063       82.300613       51.167385
 C        46.010254       81.614365       51.290352
 C        46.067177       80.476593       52.093300
 H        46.961411       79.890411       52.281300
 C        44.916016       79.927643       52.608334
 H        44.890656       79.030304       53.233753
 C        43.710293       80.523262       52.437248
 H        42.731232       80.062393       52.791283
 C        43.621536       81.732376       51.759186
 H        42.653549       82.112457       51.593239
 C        42.745342       85.027428       51.371990
 H        41.987091       84.279633       51.660355
 C        42.145958       86.281296       51.245251
 H        41.086151       86.522415       51.405128
 C        42.915207       87.342392       50.765511
 H        42.616844       88.404045       50.738007
 C        44.237423       87.159225       50.374374
 H        44.842770       88.045593       50.225708
 C        46.838135       85.908714       48.819302
 C        46.672436       85.552238       47.509811
 H        45.988255       84.694817       47.402454
 C        47.434113       86.135590       46.530762
 H        47.419930       85.656738       45.590816
 C        48.465912       87.056259       46.849922
 H        49.200180       87.455399       46.125252
 C        48.625130       87.482788       48.166592
 H        49.057251       88.460899       48.359356
 C        47.837791       86.854057       49.189041
 H        47.946487       87.188721       50.158569
 C        50.135345       83.431244       53.315952
 C        50.462578       82.125305       52.953072
 N        49.001534       83.768936       52.661949
 C        48.545303       82.774673       51.838905
 N        49.463921       81.669281       52.044662
 C        49.228264       80.488266       51.320450
 C        48.611637       80.676819       50.122776
 C        48.513199       79.586594       49.291195
 H        48.162979       79.816353       48.335651
 C        49.133591       78.397217       49.573814
 H        49.483437       77.741272       48.767746
 C        49.686703       78.174255       50.826996
 H        49.638176       77.175392       51.224258
 C        49.736603       79.234177       51.757198
 H        50.128464       79.051132       52.726295
 C        51.596046       81.407196       53.487999
 H        52.056019       80.479103       53.082443
 C        52.303677       82.104790       54.465302
 H        52.990219       81.552567       55.137463
 C        52.003693       83.438263       54.723309
 H        52.599716       83.870796       55.525719
 C        50.885376       84.091789       54.261169
 H        50.599117       85.087280       54.653275
 C        48.278458       85.027969       52.985962
 C        48.871712       86.272949       52.656597
 H        49.836922       86.254562       52.049122
 C        48.176991       87.449631       52.904366
 H        48.697731       88.382721       52.655407
 C        46.870003       87.422607       53.368206
 H        46.316299       88.341194       53.489471
 C        46.216583       86.261383       53.689640
 H        45.238590       86.169983       54.117165
 C        46.952301       85.108032       53.515862
 H        46.594902       84.136490       53.897274
