206
 generated by VMD
  IR         5.440000       18.180000       27.629999
  C1         3.360000       14.350000       27.410000
  C2         2.760000       15.110000       26.430000
  N1         4.540000       14.980000       27.809999
  C3a        4.660000       16.290001       27.250000
  N2         3.590000       16.250000       26.280001
  C4         3.560000       17.389999       25.450001
  C5a        4.380000       18.480000       25.879999
  C6         4.350000       19.620001       25.090000
  H1         4.970000       20.459999       25.420000
  C7         3.620000       19.629999       23.860001
  H2         3.960000       20.379999       23.170000
  C8         2.920000       18.490000       23.450001
  H3         2.540000       18.430000       22.410000
  C9         2.900000       17.330000       24.180000
  H4         2.520000       16.379999       23.750000
  C10        1.570000       14.670000       25.740000
  H5         0.920000       15.220000       25.090000
  C11        1.020000       13.450000       26.080000
  H6         0.150000       13.080000       25.510000
  C12        1.540000       12.700000       27.100000
  H7         1.170000       11.690000       27.219999
  C13        2.700000       13.090000       27.809999
  H8         3.180000       12.370000       28.510000
  C6         5.670000       14.280000       28.350000
  C1         6.370000       13.450000       27.459999
  H1         6.400000       13.720000       26.400000
  C2         7.440000       12.720000       27.930000
  H2         7.750000       12.030000       27.170000
  C3         7.810000       12.750000       29.250000
  H3         8.450000       11.990000       29.590000
  C4         7.040000       13.480000       30.170000
  H4         7.310000       13.450000       31.240000
  C5         5.980000       14.270000       29.660000
  H5         5.500000       14.880000       30.320000
  C1         9.330000       18.490000       25.680000
  C2         9.200000       19.639999       26.280001
  N1         8.160000       17.760000       25.809999
  C3b        7.220000       18.410000       26.580000
  N2         7.870000       19.629999       26.830000
  C4         7.210000       20.600000       27.690001
  C5b        5.840000       20.230000       27.950001
  C6         5.090000       21.040001       28.799999
  H1         4.010000       20.809999       28.860001
  C7         5.670000       22.180000       29.360001
  H2         4.940000       22.860001       29.809999
  C8         7.040000       22.520000       29.110001
  H3         7.400000       23.420000       29.570000
  C9         7.780000       21.709999       28.260000
  H4         8.770000       22.000000       28.190001
  C10       10.310000       20.600000       26.230000
  H5        10.130000       21.600000       26.620001
  C11       11.470000       20.280001       25.520000
  H6        12.220000       21.030001       25.670000
  C12       11.540000       19.120001       24.790001
  H7        12.570000       18.830000       24.559999
  C13       10.520000       18.200001       24.930000
  H8        10.660000       17.190001       24.510000
  C6         7.750000       16.750000       24.860001
  C1         6.640000       16.910000       24.049999
  H1         6.490000       17.879999       23.600000
  C2         6.080000       15.890000       23.309999
  H2         5.430000       16.139999       22.410000
  C3         6.540000       14.560000       23.459999
  H3         6.270000       13.750000       22.680000
  C4         7.640000       14.410000       24.370001
  H4         8.150000       13.500000       24.379999
  C5         8.300000       15.470000       25.000000
  H5         9.300000       15.190000       25.370001
  C1         7.120000       17.450001       31.670000
  C2         5.770000       17.400000       31.860001
  N1         7.380000       17.790001       30.309999
  C3c        6.180000       17.959999       29.580000
  N2         5.230000       17.700001       30.520000
  C4         3.930000       17.629999       30.129999
  C5c        3.740000       18.190001       28.840000
  C6         2.440000       18.309999       28.340000
  H1         2.260000       18.969999       27.549999
  C7         1.300000       17.889999       29.110001
  H2         0.360000       18.010000       28.709999
  C8         1.550000       17.330000       30.350000
  H3         0.700000       17.020000       30.860001
  C9         2.780000       17.209999       30.930000
  H4         2.940000       16.520000       31.719999
  C10        5.210000       17.240000       33.139999
  H5         4.180000       17.540001       33.419998
  C11        6.090000       16.940001       34.189999
  H6         5.690000       16.879999       35.250000
  C12        7.460000       16.850000       33.900002
  H7         8.210000       16.799999       34.730000
  C13        8.020000       17.240000       32.680000
  H8         9.080000       17.059999       32.540001
  C6         8.630000       17.690001       29.639999
  C1         8.830000       16.559999       28.870001
  H1         7.970000       15.980000       28.549999
  C2        10.170000       16.309999       28.400000
  H2        10.310000       15.480000       27.680000
  C3        11.200000       17.190001       28.700001
  H3        12.260000       16.969999       28.530001
  C4        10.940000       18.350000       29.459999
  H4        11.730000       19.090000       29.469999
  C5         9.650000       18.590000       29.940001
  H5         9.440000       19.459999       30.629999
  IR         9.800000       31.309999       33.560001
  C1         6.110000       32.619999       35.490002
  C2         7.020000       32.459999       36.470001
  N1         6.880000       32.560001       34.200001
  C3a        8.210000       32.310001       34.450001
  N2         8.280000       32.189999       35.900002
  C4         9.470000       31.480000       36.419998
  C5a       10.010000       30.530001       35.520000
  C6        10.800000       29.459999       35.980000
  H1        11.160000       28.690001       35.279999
  C7        11.120000       29.430000       37.439999
  H2        12.000000       28.940001       37.759998
  C8        10.670000       30.420000       38.270000
  H3        10.830000       30.430000       39.380001
  C9         9.840000       31.410000       37.790001
  H4         9.720000       32.220001       38.480000
  C10        6.610000       32.570000       37.750000
  H5         7.220000       32.570000       38.580002
  C11        5.300000       32.680000       38.090000
  H6         5.020000       32.750000       39.099998
  C12        4.270000       32.880001       37.110001
  H7         3.170000       32.750000       37.259998
  C13        4.750000       32.980000       35.779999
  H8         4.050000       33.320000       35.049999
  C6         6.490000       33.480000       33.110001
  C1         6.480000       33.080002       31.760000
  H1         6.730000       32.070000       31.629999
  C2         6.150000       34.009998       30.730000
  H2         6.060000       33.709999       29.670000
  C3         5.950000       35.299999       31.100000
  H3         6.060000       36.070000       30.340000
  C4         5.790000       35.689999       32.400002
  H4         5.460000       36.619999       32.680000
  C5         6.130000       34.790001       33.410000
  H5         6.020000       34.970001       34.459999
  C1        13.000000       34.189999       33.810001
  C2        13.460000       33.189999       33.049999
  N1        11.740000       33.790001       34.340000
  C3b       11.430000       32.490002       33.950001
  N2        12.510000       32.150002       33.160000
  C4        12.610000       30.760000       32.840000
  C5b       11.410000       30.090000       32.900002
  C6        11.450000       28.709999       32.759998
  H1        10.490000       28.180000       32.680000
  C7        12.710000       28.020000       32.560001
  H2        12.710000       26.969999       32.380001
  C8        13.930000       28.709999       32.529999
  H3        14.880000       28.180000       32.349998
  C9        13.860000       30.059999       32.730000
  H4        14.790000       30.549999       32.970001
  C10       14.620000       33.389999       32.290001
  H5        15.100000       32.549999       31.730000
  C11       15.310000       34.560001       32.430000
  H6        16.280001       34.740002       31.910000
  C12       14.850000       35.619999       33.180000
  H7        15.350000       36.549999       33.279999
  C13       13.670000       35.380001       33.849998
  H8        13.240000       36.330002       34.209999
  C6        11.110000       34.549999       35.330002
  C1        10.190000       35.459999       34.880001
  H1        10.200000       35.650002       33.849998
  C2         9.480000       36.230000       35.790001
  H2         8.760000       36.900002       35.400002
  C3         9.690000       36.240002       37.139999
  H3         9.170000       36.939999       37.689999
  C4        10.670000       35.349998       37.570000
  H4        10.940000       35.340000       38.590000
  C5        11.320000       34.470001       36.700001
  H5        11.860000       33.590000       37.060001
  C1         8.990000       32.419998       29.490000
  C2         8.450000       31.180000       29.549999
  N1         9.610000       32.709999       30.680000
  C3c        9.500000       31.709999       31.549999
  N2         8.820000       30.750000       30.830000
  C4         8.300000       29.660000       31.600000
  C5c        8.370000       29.870001       33.000000
  C6         7.760000       28.889999       33.840000
  H1         7.700000       29.110001       34.889999
  C7         7.030000       27.820000       33.290001
  H2         6.650000       27.030001       33.950001
  C8         6.920000       27.660000       31.879999
  H3         6.240000       26.900000       31.530001
  C9         7.610000       28.580000       31.120001
  H4         7.900000       28.280001       30.080000
  C10        7.610000       30.740000       28.500000
  H5         7.270000       29.650000       28.410000
  C11        7.350000       31.530001       27.420000
  H6         6.570000       31.219999       26.750000
  C12        8.000000       32.730000       27.340000
  H7         7.820000       33.349998       26.469999
  C13        8.900000       33.220001       28.330000
  H8         9.220000       34.290001       28.240000
  C6        10.370000       33.880001       30.809999
  C1        11.650000       33.830002       30.240000
  H1        12.070000       32.910000       29.860001
  C2        12.370000       35.000000       29.980000
  H2        13.190000       35.000000       29.280001
  C3        11.840000       36.200001       30.510000
  H3        12.160000       37.130001       30.100000
  C4        10.630000       36.230000       31.219999
  H4        10.240000       37.240002       31.320000
  C5         9.850000       35.049999       31.350000
  H5         8.740000       35.169998       31.540001
