206
 generated by VMD
 Ir       28.918724      -13.230991      -61.483681
 C        29.592197      -14.937720      -65.453049
 C        29.852673      -13.587004      -65.580803
 N        29.072514      -15.103465      -64.158615
 C        29.156673      -13.926273      -63.419880
 N        29.668575      -12.973627      -64.321724
 C        29.517775      -11.554236      -63.929440
 C        29.143242      -11.398444      -62.605938
 C        28.985125      -10.126394      -62.036915
 H        29.093676      -10.034300      -60.979637
 C        29.247969       -9.001726      -62.858276
 H        29.078768       -8.045606      -62.409939
 C        29.589518       -9.082603      -64.181793
 H        29.704369       -8.149822      -64.677002
 C        29.696394      -10.351849      -64.742676
 H        30.187534      -10.469572      -65.738235
 C        30.222534      -13.149481      -66.794052
 H        30.390373      -12.106521      -66.932114
 C        30.343416      -13.962842      -67.878456
 H        30.692032      -13.506560      -68.752747
 C        30.035046      -15.307951      -67.759331
 H        29.937908      -15.866199      -68.719292
 C        29.690342      -15.803802      -66.515015
 H        29.512058      -16.935459      -66.399841
 C        27.994238      -16.034664      -64.016556
 C        26.718103      -15.578069      -64.308266
 H        26.511356      -14.622700      -64.857925
 C        25.658840      -16.454140      -64.004028
 H        24.683569      -16.158749      -64.262657
 C        25.780689      -17.651077      -63.279049
 H        25.022547      -18.343910      -63.206223
 C        27.131029      -18.052309      -62.969227
 H        27.239214      -18.844147      -62.322399
 C        28.206051      -17.206684      -63.311211
 H        29.152784      -17.482609      -63.066959
 C        33.112541      -12.490967      -60.361637
 C        32.356750      -12.342875      -59.175194
 N        32.221100      -12.890341      -61.352161
 C        30.878471      -12.923355      -60.873966
 N        31.014536      -12.529430      -59.587688
 C        29.743818      -12.202366      -58.903652
 C        28.590546      -12.249756      -59.648914
 C        27.418255      -11.631124      -59.182831
 H        26.588892      -11.567940      -59.892662
 C        27.440491      -11.045709      -57.905140
 H        26.511314      -10.565694      -57.580765
 C        28.515625      -11.162169      -57.017937
 H        28.605633      -10.725870      -56.097698
 C        29.669220      -11.722310      -57.597290
 H        30.502838      -11.810337      -56.950424
 C        32.980141      -11.988047      -57.977161
 H        32.407761      -11.939472      -57.039223
 C        34.345856      -11.759195      -57.922798
 H        34.695801      -11.642262      -56.914604
 C        35.078842      -11.785180      -59.135132
 H        36.087715      -11.414438      -59.140198
 C        34.458763      -12.173261      -60.349998
 H        34.877388      -12.002541      -61.311771
 C        32.643089      -13.415020      -62.692097
 C        32.398293      -14.756298      -63.132381
 H        32.057327      -15.600383      -62.506397
 C        33.010239      -15.173285      -64.320938
 H        33.034218      -16.226673      -64.605713
 C        33.718178      -14.298516      -65.202637
 H        33.993729      -14.568558      -66.213013
 C        33.870674      -13.009880      -64.747818
 H        34.266418      -12.196403      -65.350098
 C        33.384377      -12.570936      -63.500687
 H        33.638908      -11.545746      -63.111332
 C        27.785938      -16.908842      -59.485184
 C        26.620188      -16.451771      -60.065022
 N        28.808729      -15.999440      -59.797089
 C        28.275522      -14.940879      -60.484142
 N        26.884363      -15.188962      -60.618397
 C        26.140278      -14.105721      -61.068974
 C        26.840538      -13.175586      -61.895226
 C        26.051914      -12.429755      -62.804901
 H        26.631578      -11.879723      -63.509991
 C        24.688740      -12.519993      -62.829601
 H        24.185757      -12.223729      -63.739567
 C        24.050934      -13.239718      -61.842335
 H        23.011093      -13.374502      -61.929268
 C        24.772120      -14.068639      -60.960018
 H        24.331059      -14.510900      -60.119743
 C        25.413153      -17.155346      -59.964272
 H        24.519287      -16.659969      -60.405872
 C        25.422218      -18.396593      -59.221493
 H        24.486731      -18.773653      -58.862766
 C        26.586044      -18.801102      -58.573582
 H        26.633682      -19.510086      -57.722130
 C        27.776985      -18.075253      -58.709610
 H        28.644678      -18.296444      -58.060322
 C        30.122335      -16.112463      -59.350929
 C        30.973845      -16.893757      -60.158833
 H        30.537735      -17.374285      -60.994473
 C        32.371185      -17.026012      -59.842361
 H        32.965431      -17.557484      -60.635967
 C        32.845322      -16.435223      -58.682377
 H        33.920410      -16.419744      -58.590469
 C        31.957771      -15.751199      -57.760719
 H        32.214443      -15.625934      -56.716053
 C        30.601175      -15.535617      -58.156544
 H        29.945374      -14.889817      -57.642471
 Ir       28.918722      -13.230991      -50.350937
 C        24.947432      -11.259040      -49.924862
 C        25.583469      -11.037455      -48.674999
 N        25.815226      -12.093212      -50.648869
 C        27.035986      -12.328500      -50.044815
 N        26.836023      -11.687401      -48.772331
 C        27.783375      -12.131084      -47.852020
 C        29.006973      -12.680406      -48.326099
 C        29.950943      -13.162949      -47.389099
 H        30.916786      -13.459961      -47.705372
 C        29.668940      -13.054506      -46.007317
 H        30.421783      -13.306223      -45.296570
 C        28.381300      -12.654856      -45.553162
 H        28.104511      -12.717725      -44.497307
 C        27.452181      -12.175116      -46.481705
 H        26.628603      -11.653912      -45.998100
 C        25.031012      -10.115139      -47.789772
 H        25.507227       -9.834516      -46.866207
 C        23.858131       -9.483637      -48.216568
 H        23.590092       -8.546985      -47.695763
 C        23.075550       -9.749688      -49.353970
 H        21.968252       -9.565739      -49.299625
 C        23.664589      -10.702610      -50.207184
 H        23.262363      -10.686378      -51.209503
 C        25.529881      -12.287233      -51.973270
 C        24.470955      -13.092575      -52.367096
 H        23.853947      -13.545578      -51.623402
 C        24.278934      -13.364313      -53.703766
 H        23.493156      -14.009323      -53.956589
 C        25.239481      -12.794811      -54.609978
 H        25.177757      -13.045146      -55.612785
 C        26.318943      -12.067186      -54.195217
 H        26.814205      -11.514271      -54.916676
 C        26.502953      -11.748257      -52.876122
 H        27.439489      -11.422613      -52.485542
 C        31.454142       -9.712211      -51.105682
 C        32.352188      -10.791860      -51.136852
 N        30.184143      -10.221884      -50.853813
 C        30.221397      -11.625715      -50.651653
 N        31.553871      -11.906775      -50.790649
 C        31.843580      -13.302273      -50.709717
 C        30.782698      -14.153663      -50.264454
 C        30.965971      -15.546595      -50.031322
 H        30.189802      -16.115150      -49.684757
 C        32.170441      -16.160328      -50.185894
 H        32.372482      -17.101757      -49.670639
 C        33.224487      -15.353325      -50.622047
 H        34.244598      -15.819953      -50.747047
 C        33.071629      -13.963038      -50.933075
 H        33.949539      -13.439110      -51.201168
 C        33.681328      -10.581846      -51.355453
 H        34.410675      -11.356623      -51.202248
 C        34.180649       -9.239462      -51.586067
 H        35.261177       -9.142906      -51.819576
 C        33.369934       -8.134737      -51.652592
 H        33.851418       -7.186001      -51.970520
 C        31.989521       -8.378002      -51.425926
 H        31.291437       -7.514686      -51.486488
 C        29.027664       -9.393597      -51.220551
 C        28.839947       -8.969303      -52.499592
 H        29.688065       -9.140696      -53.170349
 C        27.631645       -8.293333      -52.955849
 H        27.548016       -7.800444      -53.910294
 C        26.634325       -8.011366      -52.033867
 H        25.620758       -7.818295      -52.424637
 C        26.888540       -8.360981      -50.681332
 H        26.045712       -8.097853      -50.119457
 C        28.011097       -9.122766      -50.268478
 H        28.161423       -9.324644      -49.240105
 C        28.238350      -14.775570      -54.348656
 C        27.561050      -15.647534      -53.496162
 N        29.013195      -13.976387      -53.517380
 C        28.762589      -14.178503      -52.187248
 N        27.892164      -15.270512      -52.167812
 C        27.588490      -15.852414      -50.905842
 C        27.864239      -15.000590      -49.819351
 C        27.793167      -15.585533      -48.529358
 H        27.780788      -15.035461      -47.592625
 C        27.354189      -16.930721      -48.311028
 H        27.531172      -17.465273      -47.368782
 C        26.993988      -17.710276      -49.438080
 H        26.884354      -18.814369      -49.268795
 C        27.163116      -17.180935      -50.705872
 H        27.269585      -17.931150      -51.460423
 C        26.540142      -16.477558      -54.047619
 H        25.893030      -17.005241      -53.394016
 C        26.265030      -16.446835      -55.421871
 H        25.296543      -16.827925      -55.810204
 C        27.039288      -15.572225      -56.254566
 H        27.014788      -15.569934      -57.392632
 C        28.035242      -14.819919      -55.661434
 H        28.369919      -13.901155      -56.180729
 C        30.239197      -13.388680      -53.937996
 C        30.496931      -12.096529      -53.903072
 H        29.682671      -11.457878      -53.905083
 C        31.772425      -11.631166      -54.191086
 H        31.962559      -10.602381      -54.183884
 C        32.841583      -12.527417      -54.473625
 H        33.838203      -12.134085      -54.674236
 C        32.591450      -13.841604      -54.588276
 H        33.428238      -14.538424      -54.633259
 C        31.317154      -14.257051      -54.297638
 H        31.168863      -15.316756      -54.116711
