206
 generated by VMD
  IR        22.690001        5.800000       46.919998
  C1        25.330000        8.100000       44.430000
  C2        25.670000        6.820000       44.299999
  N1        24.200001        8.140000       45.240002
  C3a       23.830000        6.880000       45.580002
  N2        24.650000        6.090000       44.880001
  C4        24.190001        4.860000       44.650002
  C5a       23.500000        4.270000       45.709999
  C6        23.219999        2.920000       45.770000
  H1        22.620001        2.440000       46.490002
  C7        23.600000        2.140000       44.669998
  H2        23.590000        1.070000       44.750000
  C8        24.160000        2.730000       43.580002
  H3        23.900000        2.270000       42.599998
  C9        24.450001        4.080000       43.540001
  H4        24.820000        4.520000       42.529999
  C10       26.799999        6.460000       43.720001
  H5        27.139999        5.400000       43.869999
  C11       27.750000        7.390000       43.419998
  H6        28.730000        7.000000       43.090000
  C12       27.490000        8.690000       43.700001
  H7        28.080000        9.410000       43.200001
  C13       26.240000        9.070000       44.139999
  H8        25.980000       10.040000       44.439999
  C6        23.879999        9.320000       46.060001
  C1        24.750000        9.640000       47.090000
  H1        25.510000        8.880000       47.340000
  C2        24.809999       10.930000       47.669998
  H2        25.370001       11.100000       48.560001
  C3        23.900000       11.920000       47.150002
  H3        23.980000       12.950000       47.529999
  C4        22.990000       11.580000       46.139999
  H4        22.150000       12.250000       45.930000
  C5        22.940001       10.280000       45.639999
  H5        22.129999       10.050000       44.869999
  C1        19.139999        4.630000       44.619999
  C2        18.760000        4.350000       45.919998
  N1        20.379999        5.220000       44.650002
  C3b       20.920000        5.380000       45.900002
  N2        19.900000        4.820000       46.730000
  C4        20.290001        4.630000       48.040001
  C5b       21.690001        4.430000       48.139999
  C6        22.209999        3.600000       49.169998
  H1        23.280001        3.300000       49.169998
  C7        21.389999        3.150000       50.200001
  H2        21.780001        2.650000       50.970001
  C8        20.040001        3.450000       50.209999
  H3        19.430000        3.220000       51.070000
  C9        19.500000        4.190000       49.119999
  H4        18.420000        4.330000       49.119999
  C10       17.580000        3.730000       46.180000
  H5        17.350000        3.460000       47.259998
  C11       16.780001        3.320000       45.130001
  H6        15.890000        2.750000       45.389999
  C12       17.139999        3.570000       43.779999
  H7        16.719999        2.880000       43.020000
  C13       18.299999        4.310000       43.529999
  H8        18.540001        4.680000       42.529999
  C6        21.000000        5.670000       43.439999
  C1        21.280001        4.730000       42.439999
  H1        21.049999        3.720000       42.680000
  C2        21.500000        5.190000       41.110001
  H2        21.459999        4.510000       40.259998
  C3        21.540001        6.560000       40.849998
  H3        21.690001        6.960000       39.860001
  C4        21.379999        7.460000       41.880001
  H4        21.639999        8.440000       41.720001
  C5        21.080000        7.050000       43.180000
  H5        21.090000        7.750000       44.020000
  C1        21.090000        8.650000       49.810001
  C2        22.350000        8.290000       50.290001
  N1        20.990000        7.930000       48.630001
  C3c       22.059999        7.130000       48.320000
  N2        22.950001        7.430000       49.340000
  C4        24.330000        6.960000       49.130001
  C5c       24.420000        5.940000       48.180000
  C6        25.629999        5.300000       47.970001
  H1        25.629999        4.350000       47.500000
  C7        26.750000        5.730000       48.730000
  H2        27.719999        5.300000       48.590000
  C8        26.660000        6.750000       49.599998
  H3        27.670000        7.040000       49.840000
  C9        25.430000        7.440000       49.799999
  H4        25.370001        8.430000       50.209999
  C10       22.629999        8.820000       51.520000
  H5        23.530001        8.340000       51.889999
  C11       21.840000        9.700000       52.270000
  H6        22.180000        9.900000       53.290001
  C12       20.610001       10.150000       51.720001
  H7        20.240000       11.110000       51.959999
  C13       20.270000        9.550000       50.490002
  H8        19.340000        9.840000       50.070000
  C6        19.680000        7.850000       47.840000
  C1        19.590000        8.180000       46.529999
  H1        20.379999        8.610000       46.000000
  C2        18.299999        8.150000       45.830002
  H2        18.240000        8.740000       44.910000
  C3        17.180000        7.650000       46.610001
  H3        16.260000        7.440000       46.070000
  C4        17.270000        7.430000       47.970001
  H4        16.400000        7.010000       48.470001
  C5        18.540001        7.500000       48.570000
  H5        18.820000        7.130000       49.560001
  IR        26.540001       20.090000       50.959999
  C1        28.700001       20.610001       47.200001
  C2        27.469999       21.200001       46.939999
  N1        28.620001       20.040001       48.480000
  C3a       27.410000       20.360001       49.099998
  N2        26.700001       21.020000       48.110001
  C4        25.230000       21.129999       48.419998
  C5a       24.920000       20.889999       49.799999
  C6        23.629999       21.010000       50.259998
  H1        23.370001       20.629999       51.180000
  C7        22.629999       21.500000       49.410000
  H2        21.610001       21.549999       49.770000
  C8        22.910000       21.660000       48.040001
  H3        22.219999       22.170000       47.400002
  C9        24.160000       21.450001       47.549999
  H4        24.240000       21.469999       46.490002
  C10       27.190001       21.840000       45.619999
  H5        26.209999       22.180000       45.400002
  C11       28.240000       21.959999       44.759998
  H6        27.940001       22.440001       43.849998
  C12       29.459999       21.410000       45.049999
  H7        30.219999       21.530001       44.299999
  C13       29.719999       20.680000       46.240002
  H8        30.719999       20.180000       46.410000
  C6        29.799999       19.340000       48.980000
  C1        30.650000       20.049999       49.820000
  H1        30.370001       20.980000       50.299999
  C2        31.840000       19.400000       50.180000
  H2        32.540001       19.860001       50.849998
  C3        32.180000       18.200001       49.590000
  H3        33.169998       17.820000       49.830002
  C4        31.320000       17.500000       48.779999
  H4        31.639999       16.730000       48.119999
  C5        30.070000       18.049999       48.540001
  H5        29.260000       17.400000       48.299999
  C1        27.240000       24.150000       52.610001
  C2        26.420000       23.549999       53.500000
  N1        27.410000       23.270000       51.560001
  C3b       26.680000       22.010000       51.740002
  N2        26.180000       22.190001       53.029999
  C4        25.360001       21.040001       53.570000
  C5b       25.389999       19.900000       52.750000
  C6        24.709999       18.760000       53.180000
  H1        24.840000       17.820000       52.720001
  C7        24.010000       18.830000       54.410000
  H2        23.389999       17.969999       54.639999
  C8        23.870001       20.049999       55.169998
  H3        23.379999       20.090000       56.070000
  C9        24.610001       21.110001       54.740002
  H4        24.270000       22.030001       54.990002
  C10       26.080000       24.250000       54.689999
  H5        25.360001       23.670000       55.340000
  C11       26.580000       25.459999       54.990002
  H6        26.280001       25.889999       55.930000
  C12       27.299999       26.150000       53.990002
  H7        27.770000       27.090000       54.259998
  C13       27.610001       25.450001       52.779999
  H8        28.000000       26.090000       52.029999
  C6        28.400000       23.620001       50.549999
  C1        29.760000       23.480000       50.830002
  H1        30.129999       23.510000       51.830002
  C2        30.700001       23.610001       49.790001
  H2        31.719999       23.750000       50.029999
  C3        30.340000       23.850000       48.480000
  H3        31.059999       23.980000       47.639999
  C4        28.969999       24.000000       48.209999
  H4        28.559999       24.260000       47.220001
  C5        27.990000       23.910000       49.240002
  H5        26.969999       24.260000       49.110001
  C1        29.950001       18.389999       52.869999
  C2        29.379999       17.330000       52.189999
  N1        29.059999       19.469999       52.790001
  C3c       27.959999       19.100000       52.040001
  N2        28.190001       17.750000       51.660000
  C4        27.240000       17.240000       50.750000
  C5c       26.160000       18.110001       50.360001
  C6        25.030001       17.639999       49.720001
  H1        24.250000       18.309999       49.279999
  C7        24.950001       16.309999       49.360001
  H2        24.120001       16.040001       48.830002
  C8        26.070000       15.460000       49.639999
  H3        25.910000       14.340000       49.610001
  C9        27.160000       15.930000       50.419998
  H4        28.070000       15.370000       50.330002
  C10       30.030001       16.139999       52.320000
  H5        29.480000       15.240000       52.080002
  C11       31.270000       15.970000       52.910000
  H6        31.860001       15.070000       52.860001
  C12       31.889999       17.080000       53.470001
  H7        32.910000       17.030001       53.700001
  C13       31.190001       18.309999       53.580002
  H8        31.670000       19.270000       53.830002
  C6        29.129999       20.500000       53.689999
  C1        28.280001       20.520000       54.790001
  H1        27.770000       19.629999       55.099998
  C2        28.389999       21.559999       55.779999
  H2        27.719999       21.610001       56.639999
  C3        29.430000       22.490000       55.599998
  H3        29.600000       23.190001       56.410000
  C4        30.240000       22.510000       54.490002
  H4        31.080000       23.270000       54.320000
  C5        30.080000       21.520000       53.529999
  H5        30.760000       21.430000       52.700001
