206
 generated by VMD
 Ir      104.565140       52.162033       36.506428
 C       104.175339       55.225754       39.556244
 C       102.891167       54.654625       39.408607
 N       104.992661       54.681862       38.607044
 C       104.263199       53.694641       37.863205
 N       102.986755       53.675255       38.393223
 C       101.993652       52.868294       37.757973
 C       102.462067       52.289864       36.591782
 C       101.506714       51.622528       35.726135
 H       101.923798       51.131111       34.881187
 C       100.152084       51.588207       36.045052
 H        99.496292       50.856499       35.598347
 C        99.656494       52.210815       37.225754
 H        98.664246       51.890312       37.564289
 C       100.584656       52.836311       38.105854
 H       100.247971       53.390457       38.951649
 C       101.869995       54.981232       40.382835
 H       100.907547       54.488823       40.466690
 C       102.171234       55.773182       41.457291
 H       101.681793       55.657768       42.401814
 C       103.444809       56.316414       41.607998
 H       103.715363       56.805061       42.556114
 C       104.405304       56.054955       40.625103
 H       105.395767       56.483276       40.740517
 C       106.168930       55.296402       38.220764
 C       107.348068       54.831490       38.886566
 H       107.226624       54.489151       39.887543
 C       108.640030       55.138046       38.283119
 H       109.577675       54.775742       38.687668
 C       108.744225       55.830437       37.079979
 H       109.700943       56.137070       36.655159
 C       107.576874       56.222069       36.473259
 H       107.682297       56.743393       35.545143
 C       106.307541       56.001534       37.057030
 H       105.433075       56.211624       36.496792
 C       104.573593       48.654362       39.069740
 C       104.726868       48.098240       37.831577
 N       104.267540       49.992649       38.901779
 C       104.321411       50.425903       37.580231
 N       104.625839       49.234612       36.925518
 C       104.727448       49.400528       35.521828
 C       104.502106       50.687843       35.005463
 C       104.202118       50.851639       33.628445
 H       103.688797       51.772850       33.253635
 C       104.285789       49.719902       32.751427
 H       103.868820       49.690544       31.757301
 C       104.691193       48.476692       33.215508
 H       104.863708       47.584183       32.637779
 C       104.913589       48.334988       34.655701
 H       105.271286       47.412720       35.004375
 C       104.856934       46.696312       37.691673
 H       105.019394       46.092323       36.768036
 C       104.757202       45.865654       38.793518
 H       104.912979       44.765972       38.622238
 C       104.608444       46.479900       40.021637
 H       104.684784       45.787659       40.838631
 C       104.489197       47.877159       40.189125
 H       104.456314       48.417137       41.109097
 C       104.214188       50.771935       40.102306
 C       102.990768       50.924446       40.814636
 H       102.101318       50.655571       40.313251
 C       102.960434       51.716545       41.950310
 H       102.091293       52.008537       42.384186
 C       104.172821       52.204899       42.532578
 H       104.217682       52.792526       43.404743
 C       105.342392       52.051254       41.819420
 H       106.183411       52.410828       42.326172
 C       105.379517       51.373146       40.569904
 H       106.008011       51.782448       39.845367
 C       108.931732       52.158638       36.185020
 C       108.496841       52.986118       35.063972
 N       107.749466       51.811222       36.959637
 C       106.609619       52.273796       36.278023
 N       107.115204       52.922913       35.123970
 C       106.043304       53.533184       34.292114
 C       104.846512       53.644985       35.019726
 C       103.941620       54.587372       34.591858
 H       103.018616       54.603874       35.040070
 C       104.253242       55.357491       33.443771
 H       103.597794       56.210091       33.225456
 C       105.369461       55.113224       32.699944
 H       105.501877       55.819336       31.817913
 C       106.272720       54.173172       33.110725
 H       106.871307       53.600185       32.412750
 C       109.383621       53.696396       34.285492
 H       109.040604       54.549068       33.680027
 C       110.697067       53.590874       34.542637
 H       111.331146       53.752663       33.672485
 C       111.174866       52.785484       35.621597
 H       112.203064       52.656887       35.856224
 C       110.317474       52.033295       36.479324
 H       110.644150       51.440880       37.309284
 C       107.873077       50.785225       37.937157
 C       107.749466       49.468407       37.628441
 H       107.560417       49.121574       36.621628
 C       107.984619       48.412170       38.520844
 H       107.982971       47.432365       38.275757
 C       108.365677       48.754040       39.853859
 H       108.378693       47.923531       40.628765
 C       108.502548       50.113831       40.208149
 H       108.927505       50.430359       41.135414
 C       108.308395       51.141037       39.225880
 H       108.830505       52.047348       39.428360
 Ir      104.565140       52.162033       51.052937
 C       101.190559       51.122925       48.314728
 C       102.285645       51.261200       47.455505
 N       101.630280       51.364822       49.593292
 C       103.056236       51.701103       49.660038
 N       103.401413       51.742470       48.291958
 C       104.662399       52.354527       48.078648
 C       105.388443       52.776535       49.213791
 C       106.634521       53.458328       49.029022
 H       107.061172       53.858543       49.973427
 C       107.128464       53.677406       47.770435
 H       107.865532       54.408279       47.641388
 C       106.447495       53.193726       46.686905
 H       106.911652       53.208042       45.713428
 C       105.227615       52.536362       46.825668
 H       104.641052       52.343098       45.971802
 C       102.078537       51.182003       46.048012
 H       102.895813       51.345909       45.341969
 C       100.780426       51.009850       45.534813
 H       100.637291       51.003639       44.458954
 C        99.667145       50.945988       46.388409
 H        98.728775       51.045631       45.907021
 C        99.913445       51.039131       47.764771
 H        99.081879       51.191498       48.363247
 C       100.836823       51.360985       50.828209
 C       100.761765       50.209679       51.608692
 H       101.483704       49.442116       51.492718
 C        99.904297       50.079254       52.709526
 H        99.821884       49.129238       53.208000
 C        99.222015       51.212784       53.129303
 H        99.027023       51.314507       54.198101
 C        99.131866       52.352554       52.357300
 H        98.386490       53.094486       52.583241
 C        99.912796       52.387753       51.168854
 H       100.175583       53.365448       50.861675
 C       106.801956       48.388657       50.877499
 C       107.683945       49.316620       51.446342
 N       105.597366       49.046280       50.638561
 C       105.708572       50.378181       51.009071
 N       107.015549       50.518898       51.593208
 C       107.328674       51.775036       52.103668
 C       106.288925       52.660210       52.190231
 C       106.436813       53.773251       53.013130
 H       105.526283       54.368912       53.065208
 C       107.552536       54.058121       53.758335
 H       107.312851       54.688942       54.593567
 C       108.657562       53.227608       53.579300
 H       109.477463       53.162800       54.229061
 C       108.612411       52.123840       52.706802
 H       109.509842       51.554939       52.624523
 C       108.989769       48.850723       51.725174
 H       109.578117       49.377670       52.489880
 C       109.406067       47.612770       51.228916
 H       110.397781       47.350571       51.360977
 C       108.585121       46.734795       50.608349
 H       108.973358       45.760498       50.490376
 C       107.242538       47.156437       50.485054
 H       106.407974       46.451492       50.152885
 C       104.723969       48.775509       49.456337
 C       105.297623       48.802708       48.228226
 H       106.367981       48.998528       48.298290
 C       104.586960       48.331848       47.125889
 H       105.222931       47.893734       46.349106
 C       103.250916       47.851196       47.329277
 H       102.727478       47.452118       46.517277
 C       102.808044       47.744835       48.615925
 H       101.851074       47.163994       48.827644
 C       103.533096       48.149429       49.719517
 H       103.244820       48.072243       50.696724
 C       102.545364       51.530663       54.866463
 C       102.002335       52.653015       54.457634
 N       103.463013       51.034416       53.849724
 C       103.563644       52.009155       52.855309
 N       102.642014       52.997543       53.213890
 C       102.545280       54.036285       52.282352
 C       103.583466       54.035156       51.327587
 C       103.681015       55.092377       50.420849
 H       104.675446       55.296692       49.978405
 C       102.722763       56.119354       50.448715
 H       102.602310       56.694283       49.520409
 C       101.728714       56.127426       51.423599
 H       100.943878       56.737114       51.254761
 C       101.631378       55.037636       52.360981
 H       100.693810       54.886696       52.898914
 C       100.990723       53.334335       55.169224
 H       100.802536       54.391258       54.968990
 C       100.491180       52.757294       56.314991
 H        99.709824       53.263027       56.910141
 C       101.170258       51.688248       56.864353
 H       101.017029       51.348244       57.874557
 C       102.202599       51.041832       56.085297
 H       102.744019       50.196167       56.461884
 C       104.267944       49.828384       54.011154
 C       103.873001       48.721214       53.300652
 H       102.878555       48.387199       52.952663
 C       104.643234       47.559349       53.483170
 H       104.318161       46.605469       52.974228
 C       105.805542       47.522148       54.296906
 H       106.549454       46.696381       54.282078
 C       106.196136       48.640919       55.032825
 H       106.974869       48.645779       55.848274
 C       105.339554       49.762070       54.964272
 H       105.483734       50.724174       55.509315
