206
 generated by VMD
  IR        52.070000        4.750000       29.910000
  C1        55.509998        3.440000       27.610001
  C2        54.400002        3.350000       26.740000
  N1        55.049999        3.780000       28.850000
  C3a       53.630001        3.980000       28.790001
  N2        53.259998        3.740000       27.480000
  C4        51.869999        3.740000       27.150000
  C5a       51.070000        3.880000       28.270000
  C6        49.639999        3.680000       28.120001
  H1        49.060001        3.870000       28.990000
  C7        49.090000        3.330000       26.889999
  H2        48.040001        3.480000       26.690001
  C8        49.910000        3.150000       25.740000
  H3        49.400002        3.180000       24.770000
  C9        51.310001        3.380000       25.860001
  H4        51.970001        3.170000       25.049999
  C10       54.639999        3.120000       25.330000
  H5        53.889999        3.190000       24.549999
  C11       55.919998        3.060000       24.850000
  H6        56.169998        3.380000       23.860001
  C12       57.009998        3.170000       25.709999
  H7        58.020000        3.290000       25.290001
  C13       56.770000        3.320000       27.080000
  H8        57.619999        3.400000       27.750000
  C6        55.799999        3.560000       29.990000
  C1        56.570000        4.680000       30.440001
  H1        56.919998        5.350000       29.690001
  C2        57.070000        4.660000       31.809999
  H2        57.610001        5.490000       32.250000
  C3        56.790001        3.610000       32.680000
  H3        57.220001        3.540000       33.680000
  C4        56.020000        2.580000       32.200001
  H4        55.810001        1.790000       32.889999
  C5        55.570000        2.530000       30.860001
  H5        54.880001        1.780000       30.570000
  C1        51.610001        8.730000       28.230000
  C2        50.610001        8.700000       29.160000
  N1        52.119999        7.450000       28.110001
  C3b       51.590000        6.540000       29.020000
  N2        50.660000        7.340000       29.680000
  C4        49.950001        6.630000       30.680000
  C5b       50.259998        5.270000       30.850000
  C6        49.349998        4.420000       31.530001
  H1        49.380001        3.310000       31.389999
  C7        48.200001        4.990000       32.169998
  H2        47.349998        4.420000       32.509998
  C8        47.980000        6.360000       32.169998
  H3        47.200001        6.900000       32.680000
  C9        48.900002        7.190000       31.389999
  H4        48.770000        8.230000       31.430000
  C10       49.779999        9.830000       29.350000
  H5        48.950001        9.980000       30.080000
  C11       49.919998       10.950000       28.549999
  H6        49.259998       11.830000       28.780001
  C12       50.950001       10.930000       27.629999
  H7        51.090000       11.880000       27.150000
  C13       51.799999        9.820000       27.430000
  H8        52.660000        9.770000       26.799999
  C6        53.279999        7.320000       27.280001
  C1        53.150002        7.040000       25.889999
  H1        52.209999        6.700000       25.549999
  C2        54.290001        6.880000       25.120001
  H2        54.259998        6.500000       24.180000
  C3        55.580002        7.200000       25.650000
  H3        56.480000        7.120000       25.110001
  C4        55.680000        7.460000       27.000000
  H4        56.650002        7.710000       27.299999
  C5        54.540001        7.480000       27.850000
  H5        54.669998        7.070000       28.799999
  C1        54.209999        6.280000       33.410000
  C2        53.770000        4.950000       33.820000
  N1        53.849998        6.450000       32.009998
  C3c       53.090000        5.340000       31.600000
  N2        53.029999        4.500000       32.740002
  C4        52.299999        3.230000       32.480000
  C5c       52.169998        3.000000       31.100000
  C6        51.970001        1.700000       30.700001
  H1        51.759998        1.530000       29.709999
  C7        51.880001        0.690000       31.690001
  H2        51.889999       -0.350000       31.340000
  C8        51.880001        0.990000       33.020000
  H3        51.820000        0.080000       33.700001
  C9        52.070000        2.280000       33.430000
  H4        51.630001        2.670000       34.340000
  C10       54.180000        4.370000       35.000000
  H5        54.119999        3.280000       35.139999
  C11       54.980000        5.070000       35.820000
  H6        54.880001        4.800000       36.869999
  C12       55.430000        6.380000       35.470001
  H7        56.049999        6.980000       36.090000
  C13       55.060001        7.040000       34.259998
  H8        55.400002        8.010000       33.959999
  C6        53.919998        7.760000       31.459999
  C1        52.900002        8.650000       31.570000
  H1        51.980000        8.420000       32.090000
  C2        52.959999        9.990000       31.160000
  H2        52.240002       10.680000       31.320000
  C3        54.180000       10.440000       30.570000
  H3        54.180000       11.460000       30.070000
  C4        55.259998        9.540000       30.440001
  H4        56.240002        9.850000       30.150000
  C5        55.150002        8.200000       30.940001
  H5        56.080002        7.750000       31.200001
  IR        60.990002       11.110000       20.340000
  C1        56.900002        9.470000       19.600000
  C2        57.040001        9.400000       20.990000
  N1        58.060001       10.000000       19.090000
  C3a       59.060001       10.300000       20.120001
  N2        58.430000        9.800000       21.280001
  C4        59.330002        9.690000       22.370001
  C5a       60.660000       10.120000       22.170000
  C6        61.610001        9.960000       23.230000
  H1        62.650002       10.210000       22.930000
  C7        61.230000        9.420000       24.430000
  H2        61.970001        9.050000       25.070000
  C8        59.919998        9.080000       24.629999
  H3        59.580002        8.820000       25.620001
  C9        58.970001        9.210000       23.620001
  H4        58.020000        8.770000       23.740000
  C10       56.020000        8.770000       21.760000
  H5        56.119999        8.640000       22.840000
  C11       54.910000        8.190000       21.120001
  H6        54.169998        7.670000       21.719999
  C12       54.799999        8.190000       19.719999
  H7        54.060001        7.540000       19.330000
  C13       55.830002        8.810000       19.000000
  H8        55.840000        8.630000       17.980000
  C6        58.389999       10.240000       17.680000
  C1        58.160000       11.490000       17.110001
  H1        58.029999       12.340000       17.730000
  C2        58.299999       11.750000       15.740000
  H2        58.009998       12.710000       15.350000
  C3        58.849998       10.750000       14.950000
  H3        59.459999       11.060000       14.100000
  C4        58.990002        9.450000       15.390000
  H4        59.160000        8.660000       14.680000
  C5        58.700001        9.200000       16.760000
  H5        59.220001        8.370000       17.160000
  C1        59.889999       14.960000       22.139999
  C2        61.250000       14.790000       22.430000
  N1        59.480000       13.860000       21.389999
  C3b       60.540001       12.980000       21.230000
  N2        61.680000       13.620000       21.830000
  C4        62.889999       12.940000       21.730000
  C5b       62.900002       11.860000       20.889999
  C6        64.129997       11.370000       20.459999
  H1        64.019997       10.560000       19.740000
  C7        65.349998       11.890000       20.809999
  H2        66.099998       11.650000       20.080000
  C8        65.349998       12.910000       21.760000
  H3        66.150002       13.560000       21.950001
  C9        64.150002       13.410000       22.299999
  H4        64.250000       14.180000       23.030001
  C10       61.849998       15.790000       23.230000
  H5        62.939999       15.920000       23.170000
  C11       61.049999       16.740000       23.870001
  H6        61.509998       17.389999       24.530001
  C12       59.720001       16.870001       23.660000
  H7        59.290001       17.760000       24.030001
  C13       59.169998       15.960000       22.730000
  H8        58.110001       16.070000       22.320000
  C6        58.130001       13.230000       21.510000
  C1        57.700001       12.890000       22.750000
  H1        58.430000       13.170000       23.510000
  C2        56.369999       12.520000       22.940001
  H2        55.980000       12.780000       23.930000
  C3        55.500000       12.490000       21.799999
  H3        54.490002       12.260000       21.940001
  C4        55.990002       12.970000       20.620001
  H4        55.270000       13.170000       19.760000
  C5        57.290001       13.400000       20.440001
  H5        57.689999       13.780000       19.580000
  C1        61.880001       12.520000       16.309999
  C2        61.990002       11.220000       16.170000
  N1        61.459999       12.830000       17.670000
  C3c       61.470001       11.640000       18.400000
  N2        61.770000       10.640000       17.469999
  C4        61.750000        9.350000       18.010000
  C5c       61.720001        9.330000       19.420000
  C6        61.830002        8.110000       20.090000
  H1        62.209999        8.130000       21.129999
  C7        61.930000        6.920000       19.350000
  H2        61.630001        6.000000       19.870001
  C8        62.000000        6.960000       17.959999
  H3        61.830002        6.090000       17.480000
  C9        61.889999        8.220000       17.270000
  H4        61.630001        8.220000       16.209999
  C10       62.279999       10.590000       14.940000
  H5        62.669998        9.570000       14.930000
  C11       62.380001       11.370000       13.810000
  H6        62.619999       10.920000       12.830000
  C12       62.459999       12.740000       13.960000
  H7        62.799999       13.400000       13.180000
  C13       62.160000       13.320000       15.250000
  H8        62.189999       14.380000       15.410000
  C6        61.290001       14.190000       18.170000
  C1        60.000000       14.630000       18.340000
  H1        59.060001       14.370000       17.820000
  C2        59.849998       15.950000       18.799999
  H2        58.810001       16.379999       18.889999
  C3        60.950001       16.780001       19.139999
  H3        60.860001       17.730000       19.709999
  C4        62.259998       16.340000       18.950001
  H4        63.180000       16.990000       19.000000
  C5        62.410000       15.070000       18.350000
  H5        63.380001       14.580000       18.100000
