206
 generated by VMD
 Ir       74.271049       32.788601       89.954895
 C        71.074295       33.250374       86.946671
 C        71.585037       31.982803       86.779617
 N        71.899734       33.892441       87.981750
 C        72.937859       33.032837       88.408691
 N        72.811417       31.856501       87.602440
 C        73.700317       30.821835       87.854492
 C        74.686073       31.048027       88.818558
 C        75.885757       30.276897       88.892128
 H        76.632561       30.485916       89.618698
 C        76.070000       29.266811       87.930527
 H        76.899750       28.544327       87.990891
 C        75.114395       29.088066       86.932693
 H        75.348480       28.662119       86.007126
 C        73.934532       29.798592       86.898293
 H        73.247498       29.359516       86.224655
 C        70.838867       31.116667       85.909187
 H        71.078735       30.056858       85.940277
 C        69.732239       31.577507       85.145065
 H        69.044174       30.917959       84.702713
 C        69.271408       32.913261       85.331078
 H        68.272728       33.183960       85.029984
 C        69.927376       33.683308       86.246574
 H        69.496597       34.642265       86.421600
 C        71.968628       35.298782       88.233490
 C        72.722794       36.058640       87.291344
 H        73.296051       35.432152       86.552704
 C        72.532623       37.426674       87.329018
 H        73.215103       38.009945       86.767761
 C        71.678688       38.052383       88.218735
 H        71.907776       39.129364       88.426163
 C        70.884636       37.282150       89.134392
 H        70.091553       37.686935       89.830215
 C        71.104469       35.891396       89.174202
 H        70.452057       35.217617       89.718063
 C        72.029495       30.045273       92.568970
 C        73.338074       29.851929       92.894150
 N        72.034187       30.933113       91.504677
 C        73.305405       31.446636       91.231911
 N        74.091522       30.759338       92.114258
 C        75.491577       31.148094       92.104050
 C        75.724548       32.334625       91.432281
 C        76.913551       33.022854       91.660339
 H        77.225876       33.894802       91.135681
 C        77.910217       32.445183       92.416809
 H        78.849930       32.972710       92.486679
 C        77.777557       31.201233       93.020439
 H        78.596054       30.650629       93.362640
 C        76.528702       30.538120       92.759422
 H        76.458755       29.453583       92.745682
 C        73.723618       28.988007       93.905136
 H        74.671204       29.111279       94.453568
 C        72.740349       28.262014       94.642921
 H        73.136612       27.752144       95.491631
 C        71.381561       28.466927       94.366165
 H        70.727928       28.282814       95.188271
 C        71.036125       29.374308       93.330627
 H        69.966736       29.662571       93.189514
 C        70.878242       31.058601       90.583679
 C        70.068481       32.215698       90.526932
 H        70.436462       33.118073       90.986198
 C        68.931915       32.236740       89.745995
 H        68.372650       33.114719       89.579941
 C        68.574913       31.080757       89.067505
 H        67.828583       30.951073       88.233673
 C        69.435013       29.946375       89.047112
 H        69.168396       29.188705       88.280464
 C        70.551529       29.975178       89.838730
 H        71.140686       29.107571       90.031235
 C        73.630798       36.433628       92.277832
 C        74.465485       36.819870       91.217262
 N        73.431702       35.061188       92.072968
 C        74.066658       34.579796       90.950607
 N        74.719131       35.642334       90.390358
 C        75.404442       35.456787       89.189636
 C        75.456268       34.077545       88.775749
 C        76.360626       33.755653       87.789330
 H        76.292297       32.785908       87.411148
 C        77.223190       34.673851       87.210884
 H        78.105957       34.357986       86.586823
 C        77.151611       36.000854       87.569267
 H        77.863289       36.701370       87.189941
 C        76.237183       36.381756       88.570389
 H        76.206055       37.470306       88.825310
 C        75.034866       38.090229       91.357590
 H        75.808159       38.327778       90.613754
 C        74.829361       38.779774       92.605026
 H        75.299202       39.789349       92.642464
 C        73.984909       38.372791       93.612923
 H        74.130722       38.898422       94.561684
 C        73.315666       37.127548       93.439461
 H        72.602341       36.733696       94.191956
 C        72.907249       34.121113       93.079544
 C        71.526855       33.960434       93.167175
 H        70.909760       34.507412       92.508087
 C        70.992531       33.130802       94.145393
 H        69.923149       32.939796       94.003143
 C        71.838081       32.584667       95.154785
 H        71.415657       31.669252       95.703674
 C        73.228584       32.820297       95.045273
 H        73.865097       32.302845       95.837219
 C        73.783371       33.532295       93.961487
 H        74.784256       33.566162       93.762550
 Ir       74.271049       32.788605      103.551987
 C        73.006805       30.729559       99.980011
 C        73.482895       29.724472      100.864624
 N        73.424362       31.874365      100.533966
 C        73.948669       31.728584      101.824982
 N        74.058067       30.360970      101.961594
 C        74.582397       29.879061      103.248283
 C        74.858162       30.879972      104.207916
 C        75.112244       30.472633      105.547623
 H        75.368744       31.173691      106.344147
 C        75.020309       29.201946      105.987167
 H        75.396027       28.877895      106.960175
 C        74.654495       28.228546      105.039085
 H        74.443199       27.173946      105.332138
 C        74.430344       28.542583      103.713478
 H        73.933121       27.823606      103.082573
 C        73.214615       28.377930      100.474434
 H        73.843277       27.623976      100.781929
 C        72.479568       28.058022       99.350800
 H        72.350967       27.006542       99.034958
 C        72.013107       29.049561       98.547569
 H        71.497055       28.804636       97.653770
 C        72.251770       30.422806       98.851097
 H        71.904724       31.148411       98.183609
 C        73.568253       32.955608       99.652481
 C        72.500992       33.616623       99.030060
 H        71.530823       33.229065       99.064499
 C        72.714920       34.679520       98.140915
 H        71.927193       35.175873       97.622620
 C        73.956406       35.122467       97.804626
 H        74.120224       35.716469       96.940437
 C        75.063614       34.565125       98.439575
 H        76.034485       35.087429       98.245621
 C        74.919617       33.494255       99.347366
 H        75.787811       33.121891       99.756355
 C        70.362885       33.027252      105.393990
 C        71.118439       33.408157      106.402481
 N        71.157555       32.594116      104.336929
 C        72.486237       32.726528      104.640228
 N        72.470566       33.247810      105.924408
 C        73.718430       33.649788      106.409943
 C        74.772736       33.606209      105.436111
 C        76.100708       33.832344      105.900085
 H        76.943054       33.584274      105.370728
 C        76.414764       34.021095      107.248360
 H        77.393005       34.252804      107.647797
 C        75.360718       34.003262      108.162788
 H        75.546219       34.411674      109.180717
 C        74.032509       33.775539      107.752632
 H        73.309250       33.671959      108.489502
 C        70.582870       33.708946      107.664856
 H        71.249176       34.022446      108.501907
 C        69.201843       33.519981      107.892838
 H        68.797615       33.822327      108.851158
 C        68.356346       33.232376      106.869980
 H        67.305542       33.031837      107.050781
 C        68.961823       32.986618      105.631844
 H        68.385536       32.807091      104.787994
 C        70.682220       31.722374      103.279892
 C        71.011047       30.397440      103.545059
 H        71.637459       29.957342      104.359695
 C        70.415100       29.465910      102.625061
 H        70.473930       28.423269      102.891800
 C        69.559631       29.867704      101.596504
 H        69.262650       29.074160      100.912262
 C        69.340813       31.237299      101.329422
 H        68.724770       31.484802      100.431129
 C        69.877075       32.200714      102.175797
 H        69.948814       33.178349      101.783249
 C        73.749222       36.733383      101.698715
 C        75.030396       36.392036      101.436066
 N        73.265625       35.756199      102.514893
 C        74.164238       34.738289      102.828796
 N        75.297104       35.173618      102.183411
 C        76.436607       34.395718      102.297386
 C        76.204758       33.056847      102.717575
 C        77.284775       32.111465      102.714882
 H        77.075272       31.026119      102.602036
 C        78.556610       32.456314      102.303375
 H        79.395569       31.810404      102.538818
 C        78.738342       33.783226      101.910477
 H        79.620132       34.124092      101.506424
 C        77.708572       34.721024      101.855583
 H        77.999985       35.711426      101.534973
 C        75.813744       37.278316      100.679840
 H        76.725677       36.968056      100.243698
 C        75.315292       38.531471      100.328201
 H        75.828186       39.275414       99.672478
 C        73.974205       38.925442      100.569847
 H        73.653809       39.911106      100.658829
 C        73.201050       37.992107      101.283867
 H        72.398987       38.496552      101.750366
 C        71.992935       35.959221      103.120903
 C        72.077271       36.601322      104.403519
 H        73.034958       36.450264      104.930893
 C        70.974060       36.927170      105.129082
 H        71.049561       37.290920      106.148926
 C        69.726509       36.633240      104.570572
 H        68.863441       36.657242      105.264137
 C        69.592155       36.098793      103.290916
 H        68.674675       36.171299      102.718674
 C        70.765350       35.683640      102.570457
 H        70.789497       35.350990      101.629997
