206
 generated by VMD
 Ir       46.760818       24.283405       10.407030
 C        50.611343       25.432640       12.112535
 C        49.850006       25.244953       13.203611
 N        49.854317       25.228973       10.988068
 C        48.582027       24.836601       11.256080
 N        48.592030       24.875362       12.640853
 C        47.434120       24.304825       13.317858
 C        46.349197       24.145361       12.455935
 C        45.299667       23.420460       12.978909
 H        44.480568       23.197073       12.362238
 C        45.278622       22.739418       14.241936
 H        44.364685       22.196423       14.466370
 C        46.391220       22.911465       15.090595
 H        46.378826       22.492231       16.054489
 C        47.462006       23.701986       14.644058
 H        48.205582       23.899874       15.342867
 C        50.405010       25.372797       14.475508
 H        49.686665       25.320095       15.279126
 C        51.778557       25.653645       14.599553
 H        52.208176       25.585983       15.529903
 C        52.602730       25.803249       13.475294
 H        53.657047       25.583263       13.611765
 C        51.984894       25.713488       12.236581
 H        52.581043       25.809031       11.324181
 C        50.329876       25.587345        9.756641
 C        51.061539       24.697536        8.953890
 H        51.321396       23.724428        9.387404
 C        51.438011       25.079369        7.643519
 H        52.181808       24.535692        7.036078
 C        50.995644       26.294226        7.186646
 H        51.340797       26.597515        6.211462
 C        50.296005       27.196953        7.932766
 H        49.811790       27.938175        7.421864
 C        49.993828       26.776699        9.241076
 H        49.464199       27.498543        9.929071
 C        46.400154       19.935354       11.019220
 C        45.162594       20.387228       10.531822
 N        47.285610       21.053307       10.888665
 C        46.668015       22.171261       10.434182
 N        45.342270       21.727207       10.126892
 C        44.417057       22.712217        9.552846
 C        44.746178       24.026018        9.879819
 C        43.877373       25.025988        9.362283
 H        43.828598       25.996716        9.789257
 C        42.822224       24.707737        8.555141
 H        42.140160       25.492821        8.246059
 C        42.590061       23.416039        8.157380
 H        41.821701       23.228354        7.393905
 C        43.335251       22.413689        8.678618
 H        43.080833       21.393658        8.333784
 C        44.101234       19.414120       10.500580
 H        43.095787       19.704487       10.231224
 C        44.359005       18.124800       10.931406
 H        43.639282       17.522303       11.308619
 C        45.610046       17.712029       11.272896
 H        45.715851       16.624336       11.540162
 C        46.625233       18.656237       11.391504
 H        47.440826       18.518192       12.117971
 C        48.564453       20.988026       11.625347
 C        48.564034       20.546692       12.947666
 H        47.716545       19.998257       13.388557
 C        49.599632       20.934303       13.794890
 H        49.761215       20.447411       14.771120
 C        50.640667       21.740469       13.391603
 H        51.510155       21.725508       14.106003
 C        50.662518       22.128080       12.047959
 H        51.489624       22.644556       11.662414
 C        49.619213       21.746929       11.190788
 H        49.481327       22.133181       10.130836
 C        47.400043       25.210613        6.120602
 C        47.259331       26.405409        6.673830
 N        47.294449       24.212343        7.192800
 C        46.945198       24.780159        8.375004
 N        46.963409       26.126942        8.039219
 C        46.499653       26.974926        9.089911
 C        46.414310       26.379568       10.367903
 C        45.912071       27.116711       11.466893
 H        46.142551       26.701897       12.466748
 C        45.426498       28.433910       11.280871
 H        45.229889       29.028927       12.121226
 C        45.423397       29.001387       10.002997
 H        45.087631       30.011557        9.732775
 C        45.935616       28.261185        8.884234
 H        45.856026       28.703197        7.915891
 C        47.577507       27.462502        5.957788
 H        47.585800       28.374748        6.523771
 C        48.016006       27.461140        4.662172
 H        47.978569       28.298244        4.058554
 C        48.131729       26.244925        4.044010
 H        48.177185       26.171482        2.975813
 C        47.804623       25.130371        4.830184
 H        47.674393       24.250084        4.319070
 C        47.281876       22.794840        6.915260
 C        46.114647       22.263063        6.388017
 H        45.141727       22.763220        6.340316
 C        46.071880       20.941105        6.055160
 H        45.204315       20.609934        5.506560
 C        47.149765       20.083939        6.352712
 H        47.286167       19.115250        5.989896
 C        48.278732       20.611975        6.977536
 H        49.083378       19.990437        7.297906
 C        48.379936       21.963175        7.173533
 H        49.143707       22.287205        7.898418
 Ir       46.760818       24.283405       20.450985
 C        49.741001       27.279234       21.375660
 C        50.237015       26.576433       20.333960
 N        48.713310       26.538692       21.861506
 C        48.364693       25.428219       21.068401
 N        49.458015       25.381298       20.161018
 C        49.370918       24.340527       19.150322
 C        48.276093       23.527903       19.239182
 C        48.169891       22.451431       18.350798
 H        47.374306       21.725847       18.385086
 C        49.102516       22.235863       17.317577
 H        48.791164       21.491581       16.572594
 C        50.244785       23.073648       17.208317
 H        50.779961       23.147430       16.298843
 C        50.418430       24.051178       18.151123
 H        51.463768       24.404449       18.194344
 C        51.484428       27.114330       19.707195
 H        51.992393       26.608055       18.974903
 C        51.903450       28.408409       20.052267
 H        52.846695       28.746719       19.702354
 C        51.305672       29.143511       21.093224
 H        51.782768       30.041817       21.447943
 C        50.189182       28.613775       21.774708
 H        49.666214       29.171051       22.471304
 C        48.182205       26.787239       23.168203
 C        48.464912       25.923273       24.137501
 H        49.072731       25.016466       23.942429
 C        47.810799       25.869553       25.383354
 H        47.902561       24.974985       26.008121
 C        46.845688       26.866463       25.672365
 H        46.371704       26.921545       26.628195
 C        46.583572       27.794010       24.647987
 H        45.837563       28.568893       24.844284
 C        47.207314       27.768509       23.444578
 H        47.298740       28.767799       23.007359
 C        45.260723       26.397928       16.913542
 C        44.681103       25.169472       16.785734
 N        46.075188       26.405069       18.046852
 C        46.070404       25.207212       18.710266
 N        45.179890       24.381329       17.968716
 C        44.879951       23.082489       18.463341
 C        45.385422       22.818642       19.720276
 C        44.972740       21.623505       20.379627
 H        45.404640       21.290295       21.296598
 C        44.080597       20.720779       19.750294
 H        43.921761       19.727608       20.263798
 C        43.546402       21.057728       18.472601
 H        42.836174       20.532413       17.947510
 C        44.019836       22.192682       17.777378
 H        44.036770       22.223963       16.688690
 C        43.734734       25.003887       15.792419
 H        43.088333       24.145361       15.725365
 C        43.468681       26.019497       14.828288
 H        42.780006       25.926674       14.004391
 C        44.003555       27.289434       14.947316
 H        43.634392       28.081320       14.339994
 C        44.933922       27.498882       16.001621
 H        45.501015       28.443769       16.015270
 C        47.098915       27.494461       18.192822
 C        47.978706       27.683506       17.222029
 H        48.087112       26.974245       16.496426
 C        48.838158       28.772900       17.123220
 H        49.538803       28.759640       16.280416
 C        48.783531       29.732407       18.130573
 H        49.346607       30.631737       17.926720
 C        47.819267       29.578384       19.139271
 H        47.484009       30.340008       19.833271
 C        47.036785       28.441730       19.157818
 H        46.204960       28.432549       19.765917
 C        43.673790       25.250732       23.258942
 C        44.355312       24.185143       23.828629
 N        44.237808       25.418358       22.076408
 C        45.306160       24.660816       21.822704
 N        45.350426       23.901234       22.974087
 C        46.663250       23.216793       23.232033
 C        47.437046       23.092010       22.059057
 C        48.625980       22.340588       22.108044
 H        49.009636       22.241983       21.133575
 C        49.026123       21.764950       23.294308
 H        49.937248       21.192032       23.392876
 C        48.236710       21.845871       24.430780
 H        48.514610       21.380737       25.361225
 C        47.047157       22.552753       24.413668
 H        46.674129       22.818642       25.418180
 C        43.935135       23.708788       25.131561
 H        44.302826       22.914185       25.687988
 C        42.818420       24.273544       25.780104
 H        42.486588       23.935234       26.772490
 C        42.215778       25.433319       25.230606
 H        41.245071       25.727428       25.610386
 C        42.592262       25.865473       23.952913
 H        42.128246       26.757999       23.484423
 C        43.700199       26.384668       21.169926
 C        43.835312       27.789589       21.344387
 H        44.270744       28.262884       22.249588
 C        43.400066       28.717819       20.374102
 H        43.354382       29.692627       20.690741
 C        42.855087       28.199982       19.213137
 H        42.388073       28.835461       18.479469
 C        42.750145       26.892982       19.028637
 H        42.130363       26.603294       18.244701
 C        43.215347       25.980736       19.955940
 H        43.065250       24.996407       19.794800
