206
 generated by VMD
  IR        47.180000        7.960000       61.360001
  C1        43.650002        6.990000       63.759998
  C2        44.689999        6.780000       64.610001
  N1        44.139999        7.480000       62.580002
  C3a       45.540001        7.590000       62.630001
  N2        45.880001        7.080000       63.919998
  C4        47.189999        7.210000       64.239998
  C5a       48.130001        7.330000       63.180000
  C6        49.450001        7.440000       63.459999
  H1        50.209999        7.410000       62.680000
  C7        49.930000        7.610000       64.769997
  H2        50.970001        7.830000       65.010002
  C8        49.029999        7.520000       65.830002
  H3        49.389999        7.400000       66.820000
  C9        47.689999        7.320000       65.580002
  H4        47.060001        7.680000       66.430000
  C10       44.419998        6.280000       65.900002
  H5        45.189999        6.040000       66.660004
  C11       43.099998        6.020000       66.309998
  H6        42.880001        5.700000       67.300003
  C12       42.000000        6.310000       65.430000
  H7        41.049999        6.090000       65.870003
  C13       42.270000        6.760000       64.190002
  H8        41.419998        7.100000       63.619999
  C6        43.330002        7.910000       61.459999
  C1        43.200001        7.090000       60.290001
  H1        43.619999        6.100000       60.290001
  C2        42.279999        7.460000       59.270000
  H2        42.180000        6.900000       58.380001
  C3        41.389999        8.510000       59.470001
  H3        40.560001        8.680000       58.779999
  C4        41.509998        9.300000       60.630001
  H4        40.869999       10.180000       60.730000
  C5        42.540001        9.040000       61.590000
  H5        42.790001        9.840000       62.270000
  C1        48.090000       12.030000       62.680000
  C2        48.910000       11.840000       61.599998
  N1        47.330002       10.850000       62.910000
  C3b       47.650002        9.930000       61.869999
  N2        48.580002       10.570000       61.049999
  C4        49.180000        9.720000       60.020000
  C5b       49.000000        8.400000       60.330002
  C6        49.740002        7.450000       59.590000
  H1        49.580002        6.430000       59.880001
  C7        50.689999        7.780000       58.619999
  H2        51.020000        7.030000       57.910000
  C8        50.939999        9.170000       58.310001
  H3        51.740002        9.320000       57.610001
  C9        50.110001       10.140000       59.000000
  H4        49.959999       11.180000       58.810001
  C10       49.860001       12.770000       61.270000
  H5        50.669998       12.330000       60.669998
  C11       49.980000       13.910000       61.970001
  H6        50.689999       14.640000       61.669998
  C12       49.209999       14.210000       63.090000
  H7        49.480000       15.050000       63.779999
  C13       48.200001       13.290000       63.430000
  H8        47.439999       13.570000       64.110001
  C6        46.619999       10.580000       64.180000
  C1        47.470001       10.560000       65.269997
  H1        48.540001       10.540000       65.040001
  C2        46.970001       10.620000       66.559998
  H2        47.549999       11.030000       67.320000
  C3        45.580002       10.590000       66.769997
  H3        45.169998       10.760000       67.769997
  C4        44.720001       10.530000       65.660004
  H4        43.650002       10.710000       65.790001
  C5        45.259998       10.530000       64.309998
  H5        44.709999       10.500000       63.360001
  C1        45.290001        8.800000       57.439999
  C2        45.610001        7.490000       57.360001
  N1        45.770000        9.260000       58.619999
  C3c       46.340000        8.270000       59.470001
  N2        46.290001        7.140000       58.630001
  C4        46.700001        5.930000       59.220001
  C5c       46.910000        6.020000       60.570000
  C6        47.099998        4.840000       61.349998
  H1        47.320000        4.860000       62.400002
  C7        47.139999        3.620000       60.660000
  H2        47.240002        2.700000       61.180000
  C8        47.029999        3.590000       59.279999
  H3        47.130001        2.650000       58.779999
  C9        46.840000        4.740000       58.549999
  H4        46.830002        4.670000       57.480000
  C10       45.200001        6.770000       56.169998
  H5        45.529999        5.790000       56.060001
  C11       44.360001        7.320000       55.279999
  H6        44.049999        6.740000       54.410000
  C12       43.919998        8.640000       55.430000
  H7        43.490002        9.190000       54.580002
  C13       44.419998        9.370000       56.500000
  H8        44.000000       10.370000       56.639999
  C6        45.810001       10.670000       58.980000
  C1        44.779999       11.160000       59.849998
  H1        44.430000       10.410000       60.509998
  C2        44.740002       12.550000       60.119999
  H2        43.959999       13.010000       60.720001
  C3        45.759998       13.370000       59.540001
  H3        45.680000       14.450000       59.770000
  C4        46.840000       12.840000       58.790001
  H4        47.709999       13.420000       58.549999
  C5        46.779999       11.500000       58.430000
  H5        47.389999       11.140000       57.660000
  IR        35.880001        7.680000       59.369999
  C1        38.490002        8.710000       62.799999
  C2        38.230000        9.900000       62.090000
  N1        37.919998        7.750000       61.970001
  C3a       37.240002        8.270000       60.810001
  N2        37.400002        9.610000       60.990002
  C4        36.540001       10.480000       60.160000
  C5a       35.459999        9.770000       59.509998
  C6        34.410000       10.490000       58.860001
  H1        33.820000        9.990000       58.160000
  C7        34.419998       11.890000       58.840000
  H2        33.619999       12.440000       58.380001
  C8        35.529999       12.540000       59.360001
  H3        35.610001       13.680000       59.230000
  C9        36.599998       11.880000       59.980000
  H4        37.570000       12.430000       59.959999
  C10       38.759998       11.070000       62.590000
  H5        38.480000       12.020000       62.209999
  C11       39.639999       11.090000       63.709999
  H6        40.009998       12.050000       64.089996
  C12       39.869999        9.920000       64.449997
  H7        40.340000       10.050000       65.349998
  C13       39.290001        8.770000       63.930000
  H8        39.680000        7.840000       64.349998
  C6        38.500000        6.430000       62.009998
  C1        38.230000        5.660000       63.169998
  H1        37.410000        5.930000       63.810001
  C2        38.889999        4.410000       63.310001
  H2        38.610001        3.720000       64.089996
  C3        39.599998        3.880000       62.230000
  H3        39.939999        2.810000       62.259998
  C4        39.849998        4.580000       61.020000
  H4        40.090000        4.100000       60.049999
  C5        39.290001        5.880000       60.970001
  H5        39.470001        6.470000       60.060001
  C1        32.189999        7.140000       61.580002
  C2        31.770000        7.140000       60.279999
  N1        33.549999        7.370000       61.660000
  C3b       34.080002        7.450000       60.389999
  N2        32.950001        7.370000       59.560001
  C4        33.119999        7.410000       58.180000
  C5b       34.470001        7.390000       57.790001
  C6        34.840000        7.120000       56.450001
  H1        35.880001        7.240000       56.169998
  C7        33.849998        6.900000       55.500000
  H2        34.060001        6.820000       54.430000
  C8        32.500000        7.060000       55.860001
  H3        31.709999        7.090000       55.110001
  C9        32.080002        7.280000       57.150002
  H4        31.070000        7.600000       57.330002
  C10       30.379999        6.830000       59.970001
  H5        29.870001        7.200000       59.060001
  C11       29.469999        6.430000       61.020000
  H6        28.559999        5.870000       60.810001
  C12       29.940001        6.600000       62.340000
  H7        29.250000        6.500000       63.130001
  C13       31.219999        6.970000       62.590000
  H8        31.590000        6.890000       63.650002
  C6        34.099998        8.160000       62.700001
  C1        34.310001        9.580000       62.580002
  H1        33.919998       10.110000       61.720001
  C2        35.150002       10.250000       63.540001
  H2        35.450001       11.270000       63.480000
  C3        35.750000        9.510000       64.570000
  H3        36.650002        9.810000       65.120003
  C4        35.470001        8.130000       64.690002
  H4        35.939999        7.540000       65.410004
  C5        34.680000        7.450000       63.750000
  H5        34.509998        6.370000       63.869999
  C1        37.389999        3.560000       58.950001
  C2        37.910000        4.270000       57.869999
  N1        36.590000        4.490000       59.709999
  C3c       36.580002        5.760000       59.090000
  N2        37.459999        5.650000       58.040001
  C4        38.110001        6.840000       57.610001
  C5c       37.410000        7.980000       57.900002
  C6        37.849998        9.170000       57.380001
  H1        37.209999       10.070000       57.410000
  C7        39.000000        9.290000       56.630001
  H2        39.330002       10.240000       56.410000
  C8        39.709999        8.180000       56.360001
  H3        40.590000        8.200000       55.700001
  C9        39.310001        6.960000       56.900002
  H4        39.930000        6.090000       56.900002
  C10       38.810001        3.650000       57.000000
  H5        39.220001        4.100000       56.080002
  C11       39.160000        2.350000       57.330002
  H6        39.919998        1.940000       56.669998
  C12       38.599998        1.630000       58.380001
  H7        39.110001        0.740000       58.779999
  C13       37.709999        2.270000       59.230000
  H8        37.139999        1.800000       60.000000
  C6        35.570000        3.890000       60.509998
  C1        34.240002        4.210000       60.220001
  H1        34.009998        4.730000       59.270000
  C2        33.279999        3.900000       61.209999
  H2        32.310001        3.920000       60.860001
  C3        33.590000        3.370000       62.439999
  H3        32.779999        3.200000       63.209999
  C4        34.900002        3.060000       62.770000
  H4        35.060001        2.390000       63.619999
  C5        35.930000        3.290000       61.759998
  H5        36.830002        2.760000       61.880001
